{"type": "FeatureCollection", "features": [
{"type": "Feature", "properties": {"CD_SETOR": "210150905000001", "CD_SIT": "1", "NM_DIST": "Barão de Grajaú", "NM_SUBDIST": null}, "geometry": {"type": "Polygon", "coordinates": [[[-43.0291, -6.755165], [-43.02422, -6.755621], [-43.02414, -6.756623], [-43.02439, -6.758186], [-43.02348, -6.762377], [-43.02862, -6.762836], [-43.02843, -6.760423], [-43.02859, -6.760302], [-43.02862, -6.758641], [-43.02873, -6.758671], [-43.02896, -6.75821], [-43.02935, -6.756678], [-43.03005, -6.75508], [-43.0291, -6.755165]]]}}, 
{"type": "Feature", "properties": {"CD_SETOR": "210150905000002", "CD_SIT": "1", "NM_DIST": "Barão de Grajaú", "NM_SUBDIST": null}, "geometry": {"type": "Polygon", "coordinates": [[[-43.02658, -6.750339], [-43.02683, -6.751966], [-43.02741, -6.753805], [-43.02765, -6.755292], [-43.0291, -6.755165], [-43.02923, -6.753192], [-43.02939, -6.75313], [-43.02956, -6.74992], [-43.02803, -6.749997], [-43.02658, -6.750339]]]}}, 
{"type": "Feature", "properties": {"CD_SETOR": "210150905000003", "CD_SIT": "1", "NM_DIST": "Barão de Grajaú", "NM_SUBDIST": null}, "geometry": {"type": "Polygon", "coordinates": [[[-43.02147, -6.755414], [-43.02114, -6.757048], [-43.02145, -6.757277], [-43.02358, -6.757447], [-43.02434, -6.75737], [-43.02415, -6.756353], [-43.02464, -6.752247], [-43.02173, -6.752587], [-43.02145, -6.752138], [-43.02165, -6.75378], [-43.02147, -6.755414]]]}}, 
{"type": "Feature", "properties": {"CD_SETOR": "210150905000004", "CD_SIT": "1", "NM_DIST": "Barão de Grajaú", "NM_SUBDIST": null}, "geometry": {"type": "Polygon", "coordinates": [[[-43.01121, -6.76005], [-43.01429, -6.760931], [-43.01942, -6.761902], [-43.02348, -6.762377], [-43.02423, -6.759174], [-43.02434, -6.75737], [-43.02358, -6.757447], [-43.02145, -6.757277], [-43.02111, -6.758295], [-43.01479, -6.756798], [-43.01319, -6.756227], [-43.01121, -6.76005]]]}}, 
{"type": "Feature", "properties": {"CD_SETOR": "210150905000005", "CD_SIT": "1", "NM_DIST": "Barão de Grajaú", "NM_SUBDIST": null}, "geometry": {"type": "Polygon", "coordinates": [[[-43.03232, -6.75219], [-43.03325, -6.754258], [-43.03331, -6.754821], [-43.03483, -6.754695], [-43.03502, -6.756952], [-43.03541, -6.756966], [-43.03552, -6.758102], [-43.03489, -6.758224], [-43.03495, -6.760916], [-43.03515, -6.762689], [-43.04791, -6.76195], [-43.04833, -6.761796], [-43.04784, -6.760678], [-43.04721, -6.76061], [-43.0466, -6.759364], [-43.04686, -6.75852], [-43.04662, -6.756783], [-43.04628, -6.756329], [-43.04576, -6.756031], [-43.04558, -6.755156], [-43.04471, -6.753289], [-43.04397, -6.752089], [-43.0442, -6.750396], [-43.0438, -6.748286], [-43.03232, -6.75219]]]}}, 
{"type": "Feature", "properties": {"CD_SETOR": "210150905000006", "CD_SIT": "1", "NM_DIST": "Barão de Grajaú", "NM_SUBDIST": null}, "geometry": {"type": "Polygon", "coordinates": [[[-43.01898, -6.752158], [-43.01912, -6.752845], [-43.0191, -6.755143], [-43.02147, -6.755414], [-43.02165, -6.75378], [-43.02145, -6.752138], [-43.02173, -6.752587], [-43.02464, -6.752247], [-43.02512, -6.747616], [-43.02301, -6.737895], [-43.01732, -6.737526], [-43.01727, -6.743102], [-43.01747, -6.745069], [-43.01811, -6.748789], [-43.01898, -6.752158]]]}}, 
{"type": "Feature", "properties": {"CD_SETOR": "210150905000007", "CD_SIT": "1", "NM_DIST": "Barão de Grajaú", "NM_SUBDIST": null}, "geometry": {"type": "Polygon", "coordinates": [[[-43.02939, -6.75313], [-43.02923, -6.753192], [-43.0291, -6.755165], [-43.03005, -6.75508], [-43.02935, -6.756678], [-43.02896, -6.75821], [-43.02873, -6.758671], [-43.02862, -6.758641], [-43.02859, -6.760302], [-43.02843, -6.760423], [-43.02862, -6.762836], [-43.0308, -6.762969], [-43.03515, -6.762689], [-43.03495, -6.760916], [-43.03489, -6.758224], [-43.03552, -6.758102], [-43.03541, -6.756966], [-43.03502, -6.756952], [-43.03483, -6.754695], [-43.03331, -6.754821], [-43.03325, -6.754258], [-43.03232, -6.75219], [-43.02939, -6.75313]]]}}, 
{"type": "Feature", "properties": {"CD_SETOR": "210150905000008", "CD_SIT": "1", "NM_DIST": "Barão de Grajaú", "NM_SUBDIST": null}, "geometry": {"type": "Polygon", "coordinates": [[[-43.00933, -6.739429], [-43.01096, -6.7431], [-43.01239, -6.747757], [-43.01323, -6.749472], [-43.01307, -6.749513], [-43.0134, -6.750432], [-43.01465, -6.752456], [-43.01491, -6.752793], [-43.01569, -6.75246], [-43.01509, -6.750711], [-43.01452, -6.749758], [-43.01516, -6.749578], [-43.01674, -6.751845], [-43.01898, -6.752158], [-43.01811, -6.748789], [-43.01747, -6.745069], [-43.01727, -6.743102], [-43.01732, -6.737526], [-43.01253, -6.737924], [-43.00933, -6.739429]]]}}, 
{"type": "Feature", "properties": {"CD_SETOR": "210150905000009", "CD_SIT": "8", "NM_DIST": "Barão de Grajaú", "NM_SUBDIST": null}, "geometry": {"type": "Polygon", "coordinates": [[[-43.18187, -6.705419], [-43.17254, -6.7086], [-43.17145, -6.708643], [-43.17031, -6.708168], [-43.16513, -6.704544], [-43.1637, -6.704437], [-43.15275, -6.706962], [-43.14943, -6.709493], [-43.14555, -6.713418], [-43.13603, -6.718599], [-43.13473, -6.718911], [-43.13255, -6.718647], [-43.12483, -6.717111], [-43.12268, -6.716837], [-43.075, -6.736185], [-43.04975, -6.746194], [-43.0438, -6.748286], [-43.0442, -6.750396], [-43.04397, -6.752089], [-43.04471, -6.753289], [-43.04558, -6.755156], [-43.04576, -6.756031], [-43.04628, -6.756329], [-43.04662, -6.756783], [-43.04686, -6.75852], [-43.0466, -6.759364], [-43.04721, -6.76061], [-43.04784, -6.760678], [-43.04833, -6.761796], [-43.05274, -6.760203], [-43.05739, -6.757632], [-43.0609, -6.754575], [-43.06408, -6.750846], [-43.06522, -6.749979], [-43.076, -6.749091], [-43.08123, -6.748946], [-43.0835, -6.74929], [-43.0872, -6.750803], [-43.08829, -6.751742], [-43.08993, -6.753556], [-43.09359, -6.758165], [-43.09633, -6.760834], [-43.09819, -6.763794], [-43.09911, -6.765638], [-43.10122, -6.767967], [-43.10498, -6.770248], [-43.10962, -6.77214], [-43.11285, -6.774033], [-43.11588, -6.775197], [-43.11993, -6.776168], [-43.12364, -6.777284], [-43.12755, -6.779467], [-43.13156, -6.78136], [-43.13493, -6.782524], [-43.13772, -6.782136], [-43.14001, -6.782476], [-43.14426, -6.783397], [-43.14759, -6.783689], [-43.15091, -6.782961], [-43.15394, -6.781457], [-43.16396, -6.773839], [-43.16879, -6.771073], [-43.17436, -6.768647], [-43.17827, -6.767336], [-43.19298, -6.766269], [-43.19635, -6.765832], [-43.20183, -6.765396], [-43.20784, -6.764425], [-43.21922, -6.763843], [-43.22655, -6.764231], [-43.23188, -6.764765], [-43.24009, -6.766269], [-43.24483, -6.766948], [-43.2479, -6.767676], [-43.25005, -6.768647], [-43.25147, -6.770151], [-43.2521, -6.769785], [-43.25311, -6.768606], [-43.25519, -6.767958], [-43.2564, -6.767293], [-43.25733, -6.766318], [-43.25759, -6.764716], [-43.25723, -6.763804], [-43.25928, -6.762133], [-43.26024, -6.760844], [-43.26241, -6.760263], [-43.26483, -6.759162], [-43.26566, -6.758019], [-43.26711, -6.758955], [-43.27007, -6.756328], [-43.27125, -6.757316], [-43.27266, -6.756668], [-43.27362, -6.755219], [-43.2733, -6.7536], [-43.27461, -6.752386], [-43.27647, -6.753405], [-43.27801, -6.754537], [-43.28007, -6.754513], [-43.28165, -6.757236], [-43.28454, -6.758196], [-43.28793, -6.758366], [-43.29128, -6.756968], [-43.29229, -6.754744], [-43.2954, -6.75189], [-43.29721, -6.749896], [-43.29701, -6.746074], [-43.29918, -6.744984], [-43.30086, -6.745977], [-43.30155, -6.741325], [-43.30327, -6.740859], [-43.30394, -6.73826], [-43.30736, -6.739296], [-43.30721, -6.73066], [-43.3073, -6.724349], [-43.30389, -6.718928], [-43.30442, -6.718547], [-43.30463, -6.716608], [-43.30509, -6.715889], [-43.30465, -6.714928], [-43.30565, -6.712834], [-43.30568, -6.711921], [-43.30535, -6.711042], [-43.30622, -6.708081], [-43.30543, -6.705749], [-43.30745, -6.701375], [-43.30682, -6.700545], [-43.30825, -6.698679], [-43.30802, -6.696026], [-43.30865, -6.694672], [-43.30785, -6.693716], [-43.30805, -6.68937], [-43.30743, -6.688531], [-43.3076, -6.687376], [-43.30867, -6.685037], [-43.30875, -6.683724], [-43.30965, -6.683459], [-43.30994, -6.68163], [-43.30948, -6.679914], [-43.30973, -6.679113], [-43.31044, -6.679065], [-43.31112, -6.677751], [-43.31235, -6.676919], [-43.31282, -6.675413], [-43.31939, -6.67186], [-43.32142, -6.671461], [-43.3249, -6.672869], [-43.32782, -6.671168], [-43.33081, -6.66798], [-43.33296, -6.666193], [-43.33205, -6.660848], [-43.33103, -6.656379], [-43.33381, -6.650378], [-43.31683, -6.657409], [-43.31623, -6.657813], [-43.31587, -6.65827], [-43.31337, -6.663883], [-43.29948, -6.678153], [-43.29731, -6.679484], [-43.28943, -6.683268], [-43.28868, -6.683217], [-43.28533, -6.681694], [-43.28429, -6.681886], [-43.28087, -6.684279], [-43.27107, -6.688589], [-43.27024, -6.688778], [-43.25718, -6.687923], [-43.25621, -6.68821], [-43.23909, -6.695858], [-43.23799, -6.696092], [-43.23396, -6.695573], [-43.23297, -6.695862], [-43.23216, -6.696468], [-43.23085, -6.698614], [-43.21891, -6.709099], [-43.21831, -6.709516], [-43.2142, -6.711254], [-43.21163, -6.71216], [-43.19804, -6.710466], [-43.19711, -6.710035], [-43.19643, -6.709355], [-43.19543, -6.707473], [-43.19441, -6.706398], [-43.19343, -6.705449], [-43.1924, -6.704967], [-43.18187, -6.705419]]]}}, 
{"type": "Feature", "properties": {"CD_SETOR": "210150905000010", "CD_SIT": "5", "NM_DIST": "Barão de Grajaú", "NM_SUBDIST": null}, "geometry": {"type": "Polygon", "coordinates": [[[-43.25147, -6.770151], [-43.25274, -6.77214], [-43.25533, -6.776895], [-43.2568, -6.779127], [-43.26237, -6.785193], [-43.2652, -6.787182], [-43.27126, -6.792568], [-43.27346, -6.793684], [-43.27976, -6.795964], [-43.28048, -6.792361], [-43.28255, -6.776822], [-43.25589, -6.767573], [-43.25519, -6.767958], [-43.25311, -6.768606], [-43.2521, -6.769785], [-43.25147, -6.770151]]]}}, 
{"type": "Feature", "properties": {"CD_SETOR": "210150905000013", "CD_SIT": "8", "NM_DIST": "Barão de Grajaú", "NM_SUBDIST": null}, "geometry": {"type": "Polygon", "coordinates": [[[-43.24121, -6.365411], [-43.21041, -6.378324], [-43.21217, -6.380019], [-43.21356, -6.380814], [-43.21392, -6.381514], [-43.21559, -6.382308], [-43.21725, -6.382611], [-43.2206, -6.382289], [-43.22391, -6.382498], [-43.22587, -6.383704], [-43.22804, -6.385387], [-43.22876, -6.386201], [-43.22938, -6.387949], [-43.22923, -6.389476], [-43.22868, -6.390442], [-43.22832, -6.392853], [-43.22828, -6.394364], [-43.22789, -6.396049], [-43.22809, -6.397816], [-43.22789, -6.398535], [-43.22742, -6.399232], [-43.22701, -6.40082], [-43.22705, -6.401643], [-43.22728, -6.402281], [-43.23121, -6.404811], [-43.23232, -6.405724], [-43.23232, -6.406332], [-43.23294, -6.407508], [-43.2364, -6.412044], [-43.23674, -6.412152], [-43.23768, -6.411793], [-43.23901, -6.412056], [-43.24056, -6.411611], [-43.24463, -6.412007], [-43.24419, -6.413728], [-43.24377, -6.414467], [-43.24379, -6.41531], [-43.24405, -6.415876], [-43.24435, -6.416137], [-43.24516, -6.416227], [-43.24563, -6.416923], [-43.24656, -6.417694], [-43.2466, -6.418101], [-43.24789, -6.420257], [-43.24904, -6.422694], [-43.24911, -6.424414], [-43.24981, -6.427213], [-43.24997, -6.427551], [-43.25087, -6.428319], [-43.25136, -6.429687], [-43.25118, -6.430881], [-43.25018, -6.432098], [-43.24939, -6.43349], [-43.24924, -6.435588], [-43.25059, -6.437253], [-43.25078, -6.438131], [-43.25128, -6.438652], [-43.25188, -6.438788], [-43.25338, -6.439657], [-43.25452, -6.440971], [-43.25483, -6.441737], [-43.25422, -6.443829], [-43.25425, -6.44444], [-43.25455, -6.445343], [-43.25603, -6.445234], [-43.2564, -6.445422], [-43.25717, -6.44673], [-43.25763, -6.447038], [-43.2582, -6.447235], [-43.25956, -6.447217], [-43.25973, -6.448364], [-43.2603, -6.449166], [-43.26225, -6.450728], [-43.26221, -6.453344], [-43.26619, -6.45219], [-43.26721, -6.452315], [-43.26779, -6.451982], [-43.26879, -6.451752], [-43.26922, -6.451887], [-43.26971, -6.451814], [-43.27112, -6.452196], [-43.2718, -6.453146], [-43.27227, -6.454763], [-43.27304, -6.455601], [-43.27549, -6.455286], [-43.27815, -6.457729], [-43.27837, -6.458253], [-43.27911, -6.458882], [-43.27975, -6.46039], [-43.28005, -6.46184], [-43.27997, -6.463476], [-43.28169, -6.463811], [-43.28231, -6.463637], [-43.28351, -6.463783], [-43.28454, -6.464674], [-43.28473, -6.463491], [-43.28552, -6.462953], [-43.28595, -6.462206], [-43.28712, -6.461332], [-43.28792, -6.459938], [-43.28865, -6.459215], [-43.28907, -6.457392], [-43.28902, -6.456201], [-43.28874, -6.455277], [-43.28847, -6.454875], [-43.28737, -6.454557], [-43.28706, -6.453611], [-43.28615, -6.453155], [-43.28614, -6.452094], [-43.28494, -6.449976], [-43.28478, -6.449192], [-43.28516, -6.447344], [-43.28572, -6.445693], [-43.28528, -6.444354], [-43.28583, -6.442648], [-43.28629, -6.44042], [-43.28697, -6.439316], [-43.28712, -6.437878], [-43.28697, -6.436384], [-43.28713, -6.435215], [-43.28746, -6.434266], [-43.2868, -6.431494], [-43.28671, -6.429912], [-43.28476, -6.424781], [-43.28526, -6.423077], [-43.28635, -6.422486], [-43.28805, -6.420729], [-43.28897, -6.420446], [-43.29038, -6.419292], [-43.29261, -6.415415], [-43.29354, -6.413388], [-43.29741, -6.408013], [-43.2967, -6.405724], [-43.29883, -6.403547], [-43.30103, -6.402154], [-43.30162, -6.400374], [-43.30125, -6.399621], [-43.29899, -6.398666], [-43.29806, -6.397593], [-43.29848, -6.395973], [-43.30015, -6.395044], [-43.30062, -6.393778], [-43.30228, -6.391665], [-43.31508, -6.396758], [-43.31728, -6.39495], [-43.31946, -6.39355], [-43.32115, -6.390499], [-43.32359, -6.387021], [-43.32689, -6.383943], [-43.32973, -6.382986], [-43.33078, -6.380375], [-43.3324, -6.37922], [-43.33297, -6.373263], [-43.33297, -6.370233], [-43.33292, -6.36867], [-43.33244, -6.36787], [-43.33226, -6.367242], [-43.33197, -6.366141], [-43.33198, -6.36516], [-43.33277, -6.361954], [-43.3331, -6.359385], [-43.33448, -6.355895], [-43.33403, -6.354643], [-43.33396, -6.352895], [-43.3331, -6.351548], [-43.33284, -6.350533], [-43.33381, -6.349162], [-43.3357, -6.347382], [-43.31735, -6.345507], [-43.29664, -6.342161], [-43.24121, -6.365411]]]}}, 
{"type": "Feature", "properties": {"CD_SETOR": "210150905000014", "CD_SIT": "8", "NM_DIST": "Barão de Grajaú", "NM_SUBDIST": null}, "geometry": {"type": "Polygon", "coordinates": [[[-43.11838, -6.512734], [-43.11445, -6.515881], [-43.11362, -6.516732], [-43.11291, -6.519588], [-43.11195, -6.521882], [-43.10972, -6.524388], [-43.10917, -6.525276], [-43.10847, -6.525831], [-43.10643, -6.529002], [-43.10522, -6.531435], [-43.10438, -6.534192], [-43.10462, -6.534982], [-43.1045, -6.535507], [-43.10682, -6.535281], [-43.11939, -6.535802], [-43.12047, -6.535601], [-43.12213, -6.535573], [-43.12982, -6.533632], [-43.13276, -6.53246], [-43.13431, -6.53249], [-43.13506, -6.532094], [-43.13644, -6.53177], [-43.1382, -6.531681], [-43.14191, -6.530639], [-43.14323, -6.53057], [-43.14758, -6.529166], [-43.1499, -6.52857], [-43.15114, -6.528464], [-43.15226, -6.527836], [-43.15481, -6.527067], [-43.15565, -6.52656], [-43.15701, -6.523244], [-43.15871, -6.521393], [-43.16001, -6.520712], [-43.16157, -6.518901], [-43.16257, -6.518007], [-43.16314, -6.516628], [-43.16392, -6.515393], [-43.16622, -6.515341], [-43.16735, -6.514398], [-43.16782, -6.513319], [-43.16841, -6.512605], [-43.16947, -6.511866], [-43.17116, -6.511459], [-43.17214, -6.511411], [-43.17366, -6.509459], [-43.17519, -6.508818], [-43.17591, -6.508276], [-43.17855, -6.507556], [-43.18464, -6.504232], [-43.18768, -6.500307], [-43.19068, -6.499107], [-43.19502, -6.499696], [-43.19647, -6.499173], [-43.20137, -6.496927], [-43.20189, -6.496857], [-43.20328, -6.49707], [-43.20452, -6.496744], [-43.20558, -6.4967], [-43.20582, -6.496561], [-43.20639, -6.495653], [-43.20685, -6.49535], [-43.21013, -6.49427], [-43.2118, -6.492891], [-43.2126, -6.492501], [-43.21367, -6.492544], [-43.21479, -6.493134], [-43.21615, -6.493203], [-43.21739, -6.493705], [-43.2183, -6.494464], [-43.21893, -6.49569], [-43.2243, -6.500159], [-43.22587, -6.502374], [-43.22642, -6.502735], [-43.22744, -6.502974], [-43.22991, -6.502455], [-43.2326, -6.502227], [-43.24037, -6.499602], [-43.24182, -6.499458], [-43.24477, -6.499531], [-43.24693, -6.500574], [-43.24858, -6.500974], [-43.25032, -6.501116], [-43.2553, -6.500861], [-43.25675, -6.500251], [-43.26036, -6.499137], [-43.26154, -6.498561], [-43.26505, -6.49621], [-43.26692, -6.495504], [-43.26875, -6.494179], [-43.27187, -6.492958], [-43.27263, -6.492182], [-43.27382, -6.489917], [-43.27506, -6.487965], [-43.27545, -6.48761], [-43.27783, -6.486446], [-43.28042, -6.484811], [-43.28241, -6.484562], [-43.28429, -6.483885], [-43.2868, -6.48366], [-43.28727, -6.483287], [-43.28726, -6.482828], [-43.28637, -6.481051], [-43.28636, -6.477871], [-43.28589, -6.477091], [-43.28494, -6.473801], [-43.28485, -6.472719], [-43.2842, -6.471457], [-43.28371, -6.470049], [-43.28396, -6.467076], [-43.28442, -6.465877], [-43.28454, -6.464674], [-43.28351, -6.463783], [-43.28231, -6.463637], [-43.28169, -6.463811], [-43.27997, -6.463476], [-43.28005, -6.46184], [-43.27975, -6.46039], [-43.27911, -6.458882], [-43.27837, -6.458253], [-43.27815, -6.457729], [-43.27549, -6.455286], [-43.27304, -6.455601], [-43.27227, -6.454763], [-43.2718, -6.453146], [-43.27112, -6.452196], [-43.26971, -6.451814], [-43.26922, -6.451887], [-43.26879, -6.451752], [-43.26779, -6.451982], [-43.26721, -6.452315], [-43.26619, -6.45219], [-43.26221, -6.453344], [-43.26225, -6.450728], [-43.2603, -6.449166], [-43.25973, -6.448364], [-43.25956, -6.447217], [-43.2582, -6.447235], [-43.25763, -6.447038], [-43.25717, -6.44673], [-43.2564, -6.445422], [-43.25603, -6.445234], [-43.25455, -6.445343], [-43.25425, -6.44444], [-43.25422, -6.443829], [-43.25483, -6.441737], [-43.25452, -6.440971], [-43.25338, -6.439657], [-43.25188, -6.438788], [-43.25128, -6.438652], [-43.25078, -6.438131], [-43.25059, -6.437253], [-43.24924, -6.435588], [-43.24939, -6.43349], [-43.25018, -6.432098], [-43.25118, -6.430881], [-43.25136, -6.429687], [-43.25087, -6.428319], [-43.24997, -6.427551], [-43.24981, -6.427213], [-43.24911, -6.424414], [-43.24904, -6.422694], [-43.24789, -6.420257], [-43.2466, -6.418101], [-43.24656, -6.417694], [-43.24563, -6.416923], [-43.24516, -6.416227], [-43.24435, -6.416137], [-43.24405, -6.415876], [-43.24379, -6.41531], [-43.24377, -6.414467], [-43.24419, -6.413728], [-43.24463, -6.412007], [-43.24056, -6.411611], [-43.23901, -6.412056], [-43.23768, -6.411793], [-43.23674, -6.412152], [-43.2364, -6.412044], [-43.23294, -6.407508], [-43.23232, -6.406332], [-43.23232, -6.405724], [-43.23121, -6.404811], [-43.22728, -6.402281], [-43.22698, -6.401144], [-43.22711, -6.400267], [-43.22809, -6.397816], [-43.20288, -6.433896], [-43.20195, -6.434093], [-43.20052, -6.434877], [-43.2, -6.435605], [-43.19942, -6.437055], [-43.19906, -6.437312], [-43.19787, -6.437822], [-43.19585, -6.438004], [-43.19394, -6.437949], [-43.19144, -6.439713], [-43.18948, -6.442063], [-43.18771, -6.445677], [-43.18728, -6.447283], [-43.18659, -6.44862], [-43.18466, -6.449815], [-43.18396, -6.450596], [-43.17948, -6.453668], [-43.17704, -6.457341], [-43.17704, -6.457934], [-43.17622, -6.459016], [-43.17615, -6.459941], [-43.17573, -6.459615], [-43.1748, -6.459284], [-43.17429, -6.45942], [-43.17378, -6.45993], [-43.17308, -6.46034], [-43.17264, -6.460937], [-43.17255, -6.461374], [-43.16892, -6.466314], [-43.16903, -6.467697], [-43.16798, -6.468521], [-43.16789, -6.468845], [-43.16748, -6.469063], [-43.16826, -6.471476], [-43.16897, -6.472739], [-43.16898, -6.47375], [-43.1688, -6.474144], [-43.16914, -6.475303], [-43.16958, -6.475825], [-43.16912, -6.47759], [-43.16829, -6.478428], [-43.16803, -6.480244], [-43.16716, -6.481335], [-43.16748, -6.483724], [-43.16726, -6.486417], [-43.16759, -6.487736], [-43.16474, -6.485485], [-43.16384, -6.486034], [-43.16236, -6.488337], [-43.16123, -6.489282], [-43.15656, -6.491997], [-43.15457, -6.49244], [-43.15344, -6.493296], [-43.15252, -6.494536], [-43.15015, -6.496986], [-43.14896, -6.497872], [-43.14796, -6.498986], [-43.14686, -6.50061], [-43.14537, -6.50182], [-43.14418, -6.502558], [-43.14107, -6.50503], [-43.13908, -6.506004], [-43.13768, -6.506978], [-43.13703, -6.507687], [-43.13039, -6.511745], [-43.12798, -6.512749], [-43.12653, -6.513015], [-43.12365, -6.513133], [-43.12246, -6.513015], [-43.12091, -6.513162], [-43.11938, -6.513096], [-43.11838, -6.512734]]]}}, 
{"type": "Feature", "properties": {"CD_SETOR": "210150905000015", "CD_SIT": "8", "NM_DIST": "Barão de Grajaú", "NM_SUBDIST": null}, "geometry": {"type": "Polygon", "coordinates": [[[-43.04899, -6.444897], [-42.90889, -6.50063], [-42.90375, -6.501966], [-42.90008, -6.503885], [-42.89172, -6.504069], [-42.88641, -6.504609], [-42.88673, -6.506665], [-42.88663, -6.507804], [-42.88623, -6.508738], [-42.88531, -6.509474], [-42.88212, -6.51022], [-42.8804, -6.510338], [-42.87615, -6.509853], [-42.87437, -6.509837], [-42.87307, -6.510047], [-42.87229, -6.510755], [-42.8719, -6.511746], [-42.87215, -6.513455], [-42.87273, -6.515484], [-42.874, -6.518688], [-42.87781, -6.523931], [-42.88025, -6.527767], [-42.88338, -6.530971], [-42.88511, -6.532148], [-42.8867, -6.533835], [-42.88817, -6.536651], [-42.88881, -6.540534], [-42.88895, -6.544467], [-42.89311, -6.547627], [-42.90058, -6.579303], [-42.8966, -6.581394], [-42.89017, -6.582573], [-42.89447, -6.586602], [-42.89814, -6.590485], [-42.90182, -6.589587], [-42.90802, -6.588446], [-42.90991, -6.585692], [-42.91152, -6.584527], [-42.91718, -6.582246], [-42.91948, -6.581497], [-42.92538, -6.581375], [-42.92861, -6.58037], [-42.92903, -6.579906], [-42.92951, -6.578591], [-42.9314, -6.578134], [-42.9328, -6.577015], [-42.93408, -6.57642], [-42.93443, -6.576078], [-42.9372, -6.576024], [-42.93767, -6.575691], [-42.93994, -6.575904], [-42.94098, -6.575732], [-42.94193, -6.575166], [-42.94455, -6.574519], [-42.94493, -6.572656], [-42.94619, -6.571605], [-42.94784, -6.569717], [-42.9489, -6.56818], [-42.94996, -6.567416], [-42.95047, -6.566434], [-42.9504, -6.56558], [-42.9534, -6.563373], [-42.95393, -6.56327], [-42.95422, -6.562842], [-42.95511, -6.562409], [-42.95599, -6.562394], [-42.95859, -6.561652], [-42.95935, -6.561242], [-42.96195, -6.557895], [-42.9625, -6.557667], [-42.96373, -6.557713], [-42.9664, -6.557118], [-42.96878, -6.556977], [-42.97134, -6.555766], [-42.97206, -6.554476], [-42.9739, -6.553994], [-42.97584, -6.554323], [-42.97724, -6.553933], [-42.97799, -6.55352], [-42.97957, -6.553861], [-42.9802, -6.553731], [-42.98139, -6.553045], [-42.98404, -6.548801], [-42.98496, -6.54562], [-42.98688, -6.544599], [-42.99036, -6.545269], [-42.99288, -6.545107], [-42.99366, -6.54482], [-42.99622, -6.544941], [-42.9969, -6.546192], [-42.99761, -6.546596], [-43.00505, -6.542333], [-43.00757, -6.54225], [-43.00909, -6.541964], [-43.01081, -6.540809], [-43.01413, -6.540186], [-43.01609, -6.540223], [-43.01778, -6.540463], [-43.0189, -6.540328], [-43.0204, -6.53859], [-43.02198, -6.539236], [-43.0232, -6.541206], [-43.02666, -6.539378], [-43.02771, -6.538528], [-43.02926, -6.537746], [-43.03037, -6.536699], [-43.0316, -6.535209], [-43.03417, -6.534595], [-43.03463, -6.53409], [-43.03637, -6.534178], [-43.03768, -6.534564], [-43.03859, -6.535886], [-43.04002, -6.536998], [-43.04262, -6.536359], [-43.04469, -6.535617], [-43.04602, -6.535784], [-43.0484, -6.535705], [-43.04985, -6.535483], [-43.05159, -6.535688], [-43.05384, -6.537008], [-43.05659, -6.537196], [-43.05853, -6.53639], [-43.05941, -6.53653], [-43.06393, -6.535565], [-43.07065, -6.535658], [-43.07132, -6.535338], [-43.07609, -6.535599], [-43.0816, -6.53122], [-43.08614, -6.528647], [-43.08646, -6.526029], [-43.0871, -6.525883], [-43.08807, -6.526774], [-43.0892, -6.52661], [-43.09386, -6.523426], [-43.09745, -6.52262], [-43.10021, -6.520982], [-43.10106, -6.520704], [-43.10244, -6.519923], [-43.1033, -6.519879], [-43.10446, -6.519176], [-43.106, -6.518617], [-43.10677, -6.517747], [-43.10828, -6.517246], [-43.11132, -6.516877], [-43.11185, -6.517115], [-43.11251, -6.517059], [-43.11362, -6.516732], [-43.11445, -6.515881], [-43.11949, -6.511874], [-43.12076, -6.510095], [-43.12205, -6.507793], [-43.12404, -6.503096], [-43.12366, -6.500744], [-43.12418, -6.497745], [-43.12391, -6.494841], [-43.12322, -6.494079], [-43.12256, -6.492694], [-43.12297, -6.491442], [-43.12344, -6.490875], [-43.1239, -6.490716], [-43.12608, -6.487871], [-43.12619, -6.484851], [-43.12744, -6.482654], [-43.12769, -6.476816], [-43.12745, -6.475951], [-43.12687, -6.475353], [-43.12662, -6.474486], [-43.12542, -6.472706], [-43.12426, -6.472112], [-43.12273, -6.470201], [-43.12262, -6.469205], [-43.12222, -6.467849], [-43.1158, -6.463519], [-43.11084, -6.456611], [-43.11057, -6.456075], [-43.11048, -6.455117], [-43.11072, -6.451913], [-43.10936, -6.448352], [-43.11071, -6.447943], [-43.11217, -6.448229], [-43.11331, -6.44751], [-43.11421, -6.446184], [-43.11502, -6.442788], [-43.11694, -6.440178], [-43.1219, -6.4367], [-43.12383, -6.434565], [-43.1252, -6.432084], [-43.12708, -6.430535], [-43.12862, -6.430019], [-43.12938, -6.428758], [-43.12945, -6.427412], [-43.13079, -6.424251], [-43.13357, -6.42083], [-43.13359, -6.419701], [-43.13285, -6.419056], [-43.13302, -6.41753], [-43.1314, -6.415396], [-43.1314, -6.414663], [-43.13196, -6.41335], [-43.13226, -6.411603], [-43.13252, -6.410955], [-43.09945, -6.424796], [-43.04899, -6.444897]]]}}, 
{"type": "Feature", "properties": {"CD_SETOR": "210150905000016", "CD_SIT": "8", "NM_DIST": "Barão de Grajaú", "NM_SUBDIST": null}, "geometry": {"type": "Polygon", "coordinates": [[[-42.90459, -6.598398], [-42.90635, -6.602087], [-42.90772, -6.605921], [-42.90889, -6.611503], [-42.91079, -6.622473], [-42.91177, -6.625773], [-42.91368, -6.629268], [-42.91558, -6.63184], [-42.91647, -6.634216], [-42.91695, -6.636549], [-42.91733, -6.638721], [-42.91727, -6.640975], [-42.91636, -6.644363], [-42.91509, -6.647954], [-42.9149, -6.651012], [-42.91553, -6.654943], [-42.91695, -6.659214], [-42.91739, -6.66334], [-42.91871, -6.66885], [-42.91993, -6.671008], [-42.9214, -6.672646], [-42.92614, -6.676201], [-42.92966, -6.679356], [-42.93264, -6.68285], [-42.94032, -6.693999], [-42.94314, -6.697409], [-42.9471, -6.701777], [-42.95055, -6.701763], [-42.95317, -6.698615], [-42.95409, -6.696808], [-42.95585, -6.694422], [-42.95715, -6.693232], [-42.95823, -6.693238], [-42.96209, -6.690533], [-42.96335, -6.688706], [-42.96181, -6.685205], [-42.96606, -6.677145], [-42.97749, -6.670853], [-42.97966, -6.668411], [-42.98009, -6.667625], [-42.9802, -6.666092], [-42.97973, -6.664173], [-42.97978, -6.66375], [-42.98245, -6.660643], [-42.98483, -6.659006], [-42.98708, -6.658126], [-42.98774, -6.657725], [-42.98834, -6.657664], [-42.99045, -6.656903], [-42.99195, -6.655962], [-42.99249, -6.655879], [-42.99299, -6.655569], [-42.99489, -6.65562], [-42.99562, -6.655934], [-42.99659, -6.655998], [-42.99792, -6.655681], [-42.99965, -6.655815], [-43.00077, -6.655525], [-43.00304, -6.653164], [-43.00352, -6.652847], [-43.004, -6.652891], [-43.00499, -6.652541], [-43.00522, -6.651718], [-43.00677, -6.650879], [-43.00792, -6.64974], [-43.00943, -6.647749], [-43.01179, -6.64411], [-43.0093, -6.641693], [-43.0069, -6.638697], [-43.00517, -6.637708], [-43.00325, -6.635136], [-43.00284, -6.634947], [-43.00206, -6.635239], [-43.00071, -6.632106], [-43.0005, -6.6308], [-42.99997, -6.629669], [-43.00032, -6.628895], [-42.99918, -6.628309], [-42.99816, -6.627443], [-42.99731, -6.626213], [-42.99664, -6.624072], [-42.99586, -6.623477], [-42.99527, -6.621727], [-42.99314, -6.619577], [-42.99267, -6.617981], [-42.99226, -6.617273], [-42.98811, -6.614905], [-42.98546, -6.613944], [-42.98254, -6.612131], [-42.98189, -6.61118], [-42.98194, -6.610517], [-42.98171, -6.609916], [-42.98243, -6.60834], [-42.98249, -6.60714], [-42.98188, -6.604697], [-42.98248, -6.602455], [-42.98338, -6.60075], [-42.98368, -6.599159], [-42.98358, -6.597683], [-42.9867, -6.596529], [-42.9856, -6.587809], [-42.98613, -6.586872], [-42.9864, -6.58588], [-42.98646, -6.583401], [-42.98774, -6.583159], [-42.98748, -6.578159], [-42.98787, -6.575998], [-42.98499, -6.57677], [-42.97514, -6.583005], [-42.97076, -6.585458], [-42.96851, -6.587008], [-42.96631, -6.588246], [-42.96383, -6.588664], [-42.96244, -6.587957], [-42.96107, -6.58573], [-42.95984, -6.585023], [-42.95544, -6.584925], [-42.95283, -6.582422], [-42.95199, -6.581877], [-42.95032, -6.582394], [-42.94755, -6.582415], [-42.94685, -6.581709], [-42.94358, -6.582445], [-42.94115, -6.584287], [-42.94035, -6.586527], [-42.93956, -6.587614], [-42.93859, -6.587832], [-42.93829, -6.587186], [-42.93756, -6.58702], [-42.93613, -6.587208], [-42.9356, -6.586561], [-42.93501, -6.586756], [-42.93378, -6.586164], [-42.92978, -6.586504], [-42.92838, -6.586], [-42.92787, -6.586294], [-42.9262, -6.58643], [-42.92475, -6.587022], [-42.92419, -6.586513], [-42.9207, -6.58646], [-42.91993, -6.587198], [-42.91933, -6.588091], [-42.91732, -6.588084], [-42.9162, -6.588624], [-42.91401, -6.590993], [-42.91283, -6.591717], [-42.91228, -6.59084], [-42.91032, -6.591502], [-42.91088, -6.593425], [-42.90934, -6.594001], [-42.90847, -6.595176], [-42.90922, -6.596179], [-42.90751, -6.597286], [-42.90616, -6.596607], [-42.90585, -6.598085], [-42.90459, -6.598398]]]}}, 
{"type": "Feature", "properties": {"CD_SETOR": "210150905000017", "CD_SIT": "8", "NM_DIST": "Barão de Grajaú", "NM_SUBDIST": null}, "geometry": {"type": "Polygon", "coordinates": [[[-43.00032, -6.628895], [-42.99997, -6.629669], [-43.0005, -6.6308], [-43.00071, -6.632106], [-43.00206, -6.635239], [-43.00284, -6.634947], [-43.00325, -6.635136], [-43.00517, -6.637708], [-43.0069, -6.638697], [-43.0093, -6.641693], [-43.01179, -6.64411], [-43.00943, -6.647749], [-43.00792, -6.64974], [-43.00677, -6.650879], [-43.00522, -6.651718], [-43.00499, -6.652541], [-43.004, -6.652891], [-43.00352, -6.652847], [-43.00304, -6.653164], [-43.00077, -6.655525], [-42.99965, -6.655815], [-42.99792, -6.655681], [-42.99659, -6.655998], [-42.99562, -6.655934], [-42.99489, -6.65562], [-42.99299, -6.655569], [-42.99249, -6.655879], [-42.99195, -6.655962], [-42.99045, -6.656903], [-42.98834, -6.657664], [-42.98774, -6.657725], [-42.98708, -6.658126], [-42.98483, -6.659006], [-42.9837, -6.659724], [-42.98245, -6.660643], [-42.97978, -6.66375], [-42.97973, -6.664173], [-42.9802, -6.666092], [-42.98009, -6.667625], [-42.97966, -6.668411], [-42.9775, -6.670841], [-42.98092, -6.68834], [-42.96438, -6.690897], [-42.96335, -6.688706], [-42.96209, -6.690533], [-42.95823, -6.693238], [-42.95715, -6.693232], [-42.95585, -6.694422], [-42.95409, -6.696808], [-42.95317, -6.698615], [-42.95055, -6.701763], [-42.9471, -6.701777], [-42.95111, -6.705077], [-42.95682, -6.708086], [-42.96366, -6.710367], [-42.97042, -6.713437], [-42.97295, -6.714831], [-42.97744, -6.717937], [-42.98082, -6.721334], [-42.98389, -6.726235], [-42.98585, -6.732447], [-42.98746, -6.738416], [-42.98951, -6.742735], [-42.99176, -6.747053], [-42.9928, -6.748728], [-42.99455, -6.750353], [-42.99865, -6.75307], [-43.00329, -6.755874], [-43.00335, -6.755668], [-43.00293, -6.755122], [-43.00119, -6.753737], [-43.00399, -6.747159], [-43.00491, -6.745411], [-43.00595, -6.744046], [-43.00865, -6.739736], [-43.01253, -6.737924], [-43.01732, -6.737526], [-43.02301, -6.737895], [-43.02144, -6.730887], [-43.02196, -6.729083], [-43.02352, -6.725049], [-43.02507, -6.722269], [-43.02574, -6.719566], [-43.0262, -6.718799], [-43.02728, -6.717539], [-43.02837, -6.716673], [-43.03074, -6.715287], [-43.03145, -6.714549], [-43.03714, -6.711338], [-43.03762, -6.710749], [-43.03927, -6.707612], [-43.04033, -6.706607], [-43.04193, -6.70546], [-43.04381, -6.703417], [-43.04398, -6.701293], [-43.04307, -6.696446], [-43.04816, -6.689618], [-43.04875, -6.689299], [-43.05093, -6.686551], [-43.0528, -6.682517], [-43.05419, -6.680241], [-43.05745, -6.675653], [-43.0592, -6.672726], [-43.06559, -6.656787], [-43.06828, -6.653409], [-43.07068, -6.647254], [-43.0715, -6.645729], [-43.0729, -6.64063], [-43.07441, -6.635995], [-43.07411, -6.588399], [-43.07403, -6.586568], [-43.07336, -6.584589], [-43.07069, -6.588385], [-43.06854, -6.589789], [-43.06754, -6.591049], [-43.06486, -6.592623], [-43.06267, -6.595017], [-43.06114, -6.597846], [-43.0602, -6.598995], [-43.0593, -6.601202], [-43.05864, -6.603458], [-43.05669, -6.605421], [-43.05435, -6.606997], [-43.05235, -6.609055], [-43.04811, -6.61687], [-43.04495, -6.619213], [-43.0369, -6.623698], [-43.0316, -6.627184], [-43.02447, -6.631048], [-43.02228, -6.63248], [-43.02061, -6.634299], [-43.01909, -6.635206], [-43.01724, -6.635007], [-43.00906, -6.631178], [-43.00474, -6.628326], [-43.00032, -6.628895]]]}}, 
{"type": "Feature", "properties": {"CD_SETOR": "210150905000018", "CD_SIT": "8", "NM_DIST": "Barão de Grajaú", "NM_SUBDIST": null}, "geometry": {"type": "Polygon", "coordinates": [[[-43.1045, -6.535507], [-43.10387, -6.535705], [-43.10361, -6.535999], [-43.10243, -6.540179], [-43.10068, -6.551562], [-43.10016, -6.552711], [-43.09764, -6.555662], [-43.09417, -6.556458], [-43.08998, -6.55862], [-43.07992, -6.561696], [-43.07852, -6.562319], [-43.07662, -6.564871], [-43.07538, -6.56729], [-43.07421, -6.568611], [-43.07398, -6.569506], [-43.07284, -6.5718], [-43.07216, -6.577101], [-43.07237, -6.580398], [-43.07294, -6.583201], [-43.07403, -6.586568], [-43.07411, -6.588399], [-43.07441, -6.635995], [-43.0729, -6.64063], [-43.0715, -6.645729], [-43.07068, -6.647254], [-43.06828, -6.653409], [-43.06559, -6.656787], [-43.0592, -6.672726], [-43.05745, -6.675653], [-43.05419, -6.680241], [-43.0528, -6.682517], [-43.05093, -6.686551], [-43.04875, -6.689299], [-43.04816, -6.689618], [-43.04307, -6.696446], [-43.04398, -6.701293], [-43.04381, -6.703417], [-43.04193, -6.70546], [-43.04033, -6.706607], [-43.03927, -6.707612], [-43.03762, -6.710749], [-43.03714, -6.711338], [-43.03145, -6.714549], [-43.03074, -6.715287], [-43.02837, -6.716673], [-43.02728, -6.717539], [-43.0262, -6.718799], [-43.02574, -6.719566], [-43.02507, -6.722269], [-43.02352, -6.725049], [-43.0227, -6.727037], [-43.02144, -6.730887], [-43.02304, -6.737975], [-43.02832, -6.737135], [-43.03192, -6.736113], [-43.04063, -6.735551], [-43.04039, -6.742391], [-43.03995, -6.743626], [-43.04026, -6.744449], [-43.04071, -6.745003], [-43.04306, -6.74721], [-43.0438, -6.748286], [-43.04975, -6.746194], [-43.075, -6.736185], [-43.12268, -6.716837], [-43.12483, -6.717111], [-43.13255, -6.718647], [-43.13473, -6.718911], [-43.13603, -6.718599], [-43.14555, -6.713418], [-43.14943, -6.709493], [-43.15275, -6.706962], [-43.1637, -6.704437], [-43.16513, -6.704544], [-43.17031, -6.708168], [-43.17145, -6.708643], [-43.17254, -6.7086], [-43.18187, -6.705419], [-43.18165, -6.704684], [-43.18305, -6.703399], [-43.18628, -6.69647], [-43.18648, -6.693094], [-43.18668, -6.692563], [-43.1865, -6.691813], [-43.1869, -6.690207], [-43.18817, -6.688516], [-43.18879, -6.686855], [-43.1892, -6.68632], [-43.19031, -6.683127], [-43.1905, -6.681715], [-43.18952, -6.672131], [-43.18829, -6.668908], [-43.18845, -6.668073], [-43.18837, -6.667471], [-43.18909, -6.665685], [-43.18928, -6.664733], [-43.19032, -6.663105], [-43.19095, -6.660993], [-43.19297, -6.6587], [-43.19414, -6.658133], [-43.19835, -6.654966], [-43.19884, -6.653829], [-43.19925, -6.651787], [-43.20226, -6.64823], [-43.20414, -6.645012], [-43.20576, -6.641834], [-43.20621, -6.640561], [-43.20707, -6.639837], [-43.20908, -6.636685], [-43.21022, -6.635205], [-43.21065, -6.634202], [-43.21075, -6.633152], [-43.21057, -6.630842], [-43.20958, -6.627596], [-43.21004, -6.626803], [-43.20968, -6.624271], [-43.21008, -6.622324], [-43.21157, -6.622056], [-43.212, -6.62156], [-43.21214, -6.620993], [-43.21293, -6.620156], [-43.21358, -6.619988], [-43.21437, -6.620422], [-43.21485, -6.620997], [-43.2159, -6.620989], [-43.21669, -6.620495], [-43.21887, -6.618415], [-43.22012, -6.616981], [-43.22221, -6.614011], [-43.22252, -6.612128], [-43.22546, -6.599738], [-43.22684, -6.598356], [-43.22794, -6.597759], [-43.22868, -6.596521], [-43.22878, -6.594215], [-43.22821, -6.593199], [-43.22715, -6.592527], [-43.22579, -6.589517], [-43.22441, -6.58783], [-43.22424, -6.587007], [-43.2245, -6.586326], [-43.22496, -6.585871], [-43.22573, -6.58441], [-43.22534, -6.583303], [-43.22178, -6.579548], [-43.22111, -6.577467], [-43.22106, -6.576133], [-43.22183, -6.574477], [-43.22572, -6.567823], [-43.22662, -6.567336], [-43.2256, -6.56587], [-43.22498, -6.563644], [-43.22316, -6.560072], [-43.22338, -6.557403], [-43.22298, -6.556268], [-43.22267, -6.554222], [-43.22218, -6.55323], [-43.22217, -6.551822], [-43.2225, -6.550489], [-43.22297, -6.549575], [-43.22338, -6.547446], [-43.22407, -6.546468], [-43.22528, -6.54324], [-43.22557, -6.541617], [-43.22654, -6.540201], [-43.22589, -6.537883], [-43.22603, -6.53663], [-43.22451, -6.535165], [-43.22459, -6.534768], [-43.22539, -6.534209], [-43.2263, -6.533855], [-43.22579, -6.533154], [-43.22579, -6.532043], [-43.22609, -6.531751], [-43.22597, -6.531352], [-43.22514, -6.529959], [-43.2238, -6.529515], [-43.22215, -6.528426], [-43.22141, -6.526304], [-43.22027, -6.523927], [-43.21903, -6.522685], [-43.21867, -6.521429], [-43.21824, -6.521021], [-43.21757, -6.519086], [-43.21611, -6.517635], [-43.21582, -6.51709], [-43.21592, -6.515944], [-43.21703, -6.514223], [-43.21665, -6.513906], [-43.21392, -6.513803], [-43.21272, -6.512929], [-43.20955, -6.509607], [-43.20786, -6.508263], [-43.20529, -6.507582], [-43.20399, -6.507486], [-43.20067, -6.506321], [-43.19931, -6.505248], [-43.19762, -6.503237], [-43.19647, -6.499173], [-43.19502, -6.499696], [-43.19068, -6.499107], [-43.18768, -6.500307], [-43.18464, -6.504232], [-43.17855, -6.507556], [-43.17591, -6.508276], [-43.17519, -6.508818], [-43.17366, -6.509459], [-43.17214, -6.511411], [-43.17116, -6.511459], [-43.16947, -6.511866], [-43.16841, -6.512605], [-43.16782, -6.513319], [-43.16735, -6.514398], [-43.16622, -6.515341], [-43.16392, -6.515393], [-43.16314, -6.516628], [-43.16257, -6.518007], [-43.16157, -6.518901], [-43.16001, -6.520712], [-43.15871, -6.521393], [-43.15701, -6.523244], [-43.15565, -6.52656], [-43.15481, -6.527067], [-43.15226, -6.527836], [-43.15114, -6.528464], [-43.1499, -6.52857], [-43.14758, -6.529166], [-43.14323, -6.53057], [-43.14191, -6.530639], [-43.1382, -6.531681], [-43.13644, -6.53177], [-43.13506, -6.532094], [-43.13431, -6.53249], [-43.13276, -6.53246], [-43.12982, -6.533632], [-43.12213, -6.535573], [-43.12047, -6.535601], [-43.11939, -6.535802], [-43.10682, -6.535281], [-43.1045, -6.535507]]]}}, 
{"type": "Feature", "properties": {"CD_SETOR": "210150905000019", "CD_SIT": "8", "NM_DIST": "Barão de Grajaú", "NM_SUBDIST": null}, "geometry": {"type": "Polygon", "coordinates": [[[-43.31965, -6.518338], [-43.31937, -6.518431], [-43.31925, -6.520852], [-43.31789, -6.52267], [-43.31733, -6.524554], [-43.31714, -6.526295], [-43.31684, -6.527524], [-43.31712, -6.529534], [-43.31831, -6.533026], [-43.31863, -6.536478], [-43.31842, -6.537588], [-43.31803, -6.537588], [-43.3159, -6.537249], [-43.31438, -6.537401], [-43.31252, -6.536988], [-43.31117, -6.536506], [-43.30932, -6.535104], [-43.30725, -6.534311], [-43.30482, -6.531395], [-43.30298, -6.530761], [-43.29937, -6.530022], [-43.29674, -6.527302], [-43.2936, -6.525463], [-43.29222, -6.523474], [-43.29023, -6.522033], [-43.2886, -6.520201], [-43.28098, -6.517625], [-43.27829, -6.516486], [-43.27552, -6.515909], [-43.27303, -6.515917], [-43.27223, -6.516161], [-43.26911, -6.516097], [-43.2639, -6.51629], [-43.26255, -6.516049], [-43.25981, -6.514053], [-43.25854, -6.513497], [-43.25678, -6.513588], [-43.25636, -6.514753], [-43.25518, -6.514782], [-43.25452, -6.514026], [-43.25242, -6.514186], [-43.25091, -6.514057], [-43.24904, -6.51324], [-43.24624, -6.512821], [-43.24419, -6.513201], [-43.24216, -6.513217], [-43.24045, -6.512833], [-43.2376, -6.513393], [-43.23584, -6.513166], [-43.23232, -6.51346], [-43.22956, -6.515031], [-43.22797, -6.515498], [-43.22529, -6.515104], [-43.22283, -6.515201], [-43.22039, -6.517787], [-43.21861, -6.518284], [-43.21611, -6.517635], [-43.21757, -6.519086], [-43.21824, -6.521021], [-43.21867, -6.521429], [-43.21903, -6.522685], [-43.22027, -6.523927], [-43.22141, -6.526304], [-43.22215, -6.528426], [-43.2238, -6.529515], [-43.22514, -6.529959], [-43.22609, -6.531751], [-43.22579, -6.532043], [-43.22579, -6.533154], [-43.2263, -6.533855], [-43.22539, -6.534209], [-43.22459, -6.534768], [-43.22451, -6.535165], [-43.22603, -6.53663], [-43.22589, -6.537883], [-43.22654, -6.540201], [-43.22557, -6.541617], [-43.22528, -6.54324], [-43.22407, -6.546468], [-43.22338, -6.547446], [-43.22297, -6.549575], [-43.2225, -6.550489], [-43.22217, -6.551822], [-43.22218, -6.55323], [-43.22267, -6.554222], [-43.22298, -6.556268], [-43.22338, -6.557403], [-43.22316, -6.560072], [-43.22498, -6.563644], [-43.2256, -6.56587], [-43.22662, -6.567336], [-43.22572, -6.567823], [-43.22183, -6.574477], [-43.22106, -6.576133], [-43.22111, -6.577467], [-43.22178, -6.579548], [-43.22534, -6.583303], [-43.22573, -6.58441], [-43.22496, -6.585871], [-43.2245, -6.586326], [-43.22424, -6.587007], [-43.22441, -6.58783], [-43.22579, -6.589517], [-43.22715, -6.592527], [-43.22821, -6.593199], [-43.22878, -6.594215], [-43.22868, -6.596521], [-43.22794, -6.597759], [-43.22684, -6.598356], [-43.22546, -6.599738], [-43.22252, -6.612128], [-43.22221, -6.614011], [-43.22012, -6.616981], [-43.21887, -6.618415], [-43.21669, -6.620495], [-43.2159, -6.620989], [-43.21485, -6.620997], [-43.21437, -6.620422], [-43.21358, -6.619988], [-43.21293, -6.620156], [-43.21214, -6.620993], [-43.212, -6.62156], [-43.21157, -6.622056], [-43.21008, -6.622324], [-43.20968, -6.624271], [-43.21004, -6.626803], [-43.20958, -6.627596], [-43.21057, -6.630842], [-43.21075, -6.633152], [-43.21065, -6.634202], [-43.21022, -6.635205], [-43.20908, -6.636685], [-43.20707, -6.639837], [-43.20621, -6.640561], [-43.20576, -6.641834], [-43.20414, -6.645012], [-43.20226, -6.64823], [-43.19925, -6.651787], [-43.19884, -6.653829], [-43.19835, -6.654966], [-43.19414, -6.658133], [-43.19297, -6.6587], [-43.19095, -6.660993], [-43.19032, -6.663105], [-43.18928, -6.664733], [-43.18909, -6.665685], [-43.18837, -6.667471], [-43.18845, -6.668073], [-43.18829, -6.668908], [-43.18952, -6.672131], [-43.1905, -6.681715], [-43.19031, -6.683127], [-43.1892, -6.68632], [-43.18879, -6.686855], [-43.18817, -6.688516], [-43.1869, -6.690207], [-43.1865, -6.691813], [-43.18668, -6.692563], [-43.18648, -6.693094], [-43.18628, -6.69647], [-43.18305, -6.703399], [-43.18165, -6.704684], [-43.18187, -6.705419], [-43.1924, -6.704967], [-43.19343, -6.705449], [-43.19441, -6.706398], [-43.19543, -6.707473], [-43.19643, -6.709355], [-43.19711, -6.710035], [-43.19804, -6.710466], [-43.21163, -6.71216], [-43.2142, -6.711254], [-43.21831, -6.709516], [-43.21891, -6.709099], [-43.23085, -6.698614], [-43.23216, -6.696468], [-43.23297, -6.695862], [-43.23396, -6.695573], [-43.23799, -6.696092], [-43.23909, -6.695858], [-43.25621, -6.68821], [-43.25718, -6.687923], [-43.27024, -6.688778], [-43.27107, -6.688589], [-43.28087, -6.684279], [-43.28429, -6.681886], [-43.28533, -6.681694], [-43.28868, -6.683217], [-43.28943, -6.683268], [-43.2905, -6.682845], [-43.29731, -6.679484], [-43.29948, -6.678153], [-43.31337, -6.663883], [-43.31587, -6.65827], [-43.31683, -6.657409], [-43.34326, -6.64635], [-43.3439, -6.645864], [-43.34932, -6.637363], [-43.34995, -6.636878], [-43.3792, -6.622545], [-43.37987, -6.621943], [-43.38281, -6.616498], [-43.38376, -6.615761], [-43.39111, -6.613047], [-43.39808, -6.612609], [-43.39906, -6.612119], [-43.402, -6.60949], [-43.39995, -6.605833], [-43.39831, -6.603648], [-43.39659, -6.602063], [-43.39162, -6.598624], [-43.38181, -6.591313], [-43.38125, -6.589762], [-43.38103, -6.587863], [-43.38184, -6.582455], [-43.38175, -6.579011], [-43.38204, -6.576332], [-43.38384, -6.572074], [-43.38458, -6.570667], [-43.38475, -6.56907], [-43.38395, -6.56544], [-43.38323, -6.559363], [-43.38367, -6.55737], [-43.3837, -6.554196], [-43.38353, -6.552708], [-43.38281, -6.550556], [-43.38051, -6.539224], [-43.37931, -6.535001], [-43.37528, -6.531778], [-43.37373, -6.531462], [-43.37262, -6.530559], [-43.37189, -6.529646], [-43.37098, -6.529512], [-43.36934, -6.528462], [-43.36895, -6.526783], [-43.37078, -6.52193], [-43.37192, -6.521251], [-43.37323, -6.519615], [-43.37409, -6.51812], [-43.37537, -6.513922], [-43.37189, -6.512986], [-43.36909, -6.51284], [-43.36674, -6.512986], [-43.36059, -6.511888], [-43.35741, -6.509777], [-43.35381, -6.508504], [-43.34921, -6.51059], [-43.34467, -6.510098], [-43.31965, -6.518338]]]}}, 
{"type": "Feature", "properties": {"CD_SETOR": "210150905000020", "CD_SIT": "8", "NM_DIST": "Barão de Grajaú", "NM_SUBDIST": null}, "geometry": {"type": "Polygon", "coordinates": [[[-43.33381, -6.650378], [-43.33103, -6.656379], [-43.33205, -6.660848], [-43.33296, -6.666193], [-43.33081, -6.66798], [-43.32782, -6.671168], [-43.3249, -6.672869], [-43.32142, -6.671461], [-43.31939, -6.67186], [-43.31282, -6.675413], [-43.31235, -6.676919], [-43.31112, -6.677751], [-43.31044, -6.679065], [-43.30973, -6.679113], [-43.30948, -6.679914], [-43.30994, -6.68163], [-43.30965, -6.683459], [-43.30875, -6.683724], [-43.30867, -6.685037], [-43.3076, -6.687376], [-43.30743, -6.688531], [-43.30805, -6.68937], [-43.30785, -6.693716], [-43.30865, -6.694672], [-43.30802, -6.696026], [-43.30825, -6.698679], [-43.30682, -6.700545], [-43.30745, -6.701375], [-43.30543, -6.705749], [-43.30622, -6.708081], [-43.30535, -6.711042], [-43.30568, -6.711921], [-43.30565, -6.712834], [-43.30465, -6.714928], [-43.30509, -6.715889], [-43.30463, -6.716608], [-43.30442, -6.718547], [-43.30389, -6.718928], [-43.3073, -6.724349], [-43.30721, -6.73066], [-43.30736, -6.739296], [-43.30394, -6.73826], [-43.30327, -6.740859], [-43.30155, -6.741325], [-43.30086, -6.745977], [-43.29918, -6.744984], [-43.29701, -6.746074], [-43.29721, -6.749896], [-43.2954, -6.75189], [-43.29229, -6.754744], [-43.29128, -6.756968], [-43.28793, -6.758366], [-43.28454, -6.758196], [-43.28165, -6.757236], [-43.28007, -6.754513], [-43.27801, -6.754537], [-43.27647, -6.753405], [-43.27461, -6.752386], [-43.2733, -6.7536], [-43.27362, -6.755219], [-43.27266, -6.756668], [-43.27125, -6.757316], [-43.27007, -6.756328], [-43.26711, -6.758955], [-43.26566, -6.758019], [-43.26483, -6.759162], [-43.26241, -6.760263], [-43.26024, -6.760844], [-43.25928, -6.762133], [-43.25723, -6.763804], [-43.25759, -6.764716], [-43.25733, -6.766318], [-43.2564, -6.767293], [-43.25589, -6.767573], [-43.28255, -6.776822], [-43.28048, -6.792361], [-43.27976, -6.795964], [-43.2847, -6.797323], [-43.29144, -6.798633], [-43.29599, -6.799846], [-43.30253, -6.800574], [-43.31602, -6.801302], [-43.32076, -6.800913], [-43.32379, -6.800234], [-43.32877, -6.79873], [-43.33117, -6.798293], [-43.33439, -6.798536], [-43.33762, -6.799167], [-43.34016, -6.798779], [-43.34387, -6.797663], [-43.34519, -6.797528], [-43.34676, -6.79775], [-43.3492, -6.798584], [-43.35154, -6.799992], [-43.35394, -6.801787], [-43.3555, -6.803582], [-43.35668, -6.805765], [-43.3576, -6.808046], [-43.35804, -6.810084], [-43.35931, -6.813528], [-43.36093, -6.815857], [-43.36308, -6.817653], [-43.3642, -6.819205], [-43.36525, -6.819802], [-43.36646, -6.819961], [-43.37256, -6.818477], [-43.37578, -6.818138], [-43.37827, -6.817507], [-43.38101, -6.816472], [-43.38237, -6.816143], [-43.38375, -6.8161], [-43.38526, -6.816402], [-43.38753, -6.817192], [-43.38839, -6.81775], [-43.38932, -6.819593], [-43.38976, -6.821825], [-43.38976, -6.823863], [-43.38868, -6.828084], [-43.38849, -6.829636], [-43.38897, -6.831723], [-43.38976, -6.833275], [-43.3903, -6.833899], [-43.39117, -6.834245], [-43.39251, -6.834276], [-43.3967, -6.833372], [-43.39822, -6.833353], [-43.40068, -6.833772], [-43.40168, -6.834245], [-43.40325, -6.835439], [-43.40451, -6.837496], [-43.40622, -6.839534], [-43.40876, -6.841329], [-43.41175, -6.842493], [-43.41448, -6.843318], [-43.41913, -6.84401], [-43.42098, -6.843852], [-43.42601, -6.842978], [-43.431, -6.840747], [-43.43725, -6.838563], [-43.43914, -6.838072], [-43.44083, -6.837844], [-43.44422, -6.83802], [-43.446, -6.83866], [-43.44975, -6.841082], [-43.45084, -6.842105], [-43.45147, -6.843312], [-43.45225, -6.844337], [-43.45313, -6.845115], [-43.45459, -6.845997], [-43.42533, -6.713856], [-43.402, -6.60949], [-43.39906, -6.612119], [-43.39808, -6.612609], [-43.39111, -6.613047], [-43.38376, -6.615761], [-43.38281, -6.616498], [-43.37987, -6.621943], [-43.3792, -6.622545], [-43.34995, -6.636878], [-43.34932, -6.637363], [-43.3439, -6.645864], [-43.34326, -6.64635], [-43.33381, -6.650378]]]}}, 
{"type": "Feature", "properties": {"CD_SETOR": "210150905000021", "CD_SIT": "8", "NM_DIST": "Barão de Grajaú", "NM_SUBDIST": null}, "geometry": {"type": "Polygon", "coordinates": [[[-43.20528, -6.380474], [-43.13252, -6.410955], [-43.13226, -6.411603], [-43.13196, -6.41335], [-43.1314, -6.414663], [-43.1314, -6.415396], [-43.13302, -6.41753], [-43.13285, -6.419056], [-43.13359, -6.419701], [-43.13357, -6.42083], [-43.13079, -6.424251], [-43.12945, -6.427412], [-43.12938, -6.428758], [-43.12862, -6.430019], [-43.12708, -6.430535], [-43.1252, -6.432084], [-43.12383, -6.434565], [-43.1219, -6.4367], [-43.11694, -6.440178], [-43.11502, -6.442788], [-43.11421, -6.446184], [-43.11331, -6.44751], [-43.11217, -6.448229], [-43.11071, -6.447943], [-43.10936, -6.448352], [-43.11072, -6.451913], [-43.11048, -6.455117], [-43.11057, -6.456075], [-43.11084, -6.456611], [-43.1158, -6.463519], [-43.12222, -6.467849], [-43.12262, -6.469205], [-43.12273, -6.470201], [-43.12426, -6.472112], [-43.12542, -6.472706], [-43.12662, -6.474486], [-43.12687, -6.475353], [-43.12745, -6.475951], [-43.12769, -6.476816], [-43.12744, -6.482654], [-43.12619, -6.484851], [-43.12608, -6.487871], [-43.1239, -6.490716], [-43.12344, -6.490875], [-43.12297, -6.491442], [-43.12256, -6.492694], [-43.12322, -6.494079], [-43.12391, -6.494841], [-43.12418, -6.497745], [-43.12366, -6.500744], [-43.12404, -6.503096], [-43.12205, -6.507793], [-43.12076, -6.510095], [-43.11949, -6.511874], [-43.11838, -6.512734], [-43.11938, -6.513096], [-43.12091, -6.513162], [-43.12246, -6.513015], [-43.12365, -6.513133], [-43.12653, -6.513015], [-43.12798, -6.512749], [-43.13039, -6.511745], [-43.13703, -6.507687], [-43.13768, -6.506978], [-43.13908, -6.506004], [-43.14107, -6.50503], [-43.14418, -6.502558], [-43.14537, -6.50182], [-43.14686, -6.50061], [-43.14796, -6.498986], [-43.14896, -6.497872], [-43.15015, -6.496986], [-43.15252, -6.494536], [-43.15344, -6.493296], [-43.15457, -6.49244], [-43.15656, -6.491997], [-43.16123, -6.489282], [-43.16236, -6.488337], [-43.16384, -6.486034], [-43.16474, -6.485485], [-43.16759, -6.487736], [-43.16726, -6.486417], [-43.16748, -6.483724], [-43.16716, -6.481335], [-43.16803, -6.480244], [-43.16829, -6.478428], [-43.16912, -6.47759], [-43.16958, -6.475825], [-43.16914, -6.475303], [-43.1688, -6.474144], [-43.16898, -6.47375], [-43.16897, -6.472739], [-43.16826, -6.471476], [-43.16748, -6.469063], [-43.16789, -6.468845], [-43.16798, -6.468521], [-43.16903, -6.467697], [-43.16892, -6.466314], [-43.17255, -6.461374], [-43.17264, -6.460937], [-43.17308, -6.46034], [-43.17378, -6.45993], [-43.17429, -6.45942], [-43.1748, -6.459284], [-43.17573, -6.459615], [-43.17615, -6.459941], [-43.17622, -6.459016], [-43.17704, -6.457934], [-43.17704, -6.457341], [-43.17948, -6.453668], [-43.18396, -6.450596], [-43.18466, -6.449815], [-43.18659, -6.44862], [-43.18728, -6.447283], [-43.18771, -6.445677], [-43.18948, -6.442063], [-43.19144, -6.439713], [-43.19394, -6.437949], [-43.19585, -6.438004], [-43.19787, -6.437822], [-43.19906, -6.437312], [-43.19942, -6.437055], [-43.2, -6.435605], [-43.20052, -6.434877], [-43.20195, -6.434093], [-43.20288, -6.433896], [-43.22809, -6.397816], [-43.22789, -6.396049], [-43.22828, -6.394364], [-43.22832, -6.392853], [-43.22868, -6.390442], [-43.22923, -6.389476], [-43.22938, -6.387949], [-43.22876, -6.386201], [-43.22804, -6.385387], [-43.22587, -6.383704], [-43.22391, -6.382498], [-43.2206, -6.382289], [-43.21725, -6.382611], [-43.21559, -6.382308], [-43.21392, -6.381514], [-43.21356, -6.380814], [-43.21217, -6.380019], [-43.21041, -6.378324], [-43.20528, -6.380474]]]}}, 
{"type": "Feature", "properties": {"CD_SETOR": "210150905000022", "CD_SIT": "8", "NM_DIST": "Barão de Grajaú", "NM_SUBDIST": null}, "geometry": {"type": "Polygon", "coordinates": [[[-42.89814, -6.590485], [-42.90141, -6.594126], [-42.90459, -6.598398], [-42.90585, -6.598085], [-42.90616, -6.596607], [-42.90751, -6.597286], [-42.90922, -6.596179], [-42.90847, -6.595176], [-42.90934, -6.594001], [-42.91088, -6.593425], [-42.91032, -6.591502], [-42.91228, -6.59084], [-42.91283, -6.591717], [-42.91401, -6.590993], [-42.9162, -6.588624], [-42.91732, -6.588084], [-42.91933, -6.588091], [-42.91993, -6.587198], [-42.9207, -6.58646], [-42.92419, -6.586513], [-42.92475, -6.587022], [-42.9262, -6.58643], [-42.92787, -6.586294], [-42.92838, -6.586], [-42.92978, -6.586504], [-42.93378, -6.586164], [-42.93501, -6.586756], [-42.9356, -6.586561], [-42.93613, -6.587208], [-42.93756, -6.58702], [-42.93829, -6.587186], [-42.93859, -6.587832], [-42.93956, -6.587614], [-42.94035, -6.586527], [-42.94115, -6.584287], [-42.94358, -6.582445], [-42.94685, -6.581709], [-42.94755, -6.582415], [-42.95032, -6.582394], [-42.95199, -6.581877], [-42.95283, -6.582422], [-42.95544, -6.584925], [-42.95984, -6.585023], [-42.96107, -6.58573], [-42.96244, -6.587957], [-42.96383, -6.588664], [-42.96631, -6.588246], [-42.96851, -6.587008], [-42.97076, -6.585458], [-42.97514, -6.583005], [-42.98499, -6.57677], [-42.98787, -6.575998], [-42.98748, -6.578159], [-42.98774, -6.583159], [-42.98646, -6.583401], [-42.9864, -6.58588], [-42.98613, -6.586872], [-42.9856, -6.587809], [-42.9867, -6.596529], [-42.98358, -6.597683], [-42.98368, -6.599159], [-42.98338, -6.60075], [-42.98248, -6.602455], [-42.98188, -6.604697], [-42.98249, -6.60714], [-42.98243, -6.60834], [-42.98171, -6.609916], [-42.98194, -6.610517], [-42.98189, -6.61118], [-42.98254, -6.612131], [-42.98546, -6.613944], [-42.98811, -6.614905], [-42.99226, -6.617273], [-42.99267, -6.617981], [-42.99314, -6.619577], [-42.99527, -6.621727], [-42.99586, -6.623477], [-42.99664, -6.624072], [-42.99731, -6.626213], [-42.99816, -6.627443], [-42.99918, -6.628309], [-43.00032, -6.628895], [-43.00474, -6.628326], [-43.00906, -6.631178], [-43.01724, -6.635007], [-43.01909, -6.635206], [-43.02061, -6.634299], [-43.02228, -6.63248], [-43.02447, -6.631048], [-43.0316, -6.627184], [-43.0369, -6.623698], [-43.04495, -6.619213], [-43.04811, -6.61687], [-43.05235, -6.609055], [-43.05435, -6.606997], [-43.05669, -6.605421], [-43.05864, -6.603458], [-43.0593, -6.601202], [-43.0602, -6.598995], [-43.06114, -6.597846], [-43.06267, -6.595017], [-43.06486, -6.592623], [-43.06754, -6.591049], [-43.06854, -6.589789], [-43.07069, -6.588385], [-43.07336, -6.584589], [-43.07262, -6.581986], [-43.07237, -6.580398], [-43.07216, -6.577101], [-43.07284, -6.5718], [-43.07398, -6.569506], [-43.07421, -6.568611], [-43.07538, -6.56729], [-43.07662, -6.564871], [-43.07852, -6.562319], [-43.07992, -6.561696], [-43.08998, -6.55862], [-43.09417, -6.556458], [-43.09764, -6.555662], [-43.10016, -6.552711], [-43.10068, -6.551562], [-43.10243, -6.540179], [-43.10361, -6.535999], [-43.10387, -6.535705], [-43.1045, -6.535507], [-43.10462, -6.534982], [-43.10438, -6.534192], [-43.10522, -6.531435], [-43.10643, -6.529002], [-43.10847, -6.525831], [-43.10917, -6.525276], [-43.10972, -6.524388], [-43.11195, -6.521882], [-43.11291, -6.519588], [-43.11362, -6.516732], [-43.11251, -6.517059], [-43.11185, -6.517115], [-43.11132, -6.516877], [-43.10828, -6.517246], [-43.10677, -6.517747], [-43.106, -6.518617], [-43.10446, -6.519176], [-43.1033, -6.519879], [-43.10244, -6.519923], [-43.10106, -6.520704], [-43.10021, -6.520982], [-43.09745, -6.52262], [-43.09386, -6.523426], [-43.0892, -6.52661], [-43.08807, -6.526774], [-43.0871, -6.525883], [-43.08646, -6.526029], [-43.08614, -6.528647], [-43.0816, -6.53122], [-43.07609, -6.535599], [-43.07132, -6.535338], [-43.07065, -6.535658], [-43.06393, -6.535565], [-43.05941, -6.53653], [-43.05853, -6.53639], [-43.05659, -6.537196], [-43.05384, -6.537008], [-43.05159, -6.535688], [-43.04985, -6.535483], [-43.0484, -6.535705], [-43.04602, -6.535784], [-43.04469, -6.535617], [-43.04262, -6.536359], [-43.04002, -6.536998], [-43.03859, -6.535886], [-43.03768, -6.534564], [-43.03637, -6.534178], [-43.03463, -6.53409], [-43.03417, -6.534595], [-43.0316, -6.535209], [-43.03037, -6.536699], [-43.02926, -6.537746], [-43.02771, -6.538528], [-43.02666, -6.539378], [-43.0232, -6.541206], [-43.02198, -6.539236], [-43.0204, -6.53859], [-43.0189, -6.540328], [-43.01778, -6.540463], [-43.01609, -6.540223], [-43.01413, -6.540186], [-43.01081, -6.540809], [-43.00909, -6.541964], [-43.00757, -6.54225], [-43.00505, -6.542333], [-42.99761, -6.546596], [-42.9969, -6.546192], [-42.99622, -6.544941], [-42.99366, -6.54482], [-42.99288, -6.545107], [-42.99036, -6.545269], [-42.98688, -6.544599], [-42.98496, -6.54562], [-42.98404, -6.548801], [-42.98139, -6.553045], [-42.9802, -6.553731], [-42.97957, -6.553861], [-42.97799, -6.55352], [-42.97724, -6.553933], [-42.97584, -6.554323], [-42.9739, -6.553994], [-42.97206, -6.554476], [-42.97134, -6.555766], [-42.96878, -6.556977], [-42.9664, -6.557118], [-42.96373, -6.557713], [-42.9625, -6.557667], [-42.96195, -6.557895], [-42.95935, -6.561242], [-42.95859, -6.561652], [-42.95599, -6.562394], [-42.95511, -6.562409], [-42.95422, -6.562842], [-42.95393, -6.56327], [-42.9534, -6.563373], [-42.9504, -6.56558], [-42.95047, -6.566434], [-42.94996, -6.567416], [-42.9489, -6.56818], [-42.94784, -6.569717], [-42.94619, -6.571605], [-42.94493, -6.572656], [-42.94455, -6.574519], [-42.94193, -6.575166], [-42.94098, -6.575732], [-42.93994, -6.575904], [-42.93767, -6.575691], [-42.9372, -6.576024], [-42.93443, -6.576078], [-42.93408, -6.57642], [-42.9328, -6.577015], [-42.9314, -6.578134], [-42.92951, -6.578591], [-42.92903, -6.579906], [-42.92861, -6.58037], [-42.92538, -6.581375], [-42.91948, -6.581497], [-42.91787, -6.582014], [-42.91152, -6.584527], [-42.90991, -6.585692], [-42.90802, -6.588446], [-42.90182, -6.589587], [-42.89814, -6.590485]]]}}, 
{"type": "Feature", "properties": {"CD_SETOR": "210150905000024", "CD_SIT": "1", "NM_DIST": "Barão de Grajaú", "NM_SUBDIST": null}, "geometry": {"type": "Polygon", "coordinates": [[[-43.02304, -6.737975], [-43.02512, -6.747616], [-43.0249, -6.750411], [-43.02579, -6.750444], [-43.02803, -6.749997], [-43.03039, -6.749973], [-43.03026, -6.748355], [-43.03091, -6.746101], [-43.03159, -6.744931], [-43.03174, -6.740346], [-43.03163, -6.739276], [-43.03192, -6.736113], [-43.02832, -6.737135], [-43.02304, -6.737975]]]}}, 
{"type": "Feature", "properties": {"CD_SETOR": "210150905000025", "CD_SIT": "1", "NM_DIST": "Barão de Grajaú", "NM_SUBDIST": null}, "geometry": {"type": "Polygon", "coordinates": [[[-43.00329, -6.755874], [-43.00789, -6.758554], [-43.01121, -6.76005], [-43.01191, -6.758898], [-43.01288, -6.756661], [-43.01413, -6.755406], [-43.01497, -6.755033], [-43.01592, -6.754853], [-43.0191, -6.755143], [-43.0191, -6.752534], [-43.01898, -6.752158], [-43.01674, -6.751845], [-43.01516, -6.749578], [-43.01452, -6.749758], [-43.01509, -6.750711], [-43.01569, -6.75246], [-43.01386, -6.753258], [-43.01279, -6.751295], [-43.01079, -6.749473], [-43.00624, -6.748072], [-43.00399, -6.747159], [-43.00119, -6.753737], [-43.00293, -6.755122], [-43.00335, -6.755668], [-43.00329, -6.755874]]]}}, 
{"type": "Feature", "properties": {"CD_SETOR": "210150905000026", "CD_SIT": "1", "NM_DIST": "Barão de Grajaú", "NM_SUBDIST": null}, "geometry": {"type": "Polygon", "coordinates": [[[-43.03192, -6.736113], [-43.03163, -6.739276], [-43.03174, -6.740346], [-43.03159, -6.744931], [-43.03091, -6.746101], [-43.03026, -6.748355], [-43.03039, -6.749973], [-43.02956, -6.74992], [-43.02939, -6.75313], [-43.0438, -6.748286], [-43.04306, -6.74721], [-43.04071, -6.745003], [-43.04026, -6.744449], [-43.03995, -6.743626], [-43.04039, -6.742391], [-43.04063, -6.735551], [-43.03192, -6.736113]]]}}, 
{"type": "Feature", "properties": {"CD_SETOR": "210150905000027", "CD_SIT": "1", "NM_DIST": "Barão de Grajaú", "NM_SUBDIST": null}, "geometry": {"type": "Polygon", "coordinates": [[[-43.01319, -6.756227], [-43.01479, -6.756798], [-43.02111, -6.758295], [-43.02145, -6.757277], [-43.02114, -6.757048], [-43.02147, -6.755414], [-43.01592, -6.754853], [-43.01442, -6.755252], [-43.01319, -6.756227]]]}}, 
{"type": "Feature", "properties": {"CD_SETOR": "210150905000028", "CD_SIT": "1", "NM_DIST": "Barão de Grajaú", "NM_SUBDIST": null}, "geometry": {"type": "Polygon", "coordinates": [[[-43.0249, -6.750411], [-43.02422, -6.755621], [-43.02765, -6.755292], [-43.02741, -6.753805], [-43.02683, -6.751966], [-43.02658, -6.750339], [-43.0249, -6.750411]]]}}, 
{"type": "Feature", "properties": {"CD_SETOR": "210150905000029", "CD_SIT": "1", "NM_DIST": "Barão de Grajaú", "NM_SUBDIST": null}, "geometry": {"type": "Polygon", "coordinates": [[[-43.00399, -6.747159], [-43.00624, -6.748072], [-43.01079, -6.749473], [-43.01279, -6.751295], [-43.01386, -6.753258], [-43.01491, -6.752793], [-43.01406, -6.751674], [-43.0134, -6.750432], [-43.01307, -6.749513], [-43.01323, -6.749472], [-43.01239, -6.747757], [-43.01096, -6.7431], [-43.00933, -6.739429], [-43.00865, -6.739736], [-43.00595, -6.744046], [-43.00491, -6.745411], [-43.00399, -6.747159]]]}}, 
{"type": "Feature", "properties": {"CD_SETOR": "210150905000030", "CD_SIT": "5", "NM_DIST": "Barão de Grajaú", "NM_SUBDIST": null}, "geometry": {"type": "Polygon", "coordinates": [[[-42.88895, -6.544467], [-42.88791, -6.551463], [-42.88477, -6.562171], [-42.88426, -6.564661], [-42.88434, -6.567653], [-42.8848, -6.570243], [-42.88714, -6.577768], [-42.8885, -6.58016], [-42.89017, -6.582573], [-42.8966, -6.581394], [-42.90058, -6.579303], [-42.89311, -6.547627], [-42.88895, -6.544467]]]}}, 
{"type": "Feature", "properties": {"CD_SETOR": "210150905000033", "CD_SIT": "5", "NM_DIST": "Barão de Grajaú", "NM_SUBDIST": null}, "geometry": {"type": "Polygon", "coordinates": [[[-42.96335, -6.688706], [-42.96438, -6.690897], [-42.98092, -6.68834], [-42.9775, -6.670841], [-42.96606, -6.677145], [-42.96181, -6.685205], [-42.96335, -6.688706]]]}}, 
{"type": "Feature", "properties": {"CD_SETOR": "210150905000034", "CD_SIT": "8", "NM_DIST": "Barão de Grajaú", "NM_SUBDIST": null}, "geometry": {"type": "Polygon", "coordinates": [[[-43.19647, -6.499173], [-43.19762, -6.503237], [-43.19931, -6.505248], [-43.20067, -6.506321], [-43.20399, -6.507486], [-43.20529, -6.507582], [-43.20786, -6.508263], [-43.20955, -6.509607], [-43.21272, -6.512929], [-43.21392, -6.513803], [-43.21665, -6.513906], [-43.21703, -6.514223], [-43.21592, -6.515944], [-43.21582, -6.51709], [-43.21611, -6.517635], [-43.21861, -6.518284], [-43.22039, -6.517787], [-43.22283, -6.515201], [-43.22529, -6.515104], [-43.22797, -6.515498], [-43.22956, -6.515031], [-43.23232, -6.51346], [-43.23584, -6.513166], [-43.2376, -6.513393], [-43.24045, -6.512833], [-43.24216, -6.513217], [-43.24419, -6.513201], [-43.24624, -6.512821], [-43.24904, -6.51324], [-43.25091, -6.514057], [-43.25242, -6.514186], [-43.25452, -6.514026], [-43.25518, -6.514782], [-43.25636, -6.514753], [-43.25678, -6.513588], [-43.25854, -6.513497], [-43.25981, -6.514053], [-43.26255, -6.516049], [-43.2639, -6.51629], [-43.26911, -6.516097], [-43.27223, -6.516161], [-43.27303, -6.515917], [-43.27552, -6.515909], [-43.27829, -6.516486], [-43.28098, -6.517625], [-43.2886, -6.520201], [-43.29023, -6.522033], [-43.29222, -6.523474], [-43.2936, -6.525463], [-43.29674, -6.527302], [-43.29937, -6.530022], [-43.30298, -6.530761], [-43.30482, -6.531395], [-43.30725, -6.534311], [-43.30932, -6.535104], [-43.31117, -6.536506], [-43.31252, -6.536988], [-43.31438, -6.537401], [-43.3159, -6.537249], [-43.31842, -6.537588], [-43.31863, -6.536478], [-43.31831, -6.533026], [-43.31712, -6.529534], [-43.31684, -6.527524], [-43.31714, -6.526295], [-43.31733, -6.524554], [-43.31789, -6.52267], [-43.31925, -6.520852], [-43.31937, -6.518431], [-43.31965, -6.518338], [-43.31949, -6.517766], [-43.31838, -6.515873], [-43.31644, -6.514257], [-43.31594, -6.514078], [-43.31217, -6.513731], [-43.31155, -6.51218], [-43.31107, -6.511882], [-43.31065, -6.511327], [-43.31032, -6.511277], [-43.30978, -6.510821], [-43.30929, -6.510643], [-43.30869, -6.509931], [-43.30742, -6.509009], [-43.307, -6.508405], [-43.30624, -6.50779], [-43.3043, -6.506702], [-43.30352, -6.505978], [-43.30177, -6.505059], [-43.30031, -6.505247], [-43.29898, -6.506625], [-43.29821, -6.506714], [-43.29756, -6.506486], [-43.29621, -6.506655], [-43.29412, -6.50609], [-43.29273, -6.504345], [-43.29201, -6.503968], [-43.29153, -6.503502], [-43.29142, -6.502476], [-43.28969, -6.501762], [-43.28864, -6.500979], [-43.28676, -6.498852], [-43.28544, -6.49796], [-43.28052, -6.496], [-43.27885, -6.495117], [-43.27818, -6.494522], [-43.27747, -6.493342], [-43.27704, -6.493144], [-43.27297, -6.492668], [-43.27216, -6.492733], [-43.27101, -6.493354], [-43.26875, -6.494179], [-43.26692, -6.495504], [-43.26505, -6.49621], [-43.26154, -6.498561], [-43.26036, -6.499137], [-43.25675, -6.500251], [-43.2553, -6.500861], [-43.25439, -6.500966], [-43.25166, -6.500953], [-43.25032, -6.501116], [-43.24858, -6.500974], [-43.24632, -6.50039], [-43.24477, -6.499531], [-43.24182, -6.499458], [-43.24037, -6.499602], [-43.23911, -6.499944], [-43.2326, -6.502227], [-43.22991, -6.502455], [-43.22744, -6.502974], [-43.22683, -6.502888], [-43.22587, -6.502374], [-43.2243, -6.500159], [-43.21893, -6.49569], [-43.21797, -6.494117], [-43.2167, -6.493374], [-43.21615, -6.493203], [-43.21479, -6.493134], [-43.21367, -6.492544], [-43.21303, -6.492471], [-43.2126, -6.492501], [-43.2118, -6.492891], [-43.21013, -6.49427], [-43.20685, -6.49535], [-43.20639, -6.495653], [-43.20582, -6.496561], [-43.20558, -6.4967], [-43.20452, -6.496744], [-43.20328, -6.49707], [-43.20189, -6.496857], [-43.20137, -6.496927], [-43.19647, -6.499173]]]}}, 
{"type": "Feature", "properties": {"CD_SETOR": "210150905000035", "CD_SIT": "8", "NM_DIST": "Barão de Grajaú", "NM_SUBDIST": null}, "geometry": {"type": "Polygon", "coordinates": [[[-43.28636, -6.477871], [-43.28637, -6.481051], [-43.28726, -6.482828], [-43.28727, -6.483287], [-43.2868, -6.48366], [-43.28429, -6.483885], [-43.28241, -6.484562], [-43.28042, -6.484811], [-43.27783, -6.486446], [-43.27545, -6.48761], [-43.27456, -6.488737], [-43.27263, -6.492182], [-43.27216, -6.492733], [-43.27297, -6.492668], [-43.27704, -6.493144], [-43.27747, -6.493342], [-43.27818, -6.494522], [-43.27885, -6.495117], [-43.28052, -6.496], [-43.28544, -6.49796], [-43.28676, -6.498852], [-43.28864, -6.500979], [-43.28969, -6.501762], [-43.29142, -6.502476], [-43.29153, -6.503502], [-43.29201, -6.503968], [-43.29273, -6.504345], [-43.29412, -6.50609], [-43.29621, -6.506655], [-43.29756, -6.506486], [-43.29821, -6.506714], [-43.29898, -6.506625], [-43.30031, -6.505247], [-43.30177, -6.505059], [-43.30224, -6.505264], [-43.30352, -6.505978], [-43.3043, -6.506702], [-43.30624, -6.50779], [-43.307, -6.508405], [-43.30742, -6.509009], [-43.30869, -6.509931], [-43.30929, -6.510643], [-43.30978, -6.510821], [-43.31032, -6.511277], [-43.31065, -6.511327], [-43.31107, -6.511882], [-43.31155, -6.51218], [-43.31217, -6.513731], [-43.31362, -6.513959], [-43.31537, -6.513939], [-43.31644, -6.514257], [-43.31838, -6.515873], [-43.31949, -6.517766], [-43.31965, -6.518338], [-43.34467, -6.510098], [-43.34921, -6.51059], [-43.35381, -6.508504], [-43.35741, -6.509777], [-43.36059, -6.511888], [-43.36674, -6.512986], [-43.36909, -6.51284], [-43.37189, -6.512986], [-43.37537, -6.513922], [-43.37586, -6.512323], [-43.37587, -6.510858], [-43.37628, -6.51019], [-43.37817, -6.508334], [-43.37936, -6.505922], [-43.3803, -6.503122], [-43.38121, -6.502524], [-43.38289, -6.500435], [-43.38359, -6.498206], [-43.38534, -6.495977], [-43.38618, -6.494583], [-43.38633, -6.491653], [-43.38706, -6.489189], [-43.38661, -6.488827], [-43.38633, -6.487791], [-43.3847, -6.485614], [-43.38362, -6.484302], [-43.38261, -6.484054], [-43.38216, -6.4828], [-43.38172, -6.482489], [-43.38137, -6.481468], [-43.38188, -6.480049], [-43.38191, -6.479003], [-43.3816, -6.478469], [-43.38046, -6.477361], [-43.37964, -6.477203], [-43.37926, -6.475238], [-43.37864, -6.473725], [-43.37551, -6.472077], [-43.37462, -6.471091], [-43.37324, -6.470488], [-43.37276, -6.470116], [-43.37187, -6.469237], [-43.37093, -6.467185], [-43.3699, -6.466041], [-43.36842, -6.463735], [-43.36676, -6.462855], [-43.36162, -6.4593], [-43.35993, -6.457718], [-43.3562, -6.454969], [-43.35565, -6.454097], [-43.35559, -6.453002], [-43.35438, -6.448668], [-43.3525, -6.447337], [-43.35219, -6.446579], [-43.35228, -6.445776], [-43.35183, -6.445445], [-43.35178, -6.44495], [-43.3499, -6.445377], [-43.34929, -6.444593], [-43.34854, -6.444182], [-43.34823, -6.443447], [-43.34822, -6.443052], [-43.34759, -6.44265], [-43.34587, -6.442625], [-43.34501, -6.442316], [-43.34454, -6.442318], [-43.34357, -6.442686], [-43.34263, -6.442554], [-43.34192, -6.442202], [-43.34148, -6.442763], [-43.33995, -6.443643], [-43.33613, -6.443625], [-43.33481, -6.443943], [-43.33405, -6.444527], [-43.33371, -6.445181], [-43.33203, -6.445493], [-43.33119, -6.446166], [-43.3306, -6.445917], [-43.3298, -6.446375], [-43.32818, -6.445704], [-43.32795, -6.446268], [-43.32638, -6.446847], [-43.32673, -6.448596], [-43.32642, -6.449376], [-43.32606, -6.449794], [-43.32479, -6.450954], [-43.32315, -6.451433], [-43.32271, -6.451696], [-43.322, -6.45177], [-43.32175, -6.452036], [-43.32133, -6.453008], [-43.32144, -6.453469], [-43.32191, -6.454125], [-43.32164, -6.455138], [-43.32085, -6.455916], [-43.32108, -6.457104], [-43.32001, -6.457716], [-43.31869, -6.461767], [-43.31738, -6.463633], [-43.31576, -6.464818], [-43.31441, -6.464861], [-43.31305, -6.464595], [-43.31229, -6.464265], [-43.30954, -6.464372], [-43.30702, -6.465041], [-43.30388, -6.465529], [-43.30264, -6.466061], [-43.30217, -6.467231], [-43.30056, -6.469382], [-43.29626, -6.472715], [-43.29376, -6.473999], [-43.29151, -6.475598], [-43.29043, -6.475728], [-43.28957, -6.476247], [-43.28855, -6.47595], [-43.28743, -6.476185], [-43.28636, -6.477871]]]}}, 
{"type": "Feature", "properties": {"CD_SETOR": "210150905000036", "CD_SIT": "8", "NM_DIST": "Barão de Grajaú", "NM_SUBDIST": null}, "geometry": {"type": "Polygon", "coordinates": [[[-43.28454, -6.464674], [-43.28442, -6.465877], [-43.28396, -6.467076], [-43.28371, -6.470049], [-43.2842, -6.471457], [-43.28485, -6.472719], [-43.28494, -6.473801], [-43.28589, -6.477091], [-43.28636, -6.477871], [-43.28743, -6.476185], [-43.28855, -6.47595], [-43.28957, -6.476247], [-43.29043, -6.475728], [-43.29151, -6.475598], [-43.29376, -6.473999], [-43.29626, -6.472715], [-43.30056, -6.469382], [-43.30217, -6.467231], [-43.30264, -6.466061], [-43.30388, -6.465529], [-43.30702, -6.465041], [-43.30954, -6.464372], [-43.31229, -6.464265], [-43.31305, -6.464595], [-43.31441, -6.464861], [-43.31576, -6.464818], [-43.31738, -6.463633], [-43.31869, -6.461767], [-43.32001, -6.457716], [-43.32108, -6.457104], [-43.32085, -6.455916], [-43.32164, -6.455138], [-43.32191, -6.454125], [-43.32144, -6.453469], [-43.32133, -6.453008], [-43.32175, -6.452036], [-43.322, -6.45177], [-43.32271, -6.451696], [-43.32315, -6.451433], [-43.32479, -6.450954], [-43.32606, -6.449794], [-43.32642, -6.449376], [-43.32673, -6.448596], [-43.32638, -6.446847], [-43.32795, -6.446268], [-43.32818, -6.445704], [-43.3298, -6.446375], [-43.3306, -6.445917], [-43.33119, -6.446166], [-43.33203, -6.445493], [-43.33371, -6.445181], [-43.33405, -6.444527], [-43.33481, -6.443943], [-43.33613, -6.443625], [-43.33995, -6.443643], [-43.34148, -6.442763], [-43.34192, -6.442202], [-43.34263, -6.442554], [-43.34357, -6.442686], [-43.34465, -6.4423], [-43.34587, -6.442625], [-43.34759, -6.44265], [-43.34822, -6.443052], [-43.34823, -6.443447], [-43.34854, -6.444182], [-43.34929, -6.444593], [-43.34962, -6.445012], [-43.35065, -6.443847], [-43.35165, -6.441229], [-43.35337, -6.439372], [-43.35594, -6.437183], [-43.35717, -6.434517], [-43.35794, -6.432137], [-43.35917, -6.430471], [-43.35855, -6.429709], [-43.35741, -6.429566], [-43.35394, -6.428186], [-43.35046, -6.42829], [-43.349, -6.4271], [-43.34891, -6.426172], [-43.34779, -6.42453], [-43.3471, -6.423887], [-43.34398, -6.422554], [-43.34334, -6.421983], [-43.34227, -6.418282], [-43.3416, -6.417639], [-43.3402, -6.417378], [-43.3372, -6.416235], [-43.33634, -6.416092], [-43.33515, -6.415545], [-43.33451, -6.414831], [-43.33537, -6.409386], [-43.33639, -6.409577], [-43.33715, -6.409291], [-43.33794, -6.40922], [-43.33844, -6.409386], [-43.34315, -6.407411], [-43.34363, -6.407459], [-43.34384, -6.407268], [-43.34398, -6.406269], [-43.34332, -6.405102], [-43.34348, -6.404174], [-43.34451, -6.402841], [-43.3452, -6.402222], [-43.34539, -6.401508], [-43.35025, -6.398635], [-43.34899, -6.39659], [-43.34807, -6.395935], [-43.34695, -6.394768], [-43.34472, -6.393364], [-43.3437, -6.391453], [-43.34478, -6.389362], [-43.34497, -6.388804], [-43.34483, -6.388105], [-43.34451, -6.387545], [-43.34386, -6.387078], [-43.34162, -6.386233], [-43.34125, -6.385301], [-43.34126, -6.384556], [-43.34172, -6.384092], [-43.34312, -6.383631], [-43.34676, -6.382944], [-43.34797, -6.382064], [-43.34867, -6.380646], [-43.34845, -6.376736], [-43.3479, -6.374965], [-43.34744, -6.374126], [-43.34739, -6.373241], [-43.34829, -6.371822], [-43.34863, -6.370856], [-43.34919, -6.367655], [-43.35039, -6.364289], [-43.35151, -6.36017], [-43.35258, -6.358858], [-43.3538, -6.35806], [-43.35493, -6.356074], [-43.3559, -6.352442], [-43.35638, -6.351359], [-43.35636, -6.350361], [-43.35601, -6.349973], [-43.35595, -6.34945], [-43.3357, -6.347382], [-43.33381, -6.349162], [-43.33284, -6.350533], [-43.3331, -6.351548], [-43.33396, -6.352895], [-43.33403, -6.354643], [-43.33448, -6.355895], [-43.3331, -6.359385], [-43.33277, -6.361954], [-43.33198, -6.36516], [-43.33197, -6.366141], [-43.33226, -6.367242], [-43.33244, -6.36787], [-43.33292, -6.36867], [-43.33297, -6.373263], [-43.33259, -6.377294], [-43.3324, -6.37922], [-43.33078, -6.380375], [-43.32973, -6.382986], [-43.32689, -6.383943], [-43.3251, -6.385492], [-43.32359, -6.387021], [-43.32115, -6.390499], [-43.31946, -6.39355], [-43.31728, -6.39495], [-43.31508, -6.396758], [-43.30228, -6.391665], [-43.30062, -6.393778], [-43.30015, -6.395044], [-43.29848, -6.395973], [-43.29806, -6.397593], [-43.29899, -6.398666], [-43.30125, -6.399621], [-43.30162, -6.400374], [-43.30103, -6.402154], [-43.29883, -6.403547], [-43.2967, -6.405724], [-43.29741, -6.408013], [-43.29354, -6.413388], [-43.29261, -6.415415], [-43.29038, -6.419292], [-43.28897, -6.420446], [-43.28805, -6.420729], [-43.28635, -6.422486], [-43.28526, -6.423077], [-43.28476, -6.424781], [-43.28671, -6.429912], [-43.2868, -6.431494], [-43.28746, -6.434266], [-43.28713, -6.435215], [-43.28697, -6.436384], [-43.28712, -6.437878], [-43.28697, -6.439316], [-43.28629, -6.44042], [-43.28583, -6.442648], [-43.28528, -6.444354], [-43.28572, -6.445693], [-43.28516, -6.447344], [-43.28478, -6.449192], [-43.28494, -6.449976], [-43.28614, -6.452094], [-43.28615, -6.453155], [-43.28706, -6.453611], [-43.28737, -6.454557], [-43.28847, -6.454875], [-43.28874, -6.455277], [-43.28902, -6.456201], [-43.28907, -6.457392], [-43.28865, -6.459215], [-43.28792, -6.459938], [-43.28712, -6.461332], [-43.28595, -6.462206], [-43.28552, -6.462953], [-43.28473, -6.463491], [-43.28454, -6.464674]]]}}, 
{"type": "Feature", "properties": {"CD_SETOR": "210150905000037", "CD_SIT": "8", "NM_DIST": "Barão de Grajaú", "NM_SUBDIST": null}, "geometry": {"type": "Polygon", "coordinates": [[[-43.35025, -6.398635], [-43.34539, -6.401508], [-43.3452, -6.402222], [-43.34451, -6.402841], [-43.34348, -6.404174], [-43.34332, -6.405102], [-43.34398, -6.406269], [-43.34384, -6.407268], [-43.34363, -6.407459], [-43.34315, -6.407411], [-43.33844, -6.409386], [-43.33794, -6.40922], [-43.33715, -6.409291], [-43.33639, -6.409577], [-43.33537, -6.409386], [-43.33451, -6.414831], [-43.33515, -6.415545], [-43.33634, -6.416092], [-43.3372, -6.416235], [-43.3402, -6.417378], [-43.3416, -6.417639], [-43.34227, -6.418282], [-43.34334, -6.421983], [-43.34398, -6.422554], [-43.3471, -6.423887], [-43.34779, -6.42453], [-43.34891, -6.426172], [-43.349, -6.4271], [-43.35046, -6.42829], [-43.35394, -6.428186], [-43.35741, -6.429566], [-43.35855, -6.429709], [-43.35917, -6.430471], [-43.35794, -6.432137], [-43.35717, -6.434517], [-43.35594, -6.437183], [-43.35337, -6.439372], [-43.35165, -6.441229], [-43.35065, -6.443847], [-43.34962, -6.445012], [-43.3499, -6.445377], [-43.35178, -6.44495], [-43.35183, -6.445445], [-43.35228, -6.445776], [-43.35219, -6.446579], [-43.3525, -6.447337], [-43.35438, -6.448668], [-43.35559, -6.453002], [-43.35565, -6.454097], [-43.3562, -6.454969], [-43.35993, -6.457718], [-43.36162, -6.4593], [-43.36676, -6.462855], [-43.36842, -6.463735], [-43.3699, -6.466041], [-43.37093, -6.467185], [-43.37187, -6.469237], [-43.37276, -6.470116], [-43.37324, -6.470488], [-43.37462, -6.471091], [-43.37551, -6.472077], [-43.37864, -6.473725], [-43.37926, -6.475238], [-43.37964, -6.477203], [-43.38046, -6.477361], [-43.3816, -6.478469], [-43.38191, -6.479003], [-43.38188, -6.480049], [-43.38137, -6.481468], [-43.38172, -6.482489], [-43.38216, -6.4828], [-43.38261, -6.484054], [-43.38362, -6.484302], [-43.3847, -6.485614], [-43.38633, -6.487791], [-43.38661, -6.488827], [-43.38706, -6.489189], [-43.38781, -6.484678], [-43.39075, -6.482036], [-43.39201, -6.480085], [-43.39338, -6.478513], [-43.39526, -6.472774], [-43.39526, -6.471147], [-43.39567, -6.468246], [-43.39622, -6.466801], [-43.39826, -6.465108], [-43.39993, -6.461052], [-43.40104, -6.458975], [-43.40358, -6.4582], [-43.40784, -6.458073], [-43.40948, -6.457733], [-43.41068, -6.457197], [-43.41222, -6.455494], [-43.41206, -6.454228], [-43.41065, -6.452847], [-43.40884, -6.451832], [-43.40687, -6.450351], [-43.40717, -6.446729], [-43.40695, -6.444733], [-43.40631, -6.443457], [-43.40762, -6.440938], [-43.40729, -6.438665], [-43.40565, -6.433472], [-43.40583, -6.431119], [-43.40678, -6.429137], [-43.40979, -6.427187], [-43.41045, -6.426107], [-43.41045, -6.424925], [-43.40956, -6.423287], [-43.40817, -6.41955], [-43.40764, -6.417183], [-43.40776, -6.415648], [-43.40814, -6.41456], [-43.4108, -6.411161], [-43.41256, -6.409546], [-43.4162, -6.407867], [-43.41796, -6.406253], [-43.4199, -6.402294], [-43.42176, -6.40109], [-43.3952, -6.397507], [-43.39422, -6.397041], [-43.39304, -6.396168], [-43.39178, -6.394323], [-43.39111, -6.393774], [-43.3899, -6.393596], [-43.38862, -6.393088], [-43.38176, -6.392007], [-43.37567, -6.390044], [-43.37261, -6.38971], [-43.36965, -6.390037], [-43.36788, -6.390799], [-43.36527, -6.392275], [-43.35845, -6.392254], [-43.35787, -6.392553], [-43.35592, -6.393015], [-43.35472, -6.393706], [-43.35348, -6.397517], [-43.35207, -6.398803], [-43.35101, -6.399152], [-43.35036, -6.398857], [-43.35025, -6.398635]]]}}]}