{"type": "FeatureCollection", "features": [
{"type": "Feature", "properties": {"CD_SETOR": "210470105000001", "CD_SIT": "1", "NM_DIST": "Graça Aranha", "NM_SUBDIST": null}, "geometry": {"type": "Polygon", "coordinates": [[[-44.33597, -5.394576], [-44.33386, -5.403698], [-44.33194, -5.404647], [-44.33075, -5.405833], [-44.33195, -5.407221], [-44.33247, -5.406848], [-44.33605, -5.408695], [-44.33668, -5.407918], [-44.33798, -5.40797], [-44.34331, -5.402947], [-44.33601, -5.394425], [-44.33597, -5.394576]]]}}, 
{"type": "Feature", "properties": {"CD_SETOR": "210470105000002", "CD_SIT": "1", "NM_DIST": "Graça Aranha", "NM_SUBDIST": null}, "geometry": {"type": "Polygon", "coordinates": [[[-44.32072, -5.402491], [-44.32147, -5.403287], [-44.32191, -5.403456], [-44.32261, -5.404122], [-44.32576, -5.405467], [-44.32659, -5.406373], [-44.3271, -5.407255], [-44.3291, -5.408396], [-44.33225, -5.40984], [-44.33352, -5.407417], [-44.33247, -5.406848], [-44.33195, -5.407221], [-44.33075, -5.405833], [-44.33194, -5.404647], [-44.33386, -5.403698], [-44.33597, -5.394576], [-44.33264, -5.396463], [-44.32649, -5.400369], [-44.32072, -5.402491]]]}}, 
{"type": "Feature", "properties": {"CD_SETOR": "210470105000003", "CD_SIT": "1", "NM_DIST": "Graça Aranha", "NM_SUBDIST": null}, "geometry": {"type": "Polygon", "coordinates": [[[-44.3309, -5.412832], [-44.33285, -5.414138], [-44.33767, -5.408001], [-44.33668, -5.407918], [-44.33605, -5.408695], [-44.33352, -5.407417], [-44.33225, -5.40984], [-44.32771, -5.407626], [-44.3271, -5.407255], [-44.32659, -5.406373], [-44.32576, -5.405467], [-44.32261, -5.404122], [-44.32191, -5.403456], [-44.32147, -5.403287], [-44.32072, -5.402491], [-44.32047, -5.402697], [-44.32045, -5.402975], [-44.32069, -5.402963], [-44.32052, -5.40317], [-44.32062, -5.403448], [-44.32075, -5.403596], [-44.32103, -5.403549], [-44.32079, -5.403868], [-44.3211, -5.40391], [-44.32103, -5.404253], [-44.3207, -5.404276], [-44.3207, -5.404412], [-44.3213, -5.404318], [-44.32094, -5.404655], [-44.32139, -5.404685], [-44.3211, -5.405069], [-44.32109, -5.405361], [-44.3309, -5.412832]]]}}, 
{"type": "Feature", "properties": {"CD_SETOR": "210470105000004", "CD_SIT": "8", "NM_DIST": "Graça Aranha", "NM_SUBDIST": null}, "geometry": {"type": "Polygon", "coordinates": [[[-44.3444, -5.348846], [-44.34485, -5.349229], [-44.34341, -5.359375], [-44.34186, -5.367262], [-44.34305, -5.36944], [-44.34397, -5.372986], [-44.34371, -5.379805], [-44.3433, -5.381258], [-44.34039, -5.385427], [-44.33659, -5.392538], [-44.33601, -5.394425], [-44.34331, -5.402947], [-44.33798, -5.40797], [-44.33767, -5.408001], [-44.33285, -5.414138], [-44.3309, -5.412832], [-44.32854, -5.414608], [-44.32684, -5.417552], [-44.3252, -5.418813], [-44.32192, -5.420606], [-44.31694, -5.424442], [-44.31513, -5.426084], [-44.3118, -5.427854], [-44.31086, -5.428661], [-44.30875, -5.432706], [-44.3076, -5.434263], [-44.30588, -5.437128], [-44.30459, -5.438622], [-44.30386, -5.439831], [-44.303, -5.440858], [-44.30145, -5.443576], [-44.30036, -5.444857], [-44.29912, -5.445649], [-44.3042, -5.447734], [-44.31349, -5.451194], [-44.31394, -5.450848], [-44.31478, -5.451281], [-44.31578, -5.452239], [-44.31747, -5.4532], [-44.31826, -5.45435], [-44.32046, -5.455927], [-44.32271, -5.456456], [-44.32429, -5.457177], [-44.32654, -5.457639], [-44.32969, -5.459858], [-44.33059, -5.459608], [-44.33111, -5.459804], [-44.33154, -5.460734], [-44.33229, -5.461809], [-44.33265, -5.461657], [-44.3341, -5.462862], [-44.33524, -5.465232], [-44.33593, -5.468157], [-44.33645, -5.469522], [-44.33738, -5.470447], [-44.33909, -5.471462], [-44.34027, -5.472659], [-44.34116, -5.473851], [-44.34276, -5.474599], [-44.34423, -5.474426], [-44.34552, -5.473892], [-44.34624, -5.472266], [-44.34735, -5.470363], [-44.34765, -5.468906], [-44.34784, -5.466634], [-44.34788, -5.463451], [-44.34899, -5.462373], [-44.34927, -5.4611], [-44.35229, -5.458856], [-44.35348, -5.458502], [-44.35494, -5.458431], [-44.35798, -5.458981], [-44.36137, -5.45998], [-44.3636, -5.461188], [-44.36418, -5.462615], [-44.36756, -5.464601], [-44.36926, -5.465098], [-44.37195, -5.466413], [-44.37417, -5.466749], [-44.37639, -5.46818], [-44.37847, -5.47014], [-44.38118, -5.470385], [-44.38556, -5.468354], [-44.38767, -5.467037], [-44.38966, -5.464623], [-44.39083, -5.464734], [-44.3951, -5.467867], [-44.39639, -5.46798], [-44.39908, -5.466886], [-44.40048, -5.465567], [-44.40165, -5.464906], [-44.40487, -5.465515], [-44.40966, -5.464969], [-44.41106, -5.464972], [-44.41246, -5.465856], [-44.41328, -5.467062], [-44.4141, -5.467832], [-44.41579, -5.468658], [-44.41767, -5.46921], [-44.41895, -5.470088], [-44.42105, -5.470969], [-44.42293, -5.471194], [-44.42465, -5.470872], [-44.42748, -5.470739], [-44.42741, -5.469079], [-44.42423, -5.457676], [-44.42433, -5.454974], [-44.42925, -5.451654], [-44.42984, -5.450362], [-44.42895, -5.448978], [-44.42601, -5.448791], [-44.42112, -5.450086], [-44.41932, -5.450066], [-44.41588, -5.450763], [-44.41431, -5.450836], [-44.41259, -5.450543], [-44.40977, -5.450792], [-44.40824, -5.450411], [-44.4029, -5.448444], [-44.4019, -5.447707], [-44.40082, -5.445782], [-44.40068, -5.444235], [-44.40032, -5.442596], [-44.40024, -5.440955], [-44.40062, -5.439052], [-44.40138, -5.436959], [-44.40168, -5.433592], [-44.40182, -5.430145], [-44.40124, -5.427778], [-44.40396, -5.424698], [-44.40615, -5.423083], [-44.40715, -5.421271], [-44.40721, -5.418086], [-44.40532, -5.415525], [-44.40306, -5.413768], [-44.40082, -5.411377], [-44.40057, -5.409099], [-44.40187, -5.406381], [-44.40235, -5.404936], [-44.40226, -5.402836], [-44.40024, -5.397445], [-44.3989, -5.394981], [-44.39865, -5.392792], [-44.3992, -5.389795], [-44.3986, -5.387509], [-44.39726, -5.385856], [-44.3961, -5.38484], [-44.39454, -5.384013], [-44.39273, -5.383628], [-44.3911, -5.383068], [-44.3866, -5.381195], [-44.3757, -5.374674], [-44.37275, -5.374802], [-44.3712, -5.376123], [-44.36958, -5.376187], [-44.3686, -5.37341], [-44.36987, -5.369978], [-44.37142, -5.367206], [-44.37402, -5.367936], [-44.37823, -5.36979], [-44.38266, -5.369727], [-44.3835, -5.368407], [-44.3835, -5.366294], [-44.38041, -5.365234], [-44.37985, -5.364441], [-44.37896, -5.362186], [-44.37546, -5.359517], [-44.37445, -5.358414], [-44.37293, -5.357758], [-44.37157, -5.357381], [-44.36567, -5.35718], [-44.36486, -5.356542], [-44.3638, -5.356113], [-44.36268, -5.354539], [-44.36408, -5.352966], [-44.36464, -5.349821], [-44.36213, -5.347194], [-44.36088, -5.346536], [-44.35791, -5.343233], [-44.35642, -5.339193], [-44.35582, -5.336644], [-44.35637, -5.3313], [-44.35686, -5.33045], [-44.357, -5.329093], [-44.35825, -5.327256], [-44.35825, -5.325683], [-44.35685, -5.324491], [-44.3568, -5.324133], [-44.3556, -5.32231], [-44.35401, -5.321406], [-44.35282, -5.320231], [-44.35145, -5.316869], [-44.35005, -5.315683], [-44.3485, -5.314672], [-44.34678, -5.31383], [-44.34584, -5.312836], [-44.34538, -5.311867], [-44.34592, -5.310859], [-44.34812, -5.309294], [-44.34854, -5.308117], [-44.34813, -5.307387], [-44.34637, -5.30632], [-44.34613, -5.305761], [-44.34649, -5.30492], [-44.34798, -5.303185], [-44.3481, -5.301896], [-44.34711, -5.295789], [-44.34701, -5.298993], [-44.34361, -5.303371], [-44.34248, -5.305827], [-44.34233, -5.306595], [-44.34247, -5.307597], [-44.34236, -5.30943], [-44.34257, -5.311632], [-44.34317, -5.313166], [-44.34398, -5.314245], [-44.34433, -5.315022], [-44.34431, -5.315981], [-44.34512, -5.318552], [-44.34507, -5.320696], [-44.34566, -5.321799], [-44.3454, -5.324965], [-44.34436, -5.327335], [-44.3448, -5.328137], [-44.34484, -5.328965], [-44.34397, -5.33121], [-44.34372, -5.333113], [-44.34406, -5.337955], [-44.34371, -5.342922], [-44.3445, -5.347584], [-44.3444, -5.348846]], [[-44.39729, -5.416903], [-44.39839, -5.42076], [-44.39617, -5.420277], [-44.38654, -5.411069], [-44.38598, -5.409325], [-44.38596, -5.403824], [-44.3916, -5.402745], [-44.39332, -5.403559], [-44.39852, -5.410019], [-44.39729, -5.416903]], [[-44.33952, -5.46514], [-44.33973, -5.465033], [-44.34391, -5.467633], [-44.34218, -5.471778], [-44.34195, -5.471954], [-44.34149, -5.471802], [-44.34095, -5.471859], [-44.33965, -5.471101], [-44.33934, -5.471131], [-44.33888, -5.470917], [-44.33909, -5.470765], [-44.3391, -5.47051], [-44.33877, -5.470496], [-44.33845, -5.469918], [-44.339, -5.469956], [-44.33913, -5.469866], [-44.33903, -5.469639], [-44.33873, -5.469355], [-44.33805, -5.469242], [-44.33793, -5.469493], [-44.3378, -5.46936], [-44.33793, -5.469019], [-44.3384, -5.468901], [-44.33821, -5.468201], [-44.33807, -5.468063], [-44.33743, -5.468049], [-44.33741, -5.46786], [-44.33714, -5.467699], [-44.3369, -5.466918], [-44.33684, -5.465986], [-44.33724, -5.465579], [-44.33828, -5.465589], [-44.33869, -5.465226], [-44.339, -5.465451], [-44.33952, -5.46514]]]}}, 
{"type": "Feature", "properties": {"CD_SETOR": "210470105000005", "CD_SIT": "5", "NM_DIST": "Graça Aranha", "NM_SUBDIST": null}, "geometry": {"type": "Polygon", "coordinates": [[[-44.33952, -5.46514], [-44.339, -5.465451], [-44.33869, -5.465226], [-44.33828, -5.465589], [-44.33724, -5.465579], [-44.33684, -5.465986], [-44.3369, -5.466918], [-44.33714, -5.467699], [-44.33741, -5.46786], [-44.33743, -5.468049], [-44.33807, -5.468063], [-44.33821, -5.468201], [-44.3384, -5.468901], [-44.33793, -5.469019], [-44.3378, -5.46936], [-44.33793, -5.469493], [-44.33805, -5.469242], [-44.33873, -5.469355], [-44.33903, -5.469639], [-44.33913, -5.469866], [-44.339, -5.469956], [-44.33845, -5.469918], [-44.33877, -5.470496], [-44.3391, -5.47051], [-44.33909, -5.470765], [-44.33888, -5.470917], [-44.33934, -5.471131], [-44.33965, -5.471101], [-44.34095, -5.471859], [-44.34149, -5.471802], [-44.34195, -5.471954], [-44.34218, -5.471778], [-44.34391, -5.467633], [-44.33973, -5.465033], [-44.33952, -5.46514]]]}}, 
{"type": "Feature", "properties": {"CD_SETOR": "210470105000006", "CD_SIT": "5", "NM_DIST": "Graça Aranha", "NM_SUBDIST": null}, "geometry": {"type": "Polygon", "coordinates": [[[-44.38654, -5.411069], [-44.38748, -5.410555], [-44.38912, -5.410062], [-44.39024, -5.409215], [-44.3907, -5.409179], [-44.39173, -5.409481], [-44.39413, -5.411584], [-44.39482, -5.412982], [-44.3957, -5.414049], [-44.39729, -5.416903], [-44.39852, -5.410019], [-44.39332, -5.403559], [-44.3916, -5.402745], [-44.38596, -5.403824], [-44.38598, -5.409325], [-44.38654, -5.411069]]]}}, 
{"type": "Feature", "properties": {"CD_SETOR": "210470105000007", "CD_SIT": "5", "NM_DIST": "Graça Aranha", "NM_SUBDIST": null}, "geometry": {"type": "Polygon", "coordinates": [[[-44.38654, -5.411069], [-44.39617, -5.420277], [-44.39839, -5.42076], [-44.39729, -5.416903], [-44.3957, -5.414049], [-44.39482, -5.412982], [-44.3938, -5.411173], [-44.39173, -5.409481], [-44.39056, -5.409165], [-44.39024, -5.409215], [-44.38885, -5.410197], [-44.38748, -5.410555], [-44.38654, -5.411069]]]}}, 
{"type": "Feature", "properties": {"CD_SETOR": "210470105000008", "CD_SIT": "5", "NM_DIST": "Graça Aranha", "NM_SUBDIST": null}, "geometry": {"type": "Polygon", "coordinates": [[[-44.34186, -5.367262], [-44.34341, -5.359375], [-44.34485, -5.349229], [-44.3444, -5.348846], [-44.3434, -5.349939], [-44.32701, -5.364626], [-44.32899, -5.366326], [-44.34186, -5.367262]]]}}, 
{"type": "Feature", "properties": {"CD_SETOR": "210470105000009", "CD_SIT": "8", "NM_DIST": "Graça Aranha", "NM_SUBDIST": null}, "geometry": {"type": "Polygon", "coordinates": [[[-44.34619, -5.277687], [-44.30679, -5.331268], [-44.20694, -5.464216], [-44.20906, -5.463649], [-44.20942, -5.464313], [-44.21074, -5.464312], [-44.21191, -5.464597], [-44.21471, -5.465992], [-44.21651, -5.466099], [-44.21762, -5.465565], [-44.21937, -5.463497], [-44.22082, -5.462499], [-44.22246, -5.4627], [-44.22318, -5.463624], [-44.22323, -5.467446], [-44.22385, -5.469821], [-44.22473, -5.470555], [-44.22638, -5.471482], [-44.22782, -5.471949], [-44.22909, -5.472149], [-44.23035, -5.472615], [-44.23163, -5.472818], [-44.23279, -5.472735], [-44.23463, -5.47312], [-44.23643, -5.474044], [-44.2374, -5.475147], [-44.23864, -5.477692], [-44.23998, -5.479548], [-44.24079, -5.481187], [-44.24132, -5.48401], [-44.24185, -5.485115], [-44.24285, -5.486393], [-44.24374, -5.487143], [-44.24527, -5.488066], [-44.24699, -5.488804], [-44.24798, -5.489634], [-44.24804, -5.491639], [-44.24757, -5.493008], [-44.24784, -5.494465], [-44.24862, -5.496384], [-44.24879, -5.49939], [-44.24932, -5.500845], [-44.25556, -5.501917], [-44.25693, -5.502366], [-44.25784, -5.503089], [-44.26003, -5.504253], [-44.26566, -5.504594], [-44.26726, -5.504041], [-44.27082, -5.505666], [-44.27595, -5.505646], [-44.27823, -5.505448], [-44.2806, -5.505716], [-44.28221, -5.505707], [-44.28357, -5.506057], [-44.28477, -5.506064], [-44.2909, -5.50512], [-44.29318, -5.504028], [-44.29479, -5.504564], [-44.29768, -5.50219], [-44.2979, -5.500813], [-44.29835, -5.494074], [-44.29963, -5.493082], [-44.30126, -5.492468], [-44.30262, -5.492117], [-44.30408, -5.492129], [-44.30563, -5.491689], [-44.30654, -5.490332], [-44.30693, -5.489065], [-44.30824, -5.486525], [-44.30879, -5.484625], [-44.30899, -5.482445], [-44.3081, -5.480699], [-44.30767, -5.47924], [-44.30751, -5.477605], [-44.30824, -5.47643], [-44.30907, -5.475525], [-44.31162, -5.473551], [-44.31418, -5.472031], [-44.31729, -5.470511], [-44.32021, -5.470726], [-44.32249, -5.470288], [-44.32376, -5.469481], [-44.32615, -5.46705], [-44.32671, -5.465694], [-44.33146, -5.462155], [-44.33229, -5.461809], [-44.33154, -5.460734], [-44.33111, -5.459804], [-44.33059, -5.459608], [-44.32969, -5.459858], [-44.32654, -5.457639], [-44.32429, -5.457177], [-44.32271, -5.456456], [-44.32046, -5.455927], [-44.31826, -5.45435], [-44.31747, -5.4532], [-44.31578, -5.452239], [-44.31478, -5.451281], [-44.31394, -5.450848], [-44.31349, -5.451194], [-44.3042, -5.447734], [-44.29912, -5.445649], [-44.30036, -5.444857], [-44.30145, -5.443576], [-44.303, -5.440858], [-44.30386, -5.439831], [-44.30459, -5.438622], [-44.30588, -5.437128], [-44.3076, -5.434263], [-44.30875, -5.432706], [-44.31086, -5.428661], [-44.3118, -5.427854], [-44.31513, -5.426084], [-44.31694, -5.424442], [-44.32192, -5.420606], [-44.3252, -5.418813], [-44.32684, -5.417552], [-44.32854, -5.414608], [-44.3309, -5.412832], [-44.32109, -5.405361], [-44.3211, -5.405069], [-44.32139, -5.404685], [-44.32094, -5.404655], [-44.3213, -5.404318], [-44.3207, -5.404412], [-44.3207, -5.404276], [-44.32103, -5.404253], [-44.3211, -5.40391], [-44.32079, -5.403868], [-44.32103, -5.403549], [-44.32075, -5.403596], [-44.32062, -5.403448], [-44.32052, -5.40317], [-44.32069, -5.402963], [-44.32045, -5.402975], [-44.32047, -5.402697], [-44.32072, -5.402491], [-44.32649, -5.400369], [-44.33264, -5.396463], [-44.33597, -5.394576], [-44.33632, -5.393072], [-44.34039, -5.385427], [-44.34301, -5.381746], [-44.34356, -5.380531], [-44.34381, -5.379183], [-44.34397, -5.372986], [-44.34305, -5.36944], [-44.34186, -5.367262], [-44.32899, -5.366326], [-44.32701, -5.364626], [-44.3434, -5.349939], [-44.3444, -5.348846], [-44.3445, -5.347584], [-44.34371, -5.342922], [-44.34406, -5.337955], [-44.34372, -5.333113], [-44.34397, -5.33121], [-44.34484, -5.328965], [-44.3448, -5.328137], [-44.34436, -5.327335], [-44.3454, -5.324965], [-44.34566, -5.321799], [-44.34507, -5.320696], [-44.34512, -5.318552], [-44.34431, -5.315981], [-44.34433, -5.315022], [-44.34398, -5.314245], [-44.34317, -5.313166], [-44.34257, -5.311632], [-44.34235, -5.309287], [-44.3424, -5.306031], [-44.34361, -5.303371], [-44.34701, -5.298993], [-44.34711, -5.295789], [-44.34686, -5.292369], [-44.35009, -5.284083], [-44.35215, -5.282624], [-44.35662, -5.281114], [-44.35775, -5.279939], [-44.35826, -5.277306], [-44.35653, -5.276519], [-44.35284, -5.276405], [-44.34938, -5.277467], [-44.34708, -5.277743], [-44.34619, -5.277687]], [[-44.28772, -5.378288], [-44.28802, -5.377947], [-44.28852, -5.377758], [-44.28877, -5.377852], [-44.28858, -5.378439], [-44.28879, -5.378874], [-44.28903, -5.37859], [-44.28979, -5.378363], [-44.28981, -5.378534], [-44.28927, -5.378756], [-44.28926, -5.37895], [-44.28985, -5.378799], [-44.2899, -5.37895], [-44.28945, -5.379575], [-44.29031, -5.379357], [-44.29073, -5.379461], [-44.29094, -5.379755], [-44.29016, -5.379717], [-44.29018, -5.379873], [-44.29071, -5.380351], [-44.29095, -5.380105], [-44.29142, -5.380578], [-44.29152, -5.379613], [-44.29192, -5.379291], [-44.29188, -5.379745], [-44.29227, -5.379688], [-44.29208, -5.380805], [-44.2907, -5.385689], [-44.2752, -5.389542], [-44.27434, -5.386978], [-44.27376, -5.386144], [-44.27392, -5.386106], [-44.27378, -5.385784], [-44.27403, -5.385765], [-44.2743, -5.386068], [-44.27449, -5.385917], [-44.27403, -5.385481], [-44.27424, -5.385633], [-44.27428, -5.385424], [-44.2745, -5.385315], [-44.27432, -5.385178], [-44.27417, -5.384573], [-44.27453, -5.383531], [-44.27505, -5.383228], [-44.27606, -5.38355], [-44.27583, -5.383228], [-44.27678, -5.383096], [-44.27723, -5.382793], [-44.27729, -5.382604], [-44.27693, -5.382377], [-44.27754, -5.381998], [-44.27754, -5.381847], [-44.27697, -5.381203], [-44.27703, -5.380635], [-44.27763, -5.380521], [-44.27832, -5.380862], [-44.27862, -5.380843], [-44.27908, -5.38054], [-44.27902, -5.380862], [-44.27915, -5.38107], [-44.28003, -5.381865], [-44.28102, -5.381373], [-44.2822, -5.381544], [-44.28239, -5.3809], [-44.2826, -5.380768], [-44.28362, -5.381316], [-44.28385, -5.381146], [-44.28398, -5.380597], [-44.28429, -5.38037], [-44.28484, -5.380768], [-44.28564, -5.380313], [-44.28648, -5.380408], [-44.28638, -5.380029], [-44.28585, -5.379783], [-44.28608, -5.378874], [-44.28635, -5.378572], [-44.28694, -5.37887], [-44.28715, -5.378761], [-44.28728, -5.378344], [-44.28772, -5.378288]], [[-44.28635, -5.424952], [-44.29356, -5.419863], [-44.29452, -5.421019], [-44.29316, -5.422504], [-44.29048, -5.424653], [-44.28785, -5.426207], [-44.28541, -5.427035], [-44.28269, -5.426692], [-44.27976, -5.427149], [-44.27579, -5.428391], [-44.27458, -5.428298], [-44.27445, -5.426629], [-44.27941, -5.425408], [-44.28272, -5.425009], [-44.28489, -5.425494], [-44.28635, -5.424952]], [[-44.25194, -5.434685], [-44.25175, -5.434468], [-44.2548, -5.428247], [-44.27363, -5.42746], [-44.27424, -5.428911], [-44.25692, -5.436391], [-44.25387, -5.437404], [-44.25194, -5.434685]]]}}, 
{"type": "Feature", "properties": {"CD_SETOR": "210470105000010", "CD_SIT": "5", "NM_DIST": "Graça Aranha", "NM_SUBDIST": null}, "geometry": {"type": "Polygon", "coordinates": [[[-44.25194, -5.434685], [-44.25387, -5.437404], [-44.25692, -5.436391], [-44.27424, -5.428911], [-44.27363, -5.42746], [-44.2548, -5.428247], [-44.25175, -5.434468], [-44.25194, -5.434685]]]}}, 
{"type": "Feature", "properties": {"CD_SETOR": "210470105000011", "CD_SIT": "5", "NM_DIST": "Graça Aranha", "NM_SUBDIST": null}, "geometry": {"type": "Polygon", "coordinates": [[[-44.28635, -5.424952], [-44.28489, -5.425494], [-44.28272, -5.425009], [-44.27941, -5.425408], [-44.27445, -5.426629], [-44.27458, -5.428298], [-44.27579, -5.428391], [-44.27976, -5.427149], [-44.28269, -5.426692], [-44.28541, -5.427035], [-44.28785, -5.426207], [-44.29048, -5.424653], [-44.29316, -5.422504], [-44.29452, -5.421019], [-44.29356, -5.419863], [-44.28635, -5.424952]]]}}, 
{"type": "Feature", "properties": {"CD_SETOR": "210470105000012", "CD_SIT": "5", "NM_DIST": "Graça Aranha", "NM_SUBDIST": null}, "geometry": {"type": "Polygon", "coordinates": [[[-44.28772, -5.378288], [-44.28728, -5.378344], [-44.28715, -5.378761], [-44.28694, -5.37887], [-44.28635, -5.378572], [-44.28608, -5.378874], [-44.28585, -5.379783], [-44.28638, -5.380029], [-44.28648, -5.380408], [-44.28564, -5.380313], [-44.28484, -5.380768], [-44.28429, -5.38037], [-44.28398, -5.380597], [-44.28385, -5.381146], [-44.28362, -5.381316], [-44.2826, -5.380768], [-44.28239, -5.3809], [-44.2822, -5.381544], [-44.28102, -5.381373], [-44.28003, -5.381865], [-44.27915, -5.38107], [-44.27902, -5.380862], [-44.27908, -5.38054], [-44.27862, -5.380843], [-44.27832, -5.380862], [-44.27763, -5.380521], [-44.27703, -5.380635], [-44.27697, -5.381203], [-44.27754, -5.381847], [-44.27754, -5.381998], [-44.27693, -5.382377], [-44.27729, -5.382604], [-44.27723, -5.382793], [-44.27678, -5.383096], [-44.27583, -5.383228], [-44.27606, -5.38355], [-44.27505, -5.383228], [-44.27453, -5.383531], [-44.27417, -5.384573], [-44.27432, -5.385178], [-44.2745, -5.385315], [-44.27428, -5.385424], [-44.27424, -5.385633], [-44.27403, -5.385481], [-44.27449, -5.385917], [-44.2743, -5.386068], [-44.27403, -5.385765], [-44.27378, -5.385784], [-44.27392, -5.386106], [-44.27376, -5.386144], [-44.27434, -5.386978], [-44.2752, -5.389542], [-44.2907, -5.385689], [-44.29208, -5.380805], [-44.29227, -5.379688], [-44.29188, -5.379745], [-44.29192, -5.379291], [-44.29152, -5.379613], [-44.29142, -5.380578], [-44.29095, -5.380105], [-44.29071, -5.380351], [-44.29018, -5.379873], [-44.29016, -5.379717], [-44.29094, -5.379755], [-44.29073, -5.379461], [-44.29031, -5.379357], [-44.28945, -5.379575], [-44.2899, -5.37895], [-44.28985, -5.378799], [-44.28926, -5.37895], [-44.28927, -5.378756], [-44.28981, -5.378534], [-44.28979, -5.378363], [-44.28903, -5.37859], [-44.28879, -5.378874], [-44.28858, -5.378439], [-44.28877, -5.377852], [-44.28852, -5.377758], [-44.28802, -5.377947], [-44.28772, -5.378288]]]}}]}