{"type": "FeatureCollection", "features": [
{"type": "Feature", "properties": {"CD_SETOR": "211400705000001", "CD_SIT": "1", "NM_DIST": "Zé Doca", "NM_SUBDIST": null}, "geometry": {"type": "Polygon", "coordinates": [[[-45.65592, -3.272401], [-45.65622, -3.275695], [-45.65828, -3.275326], [-45.65842, -3.276586], [-45.65935, -3.276494], [-45.6591, -3.273356], [-45.65806, -3.273508], [-45.65795, -3.272327], [-45.65592, -3.272401]]]}}, 
{"type": "Feature", "properties": {"CD_SETOR": "211400705000002", "CD_SIT": "1", "NM_DIST": "Zé Doca", "NM_SUBDIST": null}, "geometry": {"type": "Polygon", "coordinates": [[[-45.6591, -3.273356], [-45.65941, -3.278668], [-45.66043, -3.278599], [-45.66032, -3.277164], [-45.6675, -3.276658], [-45.66769, -3.266235], [-45.66541, -3.268229], [-45.66473, -3.268553], [-45.66248, -3.271285], [-45.65988, -3.272281], [-45.65996, -3.273271], [-45.6591, -3.273356]]]}}, 
{"type": "Feature", "properties": {"CD_SETOR": "211400705000003", "CD_SIT": "2", "NM_DIST": "Zé Doca", "NM_SUBDIST": null}, "geometry": {"type": "Polygon", "coordinates": [[[-45.65472, -3.258167], [-45.65592, -3.272401], [-45.65795, -3.272327], [-45.65806, -3.273508], [-45.65996, -3.273271], [-45.65988, -3.272281], [-45.66248, -3.271285], [-45.66473, -3.268553], [-45.66541, -3.268229], [-45.66769, -3.266235], [-45.66552, -3.261372], [-45.66431, -3.253414], [-45.6539, -3.248515], [-45.65472, -3.258167]]]}}, 
{"type": "Feature", "properties": {"CD_SETOR": "211400705000004", "CD_SIT": "1", "NM_DIST": "Zé Doca", "NM_SUBDIST": null}, "geometry": {"type": "Polygon", "coordinates": [[[-45.65124, -3.268225], [-45.65106, -3.268252], [-45.65075, -3.269471], [-45.65148, -3.269706], [-45.6512, -3.270468], [-45.65176, -3.270809], [-45.65161, -3.271195], [-45.65176, -3.271387], [-45.65301, -3.271849], [-45.65321, -3.271313], [-45.65583, -3.271485], [-45.65571, -3.270085], [-45.65431, -3.270154], [-45.65426, -3.268099], [-45.65124, -3.268225]]]}}, 
{"type": "Feature", "properties": {"CD_SETOR": "211400705000005", "CD_SIT": "1", "NM_DIST": "Zé Doca", "NM_SUBDIST": null}, "geometry": {"type": "Polygon", "coordinates": [[[-45.65083, -3.263004], [-45.65095, -3.264866], [-45.65196, -3.264816], [-45.65201, -3.265408], [-45.65531, -3.265092], [-45.65513, -3.262855], [-45.65083, -3.263004]]]}}, 
{"type": "Feature", "properties": {"CD_SETOR": "211400705000006", "CD_SIT": "1", "NM_DIST": "Zé Doca", "NM_SUBDIST": null}, "geometry": {"type": "Polygon", "coordinates": [[[-45.64762, -3.260412], [-45.64779, -3.26304], [-45.65513, -3.262855], [-45.65472, -3.258167], [-45.65173, -3.260334], [-45.64762, -3.260412]]]}}, 
{"type": "Feature", "properties": {"CD_SETOR": "211400705000007", "CD_SIT": "1", "NM_DIST": "Zé Doca", "NM_SUBDIST": null}, "geometry": {"type": "Polygon", "coordinates": [[[-45.64742, -3.250866], [-45.64762, -3.260412], [-45.65173, -3.260334], [-45.65472, -3.258167], [-45.65354, -3.24435], [-45.64974, -3.24416], [-45.64733, -3.242709], [-45.64742, -3.250866]]]}}, 
{"type": "Feature", "properties": {"CD_SETOR": "211400705000008", "CD_SIT": "1", "NM_DIST": "Zé Doca", "NM_SUBDIST": null}, "geometry": {"type": "Polygon", "coordinates": [[[-45.63957, -3.258039], [-45.64279, -3.261496], [-45.64414, -3.26317], [-45.64779, -3.26304], [-45.64755, -3.25851], [-45.64466, -3.258584], [-45.64459, -3.256901], [-45.6413, -3.257016], [-45.63953, -3.256084], [-45.63957, -3.258039]]]}}, 
{"type": "Feature", "properties": {"CD_SETOR": "211400705000009", "CD_SIT": "1", "NM_DIST": "Zé Doca", "NM_SUBDIST": null}, "geometry": {"type": "Polygon", "coordinates": [[[-45.64779, -3.26304], [-45.64787, -3.263785], [-45.64884, -3.263756], [-45.64903, -3.265701], [-45.651, -3.265541], [-45.65083, -3.263004], [-45.64779, -3.26304]]]}}, 
{"type": "Feature", "properties": {"CD_SETOR": "211400705000010", "CD_SIT": "1", "NM_DIST": "Zé Doca", "NM_SUBDIST": null}, "geometry": {"type": "Polygon", "coordinates": [[[-45.64903, -3.265701], [-45.64671, -3.265913], [-45.64729, -3.266632], [-45.64809, -3.266552], [-45.64821, -3.267851], [-45.64989, -3.269531], [-45.6512, -3.270468], [-45.65148, -3.269706], [-45.65075, -3.269471], [-45.65106, -3.268252], [-45.65124, -3.268225], [-45.65119, -3.267647], [-45.65019, -3.267682], [-45.6501, -3.266331], [-45.65109, -3.266252], [-45.651, -3.265541], [-45.64903, -3.265701]]]}}, 
{"type": "Feature", "properties": {"CD_SETOR": "211400705000011", "CD_SIT": "1", "NM_DIST": "Zé Doca", "NM_SUBDIST": null}, "geometry": {"type": "Polygon", "coordinates": [[[-45.649, -3.271422], [-45.65029, -3.271628], [-45.65224, -3.272344], [-45.65188, -3.274644], [-45.65203, -3.274748], [-45.65293, -3.27483], [-45.65299, -3.273563], [-45.65472, -3.273856], [-45.65606, -3.273846], [-45.65583, -3.271485], [-45.65321, -3.271313], [-45.65301, -3.271849], [-45.65176, -3.271387], [-45.65161, -3.271195], [-45.65176, -3.270809], [-45.64989, -3.269531], [-45.649, -3.271422]]]}}, 
{"type": "Feature", "properties": {"CD_SETOR": "211400705000012", "CD_SIT": "1", "NM_DIST": "Zé Doca", "NM_SUBDIST": null}, "geometry": {"type": "Polygon", "coordinates": [[[-45.64985, -3.276862], [-45.65622, -3.275695], [-45.65606, -3.273846], [-45.65472, -3.273856], [-45.65299, -3.273563], [-45.65293, -3.27483], [-45.65203, -3.274748], [-45.65188, -3.274644], [-45.65224, -3.272344], [-45.65145, -3.271972], [-45.65004, -3.271597], [-45.64975, -3.274908], [-45.64908, -3.274901], [-45.64906, -3.276981], [-45.64985, -3.276862]]]}}, 
{"type": "Feature", "properties": {"CD_SETOR": "211400705000013", "CD_SIT": "1", "NM_DIST": "Zé Doca", "NM_SUBDIST": null}, "geometry": {"type": "Polygon", "coordinates": [[[-45.65429, -3.276037], [-45.65486, -3.277986], [-45.65444, -3.278049], [-45.65459, -3.280786], [-45.65485, -3.281649], [-45.6567, -3.281405], [-45.65622, -3.275695], [-45.65429, -3.276037]]]}}, 
{"type": "Feature", "properties": {"CD_SETOR": "211400705000014", "CD_SIT": "1", "NM_DIST": "Zé Doca", "NM_SUBDIST": null}, "geometry": {"type": "Polygon", "coordinates": [[[-45.65038, -3.280065], [-45.65072, -3.282215], [-45.65485, -3.281649], [-45.65459, -3.280786], [-45.65449, -3.279331], [-45.65134, -3.279785], [-45.65135, -3.279896], [-45.65038, -3.280065]]]}}, 
{"type": "Feature", "properties": {"CD_SETOR": "211400705000015", "CD_SIT": "2", "NM_DIST": "Zé Doca", "NM_SUBDIST": null}, "geometry": {"type": "Polygon", "coordinates": [[[-45.63872, -3.269441], [-45.63796, -3.278883], [-45.64229, -3.278071], [-45.64394, -3.278224], [-45.64381, -3.276883], [-45.64619, -3.27356], [-45.64598, -3.273198], [-45.64595, -3.272079], [-45.64673, -3.271854], [-45.6468, -3.270519], [-45.649, -3.271422], [-45.64989, -3.269531], [-45.64821, -3.267851], [-45.64809, -3.266552], [-45.64729, -3.266632], [-45.63957, -3.258039], [-45.63872, -3.269441]]]}}, 
{"type": "Feature", "properties": {"CD_SETOR": "211400705000018", "CD_SIT": "1", "NM_DIST": "Zé Doca", "NM_SUBDIST": null}, "geometry": {"type": "Polygon", "coordinates": [[[-45.66213, -3.289548], [-45.65906, -3.28981], [-45.65902, -3.290302], [-45.6575, -3.290443], [-45.65837, -3.30018], [-45.66391, -3.294153], [-45.66503, -3.289386], [-45.66213, -3.289548]]]}}, 
{"type": "Feature", "properties": {"CD_SETOR": "211400705000019", "CD_SIT": "1", "NM_DIST": "Zé Doca", "NM_SUBDIST": null}, "geometry": {"type": "Polygon", "coordinates": [[[-45.65691, -3.283959], [-45.6575, -3.290443], [-45.65902, -3.290302], [-45.65906, -3.28981], [-45.66062, -3.289673], [-45.6603, -3.28594], [-45.6596, -3.286009], [-45.65943, -3.284212], [-45.65806, -3.284334], [-45.65794, -3.283423], [-45.65707, -3.283485], [-45.65691, -3.283959]]]}}, 
{"type": "Feature", "properties": {"CD_SETOR": "211400705000020", "CD_SIT": "1", "NM_DIST": "Zé Doca", "NM_SUBDIST": null}, "geometry": {"type": "Polygon", "coordinates": [[[-45.6603, -3.28594], [-45.66062, -3.289673], [-45.66213, -3.289548], [-45.662, -3.288008], [-45.66282, -3.287941], [-45.6626, -3.285724], [-45.6603, -3.28594]]]}}, 
{"type": "Feature", "properties": {"CD_SETOR": "211400705000021", "CD_SIT": "1", "NM_DIST": "Zé Doca", "NM_SUBDIST": null}, "geometry": {"type": "Polygon", "coordinates": [[[-45.65796, -3.283608], [-45.65806, -3.284334], [-45.65943, -3.284212], [-45.6596, -3.286009], [-45.66398, -3.285556], [-45.66577, -3.28553], [-45.6662, -3.282907], [-45.65796, -3.283608]]]}}, 
{"type": "Feature", "properties": {"CD_SETOR": "211400705000022", "CD_SIT": "1", "NM_DIST": "Zé Doca", "NM_SUBDIST": null}, "geometry": {"type": "Polygon", "coordinates": [[[-45.65848, -3.282112], [-45.65677, -3.282259], [-45.65691, -3.283959], [-45.65707, -3.283485], [-45.65794, -3.283423], [-45.65796, -3.283608], [-45.6662, -3.282907], [-45.66655, -3.281143], [-45.6631, -3.281682], [-45.65848, -3.282112]]]}}, 
{"type": "Feature", "properties": {"CD_SETOR": "211400705000023", "CD_SIT": "1", "NM_DIST": "Zé Doca", "NM_SUBDIST": null}, "geometry": {"type": "Polygon", "coordinates": [[[-45.65638, -3.277496], [-45.65677, -3.282259], [-45.65848, -3.282112], [-45.65838, -3.28074], [-45.66052, -3.280633], [-45.66043, -3.278599], [-45.65871, -3.278724], [-45.65851, -3.27736], [-45.65638, -3.277496]]]}}, 
{"type": "Feature", "properties": {"CD_SETOR": "211400705000024", "CD_SIT": "8", "NM_DIST": "Zé Doca", "NM_SUBDIST": null}, "geometry": {"type": "Polygon", "coordinates": [[[-45.53563, -3.34145], [-45.53737, -3.343013], [-45.53568, -3.344474], [-45.53845, -3.346482], [-45.53851, -3.347566], [-45.53946, -3.349684], [-45.53999, -3.350416], [-45.54042, -3.350533], [-45.54098, -3.351078], [-45.54186, -3.351308], [-45.54466, -3.351048], [-45.54594, -3.351494], [-45.54697, -3.352511], [-45.54754, -3.352851], [-45.54801, -3.354616], [-45.54847, -3.355049], [-45.55294, -3.355298], [-45.56841, -3.35714], [-45.57159, -3.356659], [-45.57256, -3.364235], [-45.57304, -3.366277], [-45.57422, -3.368631], [-45.57454, -3.368466], [-45.57604, -3.37127], [-45.5751, -3.371615], [-45.57571, -3.373064], [-45.57607, -3.375819], [-45.57939, -3.374653], [-45.58088, -3.37493], [-45.58576, -3.374452], [-45.58831, -3.37393], [-45.59138, -3.373618], [-45.59904, -3.373194], [-45.59845, -3.374507], [-45.59983, -3.376716], [-45.60034, -3.378802], [-45.60057, -3.382591], [-45.60084, -3.383592], [-45.59829, -3.38871], [-45.59779, -3.390475], [-45.59978, -3.393583], [-45.6005, -3.398017], [-45.60064, -3.406894], [-45.60118, -3.410927], [-45.60172, -3.411057], [-45.60285, -3.40818], [-45.60772, -3.403461], [-45.61382, -3.397042], [-45.61785, -3.390483], [-45.62197, -3.386141], [-45.62591, -3.380478], [-45.62862, -3.373638], [-45.63228, -3.36892], [-45.64184, -3.362169], [-45.64419, -3.361506], [-45.64766, -3.358673], [-45.65394, -3.349659], [-45.65778, -3.346828], [-45.66088, -3.345694], [-45.66021, -3.338667], [-45.66195, -3.338628], [-45.66046, -3.323225], [-45.65975, -3.313756], [-45.65921, -3.309733], [-45.65837, -3.30018], [-45.6388, -3.289014], [-45.6366, -3.288278], [-45.62303, -3.290694], [-45.61095, -3.292613], [-45.60993, -3.292892], [-45.608, -3.292882], [-45.6062, -3.293478], [-45.60563, -3.293448], [-45.59663, -3.29484], [-45.59507, -3.294528], [-45.59347, -3.295331], [-45.59166, -3.29546], [-45.59099, -3.295838], [-45.58035, -3.29731], [-45.57963, -3.297625], [-45.57893, -3.297536], [-45.57526, -3.297791], [-45.57419, -3.298063], [-45.57248, -3.298207], [-45.57161, -3.297581], [-45.56741, -3.295351], [-45.56502, -3.297565], [-45.56409, -3.297684], [-45.56274, -3.298405], [-45.56153, -3.298493], [-45.55989, -3.298873], [-45.5596, -3.299486], [-45.55903, -3.302614], [-45.55822, -3.304508], [-45.55537, -3.308795], [-45.55403, -3.309639], [-45.55353, -3.310273], [-45.55086, -3.312463], [-45.54941, -3.314218], [-45.54875, -3.315154], [-45.547, -3.319461], [-45.5452, -3.321603], [-45.54325, -3.324295], [-45.54086, -3.329751], [-45.53837, -3.33622], [-45.53692, -3.338508], [-45.53563, -3.34145]]]}}, 
{"type": "Feature", "properties": {"CD_SETOR": "211400705000025", "CD_SIT": "5", "NM_DIST": "Zé Doca", "NM_SUBDIST": null}, "geometry": {"type": "Polygon", "coordinates": [[[-45.56745, -3.45354], [-45.5684, -3.453894], [-45.56932, -3.453941], [-45.57005, -3.453754], [-45.57051, -3.453223], [-45.57076, -3.452469], [-45.5708, -3.451502], [-45.57117, -3.450155], [-45.57119, -3.448871], [-45.57084, -3.446112], [-45.57115, -3.443981], [-45.57171, -3.44288], [-45.57154, -3.440701], [-45.56882, -3.440182], [-45.56646, -3.4438], [-45.56618, -3.449694], [-45.56745, -3.45354]]]}}, 
{"type": "Feature", "properties": {"CD_SETOR": "211400705000026", "CD_SIT": "5", "NM_DIST": "Zé Doca", "NM_SUBDIST": null}, "geometry": {"type": "Polygon", "coordinates": [[[-45.81719, -3.276909], [-45.81683, -3.280257], [-45.81722, -3.281453], [-45.81774, -3.281948], [-45.81861, -3.282227], [-45.81915, -3.282243], [-45.82049, -3.281711], [-45.82113, -3.280101], [-45.82115, -3.279243], [-45.81747, -3.276717], [-45.81719, -3.276909]]]}}, 
{"type": "Feature", "properties": {"CD_SETOR": "211400705000027", "CD_SIT": "5", "NM_DIST": "Zé Doca", "NM_SUBDIST": null}, "geometry": {"type": "Polygon", "coordinates": [[[-45.90278, -3.305689], [-45.90126, -3.30701], [-45.89954, -3.307646], [-45.89868, -3.308202], [-45.89904, -3.310976], [-45.90544, -3.310002], [-45.91094, -3.308714], [-45.90906, -3.305739], [-45.90796, -3.305574], [-45.90719, -3.306308], [-45.90551, -3.30621], [-45.90408, -3.306651], [-45.90278, -3.305689]]]}}, 
{"type": "Feature", "properties": {"CD_SETOR": "211400705000028", "CD_SIT": "5", "NM_DIST": "Zé Doca", "NM_SUBDIST": null}, "geometry": {"type": "Polygon", "coordinates": [[[-46.06711, -3.355618], [-46.0705, -3.356844], [-46.07077, -3.355252], [-46.07274, -3.35274], [-46.07068, -3.350037], [-46.06921, -3.348876], [-46.06841, -3.35053], [-46.06717, -3.349817], [-46.06733, -3.351766], [-46.06711, -3.355618]]]}}, 
{"type": "Feature", "properties": {"CD_SETOR": "211400705000029", "CD_SIT": "8", "NM_DIST": "Zé Doca", "NM_SUBDIST": null}, "geometry": {"type": "Polygon", "coordinates": [[[-46.09827, -3.316922], [-46.0999, -3.317829], [-46.10387, -3.319093], [-46.106, -3.318245], [-46.10727, -3.318027], [-46.10798, -3.318174], [-46.10962, -3.317927], [-46.11035, -3.318017], [-46.11299, -3.317564], [-46.11751, -3.318273], [-46.12056, -3.319237], [-46.12123, -3.319632], [-46.12288, -3.32247], [-46.12384, -3.323127], [-46.12475, -3.324163], [-46.12524, -3.324203], [-46.12767, -3.325075], [-46.12923, -3.325828], [-46.13223, -3.327611], [-46.13488, -3.3289], [-46.13557, -3.329012], [-46.13976, -3.327431], [-46.14058, -3.327345], [-46.14179, -3.327583], [-46.14511, -3.328669], [-46.14812, -3.33], [-46.14899, -3.33118], [-46.15125, -3.332577], [-46.15204, -3.334053], [-46.15463, -3.336759], [-46.1558, -3.337344], [-46.15633, -3.338356], [-46.16106, -3.340084], [-46.16174, -3.34011], [-46.16395, -3.340735], [-46.16463, -3.341244], [-46.16574, -3.341459], [-46.16623, -3.341194], [-46.16745, -3.34091], [-46.16965, -3.341177], [-46.17056, -3.341425], [-46.17113, -3.341797], [-46.17195, -3.341687], [-46.17291, -3.341896], [-46.17399, -3.342895], [-46.17553, -3.343781], [-46.17622, -3.343909], [-46.17716, -3.343421], [-46.17774, -3.343632], [-46.17878, -3.342751], [-46.18003, -3.342226], [-46.18136, -3.342319], [-46.1823, -3.341085], [-46.18302, -3.341066], [-46.18404, -3.340239], [-46.18578, -3.339791], [-46.18722, -3.34006], [-46.1885, -3.339349], [-46.19006, -3.338106], [-46.19207, -3.338339], [-46.19305, -3.337983], [-46.19621, -3.33796], [-46.19722, -3.338277], [-46.19914, -3.337965], [-46.20041, -3.338795], [-46.20208, -3.336632], [-46.20373, -3.335643], [-46.20368, -3.33497], [-46.20242, -3.332878], [-46.20297, -3.331349], [-46.20318, -3.33024], [-46.20412, -3.329162], [-46.20439, -3.32844], [-46.20602, -3.328362], [-46.20612, -3.327652], [-46.20676, -3.326432], [-46.20833, -3.32524], [-46.20857, -3.324441], [-46.20862, -3.323156], [-46.20912, -3.322554], [-46.20995, -3.322339], [-46.21053, -3.321674], [-46.21085, -3.320703], [-46.21201, -3.318981], [-46.2123, -3.318246], [-46.21373, -3.316641], [-46.21418, -3.316248], [-46.21611, -3.316288], [-46.21698, -3.316033], [-46.21735, -3.316784], [-46.21785, -3.316705], [-46.21816, -3.316139], [-46.21865, -3.315799], [-46.22014, -3.3141], [-46.22046, -3.313969], [-46.22083, -3.313463], [-46.22101, -3.312357], [-46.22163, -3.311748], [-46.22305, -3.311645], [-46.22357, -3.310073], [-46.22882, -3.311116], [-46.2301, -3.306388], [-46.23057, -3.305986], [-46.23098, -3.306234], [-46.23199, -3.304596], [-46.23242, -3.304238], [-46.23385, -3.303641], [-46.2341, -3.303204], [-46.23458, -3.303455], [-46.23591, -3.303609], [-46.24021, -3.303903], [-46.24048, -3.300823], [-46.24189, -3.296055], [-46.24123, -3.293882], [-46.24155, -3.29271], [-46.24075, -3.291506], [-46.24291, -3.290736], [-46.24572, -3.289985], [-46.24599, -3.285568], [-46.25172, -3.285798], [-46.25224, -3.285473], [-46.25259, -3.284787], [-46.25306, -3.284484], [-46.25417, -3.284199], [-46.25521, -3.283628], [-46.2559, -3.28351], [-46.25627, -3.283103], [-46.25653, -3.281815], [-46.25573, -3.278499], [-46.25516, -3.278257], [-46.25496, -3.277785], [-46.25448, -3.277551], [-46.25412, -3.277109], [-46.25386, -3.27526], [-46.25395, -3.274227], [-46.25303, -3.269955], [-46.25351, -3.269853], [-46.25303, -3.267941], [-46.25261, -3.264956], [-46.25193, -3.262825], [-46.25188, -3.261651], [-46.25275, -3.259516], [-46.25271, -3.258966], [-46.25215, -3.258333], [-46.25181, -3.257495], [-46.25138, -3.256932], [-46.2511, -3.255404], [-46.2514, -3.254583], [-46.25155, -3.253475], [-46.25145, -3.252974], [-46.24969, -3.251582], [-46.24842, -3.251511], [-46.24769, -3.251851], [-46.24689, -3.251911], [-46.24616, -3.252315], [-46.24566, -3.252128], [-46.24387, -3.252283], [-46.24223, -3.252928], [-46.24067, -3.252358], [-46.24023, -3.251725], [-46.23738, -3.250257], [-46.23658, -3.249693], [-46.23519, -3.24818], [-46.23354, -3.247492], [-46.23367, -3.246401], [-46.23361, -3.244782], [-46.23336, -3.243721], [-46.2334, -3.241504], [-46.23154, -3.240996], [-46.23006, -3.24362], [-46.22615, -3.246151], [-46.22005, -3.247528], [-46.20717, -3.240155], [-46.20678, -3.240425], [-46.20576, -3.241784], [-46.20467, -3.242084], [-46.20394, -3.241852], [-46.20348, -3.242074], [-46.20134, -3.241879], [-46.20006, -3.241482], [-46.19749, -3.241141], [-46.19447, -3.242022], [-46.19203, -3.241215], [-46.19149, -3.241584], [-46.1903, -3.243274], [-46.18837, -3.247009], [-46.18774, -3.247608], [-46.18732, -3.249398], [-46.18743, -3.250119], [-46.18728, -3.25062], [-46.18683, -3.250922], [-46.18561, -3.250905], [-46.18491, -3.251673], [-46.18184, -3.251007], [-46.18121, -3.251188], [-46.1791, -3.250682], [-46.17858, -3.250278], [-46.17174, -3.248695], [-46.17045, -3.247873], [-46.17, -3.247755], [-46.16921, -3.247949], [-46.16715, -3.247519], [-46.16593, -3.247047], [-46.16127, -3.245978], [-46.15609, -3.244555], [-46.14645, -3.242635], [-46.14361, -3.242257], [-46.14294, -3.242021], [-46.14167, -3.242095], [-46.13935, -3.241772], [-46.13799, -3.241998], [-46.13699, -3.242311], [-46.13473, -3.24379], [-46.13342, -3.244298], [-46.13284, -3.244356], [-46.13129, -3.243863], [-46.13021, -3.242699], [-46.12939, -3.242376], [-46.12718, -3.242518], [-46.12287, -3.243307], [-46.12031, -3.243439], [-46.11879, -3.243809], [-46.11445, -3.243824], [-46.11288, -3.244334], [-46.11045, -3.242745], [-46.10822, -3.241779], [-46.10719, -3.24151], [-46.10721, -3.240724], [-46.10761, -3.239204], [-46.10694, -3.238553], [-46.10553, -3.237672], [-46.10319, -3.238571], [-46.10261, -3.23898], [-46.10154, -3.240196], [-46.09951, -3.241051], [-46.09982, -3.241545], [-46.09671, -3.24462], [-46.09616, -3.244794], [-46.09068, -3.241262], [-46.09132, -3.240547], [-46.08698, -3.237225], [-46.08516, -3.23697], [-46.08271, -3.235939], [-46.08126, -3.235504], [-46.08018, -3.235409], [-46.0795, -3.235514], [-46.07649, -3.235081], [-46.07063, -3.240937], [-46.06467, -3.247559], [-46.0606, -3.247618], [-46.05542, -3.249867], [-46.05861, -3.250731], [-46.06765, -3.257122], [-46.0706, -3.259007], [-46.07228, -3.25987], [-46.0735, -3.261172], [-46.07544, -3.262537], [-46.07583, -3.263298], [-46.07637, -3.265234], [-46.07663, -3.266901], [-46.07708, -3.26801], [-46.07822, -3.269476], [-46.0808, -3.271201], [-46.08209, -3.274608], [-46.08323, -3.276947], [-46.08515, -3.279784], [-46.08751, -3.286682], [-46.08713, -3.289366], [-46.0869, -3.292956], [-46.08839, -3.294901], [-46.08842, -3.29603], [-46.08964, -3.301466], [-46.09181, -3.303221], [-46.09328, -3.305031], [-46.09371, -3.305779], [-46.09548, -3.307531], [-46.09621, -3.309648], [-46.09616, -3.311949], [-46.09665, -3.314553], [-46.09702, -3.315468], [-46.09827, -3.316922]]]}}, 
{"type": "Feature", "properties": {"CD_SETOR": "211400705000030", "CD_SIT": "5", "NM_DIST": "Zé Doca", "NM_SUBDIST": null}, "geometry": {"type": "Polygon", "coordinates": [[[-46.33098, -3.239197], [-46.33146, -3.240442], [-46.33217, -3.240421], [-46.3358, -3.234564], [-46.33574, -3.233554], [-46.33343, -3.231472], [-46.32813, -3.233095], [-46.32976, -3.236095], [-46.33098, -3.239197]]]}}, 
{"type": "Feature", "properties": {"CD_SETOR": "211400705000031", "CD_SIT": "5", "NM_DIST": "Zé Doca", "NM_SUBDIST": null}, "geometry": {"type": "Polygon", "coordinates": [[[-46.20717, -3.240155], [-46.22005, -3.247528], [-46.22292, -3.246926], [-46.22286, -3.245644], [-46.2232, -3.243282], [-46.22295, -3.243261], [-46.22309, -3.241543], [-46.2181, -3.240895], [-46.21634, -3.240869], [-46.21442, -3.240387], [-46.21295, -3.240383], [-46.20861, -3.239721], [-46.20803, -3.239753], [-46.20717, -3.240155]]]}}, 
{"type": "Feature", "properties": {"CD_SETOR": "211400705000032", "CD_SIT": "5", "NM_DIST": "Zé Doca", "NM_SUBDIST": null}, "geometry": {"type": "Polygon", "coordinates": [[[-46.20717, -3.240155], [-46.20803, -3.239753], [-46.20861, -3.239721], [-46.21295, -3.240383], [-46.21442, -3.240387], [-46.21634, -3.240869], [-46.2181, -3.240895], [-46.22882, -3.242126], [-46.2294, -3.242057], [-46.22967, -3.241822], [-46.23, -3.237791], [-46.21202, -3.238645], [-46.20832, -3.239022], [-46.20678, -3.239721], [-46.20717, -3.240155]]]}}, 
{"type": "Feature", "properties": {"CD_SETOR": "211400705000033", "CD_SIT": "5", "NM_DIST": "Zé Doca", "NM_SUBDIST": null}, "geometry": {"type": "Polygon", "coordinates": [[[-46.09132, -3.240547], [-46.09068, -3.241262], [-46.09616, -3.244794], [-46.09671, -3.24462], [-46.09982, -3.241545], [-46.09916, -3.240417], [-46.09184, -3.239774], [-46.09132, -3.240547]]]}}, 
{"type": "Feature", "properties": {"CD_SETOR": "211400705000034", "CD_SIT": "5", "NM_DIST": "Zé Doca", "NM_SUBDIST": null}, "geometry": {"type": "Polygon", "coordinates": [[[-45.99772, -3.272199], [-45.9983, -3.27285], [-46.0128, -3.255871], [-46.01229, -3.255356], [-46.00722, -3.256748], [-45.99839, -3.269793], [-45.99772, -3.272199]]]}}, 
{"type": "Feature", "properties": {"CD_SETOR": "211400705000036", "CD_SIT": "5", "NM_DIST": "Zé Doca", "NM_SUBDIST": null}, "geometry": {"type": "Polygon", "coordinates": [[[-45.80117, -3.232816], [-45.80134, -3.23335], [-45.80587, -3.236461], [-45.80684, -3.236284], [-45.80787, -3.229897], [-45.80695, -3.230693], [-45.80657, -3.231259], [-45.80117, -3.232816]]]}}, 
{"type": "Feature", "properties": {"CD_SETOR": "211400705000037", "CD_SIT": "5", "NM_DIST": "Zé Doca", "NM_SUBDIST": null}, "geometry": {"type": "Polygon", "coordinates": [[[-45.75404, -3.246915], [-45.75447, -3.24757], [-45.75499, -3.24785], [-45.75568, -3.247939], [-45.75634, -3.247731], [-45.75686, -3.247303], [-45.75719, -3.246665], [-45.75722, -3.246118], [-45.75699, -3.24538], [-45.75665, -3.245005], [-45.75588, -3.244684], [-45.75471, -3.24491], [-45.75411, -3.245565], [-45.75392, -3.246309], [-45.75404, -3.246915]]]}}, 
{"type": "Feature", "properties": {"CD_SETOR": "211400705000038", "CD_SIT": "5", "NM_DIST": "Zé Doca", "NM_SUBDIST": null}, "geometry": {"type": "Polygon", "coordinates": [[[-45.74823, -3.165822], [-45.74606, -3.170015], [-45.75436, -3.174859], [-45.75388, -3.174055], [-45.75002, -3.171831], [-45.75162, -3.168364], [-45.75234, -3.167146], [-45.74894, -3.165428], [-45.74852, -3.166233], [-45.74823, -3.165822]]]}}, 
{"type": "Feature", "properties": {"CD_SETOR": "211400705000039", "CD_SIT": "8", "NM_DIST": "Zé Doca", "NM_SUBDIST": null}, "geometry": {"type": "Polygon", "coordinates": [[[-45.82113, -3.280101], [-45.82049, -3.281711], [-45.81973, -3.282072], [-45.81915, -3.282243], [-45.81821, -3.282179], [-45.81722, -3.281453], [-45.81765, -3.281901], [-45.81318, -3.283385], [-45.8112, -3.283534], [-45.80822, -3.284888], [-45.79436, -3.288398], [-45.79089, -3.288561], [-45.7877, -3.290715], [-45.7818, -3.291246], [-45.77533, -3.288934], [-45.77112, -3.288428], [-45.76808, -3.288542], [-45.76492, -3.287951], [-45.76196, -3.289295], [-45.75817, -3.288423], [-45.74964, -3.293769], [-45.74646, -3.29194], [-45.74643, -3.283543], [-45.74678, -3.283124], [-45.73865, -3.280951], [-45.73677, -3.283583], [-45.73628, -3.283478], [-45.73624, -3.280813], [-45.73046, -3.278244], [-45.72893, -3.278357], [-45.72544, -3.277433], [-45.72448, -3.279454], [-45.72344, -3.2793], [-45.72028, -3.284188], [-45.71635, -3.285016], [-45.70744, -3.282644], [-45.70619, -3.28259], [-45.7052, -3.282257], [-45.70483, -3.281527], [-45.70426, -3.281341], [-45.68137, -3.282618], [-45.6727, -3.282494], [-45.66655, -3.281143], [-45.66524, -3.288493], [-45.66391, -3.294153], [-45.6622, -3.307272], [-45.65921, -3.309733], [-45.65975, -3.313756], [-45.66046, -3.323225], [-45.66195, -3.338628], [-45.79867, -3.335531], [-45.88964, -3.313246], [-45.88898, -3.311627], [-45.89453, -3.309476], [-45.89312, -3.306374], [-45.89515, -3.305416], [-45.89434, -3.303552], [-45.89355, -3.300026], [-45.89317, -3.293108], [-45.89118, -3.291388], [-45.88597, -3.289707], [-45.8843, -3.287276], [-45.8832, -3.286885], [-45.88251, -3.285781], [-45.88048, -3.283579], [-45.88008, -3.282588], [-45.88004, -3.281699], [-45.8804, -3.279995], [-45.88026, -3.279196], [-45.88036, -3.278488], [-45.879, -3.276744], [-45.87869, -3.276021], [-45.87855, -3.275146], [-45.87793, -3.273974], [-45.87407, -3.272693], [-45.87331, -3.272818], [-45.87255, -3.272377], [-45.87193, -3.272333], [-45.86357, -3.274212], [-45.86222, -3.274393], [-45.86165, -3.274768], [-45.86008, -3.274874], [-45.85965, -3.275138], [-45.84533, -3.278707], [-45.84372, -3.277863], [-45.82113, -3.280101]]]}}, 
{"type": "Feature", "properties": {"CD_SETOR": "211400705000041", "CD_SIT": "5", "NM_DIST": "Zé Doca", "NM_SUBDIST": null}, "geometry": {"type": "Polygon", "coordinates": [[[-45.64821, -3.182619], [-45.6469, -3.182684], [-45.64687, -3.192382], [-45.6478, -3.196081], [-45.65081, -3.195829], [-45.65047, -3.188662], [-45.64937, -3.182459], [-45.64821, -3.182619]]]}}, 
{"type": "Feature", "properties": {"CD_SETOR": "211400705000042", "CD_SIT": "5", "NM_DIST": "Zé Doca", "NM_SUBDIST": null}, "geometry": {"type": "Polygon", "coordinates": [[[-45.65038, -3.207644], [-45.64977, -3.207658], [-45.64525, -3.222229], [-45.65156, -3.224739], [-45.65221, -3.224668], [-45.65569, -3.221719], [-45.65581, -3.218841], [-45.65095, -3.207576], [-45.65038, -3.207644]]]}}, 
{"type": "Feature", "properties": {"CD_SETOR": "211400705000043", "CD_SIT": "5", "NM_DIST": "Zé Doca", "NM_SUBDIST": null}, "geometry": {"type": "Polygon", "coordinates": [[[-45.6478, -3.196081], [-45.64943, -3.201678], [-45.65007, -3.201586], [-45.65163, -3.19933], [-45.65081, -3.195829], [-45.6478, -3.196081]]]}}, 
{"type": "Feature", "properties": {"CD_SETOR": "211400705000045", "CD_SIT": "8", "NM_DIST": "Zé Doca", "NM_SUBDIST": null}, "geometry": {"type": "Polygon", "coordinates": [[[-45.47764, -3.331316], [-45.47856, -3.330848], [-45.47971, -3.331109], [-45.48178, -3.332002], [-45.48278, -3.332232], [-45.48359, -3.332168], [-45.48421, -3.331886], [-45.48575, -3.330295], [-45.48862, -3.328854], [-45.4979, -3.32788], [-45.49845, -3.32803], [-45.49917, -3.327809], [-45.50138, -3.327546], [-45.50227, -3.327005], [-45.5054, -3.326039], [-45.50725, -3.326435], [-45.50822, -3.32637], [-45.51741, -3.323344], [-45.51755, -3.323527], [-45.51579, -3.333845], [-45.51647, -3.334456], [-45.52308, -3.337442], [-45.52371, -3.338052], [-45.52474, -3.338327], [-45.529, -3.341029], [-45.53372, -3.343564], [-45.53395, -3.343412], [-45.53368, -3.34303], [-45.53579, -3.341224], [-45.53692, -3.338508], [-45.53837, -3.33622], [-45.54086, -3.329751], [-45.54325, -3.324295], [-45.5452, -3.321603], [-45.547, -3.319461], [-45.54875, -3.315154], [-45.54941, -3.314218], [-45.55086, -3.312463], [-45.55353, -3.310273], [-45.55403, -3.309639], [-45.55537, -3.308795], [-45.55822, -3.304508], [-45.55903, -3.302614], [-45.5596, -3.299486], [-45.55989, -3.298873], [-45.56153, -3.298493], [-45.56274, -3.298405], [-45.56409, -3.297684], [-45.56502, -3.297565], [-45.56741, -3.295351], [-45.57161, -3.297581], [-45.57248, -3.298207], [-45.57419, -3.298063], [-45.57526, -3.297791], [-45.57893, -3.297536], [-45.57963, -3.297625], [-45.58035, -3.29731], [-45.59099, -3.295838], [-45.59166, -3.29546], [-45.59347, -3.295331], [-45.59507, -3.294528], [-45.59663, -3.29484], [-45.60563, -3.293448], [-45.6062, -3.293478], [-45.608, -3.292882], [-45.60993, -3.292892], [-45.61095, -3.292613], [-45.62303, -3.290694], [-45.6366, -3.288278], [-45.63668, -3.283624], [-45.63761, -3.283442], [-45.63872, -3.269441], [-45.63217, -3.270183], [-45.6301, -3.269297], [-45.62785, -3.269116], [-45.62702, -3.268868], [-45.62501, -3.268862], [-45.61668, -3.267538], [-45.61058, -3.26762], [-45.60851, -3.267782], [-45.60683, -3.268218], [-45.60202, -3.268475], [-45.59938, -3.267985], [-45.59796, -3.268175], [-45.59403, -3.269351], [-45.59137, -3.269636], [-45.5875, -3.27095], [-45.58528, -3.271434], [-45.57765, -3.272278], [-45.5754, -3.271672], [-45.5709, -3.26931], [-45.56822, -3.269154], [-45.56508, -3.268354], [-45.56673, -3.264791], [-45.56777, -3.263022], [-45.56782, -3.262603], [-45.5691, -3.259727], [-45.57052, -3.256907], [-45.56452, -3.26497], [-45.55895, -3.273031], [-45.55218, -3.279483], [-45.53771, -3.286593], [-45.52287, -3.29251], [-45.51884, -3.293646], [-45.50982, -3.29771], [-45.50056, -3.299384], [-45.50032, -3.298795], [-45.49405, -3.303267], [-45.49032, -3.306817], [-45.48366, -3.319047], [-45.47764, -3.331316]], [[-45.53423, -3.289611], [-45.53449, -3.288414], [-45.53495, -3.288239], [-45.54297, -3.290509], [-45.54275, -3.29137], [-45.53701, -3.290754], [-45.53406, -3.292002], [-45.53372, -3.291967], [-45.53423, -3.289611]]]}}, 
{"type": "Feature", "properties": {"CD_SETOR": "211400705000046", "CD_SIT": "8", "NM_DIST": "Zé Doca", "NM_SUBDIST": null}, "geometry": {"type": "Polygon", "coordinates": [[[-45.47764, -3.331316], [-45.44908, -3.388723], [-45.44409, -3.399425], [-45.46549, -3.418963], [-45.48416, -3.435651], [-45.50033, -3.44771], [-45.50452, -3.451061], [-45.54219, -3.484976], [-45.54407, -3.483307], [-45.54472, -3.478872], [-45.54425, -3.474156], [-45.54528, -3.470287], [-45.54903, -3.467219], [-45.55632, -3.458186], [-45.55953, -3.457542], [-45.56394, -3.455936], [-45.56745, -3.45354], [-45.56618, -3.449694], [-45.56646, -3.4438], [-45.56882, -3.440182], [-45.57154, -3.440701], [-45.57171, -3.44288], [-45.57115, -3.443981], [-45.57089, -3.446459], [-45.5735, -3.443904], [-45.57894, -3.440127], [-45.5841, -3.436115], [-45.59348, -3.4263], [-45.59619, -3.421722], [-45.60172, -3.411057], [-45.60118, -3.410927], [-45.60064, -3.406894], [-45.6005, -3.398017], [-45.59978, -3.393583], [-45.59779, -3.390475], [-45.59829, -3.38871], [-45.60084, -3.383592], [-45.60057, -3.382591], [-45.60034, -3.378802], [-45.59983, -3.376716], [-45.59845, -3.374507], [-45.59904, -3.373194], [-45.59138, -3.373618], [-45.58831, -3.37393], [-45.58576, -3.374452], [-45.58088, -3.37493], [-45.57939, -3.374653], [-45.57607, -3.375819], [-45.57571, -3.373064], [-45.57493, -3.371254], [-45.57379, -3.371112], [-45.57297, -3.371263], [-45.56713, -3.369887], [-45.56786, -3.367419], [-45.5729, -3.365809], [-45.57256, -3.364235], [-45.57159, -3.356659], [-45.56841, -3.35714], [-45.55294, -3.355298], [-45.54847, -3.355049], [-45.54801, -3.354616], [-45.54754, -3.352851], [-45.54697, -3.352511], [-45.54594, -3.351494], [-45.54466, -3.351048], [-45.54186, -3.351308], [-45.54098, -3.351078], [-45.54042, -3.350533], [-45.53999, -3.350416], [-45.53946, -3.349684], [-45.53851, -3.347566], [-45.53845, -3.346482], [-45.53568, -3.344474], [-45.53395, -3.343412], [-45.53372, -3.343564], [-45.529, -3.341029], [-45.52474, -3.338327], [-45.52371, -3.338052], [-45.52308, -3.337442], [-45.51647, -3.334456], [-45.51579, -3.333845], [-45.51755, -3.323527], [-45.51741, -3.323344], [-45.50822, -3.32637], [-45.50725, -3.326435], [-45.5054, -3.326039], [-45.50227, -3.327005], [-45.50138, -3.327546], [-45.49917, -3.327809], [-45.49845, -3.32803], [-45.4979, -3.32788], [-45.48862, -3.328854], [-45.48575, -3.330295], [-45.48421, -3.331886], [-45.48359, -3.332168], [-45.48278, -3.332232], [-45.48178, -3.332002], [-45.47971, -3.331109], [-45.47856, -3.330848], [-45.47764, -3.331316]]]}}, 
{"type": "Feature", "properties": {"CD_SETOR": "211400705000047", "CD_SIT": "8", "NM_DIST": "Zé Doca", "NM_SUBDIST": null}, "geometry": {"type": "Polygon", "coordinates": [[[-46.09827, -3.316922], [-46.09737, -3.319646], [-46.09745, -3.320182], [-46.09604, -3.321999], [-46.09591, -3.323795], [-46.09538, -3.324915], [-46.09529, -3.326255], [-46.09293, -3.329554], [-46.09211, -3.330262], [-46.09101, -3.331802], [-46.09066, -3.332719], [-46.08854, -3.334006], [-46.08714, -3.335285], [-46.08493, -3.336169], [-46.08387, -3.33693], [-46.0814, -3.337236], [-46.08069, -3.337819], [-46.08012, -3.339094], [-46.07939, -3.339724], [-46.07793, -3.341682], [-46.07623, -3.344793], [-46.07381, -3.348059], [-46.07068, -3.350037], [-46.07274, -3.35274], [-46.07077, -3.355252], [-46.0705, -3.356844], [-46.06711, -3.355618], [-46.06643, -3.356992], [-46.06608, -3.357448], [-46.06558, -3.35765], [-46.06478, -3.359291], [-46.06146, -3.363105], [-46.19701, -3.362948], [-46.22848, -3.340729], [-46.22878, -3.339916], [-46.22988, -3.33941], [-46.23026, -3.33859], [-46.23104, -3.338332], [-46.23171, -3.33777], [-46.23462, -3.336268], [-46.23551, -3.335543], [-46.23778, -3.33543], [-46.23884, -3.334467], [-46.23978, -3.333106], [-46.24089, -3.331834], [-46.2412, -3.331675], [-46.24165, -3.330753], [-46.24261, -3.330076], [-46.24327, -3.328831], [-46.24432, -3.328306], [-46.24498, -3.327733], [-46.24544, -3.327644], [-46.24682, -3.32675], [-46.25086, -3.324622], [-46.25073, -3.324221], [-46.25086, -3.323436], [-46.25012, -3.322834], [-46.24999, -3.322543], [-46.24993, -3.321348], [-46.25015, -3.320799], [-46.25163, -3.319083], [-46.25272, -3.318666], [-46.25438, -3.317342], [-46.25528, -3.316931], [-46.25607, -3.316888], [-46.257, -3.317062], [-46.25906, -3.313547], [-46.26067, -3.312111], [-46.2646, -3.312138], [-46.26839, -3.309073], [-46.26946, -3.306872], [-46.26984, -3.305437], [-46.26987, -3.302313], [-46.26821, -3.300443], [-46.26623, -3.300014], [-46.26428, -3.298663], [-46.26467, -3.296272], [-46.26461, -3.294081], [-46.26286, -3.292298], [-46.26191, -3.290929], [-46.26083, -3.289146], [-46.26064, -3.287584], [-46.25969, -3.286278], [-46.25675, -3.28488], [-46.2559, -3.28351], [-46.25521, -3.283628], [-46.25417, -3.284199], [-46.25306, -3.284484], [-46.25259, -3.284787], [-46.25224, -3.285473], [-46.25172, -3.285798], [-46.24599, -3.285568], [-46.24572, -3.289985], [-46.24291, -3.290736], [-46.24075, -3.291506], [-46.24155, -3.29271], [-46.24123, -3.293882], [-46.24189, -3.296055], [-46.24048, -3.300823], [-46.24021, -3.303903], [-46.23591, -3.303609], [-46.23458, -3.303455], [-46.2341, -3.303204], [-46.23385, -3.303641], [-46.23242, -3.304238], [-46.23199, -3.304596], [-46.23098, -3.306234], [-46.23057, -3.305986], [-46.2301, -3.306388], [-46.22882, -3.311116], [-46.22357, -3.310073], [-46.22305, -3.311645], [-46.22163, -3.311748], [-46.22101, -3.312357], [-46.22083, -3.313463], [-46.22046, -3.313969], [-46.22014, -3.3141], [-46.21865, -3.315799], [-46.21816, -3.316139], [-46.21785, -3.316705], [-46.21735, -3.316784], [-46.21698, -3.316033], [-46.21611, -3.316288], [-46.21418, -3.316248], [-46.21373, -3.316641], [-46.2123, -3.318246], [-46.21201, -3.318981], [-46.21085, -3.320703], [-46.21053, -3.321674], [-46.20995, -3.322339], [-46.20912, -3.322554], [-46.20862, -3.323156], [-46.20857, -3.324441], [-46.20833, -3.32524], [-46.20676, -3.326432], [-46.20612, -3.327652], [-46.20602, -3.328362], [-46.20439, -3.32844], [-46.20412, -3.329162], [-46.20318, -3.33024], [-46.20297, -3.331349], [-46.20242, -3.332878], [-46.20368, -3.33497], [-46.20373, -3.335643], [-46.20208, -3.336632], [-46.20041, -3.338795], [-46.19914, -3.337965], [-46.19722, -3.338277], [-46.19621, -3.33796], [-46.19305, -3.337983], [-46.19207, -3.338339], [-46.19006, -3.338106], [-46.1885, -3.339349], [-46.18722, -3.34006], [-46.18578, -3.339791], [-46.18404, -3.340239], [-46.18302, -3.341066], [-46.1823, -3.341085], [-46.18136, -3.342319], [-46.18003, -3.342226], [-46.17878, -3.342751], [-46.17774, -3.343632], [-46.17716, -3.343421], [-46.17622, -3.343909], [-46.17495, -3.343531], [-46.17399, -3.342895], [-46.17291, -3.341896], [-46.17195, -3.341687], [-46.17113, -3.341797], [-46.17056, -3.341425], [-46.16965, -3.341177], [-46.16745, -3.34091], [-46.16623, -3.341194], [-46.16574, -3.341459], [-46.16463, -3.341244], [-46.16395, -3.340735], [-46.16174, -3.34011], [-46.16106, -3.340084], [-46.15633, -3.338356], [-46.1558, -3.337344], [-46.15463, -3.336759], [-46.15204, -3.334053], [-46.15125, -3.332577], [-46.14899, -3.33118], [-46.14812, -3.33], [-46.14511, -3.328669], [-46.14179, -3.327583], [-46.14058, -3.327345], [-46.13976, -3.327431], [-46.13557, -3.329012], [-46.13488, -3.3289], [-46.13223, -3.327611], [-46.12923, -3.325828], [-46.12767, -3.325075], [-46.12524, -3.324203], [-46.12475, -3.324163], [-46.12384, -3.323127], [-46.12288, -3.32247], [-46.12123, -3.319632], [-46.12056, -3.319237], [-46.11751, -3.318273], [-46.11299, -3.317564], [-46.11035, -3.318017], [-46.10962, -3.317927], [-46.10798, -3.318174], [-46.10727, -3.318027], [-46.106, -3.318245], [-46.10387, -3.319093], [-46.0999, -3.317829], [-46.09827, -3.316922]]]}}, 
{"type": "Feature", "properties": {"CD_SETOR": "211400705000048", "CD_SIT": "8", "NM_DIST": "Zé Doca", "NM_SUBDIST": null}, "geometry": {"type": "Polygon", "coordinates": [[[-46.2812, -3.192986], [-46.28115, -3.194022], [-46.28061, -3.195455], [-46.27989, -3.196791], [-46.27984, -3.197637], [-46.2806, -3.19907], [-46.28191, -3.199557], [-46.28517, -3.199651], [-46.28729, -3.198963], [-46.28851, -3.197757], [-46.29069, -3.196223], [-46.2934, -3.195732], [-46.29637, -3.195989], [-46.3011, -3.194721], [-46.30512, -3.19474], [-46.31168, -3.195307], [-46.31654, -3.198442], [-46.31491, -3.198473], [-46.31322, -3.199455], [-46.31116, -3.20036], [-46.30879, -3.202702], [-46.30484, -3.202826], [-46.30307, -3.204211], [-46.29779, -3.206878], [-46.29506, -3.206465], [-46.29237, -3.20944], [-46.29, -3.21055], [-46.28538, -3.213407], [-46.28444, -3.214526], [-46.28416, -3.217898], [-46.28198, -3.217344], [-46.27996, -3.218218], [-46.27867, -3.219203], [-46.27734, -3.219208], [-46.27444, -3.222988], [-46.27016, -3.221924], [-46.26802, -3.223266], [-46.26385, -3.223739], [-46.26273, -3.224133], [-46.26148, -3.22425], [-46.26076, -3.224981], [-46.25913, -3.225592], [-46.25752, -3.226471], [-46.25582, -3.228052], [-46.25444, -3.229677], [-46.25236, -3.233307], [-46.24938, -3.233729], [-46.24852, -3.234057], [-46.24556, -3.232491], [-46.24306, -3.230471], [-46.24039, -3.229725], [-46.23936, -3.229962], [-46.23792, -3.229081], [-46.23465, -3.22878], [-46.23422, -3.229224], [-46.23377, -3.230686], [-46.23401, -3.231461], [-46.23314, -3.232375], [-46.23313, -3.233338], [-46.23245, -3.234206], [-46.23084, -3.235192], [-46.23022, -3.235958], [-46.23004, -3.237021], [-46.23185, -3.239243], [-46.23154, -3.240996], [-46.2334, -3.241504], [-46.23336, -3.243721], [-46.23361, -3.244782], [-46.23367, -3.246401], [-46.23354, -3.247492], [-46.23519, -3.24818], [-46.23658, -3.249693], [-46.23738, -3.250257], [-46.24023, -3.251725], [-46.24067, -3.252358], [-46.2413, -3.252651], [-46.24223, -3.252928], [-46.24387, -3.252283], [-46.24566, -3.252128], [-46.24616, -3.252315], [-46.24689, -3.251911], [-46.24769, -3.251851], [-46.24842, -3.251511], [-46.24969, -3.251582], [-46.25145, -3.252974], [-46.25155, -3.253475], [-46.2514, -3.254583], [-46.2511, -3.255404], [-46.25138, -3.256932], [-46.25181, -3.257495], [-46.25215, -3.258333], [-46.25271, -3.258966], [-46.25275, -3.259516], [-46.25188, -3.261651], [-46.25193, -3.262825], [-46.25261, -3.264956], [-46.25303, -3.267941], [-46.25351, -3.269853], [-46.25394, -3.26978], [-46.255, -3.274026], [-46.25395, -3.274227], [-46.25386, -3.27526], [-46.25412, -3.277109], [-46.25448, -3.277551], [-46.25496, -3.277785], [-46.25516, -3.278257], [-46.25573, -3.278499], [-46.25653, -3.281815], [-46.25627, -3.283103], [-46.25587, -3.283604], [-46.25675, -3.28488], [-46.25969, -3.286278], [-46.26064, -3.287584], [-46.26083, -3.289146], [-46.26191, -3.290929], [-46.26286, -3.292298], [-46.26461, -3.294081], [-46.26467, -3.296272], [-46.26428, -3.298663], [-46.26623, -3.300014], [-46.26821, -3.300443], [-46.26987, -3.302313], [-46.26984, -3.305437], [-46.26946, -3.306872], [-46.26839, -3.309073], [-46.2646, -3.312138], [-46.26067, -3.312111], [-46.25906, -3.313547], [-46.257, -3.317062], [-46.26123, -3.318293], [-46.26406, -3.319307], [-46.26568, -3.321113], [-46.26549, -3.321941], [-46.26628, -3.322794], [-46.26653, -3.323516], [-46.26685, -3.323705], [-46.26729, -3.32363], [-46.26763, -3.323771], [-46.26937, -3.326997], [-46.27139, -3.330037], [-46.27442, -3.333806], [-46.27551, -3.335715], [-46.27753, -3.337741], [-46.27777, -3.338424], [-46.2788, -3.339609], [-46.27946, -3.340046], [-46.28012, -3.340997], [-46.27957, -3.343112], [-46.27981, -3.343657], [-46.27971, -3.344387], [-46.27988, -3.345309], [-46.27963, -3.345661], [-46.27837, -3.346449], [-46.39568, -3.291366], [-46.39409, -3.280877], [-46.39081, -3.275152], [-46.39116, -3.273745], [-46.36719, -3.236841], [-46.34973, -3.21394], [-46.32681, -3.19799], [-46.31081, -3.190764], [-46.29541, -3.191277], [-46.2812, -3.192986]], [[-46.33098, -3.239197], [-46.32976, -3.236095], [-46.32813, -3.233095], [-46.33343, -3.231472], [-46.33574, -3.233554], [-46.3358, -3.234564], [-46.33217, -3.240421], [-46.33146, -3.240442], [-46.33098, -3.239197]]]}}, 
{"type": "Feature", "properties": {"CD_SETOR": "211400705000049", "CD_SIT": "8", "NM_DIST": "Zé Doca", "NM_SUBDIST": null}, "geometry": {"type": "Polygon", "coordinates": [[[-46.11033, -3.223694], [-46.10941, -3.229557], [-46.10828, -3.23418], [-46.10694, -3.238553], [-46.10761, -3.239204], [-46.10721, -3.240724], [-46.10719, -3.24151], [-46.10822, -3.241779], [-46.11045, -3.242745], [-46.11288, -3.244334], [-46.11445, -3.243824], [-46.11879, -3.243809], [-46.12031, -3.243439], [-46.12287, -3.243307], [-46.12718, -3.242518], [-46.12939, -3.242376], [-46.13021, -3.242699], [-46.13129, -3.243863], [-46.13284, -3.244356], [-46.13342, -3.244298], [-46.13473, -3.24379], [-46.13699, -3.242311], [-46.13799, -3.241998], [-46.13935, -3.241772], [-46.14167, -3.242095], [-46.14294, -3.242021], [-46.14361, -3.242257], [-46.14645, -3.242635], [-46.15609, -3.244555], [-46.16127, -3.245978], [-46.16593, -3.247047], [-46.16715, -3.247519], [-46.16921, -3.247949], [-46.17, -3.247755], [-46.17045, -3.247873], [-46.17174, -3.248695], [-46.17858, -3.250278], [-46.1791, -3.250682], [-46.18121, -3.251188], [-46.18184, -3.251007], [-46.18491, -3.251673], [-46.18561, -3.250905], [-46.18683, -3.250922], [-46.18728, -3.25062], [-46.18743, -3.250119], [-46.18732, -3.249398], [-46.18774, -3.247608], [-46.18837, -3.247009], [-46.1903, -3.243274], [-46.19149, -3.241584], [-46.19203, -3.241215], [-46.19447, -3.242022], [-46.19749, -3.241141], [-46.20006, -3.241482], [-46.20134, -3.241879], [-46.20348, -3.242074], [-46.20394, -3.241852], [-46.20467, -3.242084], [-46.20576, -3.241784], [-46.20678, -3.240425], [-46.20717, -3.240155], [-46.20678, -3.239721], [-46.20832, -3.239022], [-46.21202, -3.238645], [-46.23, -3.237791], [-46.23022, -3.235958], [-46.23084, -3.235192], [-46.23245, -3.234206], [-46.23313, -3.233338], [-46.23314, -3.232375], [-46.23401, -3.231461], [-46.23377, -3.230686], [-46.23422, -3.229224], [-46.23465, -3.22878], [-46.23792, -3.229081], [-46.23936, -3.229962], [-46.24039, -3.229725], [-46.24306, -3.230471], [-46.24556, -3.232491], [-46.24852, -3.234057], [-46.24938, -3.233729], [-46.25236, -3.233307], [-46.25444, -3.229677], [-46.25582, -3.228052], [-46.25752, -3.226471], [-46.25913, -3.225592], [-46.26076, -3.224981], [-46.26148, -3.22425], [-46.26273, -3.224133], [-46.26385, -3.223739], [-46.26802, -3.223266], [-46.27016, -3.221924], [-46.27444, -3.222988], [-46.27734, -3.219208], [-46.27867, -3.219203], [-46.27996, -3.218218], [-46.28198, -3.217344], [-46.28416, -3.217898], [-46.28444, -3.214526], [-46.28538, -3.213407], [-46.29, -3.21055], [-46.29237, -3.20944], [-46.29506, -3.206465], [-46.29779, -3.206878], [-46.30307, -3.204211], [-46.30484, -3.202826], [-46.30879, -3.202702], [-46.31116, -3.20036], [-46.31322, -3.199455], [-46.31491, -3.198473], [-46.31654, -3.198442], [-46.31168, -3.195307], [-46.30512, -3.19474], [-46.3011, -3.194721], [-46.29637, -3.195989], [-46.2934, -3.195732], [-46.29069, -3.196223], [-46.28851, -3.197757], [-46.28729, -3.198963], [-46.28517, -3.199651], [-46.28191, -3.199557], [-46.2806, -3.19907], [-46.27984, -3.197637], [-46.27989, -3.196791], [-46.28061, -3.195455], [-46.28115, -3.194022], [-46.2812, -3.192986], [-46.27883, -3.191698], [-46.27459, -3.188218], [-46.14181, -3.21833], [-46.13118, -3.219575], [-46.11033, -3.223694]]]}}, 
{"type": "Feature", "properties": {"CD_SETOR": "211400705000050", "CD_SIT": "8", "NM_DIST": "Zé Doca", "NM_SUBDIST": null}, "geometry": {"type": "Polygon", "coordinates": [[[-45.70671, -3.102706], [-45.68407, -3.10983], [-45.65796, -3.115516], [-45.64966, -3.116895], [-45.64194, -3.119526], [-45.64295, -3.1201], [-45.64821, -3.182619], [-45.64937, -3.182459], [-45.65047, -3.188662], [-45.65081, -3.195829], [-45.65163, -3.19933], [-45.65007, -3.201586], [-45.64983, -3.201614], [-45.65038, -3.207644], [-45.65095, -3.207576], [-45.65581, -3.218841], [-45.65569, -3.221719], [-45.65221, -3.224668], [-45.65188, -3.224703], [-45.6539, -3.248515], [-45.66431, -3.253414], [-45.69734, -3.249523], [-45.71443, -3.247188], [-45.71537, -3.24717], [-45.71608, -3.247444], [-45.72495, -3.254533], [-45.72555, -3.254877], [-45.72651, -3.255011], [-45.75404, -3.246915], [-45.75392, -3.246309], [-45.75411, -3.245565], [-45.75471, -3.24491], [-45.75509, -3.244761], [-45.75623, -3.244761], [-45.75699, -3.24538], [-45.75716, -3.245819], [-45.76469, -3.243618], [-45.78244, -3.238026], [-45.78231, -3.229191], [-45.78147, -3.221374], [-45.78064, -3.216718], [-45.77612, -3.208366], [-45.7728, -3.204848], [-45.76388, -3.191366], [-45.7583, -3.1814], [-45.75436, -3.174859], [-45.74606, -3.170015], [-45.74823, -3.165822], [-45.74024, -3.154795], [-45.72408, -3.125561], [-45.71623, -3.110107], [-45.71116, -3.101308], [-45.70671, -3.102706]], [[-45.66744, -3.18638], [-45.66599, -3.184825], [-45.67015, -3.182222], [-45.67564, -3.181577], [-45.67526, -3.183018], [-45.67634, -3.186489], [-45.66957, -3.18873], [-45.66744, -3.18638]]]}}, 
{"type": "Feature", "properties": {"CD_SETOR": "211400705000051", "CD_SIT": "5", "NM_DIST": "Zé Doca", "NM_SUBDIST": null}, "geometry": {"type": "Polygon", "coordinates": [[[-45.73624, -3.280813], [-45.73628, -3.283478], [-45.73677, -3.283583], [-45.73865, -3.280951], [-45.73659, -3.280606], [-45.73629, -3.280597], [-45.73624, -3.280813]]]}}, 
{"type": "Feature", "properties": {"CD_SETOR": "211400705000052", "CD_SIT": "1", "NM_DIST": "Zé Doca", "NM_SUBDIST": null}, "geometry": {"type": "Polygon", "coordinates": [[[-45.65837, -3.30018], [-45.65891, -3.306215], [-45.65921, -3.309733], [-45.6622, -3.307272], [-45.66391, -3.294153], [-45.65837, -3.30018]]]}}, 
{"type": "Feature", "properties": {"CD_SETOR": "211400705000053", "CD_SIT": "5", "NM_DIST": "Zé Doca", "NM_SUBDIST": null}, "geometry": {"type": "Polygon", "coordinates": [[[-45.75817, -3.288423], [-45.75825, -3.287458], [-45.75808, -3.287072], [-45.75697, -3.286428], [-45.75603, -3.28527], [-45.7559, -3.283296], [-45.74678, -3.283124], [-45.74643, -3.283543], [-45.74646, -3.29194], [-45.74964, -3.293769], [-45.75817, -3.288423]]]}}, 
{"type": "Feature", "properties": {"CD_SETOR": "211400705000054", "CD_SIT": "1", "NM_DIST": "Zé Doca", "NM_SUBDIST": null}, "geometry": {"type": "Polygon", "coordinates": [[[-45.66043, -3.278599], [-45.66052, -3.280633], [-45.65838, -3.28074], [-45.65848, -3.282112], [-45.6631, -3.281682], [-45.66655, -3.281143], [-45.6675, -3.276658], [-45.66032, -3.277164], [-45.66043, -3.278599]]]}}, 
{"type": "Feature", "properties": {"CD_SETOR": "211400705000055", "CD_SIT": "5", "NM_DIST": "Zé Doca", "NM_SUBDIST": null}, "geometry": {"type": "Polygon", "coordinates": [[[-46.22292, -3.246926], [-46.22615, -3.246151], [-46.23006, -3.24362], [-46.22629, -3.243553], [-46.2232, -3.243282], [-46.22286, -3.245644], [-46.22292, -3.246926]]]}}, 
{"type": "Feature", "properties": {"CD_SETOR": "211400705000057", "CD_SIT": "8", "NM_DIST": "Zé Doca", "NM_SUBDIST": null}, "geometry": {"type": "Polygon", "coordinates": [[[-46.10492, -3.150065], [-46.10728, -3.155317], [-46.11085, -3.159373], [-46.11161, -3.160489], [-46.11189, -3.161476], [-46.11313, -3.164154], [-46.11456, -3.166322], [-46.11681, -3.170258], [-46.11738, -3.171661], [-46.1176, -3.173638], [-46.11751, -3.174882], [-46.11625, -3.178742], [-46.11587, -3.180656], [-46.11584, -3.182994], [-46.11638, -3.185736], [-46.11832, -3.188094], [-46.12326, -3.195584], [-46.12475, -3.196963], [-46.12722, -3.198332], [-46.12713, -3.199225], [-46.12583, -3.201332], [-46.12498, -3.201907], [-46.12384, -3.203693], [-46.11712, -3.206941], [-46.11686, -3.212927], [-46.11714, -3.213476], [-46.11584, -3.214296], [-46.11506, -3.214284], [-46.11462, -3.214587], [-46.1143, -3.214527], [-46.11411, -3.215212], [-46.11454, -3.216053], [-46.11438, -3.216508], [-46.11483, -3.218256], [-46.11389, -3.219882], [-46.11276, -3.220423], [-46.11205, -3.22092], [-46.11172, -3.221396], [-46.11135, -3.221526], [-46.11088, -3.223307], [-46.11033, -3.223694], [-46.13118, -3.219575], [-46.14181, -3.21833], [-46.27459, -3.188218], [-46.27112, -3.181383], [-46.27012, -3.172352], [-46.26972, -3.166794], [-46.26853, -3.162725], [-46.26784, -3.16093], [-46.26671, -3.159141], [-46.26523, -3.159145], [-46.26298, -3.160718], [-46.25954, -3.160424], [-46.25675, -3.161261], [-46.25408, -3.162578], [-46.25219, -3.162669], [-46.251, -3.161478], [-46.24957, -3.158378], [-46.24767, -3.157247], [-46.24637, -3.157785], [-46.24406, -3.161158], [-46.24187, -3.166112], [-46.24062, -3.166412], [-46.23712, -3.164419], [-46.23427, -3.163168], [-46.23261, -3.161142], [-46.22929, -3.158881], [-46.22502, -3.158317], [-46.22069, -3.159515], [-46.21245, -3.162568], [-46.20622, -3.165289], [-46.20492, -3.166544], [-46.20112, -3.167085], [-46.19727, -3.166702], [-46.18937, -3.16337], [-46.18546, -3.162362], [-46.18231, -3.162334], [-46.17591, -3.164369], [-46.16796, -3.161486], [-46.16612, -3.161368], [-46.16102, -3.161851], [-46.15592, -3.161201], [-46.15224, -3.161473], [-46.14743, -3.15933], [-46.14072, -3.153283], [-46.12655, -3.15133], [-46.11782, -3.148864], [-46.11308, -3.148151], [-46.11059, -3.148306], [-46.10798, -3.149739], [-46.10492, -3.150065]]]}}, 
{"type": "Feature", "properties": {"CD_SETOR": "211400705000062", "CD_SIT": "8", "NM_DIST": "Zé Doca", "NM_SUBDIST": null}, "geometry": {"type": "Polygon", "coordinates": [[[-46.03133, -3.372805], [-46.03242, -3.373044], [-46.03295, -3.37282], [-46.03356, -3.372805], [-46.03525, -3.370717], [-46.03695, -3.37011], [-46.03801, -3.369527], [-46.04014, -3.369184], [-46.04119, -3.369278], [-46.04182, -3.36968], [-46.04502, -3.369304], [-46.04677, -3.369612], [-46.04909, -3.369693], [-46.05053, -3.36993], [-46.05137, -3.369443], [-46.05231, -3.369297], [-46.05293, -3.368429], [-46.05366, -3.36786], [-46.05781, -3.366288], [-46.06035, -3.363423], [-46.03098, -3.354325], [-46.03051, -3.355475], [-46.03047, -3.355989], [-46.03081, -3.356564], [-46.03061, -3.357171], [-46.0298, -3.357652], [-46.02944, -3.358519], [-46.02931, -3.359843], [-46.02886, -3.360539], [-46.0302, -3.361641], [-46.03214, -3.363623], [-46.03224, -3.364087], [-46.0322, -3.364437], [-46.0307, -3.366412], [-46.0307, -3.367191], [-46.03014, -3.369153], [-46.03006, -3.370361], [-46.02975, -3.371034], [-46.02979, -3.371478], [-46.03093, -3.372261], [-46.03133, -3.372805]]]}}, 
{"type": "Feature", "properties": {"CD_SETOR": "211400705000063", "CD_SIT": "5", "NM_DIST": "Zé Doca", "NM_SUBDIST": null}, "geometry": {"type": "Polygon", "coordinates": [[[-45.92097, -3.364711], [-45.92435, -3.36686], [-45.92976, -3.364983], [-45.92957, -3.36452], [-45.92574, -3.362982], [-45.92123, -3.361812], [-45.921, -3.36185], [-45.92097, -3.364711]]]}}, 
{"type": "Feature", "properties": {"CD_SETOR": "211400705000064", "CD_SIT": "5", "NM_DIST": "Zé Doca", "NM_SUBDIST": null}, "geometry": {"type": "Polygon", "coordinates": [[[-45.88964, -3.313246], [-45.89011, -3.314062], [-45.88978, -3.314192], [-45.88985, -3.314581], [-45.89018, -3.3144], [-45.89072, -3.315287], [-45.89044, -3.315507], [-45.89104, -3.315901], [-45.89132, -3.315728], [-45.89157, -3.315861], [-45.89191, -3.31563], [-45.892, -3.315792], [-45.8921, -3.315614], [-45.89238, -3.315738], [-45.89314, -3.315206], [-45.89361, -3.315131], [-45.89374, -3.315307], [-45.89373, -3.315014], [-45.89405, -3.314777], [-45.89419, -3.315035], [-45.89443, -3.314848], [-45.89476, -3.315075], [-45.89496, -3.314999], [-45.89504, -3.315372], [-45.89541, -3.315664], [-45.89592, -3.315554], [-45.89634, -3.315809], [-45.89653, -3.315684], [-45.89976, -3.315947], [-45.89921, -3.313461], [-45.89904, -3.310982], [-45.89231, -3.312047], [-45.89163, -3.312717], [-45.88964, -3.313246]]]}}, 
{"type": "Feature", "properties": {"CD_SETOR": "211400705000065", "CD_SIT": "8", "NM_DIST": "Zé Doca", "NM_SUBDIST": null}, "geometry": {"type": "Polygon", "coordinates": [[[-45.87854, -3.315965], [-45.90939, -3.378663], [-45.93958, -3.365996], [-45.9414, -3.365771], [-45.9494, -3.366571], [-45.952, -3.367497], [-45.95999, -3.369524], [-45.96401, -3.370309], [-45.96636, -3.370305], [-45.9671, -3.37069], [-45.96825, -3.370765], [-45.96981, -3.371316], [-45.97118, -3.371449], [-45.97591, -3.373406], [-45.97673, -3.373082], [-45.97728, -3.372462], [-45.97872, -3.371486], [-45.97931, -3.371468], [-45.98098, -3.370908], [-45.98185, -3.370792], [-45.98423, -3.371197], [-45.98491, -3.371157], [-45.98638, -3.370606], [-45.98784, -3.369803], [-45.9891, -3.369405], [-45.99077, -3.369202], [-45.99213, -3.36885], [-45.99545, -3.367665], [-45.99597, -3.367637], [-45.9982, -3.368996], [-46.00094, -3.37023], [-46.00292, -3.370582], [-46.00637, -3.372996], [-46.00943, -3.374371], [-46.01152, -3.374653], [-46.01552, -3.376852], [-46.01783, -3.377237], [-46.01973, -3.377886], [-46.02071, -3.378014], [-46.02214, -3.377895], [-46.02469, -3.377376], [-46.02527, -3.37666], [-46.02538, -3.376134], [-46.02633, -3.375232], [-46.02743, -3.375035], [-46.02825, -3.374318], [-46.03075, -3.372935], [-46.03133, -3.372805], [-46.03093, -3.372261], [-46.02979, -3.371478], [-46.02975, -3.371034], [-46.03006, -3.370361], [-46.03014, -3.369153], [-46.0307, -3.367191], [-46.0307, -3.366412], [-46.0322, -3.364437], [-46.03224, -3.364087], [-46.03214, -3.363623], [-46.0302, -3.361641], [-46.02886, -3.360539], [-46.02931, -3.359843], [-46.02944, -3.358519], [-46.0298, -3.357652], [-46.03061, -3.357171], [-46.03081, -3.356564], [-46.03047, -3.355989], [-46.03051, -3.355475], [-46.03098, -3.354325], [-45.90357, -3.313527], [-45.89963, -3.316013], [-45.89653, -3.315684], [-45.89634, -3.315809], [-45.89592, -3.315554], [-45.89541, -3.315664], [-45.89504, -3.315372], [-45.89496, -3.314999], [-45.89476, -3.315075], [-45.89443, -3.314848], [-45.89419, -3.315035], [-45.89405, -3.314777], [-45.89373, -3.315014], [-45.89374, -3.315307], [-45.89361, -3.315131], [-45.89314, -3.315206], [-45.89238, -3.315738], [-45.8921, -3.315614], [-45.892, -3.315792], [-45.89191, -3.31563], [-45.89157, -3.315861], [-45.89132, -3.315728], [-45.89104, -3.315901], [-45.89044, -3.315507], [-45.89072, -3.315287], [-45.89018, -3.3144], [-45.88985, -3.314581], [-45.88978, -3.314192], [-45.89011, -3.314062], [-45.88964, -3.313246], [-45.87854, -3.315965]], [[-45.92097, -3.364711], [-45.921, -3.36185], [-45.92123, -3.361812], [-45.92574, -3.362982], [-45.92957, -3.36452], [-45.92976, -3.364983], [-45.92435, -3.36686], [-45.92097, -3.364711]]]}}, 
{"type": "Feature", "properties": {"CD_SETOR": "211400705000066", "CD_SIT": "8", "NM_DIST": "Zé Doca", "NM_SUBDIST": null}, "geometry": {"type": "Polygon", "coordinates": [[[-45.60631, -3.158774], [-45.64252, -3.158789], [-45.64613, -3.158621], [-45.64295, -3.1201], [-45.64194, -3.119526], [-45.64003, -3.090387], [-45.63907, -3.083048], [-45.62398, -3.053249], [-45.62351, -3.061905], [-45.62233, -3.067039], [-45.6215, -3.069366], [-45.62174, -3.072588], [-45.62032, -3.07641], [-45.61463, -3.097661], [-45.61262, -3.106079], [-45.61061, -3.116823], [-45.61061, -3.119391], [-45.60979, -3.126195], [-45.60908, -3.136821], [-45.6092, -3.139146], [-45.60813, -3.141417], [-45.60837, -3.148458], [-45.60695, -3.155385], [-45.60613, -3.157355], [-45.60631, -3.158774]]]}}, 
{"type": "Feature", "properties": {"CD_SETOR": "211400705000067", "CD_SIT": "1", "NM_DIST": "Zé Doca", "NM_SUBDIST": null}, "geometry": {"type": "Polygon", "coordinates": [[[-45.65622, -3.275695], [-45.65638, -3.277496], [-45.65851, -3.27736], [-45.65871, -3.278724], [-45.65941, -3.278668], [-45.65935, -3.276494], [-45.65842, -3.276586], [-45.65828, -3.275326], [-45.65622, -3.275695]]]}}, 
{"type": "Feature", "properties": {"CD_SETOR": "211400705000068", "CD_SIT": "1", "NM_DIST": "Zé Doca", "NM_SUBDIST": null}, "geometry": {"type": "Polygon", "coordinates": [[[-45.65117, -3.2676], [-45.65124, -3.268225], [-45.65426, -3.268099], [-45.65431, -3.270154], [-45.65571, -3.270085], [-45.65541, -3.266614], [-45.65112, -3.26691], [-45.65117, -3.2676]]]}}, 
{"type": "Feature", "properties": {"CD_SETOR": "211400705000069", "CD_SIT": "1", "NM_DIST": "Zé Doca", "NM_SUBDIST": null}, "geometry": {"type": "Polygon", "coordinates": [[[-45.65095, -3.264866], [-45.65109, -3.266252], [-45.6501, -3.266331], [-45.65019, -3.267682], [-45.65117, -3.2676], [-45.65112, -3.26691], [-45.65541, -3.266614], [-45.65531, -3.265092], [-45.65201, -3.265408], [-45.65196, -3.264816], [-45.65095, -3.264866]]]}}, 
{"type": "Feature", "properties": {"CD_SETOR": "211400705000070", "CD_SIT": "1", "NM_DIST": "Zé Doca", "NM_SUBDIST": null}, "geometry": {"type": "Polygon", "coordinates": [[[-45.64472, -3.256285], [-45.64474, -3.256895], [-45.64459, -3.256901], [-45.64466, -3.258584], [-45.64755, -3.25851], [-45.64746, -3.256192], [-45.64472, -3.256285]]]}}, 
{"type": "Feature", "properties": {"CD_SETOR": "211400705000071", "CD_SIT": "1", "NM_DIST": "Zé Doca", "NM_SUBDIST": null}, "geometry": {"type": "Polygon", "coordinates": [[[-45.64458, -3.252709], [-45.64472, -3.256285], [-45.64746, -3.256192], [-45.64742, -3.250866], [-45.64604, -3.250774], [-45.64509, -3.251819], [-45.64474, -3.252665], [-45.64458, -3.252709]]]}}, 
{"type": "Feature", "properties": {"CD_SETOR": "211400705000072", "CD_SIT": "1", "NM_DIST": "Zé Doca", "NM_SUBDIST": null}, "geometry": {"type": "Polygon", "coordinates": [[[-45.64414, -3.26317], [-45.64671, -3.265913], [-45.64903, -3.265701], [-45.64884, -3.263756], [-45.64787, -3.263785], [-45.64779, -3.26304], [-45.64414, -3.26317]]]}}, 
{"type": "Feature", "properties": {"CD_SETOR": "211400705000073", "CD_SIT": "1", "NM_DIST": "Zé Doca", "NM_SUBDIST": null}, "geometry": {"type": "Polygon", "coordinates": [[[-45.64985, -3.276862], [-45.65038, -3.280065], [-45.65135, -3.279896], [-45.65134, -3.279785], [-45.65449, -3.279331], [-45.65444, -3.278049], [-45.65486, -3.277986], [-45.65429, -3.276037], [-45.64985, -3.276862]]]}}, 
{"type": "Feature", "properties": {"CD_SETOR": "211400705000075", "CD_SIT": "1", "NM_DIST": "Zé Doca", "NM_SUBDIST": null}, "geometry": {"type": "Polygon", "coordinates": [[[-45.64469, -3.286822], [-45.6517, -3.28583], [-45.65191, -3.284946], [-45.65021, -3.285223], [-45.6501, -3.284517], [-45.64622, -3.285164], [-45.64608, -3.284443], [-45.64435, -3.284729], [-45.64469, -3.286822]]]}}, 
{"type": "Feature", "properties": {"CD_SETOR": "211400705000076", "CD_SIT": "1", "NM_DIST": "Zé Doca", "NM_SUBDIST": null}, "geometry": {"type": "Polygon", "coordinates": [[[-45.6626, -3.285724], [-45.66282, -3.287941], [-45.662, -3.288008], [-45.66213, -3.289548], [-45.66503, -3.289386], [-45.66577, -3.28553], [-45.6626, -3.285724]]]}}, 
{"type": "Feature", "properties": {"CD_SETOR": "211400705000077", "CD_SIT": "5", "NM_DIST": "Zé Doca", "NM_SUBDIST": null}, "geometry": {"type": "Polygon", "coordinates": [[[-45.5751, -3.371615], [-45.57604, -3.37127], [-45.57454, -3.368466], [-45.57422, -3.368631], [-45.5729, -3.365809], [-45.56786, -3.367419], [-45.56713, -3.369887], [-45.57297, -3.371263], [-45.57379, -3.371112], [-45.57481, -3.371214], [-45.5751, -3.371615]]]}}, 
{"type": "Feature", "properties": {"CD_SETOR": "211400705000078", "CD_SIT": "5", "NM_DIST": "Zé Doca", "NM_SUBDIST": null}, "geometry": {"type": "Polygon", "coordinates": [[[-45.53395, -3.343412], [-45.53568, -3.344474], [-45.53737, -3.343013], [-45.53563, -3.34145], [-45.53526, -3.342276], [-45.53395, -3.343412]]]}}, 
{"type": "Feature", "properties": {"CD_SETOR": "211400705000079", "CD_SIT": "5", "NM_DIST": "Zé Doca", "NM_SUBDIST": null}, "geometry": {"type": "Polygon", "coordinates": [[[-46.25351, -3.269853], [-46.25303, -3.269955], [-46.25395, -3.274227], [-46.255, -3.274026], [-46.25394, -3.26978], [-46.25351, -3.269853]]]}}, 
{"type": "Feature", "properties": {"CD_SETOR": "211400705000080", "CD_SIT": "8", "NM_DIST": "Zé Doca", "NM_SUBDIST": null}, "geometry": {"type": "Polygon", "coordinates": [[[-45.78244, -3.238026], [-45.76469, -3.243618], [-45.75716, -3.245819], [-45.75706, -3.247005], [-45.75664, -3.247505], [-45.75604, -3.247868], [-45.75524, -3.247916], [-45.75476, -3.247767], [-45.75404, -3.246915], [-45.72651, -3.255011], [-45.72555, -3.254877], [-45.72495, -3.254533], [-45.71608, -3.247444], [-45.71537, -3.24717], [-45.71443, -3.247188], [-45.69734, -3.249523], [-45.66431, -3.253414], [-45.66552, -3.261372], [-45.66769, -3.266235], [-45.6675, -3.276658], [-45.66655, -3.281143], [-45.6727, -3.282494], [-45.68137, -3.282618], [-45.70426, -3.281341], [-45.70483, -3.281527], [-45.7052, -3.282257], [-45.70619, -3.28259], [-45.70744, -3.282644], [-45.71635, -3.285016], [-45.72028, -3.284188], [-45.72344, -3.2793], [-45.72448, -3.279454], [-45.72544, -3.277433], [-45.72893, -3.278357], [-45.73046, -3.278244], [-45.73624, -3.280813], [-45.73629, -3.280597], [-45.73659, -3.280606], [-45.73865, -3.280951], [-45.74678, -3.283124], [-45.7559, -3.283296], [-45.75603, -3.28527], [-45.75697, -3.286428], [-45.75808, -3.287072], [-45.75825, -3.287458], [-45.75817, -3.288423], [-45.76196, -3.289295], [-45.76492, -3.287951], [-45.76808, -3.288542], [-45.77112, -3.288428], [-45.77533, -3.288934], [-45.7818, -3.291246], [-45.7877, -3.290715], [-45.79089, -3.288561], [-45.79436, -3.288398], [-45.80822, -3.284888], [-45.8112, -3.283534], [-45.81318, -3.283385], [-45.81765, -3.281901], [-45.81705, -3.281107], [-45.81683, -3.280257], [-45.81719, -3.276909], [-45.81242, -3.266156], [-45.80819, -3.255784], [-45.80644, -3.236357], [-45.80587, -3.236461], [-45.80134, -3.23335], [-45.80117, -3.232816], [-45.78244, -3.238026]]]}}, 
{"type": "Feature", "properties": {"CD_SETOR": "211400705000081", "CD_SIT": "5", "NM_DIST": "Zé Doca", "NM_SUBDIST": null}, "geometry": {"type": "Polygon", "coordinates": [[[-45.53423, -3.289611], [-45.53372, -3.291967], [-45.53406, -3.292002], [-45.53701, -3.290754], [-45.54275, -3.29137], [-45.54297, -3.290509], [-45.53495, -3.288239], [-45.53449, -3.288414], [-45.53423, -3.289611]]]}}, 
{"type": "Feature", "properties": {"CD_SETOR": "211400705000082", "CD_SIT": "5", "NM_DIST": "Zé Doca", "NM_SUBDIST": null}, "geometry": {"type": "Polygon", "coordinates": [[[-45.53395, -3.343412], [-45.53526, -3.342276], [-45.53563, -3.34145], [-45.53368, -3.34303], [-45.53395, -3.343412]]]}}, 
{"type": "Feature", "properties": {"CD_SETOR": "211400705000083", "CD_SIT": "5", "NM_DIST": "Zé Doca", "NM_SUBDIST": null}, "geometry": {"type": "Polygon", "coordinates": [[[-46.23, -3.237791], [-46.22978, -3.241408], [-46.22967, -3.241822], [-46.2294, -3.242057], [-46.22816, -3.242083], [-46.22708, -3.241866], [-46.22309, -3.241543], [-46.22295, -3.243261], [-46.22629, -3.243553], [-46.23006, -3.24362], [-46.23154, -3.240996], [-46.23185, -3.239243], [-46.23004, -3.237021], [-46.23, -3.237791]]]}}, 
{"type": "Feature", "properties": {"CD_SETOR": "211400705000084", "CD_SIT": "1", "NM_DIST": "Zé Doca", "NM_SUBDIST": null}, "geometry": {"type": "Polygon", "coordinates": [[[-45.63953, -3.256084], [-45.6413, -3.257016], [-45.64474, -3.256895], [-45.64456, -3.252322], [-45.64422, -3.252654], [-45.6437, -3.25264], [-45.64333, -3.251736], [-45.64251, -3.25104], [-45.6407, -3.25092], [-45.63953, -3.256084]]]}}, 
{"type": "Feature", "properties": {"CD_SETOR": "211400705000085", "CD_SIT": "5", "NM_DIST": "Zé Doca", "NM_SUBDIST": null}, "geometry": {"type": "Polygon", "coordinates": [[[-45.89904, -3.310976], [-45.89921, -3.313461], [-45.89976, -3.315947], [-45.90357, -3.313527], [-45.9097, -3.311476], [-45.91094, -3.308714], [-45.90544, -3.310002], [-45.89904, -3.310976]]]}}, 
{"type": "Feature", "properties": {"CD_SETOR": "211400705000086", "CD_SIT": "5", "NM_DIST": "Zé Doca", "NM_SUBDIST": null}, "geometry": {"type": "Polygon", "coordinates": [[[-45.89515, -3.305416], [-45.89312, -3.306374], [-45.89453, -3.309476], [-45.88898, -3.311627], [-45.88964, -3.313246], [-45.89163, -3.312717], [-45.89231, -3.312047], [-45.89904, -3.310982], [-45.89868, -3.308202], [-45.89954, -3.307646], [-45.90126, -3.30701], [-45.90278, -3.305689], [-45.90302, -3.303986], [-45.89908, -3.304354], [-45.8979, -3.304723], [-45.89718, -3.305534], [-45.89515, -3.305416]]]}}, 
{"type": "Feature", "properties": {"CD_SETOR": "211400705000087", "CD_SIT": "5", "NM_DIST": "Zé Doca", "NM_SUBDIST": null}, "geometry": {"type": "Polygon", "coordinates": [[[-45.66744, -3.18638], [-45.66957, -3.18873], [-45.67634, -3.186489], [-45.67526, -3.183018], [-45.67564, -3.181577], [-45.67015, -3.182222], [-45.66599, -3.184825], [-45.66744, -3.18638]]]}}, 
{"type": "Feature", "properties": {"CD_SETOR": "211400705000088", "CD_SIT": "8", "NM_DIST": "Zé Doca", "NM_SUBDIST": null}, "geometry": {"type": "Polygon", "coordinates": [[[-45.60631, -3.158774], [-45.60352, -3.173949], [-45.60115, -3.181052], [-45.59973, -3.187141], [-45.59558, -3.195023], [-45.59072, -3.205229], [-45.58852, -3.209485], [-45.58874, -3.209665], [-45.58868, -3.210764], [-45.59001, -3.211617], [-45.59131, -3.212001], [-45.59056, -3.214202], [-45.59257, -3.214463], [-45.59374, -3.215127], [-45.59636, -3.216039], [-45.60048, -3.215696], [-45.60181, -3.214463], [-45.60291, -3.215095], [-45.60402, -3.215317], [-45.60933, -3.215317], [-45.61091, -3.216708], [-45.6149, -3.217973], [-45.61613, -3.217941], [-45.6272, -3.213135], [-45.63048, -3.210542], [-45.63174, -3.210365], [-45.64155, -3.216676], [-45.6439, -3.217609], [-45.64635, -3.218155], [-45.64654, -3.218055], [-45.64977, -3.207658], [-45.65038, -3.207644], [-45.64983, -3.201614], [-45.64943, -3.201678], [-45.64687, -3.192382], [-45.6469, -3.182684], [-45.64821, -3.182619], [-45.64613, -3.158621], [-45.64252, -3.158789], [-45.60631, -3.158774]]]}}, 
{"type": "Feature", "properties": {"CD_SETOR": "211400705000089", "CD_SIT": "8", "NM_DIST": "Zé Doca", "NM_SUBDIST": null}, "geometry": {"type": "Polygon", "coordinates": [[[-45.58019, -3.238917], [-45.57935, -3.242245], [-45.57036, -3.257191], [-45.56782, -3.262603], [-45.56777, -3.263022], [-45.56673, -3.264791], [-45.56508, -3.268354], [-45.56822, -3.269154], [-45.5709, -3.26931], [-45.5754, -3.271672], [-45.57765, -3.272278], [-45.58528, -3.271434], [-45.5875, -3.27095], [-45.59137, -3.269636], [-45.59403, -3.269351], [-45.59796, -3.268175], [-45.59938, -3.267985], [-45.60202, -3.268475], [-45.60683, -3.268218], [-45.60851, -3.267782], [-45.61058, -3.26762], [-45.61668, -3.267538], [-45.62501, -3.268862], [-45.62702, -3.268868], [-45.62785, -3.269116], [-45.6301, -3.269297], [-45.63217, -3.270183], [-45.63872, -3.269441], [-45.63957, -3.258039], [-45.63953, -3.256084], [-45.6407, -3.25092], [-45.64251, -3.25104], [-45.64333, -3.251736], [-45.6437, -3.25264], [-45.64422, -3.252654], [-45.64456, -3.252322], [-45.64458, -3.252709], [-45.64474, -3.252665], [-45.64509, -3.251819], [-45.64604, -3.250774], [-45.64742, -3.250866], [-45.64733, -3.242709], [-45.64974, -3.24416], [-45.65354, -3.24435], [-45.65188, -3.224703], [-45.65156, -3.224739], [-45.64525, -3.222229], [-45.64654, -3.218055], [-45.64635, -3.218155], [-45.6439, -3.217609], [-45.64155, -3.216676], [-45.63174, -3.210365], [-45.63048, -3.210542], [-45.6272, -3.213135], [-45.61613, -3.217941], [-45.6149, -3.217973], [-45.61091, -3.216708], [-45.60933, -3.215317], [-45.60402, -3.215317], [-45.60291, -3.215095], [-45.60181, -3.214463], [-45.60048, -3.215696], [-45.59636, -3.216039], [-45.59374, -3.215127], [-45.59257, -3.214463], [-45.59056, -3.214202], [-45.59131, -3.212001], [-45.59001, -3.211617], [-45.58868, -3.210764], [-45.58874, -3.209665], [-45.58852, -3.209485], [-45.58562, -3.21771], [-45.58231, -3.227858], [-45.58089, -3.236156], [-45.58019, -3.238917]]]}}, 
{"type": "Feature", "properties": {"CD_SETOR": "211400705000090", "CD_SIT": "8", "NM_DIST": "Zé Doca", "NM_SUBDIST": null}, "geometry": {"type": "Polygon", "coordinates": [[[-45.95126, -3.230382], [-45.95095, -3.230895], [-45.94996, -3.231419], [-45.9495, -3.232308], [-45.94916, -3.232588], [-45.94701, -3.233889], [-45.94676, -3.23463], [-45.94599, -3.235808], [-45.94532, -3.236363], [-45.94484, -3.236555], [-45.94323, -3.239023], [-45.9431, -3.239511], [-45.9414, -3.242372], [-45.94009, -3.244013], [-45.93941, -3.245167], [-45.93882, -3.24756], [-45.93825, -3.248451], [-45.93781, -3.248719], [-45.93729, -3.249393], [-45.93656, -3.249678], [-45.93469, -3.251762], [-45.93469, -3.253151], [-45.93451, -3.254265], [-45.93468, -3.255533], [-45.93447, -3.255895], [-45.9344, -3.256745], [-45.93302, -3.258399], [-45.93246, -3.259861], [-45.93198, -3.260507], [-45.92808, -3.263591], [-45.92701, -3.266342], [-45.9262, -3.267899], [-45.92533, -3.269075], [-45.92444, -3.27173], [-45.92452, -3.272491], [-45.9226, -3.273445], [-45.91977, -3.275609], [-45.91903, -3.278378], [-45.91706, -3.283501], [-45.91661, -3.286377], [-45.91606, -3.288511], [-45.91528, -3.290474], [-45.91341, -3.293318], [-45.91275, -3.293882], [-45.9119, -3.296264], [-45.91148, -3.296866], [-45.91094, -3.29714], [-45.90848, -3.299342], [-45.90729, -3.299225], [-45.90596, -3.299959], [-45.90568, -3.300388], [-45.90561, -3.300853], [-45.90505, -3.301487], [-45.90347, -3.301404], [-45.90311, -3.301657], [-45.90278, -3.305689], [-45.90408, -3.306651], [-45.90551, -3.30621], [-45.90719, -3.306308], [-45.90796, -3.305574], [-45.90906, -3.305739], [-45.91094, -3.308714], [-45.9097, -3.311476], [-45.90357, -3.313527], [-46.03098, -3.354325], [-46.06035, -3.363423], [-46.06065, -3.363106], [-46.06146, -3.363105], [-46.06478, -3.359291], [-46.06558, -3.35765], [-46.06608, -3.357448], [-46.06643, -3.356992], [-46.06711, -3.355618], [-46.06733, -3.351766], [-46.06717, -3.349817], [-46.06841, -3.35053], [-46.06921, -3.348876], [-46.07068, -3.350037], [-46.07381, -3.348059], [-46.07623, -3.344793], [-46.07793, -3.341682], [-46.07939, -3.339724], [-46.08012, -3.339094], [-46.08069, -3.337819], [-46.0814, -3.337236], [-46.08387, -3.33693], [-46.08493, -3.336169], [-46.08714, -3.335285], [-46.08854, -3.334006], [-46.09066, -3.332719], [-46.09101, -3.331802], [-46.09211, -3.330262], [-46.09293, -3.329554], [-46.09529, -3.326255], [-46.09538, -3.324915], [-46.09591, -3.323795], [-46.09604, -3.321999], [-46.09745, -3.320182], [-46.09737, -3.319646], [-46.09827, -3.316922], [-46.09702, -3.315468], [-46.09665, -3.314553], [-46.09616, -3.311949], [-46.09621, -3.309648], [-46.09548, -3.307531], [-46.09371, -3.305779], [-46.09328, -3.305031], [-46.09181, -3.303221], [-46.08964, -3.301466], [-46.08842, -3.29603], [-46.08839, -3.294901], [-46.0869, -3.292956], [-46.08713, -3.289366], [-46.08751, -3.286682], [-46.08515, -3.279784], [-46.08323, -3.276947], [-46.08209, -3.274608], [-46.0808, -3.271201], [-46.07822, -3.269476], [-46.07708, -3.26801], [-46.07663, -3.266901], [-46.07637, -3.265234], [-46.07583, -3.263298], [-46.07544, -3.262537], [-46.0735, -3.261172], [-46.07228, -3.25987], [-46.0706, -3.259007], [-46.06765, -3.257122], [-46.05861, -3.250731], [-46.05542, -3.249867], [-46.0606, -3.247618], [-46.06467, -3.247559], [-46.07063, -3.240937], [-46.07649, -3.235081], [-46.0795, -3.235514], [-46.08018, -3.235409], [-46.08126, -3.235504], [-46.08271, -3.235939], [-46.08516, -3.23697], [-46.08698, -3.237225], [-46.09132, -3.240547], [-46.09184, -3.239774], [-46.09916, -3.240417], [-46.09951, -3.241051], [-46.10154, -3.240196], [-46.10261, -3.23898], [-46.10319, -3.238571], [-46.10482, -3.237895], [-46.10553, -3.237672], [-46.10694, -3.238553], [-46.10828, -3.23418], [-46.10941, -3.229557], [-46.11033, -3.223694], [-46.05272, -3.228755], [-45.95126, -3.230382]], [[-45.99772, -3.272199], [-45.99839, -3.269793], [-46.00722, -3.256748], [-46.01229, -3.255356], [-46.0128, -3.255871], [-45.9983, -3.27285], [-45.99772, -3.272199]]]}}, 
{"type": "Feature", "properties": {"CD_SETOR": "211400705000091", "CD_SIT": "8", "NM_DIST": "Zé Doca", "NM_SUBDIST": null}, "geometry": {"type": "Polygon", "coordinates": [[[-45.85183, -3.232285], [-45.80787, -3.229897], [-45.80684, -3.236284], [-45.80644, -3.236357], [-45.80819, -3.255784], [-45.81242, -3.266156], [-45.81719, -3.276909], [-45.81747, -3.276717], [-45.82115, -3.279243], [-45.82113, -3.280101], [-45.84372, -3.277863], [-45.84533, -3.278707], [-45.85965, -3.275138], [-45.86008, -3.274874], [-45.86165, -3.274768], [-45.86222, -3.274393], [-45.86357, -3.274212], [-45.87193, -3.272333], [-45.87255, -3.272377], [-45.87331, -3.272818], [-45.87407, -3.272693], [-45.87793, -3.273974], [-45.87855, -3.275146], [-45.87869, -3.276021], [-45.879, -3.276744], [-45.88036, -3.278488], [-45.88026, -3.279196], [-45.8804, -3.279995], [-45.88004, -3.281699], [-45.88008, -3.282588], [-45.88048, -3.283579], [-45.88251, -3.285781], [-45.8832, -3.286885], [-45.8843, -3.287276], [-45.88597, -3.289707], [-45.89118, -3.291388], [-45.89317, -3.293108], [-45.89355, -3.300026], [-45.89434, -3.303552], [-45.89515, -3.305416], [-45.89718, -3.305534], [-45.8979, -3.304723], [-45.89908, -3.304354], [-45.90302, -3.303986], [-45.90311, -3.301657], [-45.90323, -3.301501], [-45.90505, -3.301487], [-45.90561, -3.300853], [-45.90568, -3.300388], [-45.90596, -3.299959], [-45.90729, -3.299225], [-45.90848, -3.299342], [-45.91094, -3.29714], [-45.91148, -3.296866], [-45.9119, -3.296264], [-45.91275, -3.293882], [-45.91341, -3.293318], [-45.91528, -3.290474], [-45.91606, -3.288511], [-45.91661, -3.286377], [-45.91706, -3.283501], [-45.91903, -3.278378], [-45.91977, -3.275609], [-45.9226, -3.273445], [-45.92452, -3.272491], [-45.92444, -3.27173], [-45.92533, -3.269075], [-45.9262, -3.267899], [-45.92701, -3.266342], [-45.92808, -3.263591], [-45.93198, -3.260507], [-45.93246, -3.259861], [-45.93302, -3.258399], [-45.9344, -3.256745], [-45.93447, -3.255895], [-45.93468, -3.255533], [-45.93451, -3.254265], [-45.93469, -3.253151], [-45.93469, -3.251762], [-45.93656, -3.249678], [-45.93729, -3.249393], [-45.93781, -3.248719], [-45.93825, -3.248451], [-45.93882, -3.24756], [-45.93941, -3.245167], [-45.94009, -3.244013], [-45.9414, -3.242372], [-45.9431, -3.239511], [-45.94323, -3.239023], [-45.94484, -3.236555], [-45.94532, -3.236363], [-45.94599, -3.235808], [-45.94676, -3.23463], [-45.94701, -3.233889], [-45.94916, -3.232588], [-45.9495, -3.232308], [-45.94996, -3.231419], [-45.95095, -3.230895], [-45.95126, -3.230382], [-45.94879, -3.230384], [-45.93533, -3.215117], [-45.93318, -3.217903], [-45.9314, -3.221126], [-45.9301, -3.228589], [-45.92667, -3.236351], [-45.85183, -3.232285]]]}}, 
{"type": "Feature", "properties": {"CD_SETOR": "211400705000092", "CD_SIT": "7", "NM_DIST": "Zé Doca", "NM_SUBDIST": null}, "geometry": {"type": "Polygon", "coordinates": [[[-46.0601, -3.118676], [-46.06597, -3.124631], [-46.07718, -3.123995], [-46.07663, -3.120526], [-46.07519, -3.119023], [-46.07571, -3.115178], [-46.07528, -3.11194], [-46.06851, -3.113356], [-46.0616, -3.116247], [-46.0601, -3.118676]]]}}, 
{"type": "Feature", "properties": {"CD_SETOR": "211400705000093", "CD_SIT": "8", "NM_DIST": "Zé Doca", "NM_SUBDIST": null}, "geometry": {"type": "Polygon", "coordinates": [[[-45.9024, -3.02756], [-45.90335, -3.028555], [-45.90477, -3.03297], [-45.90715, -3.035594], [-45.90976, -3.036785], [-45.91071, -3.037561], [-45.91143, -3.039947], [-45.91131, -3.041738], [-45.91155, -3.045079], [-45.91132, -3.053376], [-45.91357, -3.055642], [-45.91547, -3.057073], [-45.9169, -3.060773], [-45.92035, -3.071691], [-45.92189, -3.073063], [-45.92285, -3.074256], [-45.92404, -3.078313], [-45.92582, -3.085593], [-45.92737, -3.088576], [-45.92784, -3.090067], [-45.92974, -3.091737], [-45.93081, -3.094959], [-45.93094, -3.098182], [-45.92738, -3.101527], [-45.92346, -3.104456], [-45.92157, -3.107558], [-45.91921, -3.124809], [-45.92064, -3.130538], [-45.92646, -3.141636], [-45.93086, -3.146584], [-45.93431, -3.15231], [-45.93597, -3.1578], [-45.93764, -3.161081], [-45.94346, -3.165612], [-45.94845, -3.169783], [-45.95082, -3.174855], [-45.95107, -3.181302], [-45.9506, -3.18703], [-45.94823, -3.192225], [-45.94503, -3.196407], [-45.94183, -3.202617], [-45.93662, -3.211393], [-45.93591, -3.214378], [-45.93533, -3.215117], [-45.94879, -3.230384], [-46.05272, -3.228755], [-46.11033, -3.223694], [-46.11088, -3.223307], [-46.11135, -3.221526], [-46.11172, -3.221396], [-46.11205, -3.22092], [-46.11276, -3.220423], [-46.11389, -3.219882], [-46.11483, -3.218256], [-46.11438, -3.216508], [-46.11454, -3.216053], [-46.11411, -3.215212], [-46.1143, -3.214527], [-46.11462, -3.214587], [-46.11506, -3.214284], [-46.11584, -3.214296], [-46.11714, -3.213476], [-46.11686, -3.212927], [-46.11712, -3.206941], [-46.12384, -3.203693], [-46.12498, -3.201907], [-46.12583, -3.201332], [-46.12713, -3.199225], [-46.12722, -3.198332], [-46.12475, -3.196963], [-46.12326, -3.195584], [-46.11832, -3.188094], [-46.11638, -3.185736], [-46.11584, -3.182994], [-46.11587, -3.180656], [-46.11625, -3.178742], [-46.11751, -3.174882], [-46.1176, -3.173638], [-46.11738, -3.171661], [-46.11681, -3.170258], [-46.11456, -3.166322], [-46.11313, -3.164154], [-46.11189, -3.161476], [-46.11161, -3.160489], [-46.11085, -3.159373], [-46.10728, -3.155317], [-46.10492, -3.150065], [-46.1046, -3.1501], [-46.09896, -3.148018], [-46.09617, -3.145785], [-46.09285, -3.142327], [-46.091, -3.138632], [-46.09319, -3.128337], [-46.09455, -3.125294], [-46.09413, -3.123713], [-46.09289, -3.123178], [-46.08992, -3.123777], [-46.08814, -3.123362], [-46.08488, -3.120322], [-46.08126, -3.118], [-46.07924, -3.115347], [-46.07828, -3.110574], [-46.07691, -3.106221], [-46.07537, -3.104284], [-46.07347, -3.104584], [-46.07092, -3.105959], [-46.06962, -3.10596], [-46.06926, -3.107033], [-46.06843, -3.107541], [-46.06594, -3.107723], [-46.06422, -3.110828], [-46.06268, -3.110949], [-46.06132, -3.110711], [-46.05799, -3.108477], [-46.05538, -3.105975], [-46.05549, -3.100367], [-46.05668, -3.096726], [-46.05573, -3.094072], [-46.05311, -3.09139], [-46.0486, -3.090022], [-46.04552, -3.088653], [-46.04457, -3.088386], [-46.04237, -3.087313], [-46.03745, -3.082494], [-46.03549, -3.08204], [-46.03371, -3.082758], [-46.03199, -3.083237], [-46.03128, -3.082521], [-46.03068, -3.080793], [-46.03056, -3.07769], [-46.02997, -3.07605], [-46.02789, -3.07462], [-46.02587, -3.074501], [-46.02338, -3.07552], [-46.02321, -3.077727], [-46.02356, -3.079905], [-46.02309, -3.081338], [-46.02232, -3.081814], [-46.01882, -3.081341], [-46.01627, -3.080568], [-46.01538, -3.078748], [-46.01448, -3.075708], [-46.00683, -3.069152], [-46.00511, -3.067393], [-46.00427, -3.063457], [-46.00374, -3.062681], [-46.00172, -3.061731], [-46.0003, -3.062267], [-45.99935, -3.06367], [-45.99947, -3.068324], [-45.99722, -3.069816], [-45.99591, -3.069281], [-45.99467, -3.067941], [-45.99265, -3.068477], [-45.99123, -3.069314], [-45.98981, -3.071584], [-45.98934, -3.073673], [-45.98898, -3.073944], [-45.98749, -3.071676], [-45.98589, -3.069709], [-45.98387, -3.069531], [-45.98239, -3.070726], [-45.98228, -3.07532], [-45.98204, -3.077855], [-45.98115, -3.078571], [-45.97997, -3.078036], [-45.97777, -3.07589], [-45.97617, -3.071], [-45.97249, -3.067962], [-45.97023, -3.067277], [-45.96827, -3.067756], [-45.96537, -3.06901], [-45.96323, -3.070504], [-45.96282, -3.070983], [-45.9608, -3.069463], [-45.96021, -3.068032], [-45.9602, -3.064631], [-45.95967, -3.063498], [-45.95878, -3.063559], [-45.95813, -3.064126], [-45.95801, -3.068421], [-45.95742, -3.068959], [-45.95611, -3.067707], [-45.95475, -3.064726], [-45.95255, -3.063653], [-45.94982, -3.06452], [-45.94751, -3.06661], [-45.94591, -3.06709], [-45.94526, -3.066613], [-45.94437, -3.064586], [-45.94437, -3.062884], [-45.94679, -3.058528], [-45.94573, -3.056977], [-45.94483, -3.056261], [-45.94483, -3.055695], [-45.94531, -3.055039], [-45.94395, -3.052128], [-45.94352, -3.048715], [-45.94334, -3.045734], [-45.94269, -3.045585], [-45.94109, -3.046421], [-45.94008, -3.047437], [-45.93836, -3.050003], [-45.93682, -3.051675], [-45.93564, -3.051558], [-45.93415, -3.050931], [-45.93338, -3.050992], [-45.93178, -3.052485], [-45.93054, -3.052605], [-45.92988, -3.051472], [-45.93006, -3.049325], [-45.93118, -3.04819], [-45.93172, -3.046491], [-45.93154, -3.043686], [-45.93094, -3.042552], [-45.92667, -3.040706], [-45.92447, -3.039396], [-45.92329, -3.03728], [-45.92358, -3.035189], [-45.92483, -3.033697], [-45.92933, -3.032741], [-45.9323, -3.03041], [-45.9323, -3.028352], [-45.92915, -3.025848], [-45.92749, -3.021793], [-45.92654, -3.021018], [-45.92505, -3.021049], [-45.92399, -3.022781], [-45.92316, -3.024631], [-45.92061, -3.027796], [-45.91877, -3.028691], [-45.91664, -3.028366], [-45.91486, -3.026279], [-45.91361, -3.023357], [-45.91307, -3.023295], [-45.9113, -3.023836], [-45.90999, -3.024703], [-45.90786, -3.026672], [-45.90489, -3.027989], [-45.9024, -3.02756]], [[-46.0601, -3.118676], [-46.0616, -3.116247], [-46.06851, -3.113356], [-46.07528, -3.11194], [-46.07571, -3.115178], [-46.07519, -3.119023], [-46.07663, -3.120526], [-46.07718, -3.123995], [-46.06597, -3.124631], [-46.0601, -3.118676]]]}}, 
{"type": "Feature", "properties": {"CD_SETOR": "211400705000094", "CD_SIT": "2", "NM_DIST": "Zé Doca", "NM_SUBDIST": null}, "geometry": {"type": "Polygon", "coordinates": [[[-45.6517, -3.28583], [-45.64469, -3.286822], [-45.6366, -3.288278], [-45.6388, -3.289014], [-45.65837, -3.30018], [-45.65738, -3.289176], [-45.65451, -3.28939], [-45.65391, -3.287334], [-45.65686, -3.287025], [-45.65722, -3.287338], [-45.657, -3.285], [-45.6517, -3.28583]]]}}, 
{"type": "Feature", "properties": {"CD_SETOR": "211400705000095", "CD_SIT": "1", "NM_DIST": "Zé Doca", "NM_SUBDIST": null}, "geometry": {"type": "Polygon", "coordinates": [[[-45.65738, -3.289176], [-45.65722, -3.287338], [-45.65699, -3.287086], [-45.65391, -3.287334], [-45.65451, -3.28939], [-45.65738, -3.289176]]]}}, 
{"type": "Feature", "properties": {"CD_SETOR": "211400705000096", "CD_SIT": "1", "NM_DIST": "Zé Doca", "NM_SUBDIST": null}, "geometry": {"type": "Polygon", "coordinates": [[[-45.63796, -3.278883], [-45.63761, -3.283442], [-45.64435, -3.283323], [-45.65072, -3.282215], [-45.64985, -3.276862], [-45.64906, -3.276981], [-45.64908, -3.274901], [-45.64975, -3.274908], [-45.65004, -3.271597], [-45.649, -3.271422], [-45.6468, -3.270519], [-45.64673, -3.271854], [-45.64595, -3.272079], [-45.64598, -3.273198], [-45.64619, -3.27356], [-45.64381, -3.276883], [-45.64394, -3.278224], [-45.64229, -3.278071], [-45.63796, -3.278883]], [[-45.64399, -3.279627], [-45.64395, -3.277695], [-45.64589, -3.277405], [-45.64572, -3.279458], [-45.64401, -3.279773], [-45.64399, -3.279627]]]}}, 
{"type": "Feature", "properties": {"CD_SETOR": "211400705000097", "CD_SIT": "1", "NM_DIST": "Zé Doca", "NM_SUBDIST": null}, "geometry": {"type": "Polygon", "coordinates": [[[-45.64399, -3.279627], [-45.64401, -3.279773], [-45.64572, -3.279458], [-45.64589, -3.277405], [-45.64395, -3.277695], [-45.64399, -3.279627]]]}}, 
{"type": "Feature", "properties": {"CD_SETOR": "211400705000098", "CD_SIT": "1", "NM_DIST": "Zé Doca", "NM_SUBDIST": null}, "geometry": {"type": "Polygon", "coordinates": [[[-45.65485, -3.281649], [-45.64877, -3.282546], [-45.64913, -3.28468], [-45.6501, -3.284517], [-45.65021, -3.285223], [-45.65191, -3.284946], [-45.6517, -3.28583], [-45.657, -3.285], [-45.6567, -3.281405], [-45.65485, -3.281649]]]}}, 
{"type": "Feature", "properties": {"CD_SETOR": "211400705000099", "CD_SIT": "1", "NM_DIST": "Zé Doca", "NM_SUBDIST": null}, "geometry": {"type": "Polygon", "coordinates": [[[-45.63761, -3.283442], [-45.63668, -3.283624], [-45.6366, -3.288278], [-45.64469, -3.286822], [-45.64435, -3.284729], [-45.64608, -3.284443], [-45.64622, -3.285164], [-45.64913, -3.28468], [-45.64877, -3.282546], [-45.64435, -3.283323], [-45.63761, -3.283442]]]}}]}