{"type": "FeatureCollection", "features": [
{"type": "Feature", "properties": {"CD_SETOR": "220980705000001", "CD_SIT": "1", "NM_DIST": "São Gonçalo do Piauí", "NM_SUBDIST": null}, "geometry": {"type": "Polygon", "coordinates": [[[-42.69119, -5.988334], [-42.69283, -5.988188], [-42.69414, -5.988274], [-42.69431, -5.989154], [-42.69374, -5.991203], [-42.6935, -5.993038], [-42.69265, -5.99474], [-42.69244, -5.995466], [-42.69242, -5.999141], [-42.69347, -5.999168], [-42.69941, -5.998085], [-42.69895, -5.996767], [-42.70567, -5.994529], [-42.70827, -5.992333], [-42.70765, -5.991181], [-42.70712, -5.989624], [-42.70512, -5.98765], [-42.70432, -5.987148], [-42.70338, -5.987063], [-42.70178, -5.986092], [-42.69998, -5.98591], [-42.69907, -5.98608], [-42.69552, -5.986098], [-42.69284, -5.986396], [-42.6921, -5.986326], [-42.69119, -5.988334]]]}}, 
{"type": "Feature", "properties": {"CD_SETOR": "220980705000002", "CD_SIT": "1", "NM_DIST": "São Gonçalo do Piauí", "NM_SUBDIST": null}, "geometry": {"type": "Polygon", "coordinates": [[[-42.70244, -5.995652], [-42.70365, -5.999052], [-42.70445, -5.998763], [-42.70474, -5.999706], [-42.70612, -5.998891], [-42.70574, -5.998467], [-42.70741, -5.996644], [-42.7099, -5.993299], [-42.70827, -5.992333], [-42.70567, -5.994529], [-42.70244, -5.995652]]]}}, 
{"type": "Feature", "properties": {"CD_SETOR": "220980705000003", "CD_SIT": "1", "NM_DIST": "São Gonçalo do Piauí", "NM_SUBDIST": null}, "geometry": {"type": "Polygon", "coordinates": [[[-42.70365, -5.999052], [-42.70541, -6.004017], [-42.70615, -6.003702], [-42.70776, -6.008528], [-42.7124, -6.003794], [-42.7102, -6.002812], [-42.71064, -6.00135], [-42.71095, -5.998346], [-42.712, -5.997434], [-42.71317, -5.996079], [-42.71102, -5.994265], [-42.71038, -5.99354], [-42.7099, -5.993299], [-42.70741, -5.996644], [-42.70574, -5.998467], [-42.70612, -5.998891], [-42.70474, -5.999706], [-42.70445, -5.998763], [-42.70365, -5.999052]]]}}, 
{"type": "Feature", "properties": {"CD_SETOR": "220980705000006", "CD_SIT": "8", "NM_DIST": "São Gonçalo do Piauí", "NM_SUBDIST": null}, "geometry": {"type": "Polygon", "coordinates": [[[-42.67401, -5.984363], [-42.67369, -5.986033], [-42.67309, -5.986657], [-42.67138, -5.987148], [-42.66691, -5.987654], [-42.64063, -5.986451], [-42.63518, -5.98964], [-42.63611, -5.992446], [-42.63424, -5.994252], [-42.63159, -5.996273], [-42.62441, -6.00055], [-42.61583, -5.99166], [-42.61504, -5.986063], [-42.60951, -5.984979], [-42.60856, -5.984988], [-42.58624, -5.988313], [-42.59049, -6.015565], [-42.62985, -6.040096], [-42.64044, -6.089859], [-42.64238, -6.087584], [-42.643, -6.086513], [-42.64424, -6.085434], [-42.64506, -6.084927], [-42.64628, -6.08305], [-42.64921, -6.082233], [-42.65022, -6.081593], [-42.65324, -6.081199], [-42.65448, -6.080727], [-42.65541, -6.079996], [-42.65592, -6.079369], [-42.65775, -6.076531], [-42.66083, -6.074523], [-42.66295, -6.074122], [-42.66504, -6.074149], [-42.66736, -6.073007], [-42.66869, -6.071979], [-42.66952, -6.071547], [-42.67048, -6.071231], [-42.67255, -6.071038], [-42.67336, -6.07115], [-42.67449, -6.071682], [-42.67634, -6.073117], [-42.67788, -6.073778], [-42.68107, -6.073926], [-42.68224, -6.03173], [-42.68311, -6.031999], [-42.68358, -6.031858], [-42.68371, -6.03167], [-42.68439, -6.029743], [-42.68494, -6.027432], [-42.68654, -6.025422], [-42.68858, -6.021878], [-42.69004, -6.021324], [-42.72471, -6.020773], [-42.73701, -6.035735], [-42.73944, -6.024649], [-42.7395, -6.023455], [-42.73924, -6.02203], [-42.73649, -6.011826], [-42.7229, -6.010744], [-42.72145, -6.002729], [-42.72108, -6.002247], [-42.72012, -6.002151], [-42.71905, -6.00124], [-42.71804, -6.000646], [-42.71807, -5.999655], [-42.71724, -5.998942], [-42.71711, -5.998336], [-42.71665, -5.997829], [-42.71555, -5.997154], [-42.71421, -5.996685], [-42.71317, -5.996079], [-42.712, -5.997434], [-42.71095, -5.998346], [-42.71064, -6.00135], [-42.7102, -6.002812], [-42.7124, -6.003794], [-42.70776, -6.008528], [-42.70762, -6.008119], [-42.70605, -6.008494], [-42.70515, -6.005858], [-42.7024, -6.006514], [-42.70113, -6.005447], [-42.70174, -6.004791], [-42.70113, -6.004791], [-42.70058, -6.003027], [-42.69928, -6.002993], [-42.69875, -6.002727], [-42.69916, -6.000539], [-42.6979, -5.999231], [-42.69739, -5.998437], [-42.69347, -5.999168], [-42.69242, -5.999141], [-42.69244, -5.995466], [-42.69265, -5.99474], [-42.6935, -5.993038], [-42.69374, -5.991203], [-42.69431, -5.989458], [-42.69414, -5.988274], [-42.69283, -5.988188], [-42.69119, -5.988334], [-42.6888, -5.986764], [-42.68864, -5.986097], [-42.68801, -5.985259], [-42.68673, -5.984748], [-42.68515, -5.984881], [-42.68106, -5.984075], [-42.67891, -5.983862], [-42.67775, -5.984107], [-42.67671, -5.984859], [-42.67581, -5.984827], [-42.67401, -5.984363]]]}}, 
{"type": "Feature", "properties": {"CD_SETOR": "220980705000007", "CD_SIT": "1", "NM_DIST": "São Gonçalo do Piauí", "NM_SUBDIST": null}, "geometry": {"type": "Polygon", "coordinates": [[[-42.69739, -5.998437], [-42.6979, -5.999231], [-42.69916, -6.000539], [-42.70365, -5.999052], [-42.70244, -5.995652], [-42.69895, -5.996767], [-42.69941, -5.998085], [-42.69739, -5.998437]]]}}, 
{"type": "Feature", "properties": {"CD_SETOR": "220980705000008", "CD_SIT": "1", "NM_DIST": "São Gonçalo do Piauí", "NM_SUBDIST": null}, "geometry": {"type": "Polygon", "coordinates": [[[-42.69916, -6.000539], [-42.69875, -6.002727], [-42.69928, -6.002993], [-42.70058, -6.003027], [-42.70113, -6.004791], [-42.70174, -6.004791], [-42.70113, -6.005447], [-42.70252, -6.006557], [-42.70515, -6.005858], [-42.70605, -6.008494], [-42.70762, -6.008119], [-42.70615, -6.003702], [-42.70541, -6.004017], [-42.70365, -5.999052], [-42.69916, -6.000539]]]}}, 
{"type": "Feature", "properties": {"CD_SETOR": "220980705000009", "CD_SIT": "5", "NM_DIST": "São Gonçalo do Piauí", "NM_SUBDIST": null}, "geometry": {"type": "Polygon", "coordinates": [[[-42.6366, -5.966164], [-42.63829, -5.972193], [-42.64015, -5.971873], [-42.64022, -5.97087], [-42.63996, -5.968619], [-42.63809, -5.962469], [-42.63377, -5.964249], [-42.6344, -5.965188], [-42.6366, -5.966164]]]}}, 
{"type": "Feature", "properties": {"CD_SETOR": "220980705000010", "CD_SIT": "8", "NM_DIST": "São Gonçalo do Piauí", "NM_SUBDIST": null}, "geometry": {"type": "Polygon", "coordinates": [[[-42.63667, -5.95415], [-42.63904, -5.954373], [-42.64045, -5.957148], [-42.64307, -5.960413], [-42.64474, -5.963176], [-42.64628, -5.966026], [-42.64568, -5.966457], [-42.64712, -5.968274], [-42.65032, -5.970048], [-42.65292, -5.970375], [-42.65437, -5.970892], [-42.65569, -5.971691], [-42.65767, -5.972353], [-42.65955, -5.972698], [-42.66053, -5.973313], [-42.66142, -5.974212], [-42.66196, -5.975689], [-42.66322, -5.977896], [-42.66606, -5.98225], [-42.67635, -5.984896], [-42.67704, -5.984689], [-42.67775, -5.984107], [-42.67891, -5.983862], [-42.68106, -5.984075], [-42.68515, -5.984881], [-42.68673, -5.984748], [-42.68801, -5.985259], [-42.68864, -5.986097], [-42.6888, -5.986764], [-42.69119, -5.988334], [-42.6921, -5.986326], [-42.69284, -5.986396], [-42.69552, -5.986098], [-42.69907, -5.98608], [-42.69998, -5.98591], [-42.70178, -5.986092], [-42.70338, -5.987063], [-42.70432, -5.987148], [-42.70512, -5.98765], [-42.70712, -5.989624], [-42.70765, -5.991181], [-42.70827, -5.992333], [-42.71038, -5.99354], [-42.71102, -5.994265], [-42.71335, -5.996224], [-42.71555, -5.997154], [-42.71665, -5.997829], [-42.71711, -5.998336], [-42.71724, -5.998942], [-42.71807, -5.999655], [-42.71804, -6.000646], [-42.71905, -6.00124], [-42.72012, -6.002151], [-42.72108, -6.002247], [-42.72145, -6.002729], [-42.71487, -5.966275], [-42.66225, -5.952378], [-42.63626, -5.95091], [-42.63667, -5.95415]]]}}, 
{"type": "Feature", "properties": {"CD_SETOR": "220980705000011", "CD_SIT": "5", "NM_DIST": "São Gonçalo do Piauí", "NM_SUBDIST": null}, "geometry": {"type": "Polygon", "coordinates": [[[-42.64568, -5.966457], [-42.64628, -5.966026], [-42.64474, -5.963176], [-42.64307, -5.960413], [-42.64045, -5.957148], [-42.63904, -5.954373], [-42.63667, -5.95415], [-42.63679, -5.955494], [-42.63767, -5.956249], [-42.63891, -5.956899], [-42.63929, -5.957269], [-42.64204, -5.960816], [-42.64367, -5.962609], [-42.64445, -5.964829], [-42.64568, -5.966457]]]}}, 
{"type": "Feature", "properties": {"CD_SETOR": "220980705000012", "CD_SIT": "8", "NM_DIST": "São Gonçalo do Piauí", "NM_SUBDIST": null}, "geometry": {"type": "Polygon", "coordinates": [[[-42.58624, -5.988313], [-42.60856, -5.984988], [-42.60951, -5.984979], [-42.61504, -5.986063], [-42.61583, -5.99166], [-42.62441, -6.00055], [-42.63159, -5.996273], [-42.63424, -5.994252], [-42.63611, -5.992446], [-42.63518, -5.98964], [-42.64063, -5.986451], [-42.66691, -5.987654], [-42.67138, -5.987148], [-42.67309, -5.986657], [-42.67369, -5.986033], [-42.67401, -5.984363], [-42.66606, -5.98225], [-42.66322, -5.977896], [-42.66196, -5.975689], [-42.66122, -5.973891], [-42.65975, -5.972779], [-42.65767, -5.972353], [-42.65569, -5.971691], [-42.65437, -5.970892], [-42.65292, -5.970375], [-42.65032, -5.970048], [-42.64712, -5.968274], [-42.64568, -5.966457], [-42.6451, -5.966879], [-42.64283, -5.963444], [-42.64129, -5.961559], [-42.64058, -5.959945], [-42.6392, -5.958087], [-42.63634, -5.958444], [-42.63485, -5.955419], [-42.63386, -5.953898], [-42.63667, -5.95415], [-42.63626, -5.95091], [-42.5799, -5.947723], [-42.58624, -5.988313]], [[-42.6366, -5.966164], [-42.6344, -5.965188], [-42.63377, -5.964249], [-42.63809, -5.962469], [-42.63996, -5.968619], [-42.64022, -5.97087], [-42.64015, -5.971873], [-42.63829, -5.972193], [-42.6366, -5.966164]]]}}, 
{"type": "Feature", "properties": {"CD_SETOR": "220980705000013", "CD_SIT": "5", "NM_DIST": "São Gonçalo do Piauí", "NM_SUBDIST": null}, "geometry": {"type": "Polygon", "coordinates": [[[-42.64568, -5.966457], [-42.64445, -5.964829], [-42.64367, -5.962609], [-42.64204, -5.960816], [-42.63929, -5.957269], [-42.63891, -5.956899], [-42.63767, -5.956249], [-42.63679, -5.955494], [-42.63667, -5.95415], [-42.63386, -5.953898], [-42.63485, -5.955419], [-42.63634, -5.958444], [-42.6392, -5.958087], [-42.64058, -5.959945], [-42.64129, -5.961559], [-42.64283, -5.963444], [-42.6451, -5.966879], [-42.64568, -5.966457]]]}}]}