{"type": "FeatureCollection", "features": [
{"type": "Feature", "properties": {"CD_SETOR": "221170405000001", "CD_SIT": "1", "NM_DIST": "Wall Ferraz", "NM_SUBDIST": null}, "geometry": {"type": "Polygon", "coordinates": [[[-41.91029, -7.240474], [-41.90993, -7.236415], [-41.91043, -7.236357], [-41.91057, -7.234364], [-41.91006, -7.232663], [-41.91041, -7.232576], [-41.91034, -7.232313], [-41.9097, -7.231687], [-41.90696, -7.232294], [-41.90728, -7.236022], [-41.9046, -7.237284], [-41.90539, -7.238704], [-41.9074, -7.238228], [-41.9085, -7.239958], [-41.90974, -7.2405], [-41.91029, -7.240474]]]}}, 
{"type": "Feature", "properties": {"CD_SETOR": "221170405000002", "CD_SIT": "8", "NM_DIST": "Wall Ferraz", "NM_SUBDIST": null}, "geometry": {"type": "Polygon", "coordinates": [[[-41.9132, -7.185971], [-41.91288, -7.187933], [-41.91324, -7.188616], [-41.91417, -7.189626], [-41.9143, -7.190891], [-41.91465, -7.191503], [-41.91499, -7.191642], [-41.91546, -7.191426], [-41.91595, -7.191419], [-41.91714, -7.193525], [-41.91754, -7.193797], [-41.91859, -7.19362], [-41.91933, -7.193199], [-41.92018, -7.194049], [-41.92065, -7.196447], [-41.92133, -7.197809], [-41.92162, -7.200545], [-41.92154, -7.201345], [-41.92064, -7.202109], [-41.92059, -7.202476], [-41.9207, -7.204009], [-41.92143, -7.205596], [-41.92102, -7.206736], [-41.92105, -7.207212], [-41.92292, -7.20871], [-41.92378, -7.208952], [-41.92536, -7.209966], [-41.92571, -7.210848], [-41.92634, -7.211334], [-41.92693, -7.21132], [-41.92747, -7.211648], [-41.92782, -7.212062], [-41.9285, -7.213672], [-41.92912, -7.214086], [-41.9294, -7.214877], [-41.92901, -7.216135], [-41.92833, -7.217164], [-41.92756, -7.217499], [-41.92598, -7.217836], [-41.92447, -7.218658], [-41.92417, -7.218672], [-41.92382, -7.218298], [-41.92375, -7.217193], [-41.92352, -7.216993], [-41.92149, -7.217728], [-41.91974, -7.217558], [-41.91854, -7.217913], [-41.91722, -7.219305], [-41.91656, -7.221516], [-41.91661, -7.222002], [-41.91727, -7.222636], [-41.91728, -7.223142], [-41.91629, -7.22415], [-41.91555, -7.224276], [-41.91522, -7.224534], [-41.91522, -7.224839], [-41.91584, -7.225149], [-41.91582, -7.225625], [-41.91533, -7.225521], [-41.91414, -7.226109], [-41.91329, -7.227467], [-41.9134, -7.228448], [-41.91423, -7.229456], [-41.91446, -7.230859], [-41.91432, -7.23099], [-41.91423, -7.232148], [-41.91472, -7.232682], [-41.91425, -7.233137], [-41.91433, -7.233843], [-41.91336, -7.23537], [-41.91493, -7.237632], [-41.91525, -7.239689], [-41.91517, -7.240281], [-41.91463, -7.241478], [-41.91519, -7.241872], [-41.9153, -7.243225], [-41.91431, -7.243399], [-41.91405, -7.243997], [-41.91412, -7.244156], [-41.91487, -7.24444], [-41.91514, -7.244829], [-41.91508, -7.246046], [-41.91546, -7.246989], [-41.9158, -7.247379], [-41.91583, -7.247705], [-41.91544, -7.248399], [-41.91436, -7.249554], [-41.91404, -7.250601], [-41.91273, -7.252035], [-41.91263, -7.252274], [-41.91305, -7.252641], [-41.91306, -7.252908], [-41.91231, -7.25402], [-41.91185, -7.254394], [-41.91183, -7.254726], [-41.91214, -7.254961], [-41.91229, -7.255436], [-41.91253, -7.255554], [-41.91261, -7.255934], [-41.91248, -7.256499], [-41.91217, -7.256641], [-41.91134, -7.258406], [-41.91143, -7.259846], [-41.91126, -7.260385], [-41.91147, -7.260689], [-41.9123, -7.26086], [-41.91251, -7.261856], [-41.91288, -7.262582], [-41.91271, -7.263531], [-41.91313, -7.264048], [-41.91304, -7.264452], [-41.9132, -7.264722], [-41.9139, -7.265112], [-41.91404, -7.265474], [-41.91459, -7.265902], [-41.91394, -7.267632], [-41.91401, -7.268066], [-41.91438, -7.268468], [-41.91418, -7.269162], [-41.9145, -7.269939], [-41.91414, -7.271061], [-41.91397, -7.271274], [-41.91321, -7.271425], [-41.91287, -7.271893], [-41.91251, -7.272005], [-41.91141, -7.271651], [-41.90984, -7.271413], [-41.90885, -7.272525], [-41.90862, -7.272613], [-41.90795, -7.272025], [-41.90775, -7.272057], [-41.90753, -7.272249], [-41.90741, -7.272987], [-41.90713, -7.273322], [-41.90634, -7.273289], [-41.90582, -7.273501], [-41.90575, -7.274044], [-41.90635, -7.276662], [-41.90507, -7.277659], [-41.90475, -7.277363], [-41.90527, -7.276585], [-41.90522, -7.276344], [-41.90443, -7.276448], [-41.90395, -7.276328], [-41.90368, -7.275935], [-41.90313, -7.276021], [-41.90254, -7.275796], [-41.90207, -7.276133], [-41.90205, -7.276472], [-41.90178, -7.276599], [-41.90147, -7.276268], [-41.90108, -7.276487], [-41.90085, -7.276445], [-41.90069, -7.276134], [-41.89978, -7.275686], [-41.89955, -7.275757], [-41.89926, -7.275606], [-41.89888, -7.275832], [-41.89826, -7.275238], [-41.89807, -7.27543], [-41.89793, -7.27537], [-41.8979, -7.274929], [-41.89763, -7.274697], [-41.89743, -7.274762], [-41.89707, -7.27451], [-41.89694, -7.27486], [-41.89657, -7.2747], [-41.89668, -7.274376], [-41.89651, -7.273598], [-41.89584, -7.273373], [-41.89542, -7.273025], [-41.89503, -7.273032], [-41.89465, -7.272638], [-41.89408, -7.272865], [-41.89403, -7.273061], [-41.8937, -7.27293], [-41.89309, -7.273208], [-41.89217, -7.273355], [-41.89173, -7.273273], [-41.89105, -7.273467], [-41.89067, -7.273945], [-41.89024, -7.273856], [-41.88968, -7.274311], [-41.88946, -7.274263], [-41.88903, -7.275037], [-41.88885, -7.274964], [-41.88883, -7.27444], [-41.88842, -7.274245], [-41.88758, -7.274689], [-41.88716, -7.274658], [-41.88678, -7.274934], [-41.88634, -7.274828], [-41.88608, -7.275184], [-41.88612, -7.276085], [-41.8857, -7.276218], [-41.88613, -7.276816], [-41.8854, -7.276953], [-41.88545, -7.277568], [-41.88508, -7.277992], [-41.88508, -7.278837], [-41.88411, -7.279598], [-41.88361, -7.280282], [-41.88338, -7.281126], [-41.88234, -7.281533], [-41.88215, -7.28146], [-41.88205, -7.281157], [-41.88165, -7.281207], [-41.88088, -7.281633], [-41.88056, -7.281561], [-41.88042, -7.281182], [-41.87992, -7.281197], [-41.87951, -7.281827], [-41.87839, -7.282534], [-41.87793, -7.282506], [-41.87745, -7.282787], [-41.8764, -7.284008], [-41.87601, -7.284061], [-41.87558, -7.28384], [-41.87525, -7.284419], [-41.87533, -7.284782], [-41.87596, -7.284954], [-41.87597, -7.285315], [-41.87632, -7.285699], [-41.87635, -7.286269], [-41.87723, -7.286637], [-41.87736, -7.28704], [-41.87845, -7.287457], [-41.88064, -7.288788], [-41.88323, -7.29154], [-41.88568, -7.295324], [-41.90112, -7.299652], [-41.95271, -7.323147], [-41.99202, -7.265939], [-42.00557, -7.248767], [-41.94622, -7.221892], [-41.9199, -7.185368], [-41.91969, -7.184719], [-41.9132, -7.185971]]]}}, 
{"type": "Feature", "properties": {"CD_SETOR": "221170405000003", "CD_SIT": "8", "NM_DIST": "Wall Ferraz", "NM_SUBDIST": null}, "geometry": {"type": "Polygon", "coordinates": [[[-41.78752, -7.246852], [-41.79168, -7.247594], [-41.79318, -7.247474], [-41.79428, -7.246892], [-41.79547, -7.245365], [-41.79666, -7.244835], [-41.79749, -7.243959], [-41.79836, -7.24349], [-41.80147, -7.243108], [-41.80225, -7.243427], [-41.80295, -7.243981], [-41.80347, -7.243935], [-41.80973, -7.237102], [-41.81212, -7.234721], [-41.81585, -7.232263], [-41.81895, -7.231175], [-41.8197, -7.231276], [-41.83436, -7.236819], [-41.83938, -7.239674], [-41.84113, -7.240342], [-41.84515, -7.241433], [-41.84943, -7.241614], [-41.85494, -7.244801], [-41.85549, -7.244913], [-41.85622, -7.24464], [-41.86143, -7.241614], [-41.87297, -7.236233], [-41.87487, -7.235625], [-41.88526, -7.233835], [-41.89542, -7.232949], [-41.90041, -7.231634], [-41.90169, -7.231433], [-41.9079, -7.231007], [-41.90875, -7.231206], [-41.9097, -7.231687], [-41.9109, -7.231089], [-41.91177, -7.230371], [-41.91417, -7.232412], [-41.91425, -7.233137], [-41.91472, -7.232682], [-41.91423, -7.232148], [-41.91432, -7.23099], [-41.91446, -7.230859], [-41.91428, -7.229664], [-41.9134, -7.228448], [-41.91329, -7.227467], [-41.91414, -7.226109], [-41.91533, -7.225521], [-41.91582, -7.225625], [-41.91584, -7.225149], [-41.91522, -7.224839], [-41.91522, -7.224534], [-41.91555, -7.224276], [-41.91629, -7.22415], [-41.91728, -7.223142], [-41.91727, -7.222636], [-41.91661, -7.222002], [-41.91652, -7.221676], [-41.91734, -7.219118], [-41.91854, -7.217913], [-41.91921, -7.217612], [-41.92149, -7.217728], [-41.92337, -7.216993], [-41.92375, -7.217193], [-41.92382, -7.218298], [-41.92417, -7.218672], [-41.92447, -7.218658], [-41.92598, -7.217836], [-41.92756, -7.217499], [-41.92833, -7.217164], [-41.92928, -7.215519], [-41.92936, -7.214649], [-41.92912, -7.214086], [-41.9285, -7.213672], [-41.92782, -7.212062], [-41.92747, -7.211648], [-41.92693, -7.21132], [-41.92634, -7.211334], [-41.92571, -7.210848], [-41.92536, -7.209966], [-41.92378, -7.208952], [-41.92292, -7.20871], [-41.92105, -7.207212], [-41.92102, -7.206736], [-41.92143, -7.205596], [-41.9207, -7.204009], [-41.92059, -7.202476], [-41.92064, -7.202109], [-41.92154, -7.201345], [-41.92162, -7.200545], [-41.92133, -7.197809], [-41.92065, -7.196447], [-41.92018, -7.194049], [-41.91933, -7.193199], [-41.91859, -7.19362], [-41.91754, -7.193797], [-41.91714, -7.193525], [-41.91595, -7.191419], [-41.91546, -7.191426], [-41.91499, -7.191642], [-41.91465, -7.191503], [-41.9143, -7.190891], [-41.91417, -7.189626], [-41.91324, -7.188616], [-41.91288, -7.187933], [-41.9132, -7.185971], [-41.84113, -7.199866], [-41.78752, -7.246852]]]}}, 
{"type": "Feature", "properties": {"CD_SETOR": "221170405000005", "CD_SIT": "8", "NM_DIST": "Wall Ferraz", "NM_SUBDIST": null}, "geometry": {"type": "Polygon", "coordinates": [[[-41.86066, -7.242018], [-41.86084, -7.244878], [-41.86122, -7.246216], [-41.85917, -7.246912], [-41.85739, -7.247176], [-41.85606, -7.248618], [-41.85569, -7.249477], [-41.85585, -7.250136], [-41.85702, -7.250794], [-41.85749, -7.251427], [-41.85842, -7.252125], [-41.85866, -7.252637], [-41.85957, -7.258057], [-41.86001, -7.259416], [-41.86036, -7.259553], [-41.86023, -7.259706], [-41.86032, -7.25997], [-41.85998, -7.259988], [-41.85992, -7.260278], [-41.85966, -7.26032], [-41.85952, -7.260744], [-41.85919, -7.260706], [-41.85899, -7.261218], [-41.85914, -7.261979], [-41.85876, -7.262115], [-41.85863, -7.261965], [-41.8575, -7.262312], [-41.85727, -7.262043], [-41.85682, -7.262641], [-41.85675, -7.263142], [-41.85641, -7.262986], [-41.85664, -7.263887], [-41.85629, -7.264523], [-41.85605, -7.264557], [-41.85605, -7.26584], [-41.85582, -7.265887], [-41.85568, -7.266439], [-41.85516, -7.266523], [-41.85494, -7.266892], [-41.85417, -7.267459], [-41.85416, -7.267131], [-41.85388, -7.267205], [-41.85391, -7.26689], [-41.85379, -7.266927], [-41.85364, -7.267368], [-41.85347, -7.267387], [-41.85355, -7.267786], [-41.85333, -7.268095], [-41.85284, -7.268159], [-41.85257, -7.268392], [-41.85236, -7.267909], [-41.85186, -7.267944], [-41.8515, -7.268577], [-41.85105, -7.268389], [-41.85107, -7.268776], [-41.85074, -7.268719], [-41.85037, -7.268906], [-41.85071, -7.26944], [-41.85062, -7.270264], [-41.85034, -7.270645], [-41.85052, -7.270898], [-41.85019, -7.271117], [-41.8496, -7.270967], [-41.84854, -7.271057], [-41.84805, -7.271323], [-41.848, -7.271904], [-41.84776, -7.272165], [-41.84724, -7.272198], [-41.84684, -7.27266], [-41.84621, -7.272476], [-41.84583, -7.271588], [-41.84547, -7.271718], [-41.84501, -7.272458], [-41.84522, -7.273359], [-41.84492, -7.27434], [-41.8443, -7.274604], [-41.84403, -7.274501], [-41.8438, -7.275019], [-41.84343, -7.275367], [-41.84267, -7.27566], [-41.84231, -7.27685], [-41.84158, -7.278374], [-41.84001, -7.278917], [-41.83976, -7.278814], [-41.83956, -7.278388], [-41.83915, -7.278428], [-41.83906, -7.278579], [-41.83928, -7.279359], [-41.83803, -7.280114], [-41.83717, -7.280373], [-41.83649, -7.280356], [-41.836, -7.280988], [-41.83544, -7.281369], [-41.83451, -7.281613], [-41.83393, -7.282943], [-41.83286, -7.283246], [-41.83239, -7.284384], [-41.83187, -7.284843], [-41.83037, -7.285349], [-41.83002, -7.28529], [-41.82927, -7.285552], [-41.82817, -7.285625], [-41.82724, -7.285348], [-41.82599, -7.284308], [-41.82499, -7.28391], [-41.82369, -7.283088], [-41.82282, -7.283269], [-41.82188, -7.284003], [-41.81964, -7.283433], [-41.81883, -7.282773], [-41.81779, -7.283108], [-41.81723, -7.283668], [-41.81675, -7.283656], [-41.81641, -7.28404], [-41.81549, -7.284602], [-41.81467, -7.284765], [-41.81385, -7.284714], [-41.81277, -7.285155], [-41.81237, -7.284993], [-41.81191, -7.285413], [-41.81159, -7.285383], [-41.81129, -7.285693], [-41.81116, -7.286128], [-41.80964, -7.286395], [-41.8093, -7.286868], [-41.80907, -7.286931], [-41.8087, -7.286854], [-41.80774, -7.287021], [-41.80753, -7.286962], [-41.80751, -7.286612], [-41.80713, -7.286284], [-41.80736, -7.285906], [-41.8073, -7.285686], [-41.80641, -7.285885], [-41.80579, -7.285576], [-41.80562, -7.285238], [-41.80577, -7.284881], [-41.80522, -7.284798], [-41.80506, -7.28398], [-41.80411, -7.283639], [-41.8035, -7.283228], [-41.80338, -7.282622], [-41.80216, -7.281856], [-41.80206, -7.281434], [-41.80183, -7.281227], [-41.80109, -7.28112], [-41.80112, -7.280732], [-41.80071, -7.280708], [-41.79991, -7.280213], [-41.79861, -7.279909], [-41.79811, -7.28034], [-41.79771, -7.280391], [-41.79741, -7.280669], [-41.79619, -7.281109], [-41.79592, -7.280843], [-41.79556, -7.281136], [-41.7952, -7.281156], [-41.7949, -7.280887], [-41.79433, -7.281164], [-41.7928, -7.284975], [-41.79417, -7.291886], [-41.79471, -7.293535], [-41.797, -7.296805], [-41.80424, -7.305682], [-41.80522, -7.30616], [-41.8064, -7.307136], [-41.80759, -7.307374], [-41.81054, -7.307412], [-41.81237, -7.308628], [-41.81328, -7.309777], [-41.81344, -7.311358], [-41.81418, -7.313248], [-41.81485, -7.317202], [-41.81513, -7.317959], [-41.81556, -7.317959], [-41.81549, -7.317743], [-41.81568, -7.317559], [-41.81564, -7.31717], [-41.81577, -7.316977], [-41.81643, -7.317108], [-41.81714, -7.31688], [-41.81783, -7.316186], [-41.81837, -7.316034], [-41.81848, -7.315564], [-41.81884, -7.315527], [-41.8197, -7.314907], [-41.81997, -7.314343], [-41.82033, -7.314224], [-41.82045, -7.313907], [-41.8213, -7.313927], [-41.82177, -7.31305], [-41.82216, -7.312669], [-41.82261, -7.312516], [-41.82199, -7.312027], [-41.82192, -7.311751], [-41.82238, -7.311063], [-41.82306, -7.310896], [-41.8236, -7.31055], [-41.82399, -7.310696], [-41.82436, -7.310181], [-41.82428, -7.30947], [-41.82467, -7.308824], [-41.82467, -7.308675], [-41.82447, -7.308646], [-41.82452, -7.308266], [-41.82481, -7.307914], [-41.82473, -7.307562], [-41.82524, -7.307683], [-41.82544, -7.307967], [-41.82549, -7.307557], [-41.82572, -7.307744], [-41.82606, -7.307496], [-41.82608, -7.30793], [-41.82625, -7.308051], [-41.82655, -7.307825], [-41.82643, -7.307491], [-41.82723, -7.307115], [-41.82781, -7.307381], [-41.8283, -7.307241], [-41.82837, -7.307468], [-41.82859, -7.307547], [-41.82896, -7.307253], [-41.82898, -7.306933], [-41.82921, -7.306762], [-41.82952, -7.306809], [-41.82957, -7.30707], [-41.82974, -7.307065], [-41.82989, -7.306614], [-41.83007, -7.30651], [-41.82987, -7.306184], [-41.83019, -7.306251], [-41.83108, -7.305704], [-41.83157, -7.305639], [-41.83157, -7.305225], [-41.83184, -7.304954], [-41.83225, -7.304993], [-41.83277, -7.304562], [-41.83303, -7.304792], [-41.83315, -7.304596], [-41.83349, -7.304582], [-41.8337, -7.304145], [-41.8341, -7.304051], [-41.83411, -7.303755], [-41.83455, -7.304023], [-41.83467, -7.30367], [-41.83456, -7.30341], [-41.8351, -7.302444], [-41.83498, -7.302141], [-41.83511, -7.302055], [-41.83536, -7.302043], [-41.83566, -7.302299], [-41.8357, -7.302005], [-41.83594, -7.301833], [-41.83629, -7.301964], [-41.8371, -7.301797], [-41.83743, -7.302257], [-41.83764, -7.301998], [-41.83805, -7.301998], [-41.83844, -7.301476], [-41.83934, -7.301318], [-41.83941, -7.301497], [-41.83978, -7.301567], [-41.84062, -7.30114], [-41.84027, -7.300729], [-41.84058, -7.300365], [-41.84108, -7.300296], [-41.84146, -7.300481], [-41.84181, -7.300064], [-41.84251, -7.29991], [-41.84255, -7.299677], [-41.84277, -7.299773], [-41.84304, -7.298933], [-41.84327, -7.298925], [-41.8434, -7.298648], [-41.84291, -7.298657], [-41.84308, -7.298152], [-41.84284, -7.297634], [-41.84305, -7.297531], [-41.84265, -7.29687], [-41.84289, -7.296623], [-41.84278, -7.296233], [-41.84257, -7.296162], [-41.84256, -7.29589], [-41.84306, -7.294908], [-41.84253, -7.294962], [-41.84199, -7.294285], [-41.84225, -7.293633], [-41.84241, -7.293862], [-41.84271, -7.293714], [-41.84264, -7.293474], [-41.84231, -7.293309], [-41.84252, -7.292952], [-41.84277, -7.292957], [-41.84306, -7.292588], [-41.84343, -7.292492], [-41.84377, -7.292877], [-41.84406, -7.292623], [-41.84434, -7.292653], [-41.84447, -7.292123], [-41.84485, -7.291905], [-41.84466, -7.291716], [-41.84474, -7.291534], [-41.84509, -7.291605], [-41.84522, -7.291373], [-41.84559, -7.291548], [-41.84609, -7.291199], [-41.84613, -7.29091], [-41.84631, -7.291054], [-41.84648, -7.290977], [-41.84646, -7.290762], [-41.84687, -7.290702], [-41.84753, -7.291014], [-41.84741, -7.291287], [-41.84762, -7.291498], [-41.8476, -7.291741], [-41.84776, -7.291746], [-41.84793, -7.291403], [-41.8481, -7.291678], [-41.84833, -7.291687], [-41.84841, -7.292255], [-41.84884, -7.292176], [-41.84877, -7.291739], [-41.84919, -7.292264], [-41.84933, -7.291836], [-41.84897, -7.291658], [-41.8492, -7.291504], [-41.84971, -7.291504], [-41.8506, -7.290998], [-41.85102, -7.290455], [-41.85152, -7.290203], [-41.85173, -7.289607], [-41.8516, -7.289367], [-41.85203, -7.289227], [-41.85215, -7.288721], [-41.85253, -7.28868], [-41.85272, -7.288846], [-41.85324, -7.288502], [-41.8535, -7.288618], [-41.85384, -7.288346], [-41.85496, -7.288948], [-41.85584, -7.289659], [-41.85612, -7.290125], [-41.85626, -7.290001], [-41.85638, -7.289197], [-41.85691, -7.289512], [-41.85729, -7.289237], [-41.85762, -7.289277], [-41.85779, -7.289719], [-41.85812, -7.290025], [-41.85821, -7.290482], [-41.85891, -7.291189], [-41.86041, -7.291226], [-41.86072, -7.291486], [-41.86119, -7.291605], [-41.86131, -7.292004], [-41.86151, -7.29206], [-41.8631, -7.292235], [-41.86365, -7.292072], [-41.864, -7.291791], [-41.86375, -7.291377], [-41.8639, -7.291169], [-41.86449, -7.291307], [-41.86562, -7.292182], [-41.86576, -7.292087], [-41.86577, -7.29177], [-41.86611, -7.291661], [-41.86716, -7.292082], [-41.86779, -7.291758], [-41.86834, -7.291843], [-41.86898, -7.291391], [-41.86963, -7.290544], [-41.8698, -7.290035], [-41.87011, -7.289803], [-41.87017, -7.289554], [-41.86985, -7.289355], [-41.86993, -7.289054], [-41.87025, -7.288747], [-41.87083, -7.288589], [-41.87176, -7.287828], [-41.8718, -7.287599], [-41.87148, -7.287234], [-41.87156, -7.287058], [-41.87243, -7.286729], [-41.87355, -7.286564], [-41.87369, -7.286387], [-41.87358, -7.285816], [-41.87479, -7.285198], [-41.8749, -7.284624], [-41.87537, -7.28434], [-41.87558, -7.28384], [-41.87601, -7.284061], [-41.8764, -7.284008], [-41.87745, -7.282787], [-41.87793, -7.282506], [-41.87839, -7.282534], [-41.87951, -7.281827], [-41.87992, -7.281197], [-41.88042, -7.281182], [-41.88056, -7.281561], [-41.88088, -7.281633], [-41.88165, -7.281207], [-41.88205, -7.281157], [-41.88215, -7.28146], [-41.88234, -7.281533], [-41.88338, -7.281126], [-41.88361, -7.280282], [-41.88411, -7.279598], [-41.88508, -7.278837], [-41.88508, -7.277992], [-41.88545, -7.277568], [-41.8854, -7.276953], [-41.88613, -7.276816], [-41.8857, -7.276218], [-41.88612, -7.276085], [-41.88608, -7.275184], [-41.88634, -7.274828], [-41.88678, -7.274934], [-41.88716, -7.274658], [-41.88758, -7.274689], [-41.88842, -7.274245], [-41.88883, -7.27444], [-41.88885, -7.274964], [-41.88903, -7.275037], [-41.88946, -7.274263], [-41.88968, -7.274311], [-41.89024, -7.273856], [-41.89067, -7.273945], [-41.89105, -7.273467], [-41.89173, -7.273273], [-41.89217, -7.273355], [-41.89309, -7.273208], [-41.8937, -7.27293], [-41.89403, -7.273061], [-41.89408, -7.272865], [-41.89465, -7.272638], [-41.89503, -7.273032], [-41.89542, -7.273025], [-41.89584, -7.273373], [-41.89651, -7.273598], [-41.89668, -7.274376], [-41.89657, -7.2747], [-41.89694, -7.27486], [-41.89707, -7.27451], [-41.89743, -7.274762], [-41.89763, -7.274697], [-41.8979, -7.274929], [-41.89793, -7.27537], [-41.89807, -7.27543], [-41.89826, -7.275238], [-41.89888, -7.275832], [-41.89926, -7.275606], [-41.89955, -7.275757], [-41.89978, -7.275686], [-41.90069, -7.276134], [-41.90085, -7.276445], [-41.90108, -7.276487], [-41.90147, -7.276268], [-41.90178, -7.276599], [-41.90205, -7.276472], [-41.90207, -7.276133], [-41.90254, -7.275796], [-41.90313, -7.276021], [-41.90368, -7.275935], [-41.90395, -7.276328], [-41.90443, -7.276448], [-41.90522, -7.276344], [-41.90527, -7.276585], [-41.90475, -7.277363], [-41.90507, -7.277659], [-41.90635, -7.276662], [-41.90575, -7.274044], [-41.90582, -7.273501], [-41.90634, -7.273289], [-41.90713, -7.273322], [-41.90741, -7.272987], [-41.90753, -7.272249], [-41.90775, -7.272057], [-41.90795, -7.272025], [-41.90862, -7.272613], [-41.90885, -7.272525], [-41.90984, -7.271413], [-41.91141, -7.271651], [-41.91251, -7.272005], [-41.91287, -7.271893], [-41.91321, -7.271425], [-41.91407, -7.27119], [-41.9145, -7.269939], [-41.91418, -7.269162], [-41.91438, -7.268468], [-41.91401, -7.268066], [-41.91394, -7.267632], [-41.91459, -7.265902], [-41.91404, -7.265474], [-41.9139, -7.265112], [-41.9132, -7.264722], [-41.91304, -7.264452], [-41.91313, -7.264048], [-41.91271, -7.263531], [-41.91288, -7.262582], [-41.91251, -7.261856], [-41.91235, -7.26096], [-41.91192, -7.260682], [-41.91147, -7.260689], [-41.91127, -7.260449], [-41.91143, -7.259846], [-41.9113, -7.25875], [-41.91172, -7.257468], [-41.91217, -7.256641], [-41.91248, -7.256499], [-41.91259, -7.256118], [-41.91256, -7.255613], [-41.91229, -7.255436], [-41.91214, -7.254961], [-41.91179, -7.254629], [-41.91187, -7.254344], [-41.9122, -7.254151], [-41.91306, -7.252908], [-41.91305, -7.252641], [-41.91263, -7.252229], [-41.91404, -7.250601], [-41.91436, -7.249554], [-41.91544, -7.248399], [-41.91583, -7.247705], [-41.9158, -7.247379], [-41.91546, -7.246989], [-41.91508, -7.246046], [-41.91514, -7.244829], [-41.91487, -7.24444], [-41.91412, -7.244156], [-41.91404, -7.243892], [-41.91431, -7.243399], [-41.91512, -7.243338], [-41.91531, -7.243158], [-41.91519, -7.241872], [-41.91463, -7.241478], [-41.91525, -7.239869], [-41.91493, -7.238287], [-41.91497, -7.237767], [-41.91336, -7.23537], [-41.91245, -7.237881], [-41.91078, -7.240292], [-41.90974, -7.2405], [-41.9085, -7.239958], [-41.9074, -7.238228], [-41.90539, -7.238704], [-41.9046, -7.237284], [-41.90728, -7.236022], [-41.90696, -7.232294], [-41.9097, -7.231687], [-41.90936, -7.231494], [-41.9079, -7.231007], [-41.90169, -7.231433], [-41.90041, -7.231634], [-41.89542, -7.232949], [-41.88526, -7.233835], [-41.87487, -7.235625], [-41.87297, -7.236233], [-41.86066, -7.242018]]]}}, 
{"type": "Feature", "properties": {"CD_SETOR": "221170405000006", "CD_SIT": "8", "NM_DIST": "Wall Ferraz", "NM_SUBDIST": null}, "geometry": {"type": "Polygon", "coordinates": [[[-41.81513, -7.317959], [-41.81428, -7.318344], [-41.81391, -7.318106], [-41.8135, -7.318188], [-41.81296, -7.318807], [-41.8127, -7.318889], [-41.81269, -7.319208], [-41.81242, -7.319246], [-41.81215, -7.319059], [-41.81169, -7.319584], [-41.81238, -7.31981], [-41.81222, -7.320227], [-41.8124, -7.320447], [-41.81209, -7.320635], [-41.81172, -7.320341], [-41.81175, -7.321754], [-41.81142, -7.322148], [-41.81197, -7.322864], [-41.81168, -7.3232], [-41.81197, -7.323588], [-41.81203, -7.324053], [-41.81169, -7.32414], [-41.81179, -7.324462], [-41.81158, -7.324927], [-41.81189, -7.32658], [-41.81206, -7.32678], [-41.81157, -7.327253], [-41.81153, -7.327689], [-41.81178, -7.327642], [-41.81184, -7.327981], [-41.81147, -7.328351], [-41.81123, -7.329478], [-41.81142, -7.330424], [-41.81166, -7.330651], [-41.81127, -7.331148], [-41.81136, -7.331944], [-41.81116, -7.332974], [-41.81143, -7.333514], [-41.81151, -7.334839], [-41.8117, -7.334949], [-41.81194, -7.334693], [-41.81213, -7.334722], [-41.81265, -7.335489], [-41.81346, -7.335627], [-41.8139, -7.335912], [-41.81408, -7.336325], [-41.81394, -7.336868], [-41.81443, -7.336763], [-41.81467, -7.337293], [-41.81418, -7.337699], [-41.81389, -7.338338], [-41.81417, -7.338979], [-41.81423, -7.342416], [-41.81471, -7.342984], [-41.81582, -7.345104], [-41.81643, -7.345773], [-41.81683, -7.346671], [-41.81701, -7.347565], [-41.81822, -7.349257], [-41.8182, -7.350684], [-41.81865, -7.351997], [-41.81853, -7.353542], [-41.81826, -7.354134], [-41.81892, -7.35527], [-41.81935, -7.355435], [-41.81969, -7.356797], [-41.81929, -7.357202], [-41.81923, -7.357672], [-41.8196, -7.357625], [-41.87297, -7.291762], [-41.88568, -7.295324], [-41.88323, -7.29154], [-41.88064, -7.288788], [-41.87845, -7.287457], [-41.87747, -7.287126], [-41.87723, -7.286637], [-41.87635, -7.286269], [-41.87632, -7.285699], [-41.87597, -7.285315], [-41.87596, -7.284954], [-41.87538, -7.284836], [-41.87525, -7.284419], [-41.8749, -7.284624], [-41.87479, -7.285198], [-41.87358, -7.285816], [-41.87369, -7.286387], [-41.87355, -7.286564], [-41.87243, -7.286729], [-41.87156, -7.287058], [-41.87148, -7.287234], [-41.8718, -7.287599], [-41.87176, -7.287828], [-41.87083, -7.288589], [-41.87025, -7.288747], [-41.86993, -7.289054], [-41.86985, -7.289355], [-41.87017, -7.289651], [-41.86883, -7.29155], [-41.86834, -7.291843], [-41.86779, -7.291758], [-41.86716, -7.292082], [-41.86611, -7.291661], [-41.86577, -7.29177], [-41.86576, -7.292087], [-41.86554, -7.292164], [-41.86449, -7.291307], [-41.8639, -7.291169], [-41.86375, -7.291377], [-41.864, -7.291791], [-41.86365, -7.292072], [-41.8631, -7.292235], [-41.86151, -7.29206], [-41.86131, -7.292004], [-41.86119, -7.291605], [-41.86072, -7.291486], [-41.86041, -7.291226], [-41.85891, -7.291189], [-41.85821, -7.290482], [-41.85812, -7.290025], [-41.85779, -7.289719], [-41.85762, -7.289277], [-41.85729, -7.289237], [-41.85691, -7.289512], [-41.85638, -7.289197], [-41.85626, -7.290001], [-41.85612, -7.290125], [-41.85584, -7.289659], [-41.85398, -7.288351], [-41.85348, -7.288624], [-41.85324, -7.288502], [-41.85272, -7.288846], [-41.85253, -7.28868], [-41.8522, -7.288688], [-41.85218, -7.288914], [-41.852, -7.288978], [-41.85203, -7.289227], [-41.8516, -7.289367], [-41.85173, -7.289607], [-41.85152, -7.290203], [-41.85102, -7.290455], [-41.8506, -7.290998], [-41.84971, -7.291504], [-41.8492, -7.291504], [-41.84897, -7.291658], [-41.84933, -7.291836], [-41.84919, -7.292264], [-41.84877, -7.291739], [-41.84884, -7.292176], [-41.84841, -7.292255], [-41.84833, -7.291687], [-41.8481, -7.291678], [-41.84793, -7.291403], [-41.84776, -7.291746], [-41.8476, -7.291741], [-41.84762, -7.291498], [-41.84741, -7.291287], [-41.84753, -7.291014], [-41.84687, -7.290702], [-41.84646, -7.290762], [-41.84648, -7.290977], [-41.84631, -7.291054], [-41.84613, -7.29091], [-41.84609, -7.291199], [-41.84559, -7.291548], [-41.84522, -7.291373], [-41.84509, -7.291605], [-41.8447, -7.291565], [-41.84466, -7.291716], [-41.84485, -7.291905], [-41.84447, -7.292123], [-41.8443, -7.292675], [-41.84406, -7.292623], [-41.84377, -7.292877], [-41.84343, -7.292492], [-41.84317, -7.292535], [-41.84277, -7.292957], [-41.84244, -7.293032], [-41.84231, -7.293309], [-41.84264, -7.293474], [-41.84271, -7.293714], [-41.84241, -7.293862], [-41.84225, -7.293633], [-41.84199, -7.294285], [-41.84253, -7.294962], [-41.84306, -7.294908], [-41.84256, -7.29589], [-41.84257, -7.296162], [-41.84278, -7.296233], [-41.84289, -7.296623], [-41.84265, -7.29687], [-41.84305, -7.297531], [-41.84284, -7.297634], [-41.84308, -7.298152], [-41.84291, -7.298657], [-41.8434, -7.298648], [-41.84327, -7.298925], [-41.84304, -7.298933], [-41.84272, -7.299819], [-41.84255, -7.299677], [-41.84251, -7.29991], [-41.84181, -7.300064], [-41.84146, -7.300481], [-41.84108, -7.300296], [-41.84058, -7.300365], [-41.84027, -7.300729], [-41.84062, -7.30114], [-41.83978, -7.301567], [-41.83941, -7.301497], [-41.83934, -7.301318], [-41.83844, -7.301476], [-41.83805, -7.301998], [-41.83764, -7.301998], [-41.83743, -7.302257], [-41.8371, -7.301797], [-41.83629, -7.301964], [-41.83594, -7.301833], [-41.8357, -7.302005], [-41.83566, -7.302299], [-41.83536, -7.302043], [-41.83511, -7.302055], [-41.83498, -7.302141], [-41.8351, -7.302444], [-41.83456, -7.30341], [-41.83467, -7.30367], [-41.83455, -7.304023], [-41.83411, -7.303755], [-41.8341, -7.304051], [-41.8337, -7.304145], [-41.83349, -7.304582], [-41.83315, -7.304596], [-41.83303, -7.304792], [-41.83277, -7.304562], [-41.83225, -7.304993], [-41.83184, -7.304954], [-41.83157, -7.305225], [-41.83161, -7.305613], [-41.83108, -7.305704], [-41.83019, -7.306251], [-41.82987, -7.306184], [-41.83008, -7.306438], [-41.82986, -7.30667], [-41.82984, -7.306975], [-41.82957, -7.30707], [-41.82952, -7.306809], [-41.82921, -7.306762], [-41.82867, -7.307528], [-41.82837, -7.307468], [-41.8283, -7.307241], [-41.82781, -7.307381], [-41.82723, -7.307115], [-41.82643, -7.307491], [-41.82655, -7.307825], [-41.82625, -7.308051], [-41.82608, -7.30793], [-41.82606, -7.307496], [-41.82572, -7.307744], [-41.82549, -7.307557], [-41.82544, -7.307967], [-41.82524, -7.307683], [-41.82473, -7.307562], [-41.82481, -7.307914], [-41.82452, -7.308266], [-41.82447, -7.308646], [-41.82467, -7.308675], [-41.82467, -7.308824], [-41.82428, -7.30947], [-41.82436, -7.310181], [-41.82399, -7.310696], [-41.8236, -7.31055], [-41.82306, -7.310896], [-41.82238, -7.311063], [-41.82192, -7.311751], [-41.82199, -7.312027], [-41.82261, -7.312516], [-41.82216, -7.312669], [-41.82177, -7.31305], [-41.8213, -7.313927], [-41.82045, -7.313907], [-41.82033, -7.314224], [-41.81997, -7.314343], [-41.8197, -7.314907], [-41.81884, -7.315527], [-41.81848, -7.315564], [-41.81837, -7.316034], [-41.81783, -7.316186], [-41.81714, -7.31688], [-41.81643, -7.317108], [-41.81577, -7.316977], [-41.81564, -7.31717], [-41.81568, -7.317559], [-41.81549, -7.317743], [-41.81556, -7.317959], [-41.81513, -7.317959]]]}}, 
{"type": "Feature", "properties": {"CD_SETOR": "221170405000007", "CD_SIT": "8", "NM_DIST": "Wall Ferraz", "NM_SUBDIST": null}, "geometry": {"type": "Polygon", "coordinates": [[[-41.78452, -7.344359], [-41.7843, -7.344837], [-41.78342, -7.345798], [-41.78339, -7.346059], [-41.78378, -7.346416], [-41.78338, -7.34732], [-41.78454, -7.348118], [-41.78512, -7.348165], [-41.78583, -7.348975], [-41.78691, -7.349789], [-41.78712, -7.350603], [-41.78682, -7.351534], [-41.78698, -7.352252], [-41.78691, -7.352741], [-41.78738, -7.354109], [-41.78869, -7.353774], [-41.78879, -7.354072], [-41.78906, -7.354167], [-41.78959, -7.35372], [-41.79102, -7.353353], [-41.7918, -7.353928], [-41.79324, -7.354502], [-41.79404, -7.354401], [-41.79437, -7.354864], [-41.79491, -7.355189], [-41.79604, -7.355242], [-41.79687, -7.354322], [-41.79805, -7.354811], [-41.79943, -7.355045], [-41.80027, -7.355444], [-41.80232, -7.355575], [-41.80311, -7.355912], [-41.80504, -7.355519], [-41.80701, -7.356566], [-41.80803, -7.356902], [-41.8122, -7.357132], [-41.81393, -7.356777], [-41.81454, -7.356791], [-41.81597, -7.357261], [-41.81667, -7.357254], [-41.81773, -7.357565], [-41.81909, -7.357722], [-41.81923, -7.357672], [-41.81929, -7.357202], [-41.81969, -7.356797], [-41.81935, -7.355435], [-41.81892, -7.35527], [-41.81826, -7.354134], [-41.81853, -7.353542], [-41.81865, -7.351997], [-41.8182, -7.350684], [-41.81822, -7.349257], [-41.81701, -7.347565], [-41.81683, -7.346671], [-41.81643, -7.345773], [-41.81582, -7.345104], [-41.81471, -7.342984], [-41.81423, -7.342416], [-41.81417, -7.338979], [-41.81389, -7.338338], [-41.81418, -7.337699], [-41.81467, -7.337293], [-41.81443, -7.336763], [-41.81394, -7.336868], [-41.81408, -7.336325], [-41.8139, -7.335912], [-41.81346, -7.335627], [-41.81265, -7.335489], [-41.81213, -7.334722], [-41.81194, -7.334693], [-41.8117, -7.334949], [-41.81151, -7.334839], [-41.81143, -7.333514], [-41.81116, -7.332974], [-41.81136, -7.331944], [-41.81127, -7.331148], [-41.81166, -7.330651], [-41.81142, -7.330424], [-41.81123, -7.329478], [-41.81147, -7.328351], [-41.81184, -7.327981], [-41.81178, -7.327642], [-41.81153, -7.327689], [-41.81157, -7.327253], [-41.81206, -7.32678], [-41.81189, -7.32658], [-41.81158, -7.324927], [-41.81179, -7.324462], [-41.81169, -7.32414], [-41.81203, -7.324053], [-41.81197, -7.323588], [-41.81168, -7.3232], [-41.81197, -7.322864], [-41.81142, -7.322148], [-41.81175, -7.321754], [-41.81172, -7.320341], [-41.81209, -7.320635], [-41.8124, -7.320447], [-41.81222, -7.320227], [-41.81238, -7.31981], [-41.81169, -7.319584], [-41.81215, -7.319059], [-41.81242, -7.319246], [-41.81269, -7.319208], [-41.8127, -7.318889], [-41.81296, -7.318807], [-41.8135, -7.318188], [-41.81391, -7.318106], [-41.81428, -7.318344], [-41.81513, -7.317959], [-41.81485, -7.317202], [-41.81418, -7.313248], [-41.81344, -7.311358], [-41.81328, -7.309777], [-41.81224, -7.308488], [-41.81074, -7.307465], [-41.8092, -7.307304], [-41.80759, -7.307374], [-41.8064, -7.307136], [-41.80522, -7.30616], [-41.80424, -7.305682], [-41.797, -7.296805], [-41.795, -7.294035], [-41.79442, -7.292793], [-41.79282, -7.285278], [-41.79285, -7.284623], [-41.79433, -7.281164], [-41.79367, -7.28114], [-41.7919, -7.280651], [-41.79103, -7.280769], [-41.78897, -7.280686], [-41.78862, -7.280963], [-41.78742, -7.280927], [-41.78596, -7.286131], [-41.78366, -7.296119], [-41.78054, -7.29986], [-41.77602, -7.304654], [-41.77705, -7.306553], [-41.77961, -7.308703], [-41.78063, -7.309927], [-41.78155, -7.310517], [-41.78185, -7.311167], [-41.782, -7.312454], [-41.78186, -7.313189], [-41.78117, -7.314295], [-41.78065, -7.318372], [-41.77992, -7.320859], [-41.78005, -7.322181], [-41.77882, -7.323271], [-41.77821, -7.323383], [-41.77773, -7.323282], [-41.77733, -7.323436], [-41.7761, -7.32466], [-41.7762, -7.325378], [-41.77669, -7.326581], [-41.77801, -7.327384], [-41.77804, -7.329193], [-41.77845, -7.330486], [-41.77816, -7.332912], [-41.7779, -7.33363], [-41.77749, -7.334168], [-41.77746, -7.334817], [-41.77803, -7.33794], [-41.77799, -7.339073], [-41.77853, -7.339781], [-41.77974, -7.340579], [-41.78087, -7.340872], [-41.78182, -7.340866], [-41.78271, -7.341239], [-41.78453, -7.343934], [-41.78452, -7.344359]]]}}, 
{"type": "Feature", "properties": {"CD_SETOR": "221170405000008", "CD_SIT": "1", "NM_DIST": "Wall Ferraz", "NM_SUBDIST": null}, "geometry": {"type": "Polygon", "coordinates": [[[-41.9097, -7.231687], [-41.91034, -7.232313], [-41.91041, -7.232576], [-41.91006, -7.232747], [-41.91057, -7.234364], [-41.91043, -7.236357], [-41.90993, -7.236415], [-41.91029, -7.240474], [-41.91078, -7.240292], [-41.91245, -7.237881], [-41.91336, -7.23537], [-41.91433, -7.233843], [-41.91417, -7.232412], [-41.91177, -7.230371], [-41.9109, -7.231089], [-41.9097, -7.231687]]]}}, 
{"type": "Feature", "properties": {"CD_SETOR": "221170405000009", "CD_SIT": "5", "NM_DIST": "Wall Ferraz", "NM_SUBDIST": null}, "geometry": {"type": "Polygon", "coordinates": [[[-41.79514, -7.277213], [-41.79418, -7.280369], [-41.79503, -7.280541], [-41.79762, -7.279424], [-41.79907, -7.277938], [-41.80103, -7.278588], [-41.80291, -7.279951], [-41.80392, -7.280177], [-41.80316, -7.277824], [-41.80109, -7.276264], [-41.79993, -7.275802], [-41.79776, -7.274175], [-41.79664, -7.273526], [-41.79511, -7.274278], [-41.79514, -7.277213]]]}}, 
{"type": "Feature", "properties": {"CD_SETOR": "221170405000010", "CD_SIT": "8", "NM_DIST": "Wall Ferraz", "NM_SUBDIST": null}, "geometry": {"type": "Polygon", "coordinates": [[[-41.78951, -7.265916], [-41.79036, -7.268109], [-41.79031, -7.270141], [-41.79136, -7.272334], [-41.79321, -7.275314], [-41.79281, -7.275968], [-41.79118, -7.2765], [-41.78825, -7.278799], [-41.78796, -7.27923], [-41.78742, -7.280927], [-41.78862, -7.280963], [-41.78897, -7.280686], [-41.79103, -7.280769], [-41.7919, -7.280651], [-41.79367, -7.28114], [-41.79429, -7.281181], [-41.7949, -7.280887], [-41.7952, -7.281156], [-41.79556, -7.281136], [-41.79592, -7.280842], [-41.79619, -7.281109], [-41.79741, -7.280669], [-41.79771, -7.280391], [-41.79811, -7.28034], [-41.79858, -7.279917], [-41.79905, -7.279951], [-41.79991, -7.280213], [-41.80025, -7.280511], [-41.80056, -7.280503], [-41.80071, -7.280708], [-41.80112, -7.280732], [-41.80118, -7.281175], [-41.80195, -7.281315], [-41.80216, -7.281856], [-41.80342, -7.282674], [-41.8035, -7.283228], [-41.80411, -7.283639], [-41.80506, -7.28398], [-41.80522, -7.284798], [-41.80577, -7.284881], [-41.80562, -7.285238], [-41.80579, -7.285576], [-41.80641, -7.285885], [-41.8073, -7.285686], [-41.80736, -7.285906], [-41.80713, -7.286284], [-41.80751, -7.286612], [-41.80753, -7.286962], [-41.80774, -7.287021], [-41.8087, -7.286854], [-41.80907, -7.286931], [-41.8093, -7.286868], [-41.80964, -7.286395], [-41.81116, -7.286128], [-41.81129, -7.285693], [-41.81159, -7.285383], [-41.81191, -7.285413], [-41.81237, -7.284993], [-41.81277, -7.285155], [-41.81385, -7.284714], [-41.81467, -7.284765], [-41.81549, -7.284602], [-41.81641, -7.28404], [-41.81675, -7.283656], [-41.81723, -7.283668], [-41.81779, -7.283108], [-41.81883, -7.282773], [-41.81964, -7.283433], [-41.82188, -7.284003], [-41.82282, -7.283269], [-41.82369, -7.283088], [-41.82499, -7.28391], [-41.82599, -7.284308], [-41.82724, -7.285348], [-41.82817, -7.285625], [-41.82927, -7.285552], [-41.8312, -7.285113], [-41.83217, -7.284629], [-41.83268, -7.283493], [-41.833, -7.283124], [-41.83393, -7.282943], [-41.83451, -7.281613], [-41.83544, -7.281369], [-41.836, -7.280988], [-41.83649, -7.280356], [-41.83717, -7.280373], [-41.83803, -7.280114], [-41.83913, -7.279483], [-41.83932, -7.279244], [-41.83909, -7.278739], [-41.83915, -7.278428], [-41.83956, -7.278388], [-41.83976, -7.278814], [-41.84001, -7.278917], [-41.84158, -7.278374], [-41.84231, -7.27685], [-41.84267, -7.27566], [-41.84343, -7.275367], [-41.8438, -7.275019], [-41.84403, -7.274501], [-41.8443, -7.274604], [-41.84485, -7.274434], [-41.84497, -7.274258], [-41.84522, -7.273359], [-41.84501, -7.272458], [-41.84538, -7.271794], [-41.84583, -7.271588], [-41.84621, -7.272476], [-41.84684, -7.27266], [-41.84724, -7.272198], [-41.84776, -7.272165], [-41.848, -7.271904], [-41.84805, -7.271323], [-41.84854, -7.271057], [-41.8496, -7.270967], [-41.85019, -7.271117], [-41.85052, -7.270898], [-41.85034, -7.270645], [-41.85062, -7.270264], [-41.85071, -7.26944], [-41.85037, -7.268906], [-41.85074, -7.268719], [-41.85107, -7.268776], [-41.85105, -7.268389], [-41.8515, -7.268577], [-41.85186, -7.267944], [-41.85236, -7.267909], [-41.85257, -7.268392], [-41.85284, -7.268159], [-41.85333, -7.268095], [-41.85355, -7.267786], [-41.85347, -7.267387], [-41.85364, -7.267368], [-41.85379, -7.266927], [-41.85391, -7.26689], [-41.85388, -7.267205], [-41.85416, -7.267131], [-41.85417, -7.267459], [-41.85494, -7.266892], [-41.85516, -7.266523], [-41.85568, -7.266439], [-41.85582, -7.265887], [-41.85605, -7.26584], [-41.85605, -7.264557], [-41.85629, -7.264523], [-41.85664, -7.263887], [-41.85641, -7.262986], [-41.85675, -7.263142], [-41.85682, -7.262641], [-41.85727, -7.262043], [-41.8575, -7.262312], [-41.85863, -7.261965], [-41.85876, -7.262115], [-41.85914, -7.261979], [-41.85899, -7.261218], [-41.85919, -7.260706], [-41.85952, -7.260744], [-41.85966, -7.26032], [-41.85992, -7.260278], [-41.85998, -7.259988], [-41.86032, -7.25997], [-41.86023, -7.259706], [-41.86036, -7.259553], [-41.86001, -7.259416], [-41.85957, -7.258057], [-41.85866, -7.252637], [-41.85842, -7.252125], [-41.85749, -7.251427], [-41.85702, -7.250794], [-41.85585, -7.250136], [-41.85569, -7.249477], [-41.85606, -7.248618], [-41.85739, -7.247176], [-41.85917, -7.246912], [-41.86122, -7.246216], [-41.86084, -7.244878], [-41.86066, -7.242018], [-41.85622, -7.24464], [-41.85564, -7.24489], [-41.85512, -7.244863], [-41.84943, -7.241614], [-41.84515, -7.241433], [-41.84113, -7.240342], [-41.83938, -7.239674], [-41.83436, -7.236819], [-41.82046, -7.231559], [-41.81895, -7.231175], [-41.81769, -7.23153], [-41.81585, -7.232263], [-41.81166, -7.23512], [-41.80347, -7.243935], [-41.80295, -7.243981], [-41.80225, -7.243427], [-41.80147, -7.243108], [-41.79836, -7.24349], [-41.79749, -7.243959], [-41.79666, -7.244835], [-41.79547, -7.245365], [-41.79428, -7.246892], [-41.79318, -7.247474], [-41.7927, -7.247547], [-41.79168, -7.247594], [-41.787, -7.246764], [-41.78617, -7.246493], [-41.78674, -7.252195], [-41.78676, -7.254195], [-41.78735, -7.256599], [-41.78932, -7.263075], [-41.78951, -7.265916]], [[-41.79514, -7.277213], [-41.79511, -7.274278], [-41.79664, -7.273526], [-41.79776, -7.274175], [-41.79993, -7.275802], [-41.80109, -7.276264], [-41.80316, -7.277824], [-41.80392, -7.280177], [-41.80291, -7.279951], [-41.80103, -7.278588], [-41.79907, -7.277938], [-41.79762, -7.279424], [-41.79503, -7.280541], [-41.79418, -7.280369], [-41.79514, -7.277213]], [[-41.81446, -7.28139], [-41.81487, -7.280773], [-41.81717, -7.279922], [-41.81733, -7.27791], [-41.81769, -7.277751], [-41.82053, -7.2789], [-41.8209, -7.28028], [-41.82003, -7.281103], [-41.81871, -7.281237], [-41.8145, -7.282465], [-41.81446, -7.28139]]]}}, 
{"type": "Feature", "properties": {"CD_SETOR": "221170405000011", "CD_SIT": "7", "NM_DIST": "Wall Ferraz", "NM_SUBDIST": null}, "geometry": {"type": "Polygon", "coordinates": [[[-41.81446, -7.28139], [-41.8145, -7.282465], [-41.81871, -7.281237], [-41.82003, -7.281103], [-41.8209, -7.28028], [-41.82053, -7.2789], [-41.81769, -7.277751], [-41.81733, -7.27791], [-41.81717, -7.279922], [-41.81487, -7.280773], [-41.81446, -7.28139]]]}}]}