{"type": "FeatureCollection", "features": [
{"type": "Feature", "properties": {"CD_SETOR": "260415505000001", "CD_SIT": "1", "NM_DIST": "Casinhas", "NM_SUBDIST": null}, "geometry": {"type": "Polygon", "coordinates": [[[-35.72164, -7.741149], [-35.7215, -7.741357], [-35.72163, -7.741719], [-35.7214, -7.741988], [-35.72126, -7.744199], [-35.72111, -7.744324], [-35.72148, -7.745179], [-35.72412, -7.744383], [-35.72524, -7.744583], [-35.72858, -7.745807], [-35.72949, -7.745996], [-35.7315, -7.744338], [-35.72981, -7.742597], [-35.72987, -7.741793], [-35.72955, -7.741546], [-35.7288, -7.740323], [-35.72861, -7.739603], [-35.7283, -7.739448], [-35.72816, -7.738896], [-35.72757, -7.738351], [-35.72771, -7.737853], [-35.72734, -7.7364], [-35.72559, -7.736106], [-35.72547, -7.737553], [-35.72584, -7.737618], [-35.72575, -7.738999], [-35.72561, -7.739598], [-35.72525, -7.739957], [-35.72536, -7.740653], [-35.72503, -7.741647], [-35.72164, -7.741149]]]}}, 
{"type": "Feature", "properties": {"CD_SETOR": "260415505000002", "CD_SIT": "1", "NM_DIST": "Casinhas", "NM_SUBDIST": null}, "geometry": {"type": "Polygon", "coordinates": [[[-35.72148, -7.745179], [-35.72172, -7.745522], [-35.72208, -7.74539], [-35.7225, -7.746692], [-35.72267, -7.746834], [-35.72339, -7.746556], [-35.72614, -7.746857], [-35.72609, -7.746363], [-35.72907, -7.746295], [-35.72949, -7.745996], [-35.72858, -7.745807], [-35.72524, -7.744583], [-35.72412, -7.744383], [-35.72148, -7.745179]]]}}, 
{"type": "Feature", "properties": {"CD_SETOR": "260415505000003", "CD_SIT": "8", "NM_DIST": "Casinhas", "NM_SUBDIST": null}, "geometry": {"type": "Polygon", "coordinates": [[[-35.68262, -7.728747], [-35.68439, -7.729245], [-35.68547, -7.728975], [-35.68632, -7.729022], [-35.68743, -7.728844], [-35.68814, -7.729392], [-35.69085, -7.730125], [-35.69133, -7.730095], [-35.69261, -7.729482], [-35.69431, -7.728104], [-35.69558, -7.728027], [-35.69571, -7.725806], [-35.69527, -7.725115], [-35.69329, -7.724048], [-35.69097, -7.720631], [-35.69074, -7.719566], [-35.69004, -7.719196], [-35.68948, -7.71916], [-35.68911, -7.719499], [-35.68696, -7.718857], [-35.68716, -7.717787], [-35.68696, -7.717644], [-35.68293, -7.717211], [-35.68266, -7.718434], [-35.68197, -7.7199], [-35.68173, -7.721321], [-35.68168, -7.725579], [-35.68176, -7.725697], [-35.68278, -7.725728], [-35.68262, -7.728747]]]}}, 
{"type": "Feature", "properties": {"CD_SETOR": "260415505000004", "CD_SIT": "8", "NM_DIST": "Casinhas", "NM_SUBDIST": null}, "geometry": {"type": "Polygon", "coordinates": [[[-35.67941, -7.739051], [-35.67983, -7.742124], [-35.67911, -7.7432], [-35.67908, -7.743658], [-35.67996, -7.744764], [-35.68069, -7.745121], [-35.68261, -7.748407], [-35.68362, -7.749469], [-35.6849, -7.750095], [-35.68619, -7.752055], [-35.68853, -7.753383], [-35.68957, -7.75461], [-35.69045, -7.755984], [-35.69224, -7.757473], [-35.69298, -7.758423], [-35.69481, -7.759075], [-35.69638, -7.760744], [-35.69739, -7.760841], [-35.69847, -7.761758], [-35.70014, -7.762465], [-35.70024, -7.762311], [-35.70296, -7.761783], [-35.70427, -7.763635], [-35.7048, -7.764789], [-35.7076, -7.765235], [-35.70829, -7.764681], [-35.7108, -7.761692], [-35.71212, -7.759467], [-35.71335, -7.758232], [-35.71349, -7.757224], [-35.71438, -7.754665], [-35.71498, -7.751159], [-35.70661, -7.750369], [-35.70596, -7.750012], [-35.70505, -7.749779], [-35.70464, -7.749422], [-35.70432, -7.748808], [-35.70254, -7.747731], [-35.70164, -7.747582], [-35.70025, -7.747883], [-35.70003, -7.747759], [-35.69771, -7.74614], [-35.69711, -7.744894], [-35.69661, -7.74464], [-35.69576, -7.743259], [-35.69484, -7.742454], [-35.69372, -7.740915], [-35.68957, -7.740382], [-35.68961, -7.739239], [-35.68936, -7.73889], [-35.68936, -7.73839], [-35.68896, -7.737945], [-35.68876, -7.737226], [-35.6884, -7.736905], [-35.68792, -7.735509], [-35.68718, -7.73448], [-35.68589, -7.733695], [-35.68574, -7.733196], [-35.68513, -7.732732], [-35.68344, -7.732161], [-35.68306, -7.731732], [-35.68293, -7.733535], [-35.68153, -7.73369], [-35.68054, -7.734054], [-35.68117, -7.735888], [-35.68127, -7.736956], [-35.68087, -7.73735], [-35.68036, -7.738481], [-35.67941, -7.739051]]]}}, 
{"type": "Feature", "properties": {"CD_SETOR": "260415505000005", "CD_SIT": "8", "NM_DIST": "Casinhas", "NM_SUBDIST": null}, "geometry": {"type": "Polygon", "coordinates": [[[-35.71498, -7.751159], [-35.71438, -7.754665], [-35.71349, -7.757224], [-35.71335, -7.758232], [-35.71212, -7.759467], [-35.7108, -7.761692], [-35.70799, -7.764944], [-35.70911, -7.765712], [-35.70981, -7.766584], [-35.70963, -7.76873], [-35.71009, -7.769282], [-35.7122, -7.769594], [-35.71213, -7.770623], [-35.71247, -7.770519], [-35.71298, -7.770014], [-35.71274, -7.769013], [-35.71309, -7.768382], [-35.71374, -7.767882], [-35.71589, -7.767926], [-35.71733, -7.767643], [-35.71787, -7.76736], [-35.72479, -7.768361], [-35.72596, -7.768208], [-35.72638, -7.767991], [-35.72681, -7.767251], [-35.7283, -7.766512], [-35.72865, -7.759248], [-35.7283, -7.758397], [-35.72622, -7.755552], [-35.7259, -7.754559], [-35.7257, -7.753139], [-35.72614, -7.746857], [-35.72339, -7.746556], [-35.72267, -7.746834], [-35.7225, -7.746692], [-35.72208, -7.74539], [-35.72172, -7.745522], [-35.72148, -7.745179], [-35.72055, -7.745686], [-35.71995, -7.746235], [-35.7186, -7.746801], [-35.71856, -7.747945], [-35.71583, -7.750156], [-35.71498, -7.751159]]]}}, 
{"type": "Feature", "properties": {"CD_SETOR": "260415505000006", "CD_SIT": "8", "NM_DIST": "Casinhas", "NM_SUBDIST": null}, "geometry": {"type": "Polygon", "coordinates": [[[-35.71213, -7.770623], [-35.71191, -7.771552], [-35.71202, -7.772635], [-35.71188, -7.77506], [-35.71237, -7.775679], [-35.7123, -7.777748], [-35.71278, -7.777974], [-35.71439, -7.7781], [-35.71504, -7.77934], [-35.71699, -7.78142], [-35.71711, -7.781726], [-35.71678, -7.785794], [-35.71756, -7.78646], [-35.71832, -7.786654], [-35.71919, -7.786188], [-35.72039, -7.784875], [-35.72066, -7.784847], [-35.72084, -7.785345], [-35.72099, -7.787492], [-35.72205, -7.789172], [-35.72403, -7.789494], [-35.72779, -7.790596], [-35.73035, -7.79202], [-35.73143, -7.792412], [-35.7324, -7.793154], [-35.73254, -7.792658], [-35.73381, -7.790716], [-35.73424, -7.789662], [-35.7341, -7.787009], [-35.73426, -7.78417], [-35.73338, -7.782743], [-35.73246, -7.77974], [-35.73082, -7.776388], [-35.72948, -7.771552], [-35.72823, -7.769118], [-35.7283, -7.766512], [-35.72681, -7.767251], [-35.72638, -7.767991], [-35.72596, -7.768208], [-35.72479, -7.768361], [-35.71787, -7.76736], [-35.71733, -7.767643], [-35.71589, -7.767926], [-35.71374, -7.767882], [-35.71309, -7.768382], [-35.71274, -7.769013], [-35.71298, -7.770014], [-35.71247, -7.770519], [-35.71213, -7.770623]]]}}, 
{"type": "Feature", "properties": {"CD_SETOR": "260415505000007", "CD_SIT": "8", "NM_DIST": "Casinhas", "NM_SUBDIST": null}, "geometry": {"type": "Polygon", "coordinates": [[[-35.74171, -7.782327], [-35.73996, -7.782195], [-35.7394, -7.787702], [-35.73873, -7.78775], [-35.73869, -7.787988], [-35.73781, -7.797862], [-35.74292, -7.79711], [-35.746, -7.797808], [-35.74701, -7.781539], [-35.74443, -7.781544], [-35.74349, -7.78196], [-35.74268, -7.782016], [-35.74171, -7.782327]]]}}, 
{"type": "Feature", "properties": {"CD_SETOR": "260415505000008", "CD_SIT": "8", "NM_DIST": "Casinhas", "NM_SUBDIST": null}, "geometry": {"type": "Polygon", "coordinates": [[[-35.74171, -7.782327], [-35.74268, -7.782016], [-35.74349, -7.78196], [-35.74443, -7.781544], [-35.74701, -7.781539], [-35.74803, -7.7665], [-35.74365, -7.766298], [-35.74334, -7.76972], [-35.74263, -7.769711], [-35.7425, -7.771471], [-35.74307, -7.772177], [-35.74283, -7.772503], [-35.74237, -7.77253], [-35.74185, -7.777894], [-35.74207, -7.778185], [-35.74171, -7.782327]]]}}, 
{"type": "Feature", "properties": {"CD_SETOR": "260415505000009", "CD_SIT": "8", "NM_DIST": "Casinhas", "NM_SUBDIST": null}, "geometry": {"type": "Polygon", "coordinates": [[[-35.75929, -7.767138], [-35.75909, -7.769098], [-35.75837, -7.769086], [-35.75806, -7.771664], [-35.75689, -7.771651], [-35.75699, -7.772271], [-35.75685, -7.772283], [-35.75668, -7.773736], [-35.75603, -7.773686], [-35.7565, -7.774728], [-35.75746, -7.7759], [-35.75843, -7.776553], [-35.75855, -7.776943], [-35.75797, -7.77862], [-35.75692, -7.7798], [-35.7555, -7.782333], [-35.7552, -7.782474], [-35.75439, -7.783495], [-35.75443, -7.784357], [-35.75569, -7.787642], [-35.75548, -7.788668], [-35.75322, -7.792256], [-35.75261, -7.795321], [-35.75266, -7.795856], [-35.75292, -7.796311], [-35.75323, -7.796695], [-35.75472, -7.797604], [-35.75525, -7.798641], [-35.75515, -7.800482], [-35.75423, -7.801376], [-35.75582, -7.801486], [-35.75674, -7.80171], [-35.75791, -7.802105], [-35.75891, -7.802794], [-35.75992, -7.803151], [-35.761, -7.80297], [-35.7601, -7.80224], [-35.7596, -7.79892], [-35.76003, -7.797219], [-35.7615, -7.79536], [-35.7618, -7.79328], [-35.76598, -7.787907], [-35.7666, -7.78652], [-35.7669, -7.78479], [-35.7674, -7.78426], [-35.76611, -7.775664], [-35.76607, -7.773681], [-35.76652, -7.771763], [-35.77142, -7.7652], [-35.77061, -7.765147], [-35.7689, -7.766144], [-35.76582, -7.766264], [-35.76479, -7.766831], [-35.76393, -7.766755], [-35.76202, -7.76723], [-35.75929, -7.767138]]]}}, 
{"type": "Feature", "properties": {"CD_SETOR": "260415505000010", "CD_SIT": "8", "NM_DIST": "Casinhas", "NM_SUBDIST": null}, "geometry": {"type": "Polygon", "coordinates": [[[-35.74822, -7.723302], [-35.74772, -7.724247], [-35.74816, -7.724581], [-35.74832, -7.724907], [-35.74818, -7.725982], [-35.74713, -7.726449], [-35.74689, -7.727494], [-35.74711, -7.728502], [-35.74715, -7.729891], [-35.74781, -7.731083], [-35.74816, -7.732767], [-35.7489, -7.734267], [-35.74869, -7.736405], [-35.75065, -7.736957], [-35.75198, -7.738154], [-35.75232, -7.739036], [-35.75334, -7.740778], [-35.75233, -7.758534], [-35.75242, -7.758666], [-35.75414, -7.758807], [-35.75401, -7.761716], [-35.75414, -7.762135], [-35.75412, -7.763372], [-35.75386, -7.763955], [-35.75376, -7.766671], [-35.76202, -7.76723], [-35.76393, -7.766755], [-35.76497, -7.7668], [-35.76582, -7.766264], [-35.7689, -7.766144], [-35.77061, -7.765147], [-35.77142, -7.7652], [-35.78991, -7.740436], [-35.78922, -7.740441], [-35.78657, -7.739043], [-35.78058, -7.738351], [-35.77533, -7.73416], [-35.77435, -7.732853], [-35.77294, -7.7321], [-35.76757, -7.726709], [-35.76485, -7.7249], [-35.759, -7.722414], [-35.75181, -7.723664], [-35.74822, -7.723302]]]}}, 
{"type": "Feature", "properties": {"CD_SETOR": "260415505000011", "CD_SIT": "8", "NM_DIST": "Casinhas", "NM_SUBDIST": null}, "geometry": {"type": "Polygon", "coordinates": [[[-35.68411, -7.707799], [-35.68504, -7.707233], [-35.68721, -7.707272], [-35.68798, -7.7069], [-35.68854, -7.708553], [-35.68967, -7.70871], [-35.68962, -7.709607], [-35.6931, -7.7107], [-35.69286, -7.710944], [-35.69635, -7.711504], [-35.70212, -7.711912], [-35.70304, -7.711643], [-35.70489, -7.711628], [-35.7064, -7.71104], [-35.70747, -7.710937], [-35.71067, -7.711369], [-35.71243, -7.711218], [-35.71313, -7.71147], [-35.71581, -7.714297], [-35.71648, -7.715362], [-35.71738, -7.717315], [-35.71825, -7.718065], [-35.71781, -7.718966], [-35.7171, -7.72158], [-35.71703, -7.722383], [-35.71727, -7.723146], [-35.71876, -7.724573], [-35.71942, -7.724352], [-35.72127, -7.725043], [-35.72261, -7.726037], [-35.72324, -7.726717], [-35.72499, -7.727193], [-35.72844, -7.729165], [-35.7314, -7.729379], [-35.7322, -7.729259], [-35.73384, -7.728296], [-35.73484, -7.727965], [-35.73601, -7.726942], [-35.7374, -7.726621], [-35.7381, -7.726135], [-35.73934, -7.726295], [-35.74002, -7.726181], [-35.74072, -7.725682], [-35.74223, -7.72505], [-35.74205, -7.724617], [-35.74331, -7.724273], [-35.74373, -7.723569], [-35.74725, -7.723205], [-35.74311, -7.713769], [-35.74138, -7.711922], [-35.73655, -7.709599], [-35.73225, -7.708467], [-35.72822, -7.707999], [-35.7214, -7.709462], [-35.71916, -7.708727], [-35.71692, -7.708584], [-35.71362, -7.70737], [-35.71161, -7.705215], [-35.70939, -7.698973], [-35.70819, -7.697347], [-35.70677, -7.695774], [-35.70008, -7.691857], [-35.69724, -7.69194], [-35.69535, -7.693974], [-35.69541, -7.696967], [-35.69372, -7.699781], [-35.68991, -7.700671], [-35.68411, -7.707799]]]}}, 
{"type": "Feature", "properties": {"CD_SETOR": "260415505000012", "CD_SIT": "5", "NM_DIST": "Casinhas", "NM_SUBDIST": null}, "geometry": {"type": "Polygon", "coordinates": [[[-35.74223, -7.72505], [-35.74392, -7.724986], [-35.74686, -7.724378], [-35.74742, -7.724468], [-35.74772, -7.724247], [-35.74822, -7.723302], [-35.74725, -7.723205], [-35.74373, -7.723569], [-35.74331, -7.724273], [-35.74205, -7.724617], [-35.74223, -7.72505]]]}}, 
{"type": "Feature", "properties": {"CD_SETOR": "260415505000013", "CD_SIT": "5", "NM_DIST": "Casinhas", "NM_SUBDIST": null}, "geometry": {"type": "Polygon", "coordinates": [[[-35.68149, -7.709315], [-35.6829, -7.710249], [-35.68295, -7.712048], [-35.68425, -7.712438], [-35.68457, -7.709518], [-35.68412, -7.708995], [-35.68387, -7.708087], [-35.68395, -7.707735], [-35.68186, -7.706914], [-35.68125, -7.706227], [-35.68093, -7.70449], [-35.67989, -7.703581], [-35.67896, -7.706644], [-35.68149, -7.709315]]]}}, 
{"type": "Feature", "properties": {"CD_SETOR": "260415505000014", "CD_SIT": "8", "NM_DIST": "Casinhas", "NM_SUBDIST": null}, "geometry": {"type": "Polygon", "coordinates": [[[-35.67432, -7.72343], [-35.67471, -7.72474], [-35.6741, -7.725317], [-35.67384, -7.725968], [-35.67442, -7.726754], [-35.67433, -7.727048], [-35.67366, -7.727432], [-35.67316, -7.728278], [-35.67377, -7.729102], [-35.6739, -7.729721], [-35.67455, -7.730996], [-35.67465, -7.731727], [-35.67514, -7.732344], [-35.67552, -7.732561], [-35.67565, -7.732919], [-35.67584, -7.734163], [-35.67586, -7.735949], [-35.67645, -7.736076], [-35.67836, -7.738471], [-35.67941, -7.739051], [-35.68036, -7.738481], [-35.68087, -7.73735], [-35.68127, -7.736956], [-35.68117, -7.735888], [-35.68054, -7.734054], [-35.68153, -7.73369], [-35.68293, -7.733535], [-35.68306, -7.731732], [-35.68151, -7.72989], [-35.68156, -7.728545], [-35.68262, -7.728747], [-35.68282, -7.72611], [-35.68278, -7.725728], [-35.68176, -7.725697], [-35.68168, -7.725579], [-35.68173, -7.721321], [-35.68197, -7.7199], [-35.68276, -7.718149], [-35.68301, -7.716768], [-35.68382, -7.715007], [-35.68425, -7.712438], [-35.68295, -7.712048], [-35.6829, -7.710249], [-35.68149, -7.709315], [-35.68147, -7.71037], [-35.68067, -7.711778], [-35.67867, -7.711985], [-35.67745, -7.712806], [-35.67608, -7.71803], [-35.6753, -7.71899], [-35.67454, -7.721945], [-35.67432, -7.72343]]]}}, 
{"type": "Feature", "properties": {"CD_SETOR": "260415505000015", "CD_SIT": "8", "NM_DIST": "Casinhas", "NM_SUBDIST": null}, "geometry": {"type": "Polygon", "coordinates": [[[-35.67224, -7.726435], [-35.66964, -7.73019], [-35.66728, -7.732034], [-35.66615, -7.737051], [-35.66418, -7.739006], [-35.65647, -7.743053], [-35.65478, -7.745156], [-35.65333, -7.745603], [-35.65202, -7.746597], [-35.6515, -7.747628], [-35.65216, -7.749893], [-35.65197, -7.750793], [-35.65058, -7.752899], [-35.64748, -7.753165], [-35.63964, -7.75783], [-35.644, -7.759711], [-35.65215, -7.759209], [-35.6535, -7.757392], [-35.65964, -7.757031], [-35.65925, -7.756146], [-35.6616, -7.755487], [-35.66268, -7.754903], [-35.66299, -7.754174], [-35.66453, -7.753618], [-35.66548, -7.7535], [-35.66649, -7.753722], [-35.66719, -7.753677], [-35.66788, -7.754105], [-35.67329, -7.754169], [-35.67453, -7.753905], [-35.67611, -7.75445], [-35.67674, -7.754169], [-35.67898, -7.753661], [-35.67971, -7.753005], [-35.68079, -7.752607], [-35.68132, -7.752206], [-35.68197, -7.750965], [-35.68221, -7.749997], [-35.68306, -7.748925], [-35.68261, -7.748407], [-35.68069, -7.745121], [-35.67996, -7.744764], [-35.67914, -7.7438], [-35.67911, -7.7432], [-35.67983, -7.742124], [-35.67941, -7.739051], [-35.67836, -7.738471], [-35.67645, -7.736076], [-35.67586, -7.735949], [-35.67584, -7.734163], [-35.67565, -7.732919], [-35.67552, -7.732561], [-35.67514, -7.732344], [-35.67465, -7.731727], [-35.67455, -7.730996], [-35.6739, -7.729721], [-35.67377, -7.729102], [-35.67316, -7.728278], [-35.67366, -7.727432], [-35.67433, -7.727048], [-35.67442, -7.726754], [-35.67384, -7.725968], [-35.6741, -7.725317], [-35.67471, -7.72474], [-35.67432, -7.72343], [-35.67224, -7.726435]]]}}, 
{"type": "Feature", "properties": {"CD_SETOR": "260415505000016", "CD_SIT": "8", "NM_DIST": "Casinhas", "NM_SUBDIST": null}, "geometry": {"type": "Polygon", "coordinates": [[[-35.65964, -7.757031], [-35.6621, -7.756886], [-35.66369, -7.755021], [-35.66527, -7.756416], [-35.67014, -7.756384], [-35.67209, -7.760439], [-35.67099, -7.775771], [-35.69041, -7.775655], [-35.69089, -7.774777], [-35.69246, -7.773975], [-35.69309, -7.774347], [-35.69408, -7.774397], [-35.69521, -7.773565], [-35.69653, -7.77311], [-35.6968, -7.772823], [-35.69701, -7.772129], [-35.69689, -7.770969], [-35.69698, -7.769552], [-35.69746, -7.76819], [-35.6986, -7.767072], [-35.69996, -7.766807], [-35.70113, -7.767572], [-35.70256, -7.768213], [-35.70351, -7.768433], [-35.70541, -7.768315], [-35.70597, -7.767674], [-35.70712, -7.765247], [-35.7048, -7.764789], [-35.70427, -7.763635], [-35.70296, -7.761783], [-35.70024, -7.762311], [-35.70014, -7.762465], [-35.69847, -7.761758], [-35.69739, -7.760841], [-35.69638, -7.760744], [-35.69481, -7.759075], [-35.69298, -7.758423], [-35.69224, -7.757473], [-35.69045, -7.755984], [-35.68957, -7.75461], [-35.68853, -7.753383], [-35.68619, -7.752055], [-35.6849, -7.750095], [-35.68362, -7.749469], [-35.68306, -7.748925], [-35.68221, -7.749997], [-35.68197, -7.750965], [-35.68132, -7.752206], [-35.68079, -7.752607], [-35.67971, -7.753005], [-35.67898, -7.753661], [-35.67674, -7.754169], [-35.67611, -7.75445], [-35.67453, -7.753905], [-35.67329, -7.754169], [-35.66788, -7.754105], [-35.66719, -7.753677], [-35.66649, -7.753722], [-35.66548, -7.7535], [-35.66453, -7.753618], [-35.66299, -7.754174], [-35.66268, -7.754903], [-35.6616, -7.755487], [-35.65925, -7.756146], [-35.65964, -7.757031]]]}}, 
{"type": "Feature", "properties": {"CD_SETOR": "260415505000017", "CD_SIT": "8", "NM_DIST": "Casinhas", "NM_SUBDIST": null}, "geometry": {"type": "Polygon", "coordinates": [[[-35.71678, -7.785794], [-35.71651, -7.788378], [-35.71548, -7.790142], [-35.71534, -7.790743], [-35.71546, -7.791967], [-35.71603, -7.794047], [-35.71579, -7.796302], [-35.71582, -7.797451], [-35.71559, -7.799341], [-35.71518, -7.800959], [-35.71658, -7.801495], [-35.71729, -7.80158], [-35.71923, -7.8007], [-35.72053, -7.800776], [-35.72106, -7.801925], [-35.72161, -7.802506], [-35.72238, -7.802768], [-35.72294, -7.803704], [-35.72332, -7.804031], [-35.72484, -7.804376], [-35.72529, -7.804609], [-35.72603, -7.805359], [-35.72853, -7.805811], [-35.73026, -7.806496], [-35.73056, -7.806805], [-35.73104, -7.804914], [-35.73229, -7.802617], [-35.73301, -7.800453], [-35.73346, -7.800015], [-35.73371, -7.799499], [-35.73347, -7.798368], [-35.73272, -7.797362], [-35.73309, -7.795448], [-35.7324, -7.793154], [-35.73143, -7.792412], [-35.73035, -7.79202], [-35.72779, -7.790596], [-35.72403, -7.789494], [-35.72205, -7.789172], [-35.72099, -7.787492], [-35.72084, -7.785345], [-35.72066, -7.784847], [-35.72039, -7.784875], [-35.71919, -7.786188], [-35.71832, -7.786654], [-35.71756, -7.78646], [-35.71678, -7.785794]]]}}, 
{"type": "Feature", "properties": {"CD_SETOR": "260415505000018", "CD_SIT": "8", "NM_DIST": "Casinhas", "NM_SUBDIST": null}, "geometry": {"type": "Polygon", "coordinates": [[[-35.70937, -7.817412], [-35.70922, -7.817407], [-35.7094, -7.817489], [-35.7103, -7.818897], [-35.71288, -7.818943], [-35.71802, -7.81978], [-35.72051, -7.821393], [-35.72074, -7.822461], [-35.7196, -7.823881], [-35.7184, -7.823856], [-35.71679, -7.822089], [-35.71584, -7.821464], [-35.71472, -7.821119], [-35.71333, -7.821002], [-35.71191, -7.821128], [-35.71128, -7.821896], [-35.7115, -7.823063], [-35.71155, -7.826453], [-35.71095, -7.825615], [-35.70965, -7.824958], [-35.7092, -7.823084], [-35.70904, -7.828722], [-35.70798, -7.831403], [-35.71167, -7.830495], [-35.71309, -7.829402], [-35.71413, -7.827766], [-35.71709, -7.82625], [-35.71758, -7.826699], [-35.71785, -7.829386], [-35.71995, -7.831323], [-35.72164, -7.83158], [-35.72368, -7.829923], [-35.72535, -7.827585], [-35.72573, -7.826943], [-35.72561, -7.825339], [-35.72746, -7.824725], [-35.7292, -7.823003], [-35.73043, -7.822593], [-35.73156, -7.820896], [-35.73215, -7.817756], [-35.73433, -7.815899], [-35.73528, -7.815972], [-35.73566, -7.81649], [-35.73851, -7.816873], [-35.73908, -7.817912], [-35.73925, -7.819675], [-35.73869, -7.821912], [-35.73989, -7.82106], [-35.74011, -7.820613], [-35.74154, -7.820305], [-35.74171, -7.819566], [-35.7408, -7.819893], [-35.74092, -7.819093], [-35.74071, -7.819179], [-35.73948, -7.815882], [-35.73973, -7.815452], [-35.73819, -7.814571], [-35.73692, -7.813587], [-35.73643, -7.812252], [-35.72937, -7.812338], [-35.72795, -7.811094], [-35.72783, -7.810483], [-35.72766, -7.810432], [-35.72771, -7.809293], [-35.72863, -7.809476], [-35.72857, -7.80912], [-35.72942, -7.808981], [-35.72959, -7.808039], [-35.73056, -7.806805], [-35.73026, -7.806496], [-35.72853, -7.805811], [-35.72603, -7.805359], [-35.72529, -7.804609], [-35.72484, -7.804376], [-35.72332, -7.804031], [-35.72294, -7.803704], [-35.72238, -7.802768], [-35.72161, -7.802506], [-35.72106, -7.801925], [-35.72053, -7.800776], [-35.71923, -7.8007], [-35.71757, -7.801521], [-35.71692, -7.801592], [-35.71321, -7.800266], [-35.71182, -7.799984], [-35.7115, -7.800222], [-35.70968, -7.799583], [-35.70941, -7.80024], [-35.70974, -7.804156], [-35.71084, -7.805386], [-35.71069, -7.808986], [-35.71116, -7.809901], [-35.71065, -7.810582], [-35.7113, -7.811678], [-35.71089, -7.813079], [-35.71217, -7.814664], [-35.7125, -7.816366], [-35.71065, -7.817457], [-35.70937, -7.817412]]]}}, 
{"type": "Feature", "properties": {"CD_SETOR": "260415505000019", "CD_SIT": "5", "NM_DIST": "Casinhas", "NM_SUBDIST": null}, "geometry": {"type": "Polygon", "coordinates": [[[-35.7092, -7.823084], [-35.70965, -7.824958], [-35.71095, -7.825615], [-35.71155, -7.826453], [-35.7115, -7.823063], [-35.71128, -7.821896], [-35.71191, -7.821128], [-35.71333, -7.821002], [-35.71472, -7.821119], [-35.71584, -7.821464], [-35.71679, -7.822089], [-35.7184, -7.823856], [-35.7196, -7.823881], [-35.72074, -7.822461], [-35.72051, -7.821393], [-35.71802, -7.81978], [-35.71288, -7.818943], [-35.7103, -7.818897], [-35.7094, -7.817489], [-35.70922, -7.817407], [-35.70873, -7.817851], [-35.70833, -7.819313], [-35.70847, -7.821549], [-35.7092, -7.823084]]]}}, 
{"type": "Feature", "properties": {"CD_SETOR": "260415505000020", "CD_SIT": "5", "NM_DIST": "Casinhas", "NM_SUBDIST": null}, "geometry": {"type": "Polygon", "coordinates": [[[-35.73819, -7.814571], [-35.73854, -7.813858], [-35.73743, -7.812282], [-35.73724, -7.811214], [-35.72942, -7.808981], [-35.72857, -7.80912], [-35.72863, -7.809476], [-35.72771, -7.809293], [-35.72766, -7.810432], [-35.72783, -7.810483], [-35.72795, -7.811094], [-35.72937, -7.812338], [-35.73643, -7.812252], [-35.73692, -7.813587], [-35.73819, -7.814571]]]}}, 
{"type": "Feature", "properties": {"CD_SETOR": "260415505000021", "CD_SIT": "2", "NM_DIST": "Casinhas", "NM_SUBDIST": null}, "geometry": {"type": "Polygon", "coordinates": [[[-35.73869, -7.821912], [-35.73923, -7.823283], [-35.74198, -7.825779], [-35.74247, -7.824753], [-35.74148, -7.821679], [-35.74111, -7.821697], [-35.74117, -7.820914], [-35.74154, -7.820305], [-35.74011, -7.820613], [-35.73989, -7.82106], [-35.73869, -7.821912]]]}}, 
{"type": "Feature", "properties": {"CD_SETOR": "260415505000022", "CD_SIT": "8", "NM_DIST": "Casinhas", "NM_SUBDIST": null}, "geometry": {"type": "Polygon", "coordinates": [[[-35.73743, -7.812282], [-35.73854, -7.813858], [-35.73819, -7.814571], [-35.73973, -7.815452], [-35.73983, -7.81526], [-35.74061, -7.815408], [-35.74068, -7.815009], [-35.7411, -7.814993], [-35.74115, -7.815508], [-35.74232, -7.818153], [-35.74209, -7.818235], [-35.74223, -7.818605], [-35.74193, -7.818713], [-35.74214, -7.819457], [-35.74171, -7.819566], [-35.74154, -7.820305], [-35.74117, -7.820914], [-35.74111, -7.821697], [-35.74148, -7.821679], [-35.74247, -7.824753], [-35.7429, -7.823931], [-35.74269, -7.820803], [-35.74425, -7.81656], [-35.74513, -7.815432], [-35.7508, -7.813953], [-35.75213, -7.811548], [-35.75232, -7.809252], [-35.75178, -7.805821], [-35.75318, -7.80448], [-35.75652, -7.803926], [-35.75833, -7.804791], [-35.75875, -7.80425], [-35.761, -7.80297], [-35.75992, -7.803151], [-35.75891, -7.802794], [-35.75791, -7.802105], [-35.75674, -7.80171], [-35.75582, -7.801486], [-35.75439, -7.801415], [-35.7534, -7.801084], [-35.75272, -7.800567], [-35.75166, -7.799053], [-35.75088, -7.798487], [-35.74908, -7.798306], [-35.74709, -7.797847], [-35.746, -7.797808], [-35.74313, -7.797129], [-35.74313, -7.798227], [-35.74283, -7.798853], [-35.74265, -7.800169], [-35.74265, -7.802818], [-35.74311, -7.80401], [-35.74379, -7.804608], [-35.7438, -7.805127], [-35.74469, -7.805595], [-35.74547, -7.805742], [-35.7454, -7.807886], [-35.74373, -7.807849], [-35.74367, -7.808628], [-35.74282, -7.809311], [-35.74254, -7.81122], [-35.74213, -7.811283], [-35.74202, -7.811875], [-35.74094, -7.811785], [-35.74069, -7.812038], [-35.73881, -7.812015], [-35.73743, -7.812282]]]}}, 
{"type": "Feature", "properties": {"CD_SETOR": "260415505000023", "CD_SIT": "8", "NM_DIST": "Casinhas", "NM_SUBDIST": null}, "geometry": {"type": "Polygon", "coordinates": [[[-35.74223, -7.72505], [-35.74072, -7.725682], [-35.73988, -7.726243], [-35.7381, -7.726135], [-35.7374, -7.726621], [-35.73601, -7.726942], [-35.73484, -7.727965], [-35.73384, -7.728296], [-35.7322, -7.729259], [-35.7314, -7.729379], [-35.72953, -7.729227], [-35.72889, -7.734303], [-35.72836, -7.736722], [-35.72804, -7.737096], [-35.72752, -7.738252], [-35.72816, -7.738896], [-35.7283, -7.739448], [-35.72861, -7.739603], [-35.7288, -7.740323], [-35.72955, -7.741546], [-35.72987, -7.741793], [-35.72981, -7.742597], [-35.7315, -7.744338], [-35.72907, -7.746295], [-35.72609, -7.746363], [-35.7257, -7.753139], [-35.7259, -7.754559], [-35.72622, -7.755552], [-35.7283, -7.758397], [-35.72865, -7.759248], [-35.7283, -7.766127], [-35.72921, -7.765884], [-35.72958, -7.765526], [-35.73032, -7.765535], [-35.74365, -7.766298], [-35.75215, -7.766496], [-35.75376, -7.766671], [-35.75386, -7.763955], [-35.75412, -7.763372], [-35.75414, -7.762135], [-35.75401, -7.761716], [-35.75414, -7.758807], [-35.75242, -7.758666], [-35.75233, -7.758534], [-35.75334, -7.740778], [-35.75232, -7.739036], [-35.75198, -7.738154], [-35.75065, -7.736957], [-35.74869, -7.736405], [-35.7489, -7.734267], [-35.74816, -7.732767], [-35.74781, -7.731083], [-35.74715, -7.729891], [-35.74711, -7.728502], [-35.74689, -7.727494], [-35.74713, -7.726449], [-35.74818, -7.725982], [-35.74832, -7.724907], [-35.74816, -7.724581], [-35.74771, -7.724244], [-35.74742, -7.724468], [-35.74676, -7.724392], [-35.74392, -7.724986], [-35.74223, -7.72505]]]}}, 
{"type": "Feature", "properties": {"CD_SETOR": "260415505000024", "CD_SIT": "8", "NM_DIST": "Casinhas", "NM_SUBDIST": null}, "geometry": {"type": "Polygon", "coordinates": [[[-35.73426, -7.78417], [-35.7341, -7.787009], [-35.73424, -7.789662], [-35.73366, -7.790993], [-35.73254, -7.792658], [-35.73238, -7.793293], [-35.73289, -7.794455], [-35.73309, -7.795448], [-35.73272, -7.797362], [-35.73361, -7.798733], [-35.73399, -7.798415], [-35.73483, -7.798457], [-35.73615, -7.797985], [-35.73781, -7.797862], [-35.73869, -7.787988], [-35.73873, -7.78775], [-35.7394, -7.787702], [-35.73996, -7.782195], [-35.7386, -7.782123], [-35.73734, -7.782425], [-35.73622, -7.782877], [-35.73426, -7.78417]]]}}, 
{"type": "Feature", "properties": {"CD_SETOR": "260415505000025", "CD_SIT": "8", "NM_DIST": "Casinhas", "NM_SUBDIST": null}, "geometry": {"type": "Polygon", "coordinates": [[[-35.7283, -7.766127], [-35.72823, -7.769118], [-35.72948, -7.771552], [-35.73082, -7.776388], [-35.73246, -7.77974], [-35.73338, -7.782743], [-35.73426, -7.78417], [-35.73622, -7.782877], [-35.73753, -7.782368], [-35.73921, -7.782073], [-35.74171, -7.782327], [-35.74207, -7.778185], [-35.74185, -7.777894], [-35.74237, -7.77253], [-35.74283, -7.772503], [-35.74307, -7.772177], [-35.7425, -7.771471], [-35.74263, -7.769711], [-35.74334, -7.76972], [-35.74365, -7.766298], [-35.72958, -7.765526], [-35.72921, -7.765884], [-35.7283, -7.766127]]]}}, 
{"type": "Feature", "properties": {"CD_SETOR": "260415505000026", "CD_SIT": "8", "NM_DIST": "Casinhas", "NM_SUBDIST": null}, "geometry": {"type": "Polygon", "coordinates": [[[-35.74803, -7.7665], [-35.746, -7.797808], [-35.74709, -7.797847], [-35.74908, -7.798306], [-35.75088, -7.798487], [-35.75166, -7.799053], [-35.75293, -7.800782], [-35.75423, -7.801376], [-35.75515, -7.800482], [-35.75525, -7.798641], [-35.75472, -7.797604], [-35.75323, -7.796695], [-35.75292, -7.796311], [-35.75266, -7.795856], [-35.75261, -7.795321], [-35.75322, -7.792256], [-35.75548, -7.788668], [-35.75569, -7.787642], [-35.75443, -7.784357], [-35.75439, -7.783495], [-35.7552, -7.782474], [-35.7555, -7.782333], [-35.75692, -7.7798], [-35.75797, -7.77862], [-35.75855, -7.776943], [-35.75843, -7.776553], [-35.75746, -7.7759], [-35.7565, -7.774728], [-35.75603, -7.773686], [-35.75668, -7.773736], [-35.75685, -7.772283], [-35.75699, -7.772271], [-35.75689, -7.771651], [-35.75806, -7.771664], [-35.75837, -7.769086], [-35.75909, -7.769098], [-35.75929, -7.767138], [-35.75215, -7.766496], [-35.74803, -7.7665]]]}}, 
{"type": "Feature", "properties": {"CD_SETOR": "260415505000027", "CD_SIT": "8", "NM_DIST": "Casinhas", "NM_SUBDIST": null}, "geometry": {"type": "Polygon", "coordinates": [[[-35.73781, -7.797862], [-35.73615, -7.797985], [-35.73483, -7.798457], [-35.73399, -7.798415], [-35.73361, -7.798733], [-35.73372, -7.799198], [-35.73363, -7.79978], [-35.73301, -7.800453], [-35.73229, -7.802617], [-35.73104, -7.804914], [-35.73056, -7.806805], [-35.72959, -7.808039], [-35.72942, -7.808981], [-35.73724, -7.811214], [-35.73743, -7.812282], [-35.73881, -7.812015], [-35.74069, -7.812038], [-35.74094, -7.811785], [-35.74202, -7.811875], [-35.74213, -7.811283], [-35.74254, -7.81122], [-35.74282, -7.809311], [-35.74367, -7.808628], [-35.74373, -7.807849], [-35.7454, -7.807886], [-35.74542, -7.807647], [-35.74547, -7.805742], [-35.74469, -7.805595], [-35.7438, -7.805127], [-35.74379, -7.804608], [-35.74311, -7.80401], [-35.74265, -7.802818], [-35.74265, -7.800169], [-35.74283, -7.798853], [-35.74313, -7.798227], [-35.74313, -7.797129], [-35.73781, -7.797862]]]}}, 
{"type": "Feature", "properties": {"CD_SETOR": "260415505000028", "CD_SIT": "5", "NM_DIST": "Casinhas", "NM_SUBDIST": null}, "geometry": {"type": "Polygon", "coordinates": [[[-35.68411, -7.707799], [-35.68395, -7.707735], [-35.68387, -7.708087], [-35.68412, -7.708995], [-35.68457, -7.709518], [-35.68432, -7.712242], [-35.68573, -7.712363], [-35.68574, -7.711712], [-35.68607, -7.711291], [-35.68538, -7.710628], [-35.68543, -7.710102], [-35.68558, -7.710102], [-35.68547, -7.709358], [-35.68568, -7.709038], [-35.68666, -7.709166], [-35.68665, -7.70937], [-35.68748, -7.709516], [-35.68736, -7.709988], [-35.68901, -7.710245], [-35.6892, -7.710742], [-35.69013, -7.711073], [-35.69022, -7.712395], [-35.69002, -7.712422], [-35.69004, -7.712776], [-35.69068, -7.712847], [-35.69112, -7.71183], [-35.69144, -7.711906], [-35.69164, -7.711041], [-35.69279, -7.711012], [-35.6931, -7.7107], [-35.68962, -7.709607], [-35.68967, -7.70871], [-35.68854, -7.708553], [-35.68798, -7.7069], [-35.68721, -7.707272], [-35.68504, -7.707233], [-35.68411, -7.707799]]]}}, 
{"type": "Feature", "properties": {"CD_SETOR": "260415505000029", "CD_SIT": "7", "NM_DIST": "Casinhas", "NM_SUBDIST": null}, "geometry": {"type": "Polygon", "coordinates": [[[-35.74171, -7.819566], [-35.74115, -7.818235], [-35.74109, -7.81726], [-35.74039, -7.815911], [-35.73973, -7.815452], [-35.73948, -7.815882], [-35.74071, -7.819179], [-35.74092, -7.819093], [-35.7408, -7.819893], [-35.74171, -7.819566]]]}}, 
{"type": "Feature", "properties": {"CD_SETOR": "260415505000030", "CD_SIT": "7", "NM_DIST": "Casinhas", "NM_SUBDIST": null}, "geometry": {"type": "Polygon", "coordinates": [[[-35.73973, -7.815452], [-35.74039, -7.815911], [-35.74109, -7.81726], [-35.74115, -7.818235], [-35.74171, -7.819566], [-35.74214, -7.819457], [-35.74193, -7.818713], [-35.74223, -7.818605], [-35.74209, -7.818235], [-35.74232, -7.818153], [-35.74115, -7.815508], [-35.7411, -7.814993], [-35.74068, -7.815009], [-35.74061, -7.815408], [-35.73983, -7.81526], [-35.73973, -7.815452]]]}}, 
{"type": "Feature", "properties": {"CD_SETOR": "260415505000031", "CD_SIT": "8", "NM_DIST": "Casinhas", "NM_SUBDIST": null}, "geometry": {"type": "Polygon", "coordinates": [[[-35.68432, -7.712242], [-35.68382, -7.715007], [-35.68293, -7.717211], [-35.68696, -7.717644], [-35.68716, -7.717787], [-35.68696, -7.718857], [-35.68911, -7.719499], [-35.68948, -7.71916], [-35.69004, -7.719196], [-35.69074, -7.719566], [-35.69097, -7.720631], [-35.69329, -7.724048], [-35.69527, -7.725115], [-35.69571, -7.725806], [-35.69563, -7.727919], [-35.69892, -7.729225], [-35.70011, -7.729249], [-35.70215, -7.728334], [-35.70402, -7.728093], [-35.70613, -7.72713], [-35.71154, -7.727448], [-35.71282, -7.735378], [-35.71307, -7.735821], [-35.71494, -7.737493], [-35.71707, -7.737622], [-35.71693, -7.73901], [-35.7182, -7.739281], [-35.71827, -7.740701], [-35.72503, -7.741647], [-35.72536, -7.740653], [-35.72525, -7.739957], [-35.72561, -7.739598], [-35.72575, -7.738999], [-35.72584, -7.737618], [-35.72547, -7.737553], [-35.72559, -7.736106], [-35.72734, -7.7364], [-35.72771, -7.737853], [-35.72836, -7.736722], [-35.72889, -7.734303], [-35.72953, -7.729227], [-35.72817, -7.729085], [-35.72499, -7.727193], [-35.72348, -7.726858], [-35.72127, -7.725043], [-35.71942, -7.724352], [-35.71876, -7.724573], [-35.71727, -7.723146], [-35.71703, -7.722383], [-35.7171, -7.72158], [-35.71781, -7.718966], [-35.71825, -7.718065], [-35.71738, -7.717315], [-35.71648, -7.715362], [-35.71581, -7.714297], [-35.71313, -7.71147], [-35.71243, -7.711218], [-35.71067, -7.711369], [-35.7069, -7.710945], [-35.70489, -7.711628], [-35.70304, -7.711643], [-35.70245, -7.711862], [-35.70123, -7.711933], [-35.69635, -7.711504], [-35.69286, -7.710944], [-35.69164, -7.711041], [-35.69144, -7.711906], [-35.69112, -7.71183], [-35.69068, -7.712847], [-35.69004, -7.712776], [-35.69002, -7.712422], [-35.69022, -7.712395], [-35.69013, -7.711073], [-35.6892, -7.710742], [-35.68901, -7.710245], [-35.68736, -7.709988], [-35.68748, -7.709516], [-35.68665, -7.70937], [-35.68666, -7.709166], [-35.68568, -7.709038], [-35.68547, -7.709358], [-35.68558, -7.710102], [-35.68543, -7.710102], [-35.68538, -7.710628], [-35.68607, -7.711291], [-35.68574, -7.711712], [-35.68573, -7.712363], [-35.68432, -7.712242]]]}}, 
{"type": "Feature", "properties": {"CD_SETOR": "260415505000032", "CD_SIT": "8", "NM_DIST": "Casinhas", "NM_SUBDIST": null}, "geometry": {"type": "Polygon", "coordinates": [[[-35.69563, -7.727919], [-35.69431, -7.728104], [-35.69261, -7.729482], [-35.69133, -7.730095], [-35.69085, -7.730125], [-35.68814, -7.729392], [-35.68743, -7.728844], [-35.68632, -7.729022], [-35.68547, -7.728975], [-35.68439, -7.729245], [-35.68171, -7.728513], [-35.68152, -7.728766], [-35.68151, -7.72989], [-35.68344, -7.732161], [-35.68513, -7.732732], [-35.68574, -7.733196], [-35.68589, -7.733695], [-35.68718, -7.73448], [-35.68792, -7.735509], [-35.6884, -7.736905], [-35.68876, -7.737226], [-35.68896, -7.737945], [-35.68936, -7.73839], [-35.68936, -7.73889], [-35.68961, -7.739239], [-35.68957, -7.740382], [-35.69372, -7.740915], [-35.69484, -7.742454], [-35.69576, -7.743259], [-35.69661, -7.74464], [-35.69711, -7.744894], [-35.69771, -7.74614], [-35.70025, -7.747883], [-35.70164, -7.747582], [-35.70254, -7.747731], [-35.70432, -7.748808], [-35.70464, -7.749422], [-35.70505, -7.749779], [-35.70596, -7.750012], [-35.70661, -7.750369], [-35.71498, -7.751159], [-35.71583, -7.750156], [-35.71856, -7.747945], [-35.7186, -7.746801], [-35.71995, -7.746235], [-35.72055, -7.745686], [-35.72148, -7.745179], [-35.72111, -7.744324], [-35.72126, -7.744199], [-35.7214, -7.741988], [-35.72163, -7.741719], [-35.7215, -7.741357], [-35.72164, -7.741149], [-35.71827, -7.740701], [-35.7182, -7.739281], [-35.71693, -7.73901], [-35.71707, -7.737622], [-35.71494, -7.737493], [-35.71307, -7.735821], [-35.71282, -7.735378], [-35.71154, -7.727448], [-35.70613, -7.72713], [-35.70402, -7.728093], [-35.70215, -7.728334], [-35.70011, -7.729249], [-35.69892, -7.729225], [-35.69563, -7.727919]]]}}, 
{"type": "Feature", "properties": {"CD_SETOR": "260415505000033", "CD_SIT": "8", "NM_DIST": "Casinhas", "NM_SUBDIST": null}, "geometry": {"type": "Polygon", "coordinates": [[[-35.70712, -7.765247], [-35.70597, -7.767674], [-35.70541, -7.768315], [-35.70351, -7.768433], [-35.70256, -7.768213], [-35.70113, -7.767572], [-35.69996, -7.766807], [-35.6986, -7.767072], [-35.69746, -7.76819], [-35.69698, -7.769552], [-35.69689, -7.770969], [-35.69701, -7.772129], [-35.6968, -7.772823], [-35.69653, -7.77311], [-35.69521, -7.773565], [-35.69408, -7.774397], [-35.69309, -7.774347], [-35.69246, -7.773975], [-35.69089, -7.774777], [-35.69041, -7.775655], [-35.70575, -7.775564], [-35.70618, -7.77843], [-35.70677, -7.780147], [-35.70764, -7.781166], [-35.70805, -7.782434], [-35.70823, -7.783417], [-35.70781, -7.786514], [-35.70835, -7.786934], [-35.70968, -7.790299], [-35.71117, -7.791964], [-35.71071, -7.793916], [-35.71034, -7.794445], [-35.71056, -7.795884], [-35.70965, -7.797282], [-35.70996, -7.798877], [-35.70968, -7.799583], [-35.7115, -7.800222], [-35.71182, -7.799984], [-35.71321, -7.800266], [-35.71518, -7.800959], [-35.71559, -7.799341], [-35.71582, -7.797451], [-35.71579, -7.796302], [-35.71603, -7.794047], [-35.71546, -7.791967], [-35.71534, -7.790743], [-35.71548, -7.790142], [-35.71651, -7.788378], [-35.71711, -7.781726], [-35.71588, -7.780093], [-35.71504, -7.77934], [-35.71439, -7.7781], [-35.71278, -7.777974], [-35.7123, -7.777748], [-35.71237, -7.775679], [-35.71188, -7.77506], [-35.71202, -7.772635], [-35.71191, -7.771552], [-35.7122, -7.769594], [-35.71009, -7.769282], [-35.70963, -7.76873], [-35.70981, -7.766584], [-35.70911, -7.765712], [-35.70799, -7.764944], [-35.7076, -7.765235], [-35.70712, -7.765247]]]}}]}