{"type": "FeatureCollection", "features": [
{"type": "Feature", "properties": {"CD_SETOR": "270010205000003", "CD_SIT": "1", "NM_DIST": "Água Branca", "NM_SUBDIST": null}, "geometry": {"type": "Polygon", "coordinates": [[[-37.93214, -9.264532], [-37.93137, -9.264776], [-37.93077, -9.265265], [-37.93134, -9.266202], [-37.93197, -9.265631], [-37.93379, -9.267924], [-37.93523, -9.266758], [-37.93513, -9.266656], [-37.93609, -9.266198], [-37.93532, -9.264409], [-37.93553, -9.264334], [-37.93511, -9.263313], [-37.93559, -9.26305], [-37.93513, -9.262771], [-37.93214, -9.264532]]]}}, 
{"type": "Feature", "properties": {"CD_SETOR": "270010205000004", "CD_SIT": "5", "NM_DIST": "Água Branca", "NM_SUBDIST": null}, "geometry": {"type": "Polygon", "coordinates": [[[-37.97766, -9.273575], [-37.97684, -9.274222], [-37.9765, -9.273845], [-37.97552, -9.274902], [-37.97464, -9.274415], [-37.9745, -9.274549], [-37.97526, -9.275424], [-37.9752, -9.276358], [-37.97569, -9.276945], [-37.97657, -9.277308], [-37.97688, -9.277254], [-37.97716, -9.276846], [-37.97711, -9.275811], [-37.97778, -9.27596], [-37.97772, -9.27472], [-37.97843, -9.274163], [-37.97774, -9.273505], [-37.97766, -9.273575]]]}}, 
{"type": "Feature", "properties": {"CD_SETOR": "270010205000009", "CD_SIT": "8", "NM_DIST": "Água Branca", "NM_SUBDIST": null}, "geometry": {"type": "Polygon", "coordinates": [[[-37.93966, -9.179099], [-37.93705, -9.181649], [-37.93325, -9.186591], [-37.93176, -9.187733], [-37.92975, -9.188602], [-37.92805, -9.188734], [-37.92654, -9.189212], [-37.92483, -9.189181], [-37.92139, -9.190858], [-37.9202, -9.191654], [-37.91956, -9.191864], [-37.91531, -9.194861], [-37.91404, -9.195055], [-37.91297, -9.196011], [-37.91238, -9.196113], [-37.91241, -9.196947], [-37.91227, -9.197175], [-37.91284, -9.19914], [-37.91296, -9.201019], [-37.91479, -9.201179], [-37.91532, -9.20173], [-37.91621, -9.20215], [-37.91741, -9.203231], [-37.91814, -9.203451], [-37.91905, -9.203981], [-37.91938, -9.204449], [-37.91948, -9.206319], [-37.92056, -9.20831], [-37.92057, -9.208583], [-37.91943, -9.210722], [-37.91942, -9.211672], [-37.9197, -9.212356], [-37.91944, -9.214723], [-37.91985, -9.215654], [-37.91927, -9.216911], [-37.91899, -9.218338], [-37.91905, -9.218867], [-37.92033, -9.221811], [-37.92104, -9.224], [-37.9229, -9.227697], [-37.92408, -9.228537], [-37.92474, -9.22991], [-37.92585, -9.23076], [-37.92544, -9.233364], [-37.9246, -9.235447], [-37.92345, -9.236508], [-37.92003, -9.241146], [-37.91965, -9.241829], [-37.91924, -9.243484], [-37.92248, -9.245425], [-37.92293, -9.245881], [-37.92384, -9.247802], [-37.92608, -9.249354], [-37.92824, -9.250306], [-37.92897, -9.250849], [-37.92931, -9.25153], [-37.93035, -9.247565], [-37.93073, -9.247632], [-37.93127, -9.247178], [-37.93134, -9.245943], [-37.9312, -9.245583], [-37.93261, -9.244608], [-37.93347, -9.244407], [-37.93403, -9.244516], [-37.93422, -9.244196], [-37.93478, -9.24382], [-37.93587, -9.241877], [-37.93557, -9.240376], [-37.93453, -9.239023], [-37.93522, -9.238527], [-37.93661, -9.23704], [-37.93717, -9.237653], [-37.93748, -9.237723], [-37.93999, -9.236342], [-37.94137, -9.234245], [-37.94094, -9.233893], [-37.93982, -9.233485], [-37.93784, -9.232387], [-37.93509, -9.229535], [-37.93467, -9.22892], [-37.93429, -9.227707], [-37.93434, -9.227032], [-37.93393, -9.226173], [-37.93355, -9.225566], [-37.93301, -9.225164], [-37.93233, -9.223138], [-37.93144, -9.221974], [-37.93058, -9.221178], [-37.92999, -9.219819], [-37.92909, -9.21558], [-37.92907, -9.215074], [-37.9293, -9.214322], [-37.92914, -9.21309], [-37.92934, -9.212264], [-37.93004, -9.211334], [-37.93451, -9.208812], [-37.93604, -9.207017], [-37.93622, -9.206606], [-37.93503, -9.200828], [-37.93536, -9.199212], [-37.93569, -9.198791], [-37.93832, -9.196731], [-37.93929, -9.196464], [-37.93951, -9.196174], [-37.93937, -9.195888], [-37.93966, -9.195201], [-37.94044, -9.194232], [-37.94134, -9.193884], [-37.94185, -9.193254], [-37.9424, -9.193174], [-37.9433, -9.192228], [-37.94462, -9.191205], [-37.94484, -9.190841], [-37.94661, -9.190261], [-37.9475, -9.189794], [-37.94912, -9.18951], [-37.94966, -9.189196], [-37.94988, -9.188746], [-37.95078, -9.188692], [-37.95319, -9.187603], [-37.95335, -9.187057], [-37.95432, -9.186456], [-37.9546, -9.185868], [-37.95496, -9.185534], [-37.95543, -9.185409], [-37.95535, -9.184737], [-37.9561, -9.184664], [-37.95679, -9.184191], [-37.95838, -9.181592], [-37.95914, -9.181579], [-37.95714, -9.179444], [-37.95708, -9.177576], [-37.95682, -9.176699], [-37.95647, -9.176545], [-37.95455, -9.176923], [-37.95379, -9.176602], [-37.95338, -9.176635], [-37.95193, -9.178222], [-37.94985, -9.178603], [-37.94897, -9.179376], [-37.9476, -9.179852], [-37.9469, -9.179818], [-37.94431, -9.179002], [-37.94325, -9.17815], [-37.9421, -9.177598], [-37.94133, -9.177951], [-37.94087, -9.178457], [-37.94079, -9.17949], [-37.94055, -9.18005], [-37.93999, -9.179292], [-37.93966, -9.179099]]]}}, 
{"type": "Feature", "properties": {"CD_SETOR": "270010205000011", "CD_SIT": "8", "NM_DIST": "Água Branca", "NM_SUBDIST": null}, "geometry": {"type": "Polygon", "coordinates": [[[-37.89188, -9.239622], [-37.89142, -9.239513], [-37.88999, -9.23857], [-37.88913, -9.238242], [-37.88829, -9.237603], [-37.88803, -9.235719], [-37.88735, -9.234725], [-37.88738, -9.23451], [-37.8869, -9.234307], [-37.88676, -9.23392], [-37.88655, -9.231612], [-37.88517, -9.224928], [-37.88438, -9.224823], [-37.88388, -9.224542], [-37.88371, -9.224199], [-37.88268, -9.224363], [-37.88221, -9.224771], [-37.88218, -9.225148], [-37.88112, -9.225628], [-37.8801, -9.225581], [-37.87956, -9.225766], [-37.87965, -9.226714], [-37.87913, -9.226869], [-37.87875, -9.22747], [-37.87786, -9.228117], [-37.87802, -9.22897], [-37.87863, -9.229868], [-37.87797, -9.230719], [-37.8769, -9.2312], [-37.87723, -9.231932], [-37.87691, -9.232619], [-37.87564, -9.232426], [-37.87452, -9.231978], [-37.87363, -9.232134], [-37.87161, -9.233401], [-37.8719, -9.234046], [-37.87118, -9.234165], [-37.87071, -9.234011], [-37.87001, -9.234678], [-37.86925, -9.235031], [-37.86874, -9.2359], [-37.86862, -9.237563], [-37.86825, -9.238446], [-37.8679, -9.24109], [-37.86707, -9.24342], [-37.86616, -9.246752], [-37.86497, -9.249292], [-37.86463, -9.250833], [-37.86497, -9.252053], [-37.86786, -9.252528], [-37.87091, -9.25556], [-37.8719, -9.257001], [-37.87358, -9.261584], [-37.87651, -9.263628], [-37.87751, -9.264147], [-37.87916, -9.266222], [-37.88026, -9.268514], [-37.88161, -9.270236], [-37.88292, -9.272295], [-37.88579, -9.274355], [-37.8876, -9.2761], [-37.88875, -9.276435], [-37.89054, -9.276441], [-37.89201, -9.276702], [-37.89243, -9.276069], [-37.89329, -9.27663], [-37.89392, -9.275634], [-37.89419, -9.275505], [-37.89403, -9.275258], [-37.89255, -9.263456], [-37.89225, -9.26321], [-37.8922, -9.262795], [-37.89327, -9.261553], [-37.89288, -9.260712], [-37.89286, -9.259426], [-37.8932, -9.258497], [-37.8939, -9.25771], [-37.89446, -9.256391], [-37.895, -9.253709], [-37.89428, -9.252555], [-37.89411, -9.251614], [-37.89372, -9.25097], [-37.89332, -9.249627], [-37.89285, -9.248912], [-37.89221, -9.246783], [-37.89234, -9.245426], [-37.89259, -9.244524], [-37.8931, -9.243813], [-37.89324, -9.242851], [-37.89286, -9.242139], [-37.89286, -9.241709], [-37.89202, -9.241654], [-37.89187, -9.241376], [-37.89188, -9.239622]]]}}, 
{"type": "Feature", "properties": {"CD_SETOR": "270010205000012", "CD_SIT": "8", "NM_DIST": "Água Branca", "NM_SUBDIST": null}, "geometry": {"type": "Polygon", "coordinates": [[[-37.8395, -9.214804], [-37.83339, -9.221203], [-37.83581, -9.223827], [-37.83651, -9.224972], [-37.83735, -9.225951], [-37.83623, -9.228291], [-37.83616, -9.229064], [-37.83645, -9.229844], [-37.83623, -9.230693], [-37.83466, -9.232088], [-37.8339, -9.232203], [-37.83362, -9.232049], [-37.83314, -9.232688], [-37.83248, -9.232234], [-37.83165, -9.232845], [-37.83142, -9.233402], [-37.83138, -9.234568], [-37.83152, -9.234918], [-37.83143, -9.23525], [-37.83169, -9.235789], [-37.83157, -9.236151], [-37.83122, -9.236266], [-37.83105, -9.236552], [-37.83033, -9.236729], [-37.82997, -9.23662], [-37.83005, -9.236274], [-37.82928, -9.236182], [-37.82867, -9.236664], [-37.82835, -9.237438], [-37.82931, -9.237851], [-37.82968, -9.238341], [-37.83011, -9.238556], [-37.82997, -9.239044], [-37.83022, -9.239376], [-37.83022, -9.23991], [-37.83074, -9.24023], [-37.83058, -9.240414], [-37.83064, -9.240622], [-37.83006, -9.24099], [-37.82967, -9.241005], [-37.82921, -9.240979], [-37.82896, -9.240787], [-37.82833, -9.240791], [-37.82814, -9.240535], [-37.82777, -9.240547], [-37.82781, -9.240907], [-37.82765, -9.241191], [-37.82781, -9.241794], [-37.82732, -9.241709], [-37.82694, -9.242019], [-37.82609, -9.242298], [-37.82618, -9.24237], [-37.82583, -9.242631], [-37.82544, -9.242533], [-37.82516, -9.24293], [-37.8254, -9.243591], [-37.82627, -9.244432], [-37.82796, -9.245521], [-37.82832, -9.246145], [-37.82833, -9.2465], [-37.82765, -9.24632], [-37.82759, -9.246451], [-37.82773, -9.247075], [-37.82723, -9.24805], [-37.82698, -9.249817], [-37.82624, -9.250069], [-37.82614, -9.25023], [-37.82603, -9.251166], [-37.82654, -9.251874], [-37.82629, -9.25302], [-37.82564, -9.253838], [-37.8257, -9.254686], [-37.82632, -9.254932], [-37.82682, -9.255798], [-37.82723, -9.255972], [-37.82761, -9.256519], [-37.82711, -9.256971], [-37.82728, -9.258671], [-37.82686, -9.259171], [-37.8268, -9.260568], [-37.8266, -9.261033], [-37.82695, -9.261951], [-37.82704, -9.262944], [-37.82801, -9.263178], [-37.82785, -9.263478], [-37.82795, -9.264313], [-37.82678, -9.265785], [-37.82629, -9.266802], [-37.82638, -9.267148], [-37.82744, -9.26722], [-37.82722, -9.267867], [-37.82748, -9.26834], [-37.82832, -9.26859], [-37.82837, -9.267809], [-37.8286, -9.267642], [-37.82906, -9.267669], [-37.83064, -9.267178], [-37.83087, -9.267502], [-37.83148, -9.267367], [-37.83507, -9.268288], [-37.83638, -9.268374], [-37.83736, -9.269237], [-37.83839, -9.269119], [-37.83945, -9.269435], [-37.84078, -9.269498], [-37.84411, -9.268928], [-37.84683, -9.268856], [-37.84811, -9.268428], [-37.84997, -9.267324], [-37.85256, -9.266443], [-37.85341, -9.267124], [-37.85384, -9.266984], [-37.85384, -9.266443], [-37.85431, -9.266398], [-37.85433, -9.266011], [-37.85463, -9.265957], [-37.85523, -9.265295], [-37.85501, -9.264686], [-37.8545, -9.264547], [-37.85406, -9.264011], [-37.85416, -9.263889], [-37.85437, -9.263952], [-37.85446, -9.263538], [-37.85481, -9.263421], [-37.85469, -9.262981], [-37.85514, -9.26295], [-37.85474, -9.262211], [-37.85475, -9.261859], [-37.85538, -9.261468], [-37.85507, -9.261188], [-37.85475, -9.260485], [-37.85512, -9.260161], [-37.85622, -9.259742], [-37.85591, -9.259219], [-37.85623, -9.258994], [-37.85652, -9.259274], [-37.85762, -9.259616], [-37.85824, -9.259296], [-37.85819, -9.259066], [-37.85846, -9.258634], [-37.85829, -9.258147], [-37.85862, -9.257289], [-37.8586, -9.25682], [-37.85886, -9.256577], [-37.85932, -9.256897], [-37.85961, -9.256037], [-37.86017, -9.255964], [-37.86061, -9.255658], [-37.86069, -9.255318], [-37.86097, -9.255399], [-37.86126, -9.255201], [-37.86103, -9.254876], [-37.86181, -9.254381], [-37.86161, -9.253989], [-37.86171, -9.252917], [-37.86182, -9.252691], [-37.86252, -9.252421], [-37.86228, -9.251862], [-37.86252, -9.251637], [-37.86306, -9.25188], [-37.86368, -9.251403], [-37.86497, -9.252053], [-37.86463, -9.250833], [-37.86488, -9.24957], [-37.86616, -9.246752], [-37.86707, -9.24342], [-37.86785, -9.241243], [-37.86825, -9.238446], [-37.86862, -9.237563], [-37.86874, -9.2359], [-37.86925, -9.235031], [-37.87001, -9.234678], [-37.87071, -9.234011], [-37.87118, -9.234165], [-37.8719, -9.234046], [-37.87161, -9.233401], [-37.87363, -9.232134], [-37.87452, -9.231978], [-37.87564, -9.232426], [-37.87691, -9.232619], [-37.87723, -9.231932], [-37.8769, -9.2312], [-37.87797, -9.230719], [-37.87863, -9.229868], [-37.87802, -9.22897], [-37.87786, -9.228117], [-37.87875, -9.22747], [-37.87913, -9.226869], [-37.87965, -9.226714], [-37.87956, -9.225766], [-37.8801, -9.225581], [-37.88112, -9.225628], [-37.88218, -9.225148], [-37.88221, -9.224771], [-37.88268, -9.224361], [-37.87877, -9.221898], [-37.87829, -9.22145], [-37.87792, -9.220245], [-37.87661, -9.218645], [-37.87617, -9.216367], [-37.87555, -9.216936], [-37.87456, -9.216465], [-37.87349, -9.215588], [-37.87258, -9.215308], [-37.87076, -9.215604], [-37.86991, -9.216165], [-37.86885, -9.215535], [-37.86849, -9.215009], [-37.86589, -9.213304], [-37.86509, -9.213112], [-37.86434, -9.212662], [-37.86361, -9.211855], [-37.86185, -9.210467], [-37.85909, -9.208656], [-37.85876, -9.207914], [-37.85872, -9.206912], [-37.85847, -9.205939], [-37.85725, -9.204914], [-37.85692, -9.204775], [-37.85658, -9.205096], [-37.85564, -9.204356], [-37.85265, -9.201039], [-37.8395, -9.214804]]]}}, 
{"type": "Feature", "properties": {"CD_SETOR": "270010205000015", "CD_SIT": "5", "NM_DIST": "Água Branca", "NM_SUBDIST": null}, "geometry": {"type": "Polygon", "coordinates": [[[-37.89152, -9.341672], [-37.8908, -9.341364], [-37.89001, -9.341836], [-37.89001, -9.342389], [-37.89079, -9.342553], [-37.89085, -9.344003], [-37.89047, -9.347457], [-37.89185, -9.347542], [-37.89243, -9.344339], [-37.89223, -9.342871], [-37.89297, -9.34262], [-37.89357, -9.344186], [-37.89343, -9.344669], [-37.89388, -9.344921], [-37.89391, -9.345589], [-37.89323, -9.346008], [-37.89356, -9.346771], [-37.89461, -9.346679], [-37.89511, -9.345331], [-37.89544, -9.342779], [-37.89474, -9.342598], [-37.89371, -9.342005], [-37.89163, -9.342162], [-37.89152, -9.341672]]]}}, 
{"type": "Feature", "properties": {"CD_SETOR": "270010205000016", "CD_SIT": "5", "NM_DIST": "Água Branca", "NM_SUBDIST": null}, "geometry": {"type": "Polygon", "coordinates": [[[-37.90631, -9.356223], [-37.90627, -9.355456], [-37.9066, -9.355409], [-37.90618, -9.352326], [-37.90528, -9.352016], [-37.90542, -9.350507], [-37.90453, -9.350197], [-37.9041, -9.352443], [-37.90375, -9.353273], [-37.90346, -9.353582], [-37.9019, -9.353473], [-37.90187, -9.353798], [-37.90092, -9.353706], [-37.90177, -9.354644], [-37.90137, -9.354971], [-37.90131, -9.355387], [-37.90166, -9.355733], [-37.90103, -9.356346], [-37.90344, -9.357256], [-37.9039, -9.355981], [-37.90426, -9.355567], [-37.90561, -9.35654], [-37.90631, -9.356223]]]}}, 
{"type": "Feature", "properties": {"CD_SETOR": "270010205000017", "CD_SIT": "8", "NM_DIST": "Água Branca", "NM_SUBDIST": null}, "geometry": {"type": "Polygon", "coordinates": [[[-37.90951, -9.308748], [-37.91059, -9.308989], [-37.91055, -9.309737], [-37.91127, -9.310676], [-37.91148, -9.312865], [-37.9112, -9.31483], [-37.91031, -9.315873], [-37.90958, -9.319127], [-37.90906, -9.319957], [-37.90918, -9.320818], [-37.90905, -9.322053], [-37.90976, -9.32348], [-37.91144, -9.324485], [-37.91291, -9.325818], [-37.91287, -9.326504], [-37.91366, -9.327259], [-37.91703, -9.328306], [-37.91887, -9.329049], [-37.91975, -9.329504], [-37.92029, -9.330307], [-37.92085, -9.330726], [-37.92161, -9.330657], [-37.92204, -9.330833], [-37.92177, -9.333863], [-37.9223, -9.33994], [-37.92224, -9.341146], [-37.92186, -9.342716], [-37.92096, -9.342971], [-37.92058, -9.343455], [-37.92037, -9.344119], [-37.91992, -9.344526], [-37.91835, -9.344634], [-37.91723, -9.345004], [-37.91531, -9.346374], [-37.91433, -9.346546], [-37.91119, -9.347932], [-37.90843, -9.349862], [-37.90511, -9.350407], [-37.90542, -9.350507], [-37.90528, -9.352016], [-37.90618, -9.352326], [-37.90639, -9.353299], [-37.9066, -9.355409], [-37.90627, -9.355456], [-37.90631, -9.356223], [-37.90971, -9.357555], [-37.91093, -9.358343], [-37.91216, -9.358458], [-37.91707, -9.360344], [-37.91817, -9.361361], [-37.91944, -9.36178], [-37.92065, -9.362779], [-37.92186, -9.364098], [-37.92945, -9.368881], [-37.93395, -9.372649], [-38.00024, -9.336117], [-37.94251, -9.315424], [-37.91618, -9.310127], [-37.91678, -9.30717], [-37.91539, -9.306757], [-37.91075, -9.303566], [-37.90951, -9.308748]]]}}, 
{"type": "Feature", "properties": {"CD_SETOR": "270010205000022", "CD_SIT": "5", "NM_DIST": "Água Branca", "NM_SUBDIST": null}, "geometry": {"type": "Polygon", "coordinates": [[[-37.90471, -9.30095], [-37.90525, -9.307918], [-37.90952, -9.308748], [-37.91088, -9.303012], [-37.90822, -9.299933], [-37.90465, -9.300192], [-37.90471, -9.30095]]]}}, 
{"type": "Feature", "properties": {"CD_SETOR": "270010205000031", "CD_SIT": "5", "NM_DIST": "Água Branca", "NM_SUBDIST": null}, "geometry": {"type": "Polygon", "coordinates": [[[-37.95853, -9.278432], [-37.96482, -9.285916], [-37.96683, -9.284424], [-37.96469, -9.283237], [-37.96387, -9.283195], [-37.9631, -9.282491], [-37.96357, -9.281906], [-37.96124, -9.280402], [-37.9588, -9.278199], [-37.95853, -9.278432]]]}}, 
{"type": "Feature", "properties": {"CD_SETOR": "270010205000032", "CD_SIT": "5", "NM_DIST": "Água Branca", "NM_SUBDIST": null}, "geometry": {"type": "Polygon", "coordinates": [[[-37.93757, -9.252654], [-37.9368, -9.254714], [-37.93775, -9.255029], [-37.93827, -9.253175], [-37.93855, -9.253196], [-37.93858, -9.253529], [-37.93957, -9.253688], [-37.93965, -9.253516], [-37.94005, -9.253559], [-37.94025, -9.254859], [-37.94065, -9.255535], [-37.94114, -9.255869], [-37.94185, -9.255906], [-37.94272, -9.255414], [-37.94258, -9.255251], [-37.94267, -9.25503], [-37.94215, -9.254504], [-37.94222, -9.254329], [-37.94203, -9.254053], [-37.94171, -9.25394], [-37.94156, -9.254068], [-37.94126, -9.253896], [-37.94108, -9.253508], [-37.9408, -9.253395], [-37.94131, -9.25269], [-37.94196, -9.252202], [-37.94204, -9.251871], [-37.94169, -9.251592], [-37.94057, -9.25158], [-37.94041, -9.251172], [-37.93757, -9.252654]]]}}, 
{"type": "Feature", "properties": {"CD_SETOR": "270010205000033", "CD_SIT": "5", "NM_DIST": "Água Branca", "NM_SUBDIST": null}, "geometry": {"type": "Polygon", "coordinates": [[[-37.95086, -9.260403], [-37.95103, -9.260038], [-37.94968, -9.258709], [-37.94985, -9.258432], [-37.9496, -9.258306], [-37.94943, -9.258524], [-37.94919, -9.258439], [-37.949, -9.259018], [-37.9488, -9.258943], [-37.94925, -9.25806], [-37.94892, -9.257933], [-37.94877, -9.258202], [-37.94821, -9.257755], [-37.94844, -9.257483], [-37.94805, -9.257107], [-37.94725, -9.25767], [-37.9467, -9.25741], [-37.94505, -9.257253], [-37.94495, -9.25788], [-37.94673, -9.25816], [-37.94749, -9.258515], [-37.94723, -9.259077], [-37.94807, -9.259149], [-37.94899, -9.259589], [-37.94897, -9.260019], [-37.94955, -9.26033], [-37.94972, -9.26018], [-37.95086, -9.260403]]]}}, 
{"type": "Feature", "properties": {"CD_SETOR": "270010205000035", "CD_SIT": "8", "NM_DIST": "Água Branca", "NM_SUBDIST": null}, "geometry": {"type": "Polygon", "coordinates": [[[-37.89754, -9.286019], [-37.89723, -9.28617], [-37.89709, -9.287815], [-37.89654, -9.288994], [-37.89627, -9.290017], [-37.89559, -9.291383], [-37.89537, -9.294349], [-37.89454, -9.296369], [-37.89395, -9.298739], [-37.89314, -9.300262], [-37.89285, -9.301717], [-37.89283, -9.304946], [-37.89289, -9.305432], [-37.89303, -9.30546], [-37.8907, -9.309361], [-37.88985, -9.311182], [-37.88954, -9.312404], [-37.88956, -9.312994], [-37.89016, -9.315465], [-37.88993, -9.317266], [-37.89003, -9.323542], [-37.88977, -9.324728], [-37.8898, -9.325325], [-37.89037, -9.326693], [-37.89185, -9.329117], [-37.89189, -9.330191], [-37.89151, -9.331168], [-37.89144, -9.333206], [-37.89171, -9.335132], [-37.89159, -9.336771], [-37.892, -9.337718], [-37.89219, -9.339125], [-37.89214, -9.339475], [-37.89174, -9.339956], [-37.89168, -9.340381], [-37.89194, -9.340744], [-37.89282, -9.34121], [-37.89359, -9.341943], [-37.89469, -9.342573], [-37.89601, -9.342872], [-37.8973, -9.342686], [-37.89892, -9.343591], [-37.89935, -9.344227], [-37.90142, -9.345544], [-37.90286, -9.345882], [-37.90383, -9.347137], [-37.90398, -9.347686], [-37.90479, -9.348999], [-37.90497, -9.350371], [-37.90613, -9.350333], [-37.90843, -9.349862], [-37.91119, -9.347932], [-37.91433, -9.346546], [-37.91531, -9.346374], [-37.91751, -9.344884], [-37.91835, -9.344634], [-37.91992, -9.344526], [-37.92037, -9.344119], [-37.92058, -9.343455], [-37.92096, -9.342971], [-37.92186, -9.342716], [-37.9222, -9.341564], [-37.9223, -9.33994], [-37.92177, -9.333863], [-37.92205, -9.330939], [-37.92185, -9.330687], [-37.92085, -9.330726], [-37.92029, -9.330307], [-37.91975, -9.329504], [-37.91887, -9.329049], [-37.91703, -9.328306], [-37.91366, -9.327259], [-37.91287, -9.326504], [-37.91291, -9.325818], [-37.91144, -9.324485], [-37.90976, -9.32348], [-37.90905, -9.322053], [-37.90918, -9.320818], [-37.90903, -9.320047], [-37.90958, -9.319127], [-37.91031, -9.315873], [-37.9112, -9.31483], [-37.9115, -9.312507], [-37.91127, -9.310676], [-37.91055, -9.309737], [-37.91059, -9.308989], [-37.90525, -9.307918], [-37.90471, -9.30095], [-37.90419, -9.300545], [-37.90383, -9.298928], [-37.90365, -9.296719], [-37.90308, -9.294758], [-37.90179, -9.292872], [-37.90117, -9.291459], [-37.89965, -9.289495], [-37.89953, -9.287535], [-37.89915, -9.286322], [-37.89836, -9.285497], [-37.89754, -9.286019]]]}}, 
{"type": "Feature", "properties": {"CD_SETOR": "270010205000037", "CD_SIT": "8", "NM_DIST": "Água Branca", "NM_SUBDIST": null}, "geometry": {"type": "Polygon", "coordinates": [[[-37.85762, -9.205248], [-37.85857, -9.206105], [-37.85876, -9.207914], [-37.85909, -9.208656], [-37.86185, -9.210467], [-37.86361, -9.211855], [-37.86411, -9.212513], [-37.86509, -9.213112], [-37.86563, -9.213164], [-37.86619, -9.213489], [-37.86849, -9.215009], [-37.86873, -9.215432], [-37.86945, -9.215949], [-37.87, -9.21618], [-37.87076, -9.215604], [-37.87258, -9.215308], [-37.87349, -9.215588], [-37.87456, -9.216465], [-37.87555, -9.216936], [-37.87617, -9.216367], [-37.87661, -9.218645], [-37.87792, -9.220245], [-37.87829, -9.22145], [-37.87869, -9.221843], [-37.88011, -9.22263], [-37.88216, -9.224062], [-37.88281, -9.224383], [-37.88371, -9.224199], [-37.88478, -9.223128], [-37.88568, -9.221758], [-37.88656, -9.219585], [-37.8866, -9.217465], [-37.88746, -9.216363], [-37.88668, -9.215129], [-37.88505, -9.214536], [-37.88586, -9.213437], [-37.88631, -9.213127], [-37.88211, -9.208472], [-37.87318, -9.190352], [-37.87273, -9.190518], [-37.87217, -9.190423], [-37.87119, -9.190712], [-37.87069, -9.191245], [-37.86985, -9.191604], [-37.86902, -9.192226], [-37.8683, -9.192929], [-37.86795, -9.192864], [-37.86771, -9.193274], [-37.86734, -9.193246], [-37.86731, -9.19404], [-37.86772, -9.196624], [-37.8677, -9.198251], [-37.86794, -9.199193], [-37.86798, -9.200316], [-37.86831, -9.200913], [-37.86784, -9.201484], [-37.86892, -9.20206], [-37.86838, -9.202804], [-37.86621, -9.203986], [-37.86422, -9.205526], [-37.86269, -9.205544], [-37.86232, -9.205918], [-37.85941, -9.205358], [-37.85849, -9.204985], [-37.85762, -9.205248]]]}}, 
{"type": "Feature", "properties": {"CD_SETOR": "270010205000038", "CD_SIT": "8", "NM_DIST": "Água Branca", "NM_SUBDIST": null}, "geometry": {"type": "Polygon", "coordinates": [[[-37.92931, -9.25153], [-37.92992, -9.252472], [-37.93006, -9.252329], [-37.93149, -9.252401], [-37.93282, -9.252142], [-37.93349, -9.252356], [-37.93442, -9.252905], [-37.93483, -9.253363], [-37.93509, -9.253414], [-37.93549, -9.253334], [-37.93596, -9.252913], [-37.93732, -9.252734], [-37.93866, -9.252189], [-37.94041, -9.251172], [-37.94156, -9.249868], [-37.94312, -9.250367], [-37.94385, -9.249802], [-37.94402, -9.249261], [-37.94452, -9.249253], [-37.94508, -9.248976], [-37.94654, -9.249339], [-37.94733, -9.249363], [-37.94895, -9.248922], [-37.95016, -9.249897], [-37.95152, -9.250115], [-37.95204, -9.250004], [-37.953, -9.250449], [-37.95531, -9.250799], [-37.95676, -9.250418], [-37.95763, -9.250066], [-37.95767, -9.249867], [-37.95537, -9.248943], [-37.95299, -9.246764], [-37.95225, -9.245385], [-37.95247, -9.244486], [-37.95231, -9.242751], [-37.9507, -9.24183], [-37.94996, -9.241039], [-37.94781, -9.239299], [-37.94652, -9.238738], [-37.94541, -9.237521], [-37.9442, -9.236731], [-37.94137, -9.234245], [-37.93999, -9.236342], [-37.93748, -9.237723], [-37.93717, -9.237653], [-37.93661, -9.23704], [-37.93522, -9.238527], [-37.93453, -9.239023], [-37.93557, -9.240376], [-37.93587, -9.241877], [-37.93478, -9.24382], [-37.93422, -9.244196], [-37.93403, -9.244516], [-37.93347, -9.244407], [-37.93261, -9.244608], [-37.9312, -9.245583], [-37.93134, -9.245943], [-37.93127, -9.247178], [-37.93073, -9.247632], [-37.93035, -9.247565], [-37.92931, -9.25153]]]}}, 
{"type": "Feature", "properties": {"CD_SETOR": "270010205000039", "CD_SIT": "7", "NM_DIST": "Água Branca", "NM_SUBDIST": null}, "geometry": {"type": "Polygon", "coordinates": [[[-37.96193, -9.232959], [-37.96107, -9.233351], [-37.96056, -9.233337], [-37.96059, -9.231333], [-37.9581, -9.231543], [-37.95716, -9.231872], [-37.95671, -9.232861], [-37.95672, -9.233179], [-37.95751, -9.233366], [-37.95976, -9.235047], [-37.96149, -9.234846], [-37.96224, -9.233464], [-37.96193, -9.232959]]]}}, 
{"type": "Feature", "properties": {"CD_SETOR": "270010205000040", "CD_SIT": "5", "NM_DIST": "Água Branca", "NM_SUBDIST": null}, "geometry": {"type": "Polygon", "coordinates": [[[-37.9618, -9.237746], [-37.96201, -9.237741], [-37.96253, -9.238507], [-37.9635, -9.238118], [-37.96703, -9.238158], [-37.96585, -9.239125], [-37.9666, -9.239449], [-37.97121, -9.236336], [-37.97022, -9.235706], [-37.96966, -9.235647], [-37.96695, -9.236853], [-37.96603, -9.236444], [-37.96325, -9.236753], [-37.96422, -9.23564], [-37.96316, -9.235097], [-37.96227, -9.236305], [-37.9618, -9.237746]]]}}, 
{"type": "Feature", "properties": {"CD_SETOR": "270010205000041", "CD_SIT": "5", "NM_DIST": "Água Branca", "NM_SUBDIST": null}, "geometry": {"type": "Polygon", "coordinates": [[[-37.86427, -9.318036], [-37.86315, -9.317958], [-37.86195, -9.317174], [-37.86119, -9.318831], [-37.86072, -9.319398], [-37.86091, -9.319563], [-37.86338, -9.318714], [-37.86376, -9.319071], [-37.86458, -9.318977], [-37.86427, -9.318036]]]}}, 
{"type": "Feature", "properties": {"CD_SETOR": "270010205000043", "CD_SIT": "5", "NM_DIST": "Água Branca", "NM_SUBDIST": null}, "geometry": {"type": "Polygon", "coordinates": [[[-37.95905, -9.240759], [-37.95962, -9.241053], [-37.96013, -9.240712], [-37.96059, -9.240079], [-37.9612, -9.238746], [-37.96141, -9.238756], [-37.96177, -9.238124], [-37.96091, -9.237733], [-37.95993, -9.23776], [-37.95898, -9.238095], [-37.95779, -9.237595], [-37.95787, -9.239128], [-37.95905, -9.240759]]]}}, 
{"type": "Feature", "properties": {"CD_SETOR": "270010205000044", "CD_SIT": "5", "NM_DIST": "Água Branca", "NM_SUBDIST": null}, "geometry": {"type": "Polygon", "coordinates": [[[-37.96407, -9.244248], [-37.9641, -9.243528], [-37.96038, -9.241609], [-37.95905, -9.240759], [-37.95787, -9.239128], [-37.95779, -9.237595], [-37.95915, -9.238097], [-37.96009, -9.237732], [-37.96134, -9.237872], [-37.9616, -9.237651], [-37.96146, -9.237511], [-37.95877, -9.236355], [-37.95779, -9.236589], [-37.95629, -9.235597], [-37.9559, -9.234938], [-37.95516, -9.235143], [-37.95531, -9.23705], [-37.95563, -9.237383], [-37.95588, -9.238627], [-37.95671, -9.239551], [-37.95711, -9.240892], [-37.95829, -9.241703], [-37.95853, -9.241799], [-37.9586, -9.241633], [-37.95996, -9.242157], [-37.96325, -9.244062], [-37.96407, -9.244248]]]}}, 
{"type": "Feature", "properties": {"CD_SETOR": "270010205000049", "CD_SIT": "8", "NM_DIST": "Água Branca", "NM_SUBDIST": null}, "geometry": {"type": "Polygon", "coordinates": [[[-37.86497, -9.252053], [-37.86368, -9.251403], [-37.86306, -9.25188], [-37.86252, -9.251637], [-37.86228, -9.251862], [-37.86252, -9.252421], [-37.86182, -9.252691], [-37.86171, -9.252917], [-37.86161, -9.253989], [-37.86181, -9.254381], [-37.86103, -9.254876], [-37.86126, -9.255201], [-37.86097, -9.255399], [-37.86069, -9.255318], [-37.86061, -9.255658], [-37.86017, -9.255964], [-37.85961, -9.256037], [-37.85932, -9.256897], [-37.85886, -9.256577], [-37.8586, -9.25682], [-37.85862, -9.257289], [-37.85829, -9.258147], [-37.85846, -9.258634], [-37.85819, -9.259066], [-37.85824, -9.259296], [-37.85762, -9.259616], [-37.85652, -9.259274], [-37.85623, -9.258994], [-37.85591, -9.259219], [-37.85622, -9.259742], [-37.85512, -9.260161], [-37.85475, -9.260485], [-37.85507, -9.261188], [-37.85538, -9.261468], [-37.85475, -9.261859], [-37.85474, -9.262211], [-37.85514, -9.26295], [-37.85469, -9.262981], [-37.85481, -9.263421], [-37.85446, -9.263538], [-37.85437, -9.263952], [-37.85416, -9.263889], [-37.85406, -9.264011], [-37.8545, -9.264547], [-37.85501, -9.264686], [-37.85523, -9.265295], [-37.85463, -9.265957], [-37.85433, -9.266011], [-37.85431, -9.266398], [-37.85384, -9.266443], [-37.85384, -9.266984], [-37.85369, -9.26707], [-37.85341, -9.267124], [-37.85256, -9.266443], [-37.84997, -9.267324], [-37.84811, -9.268428], [-37.84683, -9.268856], [-37.84411, -9.268928], [-37.84078, -9.269498], [-37.83945, -9.269435], [-37.83839, -9.269119], [-37.83736, -9.269237], [-37.83638, -9.268374], [-37.83507, -9.268288], [-37.83148, -9.267367], [-37.83087, -9.267502], [-37.83064, -9.267178], [-37.82837, -9.267809], [-37.82827, -9.268498], [-37.82879, -9.268951], [-37.82905, -9.269478], [-37.82885, -9.270603], [-37.8298, -9.27192], [-37.82985, -9.27223], [-37.83038, -9.272547], [-37.83019, -9.273685], [-37.83058, -9.27468], [-37.83086, -9.275092], [-37.8314, -9.274942], [-37.83174, -9.275669], [-37.83175, -9.276492], [-37.83113, -9.277191], [-37.83103, -9.278202], [-37.8315, -9.278506], [-37.83282, -9.280532], [-37.83348, -9.280828], [-37.83358, -9.281089], [-37.83466, -9.28175], [-37.83499, -9.281637], [-37.83555, -9.28218], [-37.83608, -9.281635], [-37.83745, -9.282133], [-37.83803, -9.282771], [-37.8381, -9.284334], [-37.83851, -9.285086], [-37.83914, -9.285536], [-37.83853, -9.287121], [-37.83887, -9.288555], [-37.83837, -9.288997], [-37.83839, -9.289207], [-37.83885, -9.289372], [-37.83894, -9.289553], [-37.83885, -9.290131], [-37.83826, -9.290372], [-37.83845, -9.290746], [-37.83825, -9.290887], [-37.83758, -9.290862], [-37.83725, -9.291644], [-37.83682, -9.291923], [-37.83693, -9.292111], [-37.83741, -9.292236], [-37.8377, -9.292631], [-37.83794, -9.292659], [-37.83815, -9.292408], [-37.83837, -9.292503], [-37.8383, -9.2929], [-37.83844, -9.293423], [-37.8377, -9.294313], [-37.89289, -9.305432], [-37.89285, -9.301717], [-37.89314, -9.300262], [-37.89395, -9.298739], [-37.89454, -9.296369], [-37.89537, -9.294349], [-37.89559, -9.291383], [-37.89627, -9.290017], [-37.89691, -9.288238], [-37.89636, -9.288095], [-37.89651, -9.286126], [-37.89546, -9.281806], [-37.89422, -9.280256], [-37.89333, -9.279889], [-37.89289, -9.277871], [-37.89189, -9.276898], [-37.89201, -9.276702], [-37.89054, -9.276441], [-37.88875, -9.276435], [-37.8876, -9.2761], [-37.88579, -9.274355], [-37.88292, -9.272295], [-37.88161, -9.270236], [-37.88026, -9.268514], [-37.87916, -9.266222], [-37.87751, -9.264147], [-37.87651, -9.263628], [-37.87358, -9.261584], [-37.8719, -9.257001], [-37.87046, -9.255054], [-37.86973, -9.254498], [-37.86786, -9.252528], [-37.86497, -9.252053]], [[-37.88648, -9.294564], [-37.88814, -9.292561], [-37.88871, -9.29286], [-37.88898, -9.293398], [-37.88677, -9.294816], [-37.88648, -9.294564]]]}}, 
{"type": "Feature", "properties": {"CD_SETOR": "270010205000050", "CD_SIT": "7", "NM_DIST": "Água Branca", "NM_SUBDIST": null}, "geometry": {"type": "Polygon", "coordinates": [[[-37.95792, -9.293497], [-37.9578, -9.293024], [-37.95977, -9.291711], [-37.96065, -9.292066], [-37.96117, -9.291726], [-37.96097, -9.291151], [-37.96247, -9.290037], [-37.96332, -9.288796], [-37.96251, -9.288204], [-37.96136, -9.288406], [-37.96115, -9.287871], [-37.96088, -9.287737], [-37.96014, -9.287884], [-37.96021, -9.288175], [-37.95944, -9.28852], [-37.95906, -9.288989], [-37.95879, -9.289098], [-37.95867, -9.288818], [-37.95809, -9.289009], [-37.95786, -9.289742], [-37.95689, -9.289543], [-37.956, -9.289105], [-37.95632, -9.287781], [-37.95567, -9.287751], [-37.95518, -9.288679], [-37.9542, -9.287583], [-37.95302, -9.285738], [-37.95223, -9.285059], [-37.95187, -9.285218], [-37.95155, -9.285096], [-37.95153, -9.286558], [-37.95073, -9.288489], [-37.95118, -9.289084], [-37.95504, -9.290452], [-37.95386, -9.292268], [-37.95448, -9.292269], [-37.95467, -9.291849], [-37.95557, -9.292222], [-37.95516, -9.29367], [-37.95522, -9.29602], [-37.95396, -9.295339], [-37.95367, -9.295767], [-37.95475, -9.296363], [-37.95457, -9.296921], [-37.95508, -9.297177], [-37.95695, -9.294336], [-37.95677, -9.294134], [-37.95781, -9.293724], [-37.95803, -9.293591], [-37.95792, -9.293497]]]}}, 
{"type": "Feature", "properties": {"CD_SETOR": "270010205000051", "CD_SIT": "8", "NM_DIST": "Água Branca", "NM_SUBDIST": null}, "geometry": {"type": "Polygon", "coordinates": [[[-37.89183, -9.340637], [-37.8917, -9.340072], [-37.89216, -9.339422], [-37.89218, -9.338963], [-37.892, -9.337718], [-37.89159, -9.336771], [-37.89171, -9.335132], [-37.89143, -9.333144], [-37.89151, -9.331168], [-37.89189, -9.330191], [-37.89185, -9.329117], [-37.89037, -9.326693], [-37.88986, -9.325611], [-37.88976, -9.324971], [-37.89003, -9.32363], [-37.88992, -9.317758], [-37.89016, -9.315465], [-37.88956, -9.312994], [-37.88954, -9.312404], [-37.88985, -9.311182], [-37.89105, -9.308798], [-37.88967, -9.308643], [-37.88889, -9.30894], [-37.88732, -9.309219], [-37.88583, -9.309999], [-37.88318, -9.310882], [-37.88242, -9.311305], [-37.88, -9.313557], [-37.87801, -9.314873], [-37.8766, -9.315152], [-37.87396, -9.316742], [-37.87428, -9.317319], [-37.87306, -9.318139], [-37.87296, -9.318923], [-37.87156, -9.31972], [-37.87237, -9.321325], [-37.8718, -9.321677], [-37.87094, -9.32059], [-37.86987, -9.319838], [-37.86872, -9.32005], [-37.86763, -9.319783], [-37.86765, -9.320463], [-37.86689, -9.32041], [-37.86704, -9.319474], [-37.86635, -9.319273], [-37.86503, -9.318264], [-37.86427, -9.318036], [-37.86458, -9.318977], [-37.86376, -9.319071], [-37.86338, -9.318714], [-37.86091, -9.319563], [-37.86072, -9.319398], [-37.86119, -9.318831], [-37.86195, -9.317174], [-37.86102, -9.316742], [-37.85994, -9.316587], [-37.85699, -9.31931], [-37.85636, -9.319655], [-37.85604, -9.320373], [-37.85109, -9.32739], [-37.84576, -9.335634], [-37.8437, -9.338154], [-37.84363, -9.338453], [-37.84314, -9.338745], [-37.84207, -9.340256], [-37.84016, -9.342218], [-37.83964, -9.343116], [-37.83506, -9.348867], [-37.83182, -9.351706], [-37.83284, -9.352349], [-37.83326, -9.353098], [-37.83294, -9.354344], [-37.83346, -9.355414], [-37.83354, -9.356928], [-37.83306, -9.358118], [-37.8335, -9.358349], [-37.83384, -9.359692], [-37.83437, -9.360828], [-37.8335, -9.362115], [-37.83355, -9.362866], [-37.83382, -9.363312], [-37.83446, -9.363681], [-37.83501, -9.364391], [-37.8358, -9.36498], [-37.83666, -9.36537], [-37.83702, -9.365779], [-37.83798, -9.366392], [-37.83939, -9.368202], [-37.84402, -9.371715], [-37.84467, -9.372513], [-37.84564, -9.374484], [-37.8461, -9.375864], [-37.846, -9.376281], [-37.84514, -9.377139], [-37.84506, -9.377626], [-37.84616, -9.379897], [-37.84806, -9.383106], [-37.8484, -9.384089], [-37.84857, -9.385685], [-37.84956, -9.386606], [-37.84987, -9.387349], [-37.84983, -9.387809], [-37.84943, -9.388614], [-37.84952, -9.390343], [-37.84977, -9.390834], [-37.85292, -9.392751], [-37.85305, -9.393066], [-37.8527, -9.394186], [-37.85294, -9.394614], [-37.85371, -9.395273], [-37.85452, -9.395615], [-37.85617, -9.395933], [-37.85791, -9.39574], [-37.85899, -9.396554], [-37.85911, -9.396863], [-37.85892, -9.398237], [-37.85832, -9.398815], [-37.85801, -9.399587], [-37.8582, -9.400294], [-37.85849, -9.400601], [-37.85956, -9.400885], [-37.8601, -9.40157], [-37.86057, -9.401713], [-37.86117, -9.40157], [-37.8624, -9.400535], [-37.86274, -9.400489], [-37.86346, -9.400756], [-37.86492, -9.402612], [-37.86508, -9.40335], [-37.86495, -9.403875], [-37.86504, -9.404329], [-37.86593, -9.40481], [-37.86703, -9.404822], [-37.86729, -9.405073], [-37.86755, -9.405747], [-37.86823, -9.406103], [-37.86861, -9.406158], [-37.86913, -9.40596], [-37.86954, -9.405515], [-37.87018, -9.403958], [-37.87049, -9.40364], [-37.87085, -9.403549], [-37.87177, -9.404547], [-37.87231, -9.404708], [-37.8727, -9.405072], [-37.87277, -9.40576], [-37.87228, -9.406633], [-37.93395, -9.372649], [-37.92945, -9.368881], [-37.92186, -9.364098], [-37.92065, -9.362779], [-37.91944, -9.36178], [-37.91817, -9.361361], [-37.91707, -9.360344], [-37.91216, -9.358458], [-37.91093, -9.358343], [-37.90971, -9.357555], [-37.90631, -9.356223], [-37.90561, -9.35654], [-37.90426, -9.355567], [-37.9039, -9.355981], [-37.90344, -9.357256], [-37.90195, -9.356598], [-37.90108, -9.3564], [-37.90106, -9.356264], [-37.90166, -9.355733], [-37.90131, -9.355387], [-37.90137, -9.354971], [-37.90177, -9.354644], [-37.90092, -9.353706], [-37.90187, -9.353798], [-37.9019, -9.353473], [-37.90346, -9.353582], [-37.90375, -9.353273], [-37.9041, -9.352443], [-37.90453, -9.350197], [-37.90497, -9.350371], [-37.90479, -9.348999], [-37.90398, -9.347686], [-37.90383, -9.347137], [-37.90286, -9.345882], [-37.90142, -9.345544], [-37.89935, -9.344227], [-37.89892, -9.343591], [-37.89727, -9.342674], [-37.89612, -9.342875], [-37.89544, -9.342779], [-37.89511, -9.345331], [-37.89461, -9.346679], [-37.89356, -9.346771], [-37.89323, -9.346008], [-37.89391, -9.345589], [-37.89388, -9.344921], [-37.89343, -9.344669], [-37.89357, -9.344186], [-37.89297, -9.34262], [-37.89223, -9.342871], [-37.89243, -9.344339], [-37.89185, -9.347542], [-37.89047, -9.347457], [-37.89085, -9.344003], [-37.89079, -9.342553], [-37.89001, -9.342389], [-37.89001, -9.341836], [-37.89103, -9.341362], [-37.89159, -9.341719], [-37.89163, -9.342162], [-37.89371, -9.342005], [-37.89292, -9.341278], [-37.89183, -9.340637]]]}}, 
{"type": "Feature", "properties": {"CD_SETOR": "270010205000052", "CD_SIT": "5", "NM_DIST": "Água Branca", "NM_SUBDIST": null}, "geometry": {"type": "Polygon", "coordinates": [[[-37.86704, -9.319474], [-37.86689, -9.32041], [-37.86765, -9.320463], [-37.86763, -9.319783], [-37.86872, -9.32005], [-37.86987, -9.319838], [-37.87094, -9.32059], [-37.8718, -9.321677], [-37.87237, -9.321325], [-37.87156, -9.31972], [-37.87296, -9.318923], [-37.87306, -9.318139], [-37.87428, -9.317319], [-37.87396, -9.316742], [-37.87285, -9.317538], [-37.86993, -9.319009], [-37.86966, -9.319318], [-37.86858, -9.319213], [-37.86764, -9.319486], [-37.86704, -9.319474]]]}}, 
{"type": "Feature", "properties": {"CD_SETOR": "270010205000053", "CD_SIT": "8", "NM_DIST": "Água Branca", "NM_SUBDIST": null}, "geometry": {"type": "Polygon", "coordinates": [[[-37.86222, -9.305041], [-37.8642, -9.305408], [-37.86533, -9.306791], [-37.865, -9.307131], [-37.86376, -9.30589], [-37.86318, -9.306177], [-37.86458, -9.307985], [-37.86451, -9.310169], [-37.86381, -9.310128], [-37.86383, -9.309086], [-37.86341, -9.308083], [-37.86202, -9.308165], [-37.8615, -9.3102], [-37.86126, -9.310211], [-37.86159, -9.312978], [-37.8608, -9.31538], [-37.85994, -9.316587], [-37.86102, -9.316742], [-37.86315, -9.317958], [-37.86354, -9.317895], [-37.86503, -9.318264], [-37.86635, -9.319273], [-37.86704, -9.319474], [-37.86703, -9.318988], [-37.86787, -9.318936], [-37.86927, -9.318442], [-37.87368, -9.316286], [-37.87396, -9.316742], [-37.8766, -9.315152], [-37.87801, -9.314873], [-37.88, -9.313557], [-37.88242, -9.311305], [-37.88318, -9.310882], [-37.88583, -9.309999], [-37.88732, -9.309219], [-37.88889, -9.30894], [-37.88967, -9.308643], [-37.89105, -9.308798], [-37.89303, -9.30546], [-37.86065, -9.298952], [-37.86108, -9.302707], [-37.86226, -9.304035], [-37.86222, -9.305041]], [[-37.8684, -9.315519], [-37.86828, -9.315034], [-37.86676, -9.313926], [-37.86741, -9.313324], [-37.86928, -9.315279], [-37.86997, -9.315694], [-37.87025, -9.314342], [-37.871, -9.314499], [-37.8703, -9.316953], [-37.86988, -9.317258], [-37.86981, -9.317572], [-37.86865, -9.317292], [-37.86852, -9.316526], [-37.86986, -9.316314], [-37.86893, -9.315721], [-37.86882, -9.316031], [-37.86849, -9.316004], [-37.8684, -9.315519]]]}}, 
{"type": "Feature", "properties": {"CD_SETOR": "270010205000054", "CD_SIT": "7", "NM_DIST": "Água Branca", "NM_SUBDIST": null}, "geometry": {"type": "Polygon", "coordinates": [[[-37.8684, -9.315519], [-37.86849, -9.316004], [-37.86882, -9.316031], [-37.86893, -9.315721], [-37.86986, -9.316314], [-37.86852, -9.316526], [-37.86865, -9.317292], [-37.86981, -9.317572], [-37.86988, -9.317258], [-37.8703, -9.316953], [-37.871, -9.314499], [-37.87025, -9.314342], [-37.86997, -9.315694], [-37.86928, -9.315279], [-37.86741, -9.313324], [-37.86676, -9.313926], [-37.86828, -9.315034], [-37.8684, -9.315519]]]}}, 
{"type": "Feature", "properties": {"CD_SETOR": "270010205000055", "CD_SIT": "5", "NM_DIST": "Água Branca", "NM_SUBDIST": null}, "geometry": {"type": "Polygon", "coordinates": [[[-37.86704, -9.319474], [-37.86764, -9.319486], [-37.86858, -9.319213], [-37.86966, -9.319318], [-37.86993, -9.319009], [-37.87285, -9.317538], [-37.87396, -9.316742], [-37.87368, -9.316286], [-37.86927, -9.318442], [-37.86787, -9.318936], [-37.86703, -9.318988], [-37.86704, -9.319474]]]}}, 
{"type": "Feature", "properties": {"CD_SETOR": "270010205000056", "CD_SIT": "8", "NM_DIST": "Água Branca", "NM_SUBDIST": null}, "geometry": {"type": "Polygon", "coordinates": [[[-37.94041, -9.251172], [-37.94057, -9.25158], [-37.94169, -9.251592], [-37.94204, -9.251871], [-37.94196, -9.252202], [-37.94131, -9.25269], [-37.9408, -9.253395], [-37.94108, -9.253508], [-37.94126, -9.253896], [-37.94156, -9.254068], [-37.94171, -9.25394], [-37.94203, -9.254053], [-37.94222, -9.254329], [-37.94215, -9.254504], [-37.94267, -9.25503], [-37.94258, -9.255251], [-37.94272, -9.255414], [-37.9425, -9.255588], [-37.94276, -9.25593], [-37.94296, -9.255721], [-37.94355, -9.25615], [-37.94366, -9.256612], [-37.94427, -9.256152], [-37.94458, -9.256524], [-37.94398, -9.257277], [-37.94329, -9.257653], [-37.94181, -9.261661], [-37.94126, -9.262305], [-37.94205, -9.26348], [-37.94342, -9.264391], [-37.945, -9.265145], [-37.94452, -9.266483], [-37.9473, -9.268458], [-37.94872, -9.269939], [-37.94977, -9.270207], [-37.9508, -9.271679], [-37.95677, -9.276457], [-37.95853, -9.278432], [-37.9588, -9.278199], [-37.96124, -9.280402], [-37.96357, -9.281906], [-37.9631, -9.282491], [-37.96387, -9.283195], [-37.96469, -9.283237], [-37.96683, -9.284424], [-37.96482, -9.285916], [-37.9701, -9.291946], [-37.97153, -9.295163], [-37.97183, -9.2979], [-37.97207, -9.298302], [-37.97534, -9.302173], [-37.97727, -9.305655], [-37.97825, -9.305327], [-37.97896, -9.304464], [-37.97987, -9.303709], [-37.97999, -9.303007], [-37.98055, -9.302507], [-37.98067, -9.301959], [-37.98021, -9.300702], [-37.97994, -9.300537], [-37.97974, -9.300493], [-37.97964, -9.300939], [-37.97929, -9.301053], [-37.97845, -9.300896], [-37.97737, -9.300241], [-37.97644, -9.300214], [-37.97598, -9.299972], [-37.97555, -9.298954], [-37.9755, -9.297121], [-37.97572, -9.296912], [-37.97678, -9.296565], [-37.97785, -9.295376], [-37.97808, -9.294342], [-37.97797, -9.293916], [-37.97837, -9.292794], [-37.97793, -9.292159], [-37.97789, -9.290915], [-37.97913, -9.290215], [-37.97961, -9.289138], [-37.98038, -9.288811], [-37.98046, -9.28851], [-37.98075, -9.288368], [-37.9807, -9.286633], [-37.98189, -9.286224], [-37.98246, -9.285853], [-37.98254, -9.284059], [-37.98229, -9.282995], [-37.98127, -9.282313], [-37.98139, -9.281296], [-37.98041, -9.280657], [-37.98017, -9.280189], [-37.98011, -9.279341], [-37.97975, -9.278886], [-37.97909, -9.278472], [-37.97866, -9.277659], [-37.97868, -9.277068], [-37.97924, -9.27614], [-37.97898, -9.275438], [-37.97911, -9.27463], [-37.97816, -9.27331], [-37.97786, -9.272557], [-37.9776, -9.270585], [-37.97792, -9.268863], [-37.97695, -9.266661], [-37.9755, -9.265162], [-37.97445, -9.26438], [-37.9725, -9.263509], [-37.97006, -9.262793], [-37.96827, -9.260664], [-37.96743, -9.258697], [-37.96746, -9.257697], [-37.96591, -9.256179], [-37.96503, -9.25638], [-37.96463, -9.254944], [-37.96358, -9.253961], [-37.96322, -9.254197], [-37.9627, -9.253735], [-37.9626, -9.253412], [-37.96279, -9.252895], [-37.9623, -9.252386], [-37.96201, -9.250499], [-37.961, -9.249448], [-37.9599, -9.249527], [-37.95887, -9.250189], [-37.95763, -9.250066], [-37.95531, -9.250799], [-37.953, -9.250449], [-37.95204, -9.250004], [-37.95152, -9.250115], [-37.95016, -9.249897], [-37.94895, -9.248922], [-37.94733, -9.249363], [-37.94654, -9.249339], [-37.94508, -9.248976], [-37.94452, -9.249253], [-37.94402, -9.249261], [-37.94385, -9.249802], [-37.94312, -9.250367], [-37.94156, -9.249868], [-37.94041, -9.251172]], [[-37.95086, -9.260403], [-37.94972, -9.26018], [-37.94955, -9.26033], [-37.94897, -9.260019], [-37.94899, -9.259589], [-37.94807, -9.259149], [-37.94723, -9.259077], [-37.94749, -9.258515], [-37.94673, -9.25816], [-37.94495, -9.25788], [-37.94505, -9.257253], [-37.9467, -9.25741], [-37.94725, -9.25767], [-37.94805, -9.257107], [-37.94844, -9.257483], [-37.94821, -9.257755], [-37.94877, -9.258202], [-37.94892, -9.257933], [-37.94925, -9.25806], [-37.9488, -9.258943], [-37.949, -9.259018], [-37.94919, -9.258439], [-37.94943, -9.258524], [-37.9496, -9.258306], [-37.94985, -9.258432], [-37.94968, -9.258709], [-37.95103, -9.260038], [-37.95086, -9.260403]], [[-37.97766, -9.273575], [-37.97774, -9.273505], [-37.97843, -9.274163], [-37.97772, -9.27472], [-37.97778, -9.27596], [-37.97711, -9.275811], [-37.97716, -9.276846], [-37.97688, -9.277254], [-37.97657, -9.277308], [-37.97569, -9.276945], [-37.9752, -9.276358], [-37.97526, -9.275424], [-37.9745, -9.274549], [-37.97464, -9.274415], [-37.97552, -9.274902], [-37.9765, -9.273845], [-37.97684, -9.274222], [-37.97766, -9.273575]]]}}, 
{"type": "Feature", "properties": {"CD_SETOR": "270010205000057", "CD_SIT": "7", "NM_DIST": "Água Branca", "NM_SUBDIST": null}, "geometry": {"type": "Polygon", "coordinates": [[[-37.94276, -9.25593], [-37.9433, -9.256432], [-37.94295, -9.256764], [-37.94283, -9.257187], [-37.94329, -9.257653], [-37.94398, -9.257277], [-37.94458, -9.256524], [-37.94427, -9.256152], [-37.94366, -9.256612], [-37.94355, -9.25615], [-37.94296, -9.255721], [-37.94276, -9.25593]]]}}, 
{"type": "Feature", "properties": {"CD_SETOR": "270010205000058", "CD_SIT": "8", "NM_DIST": "Água Branca", "NM_SUBDIST": null}, "geometry": {"type": "Polygon", "coordinates": [[[-37.89544, -9.171039], [-37.89579, -9.171414], [-37.8939, -9.173436], [-37.8931, -9.172769], [-37.8914, -9.174534], [-37.88966, -9.178156], [-37.88826, -9.180483], [-37.88585, -9.181549], [-37.88387, -9.182118], [-37.88266, -9.180686], [-37.88079, -9.178975], [-37.87464, -9.186231], [-37.87252, -9.189006], [-37.88188, -9.207969], [-37.88387, -9.20536], [-37.88603, -9.203517], [-37.88702, -9.203128], [-37.88914, -9.203002], [-37.89019, -9.203181], [-37.89121, -9.202956], [-37.8928, -9.203294], [-37.89501, -9.202389], [-37.89609, -9.202436], [-37.89794, -9.202237], [-37.89935, -9.201747], [-37.90173, -9.201299], [-37.90258, -9.200948], [-37.90511, -9.200607], [-37.90599, -9.200264], [-37.90833, -9.200383], [-37.90944, -9.199013], [-37.91142, -9.198124], [-37.91182, -9.19775], [-37.91241, -9.196947], [-37.91239, -9.196062], [-37.91297, -9.196011], [-37.91404, -9.195055], [-37.91531, -9.194861], [-37.91789, -9.192957], [-37.92139, -9.190858], [-37.92483, -9.189181], [-37.92654, -9.189212], [-37.92805, -9.188734], [-37.92993, -9.188563], [-37.93176, -9.187733], [-37.93306, -9.186794], [-37.93722, -9.18145], [-37.94092, -9.177866], [-37.94275, -9.175682], [-37.94557, -9.16827], [-37.94625, -9.163235], [-37.94688, -9.160784], [-37.948, -9.158259], [-37.94945, -9.156002], [-37.95106, -9.152282], [-37.95045, -9.151152], [-37.94981, -9.150478], [-37.94929, -9.147914], [-37.949, -9.148098], [-37.9485, -9.149245], [-37.94834, -9.150433], [-37.94903, -9.151907], [-37.94915, -9.152484], [-37.94736, -9.154605], [-37.94593, -9.154893], [-37.94381, -9.154896], [-37.94344, -9.154651], [-37.94321, -9.15403], [-37.94349, -9.153166], [-37.94288, -9.152761], [-37.94175, -9.152545], [-37.94094, -9.152886], [-37.94061, -9.15328], [-37.9405, -9.154763], [-37.94012, -9.155034], [-37.93923, -9.155275], [-37.93796, -9.154931], [-37.93758, -9.154444], [-37.93707, -9.154182], [-37.93599, -9.155287], [-37.93561, -9.155443], [-37.93528, -9.155218], [-37.93482, -9.155218], [-37.93468, -9.155849], [-37.93482, -9.156517], [-37.93431, -9.156554], [-37.9338, -9.156311], [-37.93283, -9.156654], [-37.93212, -9.15642], [-37.93193, -9.157107], [-37.93165, -9.157294], [-37.92756, -9.154503], [-37.92806, -9.153405], [-37.92791, -9.153149], [-37.92639, -9.152557], [-37.92508, -9.152475], [-37.92332, -9.151238], [-37.9232, -9.150489], [-37.92221, -9.148948], [-37.92166, -9.146804], [-37.92094, -9.146061], [-37.91924, -9.144913], [-37.91911, -9.145044], [-37.91801, -9.144394], [-37.91718, -9.144626], [-37.91671, -9.144592], [-37.9158, -9.143949], [-37.91461, -9.143406], [-37.91444, -9.14342], [-37.91412, -9.143982], [-37.91303, -9.143423], [-37.91256, -9.143516], [-37.91229, -9.143782], [-37.91247, -9.144176], [-37.91244, -9.144658], [-37.91154, -9.146403], [-37.91008, -9.148186], [-37.90869, -9.148795], [-37.9085, -9.163481], [-37.90772, -9.163895], [-37.90743, -9.164544], [-37.90733, -9.165276], [-37.9064, -9.16586], [-37.90471, -9.166085], [-37.90292, -9.165254], [-37.90229, -9.165368], [-37.90181, -9.166005], [-37.9017, -9.167153], [-37.90151, -9.167551], [-37.90051, -9.168508], [-37.89958, -9.168875], [-37.89934, -9.169201], [-37.89656, -9.170249], [-37.89544, -9.171039]], [[-37.89172, -9.176997], [-37.89248, -9.17654], [-37.89205, -9.175903], [-37.89328, -9.175451], [-37.89403, -9.175903], [-37.89324, -9.177622], [-37.89172, -9.176997]]]}}, 
{"type": "Feature", "properties": {"CD_SETOR": "270010205000059", "CD_SIT": "7", "NM_DIST": "Água Branca", "NM_SUBDIST": null}, "geometry": {"type": "Polygon", "coordinates": [[[-37.8931, -9.172767], [-37.8939, -9.173436], [-37.89579, -9.171414], [-37.89544, -9.171031], [-37.8931, -9.172767]]]}}, 
{"type": "Feature", "properties": {"CD_SETOR": "270010205000060", "CD_SIT": "7", "NM_DIST": "Água Branca", "NM_SUBDIST": null}, "geometry": {"type": "Polygon", "coordinates": [[[-37.89172, -9.176997], [-37.89324, -9.177622], [-37.89403, -9.175903], [-37.89328, -9.175451], [-37.89205, -9.175903], [-37.89248, -9.17654], [-37.89172, -9.176997]]]}}, 
{"type": "Feature", "properties": {"CD_SETOR": "270010205000061", "CD_SIT": "8", "NM_DIST": "Água Branca", "NM_SUBDIST": null}, "geometry": {"type": "Polygon", "coordinates": [[[-37.94929, -9.147914], [-37.94981, -9.150478], [-37.95045, -9.151152], [-37.95107, -9.152314], [-37.94945, -9.156002], [-37.948, -9.158259], [-37.94688, -9.160784], [-37.94625, -9.163235], [-37.94557, -9.16827], [-37.9428, -9.175576], [-37.9412, -9.177571], [-37.93966, -9.179099], [-37.93999, -9.179292], [-37.94055, -9.18005], [-37.94079, -9.17949], [-37.94087, -9.178457], [-37.94133, -9.177951], [-37.9421, -9.177598], [-37.94325, -9.17815], [-37.94431, -9.179002], [-37.9469, -9.179818], [-37.9476, -9.179852], [-37.94897, -9.179376], [-37.94985, -9.178603], [-37.95193, -9.178222], [-37.95338, -9.176635], [-37.95379, -9.176602], [-37.95455, -9.176923], [-37.95647, -9.176545], [-37.95682, -9.176699], [-37.95708, -9.177576], [-37.95714, -9.179444], [-37.95914, -9.181579], [-37.95838, -9.181592], [-37.95679, -9.184191], [-37.9561, -9.184664], [-37.95535, -9.184737], [-37.95543, -9.185409], [-37.95496, -9.185534], [-37.9546, -9.185868], [-37.95432, -9.186456], [-37.95335, -9.187057], [-37.95319, -9.187603], [-37.95078, -9.188692], [-37.94988, -9.188746], [-37.94966, -9.189196], [-37.94912, -9.18951], [-37.9475, -9.189794], [-37.94661, -9.190261], [-37.94488, -9.190818], [-37.94235, -9.193246], [-37.94303, -9.194166], [-37.94355, -9.195665], [-37.94461, -9.196947], [-37.94445, -9.198518], [-37.94666, -9.199096], [-37.94844, -9.200333], [-37.95041, -9.202192], [-37.95168, -9.20276], [-37.95258, -9.202895], [-37.95448, -9.204415], [-37.95582, -9.204839], [-37.95631, -9.205256], [-37.9566, -9.205777], [-37.95728, -9.20599], [-37.95755, -9.206238], [-37.95875, -9.208227], [-37.96031, -9.209064], [-37.96094, -9.209583], [-37.96188, -9.21105], [-37.9634, -9.211488], [-37.96578, -9.212529], [-37.9672, -9.213646], [-37.96732, -9.213988], [-37.96709, -9.214394], [-37.96839, -9.214468], [-37.97019, -9.215198], [-37.97145, -9.21597], [-37.97151, -9.214937], [-37.97208, -9.212701], [-37.9721, -9.211762], [-37.97254, -9.21045], [-37.97263, -9.209547], [-37.97327, -9.207102], [-37.97323, -9.200995], [-37.97309, -9.19841], [-37.97287, -9.197796], [-37.97319, -9.197027], [-37.97316, -9.195456], [-37.97507, -9.195066], [-37.97594, -9.194444], [-37.97608, -9.193987], [-37.97666, -9.193685], [-37.97809, -9.193743], [-37.97862, -9.193313], [-37.9799, -9.19314], [-37.98018, -9.192777], [-37.98085, -9.192525], [-37.98129, -9.192153], [-37.98352, -9.191673], [-37.98448, -9.190569], [-37.98511, -9.19021], [-37.98538, -9.189429], [-37.98615, -9.188517], [-37.98715, -9.187698], [-37.98713, -9.186411], [-37.98678, -9.184421], [-37.98503, -9.1824], [-37.98394, -9.181432], [-37.98398, -9.180517], [-37.98437, -9.179528], [-37.98395, -9.178688], [-37.98325, -9.177942], [-37.98413, -9.177485], [-37.98474, -9.176641], [-37.98542, -9.176172], [-37.98684, -9.176558], [-37.98896, -9.176808], [-37.99058, -9.175454], [-37.99243, -9.174412], [-37.9933, -9.172749], [-37.99364, -9.17251], [-37.99437, -9.172531], [-37.99555, -9.173187], [-37.99641, -9.173322], [-37.99896, -9.171884], [-38.00205, -9.170747], [-38.00209, -9.170257], [-38.00148, -9.169497], [-38.00059, -9.166416], [-38.00079, -9.165979], [-38.0013, -9.165645], [-38.00181, -9.165676], [-38.00229, -9.165968], [-38.00322, -9.165186], [-38.00362, -9.164301], [-38.0036, -9.16377], [-38.00341, -9.163551], [-38.00284, -9.163499], [-38.00269, -9.163333], [-38.00253, -9.162791], [-38.00261, -9.162624], [-38.00351, -9.161947], [-38.00563, -9.161217], [-38.00639, -9.160603], [-38.00776, -9.160436], [-38.0085, -9.159738], [-38.00863, -9.158967], [-38.0099, -9.157512], [-38.01087, -9.157104], [-38.01211, -9.156043], [-38.01101, -9.156028], [-38.00904, -9.154865], [-38.00665, -9.154153], [-38.00537, -9.154436], [-37.99948, -9.152244], [-37.99366, -9.155333], [-37.99099, -9.155376], [-37.98754, -9.153686], [-37.98551, -9.151624], [-37.98465, -9.14979], [-37.98134, -9.14929], [-37.97935, -9.148363], [-37.97856, -9.147662], [-37.97814, -9.146093], [-37.97804, -9.143232], [-37.97729, -9.141596], [-37.97705, -9.14038], [-37.97289, -9.142227], [-37.97189, -9.143322], [-37.96917, -9.145097], [-37.96821, -9.145538], [-37.96692, -9.146787], [-37.96608, -9.147066], [-37.96562, -9.146905], [-37.96171, -9.14683], [-37.96024, -9.145716], [-37.95898, -9.143923], [-37.95748, -9.14381], [-37.95671, -9.143966], [-37.95566, -9.144485], [-37.95397, -9.144549], [-37.95232, -9.145906], [-37.95155, -9.14614], [-37.9511, -9.146063], [-37.95052, -9.147451], [-37.94929, -9.147914]]]}}, 
{"type": "Feature", "properties": {"CD_SETOR": "270010205000062", "CD_SIT": "5", "NM_DIST": "Água Branca", "NM_SUBDIST": null}, "geometry": {"type": "Polygon", "coordinates": [[[-37.89696, -9.282465], [-37.89524, -9.280028], [-37.89647, -9.278288], [-37.89572, -9.276194], [-37.89504, -9.276209], [-37.89504, -9.277403], [-37.89366, -9.277487], [-37.89361, -9.276743], [-37.89243, -9.276069], [-37.89189, -9.276898], [-37.89289, -9.277871], [-37.89333, -9.279889], [-37.89422, -9.280256], [-37.89546, -9.281806], [-37.89651, -9.286126], [-37.89636, -9.288095], [-37.89691, -9.288238], [-37.89718, -9.287297], [-37.89723, -9.28617], [-37.89754, -9.286019], [-37.89787, -9.284223], [-37.89757, -9.283146], [-37.89696, -9.282465]]]}}, 
{"type": "Feature", "properties": {"CD_SETOR": "270010205000063", "CD_SIT": "8", "NM_DIST": "Água Branca", "NM_SUBDIST": null}, "geometry": {"type": "Polygon", "coordinates": [[[-37.95629, -9.235597], [-37.95779, -9.236589], [-37.95877, -9.236355], [-37.96146, -9.237511], [-37.9616, -9.237651], [-37.96134, -9.237872], [-37.96149, -9.237984], [-37.96178, -9.237896], [-37.9623, -9.236258], [-37.96339, -9.234768], [-37.96492, -9.233224], [-37.96344, -9.232586], [-37.96221, -9.232837], [-37.96193, -9.232959], [-37.96224, -9.233464], [-37.96149, -9.234846], [-37.95976, -9.235047], [-37.95751, -9.233366], [-37.95672, -9.233179], [-37.95671, -9.232861], [-37.95716, -9.231872], [-37.9581, -9.231543], [-37.96059, -9.231333], [-37.96086, -9.230881], [-37.96213, -9.230015], [-37.96249, -9.229511], [-37.96313, -9.227944], [-37.96393, -9.227234], [-37.96654, -9.22629], [-37.96769, -9.226171], [-37.96845, -9.225617], [-37.96856, -9.225214], [-37.96844, -9.224045], [-37.96813, -9.22355], [-37.96815, -9.222758], [-37.9685, -9.22235], [-37.96892, -9.221379], [-37.96996, -9.220554], [-37.97013, -9.220252], [-37.97014, -9.219633], [-37.9696, -9.219193], [-37.96879, -9.217214], [-37.9677, -9.215223], [-37.96755, -9.21444], [-37.96709, -9.214394], [-37.96732, -9.213988], [-37.9672, -9.213646], [-37.96557, -9.212408], [-37.9634, -9.211488], [-37.96188, -9.21105], [-37.96094, -9.209583], [-37.96031, -9.209064], [-37.95875, -9.208227], [-37.95755, -9.206238], [-37.95728, -9.20599], [-37.9566, -9.205777], [-37.95631, -9.205256], [-37.95582, -9.204839], [-37.95448, -9.204415], [-37.95258, -9.202895], [-37.95168, -9.20276], [-37.95041, -9.202192], [-37.94844, -9.200333], [-37.94666, -9.199096], [-37.94445, -9.198518], [-37.94438, -9.198252], [-37.94465, -9.197239], [-37.94454, -9.196802], [-37.94355, -9.195665], [-37.94303, -9.194166], [-37.94258, -9.193682], [-37.9424, -9.193174], [-37.94185, -9.193254], [-37.94142, -9.193815], [-37.94044, -9.194232], [-37.93986, -9.194881], [-37.93937, -9.195888], [-37.93951, -9.196174], [-37.93929, -9.196464], [-37.93843, -9.196672], [-37.93769, -9.197304], [-37.93723, -9.197465], [-37.93536, -9.199212], [-37.93503, -9.20093], [-37.93622, -9.206606], [-37.93602, -9.207062], [-37.93451, -9.208812], [-37.93004, -9.211334], [-37.92934, -9.212264], [-37.92914, -9.21309], [-37.9293, -9.214322], [-37.92907, -9.215074], [-37.92909, -9.21558], [-37.92999, -9.219819], [-37.93058, -9.221178], [-37.93144, -9.221974], [-37.93233, -9.223138], [-37.93301, -9.225164], [-37.93355, -9.225566], [-37.93393, -9.226173], [-37.93434, -9.227032], [-37.93426, -9.227497], [-37.93442, -9.228362], [-37.93504, -9.22948], [-37.93812, -9.23261], [-37.94116, -9.234018], [-37.9442, -9.236731], [-37.94541, -9.237521], [-37.94652, -9.238738], [-37.94781, -9.239299], [-37.94996, -9.241039], [-37.9507, -9.24183], [-37.95231, -9.242751], [-37.95247, -9.244486], [-37.95227, -9.245454], [-37.95299, -9.246764], [-37.9547, -9.248452], [-37.95537, -9.248943], [-37.95756, -9.249729], [-37.95769, -9.250092], [-37.95887, -9.250189], [-37.9599, -9.249527], [-37.96059, -9.249382], [-37.961, -9.249448], [-37.96131, -9.249881], [-37.96166, -9.250069], [-37.96318, -9.250259], [-37.96546, -9.25025], [-37.96561, -9.250093], [-37.96576, -9.248402], [-37.96635, -9.247943], [-37.9665, -9.247603], [-37.96643, -9.24657], [-37.96675, -9.246079], [-37.96659, -9.245633], [-37.96512, -9.2446], [-37.96325, -9.244062], [-37.95996, -9.242157], [-37.9586, -9.241633], [-37.95853, -9.241799], [-37.95829, -9.241703], [-37.95711, -9.240892], [-37.95671, -9.239551], [-37.95588, -9.238627], [-37.95563, -9.237383], [-37.95531, -9.23705], [-37.95516, -9.235143], [-37.9559, -9.234938], [-37.95629, -9.235597]]]}}, 
{"type": "Feature", "properties": {"CD_SETOR": "270010205000064", "CD_SIT": "8", "NM_DIST": "Água Branca", "NM_SUBDIST": null}, "geometry": {"type": "Polygon", "coordinates": [[[-37.96141, -9.238756], [-37.96571, -9.239985], [-37.96662, -9.240371], [-37.96751, -9.240312], [-37.96798, -9.240665], [-37.96872, -9.240818], [-37.96961, -9.240449], [-37.97193, -9.241152], [-37.97292, -9.24124], [-37.97331, -9.241064], [-37.97583, -9.24145], [-37.97625, -9.241101], [-37.97775, -9.240479], [-37.97862, -9.240368], [-37.98023, -9.240635], [-37.98232, -9.239919], [-37.98332, -9.239081], [-37.98346, -9.238667], [-37.98488, -9.237336], [-37.98545, -9.237077], [-37.98624, -9.236277], [-37.98651, -9.235784], [-37.98692, -9.235505], [-37.98779, -9.233769], [-37.9882, -9.233465], [-37.98852, -9.232025], [-37.98743, -9.230646], [-37.98622, -9.229678], [-37.9861, -9.229104], [-37.98564, -9.228305], [-37.98461, -9.22754], [-37.98378, -9.225984], [-37.98265, -9.225632], [-37.9814, -9.224734], [-37.9805, -9.224467], [-37.97963, -9.223992], [-37.97936, -9.223602], [-37.97917, -9.222635], [-37.97876, -9.222113], [-37.97877, -9.221593], [-37.97857, -9.22113], [-37.9776, -9.220278], [-37.97696, -9.219351], [-37.97502, -9.218875], [-37.97455, -9.218625], [-37.97383, -9.218616], [-37.97339, -9.218146], [-37.97337, -9.217738], [-37.97304, -9.217218], [-37.97122, -9.21578], [-37.96839, -9.214468], [-37.96755, -9.21444], [-37.9677, -9.215223], [-37.96879, -9.217214], [-37.9696, -9.219193], [-37.97014, -9.219633], [-37.97013, -9.220252], [-37.96996, -9.220554], [-37.96892, -9.221379], [-37.9685, -9.22235], [-37.96815, -9.222758], [-37.96813, -9.22355], [-37.96844, -9.224045], [-37.96854, -9.225429], [-37.96769, -9.226171], [-37.96654, -9.22629], [-37.96431, -9.227033], [-37.96313, -9.227944], [-37.96249, -9.229511], [-37.96213, -9.230015], [-37.96086, -9.230881], [-37.96059, -9.231333], [-37.96056, -9.233337], [-37.96107, -9.233351], [-37.96276, -9.232659], [-37.96344, -9.232586], [-37.96492, -9.233224], [-37.96316, -9.235097], [-37.96422, -9.23564], [-37.96325, -9.236753], [-37.96603, -9.236444], [-37.96695, -9.236853], [-37.96966, -9.235647], [-37.97022, -9.235706], [-37.97121, -9.236336], [-37.9666, -9.239449], [-37.96585, -9.239125], [-37.96703, -9.238158], [-37.9635, -9.238118], [-37.96253, -9.238507], [-37.96201, -9.237741], [-37.9618, -9.237746], [-37.96165, -9.238023], [-37.96177, -9.238124], [-37.96141, -9.238756]]]}}, 
{"type": "Feature", "properties": {"CD_SETOR": "270010205000065", "CD_SIT": "5", "NM_DIST": "Água Branca", "NM_SUBDIST": null}, "geometry": {"type": "Polygon", "coordinates": [[[-37.88648, -9.294564], [-37.88677, -9.294816], [-37.88898, -9.293398], [-37.88871, -9.29286], [-37.88814, -9.292561], [-37.88648, -9.294564]]]}}, 
{"type": "Feature", "properties": {"CD_SETOR": "270010205000067", "CD_SIT": "5", "NM_DIST": "Água Branca", "NM_SUBDIST": null}, "geometry": {"type": "Polygon", "coordinates": [[[-37.91229, -9.241638], [-37.91256, -9.241564], [-37.91701, -9.242244], [-37.91804, -9.242759], [-37.91807, -9.241905], [-37.91647, -9.241215], [-37.91499, -9.241261], [-37.91563, -9.239389], [-37.91662, -9.239933], [-37.91714, -9.239226], [-37.9156, -9.23818], [-37.91437, -9.239863], [-37.91357, -9.238861], [-37.91215, -9.24097], [-37.91229, -9.241638]]]}}, 
{"type": "Feature", "properties": {"CD_SETOR": "270010205000068", "CD_SIT": "8", "NM_DIST": "Água Branca", "NM_SUBDIST": null}, "geometry": {"type": "Polygon", "coordinates": [[[-37.88188, -9.207969], [-37.88236, -9.208822], [-37.89099, -9.218224], [-37.89157, -9.218779], [-37.89283, -9.219448], [-37.89625, -9.225508], [-37.89684, -9.225849], [-37.8991, -9.226372], [-37.89953, -9.226688], [-37.90073, -9.229139], [-37.90164, -9.230059], [-37.90251, -9.23138], [-37.90486, -9.234065], [-37.90506, -9.235306], [-37.90526, -9.235641], [-37.90655, -9.236832], [-37.90725, -9.237159], [-37.9095, -9.237081], [-37.90973, -9.237302], [-37.90975, -9.238044], [-37.90997, -9.238444], [-37.9113, -9.239174], [-37.91147, -9.23967], [-37.91137, -9.24081], [-37.91105, -9.241027], [-37.91039, -9.24103], [-37.91008, -9.241202], [-37.90993, -9.241535], [-37.91009, -9.241974], [-37.91069, -9.242228], [-37.91229, -9.241638], [-37.91215, -9.24097], [-37.91357, -9.238861], [-37.91437, -9.239863], [-37.9156, -9.23818], [-37.91714, -9.239226], [-37.91662, -9.239933], [-37.91563, -9.239389], [-37.91499, -9.241261], [-37.91647, -9.241215], [-37.91807, -9.241905], [-37.91804, -9.242759], [-37.91924, -9.243484], [-37.91965, -9.241829], [-37.92003, -9.241146], [-37.92345, -9.236508], [-37.9246, -9.235447], [-37.92544, -9.233364], [-37.92585, -9.23076], [-37.92474, -9.22991], [-37.92408, -9.228537], [-37.9229, -9.227697], [-37.92104, -9.224], [-37.92033, -9.221811], [-37.91905, -9.218867], [-37.91899, -9.218338], [-37.91927, -9.216911], [-37.91985, -9.215654], [-37.91944, -9.214723], [-37.9197, -9.212356], [-37.91942, -9.211672], [-37.91943, -9.210722], [-37.92057, -9.208583], [-37.92056, -9.20831], [-37.91948, -9.206319], [-37.91938, -9.204449], [-37.91905, -9.203981], [-37.91814, -9.203451], [-37.91741, -9.203231], [-37.91621, -9.20215], [-37.91532, -9.20173], [-37.91479, -9.201179], [-37.91296, -9.201019], [-37.91284, -9.19914], [-37.91227, -9.197175], [-37.91142, -9.198124], [-37.90944, -9.199013], [-37.90856, -9.200232], [-37.90823, -9.200407], [-37.90599, -9.200264], [-37.90511, -9.200607], [-37.90258, -9.200948], [-37.90173, -9.201299], [-37.89935, -9.201747], [-37.89794, -9.202237], [-37.89609, -9.202436], [-37.89501, -9.202389], [-37.8928, -9.203294], [-37.89121, -9.202956], [-37.89019, -9.203181], [-37.8888, -9.203002], [-37.88681, -9.203191], [-37.88596, -9.20357], [-37.88548, -9.204116], [-37.88387, -9.20536], [-37.88188, -9.207969]]]}}, 
{"type": "Feature", "properties": {"CD_SETOR": "270010205000069", "CD_SIT": "5", "NM_DIST": "Água Branca", "NM_SUBDIST": null}, "geometry": {"type": "Polygon", "coordinates": [[[-37.91255, -9.241803], [-37.91295, -9.24283], [-37.91435, -9.243799], [-37.91551, -9.243685], [-37.91669, -9.244172], [-37.91787, -9.244022], [-37.91822, -9.242864], [-37.91701, -9.242244], [-37.91262, -9.241588], [-37.91255, -9.241803]]]}}, 
{"type": "Feature", "properties": {"CD_SETOR": "270010205000070", "CD_SIT": "8", "NM_DIST": "Água Branca", "NM_SUBDIST": null}, "geometry": {"type": "Polygon", "coordinates": [[[-37.903, -9.245938], [-37.90326, -9.246296], [-37.90306, -9.246419], [-37.90219, -9.246252], [-37.90189, -9.246395], [-37.9017, -9.246127], [-37.90137, -9.246478], [-37.90009, -9.247099], [-37.89972, -9.247053], [-37.89952, -9.247282], [-37.89837, -9.247215], [-37.89691, -9.247778], [-37.89584, -9.247588], [-37.89458, -9.2486], [-37.89364, -9.248955], [-37.89297, -9.249015], [-37.89338, -9.249756], [-37.89372, -9.25097], [-37.89411, -9.251614], [-37.89428, -9.252555], [-37.895, -9.253709], [-37.89446, -9.256391], [-37.8939, -9.25771], [-37.8932, -9.258497], [-37.89286, -9.259426], [-37.89288, -9.260712], [-37.89327, -9.261553], [-37.8922, -9.262795], [-37.89225, -9.26321], [-37.89255, -9.263456], [-37.89403, -9.275258], [-37.89419, -9.275505], [-37.89524, -9.275414], [-37.89686, -9.274489], [-37.89706, -9.274089], [-37.89748, -9.273751], [-37.89801, -9.272731], [-37.89918, -9.271649], [-37.89987, -9.271504], [-37.90073, -9.270951], [-37.902, -9.270994], [-37.90395, -9.270509], [-37.90444, -9.270207], [-37.90474, -9.269718], [-37.90589, -9.269641], [-37.90712, -9.269307], [-37.9085, -9.269566], [-37.90958, -9.270365], [-37.9111, -9.270726], [-37.91166, -9.271581], [-37.91258, -9.27215], [-37.91399, -9.272412], [-37.91502, -9.272161], [-37.91581, -9.272797], [-37.91747, -9.273455], [-37.91806, -9.273477], [-37.91994, -9.272999], [-37.92239, -9.272082], [-37.92311, -9.271436], [-37.92412, -9.269948], [-37.92436, -9.268924], [-37.92439, -9.267491], [-37.92593, -9.266563], [-37.92653, -9.266514], [-37.92728, -9.26618], [-37.92868, -9.266078], [-37.93028, -9.265666], [-37.93137, -9.264776], [-37.93214, -9.264532], [-37.93183, -9.264045], [-37.93271, -9.263491], [-37.93245, -9.263047], [-37.93253, -9.262406], [-37.93237, -9.262018], [-37.93146, -9.262106], [-37.92945, -9.261721], [-37.92978, -9.261275], [-37.92953, -9.26084], [-37.92941, -9.259586], [-37.93008, -9.258611], [-37.9293, -9.256945], [-37.92993, -9.25635], [-37.92956, -9.255385], [-37.9296, -9.254352], [-37.92924, -9.253648], [-37.92962, -9.252739], [-37.92992, -9.252472], [-37.92881, -9.250709], [-37.92814, -9.250247], [-37.92608, -9.249354], [-37.92377, -9.247734], [-37.92293, -9.245881], [-37.92237, -9.245337], [-37.91822, -9.242864], [-37.91787, -9.244022], [-37.91669, -9.244172], [-37.91551, -9.243685], [-37.91435, -9.243799], [-37.91295, -9.24283], [-37.91255, -9.241803], [-37.91175, -9.243783], [-37.9111, -9.24354], [-37.91051, -9.243865], [-37.9101, -9.243843], [-37.90894, -9.244329], [-37.90807, -9.244157], [-37.90722, -9.244249], [-37.90674, -9.244432], [-37.90645, -9.244794], [-37.90502, -9.244885], [-37.90458, -9.24517], [-37.90401, -9.244828], [-37.90386, -9.245283], [-37.903, -9.245938]], [[-37.89819, -9.251099], [-37.89893, -9.250723], [-37.89986, -9.251832], [-37.901, -9.251908], [-37.90124, -9.251803], [-37.90247, -9.253131], [-37.90105, -9.253816], [-37.90047, -9.25457], [-37.89946, -9.254828], [-37.89902, -9.253347], [-37.89907, -9.252944], [-37.89819, -9.251099]]]}}, 
{"type": "Feature", "properties": {"CD_SETOR": "270010205000071", "CD_SIT": "7", "NM_DIST": "Água Branca", "NM_SUBDIST": null}, "geometry": {"type": "Polygon", "coordinates": [[[-37.89819, -9.251099], [-37.89907, -9.252944], [-37.89902, -9.253347], [-37.89946, -9.254828], [-37.90047, -9.25457], [-37.90105, -9.253816], [-37.90247, -9.253131], [-37.90124, -9.251803], [-37.901, -9.251908], [-37.89986, -9.251832], [-37.89893, -9.250723], [-37.89819, -9.251099]]]}}, 
{"type": "Feature", "properties": {"CD_SETOR": "270010205000072", "CD_SIT": "5", "NM_DIST": "Água Branca", "NM_SUBDIST": null}, "geometry": {"type": "Polygon", "coordinates": [[[-37.86126, -9.310211], [-37.8615, -9.3102], [-37.86202, -9.308165], [-37.86341, -9.308083], [-37.86383, -9.309086], [-37.86381, -9.310128], [-37.86451, -9.310169], [-37.86458, -9.307985], [-37.86318, -9.306177], [-37.86376, -9.30589], [-37.865, -9.307131], [-37.86533, -9.306791], [-37.8642, -9.305408], [-37.86221, -9.305085], [-37.86192, -9.305854], [-37.86178, -9.307954], [-37.86136, -9.309101], [-37.86126, -9.310211]]]}}, 
{"type": "Feature", "properties": {"CD_SETOR": "270010205000073", "CD_SIT": "5", "NM_DIST": "Água Branca", "NM_SUBDIST": null}, "geometry": {"type": "Polygon", "coordinates": [[[-37.86126, -9.310243], [-37.86136, -9.309101], [-37.86178, -9.307954], [-37.86192, -9.305854], [-37.86222, -9.305041], [-37.86018, -9.304627], [-37.85996, -9.305609], [-37.86016, -9.305989], [-37.8614, -9.306317], [-37.8607, -9.308247], [-37.86008, -9.308366], [-37.85957, -9.308745], [-37.8597, -9.309523], [-37.86063, -9.309317], [-37.8609, -9.309416], [-37.8607, -9.310255], [-37.86126, -9.310243]]]}}, 
{"type": "Feature", "properties": {"CD_SETOR": "270010205000074", "CD_SIT": "8", "NM_DIST": "Água Branca", "NM_SUBDIST": null}, "geometry": {"type": "Polygon", "coordinates": [[[-37.80251, -9.329079], [-37.80276, -9.328506], [-37.80328, -9.328445], [-37.80442, -9.327617], [-37.8051, -9.328573], [-37.80624, -9.328762], [-37.80721, -9.328699], [-37.80773, -9.329176], [-37.80845, -9.329427], [-37.80876, -9.329729], [-37.8087, -9.330682], [-37.80925, -9.331588], [-37.81099, -9.33279], [-37.81151, -9.333982], [-37.81198, -9.334547], [-37.81319, -9.33514], [-37.81388, -9.335862], [-37.8142, -9.335866], [-37.81472, -9.33532], [-37.81578, -9.335143], [-37.81677, -9.33455], [-37.8182, -9.335034], [-37.81898, -9.337037], [-37.81928, -9.337206], [-37.82019, -9.337188], [-37.82033, -9.337301], [-37.8199, -9.338408], [-37.8201, -9.33907], [-37.82072, -9.339313], [-37.82153, -9.33901], [-37.82167, -9.339079], [-37.82181, -9.339375], [-37.82139, -9.340046], [-37.82149, -9.340513], [-37.82205, -9.340686], [-37.82296, -9.340586], [-37.82338, -9.341177], [-37.82347, -9.341833], [-37.82331, -9.342741], [-37.82407, -9.343785], [-37.82427, -9.344554], [-37.82432, -9.345671], [-37.82411, -9.346884], [-37.8249, -9.348126], [-37.82485, -9.348618], [-37.82453, -9.349163], [-37.82472, -9.349535], [-37.82548, -9.350079], [-37.8265, -9.34972], [-37.82805, -9.349963], [-37.82923, -9.350423], [-37.82992, -9.351073], [-37.83062, -9.351138], [-37.83182, -9.351706], [-37.83506, -9.348867], [-37.83964, -9.343116], [-37.84016, -9.342218], [-37.84207, -9.340256], [-37.84314, -9.338745], [-37.84363, -9.338453], [-37.8437, -9.338154], [-37.84576, -9.335634], [-37.85109, -9.32739], [-37.85604, -9.320373], [-37.85636, -9.319655], [-37.85699, -9.31931], [-37.85962, -9.317011], [-37.8608, -9.31538], [-37.86159, -9.312891], [-37.86126, -9.310243], [-37.8607, -9.310255], [-37.8609, -9.309416], [-37.86063, -9.309317], [-37.8597, -9.309523], [-37.85957, -9.308745], [-37.86008, -9.308366], [-37.8607, -9.308247], [-37.8614, -9.306317], [-37.86016, -9.305989], [-37.85996, -9.305609], [-37.86018, -9.304627], [-37.86222, -9.305041], [-37.86235, -9.304369], [-37.86222, -9.303972], [-37.86108, -9.302707], [-37.86065, -9.298952], [-37.8299, -9.292735], [-37.82755, -9.29386], [-37.82366, -9.296938], [-37.82357, -9.297419], [-37.82378, -9.297802], [-37.82323, -9.299624], [-37.82178, -9.300512], [-37.82096, -9.303395], [-37.82154, -9.305332], [-37.82146, -9.305806], [-37.81843, -9.308197], [-37.81699, -9.309717], [-37.81453, -9.311726], [-37.8129, -9.312357], [-37.81145, -9.313942], [-37.80883, -9.315765], [-37.80272, -9.323944], [-37.80265, -9.324188], [-37.80326, -9.325519], [-37.80322, -9.326229], [-37.80268, -9.326622], [-37.80126, -9.326949], [-37.80251, -9.329079]]]}}, 
{"type": "Feature", "properties": {"CD_SETOR": "270010205000075", "CD_SIT": "8", "NM_DIST": "Água Branca", "NM_SUBDIST": null}, "geometry": {"type": "Polygon", "coordinates": [[[-37.88934, -9.162635], [-37.85265, -9.201039], [-37.85421, -9.202875], [-37.85649, -9.20503], [-37.85666, -9.205083], [-37.85692, -9.204775], [-37.85762, -9.205248], [-37.85849, -9.204985], [-37.85941, -9.205358], [-37.86232, -9.205918], [-37.86269, -9.205544], [-37.86337, -9.205626], [-37.86436, -9.205478], [-37.86512, -9.204731], [-37.86621, -9.203986], [-37.86838, -9.202804], [-37.86892, -9.20206], [-37.86784, -9.201484], [-37.86831, -9.200913], [-37.86798, -9.200316], [-37.86794, -9.199193], [-37.8677, -9.198251], [-37.86772, -9.196624], [-37.86731, -9.19404], [-37.86734, -9.193246], [-37.86771, -9.193274], [-37.86795, -9.192864], [-37.8683, -9.192929], [-37.86902, -9.192226], [-37.86985, -9.191604], [-37.87069, -9.191245], [-37.87119, -9.190712], [-37.87217, -9.190423], [-37.87273, -9.190518], [-37.87318, -9.190352], [-37.87252, -9.189006], [-37.87464, -9.186231], [-37.88079, -9.178975], [-37.88266, -9.180686], [-37.88387, -9.182118], [-37.88585, -9.181549], [-37.88818, -9.18053], [-37.88966, -9.178156], [-37.89158, -9.17431], [-37.8931, -9.172769], [-37.89646, -9.1703], [-37.89934, -9.169201], [-37.89958, -9.168875], [-37.90051, -9.168508], [-37.90164, -9.167318], [-37.90181, -9.166005], [-37.90214, -9.165482], [-37.90292, -9.165254], [-37.90349, -9.165613], [-37.90485, -9.166097], [-37.9064, -9.16586], [-37.90733, -9.165276], [-37.9077, -9.163932], [-37.9085, -9.163481], [-37.90852, -9.163327], [-37.90869, -9.148795], [-37.91008, -9.148186], [-37.91154, -9.146403], [-37.91244, -9.144658], [-37.91247, -9.144176], [-37.91229, -9.143782], [-37.91256, -9.143516], [-37.91303, -9.143423], [-37.91412, -9.143982], [-37.91444, -9.14342], [-37.91461, -9.143406], [-37.9158, -9.143949], [-37.91671, -9.144592], [-37.91718, -9.144626], [-37.91801, -9.144394], [-37.91911, -9.145044], [-37.91924, -9.144913], [-37.92094, -9.146061], [-37.92166, -9.146804], [-37.92221, -9.148948], [-37.9232, -9.150489], [-37.92332, -9.151238], [-37.92508, -9.152475], [-37.92639, -9.152557], [-37.92791, -9.153149], [-37.92806, -9.153405], [-37.92756, -9.154503], [-37.93165, -9.157294], [-37.93193, -9.157107], [-37.93212, -9.15642], [-37.93283, -9.156654], [-37.9338, -9.156311], [-37.93431, -9.156554], [-37.93482, -9.156517], [-37.93468, -9.155849], [-37.93482, -9.155218], [-37.93528, -9.155218], [-37.93561, -9.155443], [-37.93599, -9.155287], [-37.93707, -9.154182], [-37.93758, -9.154444], [-37.93796, -9.154931], [-37.93923, -9.155275], [-37.94012, -9.155034], [-37.9405, -9.154763], [-37.94061, -9.15328], [-37.94094, -9.152886], [-37.94175, -9.152545], [-37.94288, -9.152761], [-37.94349, -9.153166], [-37.94321, -9.15403], [-37.94344, -9.154651], [-37.94381, -9.154896], [-37.94593, -9.154893], [-37.94736, -9.154605], [-37.94915, -9.152484], [-37.94903, -9.151907], [-37.94834, -9.150433], [-37.9485, -9.149245], [-37.949, -9.148098], [-37.95052, -9.147451], [-37.9511, -9.146063], [-37.95155, -9.14614], [-37.95232, -9.145906], [-37.95411, -9.144498], [-37.95566, -9.144485], [-37.95705, -9.143845], [-37.9587, -9.143847], [-37.95919, -9.144113], [-37.96024, -9.145716], [-37.96171, -9.14683], [-37.96562, -9.146905], [-37.96603, -9.147068], [-37.96692, -9.146787], [-37.96821, -9.145538], [-37.96917, -9.145097], [-37.97189, -9.143322], [-37.97289, -9.142227], [-37.97705, -9.14038], [-37.9762, -9.13619], [-37.97554, -9.134942], [-37.97176, -9.131042], [-37.97104, -9.128274], [-37.97146, -9.125693], [-37.9712, -9.124342], [-37.96879, -9.122705], [-37.96234, -9.120578], [-37.96158, -9.12013], [-37.95757, -9.11563], [-37.95485, -9.111315], [-37.95327, -9.106131], [-37.95337, -9.103375], [-37.95176, -9.099784], [-37.95195, -9.098242], [-37.95164, -9.097426], [-37.88934, -9.162635]]]}}, 
{"type": "Feature", "properties": {"CD_SETOR": "270010205000076", "CD_SIT": "8", "NM_DIST": "Água Branca", "NM_SUBDIST": null}, "geometry": {"type": "Polygon", "coordinates": [[[-37.83336, -9.221231], [-37.76882, -9.288778], [-37.76897, -9.289431], [-37.7684, -9.290325], [-37.76813, -9.291073], [-37.76835, -9.291682], [-37.76831, -9.292023], [-37.76933, -9.293386], [-37.77074, -9.294266], [-37.77056, -9.295243], [-37.77079, -9.295808], [-37.77069, -9.296298], [-37.77091, -9.296449], [-37.77076, -9.29662], [-37.77034, -9.296623], [-37.77018, -9.29695], [-37.77049, -9.29705], [-37.77023, -9.297645], [-37.77042, -9.297993], [-37.77043, -9.299864], [-37.77082, -9.300419], [-37.77084, -9.301022], [-37.77133, -9.301562], [-37.7723, -9.301372], [-37.77282, -9.301733], [-37.77276, -9.302567], [-37.77293, -9.302741], [-37.77325, -9.302753], [-37.77372, -9.304047], [-37.77372, -9.305069], [-37.77405, -9.306459], [-37.77388, -9.306837], [-37.7744, -9.307538], [-37.77449, -9.30924], [-37.77406, -9.309556], [-37.77378, -9.310701], [-37.77405, -9.31116], [-37.77391, -9.311621], [-37.77428, -9.312263], [-37.77392, -9.312542], [-37.7743, -9.313577], [-37.77397, -9.314482], [-37.77448, -9.315096], [-37.77464, -9.315535], [-37.77459, -9.315936], [-37.7743, -9.316287], [-37.77424, -9.316937], [-37.77457, -9.317073], [-37.77526, -9.31802], [-37.77518, -9.318692], [-37.77561, -9.320067], [-37.77602, -9.320069], [-37.77599, -9.320596], [-37.77644, -9.321077], [-37.77638, -9.321459], [-37.77657, -9.321721], [-37.77648, -9.322569], [-37.77654, -9.322771], [-37.77691, -9.322815], [-37.77685, -9.323216], [-37.77709, -9.323721], [-37.77704, -9.324316], [-37.77727, -9.324291], [-37.77763, -9.324653], [-37.77838, -9.324964], [-37.77951, -9.326002], [-37.78033, -9.325792], [-37.78039, -9.326394], [-37.78122, -9.326284], [-37.78194, -9.327243], [-37.78256, -9.327039], [-37.78291, -9.327383], [-37.78318, -9.327354], [-37.78331, -9.32718], [-37.78329, -9.326733], [-37.78348, -9.326568], [-37.78381, -9.326958], [-37.78396, -9.326939], [-37.78462, -9.326538], [-37.78501, -9.325902], [-37.78516, -9.325896], [-37.78601, -9.326055], [-37.78639, -9.326409], [-37.78689, -9.326483], [-37.78734, -9.326823], [-37.78785, -9.32671], [-37.7885, -9.326957], [-37.78834, -9.326552], [-37.78844, -9.326492], [-37.7903, -9.326737], [-37.79125, -9.327174], [-37.79152, -9.328044], [-37.79208, -9.328237], [-37.7924, -9.328048], [-37.79285, -9.328429], [-37.79308, -9.328272], [-37.79333, -9.328394], [-37.79348, -9.328188], [-37.7932, -9.327792], [-37.79331, -9.327591], [-37.79416, -9.327919], [-37.79443, -9.328182], [-37.79523, -9.327739], [-37.79556, -9.327938], [-37.79629, -9.327829], [-37.79665, -9.327461], [-37.79685, -9.326643], [-37.79727, -9.326472], [-37.79782, -9.326738], [-37.79803, -9.327202], [-37.79852, -9.327409], [-37.79922, -9.328048], [-37.7996, -9.328803], [-37.80062, -9.329017], [-37.80133, -9.329368], [-37.80235, -9.329449], [-37.80251, -9.329079], [-37.80126, -9.326949], [-37.80268, -9.326622], [-37.80314, -9.326379], [-37.80326, -9.325519], [-37.80267, -9.324032], [-37.80865, -9.315963], [-37.80959, -9.315132], [-37.81145, -9.313942], [-37.8129, -9.312357], [-37.81453, -9.311726], [-37.81699, -9.309717], [-37.81843, -9.308197], [-37.82155, -9.305691], [-37.82096, -9.303395], [-37.82133, -9.302307], [-37.82141, -9.301527], [-37.82178, -9.300512], [-37.82323, -9.299624], [-37.82378, -9.297802], [-37.82357, -9.297419], [-37.82366, -9.296938], [-37.82738, -9.293965], [-37.8299, -9.292735], [-37.8377, -9.294313], [-37.83829, -9.293754], [-37.83844, -9.293423], [-37.8383, -9.2929], [-37.83837, -9.292503], [-37.83815, -9.292408], [-37.83794, -9.292659], [-37.8377, -9.292631], [-37.83741, -9.292236], [-37.83693, -9.292111], [-37.83682, -9.291923], [-37.83725, -9.291644], [-37.83758, -9.290862], [-37.83825, -9.290887], [-37.83845, -9.290746], [-37.83826, -9.290372], [-37.83885, -9.290131], [-37.83892, -9.289798], [-37.83885, -9.289372], [-37.83839, -9.289207], [-37.83837, -9.288997], [-37.83887, -9.288555], [-37.83853, -9.287121], [-37.83914, -9.285536], [-37.83851, -9.285086], [-37.8381, -9.284334], [-37.83803, -9.282771], [-37.83745, -9.282133], [-37.83654, -9.281754], [-37.83593, -9.281651], [-37.83555, -9.28218], [-37.83499, -9.281637], [-37.83466, -9.28175], [-37.83358, -9.281089], [-37.83348, -9.280828], [-37.83282, -9.280532], [-37.8315, -9.278506], [-37.83103, -9.278202], [-37.83113, -9.277191], [-37.83175, -9.276492], [-37.83174, -9.275669], [-37.83151, -9.275079], [-37.83122, -9.274903], [-37.83086, -9.275092], [-37.83058, -9.27468], [-37.83019, -9.273685], [-37.83038, -9.272547], [-37.82985, -9.27223], [-37.8298, -9.27192], [-37.82885, -9.270603], [-37.82905, -9.269478], [-37.82879, -9.268951], [-37.82832, -9.26859], [-37.82748, -9.26834], [-37.82722, -9.267867], [-37.82744, -9.26722], [-37.82638, -9.267148], [-37.82629, -9.266802], [-37.82678, -9.265785], [-37.82795, -9.264313], [-37.82785, -9.263478], [-37.82801, -9.263178], [-37.82704, -9.262944], [-37.82695, -9.261951], [-37.8266, -9.261033], [-37.8268, -9.260568], [-37.82686, -9.259171], [-37.82728, -9.258671], [-37.82711, -9.256971], [-37.82761, -9.256519], [-37.82723, -9.255972], [-37.82682, -9.255798], [-37.82632, -9.254932], [-37.8257, -9.254686], [-37.82564, -9.253838], [-37.82629, -9.25302], [-37.82654, -9.251874], [-37.82603, -9.251166], [-37.82614, -9.25023], [-37.82624, -9.250069], [-37.82698, -9.249817], [-37.82709, -9.249584], [-37.82723, -9.24805], [-37.82773, -9.247075], [-37.82765, -9.24632], [-37.82833, -9.2465], [-37.82834, -9.246334], [-37.82796, -9.245521], [-37.82627, -9.244432], [-37.82528, -9.243438], [-37.82516, -9.24293], [-37.82544, -9.242533], [-37.82583, -9.242631], [-37.82618, -9.24237], [-37.82609, -9.242298], [-37.82694, -9.242019], [-37.82732, -9.241709], [-37.82781, -9.241794], [-37.82765, -9.241191], [-37.82781, -9.240907], [-37.82777, -9.240547], [-37.82814, -9.240535], [-37.82833, -9.240791], [-37.82896, -9.240787], [-37.82921, -9.240979], [-37.82967, -9.241005], [-37.83006, -9.24099], [-37.83064, -9.240622], [-37.83058, -9.240414], [-37.83074, -9.24023], [-37.83022, -9.23991], [-37.83022, -9.239376], [-37.82997, -9.239044], [-37.83011, -9.238556], [-37.82968, -9.238341], [-37.82931, -9.237851], [-37.82835, -9.237438], [-37.82867, -9.236664], [-37.82928, -9.236182], [-37.83005, -9.236274], [-37.82997, -9.23662], [-37.83033, -9.236729], [-37.83105, -9.236552], [-37.83122, -9.236266], [-37.83157, -9.236151], [-37.83169, -9.235789], [-37.83143, -9.23525], [-37.83152, -9.234918], [-37.83138, -9.234568], [-37.83142, -9.233402], [-37.83165, -9.232845], [-37.83248, -9.232234], [-37.83314, -9.232688], [-37.83362, -9.232049], [-37.8339, -9.232203], [-37.83466, -9.232088], [-37.83623, -9.230693], [-37.83645, -9.229844], [-37.83616, -9.229064], [-37.83623, -9.228291], [-37.83735, -9.225951], [-37.83651, -9.224972], [-37.83581, -9.223827], [-37.83336, -9.221231]]]}}, 
{"type": "Feature", "properties": {"CD_SETOR": "270010205000077", "CD_SIT": "1", "NM_DIST": "Água Branca", "NM_SUBDIST": null}, "geometry": {"type": "Polygon", "coordinates": [[[-37.93559, -9.26305], [-37.93511, -9.263313], [-37.93553, -9.264334], [-37.93532, -9.264409], [-37.93609, -9.266198], [-37.93745, -9.265164], [-37.93796, -9.265308], [-37.93806, -9.265046], [-37.93743, -9.264555], [-37.93793, -9.264272], [-37.93794, -9.263452], [-37.93653, -9.263466], [-37.93634, -9.263379], [-37.93604, -9.262701], [-37.93559, -9.26305]]]}}, 
{"type": "Feature", "properties": {"CD_SETOR": "270010205000078", "CD_SIT": "1", "NM_DIST": "Água Branca", "NM_SUBDIST": null}, "geometry": {"type": "Polygon", "coordinates": [[[-37.93609, -9.266198], [-37.93513, -9.266656], [-37.93523, -9.266758], [-37.93379, -9.267924], [-37.93518, -9.269137], [-37.93813, -9.27117], [-37.93756, -9.27234], [-37.93842, -9.272874], [-37.93885, -9.271786], [-37.93878, -9.271025], [-37.93998, -9.269502], [-37.93957, -9.268149], [-37.93963, -9.267116], [-37.93807, -9.265369], [-37.93753, -9.265161], [-37.93609, -9.266198]]]}}, 
{"type": "Feature", "properties": {"CD_SETOR": "270010205000079", "CD_SIT": "1", "NM_DIST": "Água Branca", "NM_SUBDIST": null}, "geometry": {"type": "Polygon", "coordinates": [[[-37.93678, -9.263466], [-37.93837, -9.263464], [-37.939, -9.262535], [-37.93814, -9.261921], [-37.93788, -9.262422], [-37.93732, -9.262194], [-37.93726, -9.261861], [-37.93686, -9.261884], [-37.93643, -9.262537], [-37.93678, -9.263466]]]}}, 
{"type": "Feature", "properties": {"CD_SETOR": "270010205000080", "CD_SIT": "1", "NM_DIST": "Água Branca", "NM_SUBDIST": null}, "geometry": {"type": "Polygon", "coordinates": [[[-37.93794, -9.263452], [-37.93793, -9.264272], [-37.93743, -9.264555], [-37.93806, -9.265046], [-37.93796, -9.265308], [-37.93963, -9.267116], [-37.93957, -9.268149], [-37.93998, -9.269502], [-37.93878, -9.271025], [-37.93885, -9.271786], [-37.93842, -9.272874], [-37.93978, -9.273779], [-37.94097, -9.273423], [-37.94082, -9.271385], [-37.94126, -9.271411], [-37.94133, -9.270665], [-37.94167, -9.270566], [-37.94143, -9.270056], [-37.94065, -9.269407], [-37.94148, -9.26809], [-37.94115, -9.267416], [-37.94134, -9.266752], [-37.94189, -9.266054], [-37.9439, -9.268116], [-37.94456, -9.26639], [-37.94233, -9.265534], [-37.939, -9.262535], [-37.93837, -9.263464], [-37.93794, -9.263452]]]}}, 
{"type": "Feature", "properties": {"CD_SETOR": "270010205000081", "CD_SIT": "1", "NM_DIST": "Água Branca", "NM_SUBDIST": null}, "geometry": {"type": "Polygon", "coordinates": [[[-37.93237, -9.262018], [-37.93253, -9.262406], [-37.93245, -9.263047], [-37.93271, -9.263491], [-37.93183, -9.264045], [-37.93214, -9.264532], [-37.93513, -9.262771], [-37.93559, -9.26305], [-37.93604, -9.262701], [-37.93634, -9.263379], [-37.93678, -9.263466], [-37.93643, -9.262537], [-37.93686, -9.261884], [-37.93726, -9.261861], [-37.93725, -9.261548], [-37.93613, -9.261346], [-37.93578, -9.260476], [-37.93523, -9.260776], [-37.9354, -9.261243], [-37.93494, -9.26191], [-37.93462, -9.261528], [-37.93404, -9.261833], [-37.93237, -9.262018]]]}}, 
{"type": "Feature", "properties": {"CD_SETOR": "270010205000082", "CD_SIT": "2", "NM_DIST": "Água Branca", "NM_SUBDIST": null}, "geometry": {"type": "Polygon", "coordinates": [[[-37.93957, -9.253688], [-37.93932, -9.254226], [-37.93919, -9.255266], [-37.93937, -9.255479], [-37.93921, -9.25588], [-37.93529, -9.259472], [-37.93613, -9.261346], [-37.93725, -9.261548], [-37.93732, -9.262194], [-37.93788, -9.262422], [-37.93814, -9.261921], [-37.94233, -9.265534], [-37.94456, -9.26639], [-37.945, -9.265145], [-37.94342, -9.264391], [-37.94205, -9.26348], [-37.94126, -9.262305], [-37.94181, -9.261661], [-37.94329, -9.257653], [-37.94283, -9.257187], [-37.94295, -9.256764], [-37.9433, -9.256432], [-37.9425, -9.255588], [-37.94185, -9.255906], [-37.94114, -9.255869], [-37.94065, -9.255535], [-37.94025, -9.254859], [-37.94005, -9.253559], [-37.93965, -9.253516], [-37.93957, -9.253688]]]}}, 
{"type": "Feature", "properties": {"CD_SETOR": "270010205000083", "CD_SIT": "1", "NM_DIST": "Água Branca", "NM_SUBDIST": null}, "geometry": {"type": "Polygon", "coordinates": [[[-37.92947, -9.260388], [-37.92978, -9.261275], [-37.92945, -9.261721], [-37.93146, -9.262106], [-37.93404, -9.261833], [-37.93462, -9.261528], [-37.93494, -9.26191], [-37.9354, -9.261243], [-37.93523, -9.260776], [-37.93578, -9.260476], [-37.9355, -9.259821], [-37.93486, -9.260117], [-37.93475, -9.259958], [-37.93361, -9.260307], [-37.93299, -9.260525], [-37.93302, -9.260801], [-37.93239, -9.260871], [-37.93201, -9.260753], [-37.93166, -9.260183], [-37.93124, -9.260214], [-37.93105, -9.259781], [-37.93004, -9.260285], [-37.92992, -9.260512], [-37.92947, -9.260388]]]}}, 
{"type": "Feature", "properties": {"CD_SETOR": "270010205000084", "CD_SIT": "2", "NM_DIST": "Água Branca", "NM_SUBDIST": null}, "geometry": {"type": "Polygon", "coordinates": [[[-37.92992, -9.252472], [-37.92962, -9.252739], [-37.92924, -9.253648], [-37.9296, -9.254352], [-37.92956, -9.255385], [-37.92993, -9.25635], [-37.9293, -9.256945], [-37.93008, -9.258611], [-37.92941, -9.259586], [-37.92957, -9.260451], [-37.92992, -9.260512], [-37.93004, -9.260285], [-37.93105, -9.259781], [-37.93124, -9.260214], [-37.93166, -9.260183], [-37.93201, -9.260753], [-37.93239, -9.260871], [-37.93302, -9.260801], [-37.93299, -9.260525], [-37.93361, -9.260307], [-37.93475, -9.259958], [-37.93486, -9.260117], [-37.9355, -9.259821], [-37.93529, -9.259472], [-37.93855, -9.256609], [-37.93936, -9.255594], [-37.9392, -9.255118], [-37.93932, -9.254226], [-37.93957, -9.253688], [-37.93858, -9.253529], [-37.93855, -9.253196], [-37.93827, -9.253175], [-37.93775, -9.255029], [-37.9368, -9.254714], [-37.93757, -9.252654], [-37.93596, -9.252913], [-37.93549, -9.253334], [-37.93509, -9.253414], [-37.93483, -9.253363], [-37.93442, -9.252905], [-37.93349, -9.252356], [-37.93282, -9.252142], [-37.93149, -9.252401], [-37.93006, -9.252329], [-37.92992, -9.252472]]]}}, 
{"type": "Feature", "properties": {"CD_SETOR": "270010205000085", "CD_SIT": "5", "NM_DIST": "Água Branca", "NM_SUBDIST": null}, "geometry": {"type": "Polygon", "coordinates": [[[-37.95961, -9.279683], [-37.95888, -9.281221], [-37.95905, -9.284595], [-37.9615, -9.286489], [-37.96157, -9.286976], [-37.9626, -9.287716], [-37.96386, -9.287913], [-37.96458, -9.28747], [-37.96587, -9.288518], [-37.96651, -9.287967], [-37.95961, -9.279683]]]}}, 
{"type": "Feature", "properties": {"CD_SETOR": "270010205000086", "CD_SIT": "8", "NM_DIST": "Água Branca", "NM_SUBDIST": null}, "geometry": {"type": "Polygon", "coordinates": [[[-37.89419, -9.275505], [-37.89392, -9.275634], [-37.89328, -9.276632], [-37.89361, -9.276743], [-37.89366, -9.277487], [-37.89504, -9.277403], [-37.89504, -9.276209], [-37.89572, -9.276194], [-37.89647, -9.278288], [-37.89524, -9.280028], [-37.89757, -9.283146], [-37.89787, -9.284223], [-37.89754, -9.286019], [-37.89836, -9.285497], [-37.89915, -9.286322], [-37.89953, -9.287535], [-37.89965, -9.289495], [-37.90117, -9.291459], [-37.90179, -9.292872], [-37.90302, -9.294582], [-37.90365, -9.296719], [-37.90383, -9.298928], [-37.90419, -9.300545], [-37.90471, -9.30095], [-37.90465, -9.300192], [-37.90822, -9.299933], [-37.91088, -9.303012], [-37.91075, -9.303566], [-37.91539, -9.306757], [-37.91678, -9.30717], [-37.91618, -9.310127], [-37.94251, -9.315424], [-37.98326, -9.330079], [-37.98073, -9.313528], [-37.98032, -9.312756], [-37.97841, -9.311138], [-37.97784, -9.310392], [-37.97751, -9.306704], [-37.97703, -9.305025], [-37.97534, -9.302173], [-37.97183, -9.2979], [-37.97153, -9.295163], [-37.9701, -9.291946], [-37.96953, -9.291143], [-37.96651, -9.287967], [-37.96587, -9.288518], [-37.96458, -9.28747], [-37.96386, -9.287913], [-37.9626, -9.287716], [-37.96157, -9.286976], [-37.9615, -9.286489], [-37.95905, -9.284595], [-37.95888, -9.281221], [-37.95961, -9.279683], [-37.9574, -9.277046], [-37.9508, -9.271679], [-37.94977, -9.270207], [-37.94872, -9.269939], [-37.9473, -9.268458], [-37.94452, -9.266483], [-37.9439, -9.268116], [-37.94189, -9.266054], [-37.94134, -9.266752], [-37.94115, -9.267416], [-37.94148, -9.26809], [-37.94065, -9.269407], [-37.94143, -9.270056], [-37.94167, -9.270566], [-37.94133, -9.270665], [-37.94126, -9.271411], [-37.94082, -9.271385], [-37.94097, -9.273423], [-37.93978, -9.273779], [-37.93756, -9.27234], [-37.93813, -9.27117], [-37.93518, -9.269137], [-37.93379, -9.267924], [-37.93197, -9.265631], [-37.93134, -9.266202], [-37.93077, -9.265265], [-37.93028, -9.265666], [-37.92938, -9.265944], [-37.92752, -9.266131], [-37.92653, -9.266514], [-37.92593, -9.266563], [-37.92439, -9.267491], [-37.92436, -9.268924], [-37.92412, -9.269948], [-37.92311, -9.271436], [-37.92239, -9.272082], [-37.91962, -9.273091], [-37.91806, -9.273477], [-37.91747, -9.273455], [-37.91581, -9.272797], [-37.91502, -9.272161], [-37.91399, -9.272412], [-37.91258, -9.27215], [-37.91166, -9.271581], [-37.9111, -9.270726], [-37.90958, -9.270365], [-37.9085, -9.269566], [-37.90712, -9.269307], [-37.90589, -9.269641], [-37.90474, -9.269718], [-37.90444, -9.270207], [-37.90395, -9.270509], [-37.902, -9.270994], [-37.90073, -9.270951], [-37.89987, -9.271504], [-37.89918, -9.271649], [-37.89801, -9.272731], [-37.89748, -9.273751], [-37.89706, -9.274089], [-37.89686, -9.274489], [-37.89524, -9.275414], [-37.89419, -9.275505]], [[-37.95792, -9.293497], [-37.95803, -9.293591], [-37.95781, -9.293724], [-37.95677, -9.294134], [-37.95695, -9.294336], [-37.95508, -9.297177], [-37.95457, -9.296921], [-37.95475, -9.296363], [-37.95367, -9.295767], [-37.95396, -9.295339], [-37.95522, -9.29602], [-37.95516, -9.29367], [-37.95557, -9.292222], [-37.95467, -9.291849], [-37.95448, -9.292269], [-37.95386, -9.292268], [-37.95504, -9.290452], [-37.95118, -9.289084], [-37.95073, -9.288489], [-37.95153, -9.286558], [-37.95155, -9.285096], [-37.95187, -9.285218], [-37.95223, -9.285059], [-37.95302, -9.285738], [-37.9542, -9.287583], [-37.95518, -9.288679], [-37.95567, -9.287751], [-37.95632, -9.287781], [-37.956, -9.289105], [-37.95689, -9.289543], [-37.95786, -9.289742], [-37.95809, -9.289009], [-37.95867, -9.288818], [-37.95879, -9.289098], [-37.95906, -9.288989], [-37.95944, -9.28852], [-37.96021, -9.288175], [-37.96014, -9.287884], [-37.96088, -9.287737], [-37.96115, -9.287871], [-37.96136, -9.288406], [-37.96251, -9.288204], [-37.96332, -9.288796], [-37.96247, -9.290037], [-37.96097, -9.291151], [-37.96117, -9.291726], [-37.96065, -9.292066], [-37.95977, -9.291711], [-37.9578, -9.293024], [-37.95792, -9.293497]]]}}, 
{"type": "Feature", "properties": {"CD_SETOR": "270010205000087", "CD_SIT": "8", "NM_DIST": "Água Branca", "NM_SUBDIST": null}, "geometry": {"type": "Polygon", "coordinates": [[[-37.90137, -9.246478], [-37.90096, -9.246116], [-37.89847, -9.242559], [-37.89793, -9.243541], [-37.89725, -9.243271], [-37.89734, -9.241352], [-37.89584, -9.240933], [-37.89569, -9.239816], [-37.89417, -9.236668], [-37.89592, -9.235783], [-37.89843, -9.239763], [-37.9027, -9.243871], [-37.90314, -9.245849], [-37.90386, -9.245283], [-37.90401, -9.244828], [-37.90458, -9.24517], [-37.90502, -9.244885], [-37.90645, -9.244794], [-37.90674, -9.244432], [-37.90722, -9.244249], [-37.90807, -9.244157], [-37.90894, -9.244329], [-37.9101, -9.243843], [-37.91051, -9.243865], [-37.9111, -9.24354], [-37.91175, -9.243783], [-37.91262, -9.241588], [-37.91062, -9.242237], [-37.91005, -9.241926], [-37.90993, -9.24146], [-37.91008, -9.241202], [-37.91039, -9.24103], [-37.91105, -9.241027], [-37.91137, -9.24081], [-37.91147, -9.23967], [-37.9113, -9.239174], [-37.90997, -9.238444], [-37.90975, -9.238044], [-37.90973, -9.237302], [-37.9095, -9.237081], [-37.90725, -9.237159], [-37.90655, -9.236832], [-37.90526, -9.235641], [-37.90506, -9.235306], [-37.90486, -9.234065], [-37.90251, -9.23138], [-37.90164, -9.230059], [-37.90073, -9.229139], [-37.89953, -9.226688], [-37.8991, -9.226372], [-37.89684, -9.225849], [-37.89625, -9.225508], [-37.89283, -9.219448], [-37.89133, -9.218572], [-37.88631, -9.213127], [-37.88586, -9.213437], [-37.88505, -9.214536], [-37.88668, -9.215129], [-37.88746, -9.216363], [-37.8866, -9.217465], [-37.88656, -9.219585], [-37.88568, -9.221758], [-37.88478, -9.223128], [-37.88371, -9.224199], [-37.88388, -9.224542], [-37.88438, -9.224823], [-37.88517, -9.224928], [-37.88655, -9.231612], [-37.88676, -9.23392], [-37.8869, -9.234307], [-37.88738, -9.23451], [-37.88735, -9.234725], [-37.88803, -9.235719], [-37.88829, -9.237603], [-37.88913, -9.238242], [-37.88999, -9.23857], [-37.89142, -9.239513], [-37.89188, -9.239622], [-37.89187, -9.241376], [-37.89202, -9.241654], [-37.89286, -9.241709], [-37.89286, -9.242139], [-37.89324, -9.242851], [-37.89322, -9.243458], [-37.89259, -9.244524], [-37.8922, -9.246656], [-37.89285, -9.248912], [-37.893, -9.249068], [-37.89428, -9.248744], [-37.89584, -9.247588], [-37.89691, -9.247778], [-37.89837, -9.247215], [-37.89952, -9.247282], [-37.89972, -9.247053], [-37.90009, -9.247099], [-37.90137, -9.246478]]]}}, 
{"type": "Feature", "properties": {"CD_SETOR": "270010205000088", "CD_SIT": "5", "NM_DIST": "Água Branca", "NM_SUBDIST": null}, "geometry": {"type": "Polygon", "coordinates": [[[-37.90314, -9.245849], [-37.9027, -9.243871], [-37.89843, -9.239763], [-37.89592, -9.235783], [-37.89417, -9.236668], [-37.89569, -9.239816], [-37.89584, -9.240933], [-37.89734, -9.241352], [-37.89725, -9.243271], [-37.89793, -9.243541], [-37.89847, -9.242559], [-37.90096, -9.246116], [-37.90137, -9.246478], [-37.9017, -9.246127], [-37.90189, -9.246395], [-37.90219, -9.246252], [-37.90306, -9.246419], [-37.90326, -9.246296], [-37.903, -9.245938], [-37.90314, -9.245849]]]}}]}