{"type": "FeatureCollection", "features": [
{"type": "Feature", "properties": {"CD_SETOR": "270250405000002", "CD_SIT": "1", "NM_DIST": "Dois Riachos", "NM_SUBDIST": null}, "geometry": {"type": "Polygon", "coordinates": [[[-37.0863, -9.38467], [-37.08634, -9.386537], [-37.08595, -9.387361], [-37.08539, -9.387893], [-37.09035, -9.388583], [-37.09036, -9.386845], [-37.08803, -9.386769], [-37.08776, -9.384157], [-37.0863, -9.38467]]]}}, 
{"type": "Feature", "properties": {"CD_SETOR": "270250405000003", "CD_SIT": "1", "NM_DIST": "Dois Riachos", "NM_SUBDIST": null}, "geometry": {"type": "Polygon", "coordinates": [[[-37.09116, -9.384405], [-37.09109, -9.385082], [-37.09346, -9.385777], [-37.09346, -9.38792], [-37.09036, -9.387867], [-37.09035, -9.388583], [-37.08539, -9.387893], [-37.08508, -9.388302], [-37.08853, -9.389288], [-37.09023, -9.389521], [-37.10037, -9.389054], [-37.10032, -9.387989], [-37.09847, -9.388099], [-37.09675, -9.386508], [-37.09556, -9.386198], [-37.09575, -9.385395], [-37.09484, -9.385194], [-37.09469, -9.382645], [-37.09374, -9.383443], [-37.09297, -9.383612], [-37.09241, -9.384393], [-37.09186, -9.38451], [-37.09116, -9.384405]]]}}, 
{"type": "Feature", "properties": {"CD_SETOR": "270250405000004", "CD_SIT": "1", "NM_DIST": "Dois Riachos", "NM_SUBDIST": null}, "geometry": {"type": "Polygon", "coordinates": [[[-37.08051, -9.387052], [-37.07995, -9.388521], [-37.08241, -9.391381], [-37.08373, -9.391471], [-37.08435, -9.38959], [-37.0852, -9.388075], [-37.08595, -9.387361], [-37.08634, -9.386537], [-37.08634, -9.384901], [-37.08594, -9.383084], [-37.08585, -9.381668], [-37.08089, -9.386031], [-37.08051, -9.387052]]]}}, 
{"type": "Feature", "properties": {"CD_SETOR": "270250405000005", "CD_SIT": "8", "NM_DIST": "Dois Riachos", "NM_SUBDIST": null}, "geometry": {"type": "Polygon", "coordinates": [[[-37.04958, -9.364268], [-37.05258, -9.366795], [-37.05373, -9.368173], [-37.05441, -9.3704], [-37.05544, -9.37257], [-37.0561, -9.374942], [-37.05722, -9.375879], [-37.05762, -9.376729], [-37.05793, -9.377968], [-37.05951, -9.379492], [-37.06076, -9.381605], [-37.06079, -9.382017], [-37.06285, -9.382115], [-37.06399, -9.382382], [-37.06498, -9.383015], [-37.06605, -9.383429], [-37.06629, -9.383968], [-37.06774, -9.384235], [-37.06808, -9.384927], [-37.06994, -9.384537], [-37.07167, -9.384532], [-37.08051, -9.387052], [-37.08089, -9.386031], [-37.08585, -9.381668], [-37.08509, -9.377901], [-37.08459, -9.373043], [-37.08762, -9.369748], [-37.08801, -9.368363], [-37.08782, -9.367037], [-37.08549, -9.365327], [-37.07929, -9.362086], [-37.0792, -9.360998], [-37.07852, -9.360141], [-37.0725, -9.356936], [-37.07119, -9.35296], [-37.06941, -9.350626], [-37.06803, -9.349241], [-37.06747, -9.348178], [-37.06756, -9.347462], [-37.06993, -9.344694], [-37.06979, -9.342866], [-37.06918, -9.340188], [-37.06974, -9.33792], [-37.06978, -9.336547], [-37.0693, -9.3354], [-37.0685, -9.334086], [-37.06801, -9.331249], [-37.06668, -9.331015], [-37.06562, -9.330326], [-37.06425, -9.328948], [-37.06414, -9.328525], [-37.06442, -9.327243], [-37.06561, -9.324958], [-37.06625, -9.322195], [-37.06617, -9.320054], [-37.06543, -9.319102], [-37.06418, -9.318952], [-37.05953, -9.319741], [-37.05777, -9.318957], [-37.05731, -9.318422], [-37.05647, -9.318526], [-37.05557, -9.318254], [-37.0549, -9.318911], [-37.05483, -9.32023], [-37.05461, -9.320962], [-37.05398, -9.321852], [-37.05296, -9.322534], [-37.05268, -9.323132], [-37.05153, -9.323736], [-37.04821, -9.326476], [-37.04613, -9.328464], [-37.0455, -9.328721], [-37.04483, -9.328647], [-37.04406, -9.329691], [-37.04406, -9.330289], [-37.0433, -9.331469], [-37.0424, -9.333504], [-37.03964, -9.3365], [-37.03882, -9.337808], [-37.03775, -9.338667], [-37.03599, -9.339626], [-37.03379, -9.341426], [-37.03211, -9.342118], [-37.03015, -9.342104], [-37.02956, -9.342322], [-37.02896, -9.342593], [-37.02817, -9.343435], [-37.0258, -9.344827], [-37.0246, -9.345064], [-37.02339, -9.345831], [-37.02256, -9.34605], [-37.02039, -9.348704], [-37.02006, -9.349371], [-37.02109, -9.349029], [-37.02219, -9.348319], [-37.02342, -9.347781], [-37.02534, -9.347774], [-37.02639, -9.347163], [-37.02909, -9.347663], [-37.0299, -9.348217], [-37.03082, -9.348351], [-37.0322, -9.348961], [-37.03404, -9.351105], [-37.03635, -9.352167], [-37.03657, -9.354558], [-37.03792, -9.354299], [-37.04014, -9.3552], [-37.04246, -9.356481], [-37.04398, -9.357635], [-37.04484, -9.357912], [-37.04685, -9.359235], [-37.04717, -9.359189], [-37.04934, -9.361467], [-37.04921, -9.362315], [-37.04928, -9.363322], [-37.04958, -9.364268]]]}}, 
{"type": "Feature", "properties": {"CD_SETOR": "270250405000007", "CD_SIT": "5", "NM_DIST": "Dois Riachos", "NM_SUBDIST": null}, "geometry": {"type": "Polygon", "coordinates": [[[-37.00837, -9.360524], [-37.00933, -9.361968], [-37.01165, -9.363431], [-37.0127, -9.363242], [-37.01388, -9.362458], [-37.01287, -9.36074], [-37.01507, -9.359152], [-37.01514, -9.35616], [-37.01581, -9.355143], [-37.01639, -9.355848], [-37.0173, -9.356411], [-37.01904, -9.354298], [-37.01664, -9.353043], [-37.01609, -9.352915], [-37.01555, -9.35336], [-37.01431, -9.355404], [-37.01375, -9.357322], [-37.01234, -9.35972], [-37.01161, -9.359774], [-37.01109, -9.359636], [-37.00955, -9.358917], [-37.00806, -9.360056], [-37.00837, -9.360524]]]}}, 
{"type": "Feature", "properties": {"CD_SETOR": "270250405000008", "CD_SIT": "8", "NM_DIST": "Dois Riachos", "NM_SUBDIST": null}, "geometry": {"type": "Polygon", "coordinates": [[[-37.02764, -9.38394], [-37.02798, -9.386099], [-37.03434, -9.404409], [-37.044, -9.404434], [-37.04968, -9.40278], [-37.05223, -9.401232], [-37.05324, -9.401309], [-37.05432, -9.400906], [-37.05603, -9.399638], [-37.05659, -9.398987], [-37.06182, -9.39529], [-37.06296, -9.394793], [-37.06549, -9.393985], [-37.06783, -9.394084], [-37.06953, -9.393836], [-37.07107, -9.393235], [-37.07282, -9.392832], [-37.07383, -9.39205], [-37.07556, -9.391316], [-37.07951, -9.388768], [-37.08004, -9.388294], [-37.08051, -9.387052], [-37.07167, -9.384532], [-37.06994, -9.384537], [-37.06808, -9.384927], [-37.06774, -9.384235], [-37.06629, -9.383968], [-37.06605, -9.383429], [-37.06498, -9.383015], [-37.06399, -9.382382], [-37.06285, -9.382115], [-37.06079, -9.382017], [-37.06076, -9.381605], [-37.05951, -9.379492], [-37.05793, -9.377968], [-37.05762, -9.376729], [-37.05722, -9.375879], [-37.0561, -9.374942], [-37.05544, -9.37257], [-37.05441, -9.3704], [-37.05373, -9.368173], [-37.05258, -9.366795], [-37.04958, -9.364268], [-37.04902, -9.364392], [-37.04712, -9.36537], [-37.04221, -9.368939], [-37.03831, -9.370894], [-37.03722, -9.372596], [-37.03362, -9.376575], [-37.03217, -9.377287], [-37.03152, -9.380069], [-37.03024, -9.382758], [-37.0287, -9.383828], [-37.02764, -9.38394]]]}}, 
{"type": "Feature", "properties": {"CD_SETOR": "270250405000009", "CD_SIT": "8", "NM_DIST": "Dois Riachos", "NM_SUBDIST": null}, "geometry": {"type": "Polygon", "coordinates": [[[-37.03434, -9.404409], [-37.03859, -9.416845], [-37.10319, -9.456241], [-37.10438, -9.453656], [-37.10573, -9.452255], [-37.10546, -9.450868], [-37.10548, -9.449551], [-37.10633, -9.447517], [-37.10678, -9.445743], [-37.10729, -9.445017], [-37.10746, -9.443886], [-37.10728, -9.442991], [-37.10751, -9.441378], [-37.10733, -9.44093], [-37.10621, -9.440128], [-37.10413, -9.439217], [-37.10256, -9.43833], [-37.10173, -9.438145], [-37.10091, -9.436738], [-37.10055, -9.435792], [-37.09992, -9.435421], [-37.09979, -9.435185], [-37.10067, -9.432325], [-37.10033, -9.43165], [-37.10049, -9.430805], [-37.10032, -9.430409], [-37.10074, -9.428405], [-37.10038, -9.427164], [-37.10057, -9.42621], [-37.10036, -9.42556], [-37.10035, -9.424212], [-37.09975, -9.423478], [-37.09924, -9.42325], [-37.09864, -9.423317], [-37.09744, -9.422819], [-37.0964, -9.423115], [-37.095, -9.422667], [-37.0938, -9.422578], [-37.09253, -9.421556], [-37.09192, -9.421362], [-37.09086, -9.42132], [-37.08983, -9.421704], [-37.08838, -9.421822], [-37.08532, -9.42091], [-37.08487, -9.420649], [-37.08412, -9.419609], [-37.08367, -9.418503], [-37.08348, -9.417312], [-37.08354, -9.416628], [-37.08313, -9.415619], [-37.0837, -9.413863], [-37.08456, -9.413382], [-37.08527, -9.411761], [-37.08543, -9.411001], [-37.08634, -9.409093], [-37.08672, -9.406402], [-37.08673, -9.403954], [-37.0864, -9.402617], [-37.08567, -9.400852], [-37.08556, -9.400004], [-37.08567, -9.399489], [-37.08546, -9.398898], [-37.08442, -9.39748], [-37.08362, -9.395598], [-37.08323, -9.394982], [-37.083, -9.394923], [-37.08287, -9.39445], [-37.08335, -9.393437], [-37.08332, -9.392508], [-37.08372, -9.39147], [-37.08241, -9.391381], [-37.07995, -9.388521], [-37.08004, -9.388294], [-37.07892, -9.389181], [-37.07556, -9.391316], [-37.07383, -9.39205], [-37.07282, -9.392832], [-37.07107, -9.393235], [-37.06953, -9.393836], [-37.06826, -9.394041], [-37.06607, -9.393932], [-37.06496, -9.394084], [-37.06182, -9.39529], [-37.05659, -9.398987], [-37.05603, -9.399638], [-37.05432, -9.400906], [-37.05324, -9.401309], [-37.05223, -9.401232], [-37.0502, -9.402549], [-37.0494, -9.402879], [-37.044, -9.404434], [-37.03434, -9.404409]]]}}, 
{"type": "Feature", "properties": {"CD_SETOR": "270250405000010", "CD_SIT": "8", "NM_DIST": "Dois Riachos", "NM_SUBDIST": null}, "geometry": {"type": "Polygon", "coordinates": [[[-37.10037, -9.389054], [-37.10041, -9.390297], [-37.0991, -9.390412], [-37.09931, -9.392083], [-37.09711, -9.39268], [-37.09667, -9.390934], [-37.09513, -9.391319], [-37.09493, -9.390521], [-37.09133, -9.391233], [-37.09184, -9.392852], [-37.09094, -9.393179], [-37.09062, -9.391939], [-37.08732, -9.392416], [-37.08702, -9.390435], [-37.08585, -9.390406], [-37.0842, -9.389988], [-37.08332, -9.392508], [-37.08335, -9.393437], [-37.08287, -9.39445], [-37.083, -9.394923], [-37.08323, -9.394982], [-37.08362, -9.395598], [-37.08442, -9.39748], [-37.08546, -9.398898], [-37.08567, -9.399489], [-37.08556, -9.400004], [-37.08567, -9.400852], [-37.0864, -9.402617], [-37.08681, -9.404595], [-37.08672, -9.406402], [-37.08634, -9.409093], [-37.08543, -9.411001], [-37.08527, -9.411761], [-37.08456, -9.413382], [-37.0837, -9.413863], [-37.08327, -9.414918], [-37.08313, -9.415619], [-37.08354, -9.416628], [-37.08348, -9.417312], [-37.08384, -9.419035], [-37.08487, -9.420649], [-37.08587, -9.42113], [-37.08877, -9.421847], [-37.08956, -9.421628], [-37.08983, -9.421704], [-37.09086, -9.42132], [-37.09192, -9.421362], [-37.09253, -9.421556], [-37.0938, -9.422578], [-37.095, -9.422667], [-37.0964, -9.423115], [-37.09744, -9.422819], [-37.09864, -9.423317], [-37.09924, -9.42325], [-37.09975, -9.423478], [-37.10035, -9.424212], [-37.10036, -9.42556], [-37.10057, -9.42621], [-37.10038, -9.427164], [-37.10074, -9.428405], [-37.10072, -9.428869], [-37.10054, -9.429106], [-37.10032, -9.430409], [-37.10049, -9.430805], [-37.10033, -9.43165], [-37.10067, -9.432325], [-37.10055, -9.432701], [-37.10473, -9.432014], [-37.10705, -9.431412], [-37.10874, -9.430531], [-37.11034, -9.430132], [-37.11301, -9.428179], [-37.11537, -9.427207], [-37.11725, -9.42743], [-37.11824, -9.427171], [-37.11963, -9.426312], [-37.11995, -9.425488], [-37.12124, -9.424904], [-37.12378, -9.424349], [-37.12458, -9.423608], [-37.12781, -9.421341], [-37.12999, -9.420508], [-37.13243, -9.419906], [-37.13592, -9.417818], [-37.13802, -9.416289], [-37.14005, -9.41538], [-37.1421, -9.414947], [-37.14274, -9.414622], [-37.14098, -9.413534], [-37.13881, -9.411664], [-37.13575, -9.407667], [-37.13417, -9.405059], [-37.13198, -9.401884], [-37.12514, -9.393635], [-37.12237, -9.390825], [-37.12112, -9.388848], [-37.1203, -9.388039], [-37.10037, -9.389054]]]}}, 
{"type": "Feature", "properties": {"CD_SETOR": "270250405000011", "CD_SIT": "8", "NM_DIST": "Dois Riachos", "NM_SUBDIST": null}, "geometry": {"type": "Polygon", "coordinates": [[[-37.05958, -9.318537], [-37.05905, -9.318461], [-37.05935, -9.319313], [-37.0609, -9.319535], [-37.06418, -9.318952], [-37.06543, -9.319102], [-37.06617, -9.320054], [-37.06625, -9.322195], [-37.06561, -9.324958], [-37.06442, -9.327243], [-37.06414, -9.328525], [-37.06425, -9.328948], [-37.06562, -9.330326], [-37.06668, -9.331015], [-37.06801, -9.331249], [-37.0685, -9.334086], [-37.0693, -9.3354], [-37.06978, -9.336547], [-37.06974, -9.33792], [-37.06918, -9.340188], [-37.06979, -9.342866], [-37.06993, -9.344694], [-37.06756, -9.347462], [-37.06747, -9.348178], [-37.06803, -9.349241], [-37.06941, -9.350626], [-37.07119, -9.35296], [-37.0725, -9.356936], [-37.07852, -9.360141], [-37.0792, -9.360998], [-37.07929, -9.362086], [-37.08549, -9.365327], [-37.08782, -9.367037], [-37.08801, -9.368363], [-37.08762, -9.369748], [-37.08459, -9.373043], [-37.08509, -9.377901], [-37.08572, -9.380999], [-37.08973, -9.380079], [-37.0901, -9.38093], [-37.09048, -9.382768], [-37.09183, -9.382556], [-37.09205, -9.381491], [-37.0927, -9.381652], [-37.09243, -9.382381], [-37.09395, -9.381522], [-37.09469, -9.382645], [-37.09484, -9.385194], [-37.09575, -9.385395], [-37.09556, -9.386198], [-37.09675, -9.386508], [-37.09847, -9.388099], [-37.10032, -9.387989], [-37.10037, -9.389054], [-37.1203, -9.388039], [-37.11956, -9.387302], [-37.11722, -9.38577], [-37.11217, -9.383247], [-37.1097, -9.38071], [-37.10667, -9.375007], [-37.10531, -9.371828], [-37.10394, -9.367563], [-37.10272, -9.36168], [-37.10042, -9.358849], [-37.09697, -9.356731], [-37.09356, -9.354047], [-37.0907, -9.350983], [-37.08936, -9.34817], [-37.08931, -9.342967], [-37.08967, -9.337948], [-37.08875, -9.33367], [-37.08664, -9.329884], [-37.08306, -9.325492], [-37.07956, -9.321938], [-37.07714, -9.319883], [-37.07384, -9.318153], [-37.06976, -9.317143], [-37.06578, -9.317013], [-37.06353, -9.317397], [-37.06136, -9.31813], [-37.05958, -9.318537]]]}}, 
{"type": "Feature", "properties": {"CD_SETOR": "270250405000012", "CD_SIT": "8", "NM_DIST": "Dois Riachos", "NM_SUBDIST": null}, "geometry": {"type": "Polygon", "coordinates": [[[-37.10055, -9.432701], [-37.09979, -9.435185], [-37.09992, -9.435421], [-37.10055, -9.435792], [-37.10155, -9.437996], [-37.10256, -9.43833], [-37.10413, -9.439217], [-37.10621, -9.440128], [-37.10733, -9.44093], [-37.10751, -9.441378], [-37.10728, -9.442991], [-37.10746, -9.443886], [-37.10729, -9.445017], [-37.10678, -9.445743], [-37.10633, -9.447517], [-37.10548, -9.449551], [-37.10546, -9.450868], [-37.10573, -9.452255], [-37.10438, -9.453656], [-37.10319, -9.456241], [-37.10347, -9.458306], [-37.10473, -9.460565], [-37.11761, -9.460009], [-37.11773, -9.437699], [-37.14886, -9.435971], [-37.1477, -9.431062], [-37.14717, -9.429806], [-37.14554, -9.423538], [-37.14528, -9.421937], [-37.14653, -9.418591], [-37.14651, -9.417643], [-37.14456, -9.415748], [-37.14274, -9.414622], [-37.1421, -9.414947], [-37.14005, -9.41538], [-37.13802, -9.416289], [-37.13592, -9.417818], [-37.13243, -9.419906], [-37.12999, -9.420508], [-37.12781, -9.421341], [-37.12458, -9.423608], [-37.12378, -9.424349], [-37.12124, -9.424904], [-37.11995, -9.425488], [-37.11963, -9.426312], [-37.11824, -9.427171], [-37.11725, -9.42743], [-37.11537, -9.427207], [-37.11301, -9.428179], [-37.11034, -9.430132], [-37.10874, -9.430531], [-37.10705, -9.431412], [-37.10473, -9.432014], [-37.10055, -9.432701]]]}}, 
{"type": "Feature", "properties": {"CD_SETOR": "270250405000013", "CD_SIT": "1", "NM_DIST": "Dois Riachos", "NM_SUBDIST": null}, "geometry": {"type": "Polygon", "coordinates": [[[-37.08572, -9.380999], [-37.08594, -9.383084], [-37.0863, -9.38467], [-37.08889, -9.383782], [-37.09125, -9.38443], [-37.09241, -9.384393], [-37.09297, -9.383612], [-37.09374, -9.383443], [-37.09469, -9.382645], [-37.09395, -9.381522], [-37.09243, -9.382381], [-37.0927, -9.381652], [-37.09205, -9.381491], [-37.09183, -9.382556], [-37.09048, -9.382768], [-37.0901, -9.38093], [-37.08973, -9.380079], [-37.08572, -9.380999]]]}}, 
{"type": "Feature", "properties": {"CD_SETOR": "270250405000014", "CD_SIT": "1", "NM_DIST": "Dois Riachos", "NM_SUBDIST": null}, "geometry": {"type": "Polygon", "coordinates": [[[-37.0842, -9.389988], [-37.08585, -9.390406], [-37.08702, -9.390435], [-37.08732, -9.392416], [-37.09062, -9.391939], [-37.09094, -9.393179], [-37.09184, -9.392852], [-37.09133, -9.391233], [-37.09493, -9.390521], [-37.09513, -9.391319], [-37.09667, -9.390934], [-37.09711, -9.39268], [-37.09931, -9.392083], [-37.0991, -9.390412], [-37.10041, -9.390297], [-37.10037, -9.389054], [-37.09023, -9.389521], [-37.08853, -9.389288], [-37.08508, -9.388302], [-37.0842, -9.389988]]]}}, 
{"type": "Feature", "properties": {"CD_SETOR": "270250405000015", "CD_SIT": "1", "NM_DIST": "Dois Riachos", "NM_SUBDIST": null}, "geometry": {"type": "Polygon", "coordinates": [[[-37.09035, -9.387566], [-37.09036, -9.387867], [-37.09346, -9.38792], [-37.09346, -9.385777], [-37.09109, -9.385082], [-37.09093, -9.387558], [-37.09035, -9.387566]]]}}, 
{"type": "Feature", "properties": {"CD_SETOR": "270250405000016", "CD_SIT": "8", "NM_DIST": "Dois Riachos", "NM_SUBDIST": null}, "geometry": {"type": "Polygon", "coordinates": [[[-37.07606, -9.441785], [-37.10458, -9.460572], [-37.10473, -9.460565], [-37.10347, -9.458306], [-37.10319, -9.456241], [-37.07577, -9.439565], [-37.07606, -9.441785]]]}}, 
{"type": "Feature", "properties": {"CD_SETOR": "270250405000017", "CD_SIT": "8", "NM_DIST": "Dois Riachos", "NM_SUBDIST": null}, "geometry": {"type": "Polygon", "coordinates": [[[-37.06603, -9.435172], [-37.07606, -9.441785], [-37.0761, -9.441731], [-37.07584, -9.440743], [-37.07577, -9.439565], [-37.06735, -9.434421], [-37.06603, -9.435172]]]}}, 
{"type": "Feature", "properties": {"CD_SETOR": "270250405000018", "CD_SIT": "8", "NM_DIST": "Dois Riachos", "NM_SUBDIST": null}, "geometry": {"type": "Polygon", "coordinates": [[[-37.03971, -9.417833], [-37.06603, -9.435172], [-37.06735, -9.434421], [-37.03984, -9.417607], [-37.03971, -9.417833]]]}}, 
{"type": "Feature", "properties": {"CD_SETOR": "270250405000019", "CD_SIT": "1", "NM_DIST": "Dois Riachos", "NM_SUBDIST": null}, "geometry": {"type": "Polygon", "coordinates": [[[-37.09, -9.386836], [-37.09005, -9.385312], [-37.08847, -9.385289], [-37.08836, -9.384325], [-37.08776, -9.384157], [-37.08803, -9.386769], [-37.09, -9.386836]]]}}, 
{"type": "Feature", "properties": {"CD_SETOR": "270250405000020", "CD_SIT": "1", "NM_DIST": "Dois Riachos", "NM_SUBDIST": null}, "geometry": {"type": "Polygon", "coordinates": [[[-37.08776, -9.384157], [-37.08836, -9.384325], [-37.08847, -9.385289], [-37.09005, -9.385312], [-37.09, -9.386836], [-37.09036, -9.386845], [-37.09035, -9.387566], [-37.09093, -9.387558], [-37.09116, -9.384405], [-37.08889, -9.383782], [-37.08776, -9.384157]]]}}, 
{"type": "Feature", "properties": {"CD_SETOR": "270250405000021", "CD_SIT": "8", "NM_DIST": "Dois Riachos", "NM_SUBDIST": null}, "geometry": {"type": "Polygon", "coordinates": [[[-36.97964, -9.359328], [-36.99416, -9.374304], [-37.02278, -9.369596], [-37.01954, -9.366612], [-37.0182, -9.365837], [-37.01626, -9.363544], [-37.01551, -9.362321], [-37.01361, -9.360268], [-37.01287, -9.36074], [-37.01388, -9.362458], [-37.0127, -9.363242], [-37.01165, -9.363431], [-37.00933, -9.361968], [-37.00837, -9.360524], [-37.00291, -9.364924], [-37.00079, -9.363242], [-36.99584, -9.361215], [-36.99501, -9.360127], [-36.99343, -9.359211], [-36.99022, -9.358175], [-36.98815, -9.359438], [-36.98718, -9.357456], [-36.9875, -9.357271], [-36.98243, -9.358318], [-36.97964, -9.359328]]]}}, 
{"type": "Feature", "properties": {"CD_SETOR": "270250405000022", "CD_SIT": "8", "NM_DIST": "Dois Riachos", "NM_SUBDIST": null}, "geometry": {"type": "Polygon", "coordinates": [[[-36.9875, -9.357271], [-36.98718, -9.357456], [-36.98815, -9.359438], [-36.99022, -9.358175], [-36.99343, -9.359211], [-36.99501, -9.360127], [-36.99584, -9.361215], [-37.00079, -9.363242], [-37.00291, -9.364924], [-37.00837, -9.360524], [-37.00806, -9.360056], [-37.00955, -9.358917], [-37.01109, -9.359636], [-37.01161, -9.359774], [-37.01234, -9.35972], [-37.01375, -9.357322], [-37.01431, -9.355404], [-37.01555, -9.35336], [-37.01609, -9.352915], [-37.01664, -9.353043], [-37.01904, -9.354298], [-37.0173, -9.356411], [-37.01639, -9.355848], [-37.01581, -9.355143], [-37.01514, -9.35616], [-37.01507, -9.359152], [-37.01361, -9.360268], [-37.01551, -9.362321], [-37.01626, -9.363544], [-37.01811, -9.365743], [-37.01954, -9.366612], [-37.02278, -9.369596], [-37.02417, -9.371074], [-37.02492, -9.372175], [-37.02512, -9.373383], [-37.0252, -9.37579], [-37.02561, -9.378362], [-37.02717, -9.3818], [-37.02764, -9.38394], [-37.0287, -9.383828], [-37.03024, -9.382758], [-37.03152, -9.380069], [-37.03217, -9.377287], [-37.03362, -9.376575], [-37.03722, -9.372596], [-37.03831, -9.370894], [-37.04221, -9.368939], [-37.04712, -9.36537], [-37.04902, -9.364392], [-37.04958, -9.364268], [-37.04928, -9.363322], [-37.04921, -9.362315], [-37.04934, -9.361467], [-37.04717, -9.359189], [-37.04685, -9.359235], [-37.04484, -9.357912], [-37.04398, -9.357635], [-37.04246, -9.356481], [-37.04014, -9.3552], [-37.03792, -9.354299], [-37.03657, -9.354558], [-37.03635, -9.352167], [-37.03404, -9.351105], [-37.03249, -9.349176], [-37.03082, -9.348351], [-37.0299, -9.348217], [-37.02909, -9.347663], [-37.02639, -9.347163], [-37.02534, -9.347774], [-37.02342, -9.347781], [-37.02219, -9.348319], [-37.02109, -9.349029], [-37.02006, -9.349371], [-37.02039, -9.348704], [-37.02256, -9.34605], [-37.02339, -9.345831], [-37.0246, -9.345064], [-37.0258, -9.344827], [-37.02817, -9.343435], [-37.02896, -9.342593], [-37.02956, -9.342322], [-37.03015, -9.342104], [-37.03211, -9.342118], [-37.03379, -9.341426], [-37.03599, -9.339626], [-37.03775, -9.338667], [-37.03882, -9.337808], [-37.03964, -9.3365], [-37.0424, -9.333504], [-37.0433, -9.331469], [-37.04406, -9.330289], [-37.04406, -9.329691], [-37.04483, -9.328647], [-37.0455, -9.328721], [-37.04613, -9.328464], [-37.04821, -9.326476], [-37.05153, -9.323736], [-37.05268, -9.323132], [-37.05296, -9.322534], [-37.05398, -9.321852], [-37.05461, -9.320962], [-37.05483, -9.32023], [-37.0549, -9.318911], [-37.05514, -9.318553], [-37.05557, -9.318254], [-37.05647, -9.318526], [-37.05731, -9.318422], [-37.05777, -9.318957], [-37.05953, -9.319741], [-37.0609, -9.319535], [-37.05935, -9.319313], [-37.05905, -9.318461], [-37.05958, -9.318537], [-37.05758, -9.31754], [-37.05725, -9.312943], [-37.05534, -9.307448], [-37.05445, -9.307133], [-37.05306, -9.308323], [-37.05085, -9.311623], [-37.04752, -9.314891], [-37.04553, -9.315882], [-37.04341, -9.316335], [-37.03979, -9.316212], [-37.03228, -9.314091], [-37.02851, -9.314017], [-37.02429, -9.315715], [-37.0206, -9.319855], [-37.01838, -9.323927], [-37.01674, -9.329876], [-37.01284, -9.33933], [-37.00683, -9.346821], [-37.00336, -9.352614], [-36.99127, -9.356494], [-36.9875, -9.357271]]]}}]}