{"type": "FeatureCollection", "features": [
{"type": "Feature", "properties": {"CD_SETOR": "270644805000001", "CD_SIT": "1", "NM_DIST": "Paripueira", "NM_SUBDIST": null}, "geometry": {"type": "Polygon", "coordinates": [[[-35.55737, -9.465782], [-35.55777, -9.465544], [-35.55798, -9.465194], [-35.55573, -9.46442], [-35.55539, -9.464544], [-35.55431, -9.465719], [-35.55886, -9.46883], [-35.55961, -9.468108], [-35.56029, -9.468314], [-35.56051, -9.467772], [-35.56045, -9.467096], [-35.55942, -9.466128], [-35.55917, -9.466203], [-35.55896, -9.465689], [-35.55874, -9.465814], [-35.55839, -9.467922], [-35.55825, -9.46765], [-35.55714, -9.466744], [-35.55639, -9.466521], [-35.55473, -9.465594], [-35.55566, -9.464839], [-35.556, -9.464766], [-35.55706, -9.465132], [-35.55736, -9.465395], [-35.55737, -9.465782]]]}}, 
{"type": "Feature", "properties": {"CD_SETOR": "270644805000002", "CD_SIT": "1", "NM_DIST": "Paripueira", "NM_SUBDIST": null}, "geometry": {"type": "Polygon", "coordinates": [[[-35.55484, -9.463377], [-35.55471, -9.463786], [-35.55409, -9.46419], [-35.55414, -9.465285], [-35.55451, -9.465501], [-35.55565, -9.464425], [-35.55798, -9.465194], [-35.55846, -9.463854], [-35.5568, -9.463492], [-35.55626, -9.462863], [-35.55515, -9.463501], [-35.55484, -9.463377]]]}}, 
{"type": "Feature", "properties": {"CD_SETOR": "270644805000003", "CD_SIT": "1", "NM_DIST": "Paripueira", "NM_SUBDIST": null}, "geometry": {"type": "Polygon", "coordinates": [[[-35.55389, -9.46265], [-35.55435, -9.462461], [-35.55308, -9.461548], [-35.55291, -9.461215], [-35.5531, -9.459892], [-35.5525, -9.459432], [-35.54882, -9.459284], [-35.54552, -9.459373], [-35.54385, -9.459599], [-35.54574, -9.460447], [-35.55064, -9.463397], [-35.55179, -9.462632], [-35.55249, -9.462592], [-35.55327, -9.462826], [-35.55389, -9.46265]]]}}, 
{"type": "Feature", "properties": {"CD_SETOR": "270644805000006", "CD_SIT": "8", "NM_DIST": "Paripueira", "NM_SUBDIST": null}, "geometry": {"type": "Polygon", "coordinates": [[[-35.53334, -9.430724], [-35.53146, -9.431869], [-35.53164, -9.432442], [-35.53137, -9.432977], [-35.53143, -9.433716], [-35.53117, -9.434913], [-35.53134, -9.435334], [-35.53154, -9.434998], [-35.53173, -9.435004], [-35.53184, -9.435459], [-35.53175, -9.435702], [-35.53083, -9.436541], [-35.53059, -9.437293], [-35.53001, -9.437466], [-35.53024, -9.43876], [-35.52966, -9.442743], [-35.53, -9.443912], [-35.53371, -9.451235], [-35.53436, -9.451988], [-35.53796, -9.454537], [-35.54555, -9.454605], [-35.54588, -9.454306], [-35.54679, -9.454305], [-35.54741, -9.453659], [-35.54901, -9.453263], [-35.54978, -9.452287], [-35.55041, -9.450457], [-35.55059, -9.450299], [-35.55125, -9.450077], [-35.55281, -9.450719], [-35.55352, -9.450613], [-35.56184, -9.443357], [-35.56303, -9.443378], [-35.56445, -9.443927], [-35.56568, -9.443987], [-35.57217, -9.442285], [-35.57828, -9.435579], [-35.57903, -9.435002], [-35.58156, -9.433968], [-35.58266, -9.433838], [-35.5841, -9.434138], [-35.58671, -9.43518], [-35.58744, -9.435267], [-35.58789, -9.435214], [-35.59099, -9.433772], [-35.59395, -9.431321], [-35.59494, -9.431287], [-35.59534, -9.430926], [-35.59549, -9.4303], [-35.59569, -9.430124], [-35.59702, -9.429467], [-35.598, -9.428777], [-35.5987, -9.427997], [-35.59907, -9.427786], [-35.59941, -9.426504], [-35.59939, -9.425848], [-35.60009, -9.425646], [-35.60045, -9.425031], [-35.60083, -9.424841], [-35.60186, -9.425036], [-35.60265, -9.425469], [-35.60324, -9.425222], [-35.60366, -9.424563], [-35.60358, -9.423338], [-35.60387, -9.423054], [-35.60482, -9.422874], [-35.60522, -9.422344], [-35.60488, -9.421378], [-35.60508, -9.420617], [-35.6048, -9.420005], [-35.60375, -9.419767], [-35.6024, -9.419885], [-35.60014, -9.418694], [-35.59978, -9.417971], [-35.59949, -9.416239], [-35.59816, -9.414764], [-35.59841, -9.413452], [-35.59893, -9.412689], [-35.5981, -9.411527], [-35.59799, -9.410331], [-35.59702, -9.408769], [-35.59693, -9.408109], [-35.59711, -9.407634], [-35.59666, -9.407544], [-35.5966, -9.40732], [-35.5958, -9.407546], [-35.59566, -9.40771], [-35.59574, -9.407897], [-35.59552, -9.407967], [-35.59586, -9.408919], [-35.5953, -9.408911], [-35.59481, -9.408295], [-35.59469, -9.40792], [-35.59483, -9.407546], [-35.5946, -9.407577], [-35.59453, -9.407772], [-35.59444, -9.407507], [-35.59411, -9.407335], [-35.59416, -9.406782], [-35.59381, -9.406782], [-35.5936, -9.40714], [-35.5933, -9.406942], [-35.59197, -9.405102], [-35.59199, -9.40487], [-35.59157, -9.404609], [-35.59108, -9.404661], [-35.59047, -9.404493], [-35.58993, -9.403915], [-35.58918, -9.403582], [-35.58824, -9.403688], [-35.58721, -9.404332], [-35.58668, -9.40446], [-35.58568, -9.404252], [-35.58271, -9.402755], [-35.58235, -9.402711], [-35.58202, -9.4031], [-35.58174, -9.403189], [-35.58149, -9.402822], [-35.58088, -9.402466], [-35.58029, -9.402652], [-35.57953, -9.403506], [-35.57912, -9.403576], [-35.57872, -9.402803], [-35.57829, -9.402858], [-35.57811, -9.403084], [-35.57792, -9.403022], [-35.57784, -9.402476], [-35.57749, -9.402335], [-35.57735, -9.40207], [-35.57646, -9.401953], [-35.57597, -9.401587], [-35.57517, -9.401797], [-35.57521, -9.402312], [-35.57352, -9.401555], [-35.57346, -9.402016], [-35.5728, -9.40239], [-35.57188, -9.402072], [-35.57148, -9.401384], [-35.57015, -9.401606], [-35.56892, -9.401337], [-35.56849, -9.401555], [-35.56763, -9.402523], [-35.56742, -9.402562], [-35.567, -9.402], [-35.56675, -9.401961], [-35.566, -9.402702], [-35.56534, -9.403014], [-35.56501, -9.403603], [-35.56457, -9.403506], [-35.56376, -9.403662], [-35.56389, -9.404005], [-35.5636, -9.404325], [-35.56316, -9.403989], [-35.5629, -9.404036], [-35.5625, -9.404707], [-35.56198, -9.404691], [-35.56175, -9.404886], [-35.56101, -9.404832], [-35.56056, -9.405222], [-35.56022, -9.405206], [-35.55974, -9.405463], [-35.55899, -9.405229], [-35.55863, -9.404964], [-35.55823, -9.404364], [-35.55757, -9.404137], [-35.55727, -9.404278], [-35.55677, -9.404044], [-35.55646, -9.4042], [-35.55571, -9.403893], [-35.5538, -9.404473], [-35.55374, -9.403685], [-35.55327, -9.403903], [-35.55296, -9.40434], [-35.55285, -9.403888], [-35.55259, -9.403685], [-35.55282, -9.403599], [-35.55281, -9.403318], [-35.55236, -9.40335], [-35.55244, -9.40356], [-35.55232, -9.403701], [-35.55183, -9.403342], [-35.55168, -9.403888], [-35.55138, -9.403584], [-35.55104, -9.40356], [-35.55079, -9.403693], [-35.55078, -9.403966], [-35.55039, -9.403872], [-35.54982, -9.404028], [-35.54957, -9.403841], [-35.54938, -9.403942], [-35.54891, -9.405066], [-35.54822, -9.405175], [-35.54806, -9.405612], [-35.54755, -9.405596], [-35.54703, -9.406134], [-35.54688, -9.407179], [-35.54726, -9.407211], [-35.54725, -9.407341], [-35.54676, -9.40799], [-35.54662, -9.408012], [-35.54666, -9.40773], [-35.54654, -9.407673], [-35.54628, -9.407923], [-35.54616, -9.407769], [-35.54537, -9.408125], [-35.54514, -9.408863], [-35.54491, -9.408922], [-35.54477, -9.409268], [-35.54485, -9.409834], [-35.54464, -9.41051], [-35.54507, -9.411126], [-35.54493, -9.411282], [-35.54504, -9.411782], [-35.54468, -9.413217], [-35.5449, -9.41459], [-35.54579, -9.414621], [-35.54604, -9.415947], [-35.54596, -9.416259], [-35.54537, -9.416789], [-35.54485, -9.4176], [-35.54462, -9.4176], [-35.5445, -9.41785], [-35.54359, -9.418084], [-35.54356, -9.418365], [-35.54152, -9.4216], [-35.54093, -9.421932], [-35.53849, -9.422699], [-35.53777, -9.423059], [-35.53721, -9.4236], [-35.53668, -9.424494], [-35.53655, -9.425224], [-35.5366, -9.426809], [-35.5351, -9.428957], [-35.5346, -9.430252], [-35.53386, -9.430389], [-35.53334, -9.430724]]]}}, 
{"type": "Feature", "properties": {"CD_SETOR": "270644805000007", "CD_SIT": "1", "NM_DIST": "Paripueira", "NM_SUBDIST": null}, "geometry": {"type": "Polygon", "coordinates": [[[-35.55852, -9.467659], [-35.55816, -9.46723], [-35.55809, -9.466831], [-35.55754, -9.46668], [-35.55692, -9.466053], [-35.55737, -9.465782], [-35.55736, -9.465395], [-35.55706, -9.465132], [-35.5558, -9.464773], [-35.55473, -9.465594], [-35.55639, -9.466521], [-35.55714, -9.466744], [-35.55825, -9.46765], [-35.55839, -9.467922], [-35.55852, -9.467659]]]}}, 
{"type": "Feature", "properties": {"CD_SETOR": "270644805000009", "CD_SIT": "1", "NM_DIST": "Paripueira", "NM_SUBDIST": null}, "geometry": {"type": "Polygon", "coordinates": [[[-35.55389, -9.46265], [-35.55327, -9.462826], [-35.55249, -9.462592], [-35.55179, -9.462632], [-35.55064, -9.463397], [-35.55431, -9.465719], [-35.55451, -9.465501], [-35.55414, -9.465285], [-35.55409, -9.46419], [-35.55471, -9.463786], [-35.55484, -9.463377], [-35.55435, -9.462461], [-35.55389, -9.46265]]]}}, 
{"type": "Feature", "properties": {"CD_SETOR": "270644805000011", "CD_SIT": "1", "NM_DIST": "Paripueira", "NM_SUBDIST": null}, "geometry": {"type": "Polygon", "coordinates": [[[-35.55765, -9.465643], [-35.55692, -9.466053], [-35.55754, -9.46668], [-35.55809, -9.466831], [-35.55816, -9.46723], [-35.55852, -9.467659], [-35.55874, -9.465814], [-35.55896, -9.465689], [-35.55917, -9.466203], [-35.55942, -9.466128], [-35.56045, -9.467096], [-35.56051, -9.467772], [-35.56066, -9.46776], [-35.56106, -9.466672], [-35.56207, -9.466445], [-35.5621, -9.465324], [-35.56257, -9.465235], [-35.56224, -9.4642], [-35.55931, -9.462297], [-35.55884, -9.462383], [-35.55896, -9.463709], [-35.55846, -9.463854], [-35.55808, -9.464991], [-35.55765, -9.465643]]]}}, 
{"type": "Feature", "properties": {"CD_SETOR": "270644805000013", "CD_SIT": "1", "NM_DIST": "Paripueira", "NM_SUBDIST": null}, "geometry": {"type": "Polygon", "coordinates": [[[-35.53695, -9.458739], [-35.53826, -9.459739], [-35.53958, -9.461071], [-35.54302, -9.465806], [-35.54426, -9.467158], [-35.54643, -9.469008], [-35.54735, -9.468492], [-35.54496, -9.4657], [-35.54384, -9.463781], [-35.54467, -9.463677], [-35.54522, -9.463165], [-35.54121, -9.459489], [-35.54106, -9.459057], [-35.54141, -9.45847], [-35.54051, -9.457884], [-35.53945, -9.45641], [-35.53902, -9.456697], [-35.53614, -9.457666], [-35.53656, -9.457933], [-35.53654, -9.458138], [-35.53695, -9.458739]]]}}, 
{"type": "Feature", "properties": {"CD_SETOR": "270644805000014", "CD_SIT": "1", "NM_DIST": "Paripueira", "NM_SUBDIST": null}, "geometry": {"type": "Polygon", "coordinates": [[[-35.54687, -9.46799], [-35.54846, -9.466344], [-35.54809, -9.46599], [-35.54857, -9.465401], [-35.54872, -9.463497], [-35.54628, -9.464135], [-35.54522, -9.463165], [-35.54467, -9.463677], [-35.54384, -9.463781], [-35.54496, -9.4657], [-35.54687, -9.46799]]]}}, 
{"type": "Feature", "properties": {"CD_SETOR": "270644805000015", "CD_SIT": "1", "NM_DIST": "Paripueira", "NM_SUBDIST": null}, "geometry": {"type": "Polygon", "coordinates": [[[-35.53922, -9.456052], [-35.54081, -9.458154], [-35.54385, -9.459599], [-35.54552, -9.459373], [-35.54819, -9.459317], [-35.54826, -9.45857], [-35.54781, -9.458483], [-35.54767, -9.457298], [-35.54832, -9.457262], [-35.54833, -9.45664], [-35.54563, -9.456705], [-35.54383, -9.456577], [-35.5432, -9.45677], [-35.54328, -9.456264], [-35.54288, -9.456138], [-35.54009, -9.455909], [-35.53979, -9.455675], [-35.53922, -9.456052]]]}}, 
{"type": "Feature", "properties": {"CD_SETOR": "270644805000016", "CD_SIT": "8", "NM_DIST": "Paripueira", "NM_SUBDIST": null}, "geometry": {"type": "Polygon", "coordinates": [[[-35.59711, -9.407634], [-35.59693, -9.408109], [-35.59702, -9.408769], [-35.59799, -9.410331], [-35.5981, -9.411527], [-35.59893, -9.412689], [-35.59841, -9.413452], [-35.59816, -9.414764], [-35.59949, -9.416239], [-35.59978, -9.417971], [-35.60014, -9.418694], [-35.6024, -9.419885], [-35.60375, -9.419767], [-35.6048, -9.420005], [-35.60508, -9.420617], [-35.60488, -9.421378], [-35.60522, -9.422344], [-35.60482, -9.422874], [-35.60387, -9.423054], [-35.60358, -9.423338], [-35.60357, -9.424847], [-35.60287, -9.425459], [-35.60249, -9.425425], [-35.60186, -9.425036], [-35.60083, -9.424841], [-35.60045, -9.425031], [-35.60009, -9.425646], [-35.59939, -9.425848], [-35.59941, -9.426504], [-35.59907, -9.427786], [-35.5987, -9.427997], [-35.59801, -9.428771], [-35.59897, -9.428909], [-35.59958, -9.429339], [-35.59983, -9.429677], [-35.59994, -9.430457], [-35.60046, -9.431406], [-35.6011, -9.431523], [-35.60194, -9.432544], [-35.60269, -9.432147], [-35.60306, -9.432109], [-35.60342, -9.432277], [-35.60425, -9.43203], [-35.60427, -9.431295], [-35.60455, -9.431055], [-35.60483, -9.430996], [-35.6056, -9.431224], [-35.60672, -9.432323], [-35.60755, -9.433486], [-35.6074, -9.434104], [-35.60777, -9.434358], [-35.60883, -9.43426], [-35.61099, -9.43571], [-35.61197, -9.436087], [-35.61251, -9.436087], [-35.61313, -9.43649], [-35.61373, -9.437641], [-35.61307, -9.438973], [-35.61338, -9.439604], [-35.61406, -9.440137], [-35.61415, -9.440706], [-35.61592, -9.439988], [-35.61683, -9.439806], [-35.6179, -9.439981], [-35.61881, -9.440924], [-35.6198, -9.440969], [-35.62148, -9.440755], [-35.62202, -9.440482], [-35.62237, -9.439702], [-35.62346, -9.439038], [-35.62418, -9.439071], [-35.62536, -9.439708], [-35.62606, -9.43952], [-35.62646, -9.439578], [-35.62704, -9.440131], [-35.62847, -9.440605], [-35.6289, -9.440989], [-35.62922, -9.441639], [-35.62963, -9.441769], [-35.63027, -9.441692], [-35.62961, -9.442959], [-35.62965, -9.443875], [-35.62853, -9.444909], [-35.62712, -9.445131], [-35.6258, -9.446404], [-35.62518, -9.446599], [-35.62345, -9.446131], [-35.62266, -9.446378], [-35.62181, -9.447087], [-35.62103, -9.44669], [-35.62061, -9.44685], [-35.62033, -9.44771], [-35.62036, -9.448472], [-35.61971, -9.44985], [-35.62012, -9.450572], [-35.62006, -9.450818], [-35.61854, -9.452372], [-35.6183, -9.453191], [-35.61857, -9.454426], [-35.61878, -9.45468], [-35.61875, -9.455727], [-35.61914, -9.45663], [-35.61915, -9.457423], [-35.61968, -9.458379], [-35.61959, -9.458736], [-35.61839, -9.460433], [-35.6182, -9.461922], [-35.61871, -9.463235], [-35.61869, -9.463931], [-35.61978, -9.464813], [-35.62046, -9.463786], [-35.62119, -9.463389], [-35.6241, -9.462567], [-35.6251, -9.461293], [-35.62582, -9.459345], [-35.62601, -9.457832], [-35.62515, -9.454063], [-35.6248, -9.453425], [-35.62444, -9.452173], [-35.62435, -9.451264], [-35.62471, -9.450136], [-35.62532, -9.449098], [-35.62549, -9.448279], [-35.6258, -9.447966], [-35.62763, -9.447413], [-35.62974, -9.447224], [-35.63035, -9.447323], [-35.63165, -9.447103], [-35.6336, -9.447209], [-35.63471, -9.44704], [-35.63505, -9.44691], [-35.63616, -9.445638], [-35.63654, -9.445399], [-35.63816, -9.44515], [-35.63915, -9.443821], [-35.64035, -9.444397], [-35.64188, -9.444352], [-35.64274, -9.443663], [-35.64399, -9.441733], [-35.64429, -9.441568], [-35.64674, -9.441208], [-35.64702, -9.441031], [-35.64824, -9.439188], [-35.64896, -9.438706], [-35.64971, -9.437752], [-35.65199, -9.435952], [-35.65479, -9.43478], [-35.6573, -9.434006], [-35.65929, -9.433047], [-35.66088, -9.431315], [-35.66199, -9.430697], [-35.66421, -9.4306], [-35.66505, -9.430173], [-35.66558, -9.429685], [-35.6661, -9.428487], [-35.66574, -9.426253], [-35.67665, -9.398583], [-35.675, -9.397967], [-35.67474, -9.398006], [-35.67345, -9.399073], [-35.67292, -9.3993], [-35.66975, -9.399083], [-35.66863, -9.399724], [-35.66799, -9.399852], [-35.66743, -9.399743], [-35.66651, -9.398945], [-35.66599, -9.398885], [-35.66263, -9.400098], [-35.6611, -9.400971], [-35.66002, -9.402455], [-35.65967, -9.403225], [-35.65803, -9.403915], [-35.65741, -9.403933], [-35.6559, -9.403029], [-35.65489, -9.40268], [-35.65452, -9.402749], [-35.65338, -9.403621], [-35.65299, -9.403722], [-35.65278, -9.403531], [-35.65233, -9.403993], [-35.65244, -9.40427], [-35.65214, -9.404227], [-35.65207, -9.404475], [-35.65158, -9.404475], [-35.65138, -9.404672], [-35.65098, -9.404569], [-35.65069, -9.40478], [-35.64998, -9.40446], [-35.6499, -9.404661], [-35.64951, -9.404745], [-35.64938, -9.404449], [-35.64926, -9.404548], [-35.64911, -9.40392], [-35.64881, -9.403971], [-35.64861, -9.403789], [-35.64812, -9.404176], [-35.64778, -9.403297], [-35.6474, -9.403413], [-35.64673, -9.403322], [-35.64654, -9.403107], [-35.64613, -9.403008], [-35.64571, -9.403348], [-35.64543, -9.402946], [-35.64475, -9.402914], [-35.64452, -9.40306], [-35.64472, -9.403311], [-35.64426, -9.403351], [-35.64421, -9.403176], [-35.64412, -9.403548], [-35.6436, -9.402873], [-35.64333, -9.402753], [-35.64341, -9.402567], [-35.64318, -9.40248], [-35.6429, -9.402764], [-35.64267, -9.402764], [-35.6426, -9.402483], [-35.64296, -9.402403], [-35.64262, -9.402162], [-35.64233, -9.402414], [-35.64213, -9.402206], [-35.64169, -9.402863], [-35.64127, -9.402388], [-35.64153, -9.402173], [-35.6408, -9.402184], [-35.64072, -9.401666], [-35.64023, -9.402046], [-35.63976, -9.402082], [-35.63738, -9.403047], [-35.63553, -9.40452], [-35.63355, -9.40558], [-35.63199, -9.405898], [-35.63052, -9.405844], [-35.62846, -9.40482], [-35.62768, -9.404832], [-35.62658, -9.405905], [-35.62574, -9.405881], [-35.62538, -9.406149], [-35.6252, -9.407619], [-35.62417, -9.40735], [-35.62422, -9.407992], [-35.624, -9.408268], [-35.62346, -9.407871], [-35.6236, -9.408462], [-35.62318, -9.408625], [-35.62285, -9.408231], [-35.62257, -9.408559], [-35.62198, -9.407834], [-35.62177, -9.408645], [-35.6221, -9.408809], [-35.62202, -9.409055], [-35.62172, -9.40911], [-35.62126, -9.408714], [-35.6208, -9.408973], [-35.62092, -9.409517], [-35.62116, -9.409653], [-35.621, -9.409869], [-35.61913, -9.408932], [-35.61937, -9.408371], [-35.61901, -9.40782], [-35.61856, -9.407751], [-35.61798, -9.408137], [-35.61747, -9.407985], [-35.61613, -9.407031], [-35.61467, -9.406342], [-35.61412, -9.405832], [-35.61323, -9.405769], [-35.61274, -9.405425], [-35.61153, -9.40531], [-35.61108, -9.404301], [-35.6109, -9.404512], [-35.61106, -9.405378], [-35.61082, -9.405479], [-35.61081, -9.405713], [-35.61132, -9.40583], [-35.61131, -9.40608], [-35.6111, -9.406033], [-35.61091, -9.406353], [-35.61139, -9.406579], [-35.61124, -9.407452], [-35.611, -9.407679], [-35.61034, -9.40753], [-35.61005, -9.406329], [-35.60983, -9.406212], [-35.60968, -9.406329], [-35.60967, -9.406766], [-35.60904, -9.406384], [-35.60871, -9.406423], [-35.60896, -9.407117], [-35.60884, -9.40725], [-35.60814, -9.407273], [-35.60718, -9.406938], [-35.6069, -9.406992], [-35.60654, -9.408069], [-35.60604, -9.408334], [-35.60546, -9.40831], [-35.6052, -9.408061], [-35.6055, -9.407242], [-35.60536, -9.406743], [-35.60488, -9.406415], [-35.60399, -9.406665], [-35.60369, -9.406579], [-35.60333, -9.405986], [-35.60314, -9.405963], [-35.60296, -9.406025], [-35.6028, -9.40725], [-35.60256, -9.407538], [-35.60222, -9.407273], [-35.60212, -9.406878], [-35.60246, -9.405744], [-35.60241, -9.405159], [-35.6017, -9.404512], [-35.6012, -9.404621], [-35.60098, -9.404504], [-35.60006, -9.404863], [-35.60041, -9.405534], [-35.60002, -9.406384], [-35.59901, -9.407296], [-35.59711, -9.407634]]]}}, 
{"type": "Feature", "properties": {"CD_SETOR": "270644805000017", "CD_SIT": "1", "NM_DIST": "Paripueira", "NM_SUBDIST": null}, "geometry": {"type": "Polygon", "coordinates": [[[-35.55809, -9.461103], [-35.55599, -9.461033], [-35.55546, -9.460741], [-35.55477, -9.459238], [-35.55409, -9.458336], [-35.5531, -9.45818], [-35.55178, -9.45829], [-35.55136, -9.457648], [-35.55139, -9.457337], [-35.55107, -9.457365], [-35.5507, -9.457129], [-35.55008, -9.456307], [-35.55008, -9.455761], [-35.54963, -9.454816], [-35.54863, -9.454431], [-35.54741, -9.454339], [-35.5472, -9.454441], [-35.54623, -9.454259], [-35.5457, -9.45439], [-35.54555, -9.454605], [-35.53796, -9.454537], [-35.53922, -9.456052], [-35.53979, -9.455675], [-35.54009, -9.455909], [-35.54288, -9.456138], [-35.54328, -9.456264], [-35.5432, -9.45677], [-35.54383, -9.456577], [-35.54563, -9.456705], [-35.54833, -9.45664], [-35.54832, -9.457262], [-35.54767, -9.457298], [-35.54781, -9.458483], [-35.54826, -9.45857], [-35.54819, -9.459317], [-35.55063, -9.459284], [-35.55266, -9.459512], [-35.5531, -9.459892], [-35.55291, -9.461215], [-35.55308, -9.461548], [-35.55424, -9.462331], [-35.55497, -9.463506], [-35.55624, -9.462861], [-35.5568, -9.463492], [-35.55826, -9.463859], [-35.55896, -9.463709], [-35.55884, -9.462383], [-35.55931, -9.462297], [-35.55893, -9.461662], [-35.55809, -9.461103]]]}}, 
{"type": "Feature", "properties": {"CD_SETOR": "270644805000018", "CD_SIT": "2", "NM_DIST": "Paripueira", "NM_SUBDIST": null}, "geometry": {"type": "Polygon", "coordinates": [[[-35.54735, -9.468492], [-35.54643, -9.469008], [-35.54793, -9.470614], [-35.54914, -9.47166], [-35.5504, -9.472045], [-35.55096, -9.472423], [-35.55161, -9.473117], [-35.55232, -9.474322], [-35.55285, -9.474371], [-35.55235, -9.47368], [-35.55251, -9.473449], [-35.55319, -9.474153], [-35.55394, -9.474512], [-35.55424, -9.474872], [-35.55434, -9.475274], [-35.55398, -9.475418], [-35.55392, -9.475649], [-35.55504, -9.477], [-35.55589, -9.478818], [-35.55582, -9.48125], [-35.55607, -9.483665], [-35.55642, -9.484859], [-35.55707, -9.485906], [-35.55849, -9.48753], [-35.55882, -9.486831], [-35.55905, -9.485162], [-35.56038, -9.48523], [-35.56074, -9.48451], [-35.56168, -9.480969], [-35.5624, -9.479756], [-35.56285, -9.479556], [-35.56704, -9.479153], [-35.56866, -9.478434], [-35.56917, -9.477958], [-35.56602, -9.474933], [-35.55658, -9.474741], [-35.55532, -9.472792], [-35.55239, -9.469307], [-35.55114, -9.467965], [-35.54993, -9.467308], [-35.54973, -9.467223], [-35.54735, -9.468492]]]}}, 
{"type": "Feature", "properties": {"CD_SETOR": "270644805000020", "CD_SIT": "1", "NM_DIST": "Paripueira", "NM_SUBDIST": null}, "geometry": {"type": "Polygon", "coordinates": [[[-35.54871, -9.463707], [-35.54857, -9.465401], [-35.54809, -9.46599], [-35.54846, -9.466344], [-35.54687, -9.46799], [-35.54735, -9.468492], [-35.54973, -9.467223], [-35.55215, -9.464272], [-35.55093, -9.463566], [-35.55073, -9.463771], [-35.54969, -9.463871], [-35.54919, -9.463898], [-35.54871, -9.463707]]]}}, 
{"type": "Feature", "properties": {"CD_SETOR": "270644805000021", "CD_SIT": "1", "NM_DIST": "Paripueira", "NM_SUBDIST": null}, "geometry": {"type": "Polygon", "coordinates": [[[-35.54522, -9.463165], [-35.54628, -9.464135], [-35.54872, -9.463497], [-35.54871, -9.463707], [-35.54919, -9.463898], [-35.55064, -9.463792], [-35.55093, -9.463566], [-35.54698, -9.461181], [-35.54522, -9.463165]]]}}, 
{"type": "Feature", "properties": {"CD_SETOR": "270644805000022", "CD_SIT": "1", "NM_DIST": "Paripueira", "NM_SUBDIST": null}, "geometry": {"type": "Polygon", "coordinates": [[[-35.52566, -9.443589], [-35.52768, -9.445903], [-35.52905, -9.44823], [-35.52958, -9.450237], [-35.52952, -9.45104], [-35.52908, -9.45246], [-35.52896, -9.454382], [-35.52947, -9.455455], [-35.53038, -9.456834], [-35.53125, -9.457687], [-35.53161, -9.457794], [-35.5314, -9.457227], [-35.53161, -9.457016], [-35.53259, -9.456912], [-35.5333, -9.456313], [-35.53387, -9.456336], [-35.53449, -9.456681], [-35.53695, -9.458739], [-35.53654, -9.458138], [-35.53656, -9.457933], [-35.53614, -9.457666], [-35.53902, -9.456697], [-35.53945, -9.45641], [-35.53829, -9.454817], [-35.53399, -9.451653], [-35.53064, -9.445208], [-35.52967, -9.442901], [-35.5302, -9.43917], [-35.53018, -9.4382], [-35.52982, -9.438865], [-35.52957, -9.43992], [-35.52884, -9.441228], [-35.52829, -9.441308], [-35.52795, -9.441574], [-35.52769, -9.441996], [-35.52774, -9.442342], [-35.52679, -9.442391], [-35.52643, -9.443275], [-35.52566, -9.443589]]]}}, 
{"type": "Feature", "properties": {"CD_SETOR": "270644805000023", "CD_SIT": "2", "NM_DIST": "Paripueira", "NM_SUBDIST": null}, "geometry": {"type": "Polygon", "coordinates": [[[-35.52459, -9.442626], [-35.52498, -9.44236], [-35.52506, -9.442835], [-35.52566, -9.443589], [-35.52643, -9.443275], [-35.52679, -9.442391], [-35.52774, -9.442342], [-35.52769, -9.441996], [-35.52795, -9.441574], [-35.52829, -9.441308], [-35.52884, -9.441228], [-35.52957, -9.43992], [-35.52982, -9.438865], [-35.53018, -9.4382], [-35.53001, -9.437466], [-35.52973, -9.437562], [-35.52979, -9.438219], [-35.52939, -9.438377], [-35.52917, -9.43824], [-35.52914, -9.43745], [-35.52881, -9.437074], [-35.52894, -9.436877], [-35.52954, -9.43689], [-35.52951, -9.436613], [-35.52882, -9.436285], [-35.52803, -9.436572], [-35.52807, -9.436748], [-35.52854, -9.436907], [-35.52853, -9.437183], [-35.52836, -9.437394], [-35.52774, -9.43729], [-35.52757, -9.437422], [-35.52789, -9.438085], [-35.52759, -9.438597], [-35.52717, -9.438636], [-35.52715, -9.439153], [-35.52661, -9.440218], [-35.52658, -9.440944], [-35.52553, -9.441207], [-35.52487, -9.442024], [-35.52459, -9.442626]]]}}, 
{"type": "Feature", "properties": {"CD_SETOR": "270644805000024", "CD_SIT": "2", "NM_DIST": "Paripueira", "NM_SUBDIST": null}, "geometry": {"type": "Polygon", "coordinates": [[[-35.55324, -9.470287], [-35.55544, -9.472958], [-35.55658, -9.474741], [-35.56602, -9.474933], [-35.5631, -9.471783], [-35.56066, -9.47007], [-35.55324, -9.470287]]]}}, 
{"type": "Feature", "properties": {"CD_SETOR": "270644805000025", "CD_SIT": "1", "NM_DIST": "Paripueira", "NM_SUBDIST": null}, "geometry": {"type": "Polygon", "coordinates": [[[-35.54973, -9.467223], [-35.55114, -9.467965], [-35.55324, -9.470287], [-35.56066, -9.47007], [-35.55215, -9.464272], [-35.54973, -9.467223]]]}}, 
{"type": "Feature", "properties": {"CD_SETOR": "270644805000027", "CD_SIT": "5", "NM_DIST": "Paripueira", "NM_SUBDIST": null}, "geometry": {"type": "Polygon", "coordinates": [[[-35.56191, -9.459301], [-35.56258, -9.459075], [-35.56296, -9.458556], [-35.56155, -9.458473], [-35.56164, -9.458901], [-35.56197, -9.458967], [-35.56191, -9.459301]]]}}, 
{"type": "Feature", "properties": {"CD_SETOR": "270644805000028", "CD_SIT": "1", "NM_DIST": "Paripueira", "NM_SUBDIST": null}, "geometry": {"type": "Polygon", "coordinates": [[[-35.54318, -9.461341], [-35.54522, -9.463165], [-35.54698, -9.461181], [-35.54627, -9.460782], [-35.54345, -9.461089], [-35.54318, -9.461341]]]}}, 
{"type": "Feature", "properties": {"CD_SETOR": "270644805000029", "CD_SIT": "1", "NM_DIST": "Paripueira", "NM_SUBDIST": null}, "geometry": {"type": "Polygon", "coordinates": [[[-35.54318, -9.461341], [-35.54345, -9.461089], [-35.54627, -9.460782], [-35.54141, -9.45847], [-35.54106, -9.459057], [-35.54114, -9.459378], [-35.54318, -9.461341]]]}}, 
{"type": "Feature", "properties": {"CD_SETOR": "270644805000030", "CD_SIT": "8", "NM_DIST": "Paripueira", "NM_SUBDIST": null}, "geometry": {"type": "Polygon", "coordinates": [[[-35.56103, -9.470329], [-35.56298, -9.470179], [-35.56506, -9.47025], [-35.56561, -9.470864], [-35.56595, -9.47085], [-35.56664, -9.471319], [-35.56675, -9.471798], [-35.56722, -9.47221], [-35.5684, -9.472531], [-35.57065, -9.472478], [-35.57392, -9.473016], [-35.57397, -9.473394], [-35.57324, -9.474097], [-35.57316, -9.474452], [-35.57222, -9.474824], [-35.57145, -9.474632], [-35.56675, -9.474757], [-35.56642, -9.474418], [-35.56577, -9.474707], [-35.56917, -9.477958], [-35.56999, -9.477199], [-35.57694, -9.472915], [-35.57929, -9.471675], [-35.58266, -9.470497], [-35.58404, -9.469834], [-35.5846, -9.469776], [-35.58619, -9.470166], [-35.58738, -9.470139], [-35.58843, -9.46994], [-35.58934, -9.469353], [-35.5901, -9.469112], [-35.59107, -9.469677], [-35.59224, -9.469784], [-35.5931, -9.470338], [-35.59432, -9.469789], [-35.59466, -9.469774], [-35.59505, -9.469936], [-35.59552, -9.471467], [-35.5959, -9.472063], [-35.59666, -9.472265], [-35.59799, -9.47304], [-35.59988, -9.473228], [-35.6019, -9.474054], [-35.60311, -9.473742], [-35.60391, -9.472733], [-35.60441, -9.472559], [-35.60616, -9.473], [-35.60785, -9.473039], [-35.60824, -9.472673], [-35.60881, -9.470778], [-35.60916, -9.470487], [-35.61019, -9.470426], [-35.61282, -9.471171], [-35.61352, -9.470628], [-35.61458, -9.470162], [-35.61535, -9.469969], [-35.6172, -9.469858], [-35.61763, -9.469677], [-35.61804, -9.469114], [-35.61932, -9.465589], [-35.61978, -9.464813], [-35.61869, -9.463931], [-35.61871, -9.463235], [-35.6182, -9.461922], [-35.61839, -9.460433], [-35.61959, -9.458736], [-35.61968, -9.458379], [-35.61915, -9.457423], [-35.61914, -9.45663], [-35.61875, -9.455727], [-35.61878, -9.45468], [-35.61857, -9.454426], [-35.6183, -9.453191], [-35.61854, -9.452372], [-35.62006, -9.450818], [-35.62012, -9.450572], [-35.61971, -9.44985], [-35.62036, -9.448472], [-35.62033, -9.44771], [-35.62061, -9.44685], [-35.62103, -9.44669], [-35.62181, -9.447087], [-35.62266, -9.446378], [-35.62345, -9.446131], [-35.62518, -9.446599], [-35.6258, -9.446404], [-35.62712, -9.445131], [-35.62853, -9.444909], [-35.62965, -9.443875], [-35.62961, -9.442959], [-35.63027, -9.441692], [-35.62963, -9.441769], [-35.62922, -9.441639], [-35.6289, -9.440989], [-35.62847, -9.440605], [-35.62704, -9.440131], [-35.62646, -9.439578], [-35.62606, -9.43952], [-35.62536, -9.439708], [-35.62418, -9.439071], [-35.62346, -9.439038], [-35.62237, -9.439702], [-35.62202, -9.440482], [-35.62148, -9.440755], [-35.6198, -9.440969], [-35.61881, -9.440924], [-35.6179, -9.439981], [-35.61683, -9.439806], [-35.61592, -9.439988], [-35.61415, -9.440706], [-35.61406, -9.440137], [-35.61338, -9.439604], [-35.61307, -9.438973], [-35.61373, -9.437641], [-35.61313, -9.43649], [-35.61251, -9.436087], [-35.61197, -9.436087], [-35.61099, -9.43571], [-35.60883, -9.43426], [-35.60777, -9.434358], [-35.6074, -9.434104], [-35.60755, -9.433486], [-35.60702, -9.432713], [-35.6056, -9.431224], [-35.60527, -9.431087], [-35.6047, -9.431003], [-35.60435, -9.431152], [-35.60425, -9.43203], [-35.60342, -9.432277], [-35.60306, -9.432109], [-35.60269, -9.432147], [-35.60184, -9.432537], [-35.6011, -9.431523], [-35.60046, -9.431406], [-35.59994, -9.430457], [-35.59983, -9.429677], [-35.59958, -9.429339], [-35.59916, -9.428994], [-35.59837, -9.428779], [-35.59801, -9.428771], [-35.59702, -9.429467], [-35.59569, -9.430124], [-35.59513, -9.431164], [-35.59477, -9.431334], [-35.59395, -9.431321], [-35.59099, -9.433772], [-35.58789, -9.435214], [-35.58671, -9.43518], [-35.5841, -9.434138], [-35.58266, -9.433838], [-35.58156, -9.433968], [-35.58031, -9.434438], [-35.57903, -9.435002], [-35.57828, -9.435579], [-35.57217, -9.442285], [-35.56568, -9.443987], [-35.56445, -9.443927], [-35.56303, -9.443378], [-35.56184, -9.443357], [-35.55352, -9.450613], [-35.55281, -9.450719], [-35.55125, -9.450077], [-35.55059, -9.450299], [-35.55041, -9.450457], [-35.54978, -9.452287], [-35.54923, -9.453056], [-35.54879, -9.453386], [-35.54741, -9.453659], [-35.54679, -9.454305], [-35.5472, -9.454441], [-35.54854, -9.454402], [-35.54912, -9.454721], [-35.54959, -9.454768], [-35.55008, -9.455761], [-35.55008, -9.456307], [-35.5507, -9.457129], [-35.55107, -9.457365], [-35.55139, -9.457337], [-35.55136, -9.457648], [-35.55178, -9.45829], [-35.5531, -9.45818], [-35.55409, -9.458336], [-35.55477, -9.459238], [-35.55546, -9.460741], [-35.55599, -9.461033], [-35.55809, -9.461103], [-35.55893, -9.461662], [-35.55931, -9.462297], [-35.56224, -9.4642], [-35.56257, -9.465235], [-35.5621, -9.465324], [-35.56207, -9.466445], [-35.56116, -9.46655], [-35.56029, -9.468314], [-35.55961, -9.468108], [-35.55886, -9.46883], [-35.56103, -9.470329]], [[-35.56191, -9.459301], [-35.56197, -9.458967], [-35.56164, -9.458901], [-35.56155, -9.458473], [-35.56296, -9.458556], [-35.56258, -9.459075], [-35.56191, -9.459301]]]}}, 
{"type": "Feature", "properties": {"CD_SETOR": "270644805000031", "CD_SIT": "2", "NM_DIST": "Paripueira", "NM_SUBDIST": null}, "geometry": {"type": "Polygon", "coordinates": [[[-35.56577, -9.474707], [-35.56642, -9.474418], [-35.56675, -9.474757], [-35.57145, -9.474632], [-35.57222, -9.474824], [-35.57316, -9.474452], [-35.57324, -9.474097], [-35.57397, -9.473394], [-35.57396, -9.473132], [-35.57384, -9.472991], [-35.57287, -9.472943], [-35.57244, -9.472723], [-35.57065, -9.472478], [-35.5684, -9.472531], [-35.56722, -9.47221], [-35.56675, -9.471798], [-35.56664, -9.471319], [-35.56595, -9.47085], [-35.56561, -9.470864], [-35.56506, -9.47025], [-35.56298, -9.470179], [-35.56103, -9.470329], [-35.5631, -9.471783], [-35.56577, -9.474707]]]}}]}