{"type": "FeatureCollection", "features": [
{"type": "Feature", "properties": {"CD_SETOR": "270770105000001", "CD_SIT": "1", "NM_DIST": "Rio Largo", "NM_SUBDIST": null}, "geometry": {"type": "Polygon", "coordinates": [[[-35.85152, -9.487573], [-35.85216, -9.488591], [-35.85514, -9.486605], [-35.85473, -9.486052], [-35.85278, -9.486464], [-35.85257, -9.484213], [-35.85188, -9.484002], [-35.85192, -9.48379], [-35.85155, -9.483844], [-35.85176, -9.484536], [-35.85137, -9.484671], [-35.85184, -9.485779], [-35.85231, -9.486369], [-35.85201, -9.486608], [-35.8514, -9.486309], [-35.85131, -9.486873], [-35.85152, -9.487573]]]}}, 
{"type": "Feature", "properties": {"CD_SETOR": "270770105000002", "CD_SIT": "1", "NM_DIST": "Rio Largo", "NM_SUBDIST": null}, "geometry": {"type": "Polygon", "coordinates": [[[-35.85334, -9.486357], [-35.85449, -9.486168], [-35.85529, -9.485714], [-35.85509, -9.485358], [-35.85525, -9.48526], [-35.85473, -9.484465], [-35.85317, -9.484308], [-35.85316, -9.485428], [-35.85269, -9.485443], [-35.85278, -9.486464], [-35.85334, -9.486357]]]}}, 
{"type": "Feature", "properties": {"CD_SETOR": "270770105000003", "CD_SIT": "1", "NM_DIST": "Rio Largo", "NM_SUBDIST": null}, "geometry": {"type": "Polygon", "coordinates": [[[-35.85501, -9.484265], [-35.85473, -9.484465], [-35.85525, -9.48526], [-35.85509, -9.485358], [-35.85529, -9.485714], [-35.85473, -9.486052], [-35.85514, -9.486605], [-35.85739, -9.485151], [-35.8572, -9.48447], [-35.85692, -9.484306], [-35.8566, -9.484567], [-35.85553, -9.483905], [-35.85501, -9.484265]]]}}, 
{"type": "Feature", "properties": {"CD_SETOR": "270770105000005", "CD_SIT": "1", "NM_DIST": "Rio Largo", "NM_SUBDIST": null}, "geometry": {"type": "Polygon", "coordinates": [[[-35.85711, -9.484413], [-35.85739, -9.485151], [-35.85632, -9.485843], [-35.85651, -9.486293], [-35.8572, -9.48602], [-35.8575, -9.485684], [-35.85943, -9.486441], [-35.86044, -9.484121], [-35.86044, -9.483532], [-35.85867, -9.4839], [-35.85828, -9.484407], [-35.85809, -9.484334], [-35.85848, -9.483787], [-35.85855, -9.483146], [-35.85795, -9.483645], [-35.85795, -9.483339], [-35.85677, -9.483367], [-35.85654, -9.483672], [-35.85601, -9.483394], [-35.85553, -9.483905], [-35.8566, -9.484567], [-35.85692, -9.484306], [-35.85711, -9.484413]]]}}, 
{"type": "Feature", "properties": {"CD_SETOR": "270770105000006", "CD_SIT": "1", "NM_DIST": "Rio Largo", "NM_SUBDIST": null}, "geometry": {"type": "Polygon", "coordinates": [[[-35.85367, -9.482426], [-35.85303, -9.48335], [-35.8527, -9.484215], [-35.85257, -9.484213], [-35.85269, -9.485443], [-35.85316, -9.485428], [-35.85317, -9.484308], [-35.85468, -9.484496], [-35.8558, -9.483696], [-35.85661, -9.482574], [-35.85687, -9.482462], [-35.85681, -9.48203], [-35.85428, -9.482436], [-35.85402, -9.482175], [-35.85367, -9.482426]]]}}, 
{"type": "Feature", "properties": {"CD_SETOR": "270770105000008", "CD_SIT": "1", "NM_DIST": "Rio Largo", "NM_SUBDIST": null}, "geometry": {"type": "Polygon", "coordinates": [[[-35.85275, -9.481097], [-35.85347, -9.480995], [-35.85335, -9.479786], [-35.85308, -9.479798], [-35.85314, -9.479388], [-35.85407, -9.47992], [-35.85451, -9.481879], [-35.85549, -9.481415], [-35.85564, -9.481626], [-35.85614, -9.481708], [-35.85739, -9.481323], [-35.85704, -9.480438], [-35.85664, -9.480277], [-35.8561, -9.480976], [-35.85513, -9.480508], [-35.85496, -9.480517], [-35.85486, -9.480854], [-35.85434, -9.479797], [-35.85305, -9.479012], [-35.85267, -9.480402], [-35.85275, -9.481097]]]}}, 
{"type": "Feature", "properties": {"CD_SETOR": "270770105000009", "CD_SIT": "1", "NM_DIST": "Rio Largo", "NM_SUBDIST": null}, "geometry": {"type": "Polygon", "coordinates": [[[-35.85809, -9.484334], [-35.85832, -9.484395], [-35.8587, -9.483888], [-35.86044, -9.483532], [-35.85956, -9.480166], [-35.85989, -9.479473], [-35.85916, -9.479218], [-35.85884, -9.479733], [-35.85818, -9.479014], [-35.85714, -9.480065], [-35.85705, -9.480568], [-35.85739, -9.481323], [-35.85705, -9.481462], [-35.85701, -9.481983], [-35.85681, -9.48203], [-35.85687, -9.482462], [-35.85661, -9.482574], [-35.85601, -9.483394], [-35.85654, -9.483672], [-35.85677, -9.483367], [-35.85795, -9.483339], [-35.85795, -9.483645], [-35.85855, -9.483146], [-35.85848, -9.483787], [-35.85809, -9.484334]]]}}, 
{"type": "Feature", "properties": {"CD_SETOR": "270770105000010", "CD_SIT": "1", "NM_DIST": "Rio Largo", "NM_SUBDIST": null}, "geometry": {"type": "Polygon", "coordinates": [[[-35.85884, -9.479733], [-35.85916, -9.479218], [-35.85989, -9.479473], [-35.8604, -9.478401], [-35.86154, -9.474466], [-35.86034, -9.47429], [-35.86019, -9.475087], [-35.85979, -9.475438], [-35.85955, -9.475962], [-35.86043, -9.476052], [-35.86038, -9.476447], [-35.85957, -9.476712], [-35.85875, -9.478288], [-35.85818, -9.479014], [-35.85884, -9.479733]]]}}, 
{"type": "Feature", "properties": {"CD_SETOR": "270770105000011", "CD_SIT": "1", "NM_DIST": "Rio Largo", "NM_SUBDIST": null}, "geometry": {"type": "Polygon", "coordinates": [[[-35.85218, -9.465383], [-35.85194, -9.466433], [-35.85255, -9.467359], [-35.8519, -9.468746], [-35.85266, -9.471288], [-35.85321, -9.472046], [-35.85338, -9.473376], [-35.85385, -9.474326], [-35.85548, -9.474301], [-35.85557, -9.474823], [-35.85674, -9.474578], [-35.85807, -9.474959], [-35.85862, -9.474907], [-35.85904, -9.475156], [-35.85955, -9.475962], [-35.85979, -9.475438], [-35.86019, -9.475087], [-35.86034, -9.47429], [-35.86104, -9.474313], [-35.86154, -9.474466], [-35.8609, -9.47659], [-35.86209, -9.476719], [-35.8628, -9.475033], [-35.86316, -9.473382], [-35.86313, -9.471965], [-35.86248, -9.470865], [-35.86164, -9.469925], [-35.86066, -9.468118], [-35.86016, -9.467608], [-35.85941, -9.466365], [-35.85748, -9.465423], [-35.85503, -9.465376], [-35.85436, -9.4656], [-35.85405, -9.46609], [-35.85323, -9.465464], [-35.85218, -9.465383]]]}}, 
{"type": "Feature", "properties": {"CD_SETOR": "270770105000012", "CD_SIT": "1", "NM_DIST": "Rio Largo", "NM_SUBDIST": null}, "geometry": {"type": "Polygon", "coordinates": [[[-35.86029, -9.476477], [-35.86043, -9.476052], [-35.85951, -9.475939], [-35.8591, -9.47523], [-35.85869, -9.47493], [-35.85807, -9.474959], [-35.85696, -9.474585], [-35.85557, -9.474823], [-35.85573, -9.475663], [-35.85623, -9.475441], [-35.85677, -9.475489], [-35.85644, -9.476544], [-35.85672, -9.476723], [-35.85683, -9.477273], [-35.85716, -9.477744], [-35.85837, -9.478769], [-35.85957, -9.476712], [-35.86029, -9.476477]]]}}, 
{"type": "Feature", "properties": {"CD_SETOR": "270770105000013", "CD_SIT": "1", "NM_DIST": "Rio Largo", "NM_SUBDIST": null}, "geometry": {"type": "Polygon", "coordinates": [[[-35.85644, -9.476544], [-35.85677, -9.475489], [-35.85623, -9.475441], [-35.85573, -9.475663], [-35.85548, -9.474301], [-35.85385, -9.474326], [-35.85419, -9.474967], [-35.85424, -9.475771], [-35.85479, -9.476424], [-35.85544, -9.476612], [-35.85644, -9.476544]]]}}, 
{"type": "Feature", "properties": {"CD_SETOR": "270770105000014", "CD_SIT": "1", "NM_DIST": "Rio Largo", "NM_SUBDIST": null}, "geometry": {"type": "Polygon", "coordinates": [[[-35.84883, -9.480107], [-35.84949, -9.480461], [-35.84925, -9.480988], [-35.85132, -9.48225], [-35.8518, -9.481632], [-35.8528, -9.481573], [-35.85267, -9.480402], [-35.85424, -9.475771], [-35.85419, -9.474967], [-35.85383, -9.474273], [-35.85113, -9.474528], [-35.85124, -9.475424], [-35.85012, -9.475275], [-35.84918, -9.476981], [-35.84917, -9.477619], [-35.849, -9.477948], [-35.84926, -9.478491], [-35.84922, -9.478871], [-35.849, -9.479032], [-35.84883, -9.480107]]]}}, 
{"type": "Feature", "properties": {"CD_SETOR": "270770105000015", "CD_SIT": "1", "NM_DIST": "Rio Largo", "NM_SUBDIST": null}, "geometry": {"type": "Polygon", "coordinates": [[[-35.84904, -9.481386], [-35.84965, -9.482023], [-35.85052, -9.482326], [-35.8513, -9.483471], [-35.85154, -9.483502], [-35.85167, -9.483797], [-35.85192, -9.48379], [-35.85188, -9.484002], [-35.8527, -9.484215], [-35.85327, -9.482929], [-35.85225, -9.482268], [-35.85159, -9.48264], [-35.85144, -9.482353], [-35.85053, -9.481679], [-35.84925, -9.480988], [-35.84904, -9.481386]]]}}, 
{"type": "Feature", "properties": {"CD_SETOR": "270770105000016", "CD_SIT": "1", "NM_DIST": "Rio Largo", "NM_SUBDIST": null}, "geometry": {"type": "Polygon", "coordinates": [[[-35.84606, -9.485346], [-35.84628, -9.485406], [-35.847, -9.484592], [-35.84689, -9.484527], [-35.84805, -9.48333], [-35.84789, -9.483084], [-35.84636, -9.483105], [-35.84502, -9.482464], [-35.84423, -9.484025], [-35.84606, -9.485346]]]}}, 
{"type": "Feature", "properties": {"CD_SETOR": "270770105000017", "CD_SIT": "1", "NM_DIST": "Rio Largo", "NM_SUBDIST": null}, "geometry": {"type": "Polygon", "coordinates": [[[-35.84662, -9.479519], [-35.84679, -9.479017], [-35.84885, -9.479957], [-35.849, -9.479032], [-35.84922, -9.478871], [-35.84926, -9.478491], [-35.849, -9.477948], [-35.84917, -9.477619], [-35.84918, -9.476981], [-35.85012, -9.475275], [-35.84908, -9.474475], [-35.84851, -9.474302], [-35.84741, -9.474434], [-35.84344, -9.474409], [-35.84332, -9.480615], [-35.84491, -9.481229], [-35.84553, -9.481241], [-35.84598, -9.48091], [-35.84662, -9.479519]]]}}, 
{"type": "Feature", "properties": {"CD_SETOR": "270770105000018", "CD_SIT": "1", "NM_DIST": "Rio Largo", "NM_SUBDIST": null}, "geometry": {"type": "Polygon", "coordinates": [[[-35.84095, -9.476548], [-35.84094, -9.477128], [-35.84284, -9.477166], [-35.84281, -9.478748], [-35.8422, -9.480327], [-35.84332, -9.480597], [-35.84344, -9.474409], [-35.8429, -9.474387], [-35.84286, -9.476601], [-35.84095, -9.476548]]]}}, 
{"type": "Feature", "properties": {"CD_SETOR": "270770105000019", "CD_SIT": "1", "NM_DIST": "Rio Largo", "NM_SUBDIST": null}, "geometry": {"type": "Polygon", "coordinates": [[[-35.83576, -9.484387], [-35.83564, -9.483677], [-35.83633, -9.480838], [-35.83682, -9.481036], [-35.83678, -9.481269], [-35.83706, -9.481407], [-35.83805, -9.479046], [-35.83556, -9.478125], [-35.83551, -9.477906], [-35.83412, -9.478138], [-35.83155, -9.477199], [-35.8324, -9.479496], [-35.83217, -9.480039], [-35.83213, -9.480898], [-35.83237, -9.482335], [-35.83447, -9.483334], [-35.83564, -9.484551], [-35.83576, -9.484387]]]}}, 
{"type": "Feature", "properties": {"CD_SETOR": "270770105000020", "CD_SIT": "1", "NM_DIST": "Rio Largo", "NM_SUBDIST": null}, "geometry": {"type": "Polygon", "coordinates": [[[-35.83828, -9.478506], [-35.83759, -9.480168], [-35.84162, -9.481738], [-35.84171, -9.481622], [-35.84111, -9.481293], [-35.84044, -9.480521], [-35.84078, -9.478737], [-35.84089, -9.47874], [-35.84095, -9.476548], [-35.83947, -9.476533], [-35.83944, -9.477082], [-35.83897, -9.477071], [-35.83893, -9.478969], [-35.83828, -9.478506]]]}}, 
{"type": "Feature", "properties": {"CD_SETOR": "270770105000021", "CD_SIT": "1", "NM_DIST": "Rio Largo", "NM_SUBDIST": null}, "geometry": {"type": "Polygon", "coordinates": [[[-35.83708, -9.474266], [-35.83704, -9.476458], [-35.83851, -9.476488], [-35.83851, -9.477059], [-35.83944, -9.477082], [-35.83947, -9.476533], [-35.84286, -9.476601], [-35.8429, -9.474387], [-35.83708, -9.474266]]]}}, 
{"type": "Feature", "properties": {"CD_SETOR": "270770105000022", "CD_SIT": "1", "NM_DIST": "Rio Largo", "NM_SUBDIST": null}, "geometry": {"type": "Polygon", "coordinates": [[[-35.84317, -9.46838], [-35.84334, -9.468748], [-35.84467, -9.468729], [-35.84473, -9.469664], [-35.84641, -9.469947], [-35.84685, -9.470347], [-35.84683, -9.471533], [-35.84706, -9.472162], [-35.84542, -9.472145], [-35.84538, -9.474421], [-35.84851, -9.474302], [-35.84908, -9.474475], [-35.84995, -9.475205], [-35.85124, -9.475424], [-35.85113, -9.474528], [-35.85383, -9.474273], [-35.85338, -9.473376], [-35.85321, -9.472046], [-35.85266, -9.471288], [-35.8519, -9.468746], [-35.85255, -9.467359], [-35.85194, -9.466433], [-35.8505, -9.466334], [-35.8496, -9.466485], [-35.84854, -9.466218], [-35.84804, -9.46671], [-35.84779, -9.46751], [-35.84733, -9.467592], [-35.84665, -9.46617], [-35.84624, -9.46589], [-35.84577, -9.46588], [-35.84443, -9.466696], [-35.84357, -9.468223], [-35.84317, -9.46838]]]}}, 
{"type": "Feature", "properties": {"CD_SETOR": "270770105000023", "CD_SIT": "1", "NM_DIST": "Rio Largo", "NM_SUBDIST": null}, "geometry": {"type": "Polygon", "coordinates": [[[-35.81788, -9.4843], [-35.81399, -9.493737], [-35.81498, -9.494106], [-35.81517, -9.493629], [-35.8178, -9.494439], [-35.8178, -9.494586], [-35.81523, -9.493787], [-35.81404, -9.496497], [-35.81686, -9.496938], [-35.81688, -9.496784], [-35.81797, -9.496751], [-35.81781, -9.494216], [-35.81772, -9.493566], [-35.81845, -9.488921], [-35.81896, -9.4868], [-35.8193, -9.486622], [-35.82008, -9.486702], [-35.82102, -9.482853], [-35.82095, -9.482158], [-35.82062, -9.481943], [-35.82158, -9.479315], [-35.8212, -9.479172], [-35.82111, -9.47949], [-35.81998, -9.479194], [-35.81788, -9.4843]]]}}, 
{"type": "Feature", "properties": {"CD_SETOR": "270770105000024", "CD_SIT": "1", "NM_DIST": "Rio Largo", "NM_SUBDIST": null}, "geometry": {"type": "Polygon", "coordinates": [[[-35.81247, -9.49752], [-35.81351, -9.497856], [-35.81356, -9.497739], [-35.81544, -9.498424], [-35.81662, -9.498622], [-35.81611, -9.501876], [-35.81751, -9.502008], [-35.81814, -9.500047], [-35.81797, -9.496751], [-35.81688, -9.496784], [-35.81686, -9.496938], [-35.81404, -9.496497], [-35.81498, -9.494106], [-35.81399, -9.493737], [-35.81247, -9.49752]]]}}, 
{"type": "Feature", "properties": {"CD_SETOR": "270770105000027", "CD_SIT": "1", "NM_DIST": "Rio Largo", "NM_SUBDIST": null}, "geometry": {"type": "Polygon", "coordinates": [[[-35.81229, -9.504736], [-35.81437, -9.505148], [-35.81876, -9.50544], [-35.81922, -9.505608], [-35.81887, -9.504862], [-35.81806, -9.50451], [-35.81736, -9.503741], [-35.81723, -9.502782], [-35.81751, -9.502008], [-35.8149, -9.501601], [-35.81437, -9.501958], [-35.81359, -9.503507], [-35.81229, -9.504736]]]}}, 
{"type": "Feature", "properties": {"CD_SETOR": "270770105000028", "CD_SIT": "2", "NM_DIST": "Rio Largo", "NM_SUBDIST": null}, "geometry": {"type": "Polygon", "coordinates": [[[-35.84686, -9.485782], [-35.84678, -9.485876], [-35.84423, -9.484025], [-35.8446, -9.483255], [-35.84244, -9.481986], [-35.84215, -9.482425], [-35.84214, -9.483127], [-35.84105, -9.482723], [-35.8399, -9.481711], [-35.83879, -9.481549], [-35.83778, -9.481923], [-35.8369, -9.481711], [-35.83641, -9.481968], [-35.83606, -9.482736], [-35.83623, -9.483354], [-35.8357, -9.483926], [-35.83592, -9.484136], [-35.83564, -9.484551], [-35.83447, -9.483334], [-35.83237, -9.482335], [-35.83213, -9.480898], [-35.83217, -9.480039], [-35.8324, -9.479496], [-35.83155, -9.477199], [-35.82754, -9.475602], [-35.82697, -9.476549], [-35.82397, -9.477675], [-35.82229, -9.483336], [-35.82154, -9.4841], [-35.82123, -9.48489], [-35.82132, -9.485856], [-35.82109, -9.488421], [-35.82051, -9.489954], [-35.81834, -9.489686], [-35.81772, -9.493566], [-35.81815, -9.49995], [-35.81723, -9.502782], [-35.81731, -9.503626], [-35.81797, -9.50444], [-35.81887, -9.504862], [-35.81922, -9.505608], [-35.82021, -9.506051], [-35.81519, -9.508931], [-35.81517, -9.509701], [-35.81651, -9.510009], [-35.81697, -9.511], [-35.81782, -9.509839], [-35.82273, -9.506562], [-35.82239, -9.506116], [-35.8216, -9.506284], [-35.82091, -9.506111], [-35.82079, -9.505883], [-35.82553, -9.504435], [-35.82651, -9.5043], [-35.82706, -9.504407], [-35.82752, -9.504739], [-35.82821, -9.505824], [-35.83262, -9.507196], [-35.83342, -9.507144], [-35.83515, -9.5063], [-35.83555, -9.505864], [-35.83695, -9.503097], [-35.83849, -9.50182], [-35.83862, -9.500517], [-35.8389, -9.499947], [-35.84197, -9.498496], [-35.84295, -9.497445], [-35.84187, -9.497205], [-35.84128, -9.496748], [-35.84048, -9.496513], [-35.83981, -9.495711], [-35.83881, -9.495362], [-35.83831, -9.494986], [-35.83816, -9.494799], [-35.83872, -9.493692], [-35.8387, -9.492501], [-35.83821, -9.492113], [-35.83766, -9.491306], [-35.84095, -9.490284], [-35.84136, -9.490785], [-35.84219, -9.491384], [-35.84236, -9.490761], [-35.8423, -9.489452], [-35.84332, -9.489559], [-35.84772, -9.489357], [-35.84752, -9.485331], [-35.84737, -9.485214], [-35.84686, -9.485782]]]}}, 
{"type": "Feature", "properties": {"CD_SETOR": "270770105000029", "CD_SIT": "1", "NM_DIST": "Rio Largo", "NM_SUBDIST": null}, "geometry": {"type": "Polygon", "coordinates": [[[-35.84658, -9.493001], [-35.84609, -9.493024], [-35.84476, -9.492347], [-35.84427, -9.491985], [-35.84392, -9.491364], [-35.8431, -9.490803], [-35.84298, -9.49043], [-35.84332, -9.489559], [-35.8423, -9.489452], [-35.84236, -9.490761], [-35.84219, -9.491384], [-35.84136, -9.490785], [-35.84095, -9.490284], [-35.83766, -9.491306], [-35.83821, -9.492113], [-35.8387, -9.492501], [-35.83869, -9.493873], [-35.83816, -9.494799], [-35.83881, -9.495362], [-35.83981, -9.495711], [-35.84048, -9.496513], [-35.84128, -9.496748], [-35.84187, -9.497205], [-35.84295, -9.497445], [-35.84215, -9.498358], [-35.84158, -9.498688], [-35.84263, -9.499304], [-35.84339, -9.498418], [-35.84675, -9.497177], [-35.84707, -9.496898], [-35.84763, -9.495597], [-35.84712, -9.495024], [-35.84644, -9.494992], [-35.84629, -9.494859], [-35.84628, -9.494577], [-35.8467, -9.493784], [-35.84658, -9.493001]]]}}, 
{"type": "Feature", "properties": {"CD_SETOR": "270770105000030", "CD_SIT": "1", "NM_DIST": "Rio Largo", "NM_SUBDIST": null}, "geometry": {"type": "Polygon", "coordinates": [[[-35.85183, -9.488141], [-35.85119, -9.488409], [-35.85098, -9.488356], [-35.85016, -9.48718], [-35.8497, -9.486973], [-35.84933, -9.48783], [-35.84949, -9.488322], [-35.84938, -9.488368], [-35.84914, -9.488042], [-35.84821, -9.487868], [-35.84846, -9.488726], [-35.84803, -9.489887], [-35.84771, -9.489355], [-35.84332, -9.489559], [-35.84299, -9.490604], [-35.84392, -9.491364], [-35.84432, -9.492038], [-35.84564, -9.492851], [-35.84641, -9.493033], [-35.847, -9.492667], [-35.84791, -9.492579], [-35.84809, -9.492796], [-35.84836, -9.49281], [-35.84966, -9.492139], [-35.85045, -9.49143], [-35.85043, -9.491136], [-35.85106, -9.491163], [-35.85079, -9.490384], [-35.85049, -9.490193], [-35.85027, -9.48971], [-35.85216, -9.488591], [-35.85183, -9.488141]]]}}, 
{"type": "Feature", "properties": {"CD_SETOR": "270770105000031", "CD_SIT": "1", "NM_DIST": "Rio Largo", "NM_SUBDIST": null}, "geometry": {"type": "Polygon", "coordinates": [[[-35.85179, -9.488167], [-35.85132, -9.486842], [-35.85054, -9.486781], [-35.85059, -9.486198], [-35.8498, -9.486075], [-35.84894, -9.486279], [-35.84841, -9.484372], [-35.84775, -9.485113], [-35.84755, -9.484987], [-35.84737, -9.485214], [-35.84752, -9.485331], [-35.84772, -9.489357], [-35.84803, -9.489887], [-35.84846, -9.488726], [-35.84821, -9.487868], [-35.84914, -9.488042], [-35.84938, -9.488368], [-35.84949, -9.488322], [-35.84933, -9.48783], [-35.8497, -9.486973], [-35.85016, -9.48718], [-35.85098, -9.488356], [-35.85179, -9.488167]]]}}, 
{"type": "Feature", "properties": {"CD_SETOR": "270770105000032", "CD_SIT": "1", "NM_DIST": "Rio Largo", "NM_SUBDIST": null}, "geometry": {"type": "Polygon", "coordinates": [[[-35.84686, -9.485782], [-35.84755, -9.484987], [-35.84775, -9.485113], [-35.84841, -9.484372], [-35.84872, -9.485471], [-35.8492, -9.4853], [-35.84887, -9.48412], [-35.84976, -9.48335], [-35.84998, -9.484817], [-35.85032, -9.484941], [-35.85046, -9.484518], [-35.8503, -9.483337], [-35.84979, -9.482802], [-35.84961, -9.482944], [-35.84879, -9.4819], [-35.8479, -9.483045], [-35.84805, -9.48333], [-35.84689, -9.484527], [-35.847, -9.484592], [-35.84628, -9.485406], [-35.84678, -9.485876], [-35.84686, -9.485782]]]}}, 
{"type": "Feature", "properties": {"CD_SETOR": "270770105000033", "CD_SIT": "1", "NM_DIST": "Rio Largo", "NM_SUBDIST": null}, "geometry": {"type": "Polygon", "coordinates": [[[-35.84872, -9.485471], [-35.84894, -9.486279], [-35.8497, -9.486119], [-35.84988, -9.48593], [-35.85032, -9.484941], [-35.84998, -9.484817], [-35.84976, -9.48335], [-35.84887, -9.48412], [-35.8492, -9.4853], [-35.84872, -9.485471]]]}}, 
{"type": "Feature", "properties": {"CD_SETOR": "270770105000034", "CD_SIT": "1", "NM_DIST": "Rio Largo", "NM_SUBDIST": null}, "geometry": {"type": "Polygon", "coordinates": [[[-35.85032, -9.484941], [-35.8498, -9.486075], [-35.85059, -9.486198], [-35.85054, -9.486781], [-35.85132, -9.486842], [-35.8514, -9.486309], [-35.85201, -9.486608], [-35.85231, -9.486369], [-35.85171, -9.485558], [-35.85119, -9.484177], [-35.85112, -9.483512], [-35.8503, -9.483337], [-35.85046, -9.484518], [-35.85032, -9.484941]]]}}, 
{"type": "Feature", "properties": {"CD_SETOR": "270770105000035", "CD_SIT": "6", "NM_DIST": "Rio Largo", "NM_SUBDIST": null}, "geometry": {"type": "Polygon", "coordinates": [[[-35.85085, -9.536633], [-35.85343, -9.536853], [-35.85337, -9.535499], [-35.85488, -9.533486], [-35.85665, -9.531849], [-35.85482, -9.530773], [-35.85231, -9.529755], [-35.85186, -9.529827], [-35.8516, -9.530462], [-35.85129, -9.530765], [-35.8508, -9.530891], [-35.85103, -9.529832], [-35.8508, -9.528263], [-35.85034, -9.527167], [-35.84955, -9.527483], [-35.84613, -9.529837], [-35.84556, -9.530723], [-35.84518, -9.53197], [-35.84544, -9.532189], [-35.84582, -9.532061], [-35.84612, -9.533371], [-35.84557, -9.534442], [-35.84564, -9.535708], [-35.84602, -9.536877], [-35.84706, -9.537504], [-35.84706, -9.537774], [-35.84777, -9.537763], [-35.84949, -9.53814], [-35.85016, -9.538], [-35.85106, -9.537409], [-35.85108, -9.537014], [-35.85085, -9.536633]]]}}, 
{"type": "Feature", "properties": {"CD_SETOR": "270770105000036", "CD_SIT": "6", "NM_DIST": "Rio Largo", "NM_SUBDIST": null}, "geometry": {"type": "Polygon", "coordinates": [[[-35.85665, -9.531849], [-35.85488, -9.533486], [-35.85337, -9.535499], [-35.85343, -9.536853], [-35.85858, -9.536507], [-35.86211, -9.534653], [-35.8633, -9.533553], [-35.85914, -9.528695], [-35.85775, -9.530845], [-35.85665, -9.531849]]]}}, 
{"type": "Feature", "properties": {"CD_SETOR": "270770105000037", "CD_SIT": "6", "NM_DIST": "Rio Largo", "NM_SUBDIST": null}, "geometry": {"type": "Polygon", "coordinates": [[[-35.85062, -9.524165], [-35.85126, -9.525152], [-35.85129, -9.525783], [-35.85159, -9.526692], [-35.85186, -9.529827], [-35.85231, -9.529755], [-35.85354, -9.530205], [-35.85665, -9.531849], [-35.85733, -9.531336], [-35.85858, -9.52961], [-35.85947, -9.528039], [-35.85918, -9.527102], [-35.85841, -9.525723], [-35.85875, -9.523771], [-35.85834, -9.522839], [-35.85717, -9.522045], [-35.85568, -9.520656], [-35.85533, -9.52086], [-35.85504, -9.521307], [-35.85501, -9.522448], [-35.85474, -9.522999], [-35.85435, -9.523407], [-35.8538, -9.523661], [-35.85317, -9.523793], [-35.85274, -9.523667], [-35.85203, -9.523066], [-35.85187, -9.522514], [-35.85134, -9.522068], [-35.85067, -9.52186], [-35.85, -9.522042], [-35.84994, -9.522766], [-35.85062, -9.524165]]]}}, 
{"type": "Feature", "properties": {"CD_SETOR": "270770105000038", "CD_SIT": "8", "NM_DIST": "Rio Largo", "NM_SUBDIST": null}, "geometry": {"type": "Polygon", "coordinates": [[[-35.8633, -9.533553], [-35.86211, -9.534653], [-35.85858, -9.536507], [-35.85343, -9.536853], [-35.85371, -9.537566], [-35.85733, -9.541591], [-35.85743, -9.542203], [-35.85712, -9.542775], [-35.85649, -9.543435], [-35.85519, -9.544335], [-35.85228, -9.545929], [-35.84948, -9.546668], [-35.8487, -9.546692], [-35.84765, -9.546361], [-35.84671, -9.547254], [-35.84634, -9.548379], [-35.88724, -9.588839], [-35.93538, -9.550132], [-35.93632, -9.550284], [-35.93811, -9.549671], [-35.93994, -9.54586], [-35.94047, -9.545213], [-35.94221, -9.543987], [-35.94354, -9.542759], [-35.94635, -9.542309], [-35.94635, -9.541964], [-35.9461, -9.541685], [-35.94552, -9.541337], [-35.94513, -9.541326], [-35.94477, -9.540979], [-35.94507, -9.539468], [-35.94525, -9.539337], [-35.9465, -9.539649], [-35.94652, -9.53922], [-35.94552, -9.537892], [-35.9455, -9.537235], [-35.94574, -9.537075], [-35.94689, -9.537011], [-35.94786, -9.536255], [-35.94875, -9.536343], [-35.94941, -9.536194], [-35.94974, -9.535588], [-35.94986, -9.53334], [-35.95063, -9.532989], [-35.95118, -9.532412], [-35.95296, -9.53233], [-35.95411, -9.532522], [-35.95421, -9.532218], [-35.95361, -9.531462], [-35.95372, -9.531079], [-35.95516, -9.531513], [-35.95591, -9.531428], [-35.95644, -9.530868], [-35.95772, -9.530697], [-35.95916, -9.530113], [-35.95943, -9.52966], [-35.95975, -9.528039], [-35.95806, -9.525081], [-35.94169, -9.499618], [-35.94113, -9.499136], [-35.94026, -9.497665], [-35.93943, -9.498173], [-35.93829, -9.498161], [-35.93763, -9.498422], [-35.93642, -9.500672], [-35.92739, -9.50916], [-35.92297, -9.506085], [-35.92183, -9.505467], [-35.91711, -9.503532], [-35.91484, -9.503193], [-35.90982, -9.503375], [-35.90844, -9.503245], [-35.90943, -9.503797], [-35.91096, -9.504073], [-35.91113, -9.504323], [-35.91122, -9.505173], [-35.90991, -9.505733], [-35.90956, -9.506121], [-35.90858, -9.50661], [-35.90805, -9.507609], [-35.90774, -9.509022], [-35.90778, -9.510347], [-35.90818, -9.511329], [-35.90815, -9.511638], [-35.90759, -9.512416], [-35.90683, -9.512383], [-35.90655, -9.512524], [-35.90643, -9.513437], [-35.90559, -9.515007], [-35.90466, -9.515464], [-35.90292, -9.516905], [-35.90263, -9.516758], [-35.90252, -9.515706], [-35.90201, -9.515221], [-35.90135, -9.515456], [-35.89991, -9.515352], [-35.89905, -9.515461], [-35.89842, -9.515326], [-35.89698, -9.51589], [-35.89552, -9.515816], [-35.8952, -9.516024], [-35.89464, -9.51688], [-35.89329, -9.517038], [-35.8928, -9.518189], [-35.89301, -9.519344], [-35.89253, -9.519979], [-35.8926, -9.520764], [-35.89246, -9.521069], [-35.89196, -9.521223], [-35.89084, -9.521071], [-35.88874, -9.522339], [-35.88871, -9.523083], [-35.88789, -9.524018], [-35.88764, -9.524755], [-35.88763, -9.525441], [-35.88807, -9.526548], [-35.888, -9.527742], [-35.88769, -9.528651], [-35.88666, -9.529757], [-35.88514, -9.529994], [-35.88427, -9.530886], [-35.88328, -9.531375], [-35.88239, -9.532312], [-35.87981, -9.533434], [-35.87871, -9.533441], [-35.87663, -9.532347], [-35.87635, -9.53177], [-35.87593, -9.531655], [-35.87338, -9.532082], [-35.87154, -9.533519], [-35.86915, -9.534173], [-35.86887, -9.534375], [-35.86443, -9.534065], [-35.8633, -9.533553]]]}}, 
{"type": "Feature", "properties": {"CD_SETOR": "270770105000043", "CD_SIT": "6", "NM_DIST": "Rio Largo", "NM_SUBDIST": null}, "geometry": {"type": "Polygon", "coordinates": [[[-35.8507, -9.452724], [-35.85148, -9.452586], [-35.85174, -9.45269], [-35.85182, -9.45299], [-35.85241, -9.452898], [-35.85391, -9.452354], [-35.85499, -9.451165], [-35.85575, -9.451306], [-35.85633, -9.449587], [-35.85531, -9.447548], [-35.85383, -9.447278], [-35.85368, -9.448298], [-35.85345, -9.448733], [-35.85304, -9.4492], [-35.85199, -9.449718], [-35.85157, -9.450586], [-35.85101, -9.450465], [-35.85079, -9.449893], [-35.85097, -9.449499], [-35.8518, -9.449148], [-35.85204, -9.448883], [-35.85209, -9.448551], [-35.85175, -9.448228], [-35.8512, -9.448373], [-35.85075, -9.449035], [-35.84948, -9.449367], [-35.8476, -9.45076], [-35.84771, -9.450957], [-35.84828, -9.450671], [-35.84971, -9.450535], [-35.85005, -9.450916], [-35.85003, -9.451323], [-35.8496, -9.451529], [-35.85039, -9.452068], [-35.85048, -9.452279], [-35.84943, -9.452192], [-35.84799, -9.451605], [-35.84836, -9.452936], [-35.84898, -9.453423], [-35.8507, -9.452724]]]}}, 
{"type": "Feature", "properties": {"CD_SETOR": "270770105000044", "CD_SIT": "8", "NM_DIST": "Rio Largo", "NM_SUBDIST": null}, "geometry": {"type": "Polygon", "coordinates": [[[-35.85454, -9.447103], [-35.84574, -9.447033], [-35.84391, -9.446682], [-35.84168, -9.44562], [-35.83859, -9.443236], [-35.83759, -9.442154], [-35.8366, -9.44043], [-35.83642, -9.439897], [-35.83625, -9.437825], [-35.84097, -9.41205], [-35.8409, -9.410559], [-35.84034, -9.4067], [-35.7695, -9.38761], [-35.76963, -9.389788], [-35.78459, -9.468121], [-35.79827, -9.470667], [-35.80051, -9.472314], [-35.80062, -9.473545], [-35.80108, -9.474181], [-35.80132, -9.473432], [-35.80173, -9.472924], [-35.80199, -9.474005], [-35.80216, -9.47337], [-35.80295, -9.473035], [-35.80295, -9.472888], [-35.8036, -9.472538], [-35.8046, -9.473088], [-35.80493, -9.473061], [-35.80592, -9.472139], [-35.80664, -9.472405], [-35.80774, -9.47205], [-35.80854, -9.47202], [-35.80921, -9.471649], [-35.81071, -9.471839], [-35.81132, -9.471556], [-35.81174, -9.471642], [-35.81256, -9.472459], [-35.81299, -9.472184], [-35.81368, -9.472206], [-35.81389, -9.472671], [-35.81505, -9.471541], [-35.81626, -9.47137], [-35.81703, -9.472074], [-35.81715, -9.472003], [-35.81682, -9.470925], [-35.81692, -9.470772], [-35.82333, -9.470822], [-35.82445, -9.468105], [-35.82468, -9.468036], [-35.83354, -9.468433], [-35.84267, -9.468583], [-35.84357, -9.468223], [-35.84443, -9.466696], [-35.84577, -9.46588], [-35.84624, -9.46589], [-35.84665, -9.46617], [-35.84721, -9.467503], [-35.84764, -9.467592], [-35.84788, -9.467401], [-35.84813, -9.46656], [-35.84854, -9.466218], [-35.8496, -9.466485], [-35.8505, -9.466334], [-35.85187, -9.466478], [-35.8522, -9.465378], [-35.85323, -9.465464], [-35.85405, -9.46609], [-35.85436, -9.4656], [-35.85503, -9.465376], [-35.85731, -9.465401], [-35.85675, -9.464788], [-35.85635, -9.463916], [-35.85575, -9.461484], [-35.85537, -9.460932], [-35.85351, -9.460074], [-35.85244, -9.458936], [-35.8522, -9.458429], [-35.85222, -9.457895], [-35.85236, -9.457684], [-35.85268, -9.45763], [-35.85289, -9.456659], [-35.85329, -9.456051], [-35.85394, -9.455677], [-35.85452, -9.45508], [-35.85466, -9.454577], [-35.85459, -9.454067], [-35.85487, -9.453504], [-35.85613, -9.452989], [-35.85626, -9.452469], [-35.85652, -9.452228], [-35.85749, -9.452127], [-35.85927, -9.451452], [-35.86084, -9.450206], [-35.86125, -9.449451], [-35.86136, -9.448887], [-35.85708, -9.44753], [-35.85454, -9.447103]], [[-35.8507, -9.452724], [-35.84898, -9.453423], [-35.84836, -9.452936], [-35.84799, -9.451605], [-35.84943, -9.452192], [-35.85048, -9.452279], [-35.85039, -9.452068], [-35.8496, -9.451529], [-35.85003, -9.451323], [-35.85005, -9.450916], [-35.84971, -9.450535], [-35.84828, -9.450671], [-35.84771, -9.450957], [-35.8476, -9.45076], [-35.84948, -9.449367], [-35.85075, -9.449035], [-35.8512, -9.448373], [-35.85175, -9.448228], [-35.85209, -9.448551], [-35.85204, -9.448883], [-35.8518, -9.449148], [-35.85097, -9.449499], [-35.85079, -9.449893], [-35.85101, -9.450465], [-35.85157, -9.450586], [-35.85199, -9.449718], [-35.85304, -9.4492], [-35.85345, -9.448733], [-35.85368, -9.448298], [-35.85383, -9.447278], [-35.85531, -9.447548], [-35.85633, -9.449587], [-35.85575, -9.451306], [-35.85499, -9.451165], [-35.85391, -9.452354], [-35.85241, -9.452898], [-35.85182, -9.45299], [-35.85174, -9.45269], [-35.85148, -9.452586], [-35.8507, -9.452724]], [[-35.80089, -9.447152], [-35.7985, -9.446648], [-35.79804, -9.446379], [-35.79731, -9.445748], [-35.79754, -9.444602], [-35.80012, -9.445006], [-35.80039, -9.443377], [-35.8022, -9.4437], [-35.80181, -9.445762], [-35.80336, -9.446029], [-35.80299, -9.447544], [-35.80089, -9.447152]]]}}, 
{"type": "Feature", "properties": {"CD_SETOR": "270770105000045", "CD_SIT": "5", "NM_DIST": "Rio Largo", "NM_SUBDIST": null}, "geometry": {"type": "Polygon", "coordinates": [[[-35.80089, -9.447152], [-35.80299, -9.447544], [-35.80336, -9.446029], [-35.80181, -9.445762], [-35.8022, -9.4437], [-35.80039, -9.443377], [-35.80012, -9.445006], [-35.79754, -9.444602], [-35.79731, -9.445748], [-35.79804, -9.446379], [-35.7985, -9.446648], [-35.80089, -9.447152]]]}}, 
{"type": "Feature", "properties": {"CD_SETOR": "270770105000046", "CD_SIT": "1", "NM_DIST": "Rio Largo", "NM_SUBDIST": null}, "geometry": {"type": "Polygon", "coordinates": [[[-35.80702, -9.510541], [-35.80799, -9.508528], [-35.8096, -9.50453], [-35.80885, -9.504494], [-35.80855, -9.504328], [-35.80602, -9.505427], [-35.80697, -9.510271], [-35.80688, -9.510443], [-35.80702, -9.510541]]]}}, 
{"type": "Feature", "properties": {"CD_SETOR": "270770105000047", "CD_SIT": "1", "NM_DIST": "Rio Largo", "NM_SUBDIST": null}, "geometry": {"type": "Polygon", "coordinates": [[[-35.79795, -9.52497], [-35.79603, -9.528007], [-35.79636, -9.529726], [-35.79717, -9.530176], [-35.79739, -9.530137], [-35.79779, -9.529436], [-35.79964, -9.52582], [-35.79801, -9.524859], [-35.79795, -9.52497]]]}}, 
{"type": "Feature", "properties": {"CD_SETOR": "270770105000048", "CD_SIT": "1", "NM_DIST": "Rio Largo", "NM_SUBDIST": null}, "geometry": {"type": "Polygon", "coordinates": [[[-35.81341, -9.509958], [-35.81223, -9.510654], [-35.80879, -9.51321], [-35.80831, -9.513377], [-35.81159, -9.515219], [-35.81209, -9.514926], [-35.81313, -9.514968], [-35.81411, -9.513601], [-35.81504, -9.510558], [-35.81519, -9.508931], [-35.81341, -9.509958]]]}}, 
{"type": "Feature", "properties": {"CD_SETOR": "270770105000050", "CD_SIT": "3", "NM_DIST": "Rio Largo", "NM_SUBDIST": null}, "geometry": {"type": "Polygon", "coordinates": [[[-35.80392, -9.534593], [-35.8054, -9.534748], [-35.80538, -9.535071], [-35.80688, -9.53523], [-35.80704, -9.533793], [-35.80404, -9.53348], [-35.80392, -9.534593]]]}}, 
{"type": "Feature", "properties": {"CD_SETOR": "270770105000051", "CD_SIT": "3", "NM_DIST": "Rio Largo", "NM_SUBDIST": null}, "geometry": {"type": "Polygon", "coordinates": [[[-35.80686, -9.535862], [-35.80681, -9.536396], [-35.80995, -9.536748], [-35.81005, -9.535553], [-35.80692, -9.535235], [-35.80686, -9.535862]]]}}, 
{"type": "Feature", "properties": {"CD_SETOR": "270770105000052", "CD_SIT": "3", "NM_DIST": "Rio Largo", "NM_SUBDIST": null}, "geometry": {"type": "Polygon", "coordinates": [[[-35.80995, -9.536748], [-35.81321, -9.537094], [-35.81333, -9.535911], [-35.81005, -9.535553], [-35.80995, -9.536748]]]}}, 
{"type": "Feature", "properties": {"CD_SETOR": "270770105000053", "CD_SIT": "3", "NM_DIST": "Rio Largo", "NM_SUBDIST": null}, "geometry": {"type": "Polygon", "coordinates": [[[-35.81005, -9.535553], [-35.81333, -9.535911], [-35.81348, -9.534568], [-35.81021, -9.534124], [-35.81005, -9.535553]]]}}, 
{"type": "Feature", "properties": {"CD_SETOR": "270770105000054", "CD_SIT": "3", "NM_DIST": "Rio Largo", "NM_SUBDIST": null}, "geometry": {"type": "Polygon", "coordinates": [[[-35.80688, -9.53523], [-35.81005, -9.535553], [-35.81021, -9.534124], [-35.80704, -9.533793], [-35.80688, -9.53523]]]}}, 
{"type": "Feature", "properties": {"CD_SETOR": "270770105000055", "CD_SIT": "3", "NM_DIST": "Rio Largo", "NM_SUBDIST": null}, "geometry": {"type": "Polygon", "coordinates": [[[-35.8103, -9.53316], [-35.80715, -9.532829], [-35.80704, -9.533793], [-35.81021, -9.534124], [-35.8103, -9.53316]]]}}, 
{"type": "Feature", "properties": {"CD_SETOR": "270770105000056", "CD_SIT": "3", "NM_DIST": "Rio Largo", "NM_SUBDIST": null}, "geometry": {"type": "Polygon", "coordinates": [[[-35.80715, -9.532829], [-35.80415, -9.532522], [-35.80404, -9.53348], [-35.80704, -9.533793], [-35.80715, -9.532829]]]}}, 
{"type": "Feature", "properties": {"CD_SETOR": "270770105000057", "CD_SIT": "3", "NM_DIST": "Rio Largo", "NM_SUBDIST": null}, "geometry": {"type": "Polygon", "coordinates": [[[-35.80401, -9.532535], [-35.804, -9.532663], [-35.80415, -9.532522], [-35.80715, -9.532829], [-35.80726, -9.531817], [-35.80401, -9.531414], [-35.80367, -9.532505], [-35.80401, -9.532535]]]}}, 
{"type": "Feature", "properties": {"CD_SETOR": "270770105000058", "CD_SIT": "3", "NM_DIST": "Rio Largo", "NM_SUBDIST": null}, "geometry": {"type": "Polygon", "coordinates": [[[-35.81031, -9.533097], [-35.81041, -9.532155], [-35.80726, -9.531817], [-35.80715, -9.532829], [-35.81031, -9.533097]]]}}, 
{"type": "Feature", "properties": {"CD_SETOR": "270770105000059", "CD_SIT": "8", "NM_DIST": "Rio Largo", "NM_SUBDIST": null}, "geometry": {"type": "Polygon", "coordinates": [[[-35.81353, -9.488898], [-35.80015, -9.486083], [-35.80049, -9.484005], [-35.80025, -9.48404], [-35.79998, -9.483426], [-35.8003, -9.482387], [-35.80051, -9.482165], [-35.80155, -9.481936], [-35.81443, -9.484625], [-35.81504, -9.484653], [-35.8154, -9.483776], [-35.81788, -9.4843], [-35.82127, -9.476008], [-35.82046, -9.47594], [-35.82026, -9.476378], [-35.80255, -9.474995], [-35.80253, -9.473969], [-35.80293, -9.473808], [-35.80295, -9.473035], [-35.80216, -9.47337], [-35.80199, -9.474005], [-35.80173, -9.472924], [-35.80132, -9.473432], [-35.80118, -9.474088], [-35.80095, -9.474149], [-35.8006, -9.473466], [-35.80051, -9.472314], [-35.79827, -9.470667], [-35.78459, -9.468121], [-35.79523, -9.523833], [-35.79655, -9.525244], [-35.79776, -9.524358], [-35.79964, -9.522613], [-35.80087, -9.522265], [-35.80136, -9.522273], [-35.80525, -9.514425], [-35.80599, -9.513853], [-35.80562, -9.513702], [-35.80567, -9.513212], [-35.80702, -9.510541], [-35.80688, -9.510443], [-35.80697, -9.510271], [-35.80602, -9.505427], [-35.80855, -9.504328], [-35.80885, -9.504494], [-35.8096, -9.50453], [-35.81574, -9.489424], [-35.81353, -9.488898]]]}}, 
{"type": "Feature", "properties": {"CD_SETOR": "270770105000061", "CD_SIT": "1", "NM_DIST": "Rio Largo", "NM_SUBDIST": null}, "geometry": {"type": "Polygon", "coordinates": [[[-35.80136, -9.522273], [-35.80051, -9.52401], [-35.80453, -9.525628], [-35.80465, -9.525376], [-35.80573, -9.525788], [-35.80602, -9.525092], [-35.8066, -9.524498], [-35.80736, -9.523042], [-35.80869, -9.520053], [-35.80325, -9.518382], [-35.80136, -9.522273]]]}}, 
{"type": "Feature", "properties": {"CD_SETOR": "270770105000062", "CD_SIT": "1", "NM_DIST": "Rio Largo", "NM_SUBDIST": null}, "geometry": {"type": "Polygon", "coordinates": [[[-35.80573, -9.525788], [-35.80465, -9.525376], [-35.80453, -9.525628], [-35.80051, -9.52401], [-35.80002, -9.525041], [-35.8052, -9.527625], [-35.80573, -9.525788]]]}}, 
{"type": "Feature", "properties": {"CD_SETOR": "270770105000063", "CD_SIT": "1", "NM_DIST": "Rio Largo", "NM_SUBDIST": null}, "geometry": {"type": "Polygon", "coordinates": [[[-35.79964, -9.52582], [-35.79896, -9.527215], [-35.79909, -9.527286], [-35.80204, -9.528753], [-35.80268, -9.527478], [-35.80489, -9.5286], [-35.8052, -9.527625], [-35.80002, -9.525041], [-35.79964, -9.52582]]]}}, 
{"type": "Feature", "properties": {"CD_SETOR": "270770105000064", "CD_SIT": "1", "NM_DIST": "Rio Largo", "NM_SUBDIST": null}, "geometry": {"type": "Polygon", "coordinates": [[[-35.80401, -9.531414], [-35.80489, -9.5286], [-35.80268, -9.527478], [-35.80204, -9.528753], [-35.79896, -9.527215], [-35.79739, -9.530137], [-35.80277, -9.53274], [-35.80299, -9.532988], [-35.80361, -9.532739], [-35.80401, -9.531414]]]}}, 
{"type": "Feature", "properties": {"CD_SETOR": "270770105000066", "CD_SIT": "1", "NM_DIST": "Rio Largo", "NM_SUBDIST": null}, "geometry": {"type": "Polygon", "coordinates": [[[-35.8306, -9.476868], [-35.83412, -9.478138], [-35.83551, -9.477906], [-35.83556, -9.478125], [-35.83805, -9.479046], [-35.83831, -9.478446], [-35.83893, -9.478969], [-35.83897, -9.477071], [-35.83851, -9.477059], [-35.83851, -9.476488], [-35.83041, -9.476445], [-35.83028, -9.476756], [-35.8306, -9.476868]]]}}, 
{"type": "Feature", "properties": {"CD_SETOR": "270770105000067", "CD_SIT": "1", "NM_DIST": "Rio Largo", "NM_SUBDIST": null}, "geometry": {"type": "Polygon", "coordinates": [[[-35.85167, -9.483797], [-35.85052, -9.482326], [-35.84965, -9.482023], [-35.84904, -9.481386], [-35.84879, -9.4819], [-35.84961, -9.482944], [-35.84979, -9.482802], [-35.8503, -9.483337], [-35.85112, -9.483512], [-35.85137, -9.484671], [-35.85176, -9.484536], [-35.85155, -9.483844], [-35.85167, -9.483797]]]}}, 
{"type": "Feature", "properties": {"CD_SETOR": "270770105000068", "CD_SIT": "1", "NM_DIST": "Rio Largo", "NM_SUBDIST": null}, "geometry": {"type": "Polygon", "coordinates": [[[-35.84168, -9.481605], [-35.84145, -9.481709], [-35.83759, -9.480168], [-35.83706, -9.481407], [-35.83678, -9.481269], [-35.83682, -9.481036], [-35.83633, -9.480838], [-35.83567, -9.483505], [-35.8357, -9.484293], [-35.83576, -9.484387], [-35.83592, -9.484136], [-35.83572, -9.483893], [-35.83623, -9.483354], [-35.83606, -9.482736], [-35.83628, -9.482158], [-35.83655, -9.48184], [-35.8369, -9.481711], [-35.83778, -9.481923], [-35.83879, -9.481549], [-35.8399, -9.481711], [-35.84105, -9.482723], [-35.84214, -9.483127], [-35.84215, -9.482425], [-35.84299, -9.481046], [-35.84216, -9.480455], [-35.84065, -9.4799], [-35.84044, -9.480521], [-35.84111, -9.481293], [-35.84168, -9.481605]]]}}, 
{"type": "Feature", "properties": {"CD_SETOR": "270770105000069", "CD_SIT": "1", "NM_DIST": "Rio Largo", "NM_SUBDIST": null}, "geometry": {"type": "Polygon", "coordinates": [[[-35.84078, -9.478737], [-35.84065, -9.4799], [-35.84216, -9.480455], [-35.84281, -9.478748], [-35.84284, -9.477166], [-35.84094, -9.477128], [-35.84089, -9.47874], [-35.84078, -9.478737]]]}}, 
{"type": "Feature", "properties": {"CD_SETOR": "270770105000073", "CD_SIT": "1", "NM_DIST": "Rio Largo", "NM_SUBDIST": null}, "geometry": {"type": "Polygon", "coordinates": [[[-35.83708, -9.474351], [-35.8315, -9.47421], [-35.83041, -9.476445], [-35.83704, -9.476458], [-35.83708, -9.474351]]]}}, 
{"type": "Feature", "properties": {"CD_SETOR": "270770105000074", "CD_SIT": "1", "NM_DIST": "Rio Largo", "NM_SUBDIST": null}, "geometry": {"type": "Polygon", "coordinates": [[[-35.85305, -9.479012], [-35.85434, -9.479797], [-35.85486, -9.480854], [-35.85496, -9.480517], [-35.85513, -9.480508], [-35.8561, -9.480976], [-35.85664, -9.480277], [-35.85704, -9.480438], [-35.85714, -9.480065], [-35.85837, -9.478769], [-35.85704, -9.477601], [-35.85662, -9.476636], [-35.85505, -9.476555], [-35.85424, -9.475771], [-35.85376, -9.477456], [-35.85305, -9.479012]]]}}, 
{"type": "Feature", "properties": {"CD_SETOR": "270770105000076", "CD_SIT": "1", "NM_DIST": "Rio Largo", "NM_SUBDIST": null}, "geometry": {"type": "Polygon", "coordinates": [[[-35.83809, -9.505273], [-35.83891, -9.506185], [-35.83943, -9.506232], [-35.84111, -9.505392], [-35.84164, -9.504206], [-35.8434, -9.504024], [-35.84271, -9.503071], [-35.84216, -9.500811], [-35.84226, -9.500032], [-35.84263, -9.499304], [-35.84158, -9.498688], [-35.83937, -9.499616], [-35.83886, -9.499994], [-35.83862, -9.500517], [-35.83849, -9.50182], [-35.83695, -9.503097], [-35.8359, -9.505183], [-35.83767, -9.505142], [-35.83809, -9.505273]]]}}, 
{"type": "Feature", "properties": {"CD_SETOR": "270770105000077", "CD_SIT": "1", "NM_DIST": "Rio Largo", "NM_SUBDIST": null}, "geometry": {"type": "Polygon", "coordinates": [[[-35.84546, -9.482217], [-35.84536, -9.482639], [-35.84634, -9.483099], [-35.84784, -9.48311], [-35.84852, -9.48236], [-35.84928, -9.480881], [-35.84875, -9.480574], [-35.84816, -9.480567], [-35.84804, -9.481001], [-35.8483, -9.481435], [-35.84823, -9.481709], [-35.84805, -9.482088], [-35.84753, -9.48237], [-35.84546, -9.482217]]]}}, 
{"type": "Feature", "properties": {"CD_SETOR": "270770105000078", "CD_SIT": "1", "NM_DIST": "Rio Largo", "NM_SUBDIST": null}, "geometry": {"type": "Polygon", "coordinates": [[[-35.84216, -9.480455], [-35.84386, -9.481592], [-35.84359, -9.48206], [-35.84487, -9.482753], [-35.84502, -9.482464], [-35.84536, -9.482639], [-35.84546, -9.482217], [-35.84753, -9.48237], [-35.84805, -9.482088], [-35.8483, -9.481481], [-35.84696, -9.481774], [-35.84597, -9.480926], [-35.84553, -9.481241], [-35.84519, -9.481285], [-35.84332, -9.480597], [-35.8422, -9.480327], [-35.84216, -9.480455]]]}}, 
{"type": "Feature", "properties": {"CD_SETOR": "270770105000079", "CD_SIT": "1", "NM_DIST": "Rio Largo", "NM_SUBDIST": null}, "geometry": {"type": "Polygon", "coordinates": [[[-35.84662, -9.479519], [-35.84597, -9.480926], [-35.84696, -9.481774], [-35.84831, -9.481454], [-35.84806, -9.481165], [-35.84817, -9.480561], [-35.84875, -9.480574], [-35.84928, -9.480881], [-35.84949, -9.480461], [-35.84883, -9.480107], [-35.84885, -9.479957], [-35.84679, -9.479017], [-35.84662, -9.479519]]]}}, 
{"type": "Feature", "properties": {"CD_SETOR": "270770105000080", "CD_SIT": "1", "NM_DIST": "Rio Largo", "NM_SUBDIST": null}, "geometry": {"type": "Polygon", "coordinates": [[[-35.84244, -9.481986], [-35.8446, -9.483255], [-35.84487, -9.482753], [-35.84359, -9.48206], [-35.84386, -9.481592], [-35.84299, -9.481046], [-35.84244, -9.481986]]]}}, 
{"type": "Feature", "properties": {"CD_SETOR": "270770105000081", "CD_SIT": "1", "NM_DIST": "Rio Largo", "NM_SUBDIST": null}, "geometry": {"type": "Polygon", "coordinates": [[[-35.81498, -9.494106], [-35.81439, -9.495562], [-35.81523, -9.493787], [-35.8178, -9.494586], [-35.8178, -9.494439], [-35.81517, -9.493629], [-35.81498, -9.494106]]]}}, 
{"type": "Feature", "properties": {"CD_SETOR": "270770105000082", "CD_SIT": "3", "NM_DIST": "Rio Largo", "NM_SUBDIST": null}, "geometry": {"type": "Polygon", "coordinates": [[[-35.80686, -9.535862], [-35.80383, -9.535534], [-35.8038, -9.535902], [-35.80416, -9.536121], [-35.80681, -9.536396], [-35.80686, -9.535862]]]}}, 
{"type": "Feature", "properties": {"CD_SETOR": "270770105000083", "CD_SIT": "3", "NM_DIST": "Rio Largo", "NM_SUBDIST": null}, "geometry": {"type": "Polygon", "coordinates": [[[-35.80383, -9.535534], [-35.80686, -9.535862], [-35.80692, -9.535235], [-35.80538, -9.535071], [-35.8054, -9.534748], [-35.80392, -9.534593], [-35.80383, -9.535534]]]}}, 
{"type": "Feature", "properties": {"CD_SETOR": "270770105000084", "CD_SIT": "3", "NM_DIST": "Rio Largo", "NM_SUBDIST": null}, "geometry": {"type": "Polygon", "coordinates": [[[-35.7967, -9.531525], [-35.79819, -9.532442], [-35.79859, -9.531828], [-35.79955, -9.532382], [-35.79973, -9.53207], [-35.80041, -9.532428], [-35.80056, -9.532167], [-35.80268, -9.533199], [-35.80256, -9.533358], [-35.8033, -9.533672], [-35.80354, -9.532851], [-35.80291, -9.532954], [-35.80296, -9.532836], [-35.80277, -9.53274], [-35.79636, -9.529726], [-35.7967, -9.531525]]]}}, 
{"type": "Feature", "properties": {"CD_SETOR": "270770105000088", "CD_SIT": "1", "NM_DIST": "Rio Largo", "NM_SUBDIST": null}, "geometry": {"type": "Polygon", "coordinates": [[[-35.80888, -9.53903], [-35.81025, -9.539877], [-35.81198, -9.540137], [-35.81227, -9.537011], [-35.81016, -9.536771], [-35.81005, -9.538119], [-35.80847, -9.537945], [-35.80843, -9.538252], [-35.80888, -9.53903]]]}}, 
{"type": "Feature", "properties": {"CD_SETOR": "270770105000090", "CD_SIT": "3", "NM_DIST": "Rio Largo", "NM_SUBDIST": null}, "geometry": {"type": "Polygon", "coordinates": [[[-35.80413, -9.532674], [-35.80367, -9.532505], [-35.8033, -9.533672], [-35.80256, -9.533358], [-35.80268, -9.533199], [-35.80193, -9.532814], [-35.80102, -9.534186], [-35.8038, -9.535902], [-35.80413, -9.532674]]]}}, 
{"type": "Feature", "properties": {"CD_SETOR": "270770105000091", "CD_SIT": "3", "NM_DIST": "Rio Largo", "NM_SUBDIST": null}, "geometry": {"type": "Polygon", "coordinates": [[[-35.79819, -9.532442], [-35.80102, -9.534186], [-35.80193, -9.532814], [-35.80056, -9.532167], [-35.80041, -9.532428], [-35.79973, -9.53207], [-35.79955, -9.532382], [-35.79859, -9.531828], [-35.79819, -9.532442]]]}}, 
{"type": "Feature", "properties": {"CD_SETOR": "270770105000094", "CD_SIT": "1", "NM_DIST": "Rio Largo", "NM_SUBDIST": null}, "geometry": {"type": "Polygon", "coordinates": [[[-35.81443, -9.484625], [-35.8141, -9.486283], [-35.81568, -9.48662], [-35.8156, -9.48706], [-35.81662, -9.4873], [-35.81788, -9.4843], [-35.8154, -9.483776], [-35.81504, -9.484653], [-35.81443, -9.484625]]]}}, 
{"type": "Feature", "properties": {"CD_SETOR": "270770105000095", "CD_SIT": "1", "NM_DIST": "Rio Largo", "NM_SUBDIST": null}, "geometry": {"type": "Polygon", "coordinates": [[[-35.81353, -9.488898], [-35.81574, -9.489424], [-35.81662, -9.4873], [-35.8156, -9.48706], [-35.81568, -9.48662], [-35.8141, -9.486283], [-35.81353, -9.488898]]]}}, 
{"type": "Feature", "properties": {"CD_SETOR": "270770105000096", "CD_SIT": "1", "NM_DIST": "Rio Largo", "NM_SUBDIST": null}, "geometry": {"type": "Polygon", "coordinates": [[[-35.81344, -9.48888], [-35.81443, -9.484625], [-35.81267, -9.484225], [-35.81173, -9.488443], [-35.81344, -9.48888]]]}}, 
{"type": "Feature", "properties": {"CD_SETOR": "270770105000097", "CD_SIT": "1", "NM_DIST": "Rio Largo", "NM_SUBDIST": null}, "geometry": {"type": "Polygon", "coordinates": [[[-35.81023, -9.485932], [-35.81216, -9.486343], [-35.81269, -9.484162], [-35.81064, -9.483745], [-35.81023, -9.485932]]]}}, 
{"type": "Feature", "properties": {"CD_SETOR": "270770105000098", "CD_SIT": "1", "NM_DIST": "Rio Largo", "NM_SUBDIST": null}, "geometry": {"type": "Polygon", "coordinates": [[[-35.80601, -9.48511], [-35.81022, -9.485967], [-35.81064, -9.483745], [-35.80643, -9.482934], [-35.80651, -9.48307], [-35.80601, -9.48511]]]}}, 
{"type": "Feature", "properties": {"CD_SETOR": "270770105000099", "CD_SIT": "1", "NM_DIST": "Rio Largo", "NM_SUBDIST": null}, "geometry": {"type": "Polygon", "coordinates": [[[-35.8041, -9.484722], [-35.80601, -9.48511], [-35.80651, -9.483023], [-35.80457, -9.482555], [-35.8041, -9.484722]]]}}, 
{"type": "Feature", "properties": {"CD_SETOR": "270770105000100", "CD_SIT": "1", "NM_DIST": "Rio Largo", "NM_SUBDIST": null}, "geometry": {"type": "Polygon", "coordinates": [[[-35.80299, -9.482271], [-35.80203, -9.486384], [-35.80363, -9.486762], [-35.80459, -9.482577], [-35.80299, -9.482271]]]}}, 
{"type": "Feature", "properties": {"CD_SETOR": "270770105000101", "CD_SIT": "1", "NM_DIST": "Rio Largo", "NM_SUBDIST": null}, "geometry": {"type": "Polygon", "coordinates": [[[-35.80049, -9.484005], [-35.80248, -9.484408], [-35.80299, -9.482271], [-35.80155, -9.481936], [-35.80039, -9.48222], [-35.79998, -9.483426], [-35.80025, -9.48404], [-35.80049, -9.484005]]]}}, 
{"type": "Feature", "properties": {"CD_SETOR": "270770105000102", "CD_SIT": "1", "NM_DIST": "Rio Largo", "NM_SUBDIST": null}, "geometry": {"type": "Polygon", "coordinates": [[[-35.80204, -9.486439], [-35.80248, -9.484408], [-35.80049, -9.484005], [-35.80008, -9.486001], [-35.80204, -9.486439]]]}}, 
{"type": "Feature", "properties": {"CD_SETOR": "270770105000103", "CD_SIT": "1", "NM_DIST": "Rio Largo", "NM_SUBDIST": null}, "geometry": {"type": "Polygon", "coordinates": [[[-35.80363, -9.486762], [-35.80566, -9.487178], [-35.80601, -9.48511], [-35.8041, -9.484722], [-35.80363, -9.486762]]]}}, 
{"type": "Feature", "properties": {"CD_SETOR": "270770105000104", "CD_SIT": "1", "NM_DIST": "Rio Largo", "NM_SUBDIST": null}, "geometry": {"type": "Polygon", "coordinates": [[[-35.80562, -9.487196], [-35.80973, -9.488088], [-35.81022, -9.485967], [-35.80601, -9.48511], [-35.80562, -9.487196]]]}}, 
{"type": "Feature", "properties": {"CD_SETOR": "270770105000105", "CD_SIT": "1", "NM_DIST": "Rio Largo", "NM_SUBDIST": null}, "geometry": {"type": "Polygon", "coordinates": [[[-35.81022, -9.485967], [-35.8097, -9.488048], [-35.81177, -9.488523], [-35.81216, -9.486343], [-35.81022, -9.485967]]]}}, 
{"type": "Feature", "properties": {"CD_SETOR": "270770105000106", "CD_SIT": "1", "NM_DIST": "Rio Largo", "NM_SUBDIST": null}, "geometry": {"type": "Polygon", "coordinates": [[[-35.81907, -9.472969], [-35.82152, -9.473339], [-35.82153, -9.472795], [-35.82194, -9.472718], [-35.82192, -9.472065], [-35.82251, -9.472107], [-35.82247, -9.472573], [-35.8226, -9.472664], [-35.82333, -9.470822], [-35.82066, -9.470784], [-35.82066, -9.472049], [-35.81905, -9.472055], [-35.81907, -9.472969]]]}}, 
{"type": "Feature", "properties": {"CD_SETOR": "270770105000107", "CD_SIT": "1", "NM_DIST": "Rio Largo", "NM_SUBDIST": null}, "geometry": {"type": "Polygon", "coordinates": [[[-35.81711, -9.472026], [-35.82066, -9.472049], [-35.82066, -9.470784], [-35.81692, -9.470772], [-35.81682, -9.470925], [-35.81713, -9.471607], [-35.81711, -9.472026]]]}}, 
{"type": "Feature", "properties": {"CD_SETOR": "270770105000108", "CD_SIT": "1", "NM_DIST": "Rio Largo", "NM_SUBDIST": null}, "geometry": {"type": "Polygon", "coordinates": [[[-35.81907, -9.473042], [-35.81905, -9.472055], [-35.81703, -9.472074], [-35.81626, -9.47137], [-35.81505, -9.471541], [-35.81465, -9.472003], [-35.81732, -9.474562], [-35.818, -9.472882], [-35.81907, -9.473042]]]}}, 
{"type": "Feature", "properties": {"CD_SETOR": "270770105000109", "CD_SIT": "1", "NM_DIST": "Rio Largo", "NM_SUBDIST": null}, "geometry": {"type": "Polygon", "coordinates": [[[-35.818, -9.472882], [-35.81732, -9.474562], [-35.81593, -9.473265], [-35.8154, -9.473773], [-35.81429, -9.473796], [-35.81538, -9.474894], [-35.81484, -9.475455], [-35.81411, -9.474776], [-35.8141, -9.475858], [-35.82026, -9.476378], [-35.82046, -9.47594], [-35.82127, -9.476008], [-35.8226, -9.472664], [-35.82247, -9.472573], [-35.82251, -9.472107], [-35.82192, -9.472065], [-35.82194, -9.472718], [-35.82153, -9.472795], [-35.82152, -9.473339], [-35.818, -9.472882]]]}}, 
{"type": "Feature", "properties": {"CD_SETOR": "270770105000110", "CD_SIT": "1", "NM_DIST": "Rio Largo", "NM_SUBDIST": null}, "geometry": {"type": "Polygon", "coordinates": [[[-35.81162, -9.471837], [-35.81163, -9.473361], [-35.81204, -9.47335], [-35.81205, -9.473829], [-35.81534, -9.473789], [-35.81593, -9.473265], [-35.81465, -9.472003], [-35.81387, -9.472671], [-35.81368, -9.472206], [-35.81299, -9.472184], [-35.81256, -9.472459], [-35.81229, -9.472074], [-35.81163, -9.471603], [-35.81162, -9.471837]]]}}, 
{"type": "Feature", "properties": {"CD_SETOR": "270770105000111", "CD_SIT": "1", "NM_DIST": "Rio Largo", "NM_SUBDIST": null}, "geometry": {"type": "Polygon", "coordinates": [[[-35.81369, -9.475822], [-35.8141, -9.475858], [-35.81411, -9.474776], [-35.81484, -9.475455], [-35.81538, -9.474894], [-35.81429, -9.473796], [-35.81205, -9.473829], [-35.81207, -9.475801], [-35.81369, -9.475822]]]}}, 
{"type": "Feature", "properties": {"CD_SETOR": "270770105000112", "CD_SIT": "1", "NM_DIST": "Rio Largo", "NM_SUBDIST": null}, "geometry": {"type": "Polygon", "coordinates": [[[-35.81207, -9.475718], [-35.81204, -9.47335], [-35.81082, -9.473373], [-35.81081, -9.473837], [-35.80918, -9.473842], [-35.80925, -9.475567], [-35.81207, -9.475718]]]}}, 
{"type": "Feature", "properties": {"CD_SETOR": "270770105000113", "CD_SIT": "1", "NM_DIST": "Rio Largo", "NM_SUBDIST": null}, "geometry": {"type": "Polygon", "coordinates": [[[-35.80917, -9.471931], [-35.80918, -9.473842], [-35.81081, -9.473837], [-35.81082, -9.473373], [-35.81163, -9.473354], [-35.81163, -9.471603], [-35.8112, -9.471562], [-35.81063, -9.471841], [-35.80921, -9.471649], [-35.80917, -9.471931]]]}}, 
{"type": "Feature", "properties": {"CD_SETOR": "270770105000114", "CD_SIT": "1", "NM_DIST": "Rio Largo", "NM_SUBDIST": null}, "geometry": {"type": "Polygon", "coordinates": [[[-35.80825, -9.472114], [-35.80825, -9.473843], [-35.8054, -9.473872], [-35.80546, -9.475223], [-35.80925, -9.475567], [-35.80917, -9.471659], [-35.80825, -9.472114]]]}}, 
{"type": "Feature", "properties": {"CD_SETOR": "270770105000115", "CD_SIT": "1", "NM_DIST": "Rio Largo", "NM_SUBDIST": null}, "geometry": {"type": "Polygon", "coordinates": [[[-35.80539, -9.472742], [-35.8054, -9.473872], [-35.80825, -9.473843], [-35.80825, -9.472044], [-35.80774, -9.47205], [-35.80664, -9.472405], [-35.80584, -9.472154], [-35.80539, -9.472742]]]}}, 
{"type": "Feature", "properties": {"CD_SETOR": "270770105000116", "CD_SIT": "1", "NM_DIST": "Rio Largo", "NM_SUBDIST": null}, "geometry": {"type": "Polygon", "coordinates": [[[-35.80254, -9.474836], [-35.80255, -9.474995], [-35.80546, -9.475223], [-35.80539, -9.472742], [-35.80493, -9.473061], [-35.8046, -9.473088], [-35.80364, -9.472522], [-35.80295, -9.472888], [-35.80293, -9.473808], [-35.80253, -9.473969], [-35.80254, -9.474836]]]}}, 
{"type": "Feature", "properties": {"CD_SETOR": "270770105000118", "CD_SIT": "1", "NM_DIST": "Rio Largo", "NM_SUBDIST": null}, "geometry": {"type": "Polygon", "coordinates": [[[-35.82725, -9.47415], [-35.83219, -9.474223], [-35.83392, -9.474227], [-35.83373, -9.47313], [-35.82729, -9.473057], [-35.82725, -9.47415]]]}}, 
{"type": "Feature", "properties": {"CD_SETOR": "270770105000119", "CD_SIT": "1", "NM_DIST": "Rio Largo", "NM_SUBDIST": null}, "geometry": {"type": "Polygon", "coordinates": [[[-35.83456, -9.473032], [-35.83373, -9.47313], [-35.83392, -9.474227], [-35.84093, -9.474325], [-35.84093, -9.473258], [-35.83456, -9.473032]]]}}, 
{"type": "Feature", "properties": {"CD_SETOR": "270770105000120", "CD_SIT": "1", "NM_DIST": "Rio Largo", "NM_SUBDIST": null}, "geometry": {"type": "Polygon", "coordinates": [[[-35.83396, -9.470391], [-35.83461, -9.47311], [-35.83569, -9.473113], [-35.83566, -9.471573], [-35.83688, -9.471555], [-35.83687, -9.471146], [-35.83728, -9.471135], [-35.83727, -9.470323], [-35.83396, -9.470391]]]}}, 
{"type": "Feature", "properties": {"CD_SETOR": "270770105000121", "CD_SIT": "1", "NM_DIST": "Rio Largo", "NM_SUBDIST": null}, "geometry": {"type": "Polygon", "coordinates": [[[-35.83688, -9.471555], [-35.83566, -9.471573], [-35.83569, -9.473113], [-35.83857, -9.473119], [-35.83853, -9.471518], [-35.83688, -9.471555]]]}}, 
{"type": "Feature", "properties": {"CD_SETOR": "270770105000122", "CD_SIT": "1", "NM_DIST": "Rio Largo", "NM_SUBDIST": null}, "geometry": {"type": "Polygon", "coordinates": [[[-35.83765, -9.470313], [-35.83727, -9.470323], [-35.83728, -9.471135], [-35.83687, -9.471146], [-35.83688, -9.471555], [-35.83853, -9.471518], [-35.83857, -9.473119], [-35.83986, -9.473128], [-35.84003, -9.470262], [-35.83765, -9.470313]]]}}, 
{"type": "Feature", "properties": {"CD_SETOR": "270770105000123", "CD_SIT": "1", "NM_DIST": "Rio Largo", "NM_SUBDIST": null}, "geometry": {"type": "Polygon", "coordinates": [[[-35.83394, -9.470316], [-35.83727, -9.470323], [-35.83723, -9.468501], [-35.83354, -9.468433], [-35.83394, -9.470316]]]}}, 
{"type": "Feature", "properties": {"CD_SETOR": "270770105000124", "CD_SIT": "1", "NM_DIST": "Rio Largo", "NM_SUBDIST": null}, "geometry": {"type": "Polygon", "coordinates": [[[-35.83727, -9.470323], [-35.84003, -9.470262], [-35.84013, -9.468549], [-35.83723, -9.468501], [-35.83727, -9.470323]]]}}, 
{"type": "Feature", "properties": {"CD_SETOR": "270770105000125", "CD_SIT": "1", "NM_DIST": "Rio Largo", "NM_SUBDIST": null}, "geometry": {"type": "Polygon", "coordinates": [[[-35.84325, -9.473082], [-35.84315, -9.472591], [-35.84137, -9.472538], [-35.84139, -9.472082], [-35.84111, -9.472072], [-35.8412, -9.468569], [-35.84013, -9.468549], [-35.83986, -9.473262], [-35.84093, -9.473258], [-35.84093, -9.474325], [-35.84322, -9.474399], [-35.84325, -9.473082]]]}}, 
{"type": "Feature", "properties": {"CD_SETOR": "270770105000126", "CD_SIT": "1", "NM_DIST": "Rio Largo", "NM_SUBDIST": null}, "geometry": {"type": "Polygon", "coordinates": [[[-35.84315, -9.472591], [-35.84325, -9.473082], [-35.84334, -9.468748], [-35.84317, -9.46838], [-35.84267, -9.468583], [-35.8412, -9.468569], [-35.84111, -9.472072], [-35.84139, -9.472082], [-35.84137, -9.472538], [-35.84315, -9.472591]]]}}, 
{"type": "Feature", "properties": {"CD_SETOR": "270770105000127", "CD_SIT": "1", "NM_DIST": "Rio Largo", "NM_SUBDIST": null}, "geometry": {"type": "Polygon", "coordinates": [[[-35.84334, -9.468748], [-35.84327, -9.471485], [-35.84683, -9.471533], [-35.84685, -9.470347], [-35.84652, -9.470017], [-35.84473, -9.469664], [-35.84467, -9.468729], [-35.84334, -9.468748]]]}}, 
{"type": "Feature", "properties": {"CD_SETOR": "270770105000128", "CD_SIT": "1", "NM_DIST": "Rio Largo", "NM_SUBDIST": null}, "geometry": {"type": "Polygon", "coordinates": [[[-35.84325, -9.472594], [-35.84322, -9.474399], [-35.84538, -9.474421], [-35.84542, -9.472145], [-35.84706, -9.472162], [-35.84683, -9.471533], [-35.84327, -9.471485], [-35.84325, -9.472594]]]}}, 
{"type": "Feature", "properties": {"CD_SETOR": "270770105000129", "CD_SIT": "1", "NM_DIST": "Rio Largo", "NM_SUBDIST": null}, "geometry": {"type": "Polygon", "coordinates": [[[-35.81229, -9.504736], [-35.81359, -9.503507], [-35.81437, -9.501958], [-35.8149, -9.501601], [-35.81268, -9.501247], [-35.81221, -9.500976], [-35.81094, -9.503633], [-35.81229, -9.504736]]]}}, 
{"type": "Feature", "properties": {"CD_SETOR": "270770105000130", "CD_SIT": "1", "NM_DIST": "Rio Largo", "NM_SUBDIST": null}, "geometry": {"type": "Polygon", "coordinates": [[[-35.8088, -9.506544], [-35.80832, -9.50777], [-35.8103, -9.508158], [-35.81114, -9.511465], [-35.81341, -9.509958], [-35.81302, -9.50767], [-35.80982, -9.506374], [-35.80958, -9.505736], [-35.8088, -9.506544]]]}}, 
{"type": "Feature", "properties": {"CD_SETOR": "270770105000131", "CD_SIT": "1", "NM_DIST": "Rio Largo", "NM_SUBDIST": null}, "geometry": {"type": "Polygon", "coordinates": [[[-35.8096, -9.50453], [-35.8088, -9.506544], [-35.80958, -9.505736], [-35.80982, -9.506374], [-35.81352, -9.507794], [-35.8139, -9.505039], [-35.81219, -9.504768], [-35.81094, -9.503633], [-35.81221, -9.500976], [-35.81126, -9.50043], [-35.8096, -9.50453]]]}}, 
{"type": "Feature", "properties": {"CD_SETOR": "270770105000132", "CD_SIT": "1", "NM_DIST": "Rio Largo", "NM_SUBDIST": null}, "geometry": {"type": "Polygon", "coordinates": [[[-35.85705, -9.481462], [-35.85614, -9.481708], [-35.85564, -9.481626], [-35.85549, -9.481415], [-35.85451, -9.481879], [-35.85407, -9.47992], [-35.85311, -9.479392], [-35.85308, -9.479798], [-35.85335, -9.479786], [-35.85367, -9.482426], [-35.85402, -9.482175], [-35.85428, -9.482436], [-35.85701, -9.481983], [-35.85705, -9.481462]]]}}, 
{"type": "Feature", "properties": {"CD_SETOR": "270770105000133", "CD_SIT": "1", "NM_DIST": "Rio Largo", "NM_SUBDIST": null}, "geometry": {"type": "Polygon", "coordinates": [[[-35.85367, -9.482426], [-35.85347, -9.480995], [-35.85275, -9.481097], [-35.8528, -9.481573], [-35.8518, -9.481632], [-35.85132, -9.48225], [-35.85159, -9.48264], [-35.85225, -9.482268], [-35.85327, -9.482929], [-35.85367, -9.482426]]]}}, 
{"type": "Feature", "properties": {"CD_SETOR": "270770105000134", "CD_SIT": "1", "NM_DIST": "Rio Largo", "NM_SUBDIST": null}, "geometry": {"type": "Polygon", "coordinates": [[[-35.82107, -9.476485], [-35.81998, -9.479194], [-35.82111, -9.47949], [-35.8212, -9.479172], [-35.82158, -9.479315], [-35.82215, -9.478022], [-35.82276, -9.478278], [-35.82329, -9.477026], [-35.82265, -9.476728], [-35.8236, -9.474588], [-35.82195, -9.474385], [-35.82107, -9.476485]]]}}, 
{"type": "Feature", "properties": {"CD_SETOR": "270770105000135", "CD_SIT": "1", "NM_DIST": "Rio Largo", "NM_SUBDIST": null}, "geometry": {"type": "Polygon", "coordinates": [[[-35.82158, -9.479315], [-35.82062, -9.481943], [-35.82095, -9.482158], [-35.82102, -9.482853], [-35.82008, -9.486702], [-35.8193, -9.486622], [-35.81896, -9.4868], [-35.81834, -9.489686], [-35.82051, -9.489954], [-35.82109, -9.488421], [-35.82132, -9.485856], [-35.82123, -9.48489], [-35.82154, -9.4841], [-35.82229, -9.483336], [-35.82397, -9.477675], [-35.82697, -9.476549], [-35.82754, -9.475602], [-35.82596, -9.474857], [-35.8236, -9.474588], [-35.82265, -9.476728], [-35.82329, -9.477026], [-35.8232, -9.477241], [-35.82276, -9.478278], [-35.82215, -9.478022], [-35.82158, -9.479315]]]}}, 
{"type": "Feature", "properties": {"CD_SETOR": "270770105000138", "CD_SIT": "1", "NM_DIST": "Rio Largo", "NM_SUBDIST": null}, "geometry": {"type": "Polygon", "coordinates": [[[-35.81308, -9.541617], [-35.81593, -9.543376], [-35.81712, -9.544107], [-35.81744, -9.541232], [-35.81424, -9.540364], [-35.81404, -9.540755], [-35.81308, -9.541617]]]}}, 
{"type": "Feature", "properties": {"CD_SETOR": "270770105000140", "CD_SIT": "3", "NM_DIST": "Rio Largo", "NM_SUBDIST": null}, "geometry": {"type": "Polygon", "coordinates": [[[-35.81348, -9.534568], [-35.81321, -9.537094], [-35.81466, -9.537223], [-35.81491, -9.534722], [-35.81348, -9.534568]]]}}, 
{"type": "Feature", "properties": {"CD_SETOR": "270770105000141", "CD_SIT": "1", "NM_DIST": "Rio Largo", "NM_SUBDIST": null}, "geometry": {"type": "Polygon", "coordinates": [[[-35.82991, -9.476621], [-35.83028, -9.476756], [-35.8315, -9.47421], [-35.82697, -9.474158], [-35.82696, -9.474323], [-35.83039, -9.475591], [-35.82991, -9.476621]]]}}, 
{"type": "Feature", "properties": {"CD_SETOR": "270770105000142", "CD_SIT": "1", "NM_DIST": "Rio Largo", "NM_SUBDIST": null}, "geometry": {"type": "Polygon", "coordinates": [[[-35.83448, -9.473107], [-35.83354, -9.468433], [-35.82468, -9.468036], [-35.82445, -9.468105], [-35.82195, -9.474385], [-35.82596, -9.474857], [-35.82991, -9.476621], [-35.83039, -9.475591], [-35.82696, -9.474323], [-35.82697, -9.474158], [-35.82725, -9.47415], [-35.82729, -9.473057], [-35.83448, -9.473107]]]}}, 
{"type": "Feature", "properties": {"CD_SETOR": "270770105000143", "CD_SIT": "1", "NM_DIST": "Rio Largo", "NM_SUBDIST": null}, "geometry": {"type": "Polygon", "coordinates": [[[-35.80765, -9.509244], [-35.8095, -9.509383], [-35.80955, -9.510112], [-35.80926, -9.510726], [-35.80743, -9.51218], [-35.80829, -9.513383], [-35.80879, -9.51321], [-35.81114, -9.511465], [-35.8103, -9.508158], [-35.80832, -9.50777], [-35.80765, -9.509244]]]}}, 
{"type": "Feature", "properties": {"CD_SETOR": "270770105000144", "CD_SIT": "1", "NM_DIST": "Rio Largo", "NM_SUBDIST": null}, "geometry": {"type": "Polygon", "coordinates": [[[-35.80702, -9.510541], [-35.80567, -9.513212], [-35.80556, -9.513567], [-35.80569, -9.513785], [-35.80599, -9.513853], [-35.80829, -9.513383], [-35.80743, -9.51218], [-35.80926, -9.510726], [-35.80955, -9.510112], [-35.80949, -9.509358], [-35.80765, -9.509244], [-35.80702, -9.510541]]]}}, 
{"type": "Feature", "properties": {"CD_SETOR": "270770105000145", "CD_SIT": "1", "NM_DIST": "Rio Largo", "NM_SUBDIST": null}, "geometry": {"type": "Polygon", "coordinates": [[[-35.80829, -9.513383], [-35.80611, -9.513789], [-35.80565, -9.51403], [-35.80525, -9.514425], [-35.80438, -9.516179], [-35.81002, -9.517176], [-35.81112, -9.514913], [-35.80829, -9.513383]]]}}, 
{"type": "Feature", "properties": {"CD_SETOR": "270770105000146", "CD_SIT": "1", "NM_DIST": "Rio Largo", "NM_SUBDIST": null}, "geometry": {"type": "Polygon", "coordinates": [[[-35.80327, -9.518308], [-35.80869, -9.520053], [-35.81002, -9.517176], [-35.80438, -9.516179], [-35.80327, -9.518308]]]}}, 
{"type": "Feature", "properties": {"CD_SETOR": "270770105000147", "CD_SIT": "1", "NM_DIST": "Rio Largo", "NM_SUBDIST": null}, "geometry": {"type": "Polygon", "coordinates": [[[-35.81887, -9.506736], [-35.82021, -9.506051], [-35.81876, -9.50544], [-35.81566, -9.505182], [-35.81555, -9.506257], [-35.81713, -9.506491], [-35.81814, -9.506316], [-35.81887, -9.506736]]]}}, 
{"type": "Feature", "properties": {"CD_SETOR": "270770105000148", "CD_SIT": "1", "NM_DIST": "Rio Largo", "NM_SUBDIST": null}, "geometry": {"type": "Polygon", "coordinates": [[[-35.81302, -9.50767], [-35.81341, -9.509958], [-35.81887, -9.506736], [-35.81814, -9.506316], [-35.81713, -9.506491], [-35.81555, -9.506257], [-35.81566, -9.505182], [-35.8139, -9.505039], [-35.81352, -9.507794], [-35.81302, -9.50767]]]}}, 
{"type": "Feature", "properties": {"CD_SETOR": "270770105000149", "CD_SIT": "8", "NM_DIST": "Rio Largo", "NM_SUBDIST": null}, "geometry": {"type": "Polygon", "coordinates": [[[-35.84164, -9.504206], [-35.84111, -9.505392], [-35.83954, -9.506198], [-35.83891, -9.506185], [-35.83809, -9.505273], [-35.83816, -9.506645], [-35.83698, -9.506562], [-35.83698, -9.506124], [-35.83607, -9.506118], [-35.83528, -9.506558], [-35.83493, -9.506543], [-35.83461, -9.507835], [-35.83389, -9.508203], [-35.83412, -9.508363], [-35.83507, -9.508135], [-35.83534, -9.508247], [-35.83539, -9.509799], [-35.83585, -9.510042], [-35.83588, -9.510549], [-35.83572, -9.510557], [-35.83573, -9.512408], [-35.83433, -9.512446], [-35.83449, -9.512173], [-35.83449, -9.511119], [-35.83425, -9.511082], [-35.83427, -9.510142], [-35.83465, -9.509785], [-35.83465, -9.509561], [-35.83422, -9.509279], [-35.83386, -9.508211], [-35.83221, -9.50885], [-35.8316, -9.509535], [-35.8317, -9.509848], [-35.83066, -9.509886], [-35.83022, -9.508184], [-35.82951, -9.506672], [-35.83164, -9.507215], [-35.83182, -9.506967], [-35.82821, -9.505824], [-35.82752, -9.504739], [-35.82706, -9.504407], [-35.82651, -9.5043], [-35.82553, -9.504435], [-35.82079, -9.505883], [-35.82091, -9.506111], [-35.8216, -9.506284], [-35.82239, -9.506116], [-35.82273, -9.506562], [-35.81782, -9.509839], [-35.81544, -9.513246], [-35.81436, -9.512826], [-35.81411, -9.513601], [-35.81313, -9.514968], [-35.81209, -9.514926], [-35.81159, -9.515219], [-35.81112, -9.514913], [-35.80743, -9.522913], [-35.8066, -9.524498], [-35.80602, -9.525092], [-35.80568, -9.525948], [-35.80401, -9.531414], [-35.81041, -9.532155], [-35.81021, -9.534124], [-35.81491, -9.534722], [-35.81466, -9.537223], [-35.81784, -9.537572], [-35.81712, -9.544107], [-35.8273, -9.550383], [-35.84634, -9.548379], [-35.84671, -9.547254], [-35.84765, -9.546361], [-35.84873, -9.546697], [-35.84953, -9.546663], [-35.85256, -9.545818], [-35.85374, -9.545027], [-35.85456, -9.544739], [-35.85643, -9.543478], [-35.85704, -9.5429], [-35.85743, -9.542203], [-35.85719, -9.541381], [-35.85371, -9.537566], [-35.85343, -9.536853], [-35.85085, -9.536633], [-35.8511, -9.537109], [-35.85096, -9.537551], [-35.85054, -9.537642], [-35.85028, -9.537957], [-35.84949, -9.53814], [-35.84777, -9.537763], [-35.84706, -9.537774], [-35.84706, -9.537504], [-35.84602, -9.536877], [-35.84564, -9.535708], [-35.84557, -9.534442], [-35.84612, -9.533371], [-35.84582, -9.532061], [-35.84544, -9.532189], [-35.84518, -9.53197], [-35.84556, -9.530723], [-35.84613, -9.529837], [-35.84955, -9.527483], [-35.85034, -9.527167], [-35.8508, -9.528263], [-35.85103, -9.529832], [-35.8508, -9.530891], [-35.85129, -9.530765], [-35.8516, -9.530462], [-35.85186, -9.529827], [-35.85159, -9.526692], [-35.85129, -9.525783], [-35.85126, -9.525152], [-35.84994, -9.522766], [-35.85, -9.522042], [-35.84887, -9.522142], [-35.84871, -9.521941], [-35.84827, -9.521986], [-35.84734, -9.521727], [-35.84593, -9.521115], [-35.84527, -9.520683], [-35.84506, -9.520324], [-35.84441, -9.519988], [-35.84368, -9.518791], [-35.84361, -9.517139], [-35.84344, -9.516773], [-35.84379, -9.516046], [-35.84503, -9.515471], [-35.84597, -9.514289], [-35.84826, -9.513026], [-35.84987, -9.511654], [-35.85093, -9.510115], [-35.85127, -9.509487], [-35.85133, -9.508997], [-35.85189, -9.50839], [-35.85205, -9.507253], [-35.85168, -9.506573], [-35.85024, -9.505799], [-35.84613, -9.505083], [-35.84413, -9.504419], [-35.8434, -9.504024], [-35.84164, -9.504206]]]}}, 
{"type": "Feature", "properties": {"CD_SETOR": "270770105000150", "CD_SIT": "1", "NM_DIST": "Rio Largo", "NM_SUBDIST": null}, "geometry": {"type": "Polygon", "coordinates": [[[-35.81436, -9.512826], [-35.81544, -9.513246], [-35.81697, -9.511], [-35.81651, -9.510009], [-35.81517, -9.509701], [-35.81494, -9.510979], [-35.81436, -9.512826]]]}}, 
{"type": "Feature", "properties": {"CD_SETOR": "270770105000151", "CD_SIT": "1", "NM_DIST": "Rio Largo", "NM_SUBDIST": null}, "geometry": {"type": "Polygon", "coordinates": [[[-35.8359, -9.505183], [-35.83549, -9.505966], [-35.83493, -9.506545], [-35.83528, -9.506558], [-35.83607, -9.506118], [-35.83698, -9.506124], [-35.83698, -9.506562], [-35.83816, -9.506645], [-35.83802, -9.505218], [-35.8359, -9.505183]]]}}, 
{"type": "Feature", "properties": {"CD_SETOR": "270770105000152", "CD_SIT": "1", "NM_DIST": "Rio Largo", "NM_SUBDIST": null}, "geometry": {"type": "Polygon", "coordinates": [[[-35.83389, -9.508203], [-35.83422, -9.509279], [-35.83465, -9.509561], [-35.83465, -9.509785], [-35.83427, -9.510142], [-35.83425, -9.511082], [-35.83449, -9.511119], [-35.83449, -9.512173], [-35.83433, -9.512446], [-35.83573, -9.512408], [-35.83572, -9.510557], [-35.83588, -9.510549], [-35.83585, -9.510042], [-35.83539, -9.509799], [-35.83534, -9.508247], [-35.83507, -9.508135], [-35.83412, -9.508363], [-35.83389, -9.508203]]]}}, 
{"type": "Feature", "properties": {"CD_SETOR": "270770105000153", "CD_SIT": "1", "NM_DIST": "Rio Largo", "NM_SUBDIST": null}, "geometry": {"type": "Polygon", "coordinates": [[[-35.83182, -9.506967], [-35.83164, -9.507215], [-35.82951, -9.506672], [-35.83022, -9.508184], [-35.83066, -9.509886], [-35.8317, -9.509848], [-35.8316, -9.509535], [-35.83221, -9.50885], [-35.83451, -9.507964], [-35.83493, -9.506543], [-35.83314, -9.507216], [-35.83182, -9.506967]]]}}, 
{"type": "Feature", "properties": {"CD_SETOR": "270770105000154", "CD_SIT": "1", "NM_DIST": "Rio Largo", "NM_SUBDIST": null}, "geometry": {"type": "Polygon", "coordinates": [[[-35.79603, -9.528007], [-35.79732, -9.525995], [-35.79647, -9.525462], [-35.79672, -9.525229], [-35.79649, -9.525187], [-35.79523, -9.523833], [-35.79603, -9.528007]]]}}, 
{"type": "Feature", "properties": {"CD_SETOR": "270770105000155", "CD_SIT": "1", "NM_DIST": "Rio Largo", "NM_SUBDIST": null}, "geometry": {"type": "Polygon", "coordinates": [[[-35.79672, -9.525229], [-35.79647, -9.525462], [-35.79732, -9.525995], [-35.79795, -9.52497], [-35.79752, -9.524537], [-35.79672, -9.525229]]]}}, 
{"type": "Feature", "properties": {"CD_SETOR": "270770105000156", "CD_SIT": "1", "NM_DIST": "Rio Largo", "NM_SUBDIST": null}, "geometry": {"type": "Polygon", "coordinates": [[[-35.80051, -9.52401], [-35.80136, -9.522273], [-35.7997, -9.522576], [-35.79752, -9.524537], [-35.7979, -9.524945], [-35.79801, -9.524859], [-35.79964, -9.52582], [-35.80051, -9.52401]]]}}, 
{"type": "Feature", "properties": {"CD_SETOR": "270770105000157", "CD_SIT": "1", "NM_DIST": "Rio Largo", "NM_SUBDIST": null}, "geometry": {"type": "Polygon", "coordinates": [[[-35.81424, -9.540364], [-35.81622, -9.5409], [-35.81657, -9.537416], [-35.81504, -9.537262], [-35.81424, -9.540364]]]}}, 
{"type": "Feature", "properties": {"CD_SETOR": "270770105000158", "CD_SIT": "1", "NM_DIST": "Rio Largo", "NM_SUBDIST": null}, "geometry": {"type": "Polygon", "coordinates": [[[-35.81622, -9.5409], [-35.81744, -9.541232], [-35.81784, -9.537572], [-35.81657, -9.537416], [-35.81622, -9.5409]]]}}, 
{"type": "Feature", "properties": {"CD_SETOR": "270770105000159", "CD_SIT": "8", "NM_DIST": "Rio Largo", "NM_SUBDIST": null}, "geometry": {"type": "Polygon", "coordinates": [[[-35.85093, -9.52203], [-35.85157, -9.522189], [-35.85187, -9.522514], [-35.85203, -9.523066], [-35.85274, -9.523667], [-35.85317, -9.523793], [-35.8538, -9.523661], [-35.85435, -9.523407], [-35.85474, -9.522999], [-35.85501, -9.522448], [-35.85504, -9.521307], [-35.85533, -9.52086], [-35.85568, -9.520656], [-35.85717, -9.522045], [-35.85834, -9.522839], [-35.85875, -9.523771], [-35.85841, -9.525723], [-35.85946, -9.527819], [-35.85914, -9.528695], [-35.8633, -9.533553], [-35.86443, -9.534065], [-35.86887, -9.534375], [-35.86915, -9.534173], [-35.87154, -9.533519], [-35.87338, -9.532082], [-35.87568, -9.53166], [-35.87635, -9.53177], [-35.87663, -9.532347], [-35.87871, -9.533441], [-35.88009, -9.533389], [-35.8808, -9.532911], [-35.88239, -9.532312], [-35.88328, -9.531375], [-35.88427, -9.530886], [-35.88514, -9.529994], [-35.88655, -9.529808], [-35.88748, -9.528952], [-35.88809, -9.527324], [-35.88799, -9.526132], [-35.88759, -9.525241], [-35.8878, -9.524168], [-35.88863, -9.52324], [-35.88874, -9.522339], [-35.88899, -9.522113], [-35.88969, -9.521849], [-35.89084, -9.521071], [-35.89196, -9.521223], [-35.89246, -9.521069], [-35.8926, -9.520764], [-35.89253, -9.519979], [-35.89301, -9.519344], [-35.8928, -9.518189], [-35.89329, -9.517038], [-35.89464, -9.51688], [-35.8952, -9.516024], [-35.89552, -9.515816], [-35.89698, -9.51589], [-35.89842, -9.515326], [-35.89905, -9.515461], [-35.89991, -9.515352], [-35.90135, -9.515456], [-35.90201, -9.515221], [-35.90252, -9.515706], [-35.90263, -9.516758], [-35.90292, -9.516905], [-35.90466, -9.515464], [-35.90559, -9.515007], [-35.90643, -9.513437], [-35.90655, -9.512524], [-35.90683, -9.512383], [-35.90759, -9.512416], [-35.90815, -9.511638], [-35.90818, -9.511329], [-35.90778, -9.510347], [-35.90774, -9.509022], [-35.90805, -9.507609], [-35.90858, -9.50661], [-35.90956, -9.506121], [-35.90991, -9.505733], [-35.91122, -9.505173], [-35.91113, -9.504323], [-35.91096, -9.504073], [-35.90943, -9.503797], [-35.90844, -9.503245], [-35.90982, -9.503375], [-35.91484, -9.503193], [-35.91711, -9.503532], [-35.92183, -9.505467], [-35.92297, -9.506085], [-35.92739, -9.50916], [-35.93642, -9.500672], [-35.93763, -9.498422], [-35.93829, -9.498161], [-35.93943, -9.498173], [-35.94026, -9.497665], [-35.93949, -9.496117], [-35.93943, -9.495414], [-35.93952, -9.494357], [-35.93988, -9.493113], [-35.93949, -9.49243], [-35.93921, -9.492295], [-35.93871, -9.492452], [-35.93724, -9.492492], [-35.93715, -9.489631], [-35.93674, -9.488926], [-35.93588, -9.488339], [-35.93544, -9.486221], [-35.93475, -9.484866], [-35.93494, -9.483788], [-35.93482, -9.48333], [-35.934, -9.482887], [-35.93301, -9.480879], [-35.93279, -9.479605], [-35.9337, -9.46278], [-35.93089, -9.461731], [-35.93043, -9.441873], [-35.92999, -9.442068], [-35.92927, -9.442774], [-35.92864, -9.442912], [-35.9278, -9.444171], [-35.92682, -9.444992], [-35.92605, -9.446088], [-35.92559, -9.446309], [-35.92512, -9.446321], [-35.92447, -9.445982], [-35.92329, -9.445993], [-35.92243, -9.445729], [-35.92067, -9.445974], [-35.92082, -9.446279], [-35.92211, -9.446342], [-35.9216, -9.447846], [-35.92157, -9.448386], [-35.92177, -9.449212], [-35.92173, -9.450716], [-35.92241, -9.452032], [-35.92212, -9.452784], [-35.92206, -9.453716], [-35.92129, -9.454267], [-35.92006, -9.455633], [-35.91852, -9.456374], [-35.91827, -9.45697], [-35.9178, -9.457542], [-35.91784, -9.458262], [-35.9182, -9.458749], [-35.91827, -9.459173], [-35.91882, -9.463973], [-35.91721, -9.464831], [-35.91611, -9.466462], [-35.91588, -9.466568], [-35.91548, -9.46643], [-35.91443, -9.465297], [-35.9127, -9.465191], [-35.91154, -9.468903], [-35.90886, -9.470132], [-35.90785, -9.470301], [-35.90756, -9.470566], [-35.90721, -9.47135], [-35.90639, -9.47171], [-35.90592, -9.471805], [-35.90483, -9.471652], [-35.90281, -9.471832], [-35.90059, -9.471652], [-35.90042, -9.472435], [-35.90054, -9.473759], [-35.89989, -9.475226], [-35.90003, -9.475734], [-35.9005, -9.476179], [-35.90029, -9.477948], [-35.89987, -9.478244], [-35.8989, -9.478107], [-35.89849, -9.479081], [-35.89711, -9.479211], [-35.89523, -9.478056], [-35.89428, -9.477135], [-35.89316, -9.476404], [-35.89211, -9.474911], [-35.89102, -9.47283], [-35.89056, -9.472247], [-35.89003, -9.471887], [-35.88971, -9.471178], [-35.88935, -9.471125], [-35.88663, -9.469674], [-35.88588, -9.4696], [-35.88499, -9.469642], [-35.88339, -9.470076], [-35.88323, -9.470362], [-35.88241, -9.470182], [-35.88203, -9.470447], [-35.88011, -9.471054], [-35.87937, -9.471687], [-35.87587, -9.472636], [-35.87405, -9.473536], [-35.87235, -9.474544], [-35.87198, -9.475026], [-35.87192, -9.476906], [-35.87155, -9.477572], [-35.87079, -9.478053], [-35.86974, -9.478063], [-35.86853, -9.477116], [-35.8609, -9.47659], [-35.8604, -9.478401], [-35.85956, -9.480166], [-35.86044, -9.483464], [-35.86044, -9.484121], [-35.85954, -9.486338], [-35.85759, -9.487839], [-35.85381, -9.489079], [-35.8518, -9.490535], [-35.85104, -9.490919], [-35.85106, -9.491163], [-35.85043, -9.491136], [-35.85045, -9.49143], [-35.85014, -9.491725], [-35.84875, -9.492643], [-35.84836, -9.49281], [-35.84809, -9.492796], [-35.84791, -9.492579], [-35.84673, -9.492801], [-35.84657, -9.493131], [-35.8467, -9.493784], [-35.84625, -9.494745], [-35.84644, -9.494992], [-35.8472, -9.495074], [-35.84763, -9.495597], [-35.84707, -9.496898], [-35.84675, -9.497177], [-35.84339, -9.498418], [-35.84272, -9.499143], [-35.84218, -9.500318], [-35.84248, -9.502422], [-35.84292, -9.503517], [-35.84345, -9.504093], [-35.84613, -9.505083], [-35.85045, -9.505863], [-35.85086, -9.50622], [-35.85168, -9.506573], [-35.85197, -9.507033], [-35.85203, -9.507913], [-35.85189, -9.50839], [-35.85133, -9.508997], [-35.85127, -9.509487], [-35.85093, -9.510115], [-35.84987, -9.511654], [-35.84826, -9.513026], [-35.84597, -9.514289], [-35.84503, -9.515471], [-35.84379, -9.516046], [-35.84344, -9.516773], [-35.84361, -9.517139], [-35.8437, -9.518874], [-35.84426, -9.519875], [-35.84506, -9.520324], [-35.84533, -9.520729], [-35.84784, -9.521906], [-35.84871, -9.521941], [-35.84887, -9.522142], [-35.84962, -9.522129], [-35.85041, -9.52186], [-35.85093, -9.52203]]]}}, 
{"type": "Feature", "properties": {"CD_SETOR": "270770105000160", "CD_SIT": "8", "NM_DIST": "Rio Largo", "NM_SUBDIST": null}, "geometry": {"type": "Polygon", "coordinates": [[[-35.87742, -9.416687], [-35.84034, -9.4067], [-35.8409, -9.410559], [-35.84097, -9.41205], [-35.83625, -9.437825], [-35.83642, -9.439897], [-35.8366, -9.44043], [-35.83759, -9.442154], [-35.83859, -9.443236], [-35.84168, -9.44562], [-35.84391, -9.446682], [-35.84574, -9.447033], [-35.85346, -9.447002], [-35.85495, -9.44715], [-35.85708, -9.44753], [-35.86135, -9.448813], [-35.86125, -9.449451], [-35.86084, -9.450206], [-35.85979, -9.451077], [-35.85826, -9.451862], [-35.85652, -9.452228], [-35.85626, -9.452469], [-35.85613, -9.452989], [-35.85487, -9.453504], [-35.85459, -9.454067], [-35.85466, -9.454577], [-35.85452, -9.45508], [-35.85302, -9.456393], [-35.85268, -9.45763], [-35.85227, -9.457766], [-35.85217, -9.458236], [-35.85244, -9.458936], [-35.85351, -9.460074], [-35.85537, -9.460932], [-35.85595, -9.461948], [-35.85635, -9.463916], [-35.85675, -9.464788], [-35.85731, -9.465401], [-35.85941, -9.466365], [-35.86016, -9.467608], [-35.86066, -9.468118], [-35.86164, -9.469925], [-35.86302, -9.471664], [-35.86318, -9.472178], [-35.86316, -9.473382], [-35.86257, -9.475816], [-35.86209, -9.476719], [-35.86853, -9.477116], [-35.86974, -9.478063], [-35.87079, -9.478053], [-35.87155, -9.477572], [-35.87192, -9.476906], [-35.87198, -9.475026], [-35.87235, -9.474544], [-35.87405, -9.473536], [-35.87587, -9.472636], [-35.87937, -9.471687], [-35.88011, -9.471054], [-35.88203, -9.470447], [-35.88241, -9.470182], [-35.88323, -9.470362], [-35.88339, -9.470076], [-35.88499, -9.469642], [-35.88588, -9.4696], [-35.88663, -9.469674], [-35.88935, -9.471125], [-35.88971, -9.471178], [-35.89003, -9.471887], [-35.89056, -9.472247], [-35.89102, -9.47283], [-35.89211, -9.474911], [-35.89316, -9.476404], [-35.89676, -9.479094], [-35.89726, -9.479243], [-35.89821, -9.479187], [-35.89865, -9.478912], [-35.89876, -9.478234], [-35.8989, -9.478107], [-35.89987, -9.478244], [-35.90029, -9.477948], [-35.9005, -9.476179], [-35.90003, -9.475734], [-35.89989, -9.475226], [-35.90054, -9.473759], [-35.90042, -9.472435], [-35.90059, -9.471652], [-35.90281, -9.471832], [-35.90483, -9.471652], [-35.90592, -9.471805], [-35.90639, -9.47171], [-35.90721, -9.47135], [-35.90756, -9.470566], [-35.90785, -9.470301], [-35.90886, -9.470132], [-35.91154, -9.468903], [-35.9127, -9.465191], [-35.91443, -9.465297], [-35.91548, -9.46643], [-35.91588, -9.466568], [-35.91611, -9.466462], [-35.91721, -9.464831], [-35.91882, -9.463973], [-35.91827, -9.459173], [-35.9182, -9.458749], [-35.91784, -9.458262], [-35.9178, -9.457542], [-35.91827, -9.45697], [-35.91852, -9.456374], [-35.92006, -9.455633], [-35.92129, -9.454267], [-35.92206, -9.453716], [-35.92212, -9.452784], [-35.92241, -9.452032], [-35.92173, -9.450716], [-35.92177, -9.449212], [-35.92157, -9.448386], [-35.9216, -9.447846], [-35.92211, -9.446342], [-35.92082, -9.446279], [-35.92067, -9.445974], [-35.92243, -9.445729], [-35.92329, -9.445993], [-35.92447, -9.445982], [-35.92512, -9.446321], [-35.92559, -9.446309], [-35.92605, -9.446088], [-35.92682, -9.444992], [-35.9278, -9.444171], [-35.92864, -9.442912], [-35.92927, -9.442774], [-35.92999, -9.442068], [-35.93043, -9.441873], [-35.92889, -9.375566], [-35.87742, -9.416687]]]}}, 
{"type": "Feature", "properties": {"CD_SETOR": "270770105000161", "CD_SIT": "1", "NM_DIST": "Rio Largo", "NM_SUBDIST": null}, "geometry": {"type": "Polygon", "coordinates": [[[-35.8575, -9.485684], [-35.8572, -9.48602], [-35.85651, -9.486293], [-35.85632, -9.485843], [-35.85154, -9.489015], [-35.85058, -9.489462], [-35.85027, -9.48971], [-35.85049, -9.490193], [-35.85075, -9.49031], [-35.85104, -9.490919], [-35.8518, -9.490535], [-35.85381, -9.489079], [-35.85759, -9.487839], [-35.85943, -9.486441], [-35.8575, -9.485684]]]}}, 
{"type": "Feature", "properties": {"CD_SETOR": "270770105000162", "CD_SIT": "3", "NM_DIST": "Rio Largo", "NM_SUBDIST": null}, "geometry": {"type": "Polygon", "coordinates": [[[-35.80519, -9.536757], [-35.80888, -9.53903], [-35.80843, -9.538252], [-35.80847, -9.537945], [-35.81005, -9.538119], [-35.81016, -9.536771], [-35.80416, -9.536121], [-35.80519, -9.536757]]]}}, 
{"type": "Feature", "properties": {"CD_SETOR": "270770105000163", "CD_SIT": "1", "NM_DIST": "Rio Largo", "NM_SUBDIST": null}, "geometry": {"type": "Polygon", "coordinates": [[[-35.81651, -9.499355], [-35.81521, -9.499154], [-35.815, -9.499653], [-35.81303, -9.498969], [-35.81219, -9.500958], [-35.81268, -9.501247], [-35.81611, -9.501822], [-35.81651, -9.499355]]]}}, 
{"type": "Feature", "properties": {"CD_SETOR": "270770105000164", "CD_SIT": "1", "NM_DIST": "Rio Largo", "NM_SUBDIST": null}, "geometry": {"type": "Polygon", "coordinates": [[[-35.81219, -9.500958], [-35.81303, -9.498969], [-35.815, -9.499653], [-35.81521, -9.499154], [-35.81651, -9.499355], [-35.81662, -9.498622], [-35.81544, -9.498424], [-35.81356, -9.497739], [-35.81351, -9.497856], [-35.81247, -9.49752], [-35.81126, -9.50043], [-35.81219, -9.500958]]]}}, 
{"type": "Feature", "properties": {"CD_SETOR": "270770105000165", "CD_SIT": "1", "NM_DIST": "Rio Largo", "NM_SUBDIST": null}, "geometry": {"type": "Polygon", "coordinates": [[[-35.81451, -9.539399], [-35.81338, -9.53928], [-35.8134, -9.539084], [-35.81232, -9.538968], [-35.81246, -9.537028], [-35.81227, -9.537011], [-35.81198, -9.540137], [-35.81025, -9.539877], [-35.81308, -9.541617], [-35.8141, -9.540667], [-35.81451, -9.539399]]]}}, 
{"type": "Feature", "properties": {"CD_SETOR": "270770105000166", "CD_SIT": "1", "NM_DIST": "Rio Largo", "NM_SUBDIST": null}, "geometry": {"type": "Polygon", "coordinates": [[[-35.81246, -9.537028], [-35.81232, -9.538968], [-35.8134, -9.539084], [-35.81338, -9.53928], [-35.81451, -9.539399], [-35.81504, -9.537262], [-35.81246, -9.537028]]]}}]}