{"type": "FeatureCollection", "features": [
{"type": "Feature", "properties": {"CD_SETOR": "280067005000001", "CD_SIT": "1", "NM_DIST": "Boquim", "NM_SUBDIST": null}, "geometry": {"type": "Polygon", "coordinates": [[[-37.62345, -11.14534], [-37.62223, -11.14661], [-37.62335, -11.14773], [-37.62564, -11.14552], [-37.62552, -11.14514], [-37.62345, -11.14534]]]}}, 
{"type": "Feature", "properties": {"CD_SETOR": "280067005000002", "CD_SIT": "1", "NM_DIST": "Boquim", "NM_SUBDIST": null}, "geometry": {"type": "Polygon", "coordinates": [[[-37.62004, -11.14618], [-37.62189, -11.148], [-37.62129, -11.1486], [-37.62179, -11.14912], [-37.62335, -11.14773], [-37.62223, -11.14661], [-37.62345, -11.14534], [-37.61839, -11.14446], [-37.62004, -11.14618]]]}}, 
{"type": "Feature", "properties": {"CD_SETOR": "280067005000003", "CD_SIT": "1", "NM_DIST": "Boquim", "NM_SUBDIST": null}, "geometry": {"type": "Polygon", "coordinates": [[[-37.61876, -11.14853], [-37.62041, -11.15031], [-37.6209, -11.14989], [-37.62138, -11.15042], [-37.62233, -11.15089], [-37.62276, -11.15087], [-37.62306, -11.14937], [-37.62243, -11.14857], [-37.62179, -11.14912], [-37.62129, -11.1486], [-37.62189, -11.148], [-37.62004, -11.14618], [-37.61943, -11.14686], [-37.61996, -11.14739], [-37.61876, -11.14853]]]}}, 
{"type": "Feature", "properties": {"CD_SETOR": "280067005000004", "CD_SIT": "1", "NM_DIST": "Boquim", "NM_SUBDIST": null}, "geometry": {"type": "Polygon", "coordinates": [[[-37.61697, -11.14421], [-37.6169, -11.14665], [-37.61732, -11.14739], [-37.61876, -11.14853], [-37.61996, -11.14739], [-37.61943, -11.14686], [-37.62004, -11.14618], [-37.61839, -11.14446], [-37.61716, -11.14385], [-37.61697, -11.14421]]]}}, 
{"type": "Feature", "properties": {"CD_SETOR": "280067005000005", "CD_SIT": "1", "NM_DIST": "Boquim", "NM_SUBDIST": null}, "geometry": {"type": "Polygon", "coordinates": [[[-37.61607, -11.14556], [-37.61592, -11.14625], [-37.61504, -11.14767], [-37.61448, -11.15067], [-37.61463, -11.15156], [-37.6138, -11.15421], [-37.61337, -11.15458], [-37.61343, -11.1551], [-37.61261, -11.1558], [-37.61209, -11.15693], [-37.61222, -11.1571], [-37.61283, -11.15618], [-37.61377, -11.15627], [-37.61479, -11.15557], [-37.61777, -11.15256], [-37.61578, -11.15027], [-37.61555, -11.14982], [-37.61668, -11.14892], [-37.61711, -11.14936], [-37.61854, -11.14832], [-37.61732, -11.14739], [-37.6169, -11.14665], [-37.61687, -11.14478], [-37.61604, -11.14529], [-37.61607, -11.14556]]]}}, 
{"type": "Feature", "properties": {"CD_SETOR": "280067005000006", "CD_SIT": "1", "NM_DIST": "Boquim", "NM_SUBDIST": null}, "geometry": {"type": "Polygon", "coordinates": [[[-37.61489, -11.15546], [-37.61566, -11.15628], [-37.61759, -11.15449], [-37.61683, -11.15337], [-37.61489, -11.15546]]]}}, 
{"type": "Feature", "properties": {"CD_SETOR": "280067005000007", "CD_SIT": "1", "NM_DIST": "Boquim", "NM_SUBDIST": null}, "geometry": {"type": "Polygon", "coordinates": [[[-37.62335, -11.14773], [-37.62243, -11.14857], [-37.62308, -11.14942], [-37.62293, -11.15048], [-37.62271, -11.15068], [-37.62339, -11.15195], [-37.62424, -11.15275], [-37.62582, -11.15356], [-37.62671, -11.15288], [-37.6295, -11.1523], [-37.63009, -11.15237], [-37.63056, -11.15231], [-37.63004, -11.15235], [-37.62948, -11.15076], [-37.62818, -11.14872], [-37.62731, -11.14887], [-37.62643, -11.14809], [-37.62624, -11.1481], [-37.62458, -11.14656], [-37.62335, -11.14773]]]}}, 
{"type": "Feature", "properties": {"CD_SETOR": "280067005000008", "CD_SIT": "1", "NM_DIST": "Boquim", "NM_SUBDIST": null}, "geometry": {"type": "Polygon", "coordinates": [[[-37.62544, -11.14387], [-37.62564, -11.14552], [-37.62458, -11.14656], [-37.62624, -11.1481], [-37.62643, -11.14809], [-37.62731, -11.14887], [-37.62818, -11.14872], [-37.62948, -11.15076], [-37.63004, -11.15235], [-37.63151, -11.15219], [-37.63327, -11.15147], [-37.63535, -11.15119], [-37.62991, -11.14574], [-37.62872, -11.14531], [-37.6283, -11.14494], [-37.62813, -11.14472], [-37.62869, -11.14462], [-37.62722, -11.1423], [-37.6262, -11.14139], [-37.62544, -11.14387]]]}}, 
{"type": "Feature", "properties": {"CD_SETOR": "280067005000009", "CD_SIT": "1", "NM_DIST": "Boquim", "NM_SUBDIST": null}, "geometry": {"type": "Polygon", "coordinates": [[[-37.61854, -11.14832], [-37.61711, -11.14936], [-37.61668, -11.14892], [-37.61555, -11.14982], [-37.61578, -11.15027], [-37.61734, -11.15201], [-37.62005, -11.14991], [-37.61854, -11.14832]]]}}, 
{"type": "Feature", "properties": {"CD_SETOR": "280067005000010", "CD_SIT": "1", "NM_DIST": "Boquim", "NM_SUBDIST": null}, "geometry": {"type": "Polygon", "coordinates": [[[-37.6262, -11.14139], [-37.62722, -11.1423], [-37.6284, -11.14422], [-37.63134, -11.14266], [-37.63116, -11.142], [-37.63145, -11.14151], [-37.63233, -11.14113], [-37.63282, -11.14048], [-37.6306, -11.13972], [-37.62966, -11.13971], [-37.62799, -11.14038], [-37.62778, -11.14019], [-37.6262, -11.14139]]]}}, 
{"type": "Feature", "properties": {"CD_SETOR": "280067005000011", "CD_SIT": "1", "NM_DIST": "Boquim", "NM_SUBDIST": null}, "geometry": {"type": "Polygon", "coordinates": [[[-37.61672, -11.14235], [-37.61615, -11.1433], [-37.61788, -11.14421], [-37.61966, -11.14278], [-37.62356, -11.14416], [-37.62314, -11.14529], [-37.62395, -11.14537], [-37.62552, -11.14514], [-37.62544, -11.14387], [-37.62482, -11.14325], [-37.62464, -11.14269], [-37.62453, -11.14201], [-37.62464, -11.1404], [-37.62481, -11.13958], [-37.62622, -11.13582], [-37.62239, -11.13545], [-37.61784, -11.1354], [-37.61672, -11.14235]]]}}, 
{"type": "Feature", "properties": {"CD_SETOR": "280067005000012", "CD_SIT": "1", "NM_DIST": "Boquim", "NM_SUBDIST": null}, "geometry": {"type": "Polygon", "coordinates": [[[-37.61788, -11.14421], [-37.61872, -11.14457], [-37.62314, -11.14529], [-37.62356, -11.14416], [-37.61966, -11.14278], [-37.61788, -11.14421]]]}}, 
{"type": "Feature", "properties": {"CD_SETOR": "280067005000013", "CD_SIT": "1", "NM_DIST": "Boquim", "NM_SUBDIST": null}, "geometry": {"type": "Polygon", "coordinates": [[[-37.60734, -11.13195], [-37.60597, -11.13446], [-37.6049, -11.13547], [-37.60383, -11.136], [-37.6039, -11.13616], [-37.60486, -11.13608], [-37.60574, -11.13629], [-37.61451, -11.1424], [-37.61615, -11.1433], [-37.61672, -11.14235], [-37.61488, -11.13712], [-37.6131, -11.13509], [-37.60761, -11.13093], [-37.60734, -11.13195]]]}}, 
{"type": "Feature", "properties": {"CD_SETOR": "280067005000014", "CD_SIT": "1", "NM_DIST": "Boquim", "NM_SUBDIST": null}, "geometry": {"type": "Polygon", "coordinates": [[[-37.61734, -11.15201], [-37.61863, -11.15364], [-37.61911, -11.15312], [-37.62064, -11.15223], [-37.61967, -11.15093], [-37.62041, -11.15031], [-37.62005, -11.14991], [-37.61734, -11.15201]]]}}, 
{"type": "Feature", "properties": {"CD_SETOR": "280067005000015", "CD_SIT": "2", "NM_DIST": "Boquim", "NM_SUBDIST": null}, "geometry": {"type": "Polygon", "coordinates": [[[-37.63191, -11.14763], [-37.63535, -11.15119], [-37.6388, -11.15011], [-37.64124, -11.14895], [-37.64232, -11.14876], [-37.64068, -11.1438], [-37.63231, -11.14758], [-37.63191, -11.14763]]]}}, 
{"type": "Feature", "properties": {"CD_SETOR": "280067005000016", "CD_SIT": "2", "NM_DIST": "Boquim", "NM_SUBDIST": null}, "geometry": {"type": "Polygon", "coordinates": [[[-37.59576, -11.14237], [-37.59794, -11.1411], [-37.59925, -11.14274], [-37.60007, -11.14165], [-37.6003, -11.14109], [-37.60047, -11.13914], [-37.60274, -11.13688], [-37.60383, -11.136], [-37.60325, -11.13426], [-37.59497, -11.14074], [-37.59576, -11.14237]]]}}, 
{"type": "Feature", "properties": {"CD_SETOR": "280067005000017", "CD_SIT": "1", "NM_DIST": "Boquim", "NM_SUBDIST": null}, "geometry": {"type": "Polygon", "coordinates": [[[-37.59576, -11.14237], [-37.59701, -11.14486], [-37.59776, -11.14506], [-37.59782, -11.14623], [-37.59866, -11.14625], [-37.59893, -11.14429], [-37.59939, -11.1444], [-37.60108, -11.14281], [-37.60174, -11.14135], [-37.60175, -11.14041], [-37.6015, -11.13891], [-37.60247, -11.13804], [-37.60356, -11.13745], [-37.60307, -11.13658], [-37.60047, -11.13914], [-37.6003, -11.14109], [-37.60007, -11.14165], [-37.59925, -11.14274], [-37.59794, -11.1411], [-37.59576, -11.14237]]]}}, 
{"type": "Feature", "properties": {"CD_SETOR": "280067005000019", "CD_SIT": "1", "NM_DIST": "Boquim", "NM_SUBDIST": null}, "geometry": {"type": "Polygon", "coordinates": [[[-37.6136, -11.14257], [-37.61245, -11.14387], [-37.61508, -11.14415], [-37.61621, -11.14396], [-37.61697, -11.14421], [-37.61716, -11.14385], [-37.614, -11.14204], [-37.6136, -11.14257]]]}}, 
{"type": "Feature", "properties": {"CD_SETOR": "280067005000020", "CD_SIT": "1", "NM_DIST": "Boquim", "NM_SUBDIST": null}, "geometry": {"type": "Polygon", "coordinates": [[[-37.60307, -11.13658], [-37.60318, -11.13674], [-37.60392, -11.13661], [-37.60585, -11.13686], [-37.61057, -11.14093], [-37.6136, -11.14257], [-37.614, -11.14204], [-37.60574, -11.13629], [-37.60486, -11.13608], [-37.6039, -11.13616], [-37.60383, -11.136], [-37.60307, -11.13658]]]}}, 
{"type": "Feature", "properties": {"CD_SETOR": "280067005000021", "CD_SIT": "1", "NM_DIST": "Boquim", "NM_SUBDIST": null}, "geometry": {"type": "Polygon", "coordinates": [[[-37.6103, -11.1447], [-37.61133, -11.14388], [-37.61245, -11.14387], [-37.61276, -11.14354], [-37.61151, -11.14251], [-37.61088, -11.14297], [-37.61049, -11.14244], [-37.60926, -11.14327], [-37.6103, -11.1447]]]}}, 
{"type": "Feature", "properties": {"CD_SETOR": "280067005000023", "CD_SIT": "8", "NM_DIST": "Boquim", "NM_SUBDIST": null}, "geometry": {"type": "Polygon", "coordinates": [[[-37.63774, -11.14041], [-37.63978, -11.14269], [-37.64937, -11.14227], [-37.65225, -11.14122], [-37.65335, -11.14097], [-37.65405, -11.14105], [-37.65939, -11.14302], [-37.66015, -11.14355], [-37.66069, -11.1444], [-37.66201, -11.15014], [-37.67245, -11.14853], [-37.64672, -11.1262], [-37.64588, -11.12648], [-37.64593, -11.12722], [-37.64578, -11.12736], [-37.64451, -11.12738], [-37.64336, -11.12824], [-37.64342, -11.13225], [-37.64306, -11.13503], [-37.64281, -11.13553], [-37.64212, -11.13589], [-37.63935, -11.13694], [-37.6389, -11.13744], [-37.63774, -11.14041]]]}}, 
{"type": "Feature", "properties": {"CD_SETOR": "280067005000024", "CD_SIT": "8", "NM_DIST": "Boquim", "NM_SUBDIST": null}, "geometry": {"type": "Polygon", "coordinates": [[[-37.61811, -11.08185], [-37.61834, -11.08217], [-37.61836, -11.08311], [-37.61784, -11.08405], [-37.61712, -11.08467], [-37.61634, -11.08657], [-37.61656, -11.08924], [-37.61617, -11.09074], [-37.61619, -11.09117], [-37.61664, -11.09227], [-37.61725, -11.09314], [-37.6174, -11.09379], [-37.61725, -11.09437], [-37.61771, -11.09535], [-37.61753, -11.0963], [-37.61758, -11.09708], [-37.61084, -11.10339], [-37.61075, -11.10399], [-37.61092, -11.10475], [-37.61057, -11.10685], [-37.61074, -11.10732], [-37.6117, -11.10841], [-37.61205, -11.10995], [-37.61181, -11.11088], [-37.61206, -11.11279], [-37.61209, -11.11552], [-37.61172, -11.11668], [-37.61196, -11.11849], [-37.61116, -11.12127], [-37.61065, -11.1224], [-37.61018, -11.12296], [-37.61081, -11.12297], [-37.60661, -11.12856], [-37.60767, -11.13109], [-37.6131, -11.13509], [-37.61488, -11.13712], [-37.61672, -11.14235], [-37.61784, -11.1354], [-37.62239, -11.13545], [-37.62622, -11.13582], [-37.62481, -11.13958], [-37.62464, -11.1404], [-37.62453, -11.14201], [-37.62464, -11.14269], [-37.62482, -11.14325], [-37.62544, -11.14387], [-37.62621, -11.14139], [-37.62778, -11.14019], [-37.62799, -11.14038], [-37.62915, -11.13982], [-37.63039, -11.13968], [-37.63236, -11.14042], [-37.63305, -11.14048], [-37.63366, -11.14019], [-37.63471, -11.13927], [-37.63528, -11.13908], [-37.63618, -11.13932], [-37.63774, -11.14041], [-37.6389, -11.13744], [-37.63935, -11.13694], [-37.64281, -11.13553], [-37.64306, -11.13503], [-37.64342, -11.13225], [-37.64336, -11.12824], [-37.64451, -11.12738], [-37.64578, -11.12736], [-37.64593, -11.12722], [-37.64588, -11.12648], [-37.64672, -11.1262], [-37.64659, -11.1254], [-37.64675, -11.12061], [-37.6464, -11.11855], [-37.64643, -11.11691], [-37.64607, -11.11646], [-37.64955, -11.10888], [-37.63303, -11.08145], [-37.63181, -11.08307], [-37.63116, -11.08307], [-37.63095, -11.08234], [-37.63064, -11.08252], [-37.62971, -11.0833], [-37.62927, -11.08399], [-37.62839, -11.08431], [-37.62822, -11.08475], [-37.62762, -11.08483], [-37.62764, -11.0851], [-37.62694, -11.08576], [-37.62657, -11.08571], [-37.62646, -11.08611], [-37.62548, -11.08691], [-37.62514, -11.08743], [-37.62464, -11.08741], [-37.62373, -11.08813], [-37.62231, -11.08785], [-37.62097, -11.08677], [-37.62068, -11.08625], [-37.62004, -11.08588], [-37.61971, -11.08521], [-37.61987, -11.08443], [-37.62046, -11.0838], [-37.62094, -11.08376], [-37.62078, -11.08334], [-37.61973, -11.08273], [-37.61924, -11.08271], [-37.61893, -11.0829], [-37.61838, -11.08171], [-37.61811, -11.08185]], [[-37.62711, -11.12636], [-37.62681, -11.12593], [-37.62876, -11.12442], [-37.63, -11.12576], [-37.62793, -11.1275], [-37.62767, -11.12716], [-37.62549, -11.12896], [-37.62514, -11.1287], [-37.62491, -11.12819], [-37.62711, -11.12636]]]}}, 
{"type": "Feature", "properties": {"CD_SETOR": "280067005000025", "CD_SIT": "8", "NM_DIST": "Boquim", "NM_SUBDIST": null}, "geometry": {"type": "Polygon", "coordinates": [[[-37.55211, -11.01828], [-37.55495, -11.02581], [-37.5556, -11.02829], [-37.5555, -11.03017], [-37.55507, -11.03182], [-37.55275, -11.03604], [-37.55222, -11.03787], [-37.55244, -11.05397], [-37.55323, -11.05685], [-37.55714, -11.0643], [-37.55834, -11.06548], [-37.55971, -11.06625], [-37.56634, -11.0672], [-37.56743, -11.06783], [-37.56807, -11.06846], [-37.56946, -11.07168], [-37.57392, -11.08325], [-37.57503, -11.08522], [-37.58999, -11.10389], [-37.59097, -11.10544], [-37.59171, -11.10713], [-37.5926, -11.11089], [-37.59351, -11.11302], [-37.59904, -11.12285], [-37.6024, -11.1263], [-37.60213, -11.12575], [-37.60318, -11.12284], [-37.61018, -11.12296], [-37.61065, -11.1224], [-37.61116, -11.12127], [-37.61191, -11.11876], [-37.61172, -11.11668], [-37.61209, -11.11552], [-37.61206, -11.11279], [-37.61181, -11.11088], [-37.61205, -11.10995], [-37.6117, -11.10841], [-37.61074, -11.10732], [-37.61057, -11.10685], [-37.61092, -11.10475], [-37.61075, -11.10399], [-37.61084, -11.10339], [-37.61758, -11.09708], [-37.61753, -11.0963], [-37.61771, -11.09535], [-37.61725, -11.09437], [-37.6174, -11.09379], [-37.61725, -11.09314], [-37.61664, -11.09227], [-37.61619, -11.09117], [-37.61617, -11.09074], [-37.61656, -11.08924], [-37.61634, -11.08657], [-37.61712, -11.08467], [-37.61799, -11.08384], [-37.61838, -11.08297], [-37.61834, -11.08217], [-37.61811, -11.08185], [-37.61794, -11.08294], [-37.61744, -11.08372], [-37.61652, -11.0838], [-37.617, -11.08103], [-37.61683, -11.08053], [-37.61631, -11.08045], [-37.61436, -11.08072], [-37.61387, -11.08062], [-37.61324, -11.08011], [-37.61192, -11.0799], [-37.61169, -11.07919], [-37.61171, -11.07827], [-37.61192, -11.07745], [-37.61243, -11.07701], [-37.61398, -11.07665], [-37.61494, -11.07621], [-37.61534, -11.07522], [-37.61534, -11.07461], [-37.61511, -11.0742], [-37.61526, -11.07382], [-37.61656, -11.07271], [-37.61662, -11.07218], [-37.61622, -11.07185], [-37.6157, -11.07172], [-37.61461, -11.07046], [-37.61475, -11.0696], [-37.61532, -11.06897], [-37.61595, -11.06859], [-37.61753, -11.06831], [-37.61794, -11.06796], [-37.61853, -11.06778], [-37.62063, -11.06784], [-37.62102, -11.0676], [-37.62242, -11.06748], [-37.56515, -11.04005], [-37.56592, -11.03907], [-37.56695, -11.03815], [-37.56815, -11.03753], [-37.56938, -11.03652], [-37.57001, -11.03478], [-37.56955, -11.03334], [-37.56794, -11.03146], [-37.56777, -11.03091], [-37.56787, -11.03028], [-37.5684, -11.02939], [-37.56848, -11.0289], [-37.56851, -11.02546], [-37.54912, -11.01034], [-37.55211, -11.01828]]]}}, 
{"type": "Feature", "properties": {"CD_SETOR": "280067005000026", "CD_SIT": "8", "NM_DIST": "Boquim", "NM_SUBDIST": null}, "geometry": {"type": "Polygon", "coordinates": [[[-37.52975, -11.02789], [-37.53361, -11.02784], [-37.53705, -11.02737], [-37.5387, -11.0261], [-37.54226, -11.02175], [-37.55211, -11.01828], [-37.54912, -11.01034], [-37.53101, -10.99622], [-37.52975, -11.02789]]]}}, 
{"type": "Feature", "properties": {"CD_SETOR": "280067005000027", "CD_SIT": "8", "NM_DIST": "Boquim", "NM_SUBDIST": null}, "geometry": {"type": "Polygon", "coordinates": [[[-37.52876, -11.053], [-37.52872, -11.05389], [-37.53807, -11.09265], [-37.55309, -11.14011], [-37.55147, -11.14115], [-37.55077, -11.14126], [-37.54977, -11.14016], [-37.54946, -11.14013], [-37.54822, -11.14084], [-37.54802, -11.14124], [-37.549, -11.14254], [-37.55457, -11.14484], [-37.55706, -11.14772], [-37.55779, -11.14829], [-37.55868, -11.14831], [-37.56007, -11.14863], [-37.56194, -11.14987], [-37.56434, -11.15034], [-37.56609, -11.15114], [-37.56909, -11.14975], [-37.57349, -11.15038], [-37.57563, -11.15197], [-37.57958, -11.15329], [-37.58026, -11.15339], [-37.58247, -11.15258], [-37.58302, -11.15255], [-37.58512, -11.15389], [-37.58978, -11.15493], [-37.58968, -11.15453], [-37.59738, -11.15008], [-37.59805, -11.15008], [-37.59776, -11.14506], [-37.59701, -11.14486], [-37.59497, -11.14074], [-37.60542, -11.13266], [-37.6024, -11.1263], [-37.59904, -11.12285], [-37.59351, -11.11302], [-37.5926, -11.11089], [-37.59171, -11.10713], [-37.59097, -11.10544], [-37.58999, -11.10389], [-37.57503, -11.08522], [-37.57392, -11.08325], [-37.56946, -11.07168], [-37.56807, -11.06846], [-37.56743, -11.06783], [-37.56634, -11.0672], [-37.55971, -11.06625], [-37.55834, -11.06548], [-37.55714, -11.0643], [-37.55323, -11.05685], [-37.55244, -11.05397], [-37.54907, -11.05419], [-37.54299, -11.05577], [-37.542, -11.05583], [-37.54153, -11.05572], [-37.54094, -11.05506], [-37.53671, -11.05374], [-37.53317, -11.05386], [-37.53112, -11.05307], [-37.52994, -11.05281], [-37.52876, -11.053]]]}}, 
{"type": "Feature", "properties": {"CD_SETOR": "280067005000028", "CD_SIT": "8", "NM_DIST": "Boquim", "NM_SUBDIST": null}, "geometry": {"type": "Polygon", "coordinates": [[[-37.57958, -11.15329], [-37.57838, -11.1534], [-37.57634, -11.15485], [-37.57548, -11.15527], [-37.57369, -11.15532], [-37.57342, -11.15569], [-37.5733, -11.15663], [-37.57151, -11.1585], [-37.57047, -11.16049], [-37.56967, -11.16144], [-37.56694, -11.16549], [-37.56602, -11.16503], [-37.56573, -11.16462], [-37.56408, -11.16389], [-37.5637, -11.16389], [-37.56245, -11.16435], [-37.56055, -11.16421], [-37.55849, -11.16486], [-37.5567, -11.16553], [-37.55544, -11.16689], [-37.55429, -11.16706], [-37.55261, -11.16768], [-37.55222, -11.16773], [-37.55105, -11.16712], [-37.55037, -11.16721], [-37.54931, -11.16708], [-37.54913, -11.16683], [-37.54786, -11.16621], [-37.54694, -11.16644], [-37.57553, -11.18797], [-37.57774, -11.18611], [-37.57835, -11.17994], [-37.5806, -11.1798], [-37.59104, -11.17697], [-37.59103, -11.17735], [-37.59132, -11.17705], [-37.59169, -11.17529], [-37.59069, -11.17211], [-37.5899, -11.17127], [-37.58957, -11.17029], [-37.58952, -11.16955], [-37.58899, -11.16864], [-37.58913, -11.1683], [-37.5927, -11.16568], [-37.59231, -11.16509], [-37.59128, -11.16038], [-37.58888, -11.15541], [-37.58978, -11.15493], [-37.58512, -11.15389], [-37.58302, -11.15255], [-37.58247, -11.15258], [-37.58026, -11.15339], [-37.57958, -11.15329]]]}}, 
{"type": "Feature", "properties": {"CD_SETOR": "280067005000029", "CD_SIT": "5", "NM_DIST": "Boquim", "NM_SUBDIST": null}, "geometry": {"type": "Polygon", "coordinates": [[[-37.57826, -11.18673], [-37.5791, -11.18861], [-37.58076, -11.18621], [-37.58584, -11.18684], [-37.58645, -11.18299], [-37.59099, -11.17998], [-37.59103, -11.17735], [-37.58983, -11.17859], [-37.58928, -11.17894], [-37.58474, -11.18117], [-37.58038, -11.18398], [-37.57984, -11.18448], [-37.57826, -11.18673]]]}}, 
{"type": "Feature", "properties": {"CD_SETOR": "280067005000031", "CD_SIT": "3", "NM_DIST": "Boquim", "NM_SUBDIST": null}, "geometry": {"type": "Polygon", "coordinates": [[[-37.59807, -11.15071], [-37.59818, -11.15502], [-37.59804, -11.15537], [-37.5969, -11.15641], [-37.59643, -11.15652], [-37.59671, -11.15783], [-37.59645, -11.16103], [-37.59677, -11.16254], [-37.59858, -11.16424], [-37.59957, -11.16469], [-37.60105, -11.16264], [-37.60023, -11.15913], [-37.59864, -11.15043], [-37.59805, -11.15008], [-37.59807, -11.15071]]]}}, 
{"type": "Feature", "properties": {"CD_SETOR": "280067005000032", "CD_SIT": "3", "NM_DIST": "Boquim", "NM_SUBDIST": null}, "geometry": {"type": "Polygon", "coordinates": [[[-37.58978, -11.15493], [-37.59262, -11.15561], [-37.59246, -11.15674], [-37.59455, -11.15832], [-37.59497, -11.15792], [-37.59654, -11.15719], [-37.59646, -11.15651], [-37.5939, -11.15593], [-37.59261, -11.15434], [-37.59472, -11.15372], [-37.59679, -11.15256], [-37.59807, -11.15071], [-37.59805, -11.15008], [-37.59738, -11.15008], [-37.58968, -11.15453], [-37.58978, -11.15493]]]}}, 
{"type": "Feature", "properties": {"CD_SETOR": "280067005000033", "CD_SIT": "8", "NM_DIST": "Boquim", "NM_SUBDIST": null}, "geometry": {"type": "Polygon", "coordinates": [[[-37.59805, -11.15008], [-37.59864, -11.15043], [-37.60023, -11.15913], [-37.60105, -11.16264], [-37.59957, -11.16469], [-37.59305, -11.16618], [-37.5927, -11.16568], [-37.58913, -11.1683], [-37.58899, -11.16864], [-37.58952, -11.16955], [-37.58957, -11.17029], [-37.5899, -11.17127], [-37.59069, -11.17211], [-37.59167, -11.17498], [-37.59132, -11.17705], [-37.59103, -11.17735], [-37.59099, -11.17998], [-37.58645, -11.18299], [-37.58584, -11.18684], [-37.58076, -11.18621], [-37.5791, -11.18861], [-37.57805, -11.18985], [-37.59653, -11.20354], [-37.59685, -11.20307], [-37.60016, -11.20136], [-37.60078, -11.20078], [-37.6012, -11.2006], [-37.60222, -11.20091], [-37.60335, -11.20016], [-37.60394, -11.20011], [-37.60528, -11.20055], [-37.60625, -11.20024], [-37.60669, -11.19997], [-37.607, -11.1993], [-37.60932, -11.19665], [-37.60819, -11.19483], [-37.60751, -11.19413], [-37.60649, -11.19368], [-37.6052, -11.19277], [-37.60474, -11.19241], [-37.60433, -11.19178], [-37.60431, -11.19159], [-37.60587, -11.19046], [-37.6061, -11.19013], [-37.60677, -11.18717], [-37.60627, -11.18464], [-37.60634, -11.18296], [-37.60603, -11.18184], [-37.60612, -11.18153], [-37.61528, -11.17126], [-37.61633, -11.16895], [-37.61669, -11.16849], [-37.61688, -11.16782], [-37.61723, -11.16752], [-37.61614, -11.16738], [-37.61532, -11.16638], [-37.61421, -11.16622], [-37.61324, -11.16628], [-37.59802, -11.14909], [-37.59805, -11.15008]]]}}, 
{"type": "Feature", "properties": {"CD_SETOR": "280067005000034", "CD_SIT": "8", "NM_DIST": "Boquim", "NM_SUBDIST": null}, "geometry": {"type": "Polygon", "coordinates": [[[-37.59782, -11.14623], [-37.59802, -11.14909], [-37.61324, -11.16628], [-37.61421, -11.16622], [-37.61532, -11.16638], [-37.61763, -11.16352], [-37.61843, -11.16298], [-37.62095, -11.16287], [-37.62482, -11.15939], [-37.62512, -11.15867], [-37.62541, -11.15694], [-37.6264, -11.15561], [-37.62646, -11.15444], [-37.62627, -11.15372], [-37.62582, -11.15356], [-37.62518, -11.1542], [-37.62414, -11.15458], [-37.62226, -11.15619], [-37.62136, -11.15659], [-37.62073, -11.15732], [-37.62039, -11.1572], [-37.61973, -11.15792], [-37.61923, -11.15797], [-37.61841, -11.15835], [-37.61749, -11.15812], [-37.61726, -11.15793], [-37.61688, -11.15804], [-37.61503, -11.15733], [-37.61402, -11.15718], [-37.61283, -11.15678], [-37.61222, -11.1571], [-37.61209, -11.15693], [-37.61261, -11.1558], [-37.61343, -11.1551], [-37.61337, -11.15458], [-37.6138, -11.15421], [-37.61463, -11.15156], [-37.61448, -11.15067], [-37.61504, -11.14767], [-37.61592, -11.14625], [-37.61607, -11.14556], [-37.61512, -11.14659], [-37.61383, -11.15003], [-37.60846, -11.14579], [-37.60356, -11.13745], [-37.60247, -11.13804], [-37.6015, -11.13891], [-37.60175, -11.14041], [-37.60174, -11.14135], [-37.60108, -11.14281], [-37.59939, -11.1444], [-37.59893, -11.14429], [-37.59866, -11.14625], [-37.59782, -11.14623]], [[-37.61142, -11.15188], [-37.61045, -11.15178], [-37.61072, -11.14958], [-37.61356, -11.14996], [-37.61312, -11.15209], [-37.61142, -11.15188]]]}}, 
{"type": "Feature", "properties": {"CD_SETOR": "280067005000035", "CD_SIT": "3", "NM_DIST": "Boquim", "NM_SUBDIST": null}, "geometry": {"type": "Polygon", "coordinates": [[[-37.61532, -11.16638], [-37.61614, -11.16738], [-37.61734, -11.16753], [-37.62181, -11.16475], [-37.62349, -11.16289], [-37.62544, -11.15973], [-37.62482, -11.15938], [-37.62095, -11.16287], [-37.61843, -11.16298], [-37.61763, -11.16352], [-37.61532, -11.16638]]]}}, 
{"type": "Feature", "properties": {"CD_SETOR": "280067005000036", "CD_SIT": "8", "NM_DIST": "Boquim", "NM_SUBDIST": null}, "geometry": {"type": "Polygon", "coordinates": [[[-37.62482, -11.15939], [-37.62544, -11.15973], [-37.62349, -11.16289], [-37.62181, -11.16475], [-37.61688, -11.16782], [-37.61669, -11.16849], [-37.61633, -11.16895], [-37.61528, -11.17126], [-37.60612, -11.18153], [-37.60603, -11.18184], [-37.60634, -11.18296], [-37.60627, -11.18464], [-37.60677, -11.18717], [-37.6061, -11.19013], [-37.60587, -11.19046], [-37.60431, -11.19159], [-37.60433, -11.19178], [-37.60474, -11.19241], [-37.6052, -11.19277], [-37.60649, -11.19368], [-37.60751, -11.19413], [-37.60819, -11.19483], [-37.60932, -11.19665], [-37.607, -11.1993], [-37.60669, -11.19997], [-37.60705, -11.19976], [-37.60799, -11.20176], [-37.60864, -11.20264], [-37.60987, -11.20306], [-37.61318, -11.20287], [-37.61551, -11.20136], [-37.6176, -11.20073], [-37.61981, -11.20047], [-37.6245, -11.20036], [-37.62844, -11.19934], [-37.62968, -11.19938], [-37.63549, -11.19897], [-37.63695, -11.19904], [-37.63838, -11.1987], [-37.63973, -11.19803], [-37.63006, -11.18625], [-37.63103, -11.18597], [-37.63208, -11.18626], [-37.63261, -11.18605], [-37.63386, -11.18684], [-37.63435, -11.18654], [-37.63465, -11.18666], [-37.63523, -11.1858], [-37.63657, -11.18536], [-37.63775, -11.18442], [-37.63791, -11.18388], [-37.63833, -11.1845], [-37.63882, -11.18448], [-37.63935, -11.18495], [-37.63981, -11.18492], [-37.64012, -11.18473], [-37.64022, -11.18447], [-37.63976, -11.18322], [-37.64063, -11.18246], [-37.64219, -11.18308], [-37.64308, -11.18375], [-37.6436, -11.18354], [-37.64383, -11.18326], [-37.64422, -11.18347], [-37.64519, -11.18283], [-37.64578, -11.18281], [-37.64594, -11.1826], [-37.6458, -11.18209], [-37.64614, -11.18187], [-37.64685, -11.18236], [-37.64758, -11.18249], [-37.64859, -11.18225], [-37.64924, -11.18163], [-37.64953, -11.18246], [-37.65038, -11.18234], [-37.65105, -11.1827], [-37.65207, -11.18262], [-37.65023, -11.18142], [-37.64723, -11.1752], [-37.6469, -11.1748], [-37.64415, -11.17297], [-37.64039, -11.16853], [-37.63554, -11.16199], [-37.63, -11.15586], [-37.62858, -11.15482], [-37.62627, -11.15372], [-37.62646, -11.15444], [-37.6264, -11.15561], [-37.62541, -11.15694], [-37.62512, -11.15867], [-37.62482, -11.15939]]]}}, 
{"type": "Feature", "properties": {"CD_SETOR": "280067005000037", "CD_SIT": "8", "NM_DIST": "Boquim", "NM_SUBDIST": null}, "geometry": {"type": "Polygon", "coordinates": [[[-37.63978, -11.14269], [-37.64075, -11.14392], [-37.64232, -11.14876], [-37.64124, -11.14895], [-37.6388, -11.15011], [-37.63702, -11.15057], [-37.63558, -11.15115], [-37.63327, -11.15147], [-37.63151, -11.15219], [-37.6295, -11.1523], [-37.62671, -11.15288], [-37.62582, -11.15356], [-37.62858, -11.15482], [-37.63, -11.15586], [-37.63083, -11.15672], [-37.63554, -11.16199], [-37.64039, -11.16853], [-37.64415, -11.17297], [-37.6469, -11.1748], [-37.64723, -11.1752], [-37.65023, -11.18142], [-37.65207, -11.18262], [-37.65105, -11.1827], [-37.65038, -11.18234], [-37.64953, -11.18246], [-37.64924, -11.18163], [-37.64859, -11.18225], [-37.64758, -11.18249], [-37.64685, -11.18236], [-37.64614, -11.18187], [-37.6458, -11.18209], [-37.64594, -11.1826], [-37.64578, -11.18281], [-37.64519, -11.18283], [-37.64422, -11.18347], [-37.64383, -11.18326], [-37.6436, -11.18354], [-37.64308, -11.18375], [-37.64219, -11.18308], [-37.64063, -11.18246], [-37.63976, -11.18322], [-37.64022, -11.18447], [-37.64012, -11.18473], [-37.63981, -11.18492], [-37.63935, -11.18495], [-37.63882, -11.18448], [-37.63833, -11.1845], [-37.63791, -11.18388], [-37.63775, -11.18442], [-37.63657, -11.18536], [-37.63523, -11.1858], [-37.63465, -11.18666], [-37.63435, -11.18654], [-37.63386, -11.18684], [-37.63261, -11.18605], [-37.63208, -11.18626], [-37.63103, -11.18597], [-37.63006, -11.18625], [-37.63973, -11.19803], [-37.64123, -11.19724], [-37.64235, -11.19593], [-37.64333, -11.19522], [-37.64483, -11.1936], [-37.66999, -11.18321], [-37.66998, -11.18279], [-37.66747, -11.18016], [-37.66534, -11.17928], [-37.66132, -11.18021], [-37.65957, -11.18021], [-37.65892, -11.18041], [-37.65759, -11.1814], [-37.65474, -11.1806], [-37.65414, -11.1802], [-37.65262, -11.17611], [-37.65253, -11.17513], [-37.65276, -11.17399], [-37.65266, -11.17187], [-37.65374, -11.16963], [-37.65469, -11.16844], [-37.65488, -11.16713], [-37.65543, -11.1666], [-37.6562, -11.16623], [-37.65654, -11.16561], [-37.6566, -11.16435], [-37.6571, -11.1624], [-37.65741, -11.16192], [-37.65949, -11.16088], [-37.65994, -11.1608], [-37.66057, -11.16092], [-37.66133, -11.16134], [-37.66222, -11.1614], [-37.66479, -11.15942], [-37.66534, -11.15849], [-37.66532, -11.15728], [-37.6634, -11.15473], [-37.66285, -11.15373], [-37.6605, -11.144], [-37.66015, -11.14355], [-37.65939, -11.14302], [-37.65405, -11.14105], [-37.65335, -11.14097], [-37.65225, -11.14122], [-37.64937, -11.14227], [-37.63978, -11.14269]]]}}, 
{"type": "Feature", "properties": {"CD_SETOR": "280067005000038", "CD_SIT": "8", "NM_DIST": "Boquim", "NM_SUBDIST": null}, "geometry": {"type": "Polygon", "coordinates": [[[-37.66201, -11.15014], [-37.66285, -11.15373], [-37.6634, -11.15473], [-37.66566, -11.1578], [-37.6658, -11.15832], [-37.66559, -11.15884], [-37.66637, -11.15864], [-37.66934, -11.16263], [-37.66974, -11.16264], [-37.6723, -11.1617], [-37.67247, -11.1618], [-37.67254, -11.16255], [-37.6718, -11.16426], [-37.67422, -11.16624], [-37.67763, -11.16609], [-37.67833, -11.16693], [-37.67935, -11.16727], [-37.68531, -11.17045], [-37.68436, -11.17356], [-37.68295, -11.17541], [-37.68122, -11.17882], [-37.6803, -11.18115], [-37.67923, -11.18263], [-37.6793, -11.18325], [-37.67884, -11.18547], [-37.67878, -11.18709], [-37.67802, -11.18858], [-37.67739, -11.18923], [-37.67888, -11.18998], [-37.67985, -11.18971], [-37.68028, -11.18909], [-37.68032, -11.18768], [-37.68095, -11.18527], [-37.68273, -11.18288], [-37.68311, -11.181], [-37.68459, -11.17921], [-37.68508, -11.17821], [-37.68543, -11.1761], [-37.68579, -11.17526], [-37.68876, -11.1737], [-37.68969, -11.17302], [-37.69146, -11.17124], [-37.70455, -11.19182], [-37.70484, -11.19149], [-37.70541, -11.1915], [-37.70562, -11.19116], [-37.70505, -11.19038], [-37.70505, -11.18978], [-37.70479, -11.18926], [-37.70493, -11.18831], [-37.70443, -11.188], [-37.70409, -11.18821], [-37.70424, -11.1885], [-37.70287, -11.18821], [-37.70278, -11.18794], [-37.70314, -11.18749], [-37.70318, -11.18714], [-37.70282, -11.18558], [-37.70284, -11.18451], [-37.70232, -11.18457], [-37.70165, -11.18384], [-37.70113, -11.18362], [-37.70042, -11.1839], [-37.70014, -11.18369], [-37.70014, -11.18333], [-37.70031, -11.18261], [-37.70083, -11.18234], [-37.7007, -11.18185], [-37.70174, -11.18032], [-37.70293, -11.17963], [-37.70331, -11.17871], [-37.70312, -11.17803], [-37.70351, -11.17739], [-37.70367, -11.1772], [-37.70468, -11.17696], [-37.70498, -11.17637], [-37.70633, -11.1753], [-37.70679, -11.17432], [-37.69556, -11.1666], [-37.67656, -11.15145], [-37.67245, -11.14853], [-37.66201, -11.15014]]]}}, 
{"type": "Feature", "properties": {"CD_SETOR": "280067005000039", "CD_SIT": "2", "NM_DIST": "Boquim", "NM_SUBDIST": null}, "geometry": {"type": "Polygon", "coordinates": [[[-37.63282, -11.14048], [-37.63233, -11.14113], [-37.63145, -11.14151], [-37.63116, -11.142], [-37.63134, -11.14266], [-37.6284, -11.14422], [-37.62869, -11.14462], [-37.63985, -11.14276], [-37.63774, -11.14041], [-37.63583, -11.13917], [-37.63486, -11.13917], [-37.63348, -11.14031], [-37.63282, -11.14048]]]}}, 
{"type": "Feature", "properties": {"CD_SETOR": "280067005000040", "CD_SIT": "1", "NM_DIST": "Boquim", "NM_SUBDIST": null}, "geometry": {"type": "Polygon", "coordinates": [[[-37.61197, -11.1467], [-37.61126, -11.14732], [-37.61123, -11.1475], [-37.61318, -11.14884], [-37.61348, -11.14889], [-37.61356, -11.14724], [-37.61197, -11.1467]]]}}, 
{"type": "Feature", "properties": {"CD_SETOR": "280067005000041", "CD_SIT": "5", "NM_DIST": "Boquim", "NM_SUBDIST": null}, "geometry": {"type": "Polygon", "coordinates": [[[-37.57553, -11.18797], [-37.57805, -11.18985], [-37.5791, -11.18861], [-37.57826, -11.18673], [-37.57774, -11.18611], [-37.57553, -11.18797]]]}}, 
{"type": "Feature", "properties": {"CD_SETOR": "280067005000042", "CD_SIT": "3", "NM_DIST": "Boquim", "NM_SUBDIST": null}, "geometry": {"type": "Polygon", "coordinates": [[[-37.5927, -11.16568], [-37.59305, -11.16618], [-37.59957, -11.16469], [-37.59858, -11.16424], [-37.59677, -11.16254], [-37.59645, -11.16103], [-37.59671, -11.15783], [-37.59653, -11.15719], [-37.59497, -11.15792], [-37.59455, -11.15832], [-37.59246, -11.15674], [-37.59262, -11.15561], [-37.58978, -11.15493], [-37.58888, -11.15541], [-37.59128, -11.16038], [-37.59231, -11.16509], [-37.5927, -11.16568]]]}}, 
{"type": "Feature", "properties": {"CD_SETOR": "280067005000043", "CD_SIT": "1", "NM_DIST": "Boquim", "NM_SUBDIST": null}, "geometry": {"type": "Polygon", "coordinates": [[[-37.62041, -11.15031], [-37.61967, -11.15093], [-37.62064, -11.15223], [-37.61911, -11.15312], [-37.61863, -11.15364], [-37.61777, -11.15256], [-37.61683, -11.15337], [-37.61759, -11.15449], [-37.61566, -11.15628], [-37.61489, -11.15546], [-37.61377, -11.15627], [-37.61283, -11.15618], [-37.6125, -11.15653], [-37.61233, -11.157], [-37.61283, -11.15678], [-37.61402, -11.15718], [-37.61503, -11.15733], [-37.61688, -11.15804], [-37.61726, -11.15793], [-37.61749, -11.15812], [-37.61841, -11.15835], [-37.61923, -11.15797], [-37.61973, -11.15792], [-37.62039, -11.1572], [-37.62073, -11.15732], [-37.62136, -11.15659], [-37.62226, -11.15619], [-37.62414, -11.15458], [-37.62518, -11.1542], [-37.62582, -11.15356], [-37.62389, -11.15246], [-37.62318, -11.15165], [-37.62277, -11.15087], [-37.62233, -11.15089], [-37.62138, -11.15042], [-37.6209, -11.14989], [-37.62041, -11.15031]]]}}, 
{"type": "Feature", "properties": {"CD_SETOR": "280067005000044", "CD_SIT": "3", "NM_DIST": "Boquim", "NM_SUBDIST": null}, "geometry": {"type": "Polygon", "coordinates": [[[-37.61142, -11.15188], [-37.61312, -11.15209], [-37.61356, -11.14996], [-37.61072, -11.14958], [-37.61045, -11.15178], [-37.61142, -11.15188]]]}}, 
{"type": "Feature", "properties": {"CD_SETOR": "280067005000045", "CD_SIT": "1", "NM_DIST": "Boquim", "NM_SUBDIST": null}, "geometry": {"type": "Polygon", "coordinates": [[[-37.6103, -11.1447], [-37.60972, -11.14553], [-37.60876, -11.14604], [-37.61383, -11.15003], [-37.61512, -11.14659], [-37.61607, -11.14556], [-37.61604, -11.14529], [-37.61687, -11.14478], [-37.61697, -11.14421], [-37.61621, -11.14396], [-37.61508, -11.14415], [-37.61179, -11.14378], [-37.61133, -11.14388], [-37.6103, -11.1447]], [[-37.61197, -11.1467], [-37.61356, -11.14724], [-37.61348, -11.14889], [-37.61318, -11.14884], [-37.61123, -11.1475], [-37.61126, -11.14732], [-37.61197, -11.1467]]]}}, 
{"type": "Feature", "properties": {"CD_SETOR": "280067005000046", "CD_SIT": "1", "NM_DIST": "Boquim", "NM_SUBDIST": null}, "geometry": {"type": "Polygon", "coordinates": [[[-37.60318, -11.13674], [-37.60846, -11.14579], [-37.60876, -11.14604], [-37.60972, -11.14553], [-37.6103, -11.1447], [-37.60926, -11.14327], [-37.61049, -11.14244], [-37.61088, -11.14297], [-37.61151, -11.14251], [-37.61276, -11.14354], [-37.6136, -11.14257], [-37.61057, -11.14093], [-37.60585, -11.13686], [-37.60392, -11.13661], [-37.60318, -11.13674]]]}}, 
{"type": "Feature", "properties": {"CD_SETOR": "280067005000048", "CD_SIT": "3", "NM_DIST": "Boquim", "NM_SUBDIST": null}, "geometry": {"type": "Polygon", "coordinates": [[[-37.62711, -11.12636], [-37.62491, -11.12819], [-37.62514, -11.1287], [-37.62549, -11.12896], [-37.62767, -11.12716], [-37.62793, -11.1275], [-37.63, -11.12576], [-37.62876, -11.12442], [-37.62681, -11.12593], [-37.62711, -11.12636]]]}}, 
{"type": "Feature", "properties": {"CD_SETOR": "280067005000049", "CD_SIT": "8", "NM_DIST": "Boquim", "NM_SUBDIST": null}, "geometry": {"type": "Polygon", "coordinates": [[[-37.66999, -11.18321], [-37.67041, -11.18303], [-37.67167, -11.18429], [-37.67315, -11.18651], [-37.67443, -11.18741], [-37.67528, -11.18769], [-37.67681, -11.18893], [-37.67739, -11.18923], [-37.67802, -11.18858], [-37.67878, -11.18709], [-37.67884, -11.18547], [-37.6793, -11.18325], [-37.67923, -11.18263], [-37.6803, -11.18115], [-37.68122, -11.17882], [-37.68295, -11.17541], [-37.68436, -11.17356], [-37.68531, -11.17045], [-37.67935, -11.16727], [-37.67833, -11.16693], [-37.67763, -11.16609], [-37.67422, -11.16624], [-37.6718, -11.16426], [-37.67254, -11.16255], [-37.67247, -11.1618], [-37.6723, -11.1617], [-37.66974, -11.16264], [-37.66934, -11.16263], [-37.66637, -11.15864], [-37.66559, -11.15884], [-37.66577, -11.15803], [-37.66539, -11.15754], [-37.66534, -11.15849], [-37.66479, -11.15942], [-37.66222, -11.1614], [-37.66133, -11.16134], [-37.66057, -11.16092], [-37.65994, -11.1608], [-37.65949, -11.16088], [-37.65741, -11.16192], [-37.6571, -11.1624], [-37.6566, -11.16435], [-37.65654, -11.16561], [-37.6562, -11.16623], [-37.65543, -11.1666], [-37.65488, -11.16713], [-37.65469, -11.16844], [-37.65374, -11.16963], [-37.65266, -11.17187], [-37.65276, -11.17399], [-37.65253, -11.17513], [-37.65262, -11.17611], [-37.65414, -11.1802], [-37.65474, -11.1806], [-37.65759, -11.1814], [-37.65892, -11.18041], [-37.65957, -11.18021], [-37.66132, -11.18021], [-37.66534, -11.17928], [-37.66747, -11.18016], [-37.66998, -11.18279], [-37.66999, -11.18321]]]}}, 
{"type": "Feature", "properties": {"CD_SETOR": "280067005000050", "CD_SIT": "3", "NM_DIST": "Boquim", "NM_SUBDIST": null}, "geometry": {"type": "Polygon", "coordinates": [[[-37.59646, -11.15651], [-37.5969, -11.15641], [-37.59804, -11.15537], [-37.59818, -11.15502], [-37.59807, -11.15071], [-37.59679, -11.15256], [-37.59472, -11.15372], [-37.59261, -11.15434], [-37.5939, -11.15593], [-37.59646, -11.15651]]]}}, 
{"type": "Feature", "properties": {"CD_SETOR": "280067005000051", "CD_SIT": "8", "NM_DIST": "Boquim", "NM_SUBDIST": null}, "geometry": {"type": "Polygon", "coordinates": [[[-37.54616, -11.16585], [-37.54694, -11.16644], [-37.54786, -11.16621], [-37.54913, -11.16683], [-37.54931, -11.16708], [-37.55037, -11.16721], [-37.55105, -11.16712], [-37.55222, -11.16773], [-37.55429, -11.16706], [-37.55544, -11.16689], [-37.5567, -11.16553], [-37.56055, -11.16421], [-37.56245, -11.16435], [-37.5637, -11.16389], [-37.56408, -11.16389], [-37.56573, -11.16462], [-37.56602, -11.16503], [-37.56694, -11.16549], [-37.56967, -11.16144], [-37.57047, -11.16049], [-37.57151, -11.1585], [-37.5733, -11.15663], [-37.57342, -11.15569], [-37.57369, -11.15532], [-37.57548, -11.15527], [-37.57634, -11.15485], [-37.57838, -11.1534], [-37.57958, -11.15329], [-37.57563, -11.15197], [-37.57349, -11.15038], [-37.56909, -11.14975], [-37.56609, -11.15114], [-37.56434, -11.15034], [-37.56194, -11.14987], [-37.56007, -11.14863], [-37.55868, -11.14831], [-37.55779, -11.14829], [-37.55706, -11.14772], [-37.55457, -11.14484], [-37.549, -11.14254], [-37.54802, -11.14124], [-37.5471, -11.14119], [-37.54651, -11.14143], [-37.54381, -11.14167], [-37.54339, -11.14186], [-37.54118, -11.14188], [-37.54091, -11.14219], [-37.54092, -11.14262], [-37.54154, -11.14368], [-37.54337, -11.1451], [-37.54545, -11.14629], [-37.54599, -11.14719], [-37.54577, -11.1482], [-37.54623, -11.14888], [-37.54629, -11.1497], [-37.54573, -11.15013], [-37.54437, -11.15037], [-37.543, -11.15166], [-37.54307, -11.15253], [-37.544, -11.15347], [-37.54664, -11.15529], [-37.54729, -11.15553], [-37.54922, -11.15469], [-37.55088, -11.15332], [-37.55164, -11.15323], [-37.55354, -11.15254], [-37.55381, -11.15255], [-37.55435, -11.15298], [-37.55442, -11.15334], [-37.55418, -11.1537], [-37.55387, -11.15501], [-37.55397, -11.15617], [-37.55364, -11.15742], [-37.55331, -11.15771], [-37.55317, -11.15882], [-37.5517, -11.16018], [-37.55052, -11.16055], [-37.54969, -11.16137], [-37.5497, -11.16199], [-37.54818, -11.16336], [-37.54635, -11.16542], [-37.54616, -11.16585]]]}}, 
{"type": "Feature", "properties": {"CD_SETOR": "280067005000052", "CD_SIT": "2", "NM_DIST": "Boquim", "NM_SUBDIST": null}, "geometry": {"type": "Polygon", "coordinates": [[[-37.6024, -11.1263], [-37.60542, -11.13266], [-37.60325, -11.13426], [-37.60383, -11.136], [-37.6049, -11.13547], [-37.60597, -11.13446], [-37.60734, -11.13195], [-37.60721, -11.1309], [-37.60642, -11.12956], [-37.60617, -11.12866], [-37.60597, -11.12859], [-37.60557, -11.12802], [-37.60525, -11.12646], [-37.60478, -11.12522], [-37.60352, -11.12343], [-37.60352, -11.12285], [-37.60318, -11.12284], [-37.60213, -11.12575], [-37.6024, -11.1263]]]}}, 
{"type": "Feature", "properties": {"CD_SETOR": "280067005000053", "CD_SIT": "2", "NM_DIST": "Boquim", "NM_SUBDIST": null}, "geometry": {"type": "Polygon", "coordinates": [[[-37.60734, -11.13195], [-37.60761, -11.13093], [-37.60661, -11.12856], [-37.61081, -11.12297], [-37.60352, -11.12285], [-37.60352, -11.12343], [-37.60478, -11.12522], [-37.60525, -11.12646], [-37.60557, -11.12802], [-37.60597, -11.12859], [-37.60617, -11.12866], [-37.60642, -11.12956], [-37.60721, -11.1309], [-37.60734, -11.13195]]]}}, 
{"type": "Feature", "properties": {"CD_SETOR": "280067005000054", "CD_SIT": "2", "NM_DIST": "Boquim", "NM_SUBDIST": null}, "geometry": {"type": "Polygon", "coordinates": [[[-37.63115, -11.14705], [-37.6327, -11.14629], [-37.63403, -11.14512], [-37.63751, -11.14424], [-37.63903, -11.14359], [-37.64026, -11.14327], [-37.63985, -11.14276], [-37.62813, -11.14472], [-37.62872, -11.14531], [-37.62984, -11.14569], [-37.63115, -11.14705]]]}}, 
{"type": "Feature", "properties": {"CD_SETOR": "280067005000055", "CD_SIT": "2", "NM_DIST": "Boquim", "NM_SUBDIST": null}, "geometry": {"type": "Polygon", "coordinates": [[[-37.64026, -11.14327], [-37.63903, -11.14359], [-37.63751, -11.14424], [-37.63403, -11.14512], [-37.6327, -11.14629], [-37.63115, -11.14705], [-37.63176, -11.14761], [-37.63231, -11.14758], [-37.64068, -11.1438], [-37.64026, -11.14327]]]}}, 
{"type": "Feature", "properties": {"CD_SETOR": "280067005000056", "CD_SIT": "5", "NM_DIST": "Boquim", "NM_SUBDIST": null}, "geometry": {"type": "Polygon", "coordinates": [[[-37.58058, -11.1798], [-37.58135, -11.18098], [-37.58264, -11.1805], [-37.5836, -11.18189], [-37.58983, -11.17859], [-37.59103, -11.17735], [-37.59104, -11.17697], [-37.58058, -11.1798]]]}}, 
{"type": "Feature", "properties": {"CD_SETOR": "280067005000057", "CD_SIT": "5", "NM_DIST": "Boquim", "NM_SUBDIST": null}, "geometry": {"type": "Polygon", "coordinates": [[[-37.5836, -11.18189], [-37.58264, -11.1805], [-37.58135, -11.18098], [-37.58058, -11.1798], [-37.57835, -11.17994], [-37.57774, -11.18611], [-37.57826, -11.18673], [-37.57984, -11.18448], [-37.58038, -11.18398], [-37.5836, -11.18189]]]}}, 
{"type": "Feature", "properties": {"CD_SETOR": "280067005000058", "CD_SIT": "8", "NM_DIST": "Boquim", "NM_SUBDIST": null}, "geometry": {"type": "Polygon", "coordinates": [[[-37.54229, -11.02174], [-37.54345, -11.02435], [-37.54352, -11.02475], [-37.54332, -11.02514], [-37.54343, -11.02577], [-37.54439, -11.02707], [-37.54489, -11.02826], [-37.54569, -11.0287], [-37.54696, -11.03048], [-37.54756, -11.03095], [-37.54749, -11.0314], [-37.54695, -11.03195], [-37.54638, -11.03219], [-37.54633, -11.03251], [-37.54686, -11.033], [-37.54776, -11.03308], [-37.54807, -11.03334], [-37.5478, -11.03451], [-37.54821, -11.03569], [-37.55223, -11.03549], [-37.55239, -11.03728], [-37.55275, -11.03604], [-37.55507, -11.03182], [-37.5555, -11.03017], [-37.5556, -11.02829], [-37.55495, -11.02581], [-37.55211, -11.01828], [-37.54229, -11.02174]]]}}, 
{"type": "Feature", "properties": {"CD_SETOR": "280067005000059", "CD_SIT": "8", "NM_DIST": "Boquim", "NM_SUBDIST": null}, "geometry": {"type": "Polygon", "coordinates": [[[-37.55239, -11.03728], [-37.55223, -11.03549], [-37.54821, -11.03569], [-37.5478, -11.03451], [-37.54807, -11.03334], [-37.54776, -11.03308], [-37.54686, -11.033], [-37.54633, -11.03251], [-37.54638, -11.03219], [-37.54695, -11.03195], [-37.54749, -11.0314], [-37.54756, -11.03095], [-37.54696, -11.03048], [-37.54569, -11.0287], [-37.54489, -11.02826], [-37.54439, -11.02707], [-37.54343, -11.02577], [-37.54332, -11.02514], [-37.54352, -11.02475], [-37.54345, -11.02435], [-37.54229, -11.02174], [-37.5387, -11.0261], [-37.53705, -11.02737], [-37.53361, -11.02784], [-37.52975, -11.02789], [-37.52876, -11.053], [-37.52994, -11.05281], [-37.53112, -11.05307], [-37.53317, -11.05386], [-37.53671, -11.05374], [-37.54094, -11.05506], [-37.54153, -11.05572], [-37.542, -11.05583], [-37.54299, -11.05577], [-37.54907, -11.05419], [-37.55244, -11.05397], [-37.55222, -11.03787], [-37.55239, -11.03728]]]}}]}