{"type": "FeatureCollection", "features": [
{"type": "Feature", "properties": {"CD_SETOR": "290230205000002", "CD_SIT": "1", "NM_DIST": "Aratuípe", "NM_SUBDIST": null}, "geometry": {"type": "Polygon", "coordinates": [[[-39.00038, -13.0741], [-38.99879, -13.07721], [-38.99796, -13.07842], [-38.99834, -13.07876], [-38.99978, -13.07811], [-39.00093, -13.0778], [-39.00109, -13.07861], [-39.00126, -13.07864], [-39.00141, -13.07796], [-39.00203, -13.07759], [-39.0023, -13.07721], [-39.00316, -13.07686], [-39.00205, -13.07615], [-39.00189, -13.07652], [-39.0015, -13.07634], [-39.00073, -13.07653], [-39.00055, -13.07494], [-39.00075, -13.0741], [-39.00038, -13.0741]]]}}, 
{"type": "Feature", "properties": {"CD_SETOR": "290230205000003", "CD_SIT": "2", "NM_DIST": "Aratuípe", "NM_SUBDIST": null}, "geometry": {"type": "Polygon", "coordinates": [[[-38.99534, -13.07952], [-38.99326, -13.08251], [-38.99368, -13.08468], [-38.99558, -13.08432], [-38.99823, -13.08286], [-38.99925, -13.08275], [-38.99945, -13.08091], [-38.99789, -13.08101], [-38.99704, -13.08133], [-38.99627, -13.08083], [-38.99879, -13.07721], [-38.99978, -13.07512], [-39.00085, -13.07356], [-39.00042, -13.07346], [-39.00067, -13.07182], [-39.00039, -13.07113], [-38.99662, -13.07368], [-38.99554, -13.0757], [-38.99534, -13.07726], [-38.99534, -13.07952]]]}}, 
{"type": "Feature", "properties": {"CD_SETOR": "290230205000004", "CD_SIT": "8", "NM_DIST": "Aratuípe", "NM_SUBDIST": null}, "geometry": {"type": "Polygon", "coordinates": [[[-39.00905, -13.07788], [-39.00917, -13.07862], [-38.99973, -13.08461], [-38.99663, -13.08919], [-38.99558, -13.08432], [-38.99368, -13.08468], [-38.99326, -13.08251], [-38.99534, -13.07952], [-38.99453, -13.07957], [-38.99373, -13.07916], [-38.99318, -13.0791], [-38.99288, -13.07931], [-38.99209, -13.0805], [-38.9908, -13.08055], [-38.98975, -13.08219], [-38.98979, -13.08261], [-38.99025, -13.08331], [-38.99027, -13.0837], [-38.9901, -13.08393], [-38.98938, -13.08384], [-38.98875, -13.08398], [-38.98828, -13.08465], [-38.98799, -13.08596], [-38.98776, -13.08623], [-38.9864, -13.08653], [-38.98615, -13.08677], [-38.98584, -13.08777], [-38.98563, -13.08789], [-38.98506, -13.08761], [-38.98434, -13.08643], [-38.98408, -13.08631], [-38.98355, -13.08652], [-38.98292, -13.08722], [-38.98212, -13.08816], [-38.98146, -13.08995], [-38.98236, -13.0905], [-38.98264, -13.09098], [-38.98297, -13.09324], [-38.98228, -13.09368], [-38.98047, -13.09316], [-38.97971, -13.09381], [-38.97956, -13.09436], [-38.97977, -13.09524], [-38.98099, -13.09642], [-38.98097, -13.09794], [-38.98106, -13.09823], [-38.98133, -13.09838], [-38.98169, -13.09844], [-38.98217, -13.09809], [-38.98268, -13.09802], [-38.98306, -13.09815], [-38.98342, -13.09851], [-38.98394, -13.09851], [-38.98411, -13.09844], [-38.98436, -13.09785], [-38.9848, -13.09764], [-38.985, -13.09766], [-38.98554, -13.09813], [-38.98584, -13.09815], [-38.9863, -13.09796], [-38.98655, -13.09739], [-38.98678, -13.09728], [-38.98735, -13.09737], [-38.98767, -13.09796], [-38.98868, -13.09798], [-38.98891, -13.09811], [-38.98887, -13.09846], [-38.98791, -13.09967], [-38.98819, -13.10003], [-38.98952, -13.10084], [-38.98979, -13.10135], [-38.99053, -13.10172], [-38.99145, -13.10343], [-38.992, -13.10331], [-38.99329, -13.10529], [-38.99407, -13.10557], [-38.99466, -13.10635], [-38.9952, -13.1065], [-38.99629, -13.10592], [-38.99669, -13.1054], [-38.99698, -13.1027], [-38.99722, -13.10196], [-38.99795, -13.10152], [-38.99906, -13.10127], [-39.00019, -13.1006], [-39.00109, -13.10053], [-39.00556, -13.10074], [-39.00616, -13.10058], [-39.00755, -13.10081], [-39.00882, -13.12755], [-39.00985, -13.12634], [-39.01063, -13.12611], [-39.0117, -13.12505], [-39.01205, -13.12521], [-39.01227, -13.12658], [-39.01248, -13.12694], [-39.01282, -13.12691], [-39.01395, -13.12633], [-39.01433, -13.12642], [-39.01481, -13.12684], [-39.01514, -13.12685], [-39.01563, -13.1261], [-39.01606, -13.12584], [-39.01689, -13.12564], [-39.01728, -13.1253], [-39.01749, -13.12482], [-39.01794, -13.12221], [-39.01874, -13.12149], [-39.0219, -13.12173], [-39.02335, -13.12227], [-39.02448, -13.12334], [-39.02579, -13.12341], [-39.0261, -13.12322], [-39.02626, -13.12276], [-39.0261, -13.12233], [-39.02558, -13.12172], [-39.0255, -13.12125], [-39.02606, -13.12051], [-39.02809, -13.11951], [-39.02966, -13.11918], [-39.03236, -13.11909], [-39.03392, -13.11814], [-39.03467, -13.11792], [-39.03509, -13.11796], [-39.0357, -13.11846], [-39.03726, -13.12039], [-39.0376, -13.12213], [-39.03791, -13.12271], [-39.0384, -13.12278], [-39.03918, -13.12247], [-39.0407, -13.12269], [-39.04315, -13.12263], [-39.04414, -13.12288], [-39.0446, -13.12342], [-39.0447, -13.12455], [-39.04519, -13.12553], [-39.04518, -13.12602], [-39.04497, -13.12639], [-39.04395, -13.12669], [-39.04314, -13.12664], [-39.04046, -13.12564], [-39.04001, -13.12577], [-39.03894, -13.12672], [-39.03886, -13.12722], [-39.03912, -13.12847], [-39.03896, -13.12978], [-39.03926, -13.13037], [-39.04073, -13.13088], [-39.04089, -13.13086], [-39.04137, -13.13025], [-39.04302, -13.13033], [-39.04388, -13.1311], [-39.04466, -13.13269], [-39.04542, -13.13353], [-39.04741, -13.13358], [-39.04811, -13.1339], [-39.04861, -13.13391], [-39.04909, -13.1337], [-39.05029, -13.13262], [-39.05147, -13.13257], [-39.05418, -13.13362], [-39.0556, -13.13444], [-39.0573, -13.13505], [-39.05961, -13.13477], [-39.06132, -13.13495], [-39.06316, -13.13484], [-39.06376, -13.13497], [-39.06492, -13.13563], [-39.06531, -13.13523], [-39.06526, -13.13355], [-39.06556, -13.13309], [-39.06594, -13.13294], [-39.06632, -13.13329], [-39.06642, -13.13431], [-39.06712, -13.13461], [-39.06744, -13.13504], [-39.06733, -13.13623], [-39.06757, -13.13679], [-39.06782, -13.13684], [-39.06846, -13.13619], [-39.06884, -13.13619], [-39.06914, -13.13657], [-39.06928, -13.13783], [-39.06989, -13.13805], [-39.07073, -13.1388], [-39.07171, -13.13885], [-39.07289, -13.13927], [-39.07378, -13.13878], [-39.0748, -13.13758], [-39.07331, -13.1354], [-39.07331, -13.13471], [-39.07413, -13.13154], [-39.07467, -13.13073], [-39.07554, -13.13005], [-39.07613, -13.12926], [-39.07604, -13.12774], [-39.07685, -13.12664], [-39.0777, -13.12626], [-39.08021, -13.12652], [-39.08113, -13.12631], [-39.08126, -13.1255], [-39.08047, -13.12375], [-39.08103, -13.12209], [-39.08139, -13.12034], [-39.08041, -13.11932], [-39.0801, -13.1192], [-39.0765, -13.11936], [-39.07403, -13.11804], [-39.07364, -13.11771], [-39.07252, -13.11584], [-39.07245, -13.11517], [-39.07295, -13.11404], [-39.07324, -13.11279], [-39.07297, -13.11238], [-39.07189, -13.11223], [-39.07131, -13.11232], [-39.07024, -13.1121], [-39.06894, -13.11153], [-39.0673, -13.1116], [-39.06604, -13.11193], [-39.06506, -13.11158], [-39.06482, -13.11127], [-39.06475, -13.11038], [-39.06406, -13.10877], [-39.06292, -13.10777], [-39.0619, -13.10752], [-39.06038, -13.10675], [-39.05946, -13.10604], [-39.05793, -13.10579], [-39.05764, -13.10558], [-39.05733, -13.10435], [-39.05742, -13.10302], [-39.05718, -13.10246], [-39.05691, -13.10238], [-39.05594, -13.1026], [-39.05486, -13.10253], [-39.05405, -13.10134], [-39.05392, -13.10048], [-39.05196, -13.10037], [-39.05145, -13.1002], [-39.05091, -13.09979], [-39.05073, -13.09867], [-39.04969, -13.09788], [-39.04949, -13.09692], [-39.04989, -13.09595], [-39.05218, -13.09434], [-39.05221, -13.09323], [-39.05132, -13.09244], [-39.05078, -13.09131], [-39.05067, -13.08983], [-39.05106, -13.08825], [-39.05223, -13.08637], [-39.0523, -13.08604], [-39.0521, -13.08561], [-39.05029, -13.08589], [-39.04983, -13.08581], [-39.04887, -13.08511], [-39.04861, -13.08441], [-39.04813, -13.08381], [-39.04718, -13.08372], [-39.04641, -13.08332], [-39.04412, -13.08342], [-39.04289, -13.08306], [-39.04156, -13.08235], [-39.04, -13.08087], [-39.03846, -13.08023], [-39.03765, -13.0793], [-39.03514, -13.07885], [-39.03367, -13.0795], [-39.03305, -13.07944], [-39.03175, -13.07884], [-39.03105, -13.07803], [-39.02987, -13.07706], [-39.02963, -13.07701], [-39.02897, -13.07694], [-39.02729, -13.07721], [-39.02622, -13.07675], [-39.0253, -13.07714], [-39.0232, -13.07666], [-39.02251, -13.07724], [-39.02023, -13.07753], [-39.01865, -13.07796], [-39.01736, -13.07872], [-39.01579, -13.07866], [-39.01316, -13.07915], [-39.01231, -13.07888], [-39.0117, -13.07797], [-39.01144, -13.07783], [-39.01073, -13.07773], [-39.01012, -13.07795], [-39.00933, -13.07775], [-39.00905, -13.07788]]]}}, 
{"type": "Feature", "properties": {"CD_SETOR": "290230205000005", "CD_SIT": "8", "NM_DIST": "Aratuípe", "NM_SUBDIST": null}, "geometry": {"type": "Polygon", "coordinates": [[[-39.05574, -13.08896], [-39.05486, -13.08948], [-39.0545, -13.08992], [-39.05412, -13.091], [-39.05378, -13.09135], [-39.05202, -13.09141], [-39.05101, -13.09171], [-39.05132, -13.09244], [-39.05221, -13.09323], [-39.05218, -13.09434], [-39.04989, -13.09595], [-39.04949, -13.09692], [-39.04969, -13.09788], [-39.05073, -13.09867], [-39.05091, -13.09979], [-39.05145, -13.1002], [-39.05196, -13.10037], [-39.05392, -13.10048], [-39.05405, -13.10134], [-39.05486, -13.10253], [-39.05594, -13.1026], [-39.05691, -13.10238], [-39.05718, -13.10246], [-39.05742, -13.10302], [-39.05733, -13.10435], [-39.05764, -13.10558], [-39.05793, -13.10579], [-39.05946, -13.10604], [-39.06038, -13.10675], [-39.0619, -13.10752], [-39.06292, -13.10777], [-39.06406, -13.10877], [-39.06475, -13.11038], [-39.06482, -13.11127], [-39.06506, -13.11158], [-39.06604, -13.11193], [-39.0673, -13.1116], [-39.06894, -13.11153], [-39.07024, -13.1121], [-39.07131, -13.11232], [-39.07189, -13.11223], [-39.07297, -13.11238], [-39.07324, -13.11279], [-39.07295, -13.11404], [-39.07245, -13.11517], [-39.07252, -13.11584], [-39.07364, -13.11771], [-39.07403, -13.11804], [-39.0765, -13.11936], [-39.0801, -13.1192], [-39.08041, -13.11932], [-39.08139, -13.12034], [-39.08103, -13.12209], [-39.08047, -13.12375], [-39.08126, -13.1255], [-39.08113, -13.12631], [-39.08021, -13.12652], [-39.0777, -13.12626], [-39.07685, -13.12664], [-39.07604, -13.12774], [-39.07613, -13.12926], [-39.07554, -13.13005], [-39.07467, -13.13073], [-39.07413, -13.13154], [-39.07331, -13.13471], [-39.07331, -13.1354], [-39.0748, -13.13758], [-39.07766, -13.13595], [-39.07814, -13.13624], [-39.07832, -13.13698], [-39.07894, -13.13708], [-39.07927, -13.13803], [-39.07947, -13.13818], [-39.0799, -13.13816], [-39.08011, -13.13712], [-39.08056, -13.13699], [-39.08077, -13.1376], [-39.08044, -13.13837], [-39.08042, -13.13892], [-39.08072, -13.13933], [-39.08106, -13.13939], [-39.0825, -13.13896], [-39.08415, -13.13923], [-39.08553, -13.13923], [-39.08625, -13.14058], [-39.08743, -13.1412], [-39.08779, -13.14194], [-39.08826, -13.14242], [-39.08926, -13.14271], [-39.08988, -13.14357], [-39.09046, -13.14367], [-39.09107, -13.14337], [-39.09162, -13.14343], [-39.09238, -13.14424], [-39.09291, -13.14446], [-39.0933, -13.14422], [-39.09338, -13.1436], [-39.09318, -13.14292], [-39.09237, -13.14178], [-39.0924, -13.14105], [-39.09267, -13.14082], [-39.09334, -13.141], [-39.09452, -13.14215], [-39.0952, -13.14245], [-39.09566, -13.14243], [-39.0981, -13.14048], [-39.09942, -13.14015], [-39.1003, -13.13921], [-39.10101, -13.13913], [-39.102, -13.13994], [-39.10348, -13.13961], [-39.1039, -13.13941], [-39.10475, -13.13842], [-39.10592, -13.13824], [-39.1074, -13.13733], [-39.10951, -13.13692], [-39.10957, -13.13663], [-39.10925, -13.13585], [-39.10951, -13.13536], [-39.11025, -13.13565], [-39.11057, -13.13561], [-39.11103, -13.13499], [-39.11136, -13.13488], [-39.1117, -13.13499], [-39.11225, -13.1355], [-39.1127, -13.13555], [-39.11299, -13.13545], [-39.11335, -13.13504], [-39.11343, -13.1347], [-39.11326, -13.13409], [-39.11346, -13.13381], [-39.11388, -13.13385], [-39.11448, -13.13436], [-39.11497, -13.13426], [-39.11512, -13.13382], [-39.11565, -13.13314], [-39.11586, -13.13251], [-39.1152, -13.12961], [-39.11522, -13.12873], [-39.11577, -13.12673], [-39.11659, -13.12533], [-39.11653, -13.12499], [-39.11613, -13.12463], [-39.11607, -13.12435], [-39.11626, -13.12392], [-39.11807, -13.12312], [-39.1185, -13.12234], [-39.1188, -13.12099], [-39.11872, -13.11771], [-39.11887, -13.11726], [-39.11783, -13.11706], [-39.11727, -13.11714], [-39.11498, -13.11831], [-39.11421, -13.11772], [-39.11321, -13.11731], [-39.11267, -13.11722], [-39.11158, -13.11743], [-39.11087, -13.11711], [-39.11099, -13.11618], [-39.11072, -13.11493], [-39.11013, -13.11365], [-39.10924, -13.11257], [-39.10817, -13.10898], [-39.10532, -13.10902], [-39.10251, -13.10939], [-39.10117, -13.10934], [-39.09724, -13.10817], [-39.09427, -13.10906], [-39.09018, -13.10812], [-39.08674, -13.10843], [-39.08536, -13.10821], [-39.08461, -13.10782], [-39.08265, -13.10625], [-39.07962, -13.10495], [-39.07824, -13.10364], [-39.07793, -13.10282], [-39.0781, -13.10077], [-39.07754, -13.09941], [-39.07506, -13.0954], [-39.07372, -13.09358], [-39.0721, -13.09209], [-39.07159, -13.09183], [-39.07094, -13.09182], [-39.06942, -13.09144], [-39.06761, -13.09065], [-39.06706, -13.09072], [-39.06579, -13.09026], [-39.06384, -13.09011], [-39.06288, -13.08975], [-39.06149, -13.08948], [-39.05876, -13.08823], [-39.05687, -13.08856], [-39.05574, -13.08896]]]}}, 
{"type": "Feature", "properties": {"CD_SETOR": "290230205000006", "CD_SIT": "8", "NM_DIST": "Aratuípe", "NM_SUBDIST": null}, "geometry": {"type": "Polygon", "coordinates": [[[-39.09341, -13.03948], [-39.07695, -13.04441], [-39.07592, -13.04513], [-39.07503, -13.0469], [-39.07457, -13.04739], [-39.07346, -13.04812], [-39.07241, -13.04919], [-39.07163, -13.04967], [-39.07001, -13.05011], [-39.06886, -13.05009], [-39.06729, -13.04966], [-39.06555, -13.04988], [-39.06391, -13.04977], [-39.06139, -13.04839], [-39.06071, -13.04822], [-39.05764, -13.04913], [-39.05626, -13.04972], [-39.05546, -13.04976], [-39.05494, -13.04958], [-39.05368, -13.04855], [-39.05291, -13.04825], [-39.04982, -13.04795], [-39.04875, -13.04811], [-39.0466, -13.0488], [-39.04606, -13.04913], [-39.04529, -13.05043], [-39.04488, -13.05076], [-39.0447, -13.0508], [-39.04394, -13.05015], [-39.04277, -13.05009], [-39.04217, -13.04973], [-39.04175, -13.04967], [-39.0414, -13.04976], [-39.04098, -13.05012], [-39.04022, -13.0502], [-39.03921, -13.05101], [-39.03943, -13.05124], [-39.04091, -13.05128], [-39.042, -13.051], [-39.04411, -13.05161], [-39.04474, -13.05164], [-39.04532, -13.05137], [-39.04649, -13.04986], [-39.04779, -13.04932], [-39.04907, -13.04965], [-39.05064, -13.04924], [-39.05213, -13.04948], [-39.05274, -13.04979], [-39.0534, -13.05076], [-39.05467, -13.05208], [-39.05529, -13.05348], [-39.05533, -13.05409], [-39.05482, -13.0557], [-39.055, -13.0577], [-39.05539, -13.05796], [-39.05636, -13.05824], [-39.05681, -13.05799], [-39.05707, -13.05802], [-39.05783, -13.05929], [-39.05913, -13.05968], [-39.06122, -13.06098], [-39.06086, -13.06288], [-39.06096, -13.06334], [-39.06156, -13.06388], [-39.06186, -13.06451], [-39.06175, -13.06527], [-39.06191, -13.06653], [-39.06229, -13.06787], [-39.06288, -13.06879], [-39.06337, -13.06847], [-39.0642, -13.06846], [-39.06457, -13.06884], [-39.06462, -13.06921], [-39.06523, -13.06934], [-39.06541, -13.0698], [-39.06614, -13.07071], [-39.06641, -13.0708], [-39.06671, -13.0717], [-39.06754, -13.07297], [-39.0675, -13.0735], [-39.06728, -13.07381], [-39.0677, -13.07405], [-39.06807, -13.07482], [-39.06851, -13.07492], [-39.06857, -13.07527], [-39.06836, -13.07578], [-39.06843, -13.07673], [-39.0682, -13.07692], [-39.06787, -13.07666], [-39.06755, -13.07739], [-39.06776, -13.07768], [-39.06831, -13.07772], [-39.06845, -13.07813], [-39.06905, -13.07809], [-39.06937, -13.07832], [-39.06898, -13.07868], [-39.06892, -13.07893], [-39.06934, -13.07909], [-39.07005, -13.08], [-39.07061, -13.08007], [-39.0711, -13.08063], [-39.07162, -13.08091], [-39.07187, -13.08157], [-39.07352, -13.08216], [-39.07401, -13.08208], [-39.07378, -13.08238], [-39.07429, -13.08253], [-39.0746, -13.08242], [-39.075, -13.08173], [-39.07514, -13.08194], [-39.07538, -13.08141], [-39.07616, -13.08201], [-39.07614, -13.08187], [-39.07692, -13.08187], [-39.07769, -13.0821], [-39.07821, -13.08196], [-39.07869, -13.08203], [-39.07869, -13.081], [-39.0783, -13.08033], [-39.07949, -13.08005], [-39.08002, -13.07929], [-39.08032, -13.07936], [-39.08102, -13.07869], [-39.08134, -13.07866], [-39.08183, -13.07792], [-39.08228, -13.07799], [-39.08221, -13.07831], [-39.08346, -13.07836], [-39.08373, -13.07857], [-39.0834, -13.07899], [-39.08371, -13.0793], [-39.08395, -13.07919], [-39.08382, -13.07902], [-39.08398, -13.07892], [-39.08427, -13.07902], [-39.08434, -13.07878], [-39.08486, -13.07891], [-39.08499, -13.07873], [-39.08487, -13.07785], [-39.08536, -13.07738], [-39.08551, -13.07699], [-39.08544, -13.07667], [-39.08582, -13.07588], [-39.08544, -13.07515], [-39.08657, -13.07478], [-39.08704, -13.07487], [-39.08768, -13.07467], [-39.08829, -13.07496], [-39.08989, -13.07503], [-39.09024, -13.0755], [-39.09075, -13.0765], [-39.09114, -13.07778], [-39.09106, -13.07873], [-39.09046, -13.08021], [-39.09089, -13.08075], [-39.09186, -13.08099], [-39.09236, -13.08082], [-39.09259, -13.08029], [-39.09427, -13.08096], [-39.09591, -13.08088], [-39.09669, -13.08129], [-39.09734, -13.08189], [-39.09823, -13.08383], [-39.09835, -13.08421], [-39.09828, -13.08486], [-39.09854, -13.08545], [-39.09908, -13.08545], [-39.09941, -13.08604], [-39.10048, -13.08654], [-39.10116, -13.08644], [-39.10155, -13.086], [-39.10188, -13.0859], [-39.10224, -13.08607], [-39.10247, -13.0866], [-39.10281, -13.08629], [-39.10334, -13.08654], [-39.10453, -13.08582], [-39.10529, -13.08565], [-39.10598, -13.08489], [-39.10624, -13.08329], [-39.10627, -13.08146], [-39.10796, -13.07614], [-39.10908, -13.07428], [-39.10996, -13.0738], [-39.11032, -13.07389], [-39.11069, -13.07352], [-39.1111, -13.07347], [-39.11138, -13.07294], [-39.11186, -13.07265], [-39.11216, -13.07057], [-39.11223, -13.06862], [-39.1083, -13.06448], [-39.10679, -13.06362], [-39.10679, -13.06319], [-39.10712, -13.063], [-39.10729, -13.0627], [-39.10723, -13.0621], [-39.10739, -13.06137], [-39.10709, -13.06036], [-39.10681, -13.06041], [-39.10679, -13.06023], [-39.10621, -13.05974], [-39.10552, -13.05965], [-39.1051, -13.05929], [-39.10359, -13.05917], [-39.10255, -13.05824], [-39.10206, -13.05831], [-39.10176, -13.05873], [-39.10149, -13.05873], [-39.10132, -13.05848], [-39.10062, -13.0588], [-39.09963, -13.05864], [-39.09868, -13.05755], [-39.09803, -13.05741], [-39.09778, -13.05699], [-39.0978, -13.05654], [-39.0972, -13.05586], [-39.09729, -13.05539], [-39.09716, -13.05498], [-39.0965, -13.05456], [-39.09615, -13.05459], [-39.09581, -13.05408], [-39.09548, -13.05399], [-39.09515, -13.05362], [-39.09538, -13.05317], [-39.09532, -13.0529], [-39.09511, -13.05274], [-39.09424, -13.05274], [-39.09398, -13.05244], [-39.09401, -13.05174], [-39.09365, -13.05113], [-39.09299, -13.05089], [-39.09281, -13.05073], [-39.09274, -13.05026], [-39.09218, -13.04987], [-39.09191, -13.04848], [-39.09131, -13.0481], [-39.09155, -13.04763], [-39.09207, -13.04495], [-39.09291, -13.04372], [-39.09355, -13.04343], [-39.09417, -13.04277], [-39.094, -13.04176], [-39.0938, -13.04174], [-39.09364, -13.04149], [-39.09365, -13.04116], [-39.09296, -13.04115], [-39.0933, -13.04085], [-39.09313, -13.0407], [-39.09325, -13.04025], [-39.09373, -13.03994], [-39.09374, -13.03938], [-39.09341, -13.03948]]]}}, 
{"type": "Feature", "properties": {"CD_SETOR": "290230205000007", "CD_SIT": "8", "NM_DIST": "Aratuípe", "NM_SUBDIST": null}, "geometry": {"type": "Polygon", "coordinates": [[[-39.09374, -13.03938], [-39.09373, -13.03994], [-39.09325, -13.04025], [-39.09313, -13.0407], [-39.0933, -13.04085], [-39.09296, -13.04115], [-39.09365, -13.04116], [-39.09364, -13.04149], [-39.0938, -13.04174], [-39.094, -13.04176], [-39.09417, -13.04277], [-39.09355, -13.04343], [-39.09291, -13.04372], [-39.09207, -13.04495], [-39.09155, -13.04763], [-39.09131, -13.04797], [-39.09136, -13.0482], [-39.09191, -13.04848], [-39.09218, -13.04987], [-39.09274, -13.05026], [-39.09281, -13.05073], [-39.09299, -13.05089], [-39.09365, -13.05113], [-39.09401, -13.05174], [-39.09398, -13.05244], [-39.09424, -13.05274], [-39.09511, -13.05274], [-39.09532, -13.0529], [-39.09538, -13.05317], [-39.09515, -13.05362], [-39.09548, -13.05399], [-39.09581, -13.05408], [-39.09615, -13.05459], [-39.0965, -13.05456], [-39.09716, -13.05498], [-39.09729, -13.05539], [-39.0972, -13.05586], [-39.0978, -13.05654], [-39.09778, -13.05699], [-39.09803, -13.05741], [-39.09868, -13.05755], [-39.09963, -13.05864], [-39.10062, -13.0588], [-39.10132, -13.05848], [-39.10149, -13.05873], [-39.10176, -13.05873], [-39.10206, -13.05831], [-39.10255, -13.05824], [-39.10359, -13.05917], [-39.1051, -13.05929], [-39.10552, -13.05965], [-39.10621, -13.05974], [-39.10679, -13.06023], [-39.10681, -13.06041], [-39.10709, -13.06036], [-39.10739, -13.06137], [-39.10723, -13.0621], [-39.10729, -13.0627], [-39.10712, -13.063], [-39.10679, -13.06319], [-39.10679, -13.06362], [-39.1083, -13.06448], [-39.11223, -13.06862], [-39.11216, -13.07057], [-39.11186, -13.07265], [-39.11138, -13.07294], [-39.1111, -13.07347], [-39.11069, -13.07352], [-39.11032, -13.07389], [-39.10996, -13.0738], [-39.10908, -13.07428], [-39.10796, -13.07614], [-39.10627, -13.08146], [-39.10624, -13.08329], [-39.10598, -13.08489], [-39.10529, -13.08565], [-39.10453, -13.08582], [-39.10334, -13.08654], [-39.10281, -13.08629], [-39.10247, -13.0866], [-39.10224, -13.08607], [-39.10188, -13.0859], [-39.10083, -13.08656], [-39.09987, -13.08629], [-39.09941, -13.08604], [-39.09916, -13.0855], [-39.09844, -13.08536], [-39.09823, -13.08383], [-39.09734, -13.08189], [-39.09688, -13.08144], [-39.09591, -13.08088], [-39.09427, -13.08096], [-39.09259, -13.08029], [-39.09252, -13.08071], [-39.09519, -13.08146], [-39.09679, -13.08251], [-39.09778, -13.08384], [-39.09755, -13.08488], [-39.09874, -13.08644], [-39.09931, -13.08692], [-39.09996, -13.08697], [-39.10048, -13.08749], [-39.10072, -13.08754], [-39.10181, -13.0873], [-39.10215, -13.08799], [-39.10218, -13.08913], [-39.10269, -13.09001], [-39.10351, -13.08991], [-39.10567, -13.09009], [-39.10814, -13.0898], [-39.11022, -13.08895], [-39.11198, -13.08796], [-39.11287, -13.08635], [-39.11365, -13.08557], [-39.11688, -13.08362], [-39.11945, -13.08263], [-39.12038, -13.08202], [-39.12103, -13.08223], [-39.12298, -13.08358], [-39.12402, -13.08327], [-39.12495, -13.08346], [-39.12524, -13.0829], [-39.12653, -13.08239], [-39.12668, -13.08218], [-39.12653, -13.07992], [-39.12666, -13.07882], [-39.12704, -13.07811], [-39.12718, -13.0773], [-39.12756, -13.07714], [-39.12909, -13.07726], [-39.13007, -13.07658], [-39.13022, -13.0758], [-39.13016, -13.0739], [-39.12975, -13.07268], [-39.13134, -13.07205], [-39.13243, -13.07112], [-39.13309, -13.07078], [-39.13332, -13.07106], [-39.13352, -13.072], [-39.13407, -13.07274], [-39.13669, -13.07456], [-39.13773, -13.07458], [-39.13832, -13.07438], [-39.13914, -13.07447], [-39.14026, -13.07485], [-39.14115, -13.07557], [-39.14207, -13.07604], [-39.14376, -13.07525], [-39.14428, -13.07454], [-39.14517, -13.07253], [-39.14653, -13.07209], [-39.14709, -13.07076], [-39.14783, -13.06971], [-39.14882, -13.06905], [-39.15022, -13.06889], [-39.15153, -13.06896], [-39.15207, -13.06873], [-39.15281, -13.06898], [-39.15429, -13.06901], [-39.15472, -13.0693], [-39.15528, -13.07041], [-39.15589, -13.07089], [-39.1566, -13.07237], [-39.1573, -13.07334], [-39.15815, -13.07329], [-39.15953, -13.0738], [-39.1623, -13.0743], [-39.16313, -13.07468], [-39.16451, -13.07472], [-39.16532, -13.07454], [-39.16646, -13.07375], [-39.16733, -13.07348], [-39.16765, -13.07299], [-39.16727, -13.07163], [-39.16645, -13.07057], [-39.16509, -13.0701], [-39.16361, -13.06891], [-39.16302, -13.06885], [-39.16274, -13.06857], [-39.16253, -13.06715], [-39.1634, -13.06569], [-39.16349, -13.06509], [-39.16336, -13.06416], [-39.16293, -13.06342], [-39.16192, -13.06298], [-39.1615, -13.06257], [-39.16061, -13.0608], [-39.16051, -13.05982], [-39.16104, -13.05859], [-39.1617, -13.05776], [-39.16191, -13.05616], [-39.16226, -13.05547], [-39.16201, -13.05384], [-39.1624, -13.05142], [-39.16266, -13.0507], [-39.16201, -13.04845], [-39.16227, -13.04772], [-39.15297, -13.04056], [-39.15081, -13.04136], [-39.14705, -13.04217], [-39.14564, -13.04222], [-39.14466, -13.04249], [-39.14397, -13.04311], [-39.14343, -13.04407], [-39.14284, -13.04467], [-39.1411, -13.04485], [-39.14065, -13.04516], [-39.14032, -13.04658], [-39.1395, -13.04785], [-39.13894, -13.04838], [-39.13846, -13.04867], [-39.13695, -13.04865], [-39.13618, -13.04899], [-39.13592, -13.04974], [-39.13597, -13.05065], [-39.137, -13.05278], [-39.13784, -13.05521], [-39.138, -13.05592], [-39.13791, -13.05654], [-39.13711, -13.05703], [-39.13656, -13.05794], [-39.13557, -13.05852], [-39.13515, -13.06015], [-39.13464, -13.06047], [-39.1337, -13.06061], [-39.13333, -13.06094], [-39.13253, -13.06127], [-39.13098, -13.06254], [-39.13052, -13.06341], [-39.13007, -13.06533], [-39.1298, -13.0656], [-39.12919, -13.0657], [-39.12826, -13.06551], [-39.12685, -13.06553], [-39.12621, -13.06513], [-39.12334, -13.06076], [-39.1222, -13.05962], [-39.12169, -13.05933], [-39.11987, -13.05968], [-39.11873, -13.05951], [-39.11835, -13.05935], [-39.11714, -13.05808], [-39.11736, -13.05698], [-39.11818, -13.05505], [-39.11941, -13.05091], [-39.11938, -13.05047], [-39.11887, -13.04916], [-39.1188, -13.04788], [-39.11933, -13.0452], [-39.11926, -13.04446], [-39.11895, -13.04373], [-39.1184, -13.043], [-39.11788, -13.04146], [-39.11756, -13.04113], [-39.11615, -13.04055], [-39.11498, -13.04043], [-39.11375, -13.03902], [-39.1125, -13.03869], [-39.11079, -13.03869], [-39.10903, -13.03792], [-39.10747, -13.03836], [-39.105, -13.03963], [-39.10234, -13.03967], [-39.10088, -13.04081], [-39.09861, -13.04108], [-39.09719, -13.0416], [-39.09631, -13.04142], [-39.09555, -13.04032], [-39.09455, -13.03994], [-39.09392, -13.03933], [-39.09374, -13.03938]]]}}, 
{"type": "Feature", "properties": {"CD_SETOR": "290230205000008", "CD_SIT": "8", "NM_DIST": "Aratuípe", "NM_SUBDIST": null}, "geometry": {"type": "Polygon", "coordinates": [[[-39.1573, -13.07334], [-39.15625, -13.07388], [-39.1556, -13.07552], [-39.15464, -13.07616], [-39.15385, -13.07708], [-39.15306, -13.07728], [-39.15191, -13.07824], [-39.15118, -13.07893], [-39.15073, -13.07979], [-39.15068, -13.08061], [-39.15191, -13.08155], [-39.15272, -13.08286], [-39.15279, -13.08365], [-39.15252, -13.08619], [-39.15147, -13.08674], [-39.15077, -13.08683], [-39.14957, -13.08752], [-39.14915, -13.08799], [-39.14822, -13.08965], [-39.14752, -13.08994], [-39.14679, -13.09071], [-39.14581, -13.09103], [-39.1445, -13.09111], [-39.14356, -13.09144], [-39.1423, -13.09156], [-39.14228, -13.09175], [-39.14325, -13.09249], [-39.14334, -13.09293], [-39.14192, -13.09311], [-39.141, -13.093], [-39.14053, -13.09345], [-39.14008, -13.09355], [-39.14025, -13.09427], [-39.14063, -13.09459], [-39.14183, -13.09468], [-39.14215, -13.09485], [-39.14368, -13.09715], [-39.14426, -13.09741], [-39.14539, -13.09659], [-39.14666, -13.0967], [-39.14799, -13.09636], [-39.14934, -13.09521], [-39.15104, -13.09585], [-39.15243, -13.09567], [-39.15354, -13.09608], [-39.15713, -13.09507], [-39.1575, -13.09533], [-39.15804, -13.09606], [-39.15873, -13.09606], [-39.15921, -13.09556], [-39.1599, -13.09375], [-39.16002, -13.09248], [-39.15963, -13.09173], [-39.15959, -13.09116], [-39.16066, -13.08889], [-39.1632, -13.08761], [-39.16401, -13.08614], [-39.16466, -13.08544], [-39.16647, -13.0841], [-39.16832, -13.08375], [-39.16886, -13.08266], [-39.16935, -13.08257], [-39.16975, -13.08311], [-39.16982, -13.08374], [-39.16924, -13.08501], [-39.16945, -13.08569], [-39.16987, -13.08589], [-39.17128, -13.0859], [-39.17164, -13.0862], [-39.17226, -13.08727], [-39.17367, -13.08787], [-39.17441, -13.0897], [-39.17429, -13.09149], [-39.17451, -13.09211], [-39.17503, -13.09269], [-39.1762, -13.09325], [-39.17654, -13.0936], [-39.17651, -13.09399], [-39.17579, -13.09445], [-39.17563, -13.09498], [-39.17485, -13.09576], [-39.17461, -13.09746], [-39.17413, -13.09851], [-39.17452, -13.09921], [-39.17608, -13.10025], [-39.17629, -13.10067], [-39.17639, -13.10179], [-39.17598, -13.10317], [-39.17663, -13.10459], [-39.17675, -13.10534], [-39.17706, -13.10558], [-39.17769, -13.10537], [-39.17807, -13.10546], [-39.17891, -13.10671], [-39.17941, -13.10705], [-39.18135, -13.10728], [-39.18223, -13.1065], [-39.18266, -13.10643], [-39.18298, -13.10662], [-39.18334, -13.10734], [-39.18352, -13.1074], [-39.18383, -13.10698], [-39.18421, -13.10686], [-39.18424, -13.10751], [-39.1855, -13.10768], [-39.18595, -13.10825], [-39.18669, -13.10871], [-39.18903, -13.10916], [-39.18997, -13.10884], [-39.19076, -13.10776], [-39.19133, -13.10626], [-39.19184, -13.10588], [-39.19275, -13.10561], [-39.19345, -13.1049], [-39.19322, -13.10388], [-39.19333, -13.10321], [-39.19453, -13.10296], [-39.19494, -13.10265], [-39.19494, -13.10168], [-39.19408, -13.09951], [-39.19426, -13.09883], [-39.19453, -13.09862], [-39.19593, -13.09834], [-39.19636, -13.09793], [-39.19647, -13.09756], [-39.19637, -13.09701], [-39.19591, -13.09648], [-39.19585, -13.09613], [-39.19623, -13.0954], [-39.19592, -13.0946], [-39.19621, -13.09374], [-39.19588, -13.09296], [-39.19592, -13.09144], [-39.19557, -13.09093], [-39.19553, -13.09044], [-39.19586, -13.08993], [-39.19669, -13.08967], [-39.19707, -13.08935], [-39.19703, -13.08837], [-39.19778, -13.08768], [-39.19784, -13.0871], [-39.1984, -13.0858], [-39.19819, -13.0853], [-39.19745, -13.08473], [-39.19602, -13.08424], [-39.19597, -13.0838], [-39.19693, -13.08313], [-39.19924, -13.08292], [-39.19989, -13.08253], [-39.20012, -13.08185], [-39.19989, -13.0812], [-39.19982, -13.0803], [-39.20104, -13.07927], [-39.20117, -13.07829], [-39.20156, -13.07801], [-39.1745, -13.08254], [-39.1743, -13.08166], [-39.17335, -13.08015], [-39.17304, -13.07883], [-39.17167, -13.07835], [-39.17049, -13.07771], [-39.16935, -13.07764], [-39.16813, -13.07695], [-39.16796, -13.07648], [-39.16786, -13.07397], [-39.16765, -13.07299], [-39.16733, -13.07348], [-39.16646, -13.07375], [-39.16532, -13.07454], [-39.16376, -13.07475], [-39.16313, -13.07468], [-39.1623, -13.0743], [-39.15953, -13.0738], [-39.15815, -13.07329], [-39.1573, -13.07334]]]}}, 
{"type": "Feature", "properties": {"CD_SETOR": "290230205000009", "CD_SIT": "8", "NM_DIST": "Aratuípe", "NM_SUBDIST": null}, "geometry": {"type": "Polygon", "coordinates": [[[-39.02824, -13.04806], [-39.00659, -13.051], [-39.00524, -13.05367], [-39.00527, -13.05444], [-39.00572, -13.05553], [-39.00107, -13.0556], [-39.00017, -13.05537], [-38.99886, -13.05432], [-38.99774, -13.05444], [-38.99503, -13.05415], [-38.99453, -13.05399], [-38.99382, -13.05234], [-38.99357, -13.05207], [-38.99359, -13.05316], [-38.99156, -13.05577], [-38.9919, -13.05865], [-38.99064, -13.06133], [-38.98724, -13.06543], [-38.98558, -13.06943], [-38.98378, -13.071], [-38.98276, -13.07219], [-38.98205, -13.07583], [-38.98206, -13.07803], [-38.98252, -13.07959], [-38.98102, -13.08265], [-38.98143, -13.08655], [-38.98098, -13.08831], [-38.9801, -13.08982], [-38.98146, -13.08995], [-38.98212, -13.08816], [-38.98355, -13.08652], [-38.98387, -13.08635], [-38.98434, -13.08643], [-38.98506, -13.08761], [-38.98563, -13.08789], [-38.98584, -13.08777], [-38.98615, -13.08677], [-38.9864, -13.08653], [-38.98776, -13.08623], [-38.98799, -13.08596], [-38.98828, -13.08465], [-38.98875, -13.08398], [-38.98938, -13.08384], [-38.9901, -13.08393], [-38.99027, -13.0837], [-38.99025, -13.08331], [-38.98979, -13.08261], [-38.98975, -13.08219], [-38.9908, -13.08055], [-38.99209, -13.0805], [-38.99288, -13.07931], [-38.99318, -13.0791], [-38.99373, -13.07916], [-38.99453, -13.07957], [-38.99534, -13.07952], [-38.99534, -13.07726], [-38.99554, -13.0757], [-38.99662, -13.07368], [-39.00063, -13.07097], [-39.00366, -13.06922], [-39.008, -13.07577], [-39.00824, -13.07582], [-39.00823, -13.07649], [-39.00884, -13.07669], [-39.0086, -13.07715], [-39.00892, -13.07716], [-39.00905, -13.07788], [-39.00933, -13.07775], [-39.01012, -13.07795], [-39.01073, -13.07773], [-39.01144, -13.07783], [-39.0117, -13.07797], [-39.01231, -13.07888], [-39.01316, -13.07915], [-39.01579, -13.07866], [-39.01736, -13.07872], [-39.01865, -13.07796], [-39.02023, -13.07753], [-39.02251, -13.07724], [-39.0232, -13.07666], [-39.0253, -13.07714], [-39.02622, -13.07675], [-39.02729, -13.07721], [-39.02897, -13.07694], [-39.02963, -13.07701], [-39.02987, -13.07706], [-39.03105, -13.07803], [-39.03175, -13.07884], [-39.03305, -13.07944], [-39.03367, -13.0795], [-39.03514, -13.07885], [-39.03765, -13.0793], [-39.03846, -13.08023], [-39.04, -13.08087], [-39.04156, -13.08235], [-39.04289, -13.08306], [-39.04412, -13.08342], [-39.04641, -13.08332], [-39.04718, -13.08372], [-39.04813, -13.08381], [-39.04861, -13.08441], [-39.04887, -13.08511], [-39.04983, -13.08581], [-39.05029, -13.08589], [-39.0521, -13.08561], [-39.0523, -13.08604], [-39.05223, -13.08637], [-39.05106, -13.08825], [-39.05078, -13.08908], [-39.05069, -13.09092], [-39.05101, -13.09171], [-39.05202, -13.09141], [-39.05378, -13.09135], [-39.05412, -13.091], [-39.0545, -13.08992], [-39.05486, -13.08948], [-39.05574, -13.08896], [-39.05588, -13.08862], [-39.05652, -13.0882], [-39.05798, -13.08753], [-39.05906, -13.08639], [-39.06036, -13.08647], [-39.06085, -13.08604], [-39.06254, -13.08581], [-39.064, -13.08625], [-39.06809, -13.08647], [-39.06817, -13.08637], [-39.0678, -13.08582], [-39.06789, -13.08534], [-39.06802, -13.08507], [-39.06856, -13.085], [-39.06872, -13.08446], [-39.06936, -13.08346], [-39.06849, -13.08286], [-39.06644, -13.08224], [-39.06581, -13.08132], [-39.06593, -13.07983], [-39.06471, -13.07825], [-39.06465, -13.07795], [-39.06499, -13.07718], [-39.06499, -13.07397], [-39.06516, -13.07336], [-39.06432, -13.07157], [-39.06403, -13.06981], [-39.06304, -13.06901], [-39.06224, -13.06772], [-39.06175, -13.06527], [-39.06186, -13.06451], [-39.06156, -13.06388], [-39.06096, -13.06334], [-39.06086, -13.06288], [-39.06122, -13.06098], [-39.05913, -13.05968], [-39.05783, -13.05929], [-39.05707, -13.05802], [-39.05681, -13.05799], [-39.05636, -13.05824], [-39.05539, -13.05796], [-39.055, -13.0577], [-39.05482, -13.0557], [-39.05533, -13.05409], [-39.05529, -13.05348], [-39.05467, -13.05208], [-39.0534, -13.05076], [-39.05274, -13.04979], [-39.05213, -13.04948], [-39.05064, -13.04924], [-39.04907, -13.04965], [-39.04779, -13.04932], [-39.04649, -13.04986], [-39.04532, -13.05137], [-39.04443, -13.05164], [-39.042, -13.051], [-39.04119, -13.05128], [-39.03943, -13.05124], [-39.03921, -13.05101], [-39.03683, -13.05017], [-39.03625, -13.04976], [-39.03545, -13.04735], [-39.0334, -13.04735], [-39.02824, -13.04806]]]}}, 
{"type": "Feature", "properties": {"CD_SETOR": "290230205000010", "CD_SIT": "8", "NM_DIST": "Aratuípe", "NM_SUBDIST": null}, "geometry": {"type": "Polygon", "coordinates": [[[-39.05574, -13.08896], [-39.05687, -13.08856], [-39.05876, -13.08823], [-39.06149, -13.08948], [-39.06288, -13.08975], [-39.06384, -13.09011], [-39.06579, -13.09026], [-39.06706, -13.09072], [-39.06761, -13.09065], [-39.06942, -13.09144], [-39.07094, -13.09182], [-39.07159, -13.09183], [-39.0721, -13.09209], [-39.07372, -13.09358], [-39.07506, -13.0954], [-39.07754, -13.09941], [-39.0781, -13.10077], [-39.07793, -13.10282], [-39.07824, -13.10364], [-39.07962, -13.10495], [-39.08265, -13.10625], [-39.08461, -13.10782], [-39.08536, -13.10821], [-39.08674, -13.10843], [-39.09018, -13.10812], [-39.09427, -13.10906], [-39.09724, -13.10817], [-39.10117, -13.10934], [-39.10308, -13.10939], [-39.10442, -13.10914], [-39.1039, -13.10871], [-39.10373, -13.10819], [-39.10465, -13.10577], [-39.1049, -13.10319], [-39.10448, -13.10205], [-39.10384, -13.10186], [-39.10279, -13.10228], [-39.1014, -13.10233], [-39.10049, -13.103], [-39.09774, -13.10321], [-39.09652, -13.10306], [-39.09493, -13.1024], [-39.09441, -13.10111], [-39.09351, -13.0998], [-39.09275, -13.09913], [-39.09243, -13.09849], [-39.09124, -13.09762], [-39.09083, -13.0959], [-39.09049, -13.09538], [-39.08984, -13.09498], [-39.08764, -13.09505], [-39.08574, -13.09404], [-39.08528, -13.09249], [-39.08537, -13.09112], [-39.08521, -13.09044], [-39.08407, -13.08836], [-39.08334, -13.08752], [-39.0832, -13.08704], [-39.08226, -13.08602], [-39.08161, -13.08605], [-39.08035, -13.08547], [-39.07979, -13.08538], [-39.07814, -13.08538], [-39.0773, -13.08515], [-39.07415, -13.08518], [-39.07239, -13.0848], [-39.07055, -13.08418], [-39.06995, -13.08369], [-39.06936, -13.08346], [-39.06872, -13.08446], [-39.06856, -13.085], [-39.06802, -13.08507], [-39.06789, -13.08534], [-39.0678, -13.08582], [-39.06817, -13.08637], [-39.06809, -13.08647], [-39.064, -13.08625], [-39.06254, -13.08581], [-39.06085, -13.08604], [-39.06036, -13.08647], [-39.05906, -13.08639], [-39.05798, -13.08753], [-39.05652, -13.0882], [-39.05588, -13.08862], [-39.05574, -13.08896]]]}}, 
{"type": "Feature", "properties": {"CD_SETOR": "290230205000011", "CD_SIT": "8", "NM_DIST": "Aratuípe", "NM_SUBDIST": null}, "geometry": {"type": "Polygon", "coordinates": [[[-39.06288, -13.06879], [-39.06336, -13.06938], [-39.06403, -13.06981], [-39.06432, -13.07157], [-39.06516, -13.07336], [-39.06499, -13.07397], [-39.06499, -13.07718], [-39.06465, -13.07795], [-39.06471, -13.07825], [-39.06593, -13.07983], [-39.06581, -13.08132], [-39.06644, -13.08224], [-39.06849, -13.08286], [-39.07055, -13.08418], [-39.07239, -13.0848], [-39.07415, -13.08518], [-39.0773, -13.08515], [-39.07814, -13.08538], [-39.07979, -13.08538], [-39.08035, -13.08547], [-39.08161, -13.08605], [-39.08247, -13.08614], [-39.0832, -13.08704], [-39.0836, -13.08793], [-39.08407, -13.08836], [-39.08521, -13.09044], [-39.08537, -13.09112], [-39.08528, -13.09249], [-39.08574, -13.09404], [-39.08764, -13.09505], [-39.08984, -13.09498], [-39.09049, -13.09538], [-39.09083, -13.0959], [-39.09124, -13.09762], [-39.09243, -13.09849], [-39.09275, -13.09913], [-39.09351, -13.0998], [-39.09441, -13.10111], [-39.09493, -13.1024], [-39.09652, -13.10306], [-39.09774, -13.10321], [-39.10049, -13.103], [-39.1014, -13.10233], [-39.10279, -13.10228], [-39.10384, -13.10186], [-39.10448, -13.10205], [-39.10485, -13.10289], [-39.1049, -13.10361], [-39.10465, -13.10577], [-39.10374, -13.10842], [-39.10442, -13.10914], [-39.10817, -13.10898], [-39.10924, -13.11257], [-39.11013, -13.11365], [-39.11072, -13.11493], [-39.11099, -13.11618], [-39.11087, -13.11711], [-39.11158, -13.11743], [-39.11267, -13.11722], [-39.11321, -13.11731], [-39.11421, -13.11772], [-39.11498, -13.11831], [-39.11727, -13.11714], [-39.11783, -13.11706], [-39.11887, -13.11726], [-39.11917, -13.11696], [-39.12016, -13.11685], [-39.12028, -13.11652], [-39.12018, -13.11476], [-39.11985, -13.11422], [-39.11875, -13.11375], [-39.11855, -13.11346], [-39.11855, -13.11306], [-39.11935, -13.11218], [-39.11976, -13.11072], [-39.12044, -13.10946], [-39.12107, -13.10899], [-39.12169, -13.10883], [-39.12243, -13.10887], [-39.12284, -13.10872], [-39.12299, -13.10849], [-39.12214, -13.10684], [-39.12159, -13.10652], [-39.12018, -13.10418], [-39.11985, -13.10382], [-39.11932, -13.10357], [-39.11893, -13.10237], [-39.11908, -13.10171], [-39.12084, -13.09983], [-39.12088, -13.09873], [-39.12124, -13.09745], [-39.1216, -13.09693], [-39.12364, -13.09544], [-39.12459, -13.09503], [-39.12686, -13.09327], [-39.12861, -13.09259], [-39.12949, -13.09177], [-39.13028, -13.09145], [-39.13234, -13.09013], [-39.1348, -13.08798], [-39.13453, -13.08715], [-39.13296, -13.08706], [-39.13231, -13.0876], [-39.13171, -13.08767], [-39.13077, -13.08688], [-39.12993, -13.08695], [-39.12935, -13.08621], [-39.12854, -13.08581], [-39.12801, -13.08647], [-39.12729, -13.08682], [-39.1259, -13.08603], [-39.1252, -13.08545], [-39.1251, -13.08528], [-39.1252, -13.08411], [-39.12495, -13.08346], [-39.12402, -13.08327], [-39.12298, -13.08358], [-39.12103, -13.08223], [-39.12038, -13.08202], [-39.11945, -13.08263], [-39.11688, -13.08362], [-39.11365, -13.08557], [-39.11287, -13.08635], [-39.11198, -13.08796], [-39.11022, -13.08895], [-39.10814, -13.0898], [-39.10567, -13.09009], [-39.10351, -13.08991], [-39.10269, -13.09001], [-39.10218, -13.08913], [-39.10215, -13.08799], [-39.10181, -13.0873], [-39.10048, -13.08749], [-39.09996, -13.08697], [-39.09931, -13.08692], [-39.09874, -13.08644], [-39.09755, -13.08488], [-39.09778, -13.08384], [-39.09679, -13.08251], [-39.09519, -13.08146], [-39.09382, -13.08115], [-39.09281, -13.08072], [-39.09243, -13.08066], [-39.09236, -13.08082], [-39.09186, -13.08099], [-39.09089, -13.08075], [-39.09046, -13.08021], [-39.09106, -13.07873], [-39.09114, -13.07778], [-39.09075, -13.0765], [-39.08989, -13.07503], [-39.08829, -13.07496], [-39.08768, -13.07467], [-39.08704, -13.07487], [-39.08657, -13.07478], [-39.08589, -13.07508], [-39.08555, -13.07502], [-39.08544, -13.07515], [-39.08582, -13.07588], [-39.08544, -13.07667], [-39.08551, -13.07699], [-39.08536, -13.07738], [-39.08487, -13.07785], [-39.08499, -13.07873], [-39.08486, -13.07891], [-39.08434, -13.07878], [-39.08427, -13.07902], [-39.08398, -13.07892], [-39.08382, -13.07902], [-39.08395, -13.07919], [-39.08371, -13.0793], [-39.0834, -13.07899], [-39.08373, -13.07857], [-39.08346, -13.07836], [-39.08221, -13.07831], [-39.08228, -13.07799], [-39.08183, -13.07792], [-39.08134, -13.07866], [-39.08102, -13.07869], [-39.08032, -13.07936], [-39.08002, -13.07929], [-39.07949, -13.08005], [-39.0783, -13.08033], [-39.07869, -13.081], [-39.07869, -13.08203], [-39.07821, -13.08196], [-39.07769, -13.0821], [-39.07692, -13.08187], [-39.07614, -13.08187], [-39.07616, -13.08201], [-39.07538, -13.08141], [-39.07514, -13.08194], [-39.075, -13.08173], [-39.0746, -13.08242], [-39.07429, -13.08253], [-39.07378, -13.08238], [-39.07401, -13.08208], [-39.07352, -13.08216], [-39.07187, -13.08157], [-39.07162, -13.08091], [-39.0711, -13.08063], [-39.07061, -13.08007], [-39.07005, -13.08], [-39.06934, -13.07909], [-39.06892, -13.07893], [-39.06898, -13.07868], [-39.06937, -13.07832], [-39.06905, -13.07809], [-39.06845, -13.07813], [-39.06831, -13.07772], [-39.06776, -13.07768], [-39.06755, -13.07739], [-39.06787, -13.07666], [-39.0682, -13.07692], [-39.06843, -13.07673], [-39.06836, -13.07578], [-39.06857, -13.07527], [-39.06851, -13.07492], [-39.06807, -13.07482], [-39.0677, -13.07405], [-39.06728, -13.07381], [-39.0675, -13.0735], [-39.06754, -13.07297], [-39.06671, -13.0717], [-39.06641, -13.0708], [-39.06614, -13.07071], [-39.06541, -13.0698], [-39.06523, -13.06934], [-39.06462, -13.06921], [-39.06457, -13.06884], [-39.0642, -13.06846], [-39.06337, -13.06847], [-39.06288, -13.06879]]]}}, 
{"type": "Feature", "properties": {"CD_SETOR": "290230205000012", "CD_SIT": "8", "NM_DIST": "Aratuípe", "NM_SUBDIST": null}, "geometry": {"type": "Polygon", "coordinates": [[[-39.12495, -13.08346], [-39.1252, -13.08411], [-39.1251, -13.08528], [-39.1259, -13.08603], [-39.12685, -13.08664], [-39.12745, -13.08678], [-39.12823, -13.08628], [-39.12854, -13.08581], [-39.12935, -13.08621], [-39.12993, -13.08695], [-39.13077, -13.08688], [-39.13171, -13.08767], [-39.13231, -13.0876], [-39.13296, -13.08706], [-39.13439, -13.08711], [-39.13458, -13.08721], [-39.1348, -13.08798], [-39.13234, -13.09013], [-39.13028, -13.09145], [-39.12949, -13.09177], [-39.12861, -13.09259], [-39.12686, -13.09327], [-39.12459, -13.09503], [-39.12364, -13.09544], [-39.12227, -13.09642], [-39.1216, -13.09693], [-39.12124, -13.09745], [-39.12088, -13.09873], [-39.12084, -13.09983], [-39.11934, -13.10131], [-39.11908, -13.10171], [-39.11893, -13.10237], [-39.11932, -13.10357], [-39.11985, -13.10382], [-39.12018, -13.10418], [-39.12159, -13.10652], [-39.12214, -13.10684], [-39.12251, -13.10619], [-39.12397, -13.10586], [-39.12436, -13.10492], [-39.12423, -13.10414], [-39.12286, -13.10227], [-39.12278, -13.10144], [-39.12304, -13.10084], [-39.12336, -13.10049], [-39.12378, -13.10034], [-39.12493, -13.10076], [-39.12552, -13.10056], [-39.12611, -13.09981], [-39.12632, -13.09925], [-39.12626, -13.09734], [-39.12671, -13.09696], [-39.12739, -13.09693], [-39.12762, -13.09678], [-39.12935, -13.09495], [-39.13046, -13.09437], [-39.13305, -13.09416], [-39.13378, -13.09391], [-39.13433, -13.09316], [-39.13422, -13.09269], [-39.13364, -13.09196], [-39.134, -13.09148], [-39.13549, -13.09081], [-39.13717, -13.09168], [-39.13788, -13.09185], [-39.13865, -13.09189], [-39.13976, -13.0914], [-39.14009, -13.09139], [-39.14039, -13.09163], [-39.14041, -13.09194], [-39.14008, -13.09355], [-39.14053, -13.09345], [-39.14105, -13.09298], [-39.14192, -13.09311], [-39.14326, -13.09299], [-39.14334, -13.09263], [-39.14228, -13.09175], [-39.1423, -13.09156], [-39.14356, -13.09144], [-39.1445, -13.09111], [-39.14581, -13.09103], [-39.14679, -13.09071], [-39.14752, -13.08994], [-39.14822, -13.08965], [-39.14915, -13.08799], [-39.14957, -13.08752], [-39.15077, -13.08683], [-39.15147, -13.08674], [-39.15247, -13.08624], [-39.15267, -13.08575], [-39.15272, -13.08286], [-39.15191, -13.08155], [-39.15068, -13.08061], [-39.15073, -13.07979], [-39.15118, -13.07893], [-39.15191, -13.07824], [-39.15306, -13.07728], [-39.15385, -13.07708], [-39.15464, -13.07616], [-39.1556, -13.07552], [-39.15625, -13.07388], [-39.1573, -13.07334], [-39.1566, -13.07237], [-39.15589, -13.07089], [-39.15528, -13.07041], [-39.15472, -13.0693], [-39.15441, -13.06905], [-39.15281, -13.06898], [-39.15225, -13.06873], [-39.15153, -13.06896], [-39.15022, -13.06889], [-39.14882, -13.06905], [-39.14783, -13.06971], [-39.14709, -13.07076], [-39.14653, -13.07209], [-39.14517, -13.07253], [-39.14428, -13.07454], [-39.14376, -13.07525], [-39.14207, -13.07604], [-39.14115, -13.07557], [-39.14026, -13.07485], [-39.13914, -13.07447], [-39.13832, -13.07438], [-39.13773, -13.07458], [-39.13669, -13.07456], [-39.13407, -13.07274], [-39.13352, -13.072], [-39.13332, -13.07106], [-39.13309, -13.07078], [-39.13243, -13.07112], [-39.13134, -13.07205], [-39.12975, -13.07268], [-39.13016, -13.0739], [-39.13022, -13.0758], [-39.13007, -13.07658], [-39.12909, -13.07726], [-39.12756, -13.07714], [-39.12718, -13.0773], [-39.12704, -13.07811], [-39.12666, -13.07882], [-39.12653, -13.07992], [-39.12668, -13.08218], [-39.12653, -13.08239], [-39.12524, -13.0829], [-39.12495, -13.08346]]]}}, 
{"type": "Feature", "properties": {"CD_SETOR": "290230205000013", "CD_SIT": "2", "NM_DIST": "Aratuípe", "NM_SUBDIST": null}, "geometry": {"type": "Polygon", "coordinates": [[[-39.00039, -13.07113], [-39.00067, -13.07182], [-39.00042, -13.07346], [-39.00085, -13.07356], [-39.00038, -13.0741], [-39.00075, -13.0741], [-39.00055, -13.07494], [-39.00073, -13.07653], [-39.0015, -13.07634], [-39.00189, -13.07652], [-39.00205, -13.07615], [-39.00316, -13.07686], [-39.00443, -13.07702], [-39.00512, -13.07662], [-39.00583, -13.07643], [-39.00599, -13.07601], [-39.00626, -13.07585], [-39.00706, -13.07616], [-39.00725, -13.0761], [-39.00739, -13.07572], [-39.008, -13.07577], [-39.00366, -13.06922], [-39.00039, -13.07113]]]}}, 
{"type": "Feature", "properties": {"CD_SETOR": "290230205000014", "CD_SIT": "1", "NM_DIST": "Aratuípe", "NM_SUBDIST": null}, "geometry": {"type": "Polygon", "coordinates": [[[-38.99796, -13.07842], [-38.99627, -13.08083], [-38.99696, -13.08132], [-38.99789, -13.08101], [-38.99945, -13.08091], [-39.0015, -13.07916], [-39.00173, -13.07849], [-39.00109, -13.07861], [-39.00093, -13.0778], [-38.99978, -13.07811], [-38.99834, -13.07876], [-38.99796, -13.07842]]]}}, 
{"type": "Feature", "properties": {"CD_SETOR": "290230205000016", "CD_SIT": "1", "NM_DIST": "Aratuípe", "NM_SUBDIST": null}, "geometry": {"type": "Polygon", "coordinates": [[[-38.99558, -13.08432], [-38.99663, -13.08919], [-38.99973, -13.08461], [-38.99922, -13.08362], [-38.99925, -13.08275], [-38.99823, -13.08286], [-38.99558, -13.08432]]]}}, 
{"type": "Feature", "properties": {"CD_SETOR": "290230205000017", "CD_SIT": "2", "NM_DIST": "Aratuípe", "NM_SUBDIST": null}, "geometry": {"type": "Polygon", "coordinates": [[[-39.00316, -13.07686], [-39.0023, -13.07721], [-39.00203, -13.07759], [-39.00141, -13.07796], [-39.00134, -13.07855], [-39.00173, -13.07849], [-39.0015, -13.07916], [-39.00275, -13.08033], [-39.0037, -13.08092], [-39.00434, -13.08169], [-39.00917, -13.07862], [-39.00892, -13.07716], [-39.0086, -13.07715], [-39.00884, -13.07669], [-39.00823, -13.07649], [-39.00818, -13.07577], [-39.00739, -13.07572], [-39.00725, -13.0761], [-39.00706, -13.07616], [-39.00626, -13.07585], [-39.00599, -13.07601], [-39.00583, -13.07643], [-39.00512, -13.07662], [-39.00443, -13.07702], [-39.00316, -13.07686]]]}}, 
{"type": "Feature", "properties": {"CD_SETOR": "290230205000018", "CD_SIT": "2", "NM_DIST": "Aratuípe", "NM_SUBDIST": null}, "geometry": {"type": "Polygon", "coordinates": [[[-38.99945, -13.08091], [-38.99922, -13.08362], [-38.99973, -13.08461], [-39.00434, -13.08169], [-39.0037, -13.08092], [-39.00275, -13.08033], [-39.0015, -13.07916], [-38.99945, -13.08091]]]}}, 
{"type": "Feature", "properties": {"CD_SETOR": "290230210000001", "CD_SIT": "1", "NM_DIST": "Maragogipinho", "NM_SUBDIST": null}, "geometry": {"type": "Polygon", "coordinates": [[[-38.96726, -13.05688], [-38.96783, -13.05531], [-38.96673, -13.05365], [-38.96504, -13.05424], [-38.96644, -13.05621], [-38.96726, -13.05688]]]}}, 
{"type": "Feature", "properties": {"CD_SETOR": "290230210000002", "CD_SIT": "8", "NM_DIST": "Maragogipinho", "NM_SUBDIST": null}, "geometry": {"type": "Polygon", "coordinates": [[[-38.96289, -13.05245], [-38.96546, -13.05135], [-38.97093, -13.05002], [-38.97139, -13.05341], [-38.96783, -13.05531], [-38.96726, -13.05688], [-38.96602, -13.0592], [-38.96107, -13.05837], [-38.95998, -13.05739], [-38.9584, -13.06056], [-38.95684, -13.06203], [-38.95807, -13.06716], [-38.95866, -13.07415], [-38.95911, -13.07744], [-38.95781, -13.08141], [-38.95783, -13.08383], [-38.95759, -13.08646], [-38.95665, -13.08902], [-38.95599, -13.09016], [-38.95667, -13.09068], [-38.95738, -13.09098], [-38.95896, -13.09124], [-38.9608, -13.09068], [-38.96229, -13.09068], [-38.9628, -13.09086], [-38.96375, -13.09029], [-38.96431, -13.08961], [-38.96607, -13.08619], [-38.96666, -13.08595], [-38.96705, -13.08598], [-38.9675, -13.08657], [-38.96761, -13.08732], [-38.96711, -13.08928], [-38.96714, -13.09], [-38.96967, -13.09092], [-38.97184, -13.09151], [-38.97279, -13.09157], [-38.97457, -13.08991], [-38.97627, -13.088], [-38.97683, -13.08759], [-38.97746, -13.08741], [-38.97817, -13.0875], [-38.97942, -13.08952], [-38.9801, -13.08982], [-38.98098, -13.08831], [-38.98143, -13.08655], [-38.98102, -13.08265], [-38.98252, -13.07959], [-38.98206, -13.07803], [-38.98205, -13.07583], [-38.98276, -13.07219], [-38.98378, -13.071], [-38.98558, -13.06943], [-38.98724, -13.06543], [-38.99064, -13.06133], [-38.9919, -13.05865], [-38.99156, -13.05577], [-38.99359, -13.05316], [-38.99357, -13.05207], [-38.99251, -13.0512], [-38.99182, -13.05004], [-38.9917, -13.04949], [-38.98947, -13.04687], [-38.989, -13.04683], [-38.988, -13.04624], [-38.98785, -13.04606], [-38.9881, -13.04566], [-38.9879, -13.04535], [-38.98666, -13.04576], [-38.98608, -13.04616], [-38.98564, -13.04675], [-38.98514, -13.04816], [-38.98396, -13.04865], [-38.98393, -13.04838], [-38.98465, -13.04767], [-38.98431, -13.04624], [-38.98387, -13.04583], [-38.9832, -13.04586], [-38.98258, -13.04665], [-38.98176, -13.04722], [-38.9792, -13.04805], [-38.97848, -13.0477], [-38.97775, -13.04684], [-38.97812, -13.04532], [-38.97807, -13.04467], [-38.97762, -13.04444], [-38.97685, -13.04469], [-38.97423, -13.04623], [-38.97273, -13.04682], [-38.97107, -13.04674], [-38.96676, -13.0456], [-38.96609, -13.04555], [-38.96545, -13.04571], [-38.96476, -13.04688], [-38.96353, -13.04983], [-38.96289, -13.05245]]]}}, 
{"type": "Feature", "properties": {"CD_SETOR": "290230210000003", "CD_SIT": "1", "NM_DIST": "Maragogipinho", "NM_SUBDIST": null}, "geometry": {"type": "Polygon", "coordinates": [[[-38.96221, -13.05391], [-38.95998, -13.05739], [-38.96107, -13.05837], [-38.96602, -13.0592], [-38.96726, -13.05688], [-38.96644, -13.05621], [-38.96504, -13.05424], [-38.96673, -13.05365], [-38.96658, -13.05344], [-38.96557, -13.0524], [-38.96489, -13.05303], [-38.96444, -13.05382], [-38.96475, -13.05402], [-38.96467, -13.05434], [-38.96274, -13.05454], [-38.96221, -13.05391]]]}}, 
{"type": "Feature", "properties": {"CD_SETOR": "290230210000004", "CD_SIT": "1", "NM_DIST": "Maragogipinho", "NM_SUBDIST": null}, "geometry": {"type": "Polygon", "coordinates": [[[-38.96289, -13.05245], [-38.96221, -13.05391], [-38.96274, -13.05454], [-38.96467, -13.05434], [-38.96475, -13.05402], [-38.96444, -13.05382], [-38.96489, -13.05303], [-38.96557, -13.0524], [-38.96658, -13.05344], [-38.96783, -13.05531], [-38.97139, -13.05341], [-38.97093, -13.05002], [-38.96546, -13.05135], [-38.96289, -13.05245]]]}}]}