{"type": "FeatureCollection", "features": [
{"type": "Feature", "properties": {"CD_SETOR": "291270705000001", "CD_SIT": "1", "NM_DIST": "Ibirapitanga", "NM_SUBDIST": null}, "geometry": {"type": "Polygon", "coordinates": [[[-39.36953, -14.16301], [-39.37286, -14.16816], [-39.37388, -14.16891], [-39.3746, -14.16901], [-39.38096, -14.1678], [-39.38011, -14.16599], [-39.38019, -14.16558], [-39.38003, -14.16525], [-39.37977, -14.16515], [-39.37975, -14.16538], [-39.37953, -14.16545], [-39.37931, -14.16506], [-39.37866, -14.16479], [-39.37835, -14.16493], [-39.37812, -14.16478], [-39.37803, -14.16491], [-39.37767, -14.16436], [-39.37656, -14.16412], [-39.37601, -14.16436], [-39.37607, -14.16481], [-39.37467, -14.16493], [-39.37347, -14.16351], [-39.37248, -14.16159], [-39.37086, -14.16133], [-39.36953, -14.16301]]]}}, 
{"type": "Feature", "properties": {"CD_SETOR": "291270705000003", "CD_SIT": "1", "NM_DIST": "Ibirapitanga", "NM_SUBDIST": null}, "geometry": {"type": "Polygon", "coordinates": [[[-39.37463, -14.15641], [-39.3747, -14.15667], [-39.37362, -14.15796], [-39.37448, -14.15921], [-39.3755, -14.16011], [-39.37566, -14.15906], [-39.37614, -14.15795], [-39.37615, -14.15714], [-39.37669, -14.15615], [-39.37781, -14.15317], [-39.37786, -14.15288], [-39.37762, -14.1525], [-39.37748, -14.15261], [-39.37764, -14.15302], [-39.37706, -14.1539], [-39.37561, -14.15493], [-39.3751, -14.15549], [-39.3751, -14.15576], [-39.37539, -14.1559], [-39.37463, -14.15641]]]}}, 
{"type": "Feature", "properties": {"CD_SETOR": "291270705000004", "CD_SIT": "1", "NM_DIST": "Ibirapitanga", "NM_SUBDIST": null}, "geometry": {"type": "Polygon", "coordinates": [[[-39.37247, -14.16081], [-39.37296, -14.1617], [-39.37259, -14.16184], [-39.37315, -14.16297], [-39.3743, -14.16146], [-39.374, -14.16126], [-39.37417, -14.16115], [-39.37367, -14.16027], [-39.37247, -14.16081]]]}}, 
{"type": "Feature", "properties": {"CD_SETOR": "291270705000005", "CD_SIT": "1", "NM_DIST": "Ibirapitanga", "NM_SUBDIST": null}, "geometry": {"type": "Polygon", "coordinates": [[[-39.37035, -14.16126], [-39.37248, -14.16159], [-39.37259, -14.16184], [-39.37296, -14.1617], [-39.37247, -14.16081], [-39.37221, -14.15959], [-39.37137, -14.16041], [-39.3706, -14.16021], [-39.37035, -14.16126]]]}}, 
{"type": "Feature", "properties": {"CD_SETOR": "291270705000006", "CD_SIT": "1", "NM_DIST": "Ibirapitanga", "NM_SUBDIST": null}, "geometry": {"type": "Polygon", "coordinates": [[[-39.36865, -14.1627], [-39.36896, -14.16278], [-39.36884, -14.16308], [-39.36908, -14.16343], [-39.37086, -14.16133], [-39.37007, -14.1612], [-39.36755, -14.16], [-39.36781, -14.16038], [-39.36741, -14.1609], [-39.36865, -14.1627]]]}}, 
{"type": "Feature", "properties": {"CD_SETOR": "291270705000008", "CD_SIT": "8", "NM_DIST": "Ibirapitanga", "NM_SUBDIST": null}, "geometry": {"type": "Polygon", "coordinates": [[[-39.38794, -14.07466], [-39.38841, -14.07453], [-39.38866, -14.07472], [-39.38949, -14.07625], [-39.39093, -14.07668], [-39.39128, -14.07586], [-39.3927, -14.07613], [-39.39307, -14.07537], [-39.3944, -14.07563], [-39.39409, -14.07623], [-39.3939, -14.07788], [-39.39214, -14.07986], [-39.39245, -14.08011], [-39.39286, -14.08232], [-39.39239, -14.08354], [-39.39247, -14.0844], [-39.39188, -14.08562], [-39.39192, -14.0873], [-39.3926, -14.08991], [-39.39319, -14.09111], [-39.39338, -14.09215], [-39.3932, -14.09532], [-39.39211, -14.09616], [-39.39133, -14.09628], [-39.38956, -14.09587], [-39.38884, -14.09618], [-39.38548, -14.09702], [-39.38336, -14.09669], [-39.38377, -14.09874], [-39.38415, -14.09952], [-39.38626, -14.10219], [-39.38688, -14.10328], [-39.38704, -14.10417], [-39.38641, -14.10818], [-39.38692, -14.1089], [-39.387, -14.10934], [-39.38626, -14.11182], [-39.38647, -14.11281], [-39.38682, -14.11344], [-39.38679, -14.11374], [-39.38624, -14.11445], [-39.38556, -14.11493], [-39.38552, -14.11537], [-39.38558, -14.11555], [-39.38612, -14.11585], [-39.38629, -14.117], [-39.38695, -14.11795], [-39.38734, -14.11819], [-39.38781, -14.11899], [-39.38781, -14.11968], [-39.38706, -14.12075], [-39.38533, -14.12248], [-39.38519, -14.12279], [-39.38544, -14.12324], [-39.38541, -14.1235], [-39.385, -14.12425], [-39.38532, -14.12492], [-39.38403, -14.1265], [-39.38252, -14.12773], [-39.38192, -14.12884], [-39.38205, -14.12929], [-39.38182, -14.13053], [-39.38218, -14.13171], [-39.38184, -14.13335], [-39.38141, -14.13407], [-39.38134, -14.13511], [-39.38088, -14.13574], [-39.38025, -14.13622], [-39.37968, -14.1386], [-39.37881, -14.14009], [-39.37875, -14.14279], [-39.37816, -14.14458], [-39.37645, -14.14691], [-39.37668, -14.14891], [-39.37653, -14.14966], [-39.37656, -14.15096], [-39.37766, -14.15255], [-39.37975, -14.15229], [-39.38037, -14.15168], [-39.38053, -14.15107], [-39.38123, -14.15157], [-39.38202, -14.15046], [-39.3824, -14.15097], [-39.38294, -14.15046], [-39.38319, -14.15107], [-39.38362, -14.15135], [-39.38457, -14.15053], [-39.38516, -14.15063], [-39.38566, -14.15047], [-39.38601, -14.15121], [-39.38789, -14.15212], [-39.38848, -14.15115], [-39.38847, -14.15038], [-39.38936, -14.14846], [-39.39098, -14.14747], [-39.3924, -14.14707], [-39.39314, -14.1462], [-39.39426, -14.14585], [-39.39495, -14.14546], [-39.39548, -14.14459], [-39.39552, -14.14381], [-39.39597, -14.14284], [-39.39599, -14.14199], [-39.39657, -14.14152], [-39.39719, -14.14059], [-39.39834, -14.13985], [-39.39915, -14.13608], [-39.3999, -14.135], [-39.40175, -14.13467], [-39.40305, -14.13548], [-39.404, -14.1356], [-39.40421, -14.13501], [-39.40423, -14.13321], [-39.4045, -14.13173], [-39.40665, -14.13024], [-39.4072, -14.12906], [-39.4091, -14.12836], [-39.41106, -14.12731], [-39.41212, -14.12714], [-39.41309, -14.12606], [-39.41381, -14.12585], [-39.41591, -14.1248], [-39.41633, -14.12452], [-39.41697, -14.12284], [-39.41899, -14.12235], [-39.42024, -14.12168], [-39.42017, -14.12119], [-39.42087, -14.12001], [-39.42135, -14.1197], [-39.42379, -14.11957], [-39.42561, -14.11835], [-39.42792, -14.11593], [-39.42985, -14.11426], [-39.43148, -14.1135], [-39.43218, -14.11347], [-39.43317, -14.11303], [-39.4363, -14.11071], [-39.41867, -14.07902], [-39.41829, -14.07824], [-39.41822, -14.07735], [-39.4175, -14.07597], [-39.41686, -14.07501], [-39.41381, -14.07252], [-39.41356, -14.07215], [-39.41312, -14.07101], [-39.41287, -14.06982], [-39.41204, -14.06872], [-39.41203, -14.06755], [-39.41184, -14.06703], [-39.41039, -14.06476], [-39.41054, -14.06314], [-39.4103, -14.06076], [-39.40983, -14.06003], [-39.40884, -14.05906], [-39.40849, -14.05795], [-39.40735, -14.05667], [-39.40656, -14.05532], [-39.40542, -14.0539], [-39.40464, -14.05353], [-39.40414, -14.05367], [-39.40232, -14.0549], [-39.40187, -14.05491], [-39.40162, -14.05533], [-39.40163, -14.05621], [-39.40186, -14.05638], [-39.40162, -14.05662], [-39.40171, -14.05684], [-39.40134, -14.05791], [-39.4014, -14.05815], [-39.40102, -14.05799], [-39.4008, -14.05832], [-39.40134, -14.05872], [-39.40098, -14.05927], [-39.39877, -14.05937], [-39.39775, -14.05849], [-39.3972, -14.05816], [-39.39628, -14.05793], [-39.3956, -14.05733], [-39.39463, -14.05689], [-39.39373, -14.05675], [-39.39291, -14.05641], [-39.39196, -14.05572], [-39.39178, -14.05508], [-39.39095, -14.05518], [-39.39046, -14.05566], [-39.39028, -14.05561], [-39.39012, -14.05628], [-39.38805, -14.05604], [-39.38641, -14.0551], [-39.3861, -14.05464], [-39.38544, -14.05417], [-39.38517, -14.05303], [-39.38403, -14.05557], [-39.38478, -14.06486], [-39.3856, -14.06891], [-39.38794, -14.07466]]]}}, 
{"type": "Feature", "properties": {"CD_SETOR": "291270705000009", "CD_SIT": "8", "NM_DIST": "Ibirapitanga", "NM_SUBDIST": null}, "geometry": {"type": "Polygon", "coordinates": [[[-39.42024, -14.12168], [-39.41899, -14.12235], [-39.41697, -14.12284], [-39.41633, -14.12452], [-39.41381, -14.12585], [-39.41309, -14.12606], [-39.41212, -14.12714], [-39.41106, -14.12731], [-39.4091, -14.12836], [-39.4072, -14.12906], [-39.40665, -14.13024], [-39.4045, -14.13173], [-39.40423, -14.13321], [-39.40421, -14.13501], [-39.404, -14.1356], [-39.40305, -14.13548], [-39.40175, -14.13467], [-39.3999, -14.135], [-39.39915, -14.13608], [-39.39834, -14.13985], [-39.39719, -14.14059], [-39.39657, -14.14152], [-39.39599, -14.14199], [-39.39597, -14.14284], [-39.39552, -14.14381], [-39.39548, -14.14459], [-39.39495, -14.14546], [-39.39426, -14.14585], [-39.39314, -14.1462], [-39.3924, -14.14707], [-39.39098, -14.14747], [-39.38936, -14.14846], [-39.38847, -14.15038], [-39.38848, -14.15115], [-39.38789, -14.15212], [-39.38601, -14.15121], [-39.38566, -14.15047], [-39.38516, -14.15063], [-39.38457, -14.15053], [-39.38362, -14.15135], [-39.38319, -14.15107], [-39.38294, -14.15046], [-39.3824, -14.15097], [-39.38202, -14.15046], [-39.38123, -14.15157], [-39.38053, -14.15107], [-39.38037, -14.15168], [-39.37975, -14.15229], [-39.37766, -14.15255], [-39.38169, -14.16544], [-39.38096, -14.1678], [-39.38244, -14.16794], [-39.39191, -14.17113], [-39.39263, -14.17217], [-39.39443, -14.17591], [-39.396, -14.17674], [-39.39864, -14.18025], [-39.39965, -14.18053], [-39.40309, -14.18234], [-39.4041, -14.18331], [-39.40633, -14.185], [-39.40701, -14.18691], [-39.40823, -14.18657], [-39.4095, -14.18664], [-39.41581, -14.18795], [-39.41784, -14.18894], [-39.41951, -14.18955], [-39.42185, -14.19081], [-39.42726, -14.19261], [-39.42945, -14.19351], [-39.43149, -14.19388], [-39.43342, -14.19452], [-39.43411, -14.19455], [-39.44382, -14.1999], [-39.44423, -14.19922], [-39.44389, -14.19902], [-39.443, -14.19892], [-39.4429, -14.19851], [-39.44311, -14.19736], [-39.44416, -14.19461], [-39.44484, -14.19332], [-39.44697, -14.19179], [-39.44786, -14.19019], [-39.44779, -14.18806], [-39.44833, -14.18704], [-39.44837, -14.18656], [-39.44792, -14.18592], [-39.44803, -14.18521], [-39.44923, -14.18414], [-39.45037, -14.18186], [-39.45066, -14.17921], [-39.45099, -14.17898], [-39.45219, -14.17933], [-39.453, -14.17924], [-39.4545, -14.17699], [-39.45436, -14.17643], [-39.45443, -14.17584], [-39.45411, -14.17541], [-39.45424, -14.17434], [-39.45404, -14.17392], [-39.45332, -14.17286], [-39.45221, -14.17191], [-39.45202, -14.17127], [-39.45073, -14.17102], [-39.45003, -14.1705], [-39.44965, -14.16966], [-39.45002, -14.16743], [-39.45108, -14.16546], [-39.45134, -14.1645], [-39.45181, -14.16361], [-39.45179, -14.16242], [-39.4515, -14.16176], [-39.45171, -14.16102], [-39.45149, -14.16019], [-39.45163, -14.15955], [-39.45158, -14.15821], [-39.452, -14.15485], [-39.45268, -14.15402], [-39.4532, -14.15377], [-39.45327, -14.15299], [-39.4528, -14.15266], [-39.45246, -14.15159], [-39.45254, -14.15086], [-39.4523, -14.15006], [-39.45145, -14.14861], [-39.451, -14.14821], [-39.45074, -14.14757], [-39.45021, -14.14737], [-39.44972, -14.14774], [-39.44892, -14.1476], [-39.44748, -14.14529], [-39.44651, -14.14428], [-39.44641, -14.14393], [-39.44387, -14.1423], [-39.44399, -14.14124], [-39.44703, -14.1388], [-39.44761, -14.13782], [-39.44831, -14.13734], [-39.44848, -14.13682], [-39.44761, -14.13552], [-39.44729, -14.13536], [-39.44679, -14.13541], [-39.44678, -14.13605], [-39.44671, -14.13619], [-39.44637, -14.13618], [-39.44515, -14.13517], [-39.4443, -14.13517], [-39.44311, -14.13426], [-39.44275, -14.13285], [-39.44254, -14.13049], [-39.4413, -14.12919], [-39.4409, -14.12828], [-39.43937, -14.12748], [-39.43808, -14.12544], [-39.43665, -14.12447], [-39.43557, -14.12337], [-39.43505, -14.12308], [-39.43387, -14.12178], [-39.43265, -14.12098], [-39.43115, -14.12053], [-39.43016, -14.11993], [-39.42866, -14.11964], [-39.42735, -14.12008], [-39.426, -14.12031], [-39.42487, -14.1201], [-39.42337, -14.12045], [-39.42198, -14.12051], [-39.42158, -14.12064], [-39.42024, -14.12168]]]}}, 
{"type": "Feature", "properties": {"CD_SETOR": "291270705000010", "CD_SIT": "8", "NM_DIST": "Ibirapitanga", "NM_SUBDIST": null}, "geometry": {"type": "Polygon", "coordinates": [[[-39.453, -14.17924], [-39.45219, -14.17933], [-39.45099, -14.17898], [-39.45066, -14.17921], [-39.45037, -14.18186], [-39.44923, -14.18414], [-39.44803, -14.18521], [-39.44792, -14.18592], [-39.44837, -14.18656], [-39.44833, -14.18704], [-39.44779, -14.18806], [-39.44786, -14.19019], [-39.44697, -14.19179], [-39.44484, -14.19332], [-39.44416, -14.19461], [-39.44311, -14.19736], [-39.4429, -14.19851], [-39.443, -14.19892], [-39.44389, -14.19902], [-39.44423, -14.19922], [-39.44359, -14.20055], [-39.44374, -14.20199], [-39.44389, -14.20224], [-39.44503, -14.20303], [-39.44549, -14.20379], [-39.44545, -14.20524], [-39.44442, -14.20708], [-39.44416, -14.20784], [-39.44427, -14.20904], [-39.44517, -14.21059], [-39.44513, -14.21287], [-39.44573, -14.21402], [-39.44688, -14.21518], [-39.44718, -14.21594], [-39.44699, -14.21659], [-39.44651, -14.2171], [-39.4464, -14.21793], [-39.44555, -14.21902], [-39.44497, -14.22289], [-39.44509, -14.22782], [-39.44472, -14.22819], [-39.4445, -14.22819], [-39.44346, -14.22757], [-39.44287, -14.22747], [-39.44213, -14.22772], [-39.44107, -14.22864], [-39.44138, -14.22922], [-39.44191, -14.23107], [-39.44124, -14.23374], [-39.44132, -14.23512], [-39.44199, -14.23682], [-39.44296, -14.23855], [-39.44353, -14.24106], [-39.44419, -14.24154], [-39.44493, -14.24058], [-39.44655, -14.2392], [-39.44722, -14.23909], [-39.44837, -14.23967], [-39.44914, -14.23975], [-39.44995, -14.23939], [-39.45266, -14.2372], [-39.45406, -14.23644], [-39.45638, -14.23564], [-39.45785, -14.23474], [-39.46205, -14.22905], [-39.46268, -14.2287], [-39.46373, -14.22756], [-39.46537, -14.22734], [-39.4661, -14.22676], [-39.46664, -14.22568], [-39.46639, -14.22491], [-39.46646, -14.2242], [-39.46714, -14.22298], [-39.4677, -14.22278], [-39.46802, -14.22143], [-39.46896, -14.22019], [-39.46824, -14.2179], [-39.46942, -14.21685], [-39.46962, -14.2161], [-39.46906, -14.2154], [-39.46833, -14.2151], [-39.46819, -14.21449], [-39.46905, -14.21251], [-39.46832, -14.21077], [-39.468, -14.2071], [-39.46897, -14.20563], [-39.46974, -14.20547], [-39.46791, -14.20185], [-39.46845, -14.19792], [-39.46722, -14.19666], [-39.46633, -14.19676], [-39.46544, -14.20013], [-39.46288, -14.19441], [-39.46283, -14.19127], [-39.45849, -14.18899], [-39.45785, -14.18898], [-39.45969, -14.18726], [-39.45976, -14.18607], [-39.45928, -14.18555], [-39.45994, -14.18341], [-39.45915, -14.18231], [-39.45694, -14.18016], [-39.45616, -14.17962], [-39.45508, -14.17935], [-39.45557, -14.17778], [-39.45442, -14.17726], [-39.453, -14.17924]]]}}, 
{"type": "Feature", "properties": {"CD_SETOR": "291270705000011", "CD_SIT": "8", "NM_DIST": "Ibirapitanga", "NM_SUBDIST": null}, "geometry": {"type": "Polygon", "coordinates": [[[-39.46819, -14.21449], [-39.46833, -14.2151], [-39.46906, -14.2154], [-39.46962, -14.2161], [-39.46942, -14.21685], [-39.46824, -14.2179], [-39.46896, -14.22019], [-39.46802, -14.22143], [-39.4677, -14.22278], [-39.46714, -14.22298], [-39.46646, -14.2242], [-39.46639, -14.22491], [-39.46664, -14.22568], [-39.4661, -14.22676], [-39.46537, -14.22734], [-39.46373, -14.22756], [-39.46268, -14.2287], [-39.46295, -14.22855], [-39.46493, -14.22866], [-39.46891, -14.23074], [-39.47071, -14.2313], [-39.47416, -14.23177], [-39.47712, -14.23254], [-39.47939, -14.23341], [-39.48107, -14.23459], [-39.48324, -14.23713], [-39.48519, -14.23879], [-39.48677, -14.23968], [-39.48872, -14.24], [-39.49247, -14.23968], [-39.49432, -14.23918], [-39.49561, -14.23844], [-39.49674, -14.23723], [-39.49904, -14.23404], [-39.50004, -14.23293], [-39.50095, -14.23217], [-39.50239, -14.23156], [-39.50423, -14.23043], [-39.50925, -14.22678], [-39.51165, -14.22359], [-39.51553, -14.2207], [-39.51568, -14.21909], [-39.50988, -14.22303], [-39.50964, -14.22285], [-39.50972, -14.22195], [-39.51238, -14.21909], [-39.51185, -14.21824], [-39.51325, -14.21485], [-39.51422, -14.21489], [-39.51495, -14.21516], [-39.5161, -14.21082], [-39.51606, -14.20937], [-39.51555, -14.20776], [-39.51074, -14.19861], [-39.50892, -14.19404], [-39.50835, -14.191], [-39.50756, -14.18812], [-39.50666, -14.1863], [-39.50603, -14.18432], [-39.50441, -14.18178], [-39.50279, -14.17861], [-39.50236, -14.17655], [-39.47454, -14.19075], [-39.47418, -14.19181], [-39.47351, -14.19268], [-39.46845, -14.19792], [-39.46791, -14.20185], [-39.46974, -14.20547], [-39.46897, -14.20563], [-39.468, -14.2071], [-39.46832, -14.21077], [-39.46905, -14.21251], [-39.46819, -14.21449]]]}}, 
{"type": "Feature", "properties": {"CD_SETOR": "291270705000012", "CD_SIT": "5", "NM_DIST": "Ibirapitanga", "NM_SUBDIST": null}, "geometry": {"type": "Polygon", "coordinates": [[[-39.5155, -14.21792], [-39.5126, -14.22055], [-39.51146, -14.22121], [-39.50964, -14.22285], [-39.50988, -14.22303], [-39.51568, -14.21909], [-39.51586, -14.21762], [-39.5155, -14.21792]]]}}, 
{"type": "Feature", "properties": {"CD_SETOR": "291270705000013", "CD_SIT": "5", "NM_DIST": "Ibirapitanga", "NM_SUBDIST": null}, "geometry": {"type": "Polygon", "coordinates": [[[-39.51385, -14.21788], [-39.51399, -14.21801], [-39.51378, -14.21832], [-39.51395, -14.2185], [-39.51517, -14.21751], [-39.5155, -14.21792], [-39.51586, -14.21762], [-39.51564, -14.21682], [-39.51505, -14.21606], [-39.51385, -14.21788]]]}}, 
{"type": "Feature", "properties": {"CD_SETOR": "291270705000014", "CD_SIT": "5", "NM_DIST": "Ibirapitanga", "NM_SUBDIST": null}, "geometry": {"type": "Polygon", "coordinates": [[[-39.50964, -14.22285], [-39.51027, -14.22175], [-39.51195, -14.22021], [-39.51385, -14.21788], [-39.51505, -14.21606], [-39.51488, -14.21573], [-39.51495, -14.21516], [-39.51422, -14.21489], [-39.51325, -14.21485], [-39.51185, -14.21824], [-39.51238, -14.21909], [-39.50972, -14.22195], [-39.50964, -14.22285]]]}}, 
{"type": "Feature", "properties": {"CD_SETOR": "291270705000015", "CD_SIT": "8", "NM_DIST": "Ibirapitanga", "NM_SUBDIST": null}, "geometry": {"type": "Polygon", "coordinates": [[[-39.4363, -14.11071], [-39.43317, -14.11303], [-39.43218, -14.11347], [-39.43148, -14.1135], [-39.42985, -14.11426], [-39.42792, -14.11593], [-39.42561, -14.11835], [-39.42379, -14.11957], [-39.42135, -14.1197], [-39.42087, -14.12001], [-39.42017, -14.12119], [-39.42024, -14.12168], [-39.42158, -14.12064], [-39.42198, -14.12051], [-39.42337, -14.12045], [-39.42487, -14.1201], [-39.426, -14.12031], [-39.42735, -14.12008], [-39.42866, -14.11964], [-39.43016, -14.11993], [-39.43115, -14.12053], [-39.43265, -14.12098], [-39.43387, -14.12178], [-39.43505, -14.12308], [-39.43557, -14.12337], [-39.43665, -14.12447], [-39.43808, -14.12544], [-39.43937, -14.12748], [-39.4409, -14.12828], [-39.4413, -14.12919], [-39.44254, -14.13049], [-39.44275, -14.13285], [-39.44311, -14.13426], [-39.4443, -14.13517], [-39.44515, -14.13517], [-39.44637, -14.13618], [-39.44671, -14.13619], [-39.44678, -14.13605], [-39.44679, -14.13541], [-39.44729, -14.13536], [-39.44761, -14.13552], [-39.44831, -14.13643], [-39.44848, -14.13682], [-39.44831, -14.13734], [-39.44761, -14.13782], [-39.44703, -14.1388], [-39.44399, -14.14124], [-39.44384, -14.14206], [-39.44401, -14.14241], [-39.44641, -14.14393], [-39.44651, -14.14428], [-39.44748, -14.14529], [-39.44892, -14.1476], [-39.44972, -14.14774], [-39.45021, -14.14737], [-39.45074, -14.14757], [-39.451, -14.14821], [-39.45145, -14.14861], [-39.4523, -14.15006], [-39.45254, -14.15086], [-39.45246, -14.15159], [-39.4528, -14.15266], [-39.45327, -14.15299], [-39.4532, -14.15377], [-39.45268, -14.15402], [-39.452, -14.15485], [-39.45158, -14.15821], [-39.45163, -14.15955], [-39.45149, -14.16019], [-39.45171, -14.16102], [-39.4515, -14.16176], [-39.45179, -14.16242], [-39.45181, -14.16361], [-39.45134, -14.1645], [-39.45108, -14.16546], [-39.45002, -14.16743], [-39.44971, -14.16992], [-39.45003, -14.1705], [-39.45073, -14.17102], [-39.45202, -14.17127], [-39.45221, -14.17191], [-39.45332, -14.17286], [-39.45419, -14.17416], [-39.45411, -14.17541], [-39.45443, -14.17584], [-39.45442, -14.17726], [-39.45557, -14.17778], [-39.45508, -14.17935], [-39.45616, -14.17962], [-39.45694, -14.18016], [-39.45915, -14.18231], [-39.45994, -14.18341], [-39.45928, -14.18555], [-39.45976, -14.18607], [-39.45969, -14.18726], [-39.45785, -14.18898], [-39.45849, -14.18899], [-39.46283, -14.19127], [-39.46288, -14.19441], [-39.46544, -14.20013], [-39.46633, -14.19676], [-39.46722, -14.19666], [-39.46845, -14.19792], [-39.47351, -14.19268], [-39.47418, -14.19181], [-39.47454, -14.19075], [-39.50236, -14.17655], [-39.50228, -14.17554], [-39.50087, -14.17371], [-39.50054, -14.17159], [-39.49952, -14.17083], [-39.49929, -14.17036], [-39.49816, -14.16926], [-39.49774, -14.16851], [-39.49633, -14.1682], [-39.49597, -14.16748], [-39.4959, -14.16331], [-39.4956, -14.16077], [-39.4945, -14.1576], [-39.4941, -14.15572], [-39.49261, -14.15268], [-39.49203, -14.15199], [-39.4917, -14.15099], [-39.49154, -14.1486], [-39.49166, -14.14769], [-39.49218, -14.14675], [-39.49314, -14.14424], [-39.4934, -14.1427], [-39.49323, -14.14176], [-39.49275, -14.14119], [-39.49249, -14.14047], [-39.49281, -14.13893], [-39.49196, -14.13655], [-39.49035, -14.13517], [-39.49057, -14.13176], [-39.49047, -14.13081], [-39.48966, -14.12896], [-39.48878, -14.12571], [-39.48778, -14.12308], [-39.48745, -14.12129], [-39.48697, -14.11994], [-39.48638, -14.11915], [-39.48352, -14.11844], [-39.48088, -14.11754], [-39.47955, -14.11731], [-39.47721, -14.11619], [-39.47569, -14.11488], [-39.47492, -14.11352], [-39.4751, -14.11258], [-39.4757, -14.11131], [-39.47552, -14.11045], [-39.47523, -14.11011], [-39.47429, -14.10957], [-39.47146, -14.1093], [-39.4712, -14.10914], [-39.47078, -14.10807], [-39.47076, -14.10672], [-39.47129, -14.10609], [-39.47082, -14.10537], [-39.47071, -14.10445], [-39.4694, -14.10374], [-39.46838, -14.10364], [-39.46766, -14.10279], [-39.46688, -14.10102], [-39.46656, -14.10074], [-39.46511, -14.09981], [-39.46321, -14.09979], [-39.46242, -14.09932], [-39.46136, -14.09819], [-39.46032, -14.09781], [-39.45969, -14.09799], [-39.45925, -14.09771], [-39.45831, -14.09754], [-39.45834, -14.09711], [-39.45896, -14.09654], [-39.45837, -14.09517], [-39.45844, -14.09414], [-39.45801, -14.09333], [-39.45805, -14.09305], [-39.45851, -14.09173], [-39.45997, -14.09023], [-39.45976, -14.09005], [-39.45883, -14.09007], [-39.45825, -14.08942], [-39.45558, -14.09052], [-39.4363, -14.11071]]]}}, 
{"type": "Feature", "properties": {"CD_SETOR": "291270705000016", "CD_SIT": "8", "NM_DIST": "Ibirapitanga", "NM_SUBDIST": null}, "geometry": {"type": "Polygon", "coordinates": [[[-39.38517, -14.05303], [-39.38544, -14.05417], [-39.3861, -14.05464], [-39.38641, -14.0551], [-39.38805, -14.05604], [-39.39012, -14.05628], [-39.39028, -14.05561], [-39.39046, -14.05566], [-39.39095, -14.05518], [-39.39178, -14.05508], [-39.39196, -14.05572], [-39.39291, -14.05641], [-39.39373, -14.05675], [-39.39463, -14.05689], [-39.3956, -14.05733], [-39.39628, -14.05793], [-39.3972, -14.05816], [-39.39775, -14.05849], [-39.39877, -14.05937], [-39.40098, -14.05927], [-39.40134, -14.05872], [-39.4008, -14.05832], [-39.40102, -14.05799], [-39.4014, -14.05815], [-39.40134, -14.05791], [-39.40171, -14.05684], [-39.40162, -14.05662], [-39.40186, -14.05638], [-39.40163, -14.05621], [-39.40162, -14.05533], [-39.40187, -14.05491], [-39.40232, -14.0549], [-39.40414, -14.05367], [-39.40464, -14.05353], [-39.40542, -14.0539], [-39.40656, -14.05532], [-39.40735, -14.05667], [-39.40849, -14.05795], [-39.40884, -14.05906], [-39.40983, -14.06003], [-39.4103, -14.06076], [-39.41054, -14.06314], [-39.41039, -14.06476], [-39.41184, -14.06703], [-39.41203, -14.06755], [-39.41204, -14.06872], [-39.41287, -14.06982], [-39.41312, -14.07101], [-39.41356, -14.07215], [-39.41381, -14.07252], [-39.41686, -14.07501], [-39.4175, -14.07597], [-39.41822, -14.07735], [-39.41829, -14.07824], [-39.41867, -14.07902], [-39.4363, -14.11071], [-39.45558, -14.09052], [-39.45839, -14.08936], [-39.46109, -14.08896], [-39.46316, -14.0875], [-39.46393, -14.08733], [-39.46465, -14.08676], [-39.46487, -14.08616], [-39.46472, -14.08285], [-39.46525, -14.08174], [-39.46493, -14.08069], [-39.46416, -14.07966], [-39.46194, -14.07843], [-39.46156, -14.07697], [-39.46096, -14.07608], [-39.46062, -14.07447], [-39.45899, -14.0708], [-39.45829, -14.07003], [-39.45664, -14.06956], [-39.45527, -14.06787], [-39.45286, -14.06772], [-39.45113, -14.06574], [-39.45023, -14.06509], [-39.44895, -14.06471], [-39.44743, -14.06392], [-39.44701, -14.06311], [-39.44709, -14.06213], [-39.4482, -14.06029], [-39.44882, -14.0596], [-39.44919, -14.05943], [-39.44957, -14.0589], [-39.44953, -14.05832], [-39.44934, -14.05807], [-39.44776, -14.05717], [-39.44615, -14.05593], [-39.44536, -14.05574], [-39.44464, -14.05585], [-39.4434, -14.05698], [-39.44288, -14.05723], [-39.44194, -14.05723], [-39.44167, -14.05708], [-39.44118, -14.05612], [-39.44071, -14.05567], [-39.43778, -14.05495], [-39.43545, -14.05288], [-39.43588, -14.05132], [-39.43564, -14.0504], [-39.43205, -14.04724], [-39.43169, -14.04561], [-39.43216, -14.04516], [-39.43231, -14.0448], [-39.43208, -14.04414], [-39.43146, -14.04354], [-39.43107, -14.04256], [-39.43146, -14.04066], [-39.43137, -14.03984], [-39.43073, -14.03903], [-39.43073, -14.03884], [-39.43002, -14.03816], [-39.42968, -14.03613], [-39.42919, -14.03446], [-39.42808, -14.03237], [-39.42797, -14.03166], [-39.42712, -14.03072], [-39.42727, -14.02959], [-39.42571, -14.02792], [-39.42534, -14.02667], [-39.42436, -14.02622], [-39.42303, -14.02595], [-39.41968, -14.03537], [-39.41929, -14.03612], [-39.41883, -14.03657], [-39.41816, -14.03686], [-39.41357, -14.03752], [-39.40997, -14.03906], [-39.40108, -14.04021], [-39.40016, -14.04071], [-39.39655, -14.04423], [-39.39556, -14.04466], [-39.39502, -14.04467], [-39.39298, -14.04379], [-39.39183, -14.04378], [-39.39113, -14.04414], [-39.38802, -14.04775], [-39.38742, -14.04863], [-39.38517, -14.05303]]]}}, 
{"type": "Feature", "properties": {"CD_SETOR": "291270705000017", "CD_SIT": "8", "NM_DIST": "Ibirapitanga", "NM_SUBDIST": null}, "geometry": {"type": "Polygon", "coordinates": [[[-39.42303, -14.02595], [-39.42436, -14.02622], [-39.42534, -14.02667], [-39.42571, -14.02792], [-39.42727, -14.02959], [-39.42712, -14.03072], [-39.42797, -14.03166], [-39.42808, -14.03237], [-39.42919, -14.03446], [-39.42968, -14.03613], [-39.43002, -14.03816], [-39.43073, -14.03884], [-39.43073, -14.03903], [-39.43137, -14.03984], [-39.43146, -14.04066], [-39.43107, -14.04256], [-39.43146, -14.04354], [-39.43208, -14.04414], [-39.43231, -14.0448], [-39.43216, -14.04516], [-39.43169, -14.04561], [-39.43205, -14.04724], [-39.43564, -14.0504], [-39.43588, -14.05132], [-39.43545, -14.05288], [-39.43778, -14.05495], [-39.44071, -14.05567], [-39.44118, -14.05612], [-39.44167, -14.05708], [-39.44194, -14.05723], [-39.44288, -14.05723], [-39.4434, -14.05698], [-39.44464, -14.05585], [-39.44536, -14.05574], [-39.44615, -14.05593], [-39.44776, -14.05717], [-39.44934, -14.05807], [-39.44953, -14.05832], [-39.44957, -14.0589], [-39.44919, -14.05943], [-39.44882, -14.0596], [-39.4482, -14.06029], [-39.44709, -14.06213], [-39.44701, -14.06311], [-39.44743, -14.06392], [-39.44895, -14.06471], [-39.45023, -14.06509], [-39.45113, -14.06574], [-39.45286, -14.06772], [-39.45527, -14.06787], [-39.45664, -14.06956], [-39.45829, -14.07003], [-39.45899, -14.0708], [-39.46062, -14.07447], [-39.46096, -14.07608], [-39.46156, -14.07697], [-39.46194, -14.07843], [-39.46416, -14.07966], [-39.46493, -14.08069], [-39.46525, -14.08174], [-39.46472, -14.08285], [-39.46487, -14.08616], [-39.46465, -14.08676], [-39.46393, -14.08733], [-39.46316, -14.0875], [-39.46109, -14.08896], [-39.45825, -14.08942], [-39.45883, -14.09007], [-39.45976, -14.09005], [-39.45997, -14.09023], [-39.45851, -14.09173], [-39.45805, -14.09305], [-39.45801, -14.09333], [-39.45844, -14.09414], [-39.45837, -14.09517], [-39.45896, -14.09654], [-39.45834, -14.09711], [-39.45831, -14.09754], [-39.45925, -14.09771], [-39.45969, -14.09799], [-39.46032, -14.09781], [-39.46136, -14.09819], [-39.46242, -14.09932], [-39.46321, -14.09979], [-39.46511, -14.09981], [-39.46617, -14.10047], [-39.46688, -14.10102], [-39.46747, -14.10247], [-39.46838, -14.10364], [-39.4694, -14.10374], [-39.47071, -14.10445], [-39.47082, -14.10537], [-39.47129, -14.10609], [-39.47548, -14.10222], [-39.47564, -14.10146], [-39.47523, -14.10011], [-39.47523, -14.09916], [-39.47674, -14.09587], [-39.47954, -14.09137], [-39.48052, -14.09066], [-39.48231, -14.0897], [-39.48488, -14.08766], [-39.48582, -14.0873], [-39.48627, -14.08694], [-39.48728, -14.08666], [-39.48821, -14.08673], [-39.48899, -14.0873], [-39.49028, -14.08923], [-39.49056, -14.09102], [-39.49128, -14.09202], [-39.49411, -14.09332], [-39.49428, -14.09373], [-39.49407, -14.09582], [-39.49437, -14.09626], [-39.49483, -14.09629], [-39.4962, -14.09544], [-39.49756, -14.09387], [-39.49813, -14.0928], [-39.49884, -14.09202], [-39.5002, -14.09194], [-39.50555, -14.09337], [-39.50705, -14.09316], [-39.50777, -14.09237], [-39.50771, -14.09106], [-39.50723, -14.09041], [-39.50643, -14.08984], [-39.50552, -14.08839], [-39.50449, -14.08768], [-39.50373, -14.08651], [-39.50294, -14.08578], [-39.50156, -14.08511], [-39.50045, -14.0839], [-39.49955, -14.0835], [-39.49816, -14.0802], [-39.49754, -14.07736], [-39.49652, -14.0757], [-39.49546, -14.07243], [-39.49575, -14.068], [-39.49565, -14.0674], [-39.49531, -14.06667], [-39.49418, -14.06578], [-39.49371, -14.06499], [-39.49146, -14.0637], [-39.48954, -14.06169], [-39.48841, -14.05759], [-39.48834, -14.05483], [-39.48896, -14.05455], [-39.48821, -14.05236], [-39.48746, -14.05075], [-39.48783, -14.04953], [-39.48779, -14.04907], [-39.48672, -14.04769], [-39.4852, -14.04623], [-39.48366, -14.04203], [-39.48114, -14.04008], [-39.47692, -14.03922], [-39.47642, -14.03839], [-39.47635, -14.03701], [-39.47604, -14.03646], [-39.47537, -14.03576], [-39.47411, -14.03519], [-39.47273, -14.03398], [-39.47091, -14.03193], [-39.46996, -14.02983], [-39.46933, -14.02902], [-39.46888, -14.02883], [-39.46764, -14.02887], [-39.4661, -14.02931], [-39.46492, -14.03118], [-39.46412, -14.03183], [-39.46331, -14.03206], [-39.46041, -14.03191], [-39.45793, -14.03208], [-39.45422, -14.03277], [-39.45402, -14.03224], [-39.4539, -14.0308], [-39.45358, -14.03023], [-39.44971, -14.02994], [-39.44804, -14.03117], [-39.44718, -14.0311], [-39.44472, -14.03277], [-39.43663, -14.03366], [-39.43603, -14.03186], [-39.43562, -14.03137], [-39.43192, -14.03101], [-39.43146, -14.03073], [-39.43105, -14.02818], [-39.42971, -14.02561], [-39.4296, -14.02445], [-39.42969, -14.02334], [-39.42893, -14.02276], [-39.42703, -14.02222], [-39.42492, -14.02247], [-39.42418, -14.02303], [-39.42303, -14.02595]]]}}, 
{"type": "Feature", "properties": {"CD_SETOR": "291270705000018", "CD_SIT": "5", "NM_DIST": "Ibirapitanga", "NM_SUBDIST": null}, "geometry": {"type": "Polygon", "coordinates": [[[-39.43166, -14.01795], [-39.43264, -14.01955], [-39.4323, -14.01982], [-39.43262, -14.02036], [-39.43257, -14.02065], [-39.43303, -14.02085], [-39.43391, -14.02044], [-39.43337, -14.01936], [-39.43382, -14.01922], [-39.43369, -14.01863], [-39.43311, -14.01876], [-39.43295, -14.01777], [-39.43268, -14.01739], [-39.43186, -14.018], [-39.43166, -14.01795]]]}}, 
{"type": "Feature", "properties": {"CD_SETOR": "291270705000019", "CD_SIT": "5", "NM_DIST": "Ibirapitanga", "NM_SUBDIST": null}, "geometry": {"type": "Polygon", "coordinates": [[[-39.43297, -14.018], [-39.43311, -14.01876], [-39.43369, -14.01863], [-39.43382, -14.01922], [-39.43337, -14.01936], [-39.43498, -14.02232], [-39.4381, -14.02036], [-39.43735, -14.01867], [-39.44002, -14.01769], [-39.43988, -14.01693], [-39.4392, -14.01629], [-39.43602, -14.01787], [-39.43297, -14.018]]]}}, 
{"type": "Feature", "properties": {"CD_SETOR": "291270705000020", "CD_SIT": "5", "NM_DIST": "Ibirapitanga", "NM_SUBDIST": null}, "geometry": {"type": "Polygon", "coordinates": [[[-39.43309, -14.01707], [-39.43229, -14.01731], [-39.43154, -14.018], [-39.43186, -14.018], [-39.43268, -14.01739], [-39.43297, -14.018], [-39.43602, -14.01787], [-39.4392, -14.01629], [-39.43604, -14.01325], [-39.43645, -14.01527], [-39.43639, -14.01603], [-39.4362, -14.01635], [-39.43567, -14.01671], [-39.43309, -14.01707]]]}}, 
{"type": "Feature", "properties": {"CD_SETOR": "291270705000021", "CD_SIT": "5", "NM_DIST": "Ibirapitanga", "NM_SUBDIST": null}, "geometry": {"type": "Polygon", "coordinates": [[[-39.42544, -14.01816], [-39.4257, -14.01884], [-39.42855, -14.0166], [-39.42967, -14.0163], [-39.4302, -14.01637], [-39.43143, -14.01735], [-39.43238, -14.01684], [-39.43309, -14.01707], [-39.4359, -14.01661], [-39.43635, -14.01612], [-39.43647, -14.01555], [-39.43604, -14.01325], [-39.43545, -14.01327], [-39.43522, -14.01504], [-39.43461, -14.01536], [-39.43443, -14.01596], [-39.43347, -14.01653], [-39.43213, -14.01636], [-39.43064, -14.01501], [-39.42883, -14.01571], [-39.42544, -14.01816]]]}}, 
{"type": "Feature", "properties": {"CD_SETOR": "291270705000022", "CD_SIT": "5", "NM_DIST": "Ibirapitanga", "NM_SUBDIST": null}, "geometry": {"type": "Polygon", "coordinates": [[[-39.43154, -14.018], [-39.42823, -14.02158], [-39.42769, -14.02196], [-39.42699, -14.02211], [-39.42703, -14.02222], [-39.42893, -14.02276], [-39.42969, -14.02334], [-39.43042, -14.02175], [-39.4311, -14.02163], [-39.43257, -14.02065], [-39.43262, -14.02036], [-39.4323, -14.01982], [-39.43264, -14.01955], [-39.43166, -14.01795], [-39.43154, -14.018]]]}}, 
{"type": "Feature", "properties": {"CD_SETOR": "291270705000023", "CD_SIT": "5", "NM_DIST": "Ibirapitanga", "NM_SUBDIST": null}, "geometry": {"type": "Polygon", "coordinates": [[[-39.43257, -14.02065], [-39.4311, -14.02163], [-39.43042, -14.02175], [-39.42969, -14.02334], [-39.42995, -14.02354], [-39.43085, -14.02198], [-39.43232, -14.0211], [-39.4329, -14.02187], [-39.43374, -14.0222], [-39.4348, -14.02241], [-39.43498, -14.02232], [-39.43391, -14.02044], [-39.43303, -14.02085], [-39.43257, -14.02065]]]}}, 
{"type": "Feature", "properties": {"CD_SETOR": "291270705000024", "CD_SIT": "8", "NM_DIST": "Ibirapitanga", "NM_SUBDIST": null}, "geometry": {"type": "Polygon", "coordinates": [[[-39.38096, -14.1678], [-39.37627, -14.16869], [-39.37239, -14.17488], [-39.39016, -14.17675], [-39.39109, -14.17629], [-39.39294, -14.17618], [-39.39432, -14.17681], [-39.39538, -14.17943], [-39.39601, -14.17993], [-39.39705, -14.1805], [-39.39864, -14.18025], [-39.396, -14.17674], [-39.39443, -14.17591], [-39.39263, -14.17217], [-39.39191, -14.17113], [-39.38244, -14.16794], [-39.38096, -14.1678]]]}}, 
{"type": "Feature", "properties": {"CD_SETOR": "291270705000025", "CD_SIT": "8", "NM_DIST": "Ibirapitanga", "NM_SUBDIST": null}, "geometry": {"type": "Polygon", "coordinates": [[[-39.48521, -13.92295], [-39.48422, -13.92335], [-39.48239, -13.9235], [-39.4806, -13.92402], [-39.47905, -13.92479], [-39.47782, -13.92598], [-39.47561, -13.92771], [-39.4735, -13.92888], [-39.47245, -13.92905], [-39.47139, -13.92966], [-39.46895, -13.93048], [-39.46724, -13.93069], [-39.46215, -13.93067], [-39.46105, -13.93144], [-39.46039, -13.93243], [-39.45969, -13.93282], [-39.45835, -13.9324], [-39.45729, -13.9317], [-39.45652, -13.93088], [-39.45567, -13.9305], [-39.45474, -13.93055], [-39.45417, -13.93041], [-39.45138, -13.92914], [-39.44843, -13.92919], [-39.44676, -13.92867], [-39.44559, -13.93034], [-39.44495, -13.93076], [-39.44444, -13.93137], [-39.44451, -13.93294], [-39.44411, -13.93411], [-39.44284, -13.93533], [-39.4427, -13.93655], [-39.4431, -13.9385], [-39.44298, -13.94113], [-39.44237, -13.94242], [-39.44216, -13.94376], [-39.44289, -13.94523], [-39.44385, -13.94638], [-39.44448, -13.94864], [-39.44437, -13.94908], [-39.44453, -13.95117], [-39.44495, -13.95298], [-39.4447, -13.9537], [-39.44655, -13.95565], [-39.44728, -13.95713], [-39.44732, -13.95767], [-39.44819, -13.95847], [-39.44821, -13.95999], [-39.44873, -13.96341], [-39.45002, -13.96534], [-39.44988, -13.96637], [-39.45037, -13.96799], [-39.45098, -13.96853], [-39.45171, -13.96951], [-39.45204, -13.97041], [-39.45185, -13.97141], [-39.45248, -13.97181], [-39.45298, -13.97268], [-39.45291, -13.97399], [-39.45333, -13.97479], [-39.45349, -13.97831], [-39.45307, -13.97925], [-39.45265, -13.97941], [-39.45258, -13.97963], [-39.45281, -13.98005], [-39.45384, -13.98026], [-39.45514, -13.97967], [-39.45549, -13.97984], [-39.45746, -13.97944], [-39.45816, -13.97974], [-39.46016, -13.97948], [-39.46128, -13.97984], [-39.46191, -13.9808], [-39.46281, -13.98167], [-39.46295, -13.98228], [-39.46288, -13.98303], [-39.46222, -13.98422], [-39.4622, -13.98497], [-39.4629, -13.98615], [-39.46417, -13.98638], [-39.46384, -13.98685], [-39.46245, -13.98748], [-39.46161, -13.98894], [-39.46195, -13.99178], [-39.46539, -13.98873], [-39.46672, -13.98906], [-39.4683, -13.9906], [-39.4698, -13.99154], [-39.47146, -13.99168], [-39.47313, -13.99138], [-39.47512, -13.99389], [-39.47726, -13.99476], [-39.47852, -13.99487], [-39.47951, -13.99466], [-39.4808, -13.99335], [-39.4819, -13.99304], [-39.48389, -13.99328], [-39.48338, -13.99178], [-39.48296, -13.99118], [-39.48264, -13.9891], [-39.48072, -13.98691], [-39.48044, -13.98634], [-39.48017, -13.98379], [-39.47986, -13.98308], [-39.47925, -13.98255], [-39.47933, -13.98174], [-39.4797, -13.98092], [-39.4801, -13.98067], [-39.48088, -13.98061], [-39.48174, -13.98082], [-39.4834, -13.98073], [-39.48501, -13.97987], [-39.48555, -13.979], [-39.48574, -13.97726], [-39.48593, -13.9768], [-39.48691, -13.97612], [-39.49084, -13.97401], [-39.4912, -13.97353], [-39.49129, -13.97198], [-39.492, -13.97044], [-39.49206, -13.96966], [-39.49173, -13.96871], [-39.49173, -13.96815], [-39.49203, -13.96532], [-39.49188, -13.96458], [-39.49114, -13.96375], [-39.48989, -13.96291], [-39.48941, -13.96223], [-39.48935, -13.9616], [-39.48992, -13.95985], [-39.48965, -13.95896], [-39.48908, -13.95819], [-39.48882, -13.95735], [-39.48891, -13.95664], [-39.4895, -13.95601], [-39.49033, -13.95432], [-39.49016, -13.95337], [-39.48906, -13.95146], [-39.48915, -13.94983], [-39.48977, -13.94867], [-39.49025, -13.94709], [-39.49155, -13.94566], [-39.49178, -13.94511], [-39.49106, -13.94439], [-39.49013, -13.94416], [-39.48622, -13.9443], [-39.48523, -13.94448], [-39.48586, -13.94269], [-39.48643, -13.94224], [-39.48763, -13.94173], [-39.4881, -13.9411], [-39.48836, -13.93996], [-39.48841, -13.93796], [-39.48833, -13.93671], [-39.48779, -13.93477], [-39.48804, -13.93443], [-39.48819, -13.92182], [-39.48521, -13.92295]]]}}, 
{"type": "Feature", "properties": {"CD_SETOR": "291270705000026", "CD_SIT": "8", "NM_DIST": "Ibirapitanga", "NM_SUBDIST": null}, "geometry": {"type": "Polygon", "coordinates": [[[-39.46823, -13.87691], [-39.46685, -13.87774], [-39.46528, -13.87935], [-39.46469, -13.87972], [-39.46168, -13.8801], [-39.46131, -13.88049], [-39.46139, -13.88152], [-39.46235, -13.88245], [-39.46261, -13.88382], [-39.46156, -13.88464], [-39.4588, -13.88573], [-39.45763, -13.88684], [-39.45219, -13.88937], [-39.45122, -13.89064], [-39.45066, -13.89191], [-39.44918, -13.89218], [-39.44805, -13.89164], [-39.44726, -13.8919], [-39.44544, -13.89392], [-39.44464, -13.8946], [-39.44352, -13.89512], [-39.44227, -13.89489], [-39.44053, -13.89412], [-39.43952, -13.89339], [-39.43836, -13.89298], [-39.43587, -13.89297], [-39.43532, -13.89313], [-39.43498, -13.89356], [-39.43467, -13.89529], [-39.43473, -13.8973], [-39.4345, -13.89816], [-39.43407, -13.89906], [-39.43342, -13.89939], [-39.43284, -13.90001], [-39.43263, -13.9006], [-39.43286, -13.90189], [-39.43268, -13.90243], [-39.43293, -13.90246], [-39.43399, -13.90331], [-39.43548, -13.90491], [-39.43623, -13.90652], [-39.4378, -13.90872], [-39.43802, -13.9094], [-39.43749, -13.91055], [-39.43758, -13.91228], [-39.43845, -13.91285], [-39.43907, -13.91353], [-39.44059, -13.91384], [-39.44105, -13.91367], [-39.44295, -13.91424], [-39.44358, -13.91503], [-39.44443, -13.91492], [-39.44517, -13.9146], [-39.44545, -13.91468], [-39.44632, -13.91564], [-39.44665, -13.91699], [-39.44752, -13.91805], [-39.44744, -13.91861], [-39.44961, -13.91985], [-39.44935, -13.92039], [-39.44853, -13.92079], [-39.4485, -13.92099], [-39.44927, -13.92223], [-39.44933, -13.92272], [-39.44885, -13.92374], [-39.44802, -13.92447], [-39.44794, -13.9251], [-39.44813, -13.92578], [-39.44709, -13.92708], [-39.44676, -13.92867], [-39.44843, -13.92919], [-39.45138, -13.92914], [-39.45417, -13.93041], [-39.45474, -13.93055], [-39.45567, -13.9305], [-39.45652, -13.93088], [-39.45729, -13.9317], [-39.45835, -13.9324], [-39.45969, -13.93282], [-39.46039, -13.93243], [-39.46105, -13.93144], [-39.46215, -13.93067], [-39.46724, -13.93069], [-39.46895, -13.93048], [-39.47139, -13.92966], [-39.47245, -13.92905], [-39.4735, -13.92888], [-39.47561, -13.92771], [-39.47782, -13.92598], [-39.47905, -13.92479], [-39.4806, -13.92402], [-39.48239, -13.9235], [-39.48422, -13.92335], [-39.48521, -13.92295], [-39.48612, -13.92172], [-39.48623, -13.92077], [-39.4858, -13.91886], [-39.48531, -13.91797], [-39.48286, -13.91612], [-39.48226, -13.91511], [-39.48209, -13.91257], [-39.48139, -13.90967], [-39.48002, -13.90856], [-39.47992, -13.90803], [-39.48002, -13.90708], [-39.48057, -13.90523], [-39.47855, -13.89899], [-39.47801, -13.89677], [-39.47888, -13.89059], [-39.47921, -13.88964], [-39.48444, -13.88483], [-39.48656, -13.88361], [-39.4883, -13.88213], [-39.48866, -13.88122], [-39.48867, -13.88062], [-39.48812, -13.88064], [-39.49015, -13.87947], [-39.48954, -13.87945], [-39.48869, -13.87862], [-39.48713, -13.88057], [-39.48602, -13.88073], [-39.48468, -13.88048], [-39.48349, -13.88084], [-39.48318, -13.88076], [-39.48127, -13.87929], [-39.48054, -13.87897], [-39.47981, -13.87882], [-39.47684, -13.87895], [-39.47609, -13.87878], [-39.47323, -13.87755], [-39.47153, -13.87703], [-39.47096, -13.87667], [-39.4707, -13.8762], [-39.47025, -13.87588], [-39.46934, -13.87602], [-39.46823, -13.87691]]]}}, 
{"type": "Feature", "properties": {"CD_SETOR": "291270705000027", "CD_SIT": "8", "NM_DIST": "Ibirapitanga", "NM_SUBDIST": null}, "geometry": {"type": "Polygon", "coordinates": [[[-39.39876, -13.90864], [-39.40078, -13.90947], [-39.39953, -13.91021], [-39.39805, -13.91164], [-39.3969, -13.91199], [-39.39587, -13.91355], [-39.39509, -13.91409], [-39.39407, -13.9143], [-39.39314, -13.91416], [-39.39018, -13.91274], [-39.38846, -13.91171], [-39.38764, -13.91145], [-39.38677, -13.91152], [-39.38478, -13.91212], [-39.38343, -13.91168], [-39.38213, -13.91208], [-39.38015, -13.91334], [-39.37939, -13.91331], [-39.37794, -13.91266], [-39.3773, -13.91283], [-39.37642, -13.91389], [-39.37573, -13.91423], [-39.37546, -13.91457], [-39.37533, -13.91571], [-39.3764, -13.918], [-39.37873, -13.9242], [-39.37999, -13.927], [-39.38036, -13.92745], [-39.38236, -13.92873], [-39.38261, -13.9293], [-39.38247, -13.93013], [-39.38061, -13.93362], [-39.38044, -13.93446], [-39.38154, -13.93541], [-39.38211, -13.93658], [-39.38222, -13.93851], [-39.3819, -13.94115], [-39.38222, -13.94201], [-39.38367, -13.94312], [-39.38473, -13.94515], [-39.3851, -13.94531], [-39.38609, -13.94527], [-39.38791, -13.94456], [-39.38904, -13.94537], [-39.38957, -13.94649], [-39.39065, -13.94777], [-39.39256, -13.94776], [-39.39345, -13.94749], [-39.39402, -13.94756], [-39.39461, -13.94818], [-39.39575, -13.94839], [-39.39719, -13.9478], [-39.39821, -13.94676], [-39.40071, -13.94605], [-39.40138, -13.94614], [-39.40287, -13.94678], [-39.4037, -13.94747], [-39.4039, -13.94785], [-39.40401, -13.9489], [-39.40485, -13.9499], [-39.40484, -13.9505], [-39.4056, -13.95171], [-39.4063, -13.95249], [-39.40652, -13.95492], [-39.40705, -13.95574], [-39.40697, -13.9565], [-39.4081, -13.95824], [-39.40941, -13.95938], [-39.40956, -13.96223], [-39.41013, -13.96271], [-39.41105, -13.96445], [-39.41197, -13.96483], [-39.41228, -13.9654], [-39.41276, -13.96671], [-39.41289, -13.96804], [-39.41317, -13.96872], [-39.41297, -13.97104], [-39.41354, -13.97178], [-39.41387, -13.97307], [-39.4145, -13.97368], [-39.41445, -13.97447], [-39.41514, -13.97588], [-39.41506, -13.97745], [-39.41465, -13.97823], [-39.41307, -13.98024], [-39.41286, -13.98098], [-39.41129, -13.98158], [-39.40998, -13.98269], [-39.40832, -13.98342], [-39.40764, -13.98417], [-39.40698, -13.98587], [-39.40735, -13.98691], [-39.40736, -13.9877], [-39.40699, -13.98921], [-39.40706, -13.99106], [-39.40603, -13.9926], [-39.40574, -13.99335], [-39.40594, -13.99375], [-39.4075, -13.9952], [-39.40801, -13.99598], [-39.40946, -13.99701], [-39.41014, -13.99654], [-39.40999, -13.99446], [-39.41069, -13.99355], [-39.41338, -13.99271], [-39.41614, -13.99257], [-39.417, -13.99191], [-39.41776, -13.98975], [-39.41865, -13.98938], [-39.41961, -13.98925], [-39.42049, -13.98775], [-39.42034, -13.98434], [-39.41951, -13.98255], [-39.41968, -13.98199], [-39.42014, -13.98191], [-39.42113, -13.98239], [-39.42166, -13.98125], [-39.42241, -13.98055], [-39.42449, -13.98036], [-39.42677, -13.97988], [-39.4272, -13.97935], [-39.42728, -13.97842], [-39.42761, -13.97783], [-39.42821, -13.97736], [-39.43046, -13.97703], [-39.43067, -13.97624], [-39.43043, -13.97576], [-39.42943, -13.97209], [-39.42937, -13.9709], [-39.42975, -13.96974], [-39.43076, -13.96802], [-39.43089, -13.96698], [-39.43071, -13.96597], [-39.42983, -13.96518], [-39.42806, -13.96419], [-39.42719, -13.96346], [-39.42603, -13.96148], [-39.42472, -13.95807], [-39.42467, -13.95756], [-39.42523, -13.95714], [-39.42608, -13.95696], [-39.42626, -13.95176], [-39.42761, -13.94871], [-39.42737, -13.94772], [-39.42661, -13.94709], [-39.42557, -13.94668], [-39.42439, -13.94318], [-39.42403, -13.94114], [-39.42295, -13.93803], [-39.42201, -13.93693], [-39.42194, -13.93625], [-39.42251, -13.93405], [-39.42231, -13.93225], [-39.42006, -13.92879], [-39.42018, -13.92441], [-39.41872, -13.92269], [-39.419, -13.92117], [-39.41946, -13.91978], [-39.41875, -13.91894], [-39.41834, -13.91879], [-39.41834, -13.91705], [-39.41746, -13.91646], [-39.41698, -13.91581], [-39.41573, -13.91317], [-39.41441, -13.91135], [-39.41386, -13.91033], [-39.41343, -13.90882], [-39.41226, -13.90796], [-39.4115, -13.90482], [-39.41093, -13.90396], [-39.41067, -13.90054], [-39.41001, -13.89986], [-39.4094, -13.89953], [-39.40879, -13.8988], [-39.40872, -13.89801], [-39.40697, -13.89619], [-39.40478, -13.8921], [-39.40346, -13.8943], [-39.40352, -13.89477], [-39.40476, -13.8963], [-39.40507, -13.89694], [-39.40532, -13.89811], [-39.40525, -13.90088], [-39.40503, -13.90149], [-39.40443, -13.90227], [-39.40369, -13.90368], [-39.40176, -13.9048], [-39.40141, -13.90522], [-39.40041, -13.90765], [-39.39952, -13.90837], [-39.39876, -13.90864]]]}}, 
{"type": "Feature", "properties": {"CD_SETOR": "291270705000028", "CD_SIT": "8", "NM_DIST": "Ibirapitanga", "NM_SUBDIST": null}, "geometry": {"type": "Polygon", "coordinates": [[[-39.35415, -14.04648], [-39.35336, -14.04726], [-39.35189, -14.04803], [-39.35156, -14.04857], [-39.35104, -14.04897], [-39.35015, -14.04916], [-39.34912, -14.0484], [-39.34837, -14.04872], [-39.34782, -14.04934], [-39.34723, -14.05111], [-39.34668, -14.05191], [-39.34667, -14.05253], [-39.34742, -14.0533], [-39.34971, -14.05396], [-39.34986, -14.05429], [-39.34975, -14.05491], [-39.34923, -14.05543], [-39.34855, -14.05576], [-39.34799, -14.05657], [-39.34731, -14.05701], [-39.34746, -14.05853], [-39.34869, -14.06113], [-39.34869, -14.06164], [-39.34828, -14.06261], [-39.34825, -14.06395], [-39.34814, -14.06424], [-39.34769, -14.06457], [-39.34608, -14.064], [-39.3457, -14.064], [-39.34518, -14.06429], [-39.34439, -14.06408], [-39.34363, -14.06463], [-39.34281, -14.06474], [-39.34228, -14.065], [-39.34217, -14.06544], [-39.34225, -14.06712], [-39.34198, -14.06742], [-39.34074, -14.06731], [-39.34055, -14.06764], [-39.34063, -14.0679], [-39.34153, -14.06841], [-39.34323, -14.0687], [-39.34443, -14.06866], [-39.34477, -14.06888], [-39.34485, -14.06914], [-39.3444, -14.06974], [-39.34352, -14.07047], [-39.34292, -14.07072], [-39.34181, -14.07083], [-39.34122, -14.07159], [-39.34278, -14.07165], [-39.34329, -14.0713], [-39.34413, -14.07107], [-39.34458, -14.07147], [-39.34611, -14.07212], [-39.34649, -14.07294], [-39.34741, -14.07352], [-39.34806, -14.0746], [-39.34848, -14.07466], [-39.34924, -14.07438], [-39.3498, -14.07452], [-39.35049, -14.07582], [-39.35116, -14.07664], [-39.35165, -14.0795], [-39.35205, -14.08041], [-39.35214, -14.08113], [-39.3527, -14.08212], [-39.35275, -14.08285], [-39.35347, -14.08467], [-39.35349, -14.08542], [-39.35454, -14.08673], [-39.35521, -14.08686], [-39.35617, -14.08633], [-39.35644, -14.08633], [-39.35716, -14.08673], [-39.35985, -14.0872], [-39.36012, -14.08742], [-39.3604, -14.08814], [-39.35994, -14.08863], [-39.35997, -14.0889], [-39.36054, -14.08946], [-39.36155, -14.09001], [-39.36199, -14.09009], [-39.36257, -14.091], [-39.36359, -14.09186], [-39.36384, -14.0919], [-39.36563, -14.09102], [-39.36686, -14.09095], [-39.36786, -14.08971], [-39.36848, -14.08961], [-39.36919, -14.09014], [-39.3702, -14.09201], [-39.37147, -14.09342], [-39.37295, -14.09388], [-39.3734, -14.09474], [-39.37408, -14.09368], [-39.37671, -14.09175], [-39.37727, -14.09112], [-39.38235, -14.08027], [-39.38294, -14.07971], [-39.38699, -14.07745], [-39.3877, -14.07681], [-39.3881, -14.07591], [-39.38794, -14.07466], [-39.3856, -14.06891], [-39.38478, -14.06486], [-39.38403, -14.05557], [-39.38517, -14.05303], [-39.38498, -14.05317], [-39.38472, -14.05296], [-39.38472, -14.0508], [-39.38427, -14.05024], [-39.38392, -14.05024], [-39.38347, -14.05075], [-39.38246, -14.051], [-39.38027, -14.04987], [-39.37952, -14.04999], [-39.37746, -14.05105], [-39.37668, -14.05115], [-39.37454, -14.05072], [-39.37293, -14.05105], [-39.37246, -14.051], [-39.37198, -14.05065], [-39.3713, -14.04964], [-39.37097, -14.04946], [-39.36997, -14.04972], [-39.36873, -14.04931], [-39.36811, -14.04933], [-39.36751, -14.04817], [-39.36721, -14.04806], [-39.36671, -14.04819], [-39.36634, -14.04909], [-39.36627, -14.04979], [-39.366, -14.05011], [-39.36579, -14.05014], [-39.36532, -14.0496], [-39.36497, -14.04874], [-39.36438, -14.04649], [-39.36375, -14.04602], [-39.36314, -14.04649], [-39.36252, -14.04775], [-39.36167, -14.04818], [-39.36077, -14.048], [-39.35975, -14.04679], [-39.35919, -14.04657], [-39.3587, -14.04657], [-39.35813, -14.04694], [-39.35753, -14.04705], [-39.35704, -14.04696], [-39.35535, -14.04589], [-39.3546, -14.04601], [-39.35415, -14.04648]]]}}, 
{"type": "Feature", "properties": {"CD_SETOR": "291270705000029", "CD_SIT": "5", "NM_DIST": "Ibirapitanga", "NM_SUBDIST": null}, "geometry": {"type": "Polygon", "coordinates": [[[-39.39093, -14.07668], [-39.39085, -14.07741], [-39.39105, -14.07772], [-39.39269, -14.07803], [-39.39132, -14.07921], [-39.39178, -14.07972], [-39.39214, -14.07986], [-39.3939, -14.07788], [-39.39409, -14.07623], [-39.3944, -14.07563], [-39.39307, -14.07537], [-39.3927, -14.07613], [-39.39128, -14.07586], [-39.39093, -14.07668]]]}}, 
{"type": "Feature", "properties": {"CD_SETOR": "291270705000030", "CD_SIT": "8", "NM_DIST": "Ibirapitanga", "NM_SUBDIST": null}, "geometry": {"type": "Polygon", "coordinates": [[[-39.35454, -14.08673], [-39.35294, -14.08729], [-39.35219, -14.08806], [-39.35141, -14.08782], [-39.35064, -14.08793], [-39.34975, -14.08947], [-39.346, -14.09092], [-39.34503, -14.09219], [-39.34414, -14.09444], [-39.34407, -14.09522], [-39.34425, -14.0965], [-39.34416, -14.09841], [-39.34361, -14.10052], [-39.34283, -14.10268], [-39.34253, -14.10408], [-39.34204, -14.10412], [-39.34192, -14.10438], [-39.34198, -14.10566], [-39.34331, -14.1087], [-39.34335, -14.10895], [-39.3425, -14.11011], [-39.34235, -14.11101], [-39.34309, -14.11225], [-39.34336, -14.11314], [-39.34377, -14.11361], [-39.34425, -14.11383], [-39.34499, -14.11354], [-39.34585, -14.1129], [-39.34632, -14.11296], [-39.34833, -14.11393], [-39.34929, -14.11469], [-39.34951, -14.11509], [-39.34948, -14.11581], [-39.34837, -14.11795], [-39.34809, -14.11992], [-39.34746, -14.12126], [-39.34704, -14.12145], [-39.34685, -14.12137], [-39.34681, -14.12113], [-39.3472, -14.12017], [-39.34707, -14.11937], [-39.34667, -14.11896], [-39.34611, -14.11941], [-39.34545, -14.12085], [-39.345, -14.12121], [-39.34352, -14.12187], [-39.34316, -14.12255], [-39.34326, -14.12309], [-39.34493, -14.12573], [-39.34616, -14.13094], [-39.34669, -14.1322], [-39.34892, -14.14001], [-39.35004, -14.14151], [-39.35041, -14.14241], [-39.35037, -14.14261], [-39.35015, -14.14266], [-39.34933, -14.14226], [-39.34871, -14.14241], [-39.34862, -14.14301], [-39.34902, -14.14405], [-39.34886, -14.14486], [-39.34862, -14.14517], [-39.34732, -14.14599], [-39.3466, -14.14676], [-39.34637, -14.14786], [-39.3461, -14.14824], [-39.3474, -14.14961], [-39.34944, -14.14807], [-39.34987, -14.1473], [-39.35122, -14.13945], [-39.35151, -14.13881], [-39.35221, -14.1385], [-39.35395, -14.13845], [-39.35798, -14.13693], [-39.35839, -14.13614], [-39.35808, -14.1349], [-39.35827, -14.13406], [-39.36341, -14.12965], [-39.36379, -14.12914], [-39.36405, -14.12814], [-39.36417, -14.11265], [-39.36543, -14.10612], [-39.36598, -14.10504], [-39.36677, -14.10423], [-39.36757, -14.10376], [-39.37063, -14.10252], [-39.37147, -14.10188], [-39.37182, -14.10123], [-39.3734, -14.09474], [-39.37295, -14.09388], [-39.37147, -14.09342], [-39.3702, -14.09201], [-39.36919, -14.09014], [-39.36848, -14.08961], [-39.36786, -14.08971], [-39.36686, -14.09095], [-39.36563, -14.09102], [-39.36384, -14.0919], [-39.36359, -14.09186], [-39.36257, -14.091], [-39.36199, -14.09009], [-39.36155, -14.09001], [-39.36054, -14.08946], [-39.35997, -14.0889], [-39.35994, -14.08863], [-39.3604, -14.08814], [-39.36012, -14.08742], [-39.35985, -14.0872], [-39.35716, -14.08673], [-39.35644, -14.08633], [-39.35617, -14.08633], [-39.35521, -14.08686], [-39.35454, -14.08673]]]}}, 
{"type": "Feature", "properties": {"CD_SETOR": "291270705000032", "CD_SIT": "8", "NM_DIST": "Ibirapitanga", "NM_SUBDIST": null}, "geometry": {"type": "Polygon", "coordinates": [[[-39.40478, -13.8921], [-39.40697, -13.89619], [-39.40872, -13.89801], [-39.40879, -13.8988], [-39.4094, -13.89953], [-39.41001, -13.89986], [-39.41067, -13.90054], [-39.41093, -13.90396], [-39.4115, -13.90482], [-39.41226, -13.90796], [-39.41343, -13.90882], [-39.41386, -13.91033], [-39.41441, -13.91135], [-39.41573, -13.91317], [-39.41698, -13.91581], [-39.41746, -13.91646], [-39.41834, -13.91705], [-39.41834, -13.91879], [-39.41875, -13.91894], [-39.41946, -13.91978], [-39.419, -13.92117], [-39.41872, -13.92269], [-39.42018, -13.92441], [-39.42006, -13.92879], [-39.42231, -13.93225], [-39.42251, -13.93405], [-39.42194, -13.93625], [-39.42201, -13.93693], [-39.42295, -13.93803], [-39.42403, -13.94114], [-39.42439, -13.94318], [-39.42557, -13.94668], [-39.42661, -13.94709], [-39.42737, -13.94772], [-39.42761, -13.94871], [-39.42626, -13.95176], [-39.42608, -13.95696], [-39.42523, -13.95714], [-39.42467, -13.95756], [-39.42472, -13.95807], [-39.42603, -13.96148], [-39.42719, -13.96346], [-39.42806, -13.96419], [-39.42983, -13.96518], [-39.43071, -13.96597], [-39.43089, -13.96698], [-39.43076, -13.96802], [-39.42975, -13.96974], [-39.42937, -13.9709], [-39.42943, -13.97209], [-39.43043, -13.97576], [-39.43067, -13.97624], [-39.43046, -13.97703], [-39.42821, -13.97736], [-39.42761, -13.97783], [-39.42728, -13.97842], [-39.4272, -13.97935], [-39.42677, -13.97988], [-39.42449, -13.98036], [-39.42241, -13.98055], [-39.42166, -13.98125], [-39.42113, -13.98239], [-39.42014, -13.98191], [-39.41968, -13.98199], [-39.41951, -13.98255], [-39.42034, -13.98434], [-39.42049, -13.98775], [-39.41961, -13.98925], [-39.41865, -13.98938], [-39.41776, -13.98975], [-39.417, -13.99191], [-39.41614, -13.99257], [-39.41338, -13.99271], [-39.41069, -13.99355], [-39.40999, -13.99446], [-39.41014, -13.99654], [-39.40961, -13.99684], [-39.40808, -13.99849], [-39.40454, -13.99986], [-39.40455, -14.00091], [-39.40551, -14.00229], [-39.40597, -14.00343], [-39.40572, -14.00595], [-39.40606, -14.00685], [-39.40687, -14.00737], [-39.40808, -14.00762], [-39.4112, -14.00737], [-39.41157, -14.00749], [-39.41275, -14.00877], [-39.41247, -14.01006], [-39.4119, -14.0109], [-39.41156, -14.01114], [-39.41026, -14.01149], [-39.40882, -14.01235], [-39.40798, -14.01262], [-39.40668, -14.014], [-39.40547, -14.01435], [-39.40486, -14.01487], [-39.40526, -14.0162], [-39.40478, -14.0176], [-39.40481, -14.01814], [-39.4052, -14.01922], [-39.40509, -14.01984], [-39.4046, -14.02075], [-39.40454, -14.02113], [-39.40482, -14.02245], [-39.40466, -14.02323], [-39.40435, -14.02366], [-39.40534, -14.02429], [-39.40581, -14.02371], [-39.40643, -14.02361], [-39.40735, -14.02376], [-39.40793, -14.02246], [-39.4085, -14.02187], [-39.41044, -14.02106], [-39.41134, -14.0205], [-39.41103, -14.01918], [-39.41164, -14.0192], [-39.41173, -14.01861], [-39.41266, -14.01859], [-39.41303, -14.01885], [-39.41365, -14.01865], [-39.41352, -14.01762], [-39.41375, -14.01668], [-39.41452, -14.0167], [-39.41521, -14.01701], [-39.41646, -14.01578], [-39.41772, -14.01492], [-39.4186, -14.0147], [-39.41894, -14.01446], [-39.41802, -14.01269], [-39.41826, -14.01227], [-39.41991, -14.0125], [-39.42075, -14.01136], [-39.42145, -14.01125], [-39.42263, -14.01149], [-39.42356, -14.01145], [-39.42415, -14.0129], [-39.42467, -14.01323], [-39.42503, -14.01378], [-39.42494, -14.01607], [-39.42544, -14.01816], [-39.42883, -14.01571], [-39.43064, -14.01501], [-39.43213, -14.01636], [-39.43347, -14.01653], [-39.43411, -14.01621], [-39.43461, -14.01566], [-39.43461, -14.01536], [-39.43522, -14.01504], [-39.43545, -14.01327], [-39.43604, -14.01325], [-39.43591, -14.01229], [-39.43602, -14.01198], [-39.43628, -14.01165], [-39.43672, -14.01147], [-39.43745, -14.01159], [-39.43874, -14.01235], [-39.43968, -14.01402], [-39.44002, -14.01431], [-39.44084, -14.01437], [-39.4432, -14.0131], [-39.44392, -14.01217], [-39.44498, -14.00766], [-39.44548, -14.00702], [-39.44655, -14.00615], [-39.44714, -14.00531], [-39.44774, -14.00084], [-39.44808, -14.00007], [-39.45243, -13.99473], [-39.45302, -13.9945], [-39.45363, -13.99454], [-39.45629, -13.9958], [-39.45715, -13.99601], [-39.4579, -13.99579], [-39.45826, -13.99551], [-39.46217, -13.99179], [-39.46237, -13.99141], [-39.46195, -13.99178], [-39.46161, -13.98894], [-39.46245, -13.98748], [-39.46384, -13.98685], [-39.46417, -13.98638], [-39.4629, -13.98615], [-39.4622, -13.98497], [-39.46222, -13.98422], [-39.46288, -13.98303], [-39.46295, -13.98228], [-39.46281, -13.98167], [-39.46191, -13.9808], [-39.46128, -13.97984], [-39.46016, -13.97948], [-39.45816, -13.97974], [-39.45746, -13.97944], [-39.45549, -13.97984], [-39.45514, -13.97967], [-39.45384, -13.98026], [-39.45281, -13.98005], [-39.45258, -13.97963], [-39.45265, -13.97941], [-39.45307, -13.97925], [-39.45349, -13.97831], [-39.45333, -13.97479], [-39.45291, -13.97399], [-39.45298, -13.97268], [-39.45248, -13.97181], [-39.45185, -13.97141], [-39.45204, -13.97041], [-39.45171, -13.96951], [-39.45098, -13.96853], [-39.45037, -13.96799], [-39.44988, -13.96637], [-39.45002, -13.96534], [-39.44873, -13.96341], [-39.44821, -13.95999], [-39.44819, -13.95847], [-39.44732, -13.95767], [-39.44728, -13.95713], [-39.44655, -13.95565], [-39.4447, -13.9537], [-39.44495, -13.95298], [-39.44453, -13.95117], [-39.44437, -13.94908], [-39.44448, -13.94864], [-39.44385, -13.94638], [-39.44289, -13.94523], [-39.44216, -13.94376], [-39.44237, -13.94242], [-39.44298, -13.94113], [-39.4431, -13.9385], [-39.4427, -13.93655], [-39.44284, -13.93533], [-39.44411, -13.93411], [-39.44451, -13.93294], [-39.44444, -13.93137], [-39.44495, -13.93076], [-39.44559, -13.93034], [-39.44676, -13.92867], [-39.44709, -13.92708], [-39.44813, -13.92578], [-39.44794, -13.9251], [-39.44802, -13.92447], [-39.44885, -13.92374], [-39.44935, -13.92249], [-39.44887, -13.92144], [-39.4485, -13.92099], [-39.44853, -13.92079], [-39.4495, -13.92024], [-39.44953, -13.9197], [-39.44889, -13.91954], [-39.44744, -13.91861], [-39.44752, -13.91805], [-39.44665, -13.91699], [-39.44632, -13.91564], [-39.44545, -13.91468], [-39.44517, -13.9146], [-39.44443, -13.91492], [-39.44358, -13.91503], [-39.44295, -13.91424], [-39.44105, -13.91367], [-39.44059, -13.91384], [-39.43907, -13.91353], [-39.43845, -13.91285], [-39.43758, -13.91228], [-39.43749, -13.91055], [-39.43802, -13.9094], [-39.4378, -13.90872], [-39.43623, -13.90652], [-39.43548, -13.90491], [-39.43399, -13.90331], [-39.43293, -13.90246], [-39.43268, -13.90243], [-39.43271, -13.90223], [-39.42899, -13.90324], [-39.42792, -13.90487], [-39.42614, -13.90512], [-39.42501, -13.90484], [-39.42472, -13.9049], [-39.42246, -13.90616], [-39.42118, -13.90594], [-39.42015, -13.90542], [-39.41987, -13.90513], [-39.41963, -13.90423], [-39.42011, -13.90203], [-39.41981, -13.89993], [-39.41942, -13.89934], [-39.41832, -13.89851], [-39.41787, -13.89797], [-39.41764, -13.89727], [-39.4181, -13.89638], [-39.41789, -13.89377], [-39.41719, -13.89285], [-39.41585, -13.89223], [-39.41407, -13.89067], [-39.41308, -13.88857], [-39.41262, -13.88851], [-39.41153, -13.88906], [-39.41076, -13.88923], [-39.40902, -13.88904], [-39.40725, -13.88955], [-39.40664, -13.89002], [-39.40478, -13.8921]]]}}, 
{"type": "Feature", "properties": {"CD_SETOR": "291270705000033", "CD_SIT": "8", "NM_DIST": "Ibirapitanga", "NM_SUBDIST": null}, "geometry": {"type": "Polygon", "coordinates": [[[-39.38684, -13.94507], [-39.38732, -13.94503], [-39.38795, -13.94558], [-39.38928, -13.94863], [-39.38975, -13.94916], [-39.39006, -13.94938], [-39.39193, -13.9497], [-39.39246, -13.95002], [-39.39346, -13.9511], [-39.39465, -13.9565], [-39.39512, -13.95951], [-39.395, -13.96027], [-39.39455, -13.96084], [-39.39448, -13.96141], [-39.39511, -13.96264], [-39.39676, -13.96494], [-39.39708, -13.96578], [-39.39738, -13.9676], [-39.39707, -13.96879], [-39.39507, -13.97139], [-39.3943, -13.97281], [-39.39424, -13.97352], [-39.39489, -13.97526], [-39.39476, -13.97605], [-39.39404, -13.97788], [-39.39424, -13.98022], [-39.39387, -13.98176], [-39.393, -13.98277], [-39.39132, -13.98409], [-39.39076, -13.98431], [-39.39056, -13.98471], [-39.39049, -13.98586], [-39.39079, -13.98699], [-39.39087, -13.98939], [-39.39121, -13.99097], [-39.39139, -13.99127], [-39.39189, -13.9913], [-39.3929, -13.99068], [-39.39509, -13.99], [-39.39539, -13.98976], [-39.39579, -13.98894], [-39.39634, -13.98875], [-39.39678, -13.98888], [-39.39787, -13.98972], [-39.39843, -13.98965], [-39.40169, -13.98712], [-39.40336, -13.98647], [-39.40466, -13.98763], [-39.40505, -13.98846], [-39.40491, -13.98986], [-39.40345, -13.99155], [-39.40309, -13.99231], [-39.40301, -13.99294], [-39.40321, -13.99372], [-39.40461, -13.99493], [-39.40441, -13.99674], [-39.40462, -13.99801], [-39.40454, -13.99986], [-39.40808, -13.99849], [-39.40946, -13.99701], [-39.40801, -13.99598], [-39.4075, -13.9952], [-39.40594, -13.99375], [-39.40574, -13.99335], [-39.40603, -13.9926], [-39.40706, -13.99106], [-39.40699, -13.98921], [-39.40736, -13.9877], [-39.40735, -13.98691], [-39.40698, -13.98587], [-39.40764, -13.98417], [-39.40832, -13.98342], [-39.40998, -13.98269], [-39.41129, -13.98158], [-39.41286, -13.98098], [-39.41307, -13.98024], [-39.41465, -13.97823], [-39.41506, -13.97745], [-39.41514, -13.97588], [-39.41445, -13.97447], [-39.4145, -13.97368], [-39.41387, -13.97307], [-39.41354, -13.97178], [-39.41297, -13.97104], [-39.4132, -13.96898], [-39.41289, -13.96804], [-39.41276, -13.96671], [-39.41197, -13.96483], [-39.41105, -13.96445], [-39.41013, -13.96271], [-39.40956, -13.96223], [-39.40941, -13.95938], [-39.4081, -13.95824], [-39.40697, -13.9565], [-39.40705, -13.95574], [-39.40652, -13.95492], [-39.4063, -13.95249], [-39.4056, -13.95171], [-39.40484, -13.9505], [-39.40485, -13.9499], [-39.40401, -13.9489], [-39.4039, -13.94785], [-39.4037, -13.94747], [-39.40287, -13.94678], [-39.40138, -13.94614], [-39.40071, -13.94605], [-39.39821, -13.94676], [-39.39719, -13.9478], [-39.39575, -13.94839], [-39.39461, -13.94818], [-39.39402, -13.94756], [-39.39345, -13.94749], [-39.39256, -13.94776], [-39.39065, -13.94777], [-39.3902, -13.94738], [-39.38904, -13.94537], [-39.38871, -13.94507], [-39.3878, -13.94451], [-39.38684, -13.94507]]]}}, 
{"type": "Feature", "properties": {"CD_SETOR": "291270705000034", "CD_SIT": "8", "NM_DIST": "Ibirapitanga", "NM_SUBDIST": null}, "geometry": {"type": "Polygon", "coordinates": [[[-39.40435, -14.02366], [-39.4009, -14.02428], [-39.3996, -14.02423], [-39.39733, -14.02462], [-39.39656, -14.02431], [-39.39603, -14.02377], [-39.39478, -14.02181], [-39.39436, -14.02171], [-39.39402, -14.0221], [-39.3941, -14.02408], [-39.39376, -14.02504], [-39.39286, -14.02576], [-39.39183, -14.02705], [-39.39119, -14.02755], [-39.39006, -14.02778], [-39.38802, -14.02719], [-39.38755, -14.02691], [-39.38725, -14.02624], [-39.38691, -14.02603], [-39.38617, -14.02619], [-39.38535, -14.02699], [-39.38381, -14.02689], [-39.38286, -14.02705], [-39.3829, -14.02793], [-39.3844, -14.03428], [-39.38439, -14.03574], [-39.384, -14.03632], [-39.38361, -14.03629], [-39.38299, -14.03561], [-39.38193, -14.0351], [-39.38142, -14.03464], [-39.38128, -14.03362], [-39.38147, -14.0322], [-39.38116, -14.03132], [-39.38063, -14.03088], [-39.37919, -14.03097], [-39.37874, -14.03086], [-39.37811, -14.03039], [-39.37772, -14.03036], [-39.37707, -14.03083], [-39.37592, -14.03069], [-39.37474, -14.03187], [-39.37322, -14.0321], [-39.37303, -14.03325], [-39.37218, -14.03355], [-39.37168, -14.03426], [-39.37199, -14.03566], [-39.3727, -14.03665], [-39.37361, -14.03851], [-39.37445, -14.03901], [-39.37589, -14.03904], [-39.37605, -14.03923], [-39.37602, -14.0398], [-39.37519, -14.04155], [-39.3751, -14.04303], [-39.37481, -14.04409], [-39.37442, -14.04438], [-39.3732, -14.04444], [-39.37294, -14.0446], [-39.37291, -14.04509], [-39.37316, -14.04609], [-39.37278, -14.0468], [-39.37233, -14.04726], [-39.37198, -14.04735], [-39.37075, -14.0469], [-39.37021, -14.04703], [-39.37012, -14.04774], [-39.36939, -14.04822], [-39.36873, -14.04931], [-39.36997, -14.04972], [-39.37097, -14.04946], [-39.3713, -14.04964], [-39.37198, -14.05065], [-39.37246, -14.051], [-39.37293, -14.05105], [-39.37454, -14.05072], [-39.37668, -14.05115], [-39.37746, -14.05105], [-39.37952, -14.04999], [-39.38027, -14.04987], [-39.38246, -14.051], [-39.38347, -14.05075], [-39.38392, -14.05024], [-39.38427, -14.05024], [-39.38472, -14.0508], [-39.38472, -14.05296], [-39.38498, -14.05317], [-39.38802, -14.04775], [-39.39113, -14.04414], [-39.39183, -14.04378], [-39.39298, -14.04379], [-39.39502, -14.04467], [-39.39556, -14.04466], [-39.39655, -14.04423], [-39.40016, -14.04071], [-39.40108, -14.04021], [-39.40997, -14.03906], [-39.41357, -14.03752], [-39.41816, -14.03686], [-39.41883, -14.03657], [-39.41929, -14.03612], [-39.41968, -14.03537], [-39.42418, -14.02303], [-39.42492, -14.02247], [-39.42703, -14.02222], [-39.42542, -14.01813], [-39.42494, -14.01607], [-39.42503, -14.01378], [-39.42467, -14.01323], [-39.42415, -14.0129], [-39.42356, -14.01145], [-39.42263, -14.01149], [-39.42145, -14.01125], [-39.42075, -14.01136], [-39.41991, -14.0125], [-39.41826, -14.01227], [-39.41802, -14.01269], [-39.41894, -14.01446], [-39.4186, -14.0147], [-39.41772, -14.01492], [-39.41646, -14.01578], [-39.41521, -14.01701], [-39.41452, -14.0167], [-39.41375, -14.01668], [-39.41352, -14.01762], [-39.41365, -14.01865], [-39.41303, -14.01885], [-39.41266, -14.01859], [-39.41173, -14.01861], [-39.41164, -14.0192], [-39.41103, -14.01918], [-39.41134, -14.0205], [-39.41044, -14.02106], [-39.4085, -14.02187], [-39.40793, -14.02246], [-39.40735, -14.02376], [-39.40643, -14.02361], [-39.40581, -14.02371], [-39.40534, -14.02429], [-39.40435, -14.02366]]]}}, 
{"type": "Feature", "properties": {"CD_SETOR": "291270705000035", "CD_SIT": "8", "NM_DIST": "Ibirapitanga", "NM_SUBDIST": null}, "geometry": {"type": "Polygon", "coordinates": [[[-39.46237, -13.99141], [-39.46217, -13.99179], [-39.45826, -13.99551], [-39.45752, -13.99596], [-39.45629, -13.9958], [-39.45363, -13.99454], [-39.45302, -13.9945], [-39.45243, -13.99473], [-39.45203, -13.99508], [-39.44808, -14.00007], [-39.44774, -14.00084], [-39.44714, -14.00531], [-39.44655, -14.00615], [-39.44548, -14.00702], [-39.44498, -14.00766], [-39.44392, -14.01217], [-39.4432, -14.0131], [-39.44125, -14.0142], [-39.44043, -14.01441], [-39.43968, -14.01402], [-39.43874, -14.01235], [-39.43745, -14.01159], [-39.43672, -14.01147], [-39.43628, -14.01165], [-39.43602, -14.01198], [-39.43591, -14.01229], [-39.43604, -14.01325], [-39.43988, -14.01693], [-39.44002, -14.01769], [-39.43735, -14.01867], [-39.4381, -14.02036], [-39.43498, -14.02232], [-39.4348, -14.02241], [-39.43374, -14.0222], [-39.4329, -14.02187], [-39.43232, -14.0211], [-39.43085, -14.02198], [-39.42995, -14.02354], [-39.42969, -14.02334], [-39.4296, -14.02445], [-39.42971, -14.02561], [-39.43105, -14.02818], [-39.43146, -14.03073], [-39.43192, -14.03101], [-39.43562, -14.03137], [-39.43603, -14.03186], [-39.43663, -14.03366], [-39.43739, -14.03363], [-39.44472, -14.03277], [-39.44718, -14.0311], [-39.44804, -14.03117], [-39.44971, -14.02994], [-39.45358, -14.03023], [-39.4539, -14.0308], [-39.45402, -14.03224], [-39.45422, -14.03277], [-39.45793, -14.03208], [-39.46041, -14.03191], [-39.46331, -14.03206], [-39.46412, -14.03183], [-39.46492, -14.03118], [-39.4661, -14.02931], [-39.46699, -14.02896], [-39.46906, -14.02888], [-39.46955, -14.02922], [-39.46996, -14.02983], [-39.47091, -14.03193], [-39.47273, -14.03398], [-39.47411, -14.03519], [-39.47537, -14.03576], [-39.47604, -14.03646], [-39.47635, -14.03701], [-39.47642, -14.03839], [-39.47692, -14.03922], [-39.48114, -14.04008], [-39.48366, -14.04203], [-39.4852, -14.04623], [-39.48672, -14.04769], [-39.48779, -14.04907], [-39.48783, -14.04953], [-39.48746, -14.05075], [-39.48821, -14.05236], [-39.48896, -14.0546], [-39.49105, -14.05334], [-39.49176, -14.05211], [-39.4923, -14.05161], [-39.49445, -14.0505], [-39.49714, -14.05088], [-39.49981, -14.05206], [-39.50318, -14.05397], [-39.50385, -14.05396], [-39.50463, -14.05365], [-39.50522, -14.05245], [-39.50501, -14.05081], [-39.50434, -14.04934], [-39.50521, -14.04652], [-39.50463, -14.04462], [-39.50609, -14.04249], [-39.50604, -14.04179], [-39.50566, -14.04133], [-39.50462, -14.04063], [-39.50384, -14.04038], [-39.50173, -14.04031], [-39.50054, -14.03933], [-39.49913, -14.0387], [-39.49836, -14.03849], [-39.49659, -14.03853], [-39.49609, -14.03792], [-39.4952, -14.03578], [-39.49486, -14.03312], [-39.49446, -14.03249], [-39.49313, -14.03115], [-39.49207, -14.03051], [-39.49034, -14.0307], [-39.48946, -14.03017], [-39.48797, -14.02846], [-39.48616, -14.02712], [-39.48614, -14.02633], [-39.48652, -14.02553], [-39.48701, -14.02361], [-39.48713, -14.02164], [-39.48749, -14.02107], [-39.48842, -14.02043], [-39.48945, -14.01732], [-39.48992, -14.01672], [-39.49263, -14.01481], [-39.49277, -14.01417], [-39.49181, -14.01231], [-39.49109, -14.01142], [-39.48764, -14.01005], [-39.48549, -14.0085], [-39.48497, -14.00728], [-39.48467, -14.00567], [-39.48487, -14.00304], [-39.48461, -14.00188], [-39.4847, -14.00066], [-39.48528, -13.99963], [-39.48551, -13.99878], [-39.48542, -13.99801], [-39.48455, -13.9958], [-39.48467, -13.99489], [-39.48389, -13.99328], [-39.4819, -13.99304], [-39.4808, -13.99335], [-39.47951, -13.99466], [-39.47852, -13.99487], [-39.47726, -13.99476], [-39.47512, -13.99389], [-39.47313, -13.99138], [-39.47146, -13.99168], [-39.4698, -13.99154], [-39.4683, -13.9906], [-39.46672, -13.98906], [-39.46539, -13.98873], [-39.46237, -13.99141]]]}}, 
{"type": "Feature", "properties": {"CD_SETOR": "291270705000036", "CD_SIT": "8", "NM_DIST": "Ibirapitanga", "NM_SUBDIST": null}, "geometry": {"type": "Polygon", "coordinates": [[[-39.34122, -14.07159], [-39.33993, -14.07275], [-39.3397, -14.07344], [-39.33982, -14.07456], [-39.34019, -14.07535], [-39.34023, -14.07738], [-39.3412, -14.07919], [-39.34123, -14.07958], [-39.34101, -14.07998], [-39.34049, -14.08053], [-39.33972, -14.08082], [-39.33542, -14.08181], [-39.33531, -14.08225], [-39.33542, -14.08354], [-39.33527, -14.0839], [-39.33465, -14.08455], [-39.33346, -14.08524], [-39.33202, -14.08734], [-39.33035, -14.08924], [-39.33087, -14.09085], [-39.33095, -14.09168], [-39.33066, -14.09378], [-39.33222, -14.09877], [-39.33315, -14.10093], [-39.33564, -14.1052], [-39.33611, -14.1063], [-39.337, -14.10745], [-39.33739, -14.10767], [-39.33726, -14.10662], [-39.33772, -14.1061], [-39.33841, -14.10588], [-39.34038, -14.10597], [-39.34074, -14.10578], [-39.34084, -14.10453], [-39.34121, -14.10403], [-39.34253, -14.10408], [-39.34283, -14.10268], [-39.34361, -14.10052], [-39.34416, -14.09841], [-39.34425, -14.0965], [-39.34407, -14.09522], [-39.34414, -14.09444], [-39.34503, -14.09219], [-39.346, -14.09092], [-39.34975, -14.08947], [-39.35064, -14.08793], [-39.35141, -14.08782], [-39.35219, -14.08806], [-39.35294, -14.08729], [-39.35454, -14.08673], [-39.35349, -14.08542], [-39.35347, -14.08467], [-39.35275, -14.08285], [-39.3527, -14.08212], [-39.35214, -14.08113], [-39.35205, -14.08041], [-39.35165, -14.0795], [-39.35116, -14.07664], [-39.35049, -14.07582], [-39.3498, -14.07452], [-39.34924, -14.07438], [-39.34848, -14.07466], [-39.34806, -14.0746], [-39.34741, -14.07352], [-39.34649, -14.07294], [-39.34611, -14.07212], [-39.34458, -14.07147], [-39.34413, -14.07107], [-39.34329, -14.0713], [-39.34278, -14.07165], [-39.34122, -14.07159]]]}}, 
{"type": "Feature", "properties": {"CD_SETOR": "291270705000037", "CD_SIT": "8", "NM_DIST": "Ibirapitanga", "NM_SUBDIST": null}, "geometry": {"type": "Polygon", "coordinates": [[[-39.38794, -14.07466], [-39.3881, -14.07591], [-39.3877, -14.07681], [-39.38739, -14.07714], [-39.38294, -14.07971], [-39.38235, -14.08027], [-39.37727, -14.09112], [-39.37671, -14.09175], [-39.37408, -14.09368], [-39.37355, -14.09437], [-39.37182, -14.10123], [-39.37147, -14.10188], [-39.37063, -14.10252], [-39.36716, -14.10397], [-39.36642, -14.10452], [-39.3656, -14.10572], [-39.36528, -14.10668], [-39.36417, -14.11265], [-39.36407, -14.12417], [-39.36577, -14.12427], [-39.36606, -14.12585], [-39.36624, -14.12603], [-39.3666, -14.12608], [-39.36787, -14.12525], [-39.36998, -14.12324], [-39.37024, -14.12277], [-39.36983, -14.12213], [-39.37017, -14.12179], [-39.37127, -14.12141], [-39.37406, -14.12177], [-39.37525, -14.12145], [-39.37585, -14.1208], [-39.37815, -14.12249], [-39.37945, -14.12266], [-39.38008, -14.1224], [-39.38161, -14.12305], [-39.38372, -14.12367], [-39.38394, -14.12401], [-39.38363, -14.12481], [-39.38373, -14.12522], [-39.38443, -14.12597], [-39.38532, -14.12492], [-39.385, -14.12425], [-39.38541, -14.1235], [-39.38544, -14.12324], [-39.38519, -14.12279], [-39.38533, -14.12248], [-39.38706, -14.12075], [-39.38781, -14.11968], [-39.38781, -14.11899], [-39.38734, -14.11819], [-39.38695, -14.11795], [-39.38629, -14.117], [-39.38612, -14.11585], [-39.38558, -14.11555], [-39.38552, -14.11537], [-39.38556, -14.11493], [-39.38624, -14.11445], [-39.38679, -14.11374], [-39.38682, -14.11344], [-39.38647, -14.11281], [-39.38626, -14.11182], [-39.387, -14.10934], [-39.38692, -14.1089], [-39.38641, -14.10818], [-39.38704, -14.10417], [-39.38688, -14.10328], [-39.38626, -14.10219], [-39.38415, -14.09952], [-39.38377, -14.09874], [-39.38336, -14.09669], [-39.38548, -14.09702], [-39.38884, -14.09618], [-39.38956, -14.09587], [-39.39133, -14.09628], [-39.39211, -14.09616], [-39.3932, -14.09532], [-39.39338, -14.09215], [-39.39319, -14.09111], [-39.3926, -14.08991], [-39.39192, -14.0873], [-39.39188, -14.08562], [-39.39247, -14.0844], [-39.39239, -14.08354], [-39.39286, -14.08232], [-39.39245, -14.08011], [-39.39178, -14.07972], [-39.39132, -14.07921], [-39.39269, -14.07803], [-39.39105, -14.07772], [-39.39085, -14.07741], [-39.39093, -14.07668], [-39.38949, -14.07625], [-39.38866, -14.07472], [-39.38841, -14.07453], [-39.38794, -14.07466]]]}}, 
{"type": "Feature", "properties": {"CD_SETOR": "291270705000038", "CD_SIT": "1", "NM_DIST": "Ibirapitanga", "NM_SUBDIST": null}, "geometry": {"type": "Polygon", "coordinates": [[[-39.37163, -14.15766], [-39.37247, -14.16081], [-39.37367, -14.16027], [-39.37417, -14.16115], [-39.374, -14.16126], [-39.3743, -14.16146], [-39.3749, -14.16128], [-39.37536, -14.16061], [-39.3755, -14.16011], [-39.37448, -14.15921], [-39.37362, -14.15796], [-39.3747, -14.15667], [-39.37463, -14.15641], [-39.37378, -14.15661], [-39.37366, -14.15719], [-39.37335, -14.15725], [-39.37329, -14.15758], [-39.37287, -14.15719], [-39.37212, -14.15738], [-39.37214, -14.1577], [-39.37179, -14.15754], [-39.37163, -14.15766]]]}}, 
{"type": "Feature", "properties": {"CD_SETOR": "291270705000039", "CD_SIT": "1", "NM_DIST": "Ibirapitanga", "NM_SUBDIST": null}, "geometry": {"type": "Polygon", "coordinates": [[[-39.36659, -14.15952], [-39.37035, -14.16126], [-39.3706, -14.16021], [-39.37137, -14.16041], [-39.37221, -14.15959], [-39.37171, -14.15763], [-39.37098, -14.15796], [-39.37079, -14.15776], [-39.37022, -14.15792], [-39.36954, -14.15732], [-39.36941, -14.15751], [-39.36924, -14.15741], [-39.36917, -14.15767], [-39.36943, -14.15783], [-39.3692, -14.15802], [-39.36851, -14.15786], [-39.3688, -14.15837], [-39.36853, -14.15845], [-39.3686, -14.15883], [-39.36754, -14.15914], [-39.36716, -14.15904], [-39.3667, -14.15927], [-39.36659, -14.15952]]]}}, 
{"type": "Feature", "properties": {"CD_SETOR": "291270705000040", "CD_SIT": "5", "NM_DIST": "Ibirapitanga", "NM_SUBDIST": null}, "geometry": {"type": "Polygon", "coordinates": [[[-39.51385, -14.21788], [-39.51195, -14.22021], [-39.51027, -14.22175], [-39.50964, -14.22285], [-39.51146, -14.22121], [-39.5126, -14.22055], [-39.5155, -14.21792], [-39.51517, -14.21751], [-39.51395, -14.2185], [-39.51378, -14.21832], [-39.51399, -14.21801], [-39.51385, -14.21788]]]}}, 
{"type": "Feature", "properties": {"CD_SETOR": "291270705000041", "CD_SIT": "5", "NM_DIST": "Ibirapitanga", "NM_SUBDIST": null}, "geometry": {"type": "Polygon", "coordinates": [[[-39.42897, -14.01646], [-39.42988, -14.01799], [-39.42972, -14.01812], [-39.43039, -14.01877], [-39.42973, -14.0196], [-39.42958, -14.02014], [-39.43183, -14.01766], [-39.43229, -14.01731], [-39.43309, -14.01707], [-39.43238, -14.01684], [-39.43143, -14.01735], [-39.4302, -14.01637], [-39.42967, -14.0163], [-39.42897, -14.01646]]]}}, 
{"type": "Feature", "properties": {"CD_SETOR": "291270705000042", "CD_SIT": "8", "NM_DIST": "Ibirapitanga", "NM_SUBDIST": null}, "geometry": {"type": "Polygon", "coordinates": [[[-39.48867, -13.88062], [-39.48866, -13.88122], [-39.4883, -13.88213], [-39.48656, -13.88361], [-39.48444, -13.88483], [-39.47921, -13.88964], [-39.47888, -13.89059], [-39.47801, -13.89677], [-39.47855, -13.89899], [-39.48057, -13.90523], [-39.48002, -13.90708], [-39.47992, -13.90803], [-39.48002, -13.90856], [-39.48139, -13.90967], [-39.48209, -13.91257], [-39.48226, -13.91511], [-39.48286, -13.91612], [-39.48531, -13.91797], [-39.4858, -13.91886], [-39.48623, -13.92077], [-39.48612, -13.92172], [-39.48521, -13.92295], [-39.48819, -13.92182], [-39.48804, -13.93443], [-39.48922, -13.93417], [-39.49119, -13.9346], [-39.49246, -13.93463], [-39.49307, -13.9345], [-39.49375, -13.93409], [-39.49503, -13.93364], [-39.49664, -13.93257], [-39.49839, -13.93221], [-39.49908, -13.93227], [-39.50052, -13.93275], [-39.50128, -13.93382], [-39.50196, -13.93406], [-39.50479, -13.93385], [-39.50666, -13.93406], [-39.5086, -13.93456], [-39.50907, -13.93572], [-39.50919, -13.93664], [-39.50958, -13.93736], [-39.51035, -13.93748], [-39.51148, -13.93739], [-39.51267, -13.93712], [-39.5135, -13.93656], [-39.51389, -13.93593], [-39.51353, -13.93302], [-39.51383, -13.93183], [-39.51424, -13.9313], [-39.51563, -13.9307], [-39.51827, -13.9307], [-39.51977, -13.93088], [-39.5208, -13.93063], [-39.52152, -13.9302], [-39.52223, -13.92927], [-39.5228, -13.92781], [-39.52391, -13.92684], [-39.52637, -13.92677], [-39.52983, -13.9272], [-39.53055, -13.92706], [-39.53194, -13.92481], [-39.53255, -13.9242], [-39.53354, -13.92374], [-39.53317, -13.9235], [-39.53234, -13.92186], [-39.5313, -13.92137], [-39.5311, -13.92093], [-39.53092, -13.91855], [-39.53043, -13.91708], [-39.52925, -13.91547], [-39.52581, -13.91603], [-39.52481, -13.91585], [-39.5232, -13.91507], [-39.5227, -13.91503], [-39.51988, -13.91544], [-39.51911, -13.91585], [-39.51888, -13.91575], [-39.51912, -13.91503], [-39.51906, -13.91444], [-39.5182, -13.91338], [-39.51741, -13.91181], [-39.51749, -13.91068], [-39.51775, -13.90987], [-39.51824, -13.90905], [-39.5028, -13.90481], [-39.50228, -13.90432], [-39.5019, -13.9019], [-39.50052, -13.89937], [-39.50018, -13.89823], [-39.50057, -13.89718], [-39.50052, -13.89642], [-39.50009, -13.8959], [-39.49928, -13.89556], [-39.49766, -13.89419], [-39.49685, -13.89142], [-39.49624, -13.89072], [-39.49438, -13.88938], [-39.49409, -13.88857], [-39.49457, -13.88733], [-39.49441, -13.88675], [-39.49318, -13.88615], [-39.49262, -13.88444], [-39.49245, -13.88281], [-39.49227, -13.88245], [-39.49134, -13.88156], [-39.49041, -13.88096], [-39.48926, -13.88061], [-39.48867, -13.88062]]]}}, 
{"type": "Feature", "properties": {"CD_SETOR": "291270705000043", "CD_SIT": "5", "NM_DIST": "Ibirapitanga", "NM_SUBDIST": null}, "geometry": {"type": "Polygon", "coordinates": [[[-39.4257, -14.01884], [-39.42699, -14.02211], [-39.42769, -14.02196], [-39.42823, -14.02158], [-39.42958, -14.02014], [-39.42973, -14.0196], [-39.43039, -14.01877], [-39.42972, -14.01812], [-39.42988, -14.01799], [-39.42897, -14.01646], [-39.42855, -14.0166], [-39.4257, -14.01884]]]}}, 
{"type": "Feature", "properties": {"CD_SETOR": "291270705000044", "CD_SIT": "1", "NM_DIST": "Ibirapitanga", "NM_SUBDIST": null}, "geometry": {"type": "Polygon", "coordinates": [[[-39.3743, -14.16146], [-39.37315, -14.16297], [-39.37467, -14.16493], [-39.37607, -14.16481], [-39.37603, -14.16447], [-39.37501, -14.1628], [-39.37507, -14.16156], [-39.3749, -14.16128], [-39.3743, -14.16146]]]}}, 
{"type": "Feature", "properties": {"CD_SETOR": "291270705000045", "CD_SIT": "2", "NM_DIST": "Ibirapitanga", "NM_SUBDIST": null}, "geometry": {"type": "Polygon", "coordinates": [[[-39.3755, -14.16011], [-39.37536, -14.16061], [-39.3749, -14.16128], [-39.37507, -14.16156], [-39.37501, -14.1628], [-39.37603, -14.16447], [-39.37612, -14.16427], [-39.37656, -14.16412], [-39.37735, -14.16423], [-39.37778, -14.16444], [-39.37803, -14.16491], [-39.37812, -14.16478], [-39.37835, -14.16493], [-39.37866, -14.16479], [-39.37931, -14.16506], [-39.37953, -14.16545], [-39.37975, -14.16538], [-39.37977, -14.16515], [-39.38003, -14.16525], [-39.38019, -14.16558], [-39.38011, -14.16599], [-39.38096, -14.1678], [-39.38169, -14.16544], [-39.37778, -14.15323], [-39.37669, -14.15615], [-39.37615, -14.15714], [-39.37614, -14.15795], [-39.37566, -14.15906], [-39.3755, -14.16011]]]}}, 
{"type": "Feature", "properties": {"CD_SETOR": "291270705000046", "CD_SIT": "1", "NM_DIST": "Ibirapitanga", "NM_SUBDIST": null}, "geometry": {"type": "Polygon", "coordinates": [[[-39.36649, -14.16075], [-39.36679, -14.16219], [-39.36675, -14.16309], [-39.36721, -14.16297], [-39.36745, -14.16368], [-39.36854, -14.16302], [-39.36865, -14.1627], [-39.36741, -14.1609], [-39.36781, -14.16038], [-39.36755, -14.16], [-39.36659, -14.15952], [-39.36667, -14.1606], [-39.36661, -14.16079], [-39.36649, -14.16075]]]}}, 
{"type": "Feature", "properties": {"CD_SETOR": "291270705000047", "CD_SIT": "1", "NM_DIST": "Ibirapitanga", "NM_SUBDIST": null}, "geometry": {"type": "Polygon", "coordinates": [[[-39.37153, -14.16608], [-39.36953, -14.16301], [-39.36908, -14.16343], [-39.36884, -14.16308], [-39.36896, -14.16278], [-39.36865, -14.1627], [-39.36854, -14.16302], [-39.36745, -14.16368], [-39.36721, -14.16297], [-39.36675, -14.16309], [-39.36679, -14.16219], [-39.36649, -14.16075], [-39.36573, -14.16043], [-39.36532, -14.16049], [-39.36494, -14.16123], [-39.36538, -14.16151], [-39.36569, -14.16239], [-39.36563, -14.16261], [-39.36592, -14.16297], [-39.36628, -14.16303], [-39.36616, -14.16353], [-39.36656, -14.16361], [-39.36655, -14.16392], [-39.36684, -14.16418], [-39.36734, -14.16389], [-39.368, -14.16472], [-39.36817, -14.16476], [-39.36847, -14.16453], [-39.36912, -14.16516], [-39.36983, -14.16482], [-39.37047, -14.16557], [-39.37064, -14.16636], [-39.37128, -14.16648], [-39.37153, -14.16608]]]}}, 
{"type": "Feature", "properties": {"CD_SETOR": "291270705000048", "CD_SIT": "7", "NM_DIST": "Ibirapitanga", "NM_SUBDIST": null}, "geometry": {"type": "Polygon", "coordinates": [[[-39.34851, -14.14879], [-39.35058, -14.15165], [-39.35293, -14.14964], [-39.35089, -14.14747], [-39.34987, -14.1473], [-39.34944, -14.14807], [-39.34851, -14.14879]]]}}, 
{"type": "Feature", "properties": {"CD_SETOR": "291270705000049", "CD_SIT": "8", "NM_DIST": "Ibirapitanga", "NM_SUBDIST": null}, "geometry": {"type": "Polygon", "coordinates": [[[-39.36407, -14.12417], [-39.36405, -14.12814], [-39.36379, -14.12914], [-39.36341, -14.12965], [-39.35827, -14.13406], [-39.35808, -14.1349], [-39.35839, -14.13614], [-39.35817, -14.13677], [-39.35694, -14.1374], [-39.35395, -14.13845], [-39.35179, -14.13862], [-39.35131, -14.13916], [-39.34987, -14.1473], [-39.35089, -14.14747], [-39.35293, -14.14964], [-39.35058, -14.15165], [-39.34851, -14.14879], [-39.3474, -14.14961], [-39.35911, -14.16175], [-39.37239, -14.17488], [-39.37627, -14.16869], [-39.3746, -14.16901], [-39.37348, -14.16872], [-39.37286, -14.16816], [-39.37153, -14.16608], [-39.37128, -14.16648], [-39.37064, -14.16636], [-39.37047, -14.16557], [-39.36983, -14.16482], [-39.36912, -14.16516], [-39.36847, -14.16453], [-39.36817, -14.16476], [-39.368, -14.16472], [-39.36734, -14.16389], [-39.36684, -14.16418], [-39.36655, -14.16392], [-39.36656, -14.16361], [-39.36616, -14.16353], [-39.36628, -14.16303], [-39.36592, -14.16297], [-39.36572, -14.16275], [-39.36538, -14.16151], [-39.36494, -14.16123], [-39.36532, -14.16049], [-39.36573, -14.16043], [-39.36661, -14.16079], [-39.36656, -14.15968], [-39.3667, -14.15927], [-39.36716, -14.15904], [-39.36754, -14.15914], [-39.3686, -14.15883], [-39.36853, -14.15845], [-39.3688, -14.15837], [-39.36851, -14.15786], [-39.3692, -14.15802], [-39.36943, -14.15783], [-39.36917, -14.15767], [-39.36932, -14.15737], [-39.36941, -14.15751], [-39.36961, -14.15734], [-39.37022, -14.15792], [-39.37079, -14.15776], [-39.37098, -14.15796], [-39.37179, -14.15754], [-39.37207, -14.15773], [-39.37212, -14.15738], [-39.37287, -14.15719], [-39.37329, -14.15758], [-39.37335, -14.15725], [-39.37366, -14.15719], [-39.37378, -14.15661], [-39.37491, -14.15633], [-39.37532, -14.15601], [-39.37534, -14.15578], [-39.3751, -14.15576], [-39.3751, -14.15549], [-39.37561, -14.15493], [-39.37626, -14.15457], [-39.37642, -14.15426], [-39.37694, -14.15404], [-39.37759, -14.15315], [-39.37765, -14.15288], [-39.37748, -14.15261], [-39.37762, -14.1525], [-39.37656, -14.15096], [-39.37649, -14.15059], [-39.37668, -14.14891], [-39.37645, -14.14691], [-39.37816, -14.14458], [-39.37875, -14.14279], [-39.37881, -14.14009], [-39.37968, -14.1386], [-39.38025, -14.13622], [-39.38088, -14.13574], [-39.38134, -14.13511], [-39.38141, -14.13407], [-39.38184, -14.13335], [-39.38218, -14.13171], [-39.38182, -14.13053], [-39.38205, -14.12929], [-39.38192, -14.12884], [-39.38252, -14.12773], [-39.38336, -14.12716], [-39.38443, -14.12597], [-39.38373, -14.12522], [-39.38363, -14.12481], [-39.38394, -14.12401], [-39.38372, -14.12367], [-39.38161, -14.12305], [-39.38008, -14.1224], [-39.37945, -14.12266], [-39.37815, -14.12249], [-39.37585, -14.1208], [-39.37525, -14.12145], [-39.37406, -14.12177], [-39.37127, -14.12141], [-39.37017, -14.12179], [-39.36983, -14.12213], [-39.37024, -14.12277], [-39.36998, -14.12324], [-39.36876, -14.12453], [-39.3666, -14.12608], [-39.36606, -14.12585], [-39.36577, -14.12427], [-39.36407, -14.12417]]]}}]}