{"type": "FeatureCollection", "features": [
{"type": "Feature", "properties": {"CD_SETOR": "291510605000001", "CD_SIT": "2", "NM_DIST": "Itagi", "NM_SUBDIST": null}, "geometry": {"type": "Polygon", "coordinates": [[[-40.01045, -14.16164], [-40.00959, -14.16194], [-40.00617, -14.16136], [-40.00594, -14.16228], [-40.00525, -14.16346], [-40.00538, -14.16407], [-40.00618, -14.16382], [-40.00626, -14.16326], [-40.00827, -14.16339], [-40.00842, -14.16256], [-40.01103, -14.16316], [-40.01317, -14.16198], [-40.01514, -14.1628], [-40.01754, -14.16231], [-40.01597, -14.15951], [-40.01045, -14.16164]]]}}, 
{"type": "Feature", "properties": {"CD_SETOR": "291510605000003", "CD_SIT": "1", "NM_DIST": "Itagi", "NM_SUBDIST": null}, "geometry": {"type": "Polygon", "coordinates": [[[-40.00617, -14.16136], [-40.00855, -14.16176], [-40.00857, -14.1612], [-40.00771, -14.16099], [-40.00767, -14.15942], [-40.00843, -14.15808], [-40.00777, -14.15797], [-40.00722, -14.15846], [-40.00617, -14.16136]]]}}, 
{"type": "Feature", "properties": {"CD_SETOR": "291510605000006", "CD_SIT": "1", "NM_DIST": "Itagi", "NM_SUBDIST": null}, "geometry": {"type": "Polygon", "coordinates": [[[-40.00543, -14.16094], [-40.00467, -14.16184], [-40.0032, -14.16434], [-40.00238, -14.16541], [-40.00262, -14.16548], [-40.00205, -14.16839], [-40.00292, -14.16866], [-40.00292, -14.16791], [-40.00314, -14.16744], [-40.00381, -14.16736], [-40.00416, -14.16674], [-40.00431, -14.16637], [-40.00447, -14.16518], [-40.00442, -14.16427], [-40.0046, -14.16359], [-40.00533, -14.16337], [-40.00594, -14.16228], [-40.00615, -14.16149], [-40.0057, -14.16082], [-40.00543, -14.16094]]]}}, 
{"type": "Feature", "properties": {"CD_SETOR": "291510605000007", "CD_SIT": "1", "NM_DIST": "Itagi", "NM_SUBDIST": null}, "geometry": {"type": "Polygon", "coordinates": [[[-40.00133, -14.16731], [-40.00222, -14.16748], [-40.00262, -14.16548], [-40.00168, -14.16532], [-40.00133, -14.16731]]]}}, 
{"type": "Feature", "properties": {"CD_SETOR": "291510605000008", "CD_SIT": "1", "NM_DIST": "Itagi", "NM_SUBDIST": null}, "geometry": {"type": "Polygon", "coordinates": [[[-40.00236, -14.16844], [-40.00205, -14.16839], [-40.00222, -14.16748], [-40.00133, -14.16731], [-40.00106, -14.16869], [-40.00159, -14.1691], [-40.00221, -14.16922], [-40.00236, -14.16844]]]}}, 
{"type": "Feature", "properties": {"CD_SETOR": "291510605000009", "CD_SIT": "2", "NM_DIST": "Itagi", "NM_SUBDIST": null}, "geometry": {"type": "Polygon", "coordinates": [[[-40.00047, -14.17772], [-40.0008, -14.17608], [-40.00046, -14.17522], [-40.00072, -14.17297], [-40.00171, -14.1717], [-40.00193, -14.1706], [-40.00267, -14.16945], [-40.00292, -14.16866], [-40.00236, -14.16844], [-40.00221, -14.16922], [-40.00159, -14.1691], [-40.00106, -14.16869], [-40.00168, -14.16532], [-39.99504, -14.16464], [-39.99984, -14.17772], [-40.00047, -14.17772]]]}}, 
{"type": "Feature", "properties": {"CD_SETOR": "291510605000010", "CD_SIT": "2", "NM_DIST": "Itagi", "NM_SUBDIST": null}, "geometry": {"type": "Polygon", "coordinates": [[[-40.00292, -14.16866], [-40.00267, -14.16945], [-40.00193, -14.1706], [-40.00171, -14.1717], [-40.00072, -14.17297], [-40.00046, -14.17522], [-40.0008, -14.17608], [-40.00047, -14.17772], [-40.00097, -14.1777], [-40.00808, -14.17148], [-40.00714, -14.16896], [-40.00587, -14.16944], [-40.00448, -14.16898], [-40.00459, -14.16787], [-40.00381, -14.16736], [-40.00345, -14.16731], [-40.00314, -14.16744], [-40.00297, -14.16774], [-40.00292, -14.16866]]]}}, 
{"type": "Feature", "properties": {"CD_SETOR": "291510605000011", "CD_SIT": "1", "NM_DIST": "Itagi", "NM_SUBDIST": null}, "geometry": {"type": "Polygon", "coordinates": [[[-40.00381, -14.16736], [-40.00459, -14.16787], [-40.00448, -14.16898], [-40.00587, -14.16944], [-40.00714, -14.16896], [-40.00663, -14.1682], [-40.00582, -14.16642], [-40.00525, -14.16346], [-40.0046, -14.16359], [-40.00442, -14.16427], [-40.00447, -14.16518], [-40.00431, -14.16637], [-40.00381, -14.16736]]]}}, 
{"type": "Feature", "properties": {"CD_SETOR": "291510605000013", "CD_SIT": "8", "NM_DIST": "Itagi", "NM_SUBDIST": null}, "geometry": {"type": "Polygon", "coordinates": [[[-40.01003, -14.15032], [-40.01048, -14.15052], [-40.01694, -14.1611], [-40.01754, -14.16231], [-40.01829, -14.16201], [-40.01859, -14.16054], [-40.01943, -14.16006], [-40.02321, -14.16135], [-40.02377, -14.16105], [-40.02396, -14.16015], [-40.02433, -14.15958], [-40.0256, -14.15882], [-40.02639, -14.15855], [-40.02712, -14.15868], [-40.02872, -14.15829], [-40.0327, -14.15548], [-40.03346, -14.15533], [-40.03417, -14.15544], [-40.03471, -14.15499], [-40.03565, -14.15488], [-40.03614, -14.15447], [-40.03718, -14.15447], [-40.03761, -14.15421], [-40.03774, -14.15389], [-40.03822, -14.15344], [-40.03938, -14.15273], [-40.03996, -14.15257], [-40.04044, -14.15213], [-40.04055, -14.15167], [-40.04086, -14.15146], [-40.04268, -14.15118], [-40.04318, -14.15089], [-40.044, -14.14956], [-40.04491, -14.14905], [-40.04573, -14.14819], [-40.04633, -14.14787], [-40.04722, -14.14777], [-40.04835, -14.14736], [-40.04922, -14.14631], [-40.05008, -14.14575], [-40.05046, -14.14468], [-40.0511, -14.14376], [-40.05311, -14.14325], [-40.05548, -14.14167], [-40.05615, -14.141], [-40.057, -14.14058], [-40.05835, -14.1407], [-40.05961, -14.14101], [-40.06004, -14.14084], [-40.0265, -14.10054], [-40.02625, -14.10093], [-40.02588, -14.10307], [-40.02689, -14.105], [-40.02688, -14.10577], [-40.02658, -14.10608], [-40.02573, -14.10627], [-40.02525, -14.10658], [-40.02322, -14.10865], [-40.023, -14.10907], [-40.02307, -14.11042], [-40.02292, -14.11159], [-40.02341, -14.11238], [-40.02309, -14.11331], [-40.02321, -14.11419], [-40.02269, -14.11577], [-40.0229, -14.11713], [-40.02272, -14.1179], [-40.02227, -14.11896], [-40.02171, -14.11975], [-40.0203, -14.12361], [-40.01921, -14.12489], [-40.01701, -14.1267], [-40.01643, -14.12758], [-40.01635, -14.12819], [-40.01659, -14.12905], [-40.01579, -14.1302], [-40.01559, -14.13166], [-40.01631, -14.13341], [-40.01561, -14.13701], [-40.01467, -14.13888], [-40.01396, -14.13945], [-40.01357, -14.14], [-40.01362, -14.14105], [-40.01309, -14.14233], [-40.01274, -14.14278], [-40.01214, -14.14294], [-40.01178, -14.14328], [-40.01168, -14.14407], [-40.01231, -14.14541], [-40.01001, -14.14717], [-40.01032, -14.1489], [-40.01003, -14.15032]]]}}, 
{"type": "Feature", "properties": {"CD_SETOR": "291510605000014", "CD_SIT": "8", "NM_DIST": "Itagi", "NM_SUBDIST": null}, "geometry": {"type": "Polygon", "coordinates": [[[-39.95442, -14.06592], [-39.9525, -14.06647], [-39.95041, -14.06671], [-39.94673, -14.0677], [-39.94567, -14.06865], [-39.94401, -14.07093], [-39.94352, -14.07246], [-39.94273, -14.07323], [-39.94094, -14.07573], [-39.93833, -14.07804], [-39.93717, -14.07866], [-39.93837, -14.07993], [-39.93951, -14.08023], [-39.93991, -14.08055], [-39.94028, -14.08126], [-39.94082, -14.08382], [-39.94202, -14.08552], [-39.94295, -14.0863], [-39.9495, -14.1521], [-39.93551, -14.15466], [-39.9354, -14.15523], [-39.93571, -14.15673], [-39.93668, -14.15938], [-39.93886, -14.16694], [-39.93879, -14.16968], [-39.93828, -14.1705], [-39.93794, -14.17065], [-39.93675, -14.17073], [-39.93625, -14.17101], [-39.93607, -14.1716], [-39.93616, -14.17295], [-39.93605, -14.17353], [-39.93689, -14.17424], [-39.93728, -14.17486], [-39.9384, -14.17478], [-39.93872, -14.17594], [-39.93909, -14.17585], [-39.9392, -14.17503], [-39.93982, -14.17495], [-39.94016, -14.17444], [-39.94059, -14.17455], [-39.94089, -14.17505], [-39.9411, -14.17507], [-39.94146, -14.1741], [-39.9425, -14.17418], [-39.94268, -14.17404], [-39.94273, -14.17316], [-39.94301, -14.17315], [-39.94349, -14.17345], [-39.9443, -14.17328], [-39.94521, -14.17347], [-39.94576, -14.17327], [-39.9462, -14.17251], [-39.94674, -14.17204], [-39.94758, -14.17249], [-39.94794, -14.17239], [-39.9481, -14.1719], [-39.94849, -14.1719], [-39.94886, -14.17223], [-39.94915, -14.17223], [-39.94931, -14.1712], [-39.94985, -14.17126], [-39.95033, -14.17162], [-39.95069, -14.1716], [-39.95437, -14.16988], [-39.95501, -14.17013], [-39.95533, -14.17009], [-39.95636, -14.16912], [-39.95829, -14.16835], [-39.95916, -14.1671], [-39.9596, -14.16702], [-39.96038, -14.16727], [-39.96112, -14.16727], [-39.96613, -14.16524], [-39.96596, -14.16416], [-39.96554, -14.16348], [-39.96458, -14.16262], [-39.96448, -14.16179], [-39.96415, -14.16114], [-39.96431, -14.15984], [-39.96475, -14.15876], [-39.96466, -14.15835], [-39.96485, -14.15607], [-39.96406, -14.15479], [-39.96347, -14.15422], [-39.96344, -14.15278], [-39.96306, -14.15199], [-39.9624, -14.15141], [-39.96111, -14.15081], [-39.96034, -14.15063], [-39.96015, -14.15042], [-39.9727, -14.06028], [-39.97172, -14.06129], [-39.96992, -14.0627], [-39.96861, -14.06309], [-39.96572, -14.06454], [-39.96388, -14.06497], [-39.96222, -14.06514], [-39.95909, -14.06457], [-39.9584, -14.0646], [-39.95442, -14.06592]]]}}, 
{"type": "Feature", "properties": {"CD_SETOR": "291510605000015", "CD_SIT": "8", "NM_DIST": "Itagi", "NM_SUBDIST": null}, "geometry": {"type": "Polygon", "coordinates": [[[-39.9727, -14.06028], [-39.96824, -14.09289], [-39.97139, -14.09818], [-39.97191, -14.10049], [-39.97295, -14.10243], [-39.9764, -14.11236], [-39.97647, -14.11283], [-39.9762, -14.11396], [-39.97476, -14.11769], [-39.97483, -14.1183], [-39.97574, -14.1205], [-39.97598, -14.1239], [-39.97653, -14.12555], [-39.97912, -14.13084], [-39.98338, -14.13704], [-39.98608, -14.14152], [-39.98739, -14.14493], [-39.98935, -14.153], [-39.99008, -14.15406], [-39.99143, -14.15476], [-40.01003, -14.15032], [-40.01032, -14.1489], [-40.01001, -14.14717], [-40.01231, -14.14541], [-40.01168, -14.14407], [-40.01178, -14.14328], [-40.01214, -14.14294], [-40.01274, -14.14278], [-40.01309, -14.14233], [-40.01362, -14.14105], [-40.01357, -14.14], [-40.01396, -14.13945], [-40.01467, -14.13888], [-40.01561, -14.13701], [-40.01631, -14.13341], [-40.01559, -14.13166], [-40.01579, -14.1302], [-40.01659, -14.12905], [-40.01635, -14.12819], [-40.01643, -14.12758], [-40.01701, -14.1267], [-40.01921, -14.12489], [-40.0203, -14.12361], [-40.02171, -14.11975], [-40.02227, -14.11896], [-40.02272, -14.1179], [-40.0229, -14.11713], [-40.02269, -14.11577], [-40.02321, -14.11419], [-40.02309, -14.11331], [-40.02341, -14.11238], [-40.02292, -14.11159], [-40.02307, -14.11042], [-40.023, -14.10907], [-40.02322, -14.10865], [-40.02525, -14.10658], [-40.02573, -14.10627], [-40.02658, -14.10608], [-40.02688, -14.10577], [-40.02689, -14.105], [-40.02588, -14.10307], [-40.02625, -14.10093], [-40.0265, -14.10054], [-39.98568, -14.05148], [-39.98426, -14.05266], [-39.98332, -14.05321], [-39.9789, -14.05434], [-39.97545, -14.05579], [-39.97482, -14.05648], [-39.97362, -14.05894], [-39.9727, -14.06028]]]}}, 
{"type": "Feature", "properties": {"CD_SETOR": "291510605000016", "CD_SIT": "8", "NM_DIST": "Itagi", "NM_SUBDIST": null}, "geometry": {"type": "Polygon", "coordinates": [[[-40.06004, -14.14084], [-40.05961, -14.14101], [-40.05835, -14.1407], [-40.057, -14.14058], [-40.05615, -14.141], [-40.05548, -14.14167], [-40.05311, -14.14325], [-40.0511, -14.14376], [-40.05046, -14.14468], [-40.05008, -14.14575], [-40.04922, -14.14631], [-40.04835, -14.14736], [-40.04722, -14.14777], [-40.04633, -14.14787], [-40.04573, -14.14819], [-40.04491, -14.14905], [-40.044, -14.14956], [-40.04318, -14.15089], [-40.04268, -14.15118], [-40.04086, -14.15146], [-40.04055, -14.15167], [-40.04044, -14.15213], [-40.03996, -14.15257], [-40.03938, -14.15273], [-40.03822, -14.15344], [-40.03774, -14.15389], [-40.03761, -14.15421], [-40.03718, -14.15447], [-40.03614, -14.15447], [-40.03565, -14.15488], [-40.03471, -14.15499], [-40.03417, -14.15544], [-40.03346, -14.15533], [-40.0327, -14.15548], [-40.02872, -14.15829], [-40.02712, -14.15868], [-40.02639, -14.15855], [-40.0256, -14.15882], [-40.02433, -14.15958], [-40.02396, -14.16015], [-40.02385, -14.16084], [-40.0236, -14.16123], [-40.02292, -14.16132], [-40.01956, -14.16004], [-40.0187, -14.16045], [-40.01853, -14.16066], [-40.01829, -14.16201], [-40.01754, -14.16231], [-40.01779, -14.1628], [-40.00808, -14.17162], [-40.00962, -14.17346], [-40.01008, -14.17533], [-40.00979, -14.17597], [-40.00983, -14.17622], [-40.01082, -14.17763], [-40.01147, -14.17787], [-40.01164, -14.17852], [-40.01227, -14.17901], [-40.01267, -14.18153], [-40.01323, -14.18179], [-40.01345, -14.18269], [-40.01429, -14.18395], [-40.01702, -14.18556], [-40.01765, -14.18564], [-40.01859, -14.18649], [-40.01911, -14.18757], [-40.02012, -14.18767], [-40.02136, -14.1882], [-40.02185, -14.19], [-40.02304, -14.19195], [-40.02387, -14.19224], [-40.02505, -14.1937], [-40.02612, -14.19394], [-40.02645, -14.19417], [-40.02706, -14.19596], [-40.02876, -14.1977], [-40.02883, -14.1982], [-40.02862, -14.19851], [-40.02867, -14.19904], [-40.02834, -14.1993], [-40.02841, -14.19963], [-40.02891, -14.20009], [-40.02947, -14.20021], [-40.02998, -14.20077], [-40.03039, -14.20071], [-40.03036, -14.20015], [-40.0305, -14.20004], [-40.03118, -14.20053], [-40.0319, -14.20045], [-40.03224, -14.20007], [-40.03292, -14.19841], [-40.03312, -14.19832], [-40.03443, -14.19842], [-40.03523, -14.19933], [-40.03649, -14.20027], [-40.03729, -14.20004], [-40.03798, -14.20039], [-40.03955, -14.20017], [-40.04005, -14.20028], [-40.04045, -14.20057], [-40.04122, -14.20051], [-40.04264, -14.20131], [-40.04277, -14.20081], [-40.0423, -14.19978], [-40.04231, -14.19948], [-40.04313, -14.19779], [-40.04342, -14.19481], [-40.0438, -14.19457], [-40.04413, -14.1945], [-40.04617, -14.1952], [-40.04754, -14.19532], [-40.04859, -14.19591], [-40.04942, -14.19598], [-40.05037, -14.19578], [-40.05096, -14.19618], [-40.05167, -14.196], [-40.0528, -14.19608], [-40.05428, -14.19541], [-40.05543, -14.19513], [-40.05604, -14.19525], [-40.05776, -14.19633], [-40.05844, -14.19658], [-40.059, -14.19761], [-40.05944, -14.1981], [-40.05943, -14.19885], [-40.06027, -14.19846], [-40.06013, -14.19898], [-40.0596, -14.19967], [-40.05957, -14.19998], [-40.0598, -14.20022], [-40.06067, -14.19998], [-40.06175, -14.2001], [-40.06219, -14.19984], [-40.06361, -14.19975], [-40.06635, -14.20058], [-40.06902, -14.19957], [-40.06991, -14.19904], [-40.07206, -14.19868], [-40.07305, -14.19818], [-40.07593, -14.19752], [-40.07627, -14.1975], [-40.07771, -14.19834], [-40.07873, -14.19845], [-40.08132, -14.19763], [-40.08258, -14.19746], [-40.08377, -14.19698], [-40.08394, -14.19716], [-40.08257, -14.20222], [-40.08292, -14.20265], [-40.08303, -14.20329], [-40.08358, -14.20413], [-40.08402, -14.20289], [-40.08446, -14.20242], [-40.085, -14.20234], [-40.08568, -14.20277], [-40.08583, -14.20271], [-40.08523, -14.20113], [-40.08582, -14.20081], [-40.0859, -14.20003], [-40.08753, -14.19936], [-40.08771, -14.19916], [-40.08794, -14.19801], [-40.0885, -14.19749], [-40.08855, -14.19674], [-40.08961, -14.19593], [-40.09006, -14.19484], [-40.09035, -14.19455], [-40.09038, -14.19426], [-40.09014, -14.19395], [-40.09076, -14.19311], [-40.09096, -14.19219], [-40.09036, -14.19222], [-40.09003, -14.19204], [-40.08917, -14.19121], [-40.08852, -14.19018], [-40.08777, -14.19001], [-40.08707, -14.18963], [-40.08624, -14.18886], [-40.08565, -14.18756], [-40.08426, -14.18654], [-40.08245, -14.18436], [-40.08204, -14.1835], [-40.08234, -14.18296], [-40.0814, -14.18217], [-40.0812, -14.18106], [-40.08035, -14.17977], [-40.08031, -14.17911], [-40.07996, -14.17843], [-40.08007, -14.17743], [-40.07945, -14.17645], [-40.07923, -14.17547], [-40.07904, -14.17542], [-40.07818, -14.17596], [-40.07723, -14.1762], [-40.07704, -14.17602], [-40.07662, -14.1748], [-40.07632, -14.1735], [-40.07607, -14.17368], [-40.07573, -14.17471], [-40.07533, -14.17521], [-40.07478, -14.17554], [-40.07461, -14.17529], [-40.07444, -14.17374], [-40.07476, -14.17282], [-40.07534, -14.17236], [-40.07572, -14.17156], [-40.07583, -14.1709], [-40.07646, -14.1709], [-40.07658, -14.17077], [-40.07634, -14.17037], [-40.07629, -14.1696], [-40.0758, -14.16809], [-40.07594, -14.16734], [-40.07524, -14.16679], [-40.07493, -14.16562], [-40.07451, -14.16538], [-40.07303, -14.1656], [-40.07258, -14.16537], [-40.07326, -14.16496], [-40.07414, -14.16482], [-40.07469, -14.16435], [-40.07493, -14.16345], [-40.07442, -14.16235], [-40.07386, -14.16161], [-40.07395, -14.16114], [-40.07312, -14.15938], [-40.073, -14.15822], [-40.07345, -14.1573], [-40.07327, -14.15694], [-40.07359, -14.15636], [-40.07407, -14.15461], [-40.07455, -14.1543], [-40.07539, -14.15414], [-40.07668, -14.15294], [-40.07768, -14.15237], [-40.07792, -14.15195], [-40.07778, -14.15067], [-40.07759, -14.15037], [-40.07707, -14.15029], [-40.07688, -14.15002], [-40.07651, -14.14992], [-40.07626, -14.14874], [-40.07509, -14.14804], [-40.07503, -14.1475], [-40.07442, -14.14675], [-40.0737, -14.14511], [-40.07252, -14.14401], [-40.07236, -14.14343], [-40.07194, -14.14323], [-40.0703, -14.14186], [-40.06921, -14.14149], [-40.06871, -14.1411], [-40.06865, -14.1405], [-40.06913, -14.13944], [-40.06872, -14.13719], [-40.06755, -14.13744], [-40.06635, -14.13712], [-40.06484, -14.13768], [-40.06279, -14.1388], [-40.06186, -14.13986], [-40.06123, -14.14016], [-40.06097, -14.1409], [-40.06034, -14.14075], [-40.06004, -14.14084]]]}}, 
{"type": "Feature", "properties": {"CD_SETOR": "291510605000017", "CD_SIT": "8", "NM_DIST": "Itagi", "NM_SUBDIST": null}, "geometry": {"type": "Polygon", "coordinates": [[[-39.96613, -14.16524], [-39.96776, -14.1647], [-39.97027, -14.16422], [-39.97264, -14.16285], [-39.97423, -14.16271], [-39.97457, -14.16228], [-39.9744, -14.16124], [-39.97487, -14.16097], [-39.97555, -14.16112], [-39.9766, -14.16245], [-39.97679, -14.16332], [-39.97663, -14.16414], [-39.97588, -14.16504], [-39.97562, -14.16578], [-39.97572, -14.16699], [-39.97603, -14.16827], [-39.97681, -14.17045], [-39.97704, -14.17047], [-39.97753, -14.1701], [-39.97786, -14.17024], [-39.97837, -14.1709], [-39.97864, -14.1716], [-39.9795, -14.17226], [-39.97994, -14.17308], [-39.97988, -14.17354], [-39.97949, -14.17424], [-39.97955, -14.17454], [-39.98013, -14.17505], [-39.98069, -14.17607], [-39.98108, -14.17737], [-39.98125, -14.17866], [-39.98116, -14.18042], [-39.98148, -14.18405], [-39.98221, -14.18651], [-39.98225, -14.18715], [-39.98248, -14.18743], [-39.98313, -14.18763], [-39.98347, -14.18796], [-39.98352, -14.19019], [-39.98393, -14.19073], [-39.98407, -14.19121], [-39.98396, -14.19187], [-39.98416, -14.19219], [-39.98463, -14.19248], [-39.98461, -14.19352], [-39.98497, -14.19391], [-39.98468, -14.1952], [-39.98481, -14.1957], [-39.98565, -14.19647], [-39.98562, -14.19683], [-39.98524, -14.19735], [-39.98563, -14.19766], [-39.98651, -14.19747], [-39.98731, -14.19754], [-39.98784, -14.198], [-39.98773, -14.19939], [-39.98736, -14.20069], [-39.98637, -14.20269], [-39.98546, -14.20395], [-39.98433, -14.20749], [-39.98321, -14.20903], [-39.98908, -14.20935], [-39.98944, -14.20722], [-39.99205, -14.20523], [-39.99184, -14.20317], [-39.99193, -14.20246], [-39.9929, -14.20128], [-39.99322, -14.2006], [-39.99367, -14.19733], [-39.9936, -14.19643], [-39.99392, -14.19577], [-39.99424, -14.1944], [-39.99457, -14.19406], [-39.99506, -14.19402], [-39.99568, -14.19344], [-39.99617, -14.19252], [-39.99661, -14.19207], [-39.99687, -14.19123], [-39.99635, -14.18916], [-39.99595, -14.1885], [-39.99532, -14.18788], [-39.99547, -14.18662], [-39.99481, -14.18405], [-39.99493, -14.18358], [-39.99777, -14.18193], [-39.99884, -14.18162], [-39.99955, -14.18105], [-40.00024, -14.17969], [-40.00047, -14.17772], [-39.99984, -14.17772], [-39.99143, -14.15476], [-39.99008, -14.15406], [-39.98935, -14.153], [-39.98739, -14.14493], [-39.98608, -14.14152], [-39.98338, -14.13704], [-39.97912, -14.13084], [-39.97623, -14.1248], [-39.97588, -14.12306], [-39.97574, -14.1205], [-39.97483, -14.1183], [-39.97476, -14.11769], [-39.9762, -14.11396], [-39.97647, -14.11283], [-39.9764, -14.11236], [-39.97295, -14.10243], [-39.97191, -14.10049], [-39.97139, -14.09818], [-39.96824, -14.09289], [-39.96015, -14.15042], [-39.96034, -14.15063], [-39.96111, -14.15081], [-39.9624, -14.15141], [-39.96306, -14.15199], [-39.96344, -14.15278], [-39.96347, -14.15422], [-39.96406, -14.15479], [-39.96485, -14.15607], [-39.96466, -14.15835], [-39.96475, -14.15876], [-39.96431, -14.15984], [-39.96415, -14.16114], [-39.96448, -14.16179], [-39.96458, -14.16262], [-39.96554, -14.16348], [-39.96596, -14.16416], [-39.96613, -14.16524]]]}}, 
{"type": "Feature", "properties": {"CD_SETOR": "291510605000018", "CD_SIT": "8", "NM_DIST": "Itagi", "NM_SUBDIST": null}, "geometry": {"type": "Polygon", "coordinates": [[[-39.98304, -14.20932], [-39.98294, -14.21111], [-39.98333, -14.21268], [-39.98351, -14.21288], [-39.98412, -14.21285], [-39.98444, -14.2133], [-39.98389, -14.21481], [-39.98434, -14.21581], [-39.98434, -14.21695], [-39.98473, -14.21903], [-39.98436, -14.22094], [-39.98562, -14.22316], [-39.98598, -14.22422], [-39.98612, -14.22619], [-39.98628, -14.2263], [-39.98706, -14.22613], [-39.98726, -14.22636], [-39.98752, -14.22897], [-39.98799, -14.22942], [-39.98796, -14.23025], [-39.98767, -14.23042], [-39.98668, -14.23046], [-39.9863, -14.23074], [-39.98634, -14.23186], [-39.98656, -14.23214], [-39.98734, -14.23239], [-39.98766, -14.23305], [-39.98844, -14.2327], [-39.98869, -14.23276], [-39.98877, -14.2335], [-39.98928, -14.23399], [-39.98928, -14.23539], [-39.99034, -14.23782], [-39.99118, -14.24036], [-39.99144, -14.24321], [-39.99234, -14.24486], [-39.99287, -14.24622], [-39.99235, -14.24762], [-39.99229, -14.24827], [-39.99284, -14.24896], [-39.99273, -14.24951], [-39.99307, -14.24994], [-39.99301, -14.2506], [-39.99317, -14.25145], [-39.99388, -14.25196], [-39.99413, -14.25254], [-39.9954, -14.25412], [-39.99563, -14.25492], [-39.99534, -14.25568], [-39.99536, -14.25601], [-39.9972, -14.25889], [-39.99736, -14.26128], [-39.99768, -14.26308], [-39.99875, -14.26697], [-40.00005, -14.26789], [-40.00076, -14.26892], [-40.00173, -14.26933], [-40.00227, -14.27023], [-40.00256, -14.27029], [-40.00309, -14.27001], [-40.00434, -14.26726], [-40.00506, -14.2664], [-40.00547, -14.26617], [-40.00611, -14.26736], [-40.00572, -14.26913], [-40.00581, -14.26975], [-40.00688, -14.27086], [-40.00769, -14.27335], [-40.00831, -14.2746], [-40.00882, -14.27524], [-40.00911, -14.27612], [-40.00927, -14.27743], [-40.00954, -14.2776], [-40.00972, -14.27753], [-40.00993, -14.27655], [-40.01015, -14.27646], [-40.01064, -14.27676], [-40.01087, -14.27725], [-40.01096, -14.27796], [-40.01032, -14.27869], [-40.01028, -14.27912], [-40.01155, -14.28014], [-40.01182, -14.28097], [-40.0116, -14.28143], [-40.01089, -14.28177], [-40.0111, -14.28306], [-40.01141, -14.2834], [-40.01274, -14.28408], [-40.01323, -14.28474], [-40.01343, -14.28521], [-40.01357, -14.28785], [-40.01391, -14.28862], [-40.01415, -14.28877], [-40.01497, -14.28881], [-40.01588, -14.28846], [-40.01634, -14.28852], [-40.01707, -14.28903], [-40.0176, -14.28905], [-40.01846, -14.28774], [-40.01904, -14.28759], [-40.02052, -14.28876], [-40.02119, -14.28869], [-40.02253, -14.28798], [-40.02284, -14.28798], [-40.02453, -14.28874], [-40.02486, -14.28861], [-40.02532, -14.28783], [-40.02563, -14.28768], [-40.02612, -14.28777], [-40.02656, -14.28817], [-40.02698, -14.28819], [-40.02807, -14.28669], [-40.02979, -14.28559], [-40.03012, -14.28518], [-40.03009, -14.2838], [-40.03024, -14.28307], [-40.03176, -14.28233], [-40.03326, -14.28101], [-40.03394, -14.2808], [-40.03467, -14.28111], [-40.0353, -14.28203], [-40.0357, -14.28227], [-40.0374, -14.28187], [-40.03957, -14.28251], [-40.04076, -14.28209], [-40.04191, -14.28239], [-40.04331, -14.28201], [-40.04402, -14.28218], [-40.04519, -14.28352], [-40.04667, -14.28383], [-40.04708, -14.28464], [-40.04814, -14.2852], [-40.0487, -14.28622], [-40.04921, -14.28661], [-40.0504, -14.28639], [-40.05164, -14.28541], [-40.05237, -14.28522], [-40.05294, -14.28448], [-40.05384, -14.28392], [-40.05435, -14.28326], [-40.05442, -14.28277], [-40.05427, -14.28034], [-40.05464, -14.27976], [-40.0557, -14.27905], [-40.05589, -14.27679], [-40.05686, -14.27357], [-40.05947, -14.26883], [-40.05958, -14.26806], [-40.05924, -14.26684], [-40.05939, -14.26598], [-40.05997, -14.26566], [-40.06127, -14.26533], [-40.06191, -14.26453], [-40.06203, -14.26301], [-40.06183, -14.2623], [-40.06068, -14.26075], [-40.06052, -14.26013], [-40.06059, -14.25989], [-40.06156, -14.25909], [-40.0623, -14.25606], [-40.06302, -14.25485], [-40.06384, -14.25397], [-40.06412, -14.25329], [-40.06377, -14.25271], [-40.06325, -14.25251], [-40.06308, -14.25212], [-40.06347, -14.2515], [-40.06276, -14.25103], [-40.0619, -14.2508], [-40.06128, -14.25012], [-40.06093, -14.2501], [-40.06077, -14.24964], [-40.06137, -14.24883], [-40.06135, -14.24859], [-40.06108, -14.24835], [-40.0598, -14.24789], [-40.05938, -14.24603], [-40.05819, -14.24529], [-40.05832, -14.24392], [-40.05781, -14.24314], [-40.05783, -14.2421], [-40.05749, -14.24146], [-40.05741, -14.24092], [-40.05695, -14.24058], [-40.05711, -14.23994], [-40.05641, -14.23867], [-40.05648, -14.23751], [-40.05629, -14.23622], [-40.05606, -14.23575], [-40.05586, -14.23577], [-40.05546, -14.2363], [-40.05453, -14.23699], [-40.05382, -14.23669], [-40.05368, -14.23636], [-40.05251, -14.23564], [-40.05232, -14.23605], [-40.0522, -14.23585], [-40.05178, -14.23574], [-40.05164, -14.23564], [-40.0516, -14.23506], [-40.05142, -14.23489], [-40.05104, -14.23497], [-40.05052, -14.2346], [-40.04986, -14.23444], [-40.04963, -14.23388], [-40.0501, -14.23371], [-40.04979, -14.23342], [-40.04962, -14.23234], [-40.04912, -14.23179], [-40.04837, -14.23194], [-40.04832, -14.2314], [-40.04863, -14.23096], [-40.04782, -14.23069], [-40.04796, -14.23029], [-40.04772, -14.22967], [-40.04811, -14.22905], [-40.04809, -14.22836], [-40.04734, -14.22714], [-40.04719, -14.22639], [-40.04676, -14.22557], [-40.04623, -14.22574], [-40.04595, -14.22559], [-40.04576, -14.22516], [-40.03992, -14.23692], [-40.03904, -14.23606], [-40.03902, -14.23544], [-40.03864, -14.2349], [-40.03864, -14.23448], [-40.03837, -14.23418], [-40.03825, -14.23345], [-40.03844, -14.23323], [-40.03858, -14.23248], [-40.03932, -14.23244], [-40.03947, -14.23186], [-40.03925, -14.23167], [-40.03914, -14.23127], [-40.03884, -14.2313], [-40.0389, -14.23089], [-40.03852, -14.23095], [-40.03768, -14.23026], [-40.03767, -14.22987], [-40.0373, -14.22959], [-40.0375, -14.22922], [-40.03741, -14.22874], [-40.0365, -14.22841], [-40.03552, -14.22748], [-40.03561, -14.22688], [-40.03548, -14.22669], [-40.03581, -14.22627], [-40.03601, -14.22542], [-40.03566, -14.22495], [-40.03566, -14.22431], [-40.03543, -14.22381], [-40.0357, -14.22337], [-40.03545, -14.22336], [-40.03526, -14.22256], [-40.03492, -14.2221], [-40.03495, -14.2215], [-40.03462, -14.22101], [-40.03438, -14.22085], [-40.03392, -14.21999], [-40.03301, -14.21926], [-40.03285, -14.218], [-40.0331, -14.21741], [-40.0333, -14.21734], [-40.03334, -14.21699], [-40.03248, -14.21604], [-40.0313, -14.21588], [-40.03116, -14.2162], [-40.03071, -14.21639], [-40.03026, -14.21628], [-40.03004, -14.21589], [-40.02979, -14.21587], [-40.02896, -14.21708], [-40.02855, -14.21733], [-40.02818, -14.21817], [-40.02739, -14.21886], [-40.02688, -14.21906], [-40.02352, -14.2186], [-40.02269, -14.21862], [-40.02217, -14.21836], [-40.02242, -14.21825], [-40.02247, -14.21794], [-40.02163, -14.21788], [-40.02098, -14.21749], [-40.0199, -14.2174], [-40.01877, -14.2176], [-40.01768, -14.21858], [-40.01637, -14.21884], [-40.0147, -14.2184], [-40.01381, -14.21896], [-40.01349, -14.21898], [-40.01312, -14.21877], [-40.01288, -14.21803], [-40.01172, -14.21804], [-40.01122, -14.21741], [-40.01028, -14.21671], [-40.00925, -14.21658], [-40.0088, -14.21631], [-40.00833, -14.21653], [-40.00741, -14.21632], [-40.00724, -14.21604], [-40.00726, -14.21563], [-40.00708, -14.21555], [-40.00688, -14.21507], [-40.0061, -14.21455], [-40.00618, -14.2141], [-40.00561, -14.21343], [-40.0052, -14.21258], [-40.00517, -14.21174], [-40.0049, -14.21145], [-40.00461, -14.21139], [-40.00421, -14.21202], [-40.0036, -14.2119], [-40.00304, -14.2121], [-40.0018, -14.21211], [-40.00047, -14.21144], [-39.99945, -14.21118], [-39.9987, -14.21113], [-39.99857, -14.21125], [-39.99806, -14.21102], [-39.99791, -14.21123], [-39.99751, -14.21106], [-39.99737, -14.21053], [-39.99699, -14.21024], [-39.99644, -14.21029], [-39.99577, -14.21007], [-39.99573, -14.21039], [-39.99535, -14.21023], [-39.99517, -14.20994], [-39.99431, -14.21003], [-39.99311, -14.20966], [-39.99295, -14.20937], [-39.99239, -14.20911], [-39.99223, -14.20924], [-39.99161, -14.20909], [-39.98908, -14.20935], [-39.98321, -14.20903], [-39.98304, -14.20932]]]}}, 
{"type": "Feature", "properties": {"CD_SETOR": "291510605000019", "CD_SIT": "8", "NM_DIST": "Itagi", "NM_SUBDIST": null}, "geometry": {"type": "Polygon", "coordinates": [[[-39.99531, -14.18753], [-39.99532, -14.18788], [-39.99595, -14.1885], [-39.99635, -14.18916], [-39.99687, -14.19102], [-39.99678, -14.19158], [-39.99661, -14.19207], [-39.99617, -14.19252], [-39.99568, -14.19344], [-39.99506, -14.19402], [-39.99457, -14.19406], [-39.99424, -14.1944], [-39.99392, -14.19577], [-39.9936, -14.19643], [-39.99367, -14.19733], [-39.99322, -14.2006], [-39.9929, -14.20128], [-39.99193, -14.20246], [-39.99184, -14.20317], [-39.99205, -14.20523], [-39.98944, -14.20722], [-39.98908, -14.20935], [-39.99161, -14.20909], [-39.99223, -14.20924], [-39.99239, -14.20911], [-39.99295, -14.20937], [-39.99311, -14.20966], [-39.99431, -14.21003], [-39.99517, -14.20994], [-39.99535, -14.21023], [-39.99573, -14.21039], [-39.99577, -14.21007], [-39.99644, -14.21029], [-39.99699, -14.21024], [-39.99737, -14.21053], [-39.99751, -14.21106], [-39.99791, -14.21123], [-39.99806, -14.21102], [-39.99857, -14.21125], [-39.9987, -14.21113], [-39.99945, -14.21118], [-40.00047, -14.21144], [-40.0018, -14.21211], [-40.00304, -14.2121], [-40.0036, -14.2119], [-40.00421, -14.21202], [-40.00461, -14.21139], [-40.0049, -14.21145], [-40.00517, -14.21174], [-40.0052, -14.21258], [-40.00561, -14.21343], [-40.00618, -14.2141], [-40.0061, -14.21455], [-40.00688, -14.21507], [-40.00708, -14.21555], [-40.00726, -14.21563], [-40.00724, -14.21604], [-40.00741, -14.21632], [-40.00833, -14.21653], [-40.0088, -14.21631], [-40.00925, -14.21658], [-40.01028, -14.21671], [-40.01122, -14.21741], [-40.01172, -14.21804], [-40.01288, -14.21803], [-40.01312, -14.21877], [-40.01349, -14.21898], [-40.01381, -14.21896], [-40.0147, -14.2184], [-40.01637, -14.21884], [-40.01768, -14.21858], [-40.01877, -14.2176], [-40.0199, -14.2174], [-40.02098, -14.21749], [-40.02163, -14.21788], [-40.02247, -14.21794], [-40.02242, -14.21825], [-40.02217, -14.21836], [-40.02269, -14.21862], [-40.02352, -14.2186], [-40.02688, -14.21906], [-40.02739, -14.21886], [-40.02818, -14.21817], [-40.02855, -14.21733], [-40.02896, -14.21708], [-40.02979, -14.21587], [-40.03004, -14.21589], [-40.03026, -14.21628], [-40.03071, -14.21639], [-40.03116, -14.2162], [-40.0313, -14.21588], [-40.03248, -14.21604], [-40.03334, -14.21699], [-40.0333, -14.21734], [-40.0331, -14.21741], [-40.03285, -14.218], [-40.03301, -14.21926], [-40.03392, -14.21999], [-40.03438, -14.22085], [-40.03462, -14.22101], [-40.03495, -14.2215], [-40.03492, -14.2221], [-40.03526, -14.22256], [-40.03545, -14.22336], [-40.0357, -14.22337], [-40.03543, -14.22381], [-40.03566, -14.22431], [-40.03566, -14.22495], [-40.03601, -14.22542], [-40.03581, -14.22627], [-40.03548, -14.22669], [-40.03561, -14.22688], [-40.03552, -14.22748], [-40.0365, -14.22841], [-40.03741, -14.22874], [-40.0375, -14.22922], [-40.0373, -14.22959], [-40.03767, -14.22987], [-40.03768, -14.23026], [-40.03852, -14.23095], [-40.0389, -14.23089], [-40.03884, -14.2313], [-40.03914, -14.23127], [-40.03925, -14.23167], [-40.03947, -14.23186], [-40.03932, -14.23244], [-40.03858, -14.23248], [-40.03844, -14.23323], [-40.03825, -14.23345], [-40.03837, -14.23418], [-40.03864, -14.23448], [-40.03864, -14.2349], [-40.03902, -14.23544], [-40.03904, -14.23606], [-40.03949, -14.23654], [-40.03992, -14.23692], [-40.04576, -14.22516], [-40.04595, -14.22559], [-40.04623, -14.22574], [-40.04676, -14.22557], [-40.04719, -14.22639], [-40.04734, -14.22714], [-40.04809, -14.22836], [-40.04811, -14.22905], [-40.04772, -14.22967], [-40.04796, -14.23029], [-40.04782, -14.23069], [-40.04863, -14.23096], [-40.04832, -14.2314], [-40.04837, -14.23194], [-40.04912, -14.23179], [-40.04962, -14.23234], [-40.04979, -14.23342], [-40.0501, -14.23371], [-40.04963, -14.23388], [-40.04986, -14.23444], [-40.05052, -14.2346], [-40.05104, -14.23497], [-40.05142, -14.23489], [-40.0516, -14.23506], [-40.05164, -14.23564], [-40.05178, -14.23574], [-40.0522, -14.23585], [-40.05232, -14.23605], [-40.05251, -14.23564], [-40.05368, -14.23636], [-40.05382, -14.23669], [-40.05453, -14.23699], [-40.05546, -14.2363], [-40.05586, -14.23577], [-40.05606, -14.23575], [-40.05629, -14.23622], [-40.05648, -14.23751], [-40.05641, -14.23867], [-40.05711, -14.23994], [-40.05695, -14.24058], [-40.05741, -14.24092], [-40.05749, -14.24146], [-40.05783, -14.2421], [-40.05781, -14.24314], [-40.05832, -14.24392], [-40.05819, -14.24529], [-40.05938, -14.24603], [-40.0598, -14.24789], [-40.06108, -14.24835], [-40.06135, -14.24859], [-40.06137, -14.24883], [-40.06077, -14.24964], [-40.06093, -14.2501], [-40.06128, -14.25012], [-40.0619, -14.2508], [-40.06276, -14.25103], [-40.06347, -14.2515], [-40.06308, -14.25212], [-40.06325, -14.25251], [-40.06377, -14.25271], [-40.06412, -14.25329], [-40.06447, -14.25073], [-40.06467, -14.25024], [-40.06612, -14.2492], [-40.06658, -14.24783], [-40.06753, -14.24652], [-40.06769, -14.24569], [-40.06852, -14.24504], [-40.06845, -14.24446], [-40.0681, -14.24399], [-40.06814, -14.24358], [-40.06852, -14.24354], [-40.07007, -14.24499], [-40.0714, -14.24555], [-40.07231, -14.24703], [-40.07307, -14.24887], [-40.07426, -14.24983], [-40.0746, -14.25076], [-40.07562, -14.25147], [-40.07637, -14.25246], [-40.07668, -14.25256], [-40.07736, -14.25239], [-40.0777, -14.25269], [-40.07792, -14.25397], [-40.08037, -14.25874], [-40.08057, -14.25945], [-40.08055, -14.26039], [-40.08013, -14.26136], [-40.08007, -14.26196], [-40.08033, -14.26245], [-40.08197, -14.26427], [-40.08214, -14.265], [-40.08196, -14.26581], [-40.08203, -14.2662], [-40.08278, -14.26675], [-40.08428, -14.267], [-40.08514, -14.2679], [-40.08614, -14.26981], [-40.08735, -14.27325], [-40.08764, -14.27381], [-40.08901, -14.2747], [-40.08972, -14.27611], [-40.09075, -14.27902], [-40.09711, -14.28033], [-40.09804, -14.27776], [-40.09896, -14.27716], [-40.09922, -14.2767], [-40.09911, -14.27585], [-40.09839, -14.27461], [-40.09815, -14.27381], [-40.09809, -14.27241], [-40.09858, -14.2712], [-40.09719, -14.26455], [-40.09732, -14.26393], [-40.09802, -14.2625], [-40.09854, -14.25949], [-40.0991, -14.25842], [-40.09919, -14.2579], [-40.09868, -14.25641], [-40.0976, -14.25408], [-40.09722, -14.2529], [-40.09703, -14.25143], [-40.09712, -14.24981], [-40.0975, -14.24822], [-40.09846, -14.246], [-40.09872, -14.24396], [-40.09857, -14.24295], [-40.09813, -14.2418], [-40.09741, -14.24065], [-40.09661, -14.23979], [-40.09528, -14.23887], [-40.0948, -14.23835], [-40.0946, -14.23557], [-40.09374, -14.23465], [-40.09243, -14.23384], [-40.09234, -14.23353], [-40.09258, -14.23249], [-40.0924, -14.23206], [-40.09171, -14.23137], [-40.09126, -14.23002], [-40.09091, -14.22944], [-40.08941, -14.22811], [-40.08908, -14.22673], [-40.08801, -14.22598], [-40.08762, -14.22552], [-40.08681, -14.22414], [-40.08678, -14.2236], [-40.0866, -14.22334], [-40.08583, -14.22331], [-40.0856, -14.22317], [-40.08547, -14.22271], [-40.08565, -14.22193], [-40.08541, -14.22121], [-40.08534, -14.22016], [-40.0839, -14.21769], [-40.08331, -14.21714], [-40.08225, -14.21462], [-40.08216, -14.21378], [-40.0833, -14.21074], [-40.08308, -14.20912], [-40.08322, -14.20815], [-40.08313, -14.20754], [-40.0825, -14.20668], [-40.08358, -14.20413], [-40.08303, -14.20329], [-40.08292, -14.20265], [-40.08257, -14.20222], [-40.08389, -14.19703], [-40.08228, -14.19754], [-40.08132, -14.19763], [-40.07873, -14.19845], [-40.07771, -14.19834], [-40.07627, -14.1975], [-40.07593, -14.19752], [-40.07305, -14.19818], [-40.07206, -14.19868], [-40.06991, -14.19904], [-40.06902, -14.19957], [-40.06635, -14.20058], [-40.06361, -14.19975], [-40.06219, -14.19984], [-40.06175, -14.2001], [-40.06067, -14.19998], [-40.0598, -14.20022], [-40.05957, -14.19998], [-40.0596, -14.19967], [-40.06013, -14.19898], [-40.06027, -14.19846], [-40.05943, -14.19885], [-40.05944, -14.1981], [-40.059, -14.19761], [-40.05844, -14.19658], [-40.05776, -14.19633], [-40.05604, -14.19525], [-40.05543, -14.19513], [-40.05428, -14.19541], [-40.0528, -14.19608], [-40.05167, -14.196], [-40.05096, -14.19618], [-40.05037, -14.19578], [-40.04942, -14.19598], [-40.04859, -14.19591], [-40.04754, -14.19532], [-40.04542, -14.19503], [-40.04403, -14.19449], [-40.04342, -14.19481], [-40.04313, -14.19779], [-40.04231, -14.19948], [-40.0423, -14.19978], [-40.04277, -14.20081], [-40.04264, -14.20131], [-40.04122, -14.20051], [-40.04045, -14.20057], [-40.04005, -14.20028], [-40.03955, -14.20017], [-40.03798, -14.20039], [-40.03729, -14.20004], [-40.03649, -14.20027], [-40.03523, -14.19933], [-40.03443, -14.19842], [-40.03312, -14.19832], [-40.03292, -14.19841], [-40.03224, -14.20007], [-40.0319, -14.20045], [-40.03118, -14.20053], [-40.0305, -14.20004], [-40.03036, -14.20015], [-40.03039, -14.20071], [-40.02998, -14.20077], [-40.02947, -14.20021], [-40.02891, -14.20009], [-40.02841, -14.19963], [-40.02834, -14.1993], [-40.02867, -14.19904], [-40.02862, -14.19851], [-40.02883, -14.1982], [-40.02876, -14.1977], [-40.02706, -14.19596], [-40.02645, -14.19417], [-40.02612, -14.19394], [-40.02505, -14.1937], [-40.02387, -14.19224], [-40.02304, -14.19195], [-40.02185, -14.19], [-40.02136, -14.1882], [-40.02012, -14.18767], [-40.01911, -14.18757], [-40.01859, -14.18649], [-40.01765, -14.18564], [-40.01702, -14.18556], [-40.01429, -14.18395], [-40.01345, -14.18269], [-40.01323, -14.18179], [-40.01267, -14.18153], [-40.01227, -14.17901], [-40.01164, -14.17852], [-40.01147, -14.17787], [-40.01082, -14.17763], [-40.00983, -14.17622], [-40.00979, -14.17597], [-40.01008, -14.17533], [-40.00962, -14.17346], [-40.00816, -14.17176], [-40.00808, -14.17148], [-40.00097, -14.1777], [-40.00047, -14.17772], [-40.00024, -14.17969], [-39.99955, -14.18105], [-39.99884, -14.18162], [-39.99777, -14.18193], [-39.99493, -14.18358], [-39.99481, -14.18405], [-39.99547, -14.18662], [-39.99531, -14.18753]]]}}, 
{"type": "Feature", "properties": {"CD_SETOR": "291510605000020", "CD_SIT": "8", "NM_DIST": "Itagi", "NM_SUBDIST": null}, "geometry": {"type": "Polygon", "coordinates": [[[-39.98591, -14.05177], [-39.98634, -14.05229], [-40.02647, -14.1005], [-40.02719, -14.099], [-40.02738, -14.09733], [-40.02779, -14.09616], [-40.02781, -14.09428], [-40.02904, -14.09259], [-40.02921, -14.09213], [-40.029, -14.09178], [-40.02815, -14.09171], [-40.02814, -14.09116], [-40.02866, -14.09026], [-40.03003, -14.08991], [-40.03164, -14.08744], [-40.03245, -14.08652], [-40.03297, -14.0817], [-40.03282, -14.0811], [-40.03236, -14.08072], [-40.03239, -14.08044], [-40.03274, -14.07908], [-40.0335, -14.07821], [-40.03366, -14.07765], [-40.03358, -14.07736], [-40.0331, -14.07712], [-40.03309, -14.0769], [-40.03343, -14.07595], [-40.03407, -14.07564], [-40.03512, -14.07457], [-40.03529, -14.07392], [-40.03435, -14.07277], [-40.0343, -14.07141], [-40.0346, -14.07073], [-40.03604, -14.06972], [-40.03611, -14.06617], [-40.03681, -14.06556], [-40.03702, -14.06514], [-40.03702, -14.06428], [-40.03657, -14.06285], [-40.03686, -14.06154], [-40.03638, -14.06024], [-40.03639, -14.06012], [-40.03679, -14.06074], [-40.03679, -14.06009], [-40.03482, -14.05955], [-40.03414, -14.05906], [-40.03381, -14.05865], [-40.03243, -14.05586], [-40.03189, -14.05524], [-40.02995, -14.05377], [-40.02917, -14.05294], [-40.0286, -14.05121], [-40.02773, -14.0493], [-40.02725, -14.04907], [-40.02588, -14.04945], [-40.02583, -14.0496], [-40.02639, -14.04997], [-40.02651, -14.05026], [-40.02642, -14.05072], [-40.02473, -14.05154], [-40.02413, -14.05221], [-40.02402, -14.05276], [-40.02422, -14.0539], [-40.02398, -14.05459], [-40.023, -14.05642], [-40.02131, -14.05865], [-40.02089, -14.05885], [-40.02015, -14.05891], [-40.01764, -14.05826], [-40.01642, -14.05847], [-40.01511, -14.05954], [-40.01168, -14.06408], [-40.01064, -14.06504], [-40.01001, -14.06548], [-40.00858, -14.0656], [-40.00772, -14.06474], [-40.00751, -14.06352], [-40.00696, -14.06241], [-40.00591, -14.06186], [-40.00281, -14.06115], [-40.00221, -14.06092], [-40.00153, -14.06035], [-40.00135, -14.06003], [-40.00138, -14.05919], [-40.00215, -14.05832], [-40.00221, -14.05768], [-40.00097, -14.05608], [-40.00003, -14.05433], [-39.99959, -14.05454], [-39.99911, -14.05441], [-39.99737, -14.05285], [-39.99684, -14.05269], [-39.99619, -14.05272], [-39.99564, -14.05332], [-39.99512, -14.05353], [-39.99372, -14.05455], [-39.99288, -14.05453], [-39.99191, -14.05417], [-39.99167, -14.05369], [-39.99182, -14.05225], [-39.99099, -14.0515], [-39.99077, -14.05027], [-39.99055, -14.05], [-39.99015, -14.05009], [-39.98985, -14.05072], [-39.9888, -14.05072], [-39.98825, -14.05132], [-39.98779, -14.0515], [-39.98591, -14.05177]]]}}, 
{"type": "Feature", "properties": {"CD_SETOR": "291510605000021", "CD_SIT": "8", "NM_DIST": "Itagi", "NM_SUBDIST": null}, "geometry": {"type": "Polygon", "coordinates": [[[-40.03679, -14.06009], [-40.03679, -14.06074], [-40.03639, -14.06012], [-40.03638, -14.06024], [-40.03686, -14.06154], [-40.03657, -14.06285], [-40.03702, -14.06428], [-40.03702, -14.06514], [-40.03681, -14.06556], [-40.03611, -14.06617], [-40.03604, -14.06972], [-40.0346, -14.07073], [-40.0343, -14.07141], [-40.03435, -14.07277], [-40.03529, -14.07392], [-40.03512, -14.07457], [-40.03407, -14.07564], [-40.03343, -14.07595], [-40.03309, -14.0769], [-40.0331, -14.07712], [-40.03358, -14.07736], [-40.03366, -14.07765], [-40.0335, -14.07821], [-40.03274, -14.07908], [-40.03239, -14.08044], [-40.03236, -14.08072], [-40.03282, -14.0811], [-40.03297, -14.0817], [-40.03245, -14.08652], [-40.03164, -14.08744], [-40.03003, -14.08991], [-40.02866, -14.09026], [-40.02814, -14.09116], [-40.02815, -14.09171], [-40.029, -14.09178], [-40.02921, -14.09213], [-40.02904, -14.09259], [-40.02781, -14.09428], [-40.02779, -14.09616], [-40.02738, -14.09733], [-40.02719, -14.099], [-40.02647, -14.1005], [-40.06004, -14.14084], [-40.06034, -14.14075], [-40.06087, -14.14095], [-40.06123, -14.14016], [-40.06186, -14.13986], [-40.06279, -14.1388], [-40.06484, -14.13768], [-40.06635, -14.13712], [-40.06755, -14.13744], [-40.06919, -14.13713], [-40.06973, -14.13626], [-40.06972, -14.13556], [-40.07018, -14.1348], [-40.07165, -14.13371], [-40.07211, -14.13305], [-40.07301, -14.13221], [-40.074, -14.13193], [-40.07504, -14.13123], [-40.07719, -14.13108], [-40.07744, -14.13058], [-40.07776, -14.13033], [-40.07818, -14.12922], [-40.07927, -14.12833], [-40.07947, -14.12754], [-40.07987, -14.12707], [-40.07987, -14.12554], [-40.08092, -14.12412], [-40.08033, -14.12185], [-40.07894, -14.11951], [-40.07772, -14.11912], [-40.07719, -14.11863], [-40.07719, -14.11814], [-40.07778, -14.11744], [-40.07783, -14.11712], [-40.0772, -14.11569], [-40.07527, -14.11443], [-40.07339, -14.11175], [-40.07336, -14.11092], [-40.07377, -14.11016], [-40.07448, -14.10938], [-40.07445, -14.10889], [-40.07382, -14.10869], [-40.07258, -14.10901], [-40.07169, -14.1087], [-40.07034, -14.10717], [-40.06927, -14.10561], [-40.06921, -14.10518], [-40.06985, -14.10367], [-40.0689, -14.10258], [-40.0685, -14.10123], [-40.06853, -14.10074], [-40.06918, -14.09993], [-40.0693, -14.09958], [-40.06921, -14.09917], [-40.06903, -14.09894], [-40.0682, -14.0988], [-40.06745, -14.09762], [-40.06664, -14.09717], [-40.06572, -14.09555], [-40.06395, -14.09361], [-40.06335, -14.09312], [-40.06216, -14.09263], [-40.06195, -14.0924], [-40.06159, -14.09073], [-40.06158, -14.08949], [-40.06143, -14.0892], [-40.06056, -14.0886], [-40.06038, -14.08657], [-40.06001, -14.08583], [-40.05988, -14.08456], [-40.05914, -14.08381], [-40.05931, -14.08283], [-40.0573, -14.07958], [-40.05645, -14.07592], [-40.05543, -14.07333], [-40.05527, -14.07197], [-40.05559, -14.07087], [-40.05781, -14.06858], [-40.0581, -14.06809], [-40.05816, -14.06754], [-40.05786, -14.0667], [-40.05512, -14.06487], [-40.05482, -14.0644], [-40.05469, -14.06383], [-40.05478, -14.06331], [-40.05531, -14.06221], [-40.05501, -14.06137], [-40.05364, -14.06016], [-40.05307, -14.0593], [-40.05221, -14.05933], [-40.05172, -14.05957], [-40.04971, -14.06105], [-40.04942, -14.0616], [-40.04936, -14.06255], [-40.05011, -14.06489], [-40.05003, -14.06518], [-40.04928, -14.06536], [-40.04607, -14.06456], [-40.04479, -14.06367], [-40.04437, -14.06319], [-40.04241, -14.06265], [-40.03983, -14.06131], [-40.03771, -14.0606], [-40.03679, -14.06009]]]}}, 
{"type": "Feature", "properties": {"CD_SETOR": "291510605000022", "CD_SIT": "8", "NM_DIST": "Itagi", "NM_SUBDIST": null}, "geometry": {"type": "Polygon", "coordinates": [[[-40.06872, -14.13719], [-40.06913, -14.13944], [-40.06865, -14.1405], [-40.06871, -14.1411], [-40.06921, -14.14149], [-40.0703, -14.14186], [-40.07194, -14.14323], [-40.07236, -14.14343], [-40.07252, -14.14401], [-40.0737, -14.14511], [-40.07442, -14.14675], [-40.07503, -14.1475], [-40.07509, -14.14804], [-40.07626, -14.14874], [-40.07651, -14.14992], [-40.07688, -14.15002], [-40.07707, -14.15029], [-40.07759, -14.15037], [-40.07781, -14.15082], [-40.07792, -14.15195], [-40.07768, -14.15237], [-40.07668, -14.15294], [-40.07539, -14.15414], [-40.07455, -14.1543], [-40.07407, -14.15461], [-40.07359, -14.15636], [-40.07327, -14.15694], [-40.07345, -14.1573], [-40.073, -14.15822], [-40.07312, -14.15938], [-40.07395, -14.16114], [-40.07386, -14.16161], [-40.07442, -14.16235], [-40.07493, -14.16345], [-40.07469, -14.16435], [-40.07414, -14.16482], [-40.07326, -14.16496], [-40.07258, -14.16537], [-40.07303, -14.1656], [-40.07451, -14.16538], [-40.07493, -14.16562], [-40.07524, -14.16679], [-40.07594, -14.16734], [-40.0758, -14.16809], [-40.07629, -14.1696], [-40.07634, -14.17037], [-40.07658, -14.17077], [-40.07646, -14.1709], [-40.07583, -14.1709], [-40.07572, -14.17156], [-40.07534, -14.17236], [-40.07476, -14.17282], [-40.07444, -14.17374], [-40.07466, -14.17543], [-40.07504, -14.17546], [-40.07568, -14.1748], [-40.07607, -14.17368], [-40.07632, -14.1735], [-40.07662, -14.1748], [-40.07704, -14.17602], [-40.07723, -14.1762], [-40.07818, -14.17596], [-40.07904, -14.17542], [-40.07923, -14.17547], [-40.07945, -14.17645], [-40.08007, -14.17743], [-40.07996, -14.17843], [-40.08031, -14.17911], [-40.08035, -14.17977], [-40.0812, -14.18106], [-40.0814, -14.18217], [-40.08234, -14.18296], [-40.08204, -14.1835], [-40.08245, -14.18436], [-40.08426, -14.18654], [-40.08565, -14.18756], [-40.08624, -14.18886], [-40.08707, -14.18963], [-40.08777, -14.19001], [-40.08852, -14.19018], [-40.08917, -14.19121], [-40.09003, -14.19204], [-40.09036, -14.19222], [-40.09096, -14.19219], [-40.09128, -14.19158], [-40.09086, -14.19075], [-40.09088, -14.18974], [-40.09176, -14.19026], [-40.09235, -14.19014], [-40.09373, -14.18821], [-40.09527, -14.18766], [-40.09551, -14.18742], [-40.09632, -14.18552], [-40.09804, -14.18447], [-40.09845, -14.1839], [-40.09866, -14.18226], [-40.09928, -14.18177], [-40.09934, -14.18079], [-40.10007, -14.17943], [-40.10039, -14.1792], [-40.10288, -14.17899], [-40.10394, -14.1787], [-40.10613, -14.17898], [-40.10867, -14.17822], [-40.10946, -14.17729], [-40.10981, -14.17559], [-40.11027, -14.17469], [-40.11195, -14.17341], [-40.11243, -14.17287], [-40.11278, -14.17215], [-40.11292, -14.17027], [-40.1125, -14.16929], [-40.11172, -14.16809], [-40.11145, -14.1661], [-40.11118, -14.16532], [-40.11049, -14.16417], [-40.10955, -14.16124], [-40.10863, -14.16021], [-40.10839, -14.15932], [-40.10747, -14.15874], [-40.10711, -14.15802], [-40.1045, -14.15628], [-40.10444, -14.15599], [-40.10482, -14.1549], [-40.10478, -14.15386], [-40.10308, -14.15102], [-40.10299, -14.14952], [-40.10328, -14.14808], [-40.10454, -14.14541], [-40.10503, -14.14235], [-40.10473, -14.1412], [-40.10348, -14.13939], [-40.10303, -14.13824], [-40.10226, -14.13489], [-40.10161, -14.1342], [-40.10069, -14.13403], [-40.09957, -14.13412], [-40.09721, -14.13485], [-40.09419, -14.13452], [-40.09321, -14.13358], [-40.09256, -14.13251], [-40.09146, -14.13188], [-40.09103, -14.131], [-40.09023, -14.13002], [-40.08694, -14.12865], [-40.0862, -14.1282], [-40.0857, -14.12765], [-40.08516, -14.12598], [-40.08373, -14.12472], [-40.08351, -14.12361], [-40.08093, -14.1223], [-40.08033, -14.12185], [-40.08092, -14.12412], [-40.07987, -14.12554], [-40.07984, -14.1272], [-40.07947, -14.12754], [-40.07916, -14.12851], [-40.07818, -14.12922], [-40.07776, -14.13033], [-40.07708, -14.13116], [-40.07504, -14.13123], [-40.074, -14.13193], [-40.0727, -14.13243], [-40.07165, -14.13371], [-40.07018, -14.1348], [-40.06972, -14.13556], [-40.06973, -14.13626], [-40.06934, -14.13698], [-40.06872, -14.13719]]]}}, 
{"type": "Feature", "properties": {"CD_SETOR": "291510605000023", "CD_SIT": "1", "NM_DIST": "Itagi", "NM_SUBDIST": null}, "geometry": {"type": "Polygon", "coordinates": [[[-40.00777, -14.15797], [-40.00843, -14.15808], [-40.00767, -14.15942], [-40.00771, -14.16099], [-40.00857, -14.1612], [-40.00855, -14.16176], [-40.00959, -14.16194], [-40.01045, -14.16164], [-40.00969, -14.16155], [-40.0085, -14.1603], [-40.0083, -14.15969], [-40.00837, -14.15909], [-40.00903, -14.15835], [-40.00988, -14.15832], [-40.00949, -14.15803], [-40.00963, -14.15786], [-40.0082, -14.15736], [-40.00808, -14.1578], [-40.00777, -14.15797]]]}}, 
{"type": "Feature", "properties": {"CD_SETOR": "291510605000024", "CD_SIT": "2", "NM_DIST": "Itagi", "NM_SUBDIST": null}, "geometry": {"type": "Polygon", "coordinates": [[[-40.0082, -14.15736], [-40.00928, -14.15765], [-40.00963, -14.15786], [-40.00949, -14.15803], [-40.00988, -14.15832], [-40.00903, -14.15835], [-40.0084, -14.15902], [-40.00827, -14.15946], [-40.0085, -14.1603], [-40.0099, -14.16162], [-40.01045, -14.16164], [-40.01597, -14.15951], [-40.01048, -14.15052], [-40.01006, -14.15032], [-40.00908, -14.15172], [-40.00867, -14.15277], [-40.00845, -14.15392], [-40.00883, -14.15538], [-40.0082, -14.15736]]]}}, 
{"type": "Feature", "properties": {"CD_SETOR": "291510605000025", "CD_SIT": "2", "NM_DIST": "Itagi", "NM_SUBDIST": null}, "geometry": {"type": "Polygon", "coordinates": [[[-39.99143, -14.15476], [-39.99504, -14.16464], [-40.00238, -14.16541], [-40.0032, -14.16434], [-40.00467, -14.16184], [-40.00543, -14.16094], [-40.00504, -14.16084], [-40.00417, -14.15968], [-40.00344, -14.15909], [-40.00267, -14.16021], [-40.00243, -14.16009], [-40.002, -14.16019], [-40.00146, -14.16204], [-40.00002, -14.16166], [-40.00009, -14.16152], [-39.99949, -14.16016], [-39.99986, -14.15987], [-40.00022, -14.15912], [-40.00118, -14.15881], [-40.00125, -14.1581], [-40.00025, -14.158], [-40.00039, -14.15681], [-39.9951, -14.15653], [-39.99143, -14.15476]]]}}, 
{"type": "Feature", "properties": {"CD_SETOR": "291510605000026", "CD_SIT": "1", "NM_DIST": "Itagi", "NM_SUBDIST": null}, "geometry": {"type": "Polygon", "coordinates": [[[-40.00344, -14.15909], [-40.0031, -14.15826], [-40.00191, -14.15683], [-40.00039, -14.15681], [-40.00025, -14.158], [-40.00125, -14.1581], [-40.00118, -14.15881], [-40.00022, -14.15912], [-39.99986, -14.15987], [-39.99949, -14.16016], [-40.00009, -14.16152], [-40.00002, -14.16166], [-40.00146, -14.16204], [-40.002, -14.16019], [-40.00243, -14.16009], [-40.00267, -14.16021], [-40.00344, -14.15909]]]}}, 
{"type": "Feature", "properties": {"CD_SETOR": "291510605000027", "CD_SIT": "1", "NM_DIST": "Itagi", "NM_SUBDIST": null}, "geometry": {"type": "Polygon", "coordinates": [[[-40.00538, -14.16407], [-40.00582, -14.16642], [-40.00649, -14.16773], [-40.00735, -14.16767], [-40.00721, -14.16618], [-40.00807, -14.16613], [-40.00827, -14.16339], [-40.00626, -14.16326], [-40.00618, -14.16382], [-40.00538, -14.16407]]]}}, 
{"type": "Feature", "properties": {"CD_SETOR": "291510605000028", "CD_SIT": "2", "NM_DIST": "Itagi", "NM_SUBDIST": null}, "geometry": {"type": "Polygon", "coordinates": [[[-40.00827, -14.16339], [-40.00807, -14.16613], [-40.00721, -14.16618], [-40.00735, -14.16767], [-40.00649, -14.16773], [-40.00725, -14.16915], [-40.00808, -14.17148], [-40.01779, -14.1628], [-40.01754, -14.16231], [-40.01514, -14.1628], [-40.01317, -14.16198], [-40.01103, -14.16316], [-40.00842, -14.16256], [-40.00827, -14.16339]]]}}, 
{"type": "Feature", "properties": {"CD_SETOR": "291510605000029", "CD_SIT": "2", "NM_DIST": "Itagi", "NM_SUBDIST": null}, "geometry": {"type": "Polygon", "coordinates": [[[-39.99151, -14.15474], [-39.9951, -14.15653], [-40.00297, -14.15687], [-40.00357, -14.15702], [-40.00472, -14.15802], [-40.00515, -14.1586], [-40.00549, -14.15955], [-40.0057, -14.16082], [-40.00615, -14.16149], [-40.00722, -14.15846], [-40.00808, -14.1578], [-40.00883, -14.15538], [-40.00845, -14.15392], [-40.00867, -14.15277], [-40.00908, -14.15172], [-40.01006, -14.15032], [-39.99151, -14.15474]]]}}, 
{"type": "Feature", "properties": {"CD_SETOR": "291510605000030", "CD_SIT": "2", "NM_DIST": "Itagi", "NM_SUBDIST": null}, "geometry": {"type": "Polygon", "coordinates": [[[-40.00191, -14.15683], [-40.0031, -14.15826], [-40.00349, -14.15922], [-40.00417, -14.15968], [-40.00504, -14.16084], [-40.00543, -14.16094], [-40.0057, -14.16082], [-40.00534, -14.159], [-40.00472, -14.15802], [-40.00357, -14.15702], [-40.00191, -14.15683]]]}}]}