{"type": "FeatureCollection", "features": [
{"type": "Feature", "properties": {"CD_SETOR": "291850605000001", "CD_SIT": "1", "NM_DIST": "Jussara", "NM_SUBDIST": null}, "geometry": {"type": "Polygon", "coordinates": [[[-41.97394, -11.04874], [-41.97399, -11.04917], [-41.97515, -11.04934], [-41.97522, -11.04984], [-41.97605, -11.05], [-41.97742, -11.04994], [-41.97612, -11.05989], [-41.9831, -11.05414], [-41.98755, -11.05019], [-41.98299, -11.04974], [-41.98164, -11.04983], [-41.97944, -11.04969], [-41.97743, -11.04918], [-41.97705, -11.04895], [-41.97548, -11.04874], [-41.97394, -11.04874]]]}}, 
{"type": "Feature", "properties": {"CD_SETOR": "291850605000002", "CD_SIT": "1", "NM_DIST": "Jussara", "NM_SUBDIST": null}, "geometry": {"type": "Polygon", "coordinates": [[[-41.9714, -11.04576], [-41.97139, -11.04643], [-41.97169, -11.04648], [-41.97181, -11.04704], [-41.97218, -11.04756], [-41.97271, -11.04777], [-41.97287, -11.0488], [-41.97548, -11.04874], [-41.97705, -11.04895], [-41.97743, -11.04918], [-41.97944, -11.04969], [-41.98164, -11.04983], [-41.98299, -11.04974], [-41.98755, -11.05019], [-41.98385, -11.04555], [-41.97735, -11.04549], [-41.97358, -11.04525], [-41.97353, -11.04563], [-41.9714, -11.04576]]]}}, 
{"type": "Feature", "properties": {"CD_SETOR": "291850605000006", "CD_SIT": "1", "NM_DIST": "Jussara", "NM_SUBDIST": null}, "geometry": {"type": "Polygon", "coordinates": [[[-41.9705, -11.04249], [-41.9737, -11.04286], [-41.97372, -11.04263], [-41.97803, -11.04321], [-41.98203, -11.04327], [-41.97803, -11.03824], [-41.97071, -11.03639], [-41.9704, -11.03834], [-41.97053, -11.03954], [-41.9705, -11.04249]]]}}, 
{"type": "Feature", "properties": {"CD_SETOR": "291850605000008", "CD_SIT": "5", "NM_DIST": "Jussara", "NM_SUBDIST": null}, "geometry": {"type": "Polygon", "coordinates": [[[-41.92643, -11.10774], [-41.9267, -11.10836], [-41.92697, -11.11516], [-41.92797, -11.11516], [-41.93106, -11.11369], [-41.93395, -11.10631], [-41.92643, -11.10774]]]}}, 
{"type": "Feature", "properties": {"CD_SETOR": "291850605000009", "CD_SIT": "8", "NM_DIST": "Jussara", "NM_SUBDIST": null}, "geometry": {"type": "Polygon", "coordinates": [[[-41.93395, -11.10631], [-41.93106, -11.11369], [-41.92797, -11.11516], [-41.92697, -11.11516], [-41.9267, -11.10836], [-41.9253, -11.10388], [-41.9081, -11.14878], [-41.92627, -11.18171], [-41.95695, -11.15382], [-41.9574, -11.15359], [-41.95265, -11.14737], [-41.94879, -11.14371], [-41.95503, -11.14195], [-41.96252, -11.14036], [-41.96613, -11.1408], [-41.96903, -11.11779], [-41.96571, -11.11715], [-41.96488, -11.11451], [-41.96555, -11.10989], [-41.96999, -11.11019], [-41.97612, -11.05989], [-41.96777, -11.05201], [-41.96653, -11.05249], [-41.9648, -11.05462], [-41.96303, -11.05714], [-41.96204, -11.05915], [-41.96103, -11.06076], [-41.9596, -11.06465], [-41.95901, -11.06548], [-41.95796, -11.06802], [-41.95705, -11.0695], [-41.95583, -11.07081], [-41.95335, -11.07445], [-41.95141, -11.077], [-41.9507, -11.0777], [-41.94769, -11.08207], [-41.94579, -11.08546], [-41.94151, -11.09067], [-41.94079, -11.09323], [-41.9393, -11.09639], [-41.93395, -11.10631]]]}}, 
{"type": "Feature", "properties": {"CD_SETOR": "291850605000011", "CD_SIT": "5", "NM_DIST": "Jussara", "NM_SUBDIST": null}, "geometry": {"type": "Polygon", "coordinates": [[[-42.00253, -11.1067], [-42.00601, -11.10855], [-42.0123, -11.1073], [-42.0113, -11.10501], [-42.00284, -11.10482], [-42.00253, -11.1067]]]}}, 
{"type": "Feature", "properties": {"CD_SETOR": "291850605000012", "CD_SIT": "5", "NM_DIST": "Jussara", "NM_SUBDIST": null}, "geometry": {"type": "Polygon", "coordinates": [[[-41.9605, -11.14454], [-41.96349, -11.14788], [-41.96415, -11.149], [-41.96986, -11.14333], [-41.96986, -11.14209], [-41.96613, -11.1408], [-41.96252, -11.14036], [-41.96224, -11.1415], [-41.96288, -11.14326], [-41.96117, -11.1438], [-41.96054, -11.14428], [-41.9605, -11.14454]]]}}, 
{"type": "Feature", "properties": {"CD_SETOR": "291850605000013", "CD_SIT": "5", "NM_DIST": "Jussara", "NM_SUBDIST": null}, "geometry": {"type": "Polygon", "coordinates": [[[-41.96903, -11.11779], [-41.96915, -11.11781], [-41.97199, -11.11118], [-41.96995, -11.11017], [-41.96555, -11.10989], [-41.96488, -11.11451], [-41.96571, -11.11715], [-41.96903, -11.11779]]]}}, 
{"type": "Feature", "properties": {"CD_SETOR": "291850605000014", "CD_SIT": "1", "NM_DIST": "Jussara", "NM_SUBDIST": null}, "geometry": {"type": "Polygon", "coordinates": [[[-41.96777, -11.05201], [-41.96779, -11.05202], [-41.97612, -11.05989], [-41.97742, -11.04994], [-41.97605, -11.05], [-41.97522, -11.04984], [-41.97515, -11.04934], [-41.97399, -11.04917], [-41.97404, -11.04972], [-41.97361, -11.04968], [-41.97221, -11.05013], [-41.97181, -11.04943], [-41.97103, -11.04988], [-41.96954, -11.0511], [-41.96777, -11.05201]]]}}, 
{"type": "Feature", "properties": {"CD_SETOR": "291850605000015", "CD_SIT": "1", "NM_DIST": "Jussara", "NM_SUBDIST": null}, "geometry": {"type": "Polygon", "coordinates": [[[-41.96287, -11.04646], [-41.96289, -11.04668], [-41.96777, -11.05201], [-41.96954, -11.0511], [-41.97103, -11.04988], [-41.97181, -11.04943], [-41.97221, -11.05013], [-41.97361, -11.04968], [-41.97404, -11.04972], [-41.97394, -11.04874], [-41.97287, -11.0488], [-41.97271, -11.04777], [-41.97218, -11.04756], [-41.97185, -11.04704], [-41.97068, -11.04714], [-41.96892, -11.04699], [-41.96845, -11.04668], [-41.96487, -11.04643], [-41.96287, -11.04646]]]}}, 
{"type": "Feature", "properties": {"CD_SETOR": "291850605000016", "CD_SIT": "1", "NM_DIST": "Jussara", "NM_SUBDIST": null}, "geometry": {"type": "Polygon", "coordinates": [[[-41.9714, -11.0449], [-41.9714, -11.04576], [-41.97353, -11.04563], [-41.97358, -11.04525], [-41.97735, -11.04549], [-41.98385, -11.04555], [-41.98242, -11.04376], [-41.97643, -11.04394], [-41.975, -11.04374], [-41.97492, -11.04491], [-41.97367, -11.0448], [-41.97372, -11.04463], [-41.9714, -11.0449]]]}}, 
{"type": "Feature", "properties": {"CD_SETOR": "291850605000017", "CD_SIT": "5", "NM_DIST": "Jussara", "NM_SUBDIST": null}, "geometry": {"type": "Polygon", "coordinates": [[[-41.95272, -11.14747], [-41.95431, -11.14648], [-41.95562, -11.14619], [-41.95545, -11.14539], [-41.95569, -11.14471], [-41.95564, -11.14356], [-41.96003, -11.1434], [-41.96008, -11.14408], [-41.9605, -11.14454], [-41.96054, -11.14428], [-41.96117, -11.1438], [-41.96288, -11.14326], [-41.96224, -11.1415], [-41.96252, -11.14036], [-41.95503, -11.14195], [-41.94879, -11.14371], [-41.95272, -11.14747]]]}}, 
{"type": "Feature", "properties": {"CD_SETOR": "291850605000018", "CD_SIT": "5", "NM_DIST": "Jussara", "NM_SUBDIST": null}, "geometry": {"type": "Polygon", "coordinates": [[[-41.95272, -11.14747], [-41.9574, -11.15359], [-41.96505, -11.15079], [-41.96349, -11.14788], [-41.96017, -11.14425], [-41.96003, -11.1434], [-41.95564, -11.14356], [-41.95569, -11.14471], [-41.95545, -11.14539], [-41.95562, -11.14619], [-41.95431, -11.14648], [-41.95272, -11.14747]]]}}, 
{"type": "Feature", "properties": {"CD_SETOR": "291850605000020", "CD_SIT": "1", "NM_DIST": "Jussara", "NM_SUBDIST": null}, "geometry": {"type": "Polygon", "coordinates": [[[-41.96957, -11.04514], [-41.96959, -11.04704], [-41.97133, -11.04717], [-41.97181, -11.04704], [-41.97169, -11.04648], [-41.97139, -11.04643], [-41.9714, -11.0449], [-41.9705, -11.04249], [-41.9694, -11.04242], [-41.96965, -11.04447], [-41.96957, -11.04514]]]}}, 
{"type": "Feature", "properties": {"CD_SETOR": "291850605000021", "CD_SIT": "2", "NM_DIST": "Jussara", "NM_SUBDIST": null}, "geometry": {"type": "Polygon", "coordinates": [[[-41.96252, -11.03828], [-41.96514, -11.03936], [-41.96927, -11.04143], [-41.9694, -11.04242], [-41.9705, -11.04249], [-41.97053, -11.03954], [-41.9704, -11.03834], [-41.97071, -11.03639], [-41.96783, -11.03464], [-41.96252, -11.03828]]]}}, 
{"type": "Feature", "properties": {"CD_SETOR": "291850605000022", "CD_SIT": "1", "NM_DIST": "Jussara", "NM_SUBDIST": null}, "geometry": {"type": "Polygon", "coordinates": [[[-41.96629, -11.04509], [-41.96551, -11.04548], [-41.96526, -11.04638], [-41.96491, -11.0465], [-41.96845, -11.04668], [-41.96892, -11.04699], [-41.96959, -11.04704], [-41.96957, -11.04514], [-41.96693, -11.04507], [-41.96681, -11.04544], [-41.96629, -11.04509]]]}}, 
{"type": "Feature", "properties": {"CD_SETOR": "291850605000023", "CD_SIT": "2", "NM_DIST": "Jussara", "NM_SUBDIST": null}, "geometry": {"type": "Polygon", "coordinates": [[[-41.96116, -11.04209], [-41.96287, -11.0421], [-41.96316, -11.04279], [-41.96465, -11.04427], [-41.96576, -11.04436], [-41.96629, -11.04509], [-41.96681, -11.04544], [-41.96693, -11.04507], [-41.96957, -11.04514], [-41.96965, -11.04447], [-41.96927, -11.04143], [-41.96514, -11.03936], [-41.96252, -11.03828], [-41.96182, -11.03906], [-41.96116, -11.04209]]]}}, 
{"type": "Feature", "properties": {"CD_SETOR": "291850605000024", "CD_SIT": "1", "NM_DIST": "Jussara", "NM_SUBDIST": null}, "geometry": {"type": "Polygon", "coordinates": [[[-41.96287, -11.04646], [-41.96526, -11.04638], [-41.96551, -11.04548], [-41.96629, -11.04509], [-41.96576, -11.04436], [-41.96465, -11.04427], [-41.96316, -11.04279], [-41.96287, -11.0421], [-41.96116, -11.04209], [-41.96044, -11.04666], [-41.96287, -11.04646]]]}}, 
{"type": "Feature", "properties": {"CD_SETOR": "291850605000025", "CD_SIT": "1", "NM_DIST": "Jussara", "NM_SUBDIST": null}, "geometry": {"type": "Polygon", "coordinates": [[[-41.97243, -11.04273], [-41.97233, -11.04356], [-41.97425, -11.04363], [-41.97643, -11.04394], [-41.98242, -11.04376], [-41.98203, -11.04327], [-41.97693, -11.04313], [-41.97372, -11.04263], [-41.9737, -11.04286], [-41.97243, -11.04273]]]}}, 
{"type": "Feature", "properties": {"CD_SETOR": "291850605000026", "CD_SIT": "1", "NM_DIST": "Jussara", "NM_SUBDIST": null}, "geometry": {"type": "Polygon", "coordinates": [[[-41.9714, -11.0449], [-41.97372, -11.04463], [-41.97367, -11.0448], [-41.97492, -11.04491], [-41.975, -11.04374], [-41.97233, -11.04356], [-41.97243, -11.04273], [-41.9705, -11.04249], [-41.9714, -11.0449]]]}}, 
{"type": "Feature", "properties": {"CD_SETOR": "291850605000027", "CD_SIT": "8", "NM_DIST": "Jussara", "NM_SUBDIST": null}, "geometry": {"type": "Polygon", "coordinates": [[[-41.9651, -10.9846], [-41.95558, -11.01262], [-41.95137, -11.02717], [-41.94914, -11.03403], [-41.9253, -11.10388], [-41.92643, -11.10774], [-41.93395, -11.10631], [-41.9393, -11.09639], [-41.94079, -11.09323], [-41.94151, -11.09067], [-41.94579, -11.08546], [-41.94769, -11.08207], [-41.9507, -11.0777], [-41.95141, -11.077], [-41.95335, -11.07445], [-41.95583, -11.07081], [-41.95705, -11.0695], [-41.95796, -11.06802], [-41.95901, -11.06548], [-41.9596, -11.06465], [-41.96103, -11.06076], [-41.96204, -11.05915], [-41.96303, -11.05714], [-41.9648, -11.05462], [-41.96653, -11.05249], [-41.96777, -11.05201], [-41.96289, -11.04668], [-41.96287, -11.04646], [-41.96044, -11.04666], [-41.961, -11.04281], [-41.96182, -11.03906], [-41.96252, -11.03828], [-41.96783, -11.03464], [-41.97071, -11.03639], [-41.97803, -11.03824], [-41.97944, -11.04007], [-41.98437, -11.03629], [-41.98651, -11.03507], [-41.98772, -11.03399], [-41.98814, -11.03327], [-41.98836, -11.03154], [-41.99085, -11.02909], [-41.9917, -11.02735], [-41.99438, -11.02408], [-41.99668, -11.02269], [-41.99868, -11.02109], [-41.99974, -11.02082], [-42.00086, -11.02076], [-42.00393, -11.01917], [-41.97209, -10.96878], [-41.9651, -10.9846]]]}}, 
{"type": "Feature", "properties": {"CD_SETOR": "291850605000028", "CD_SIT": "8", "NM_DIST": "Jussara", "NM_SUBDIST": null}, "geometry": {"type": "Polygon", "coordinates": [[[-41.97612, -11.05989], [-41.96999, -11.11019], [-41.97199, -11.11118], [-41.96915, -11.11781], [-41.96903, -11.11779], [-41.96613, -11.1408], [-41.96986, -11.14209], [-41.96986, -11.14333], [-41.96415, -11.149], [-41.96505, -11.15079], [-41.98596, -11.14325], [-42.01625, -11.11227], [-42.02449, -11.09965], [-42.02409, -11.09973], [-42.02366, -11.09697], [-42.02381, -11.09677], [-42.02515, -11.09622], [-42.02543, -11.09579], [-42.02539, -11.09421], [-42.02524, -11.09402], [-42.0246, -11.09375], [-42.02298, -11.09197], [-42.02207, -11.09161], [-42.02162, -11.09118], [-42.02063, -11.09124], [-42.01279, -11.09308], [-42.01061, -11.08868], [-42.01064, -11.08835], [-42.01157, -11.08819], [-42.00984, -11.08663], [-42.0043, -11.0884], [-41.99846, -11.08931], [-41.99457, -11.08578], [-41.99327, -11.08491], [-41.99448, -11.08459], [-42.00007, -11.08521], [-42.00827, -11.08307], [-42.00785, -11.08174], [-42.00599, -11.07871], [-42.00502, -11.07472], [-42.00473, -11.07416], [-42.00034, -11.07503], [-41.99913, -11.07165], [-41.99602, -11.06842], [-41.99497, -11.06634], [-41.99425, -11.06389], [-41.99329, -11.06211], [-41.99213, -11.06047], [-41.99084, -11.05933], [-41.99026, -11.05904], [-41.98842, -11.05865], [-41.988, -11.05832], [-41.98678, -11.05622], [-41.98493, -11.05475], [-41.98373, -11.05358], [-41.97612, -11.05989]], [[-42.00253, -11.1067], [-42.00284, -11.10482], [-42.0113, -11.10501], [-42.0123, -11.1073], [-42.00601, -11.10855], [-42.00253, -11.1067]]]}}, 
{"type": "Feature", "properties": {"CD_SETOR": "291850605000029", "CD_SIT": "5", "NM_DIST": "Jussara", "NM_SUBDIST": null}, "geometry": {"type": "Polygon", "coordinates": [[[-42.00984, -11.08663], [-42.00919, -11.0857], [-42.00896, -11.08419], [-42.00827, -11.08307], [-42.00007, -11.08521], [-41.99448, -11.08459], [-41.99327, -11.08491], [-41.99457, -11.08578], [-41.99846, -11.08931], [-42.0043, -11.0884], [-42.00984, -11.08663]]]}}, 
{"type": "Feature", "properties": {"CD_SETOR": "291850607000001", "CD_SIT": "1", "NM_DIST": "Queimada Nova", "NM_SUBDIST": null}, "geometry": {"type": "Polygon", "coordinates": [[[-42.03069, -11.03391], [-42.03071, -11.03665], [-42.04937, -11.03396], [-42.05344, -11.03042], [-42.05291, -11.02977], [-42.04671, -11.02783], [-42.04, -11.02968], [-42.03206, -11.0314], [-42.03085, -11.03278], [-42.03069, -11.03391]]]}}, 
{"type": "Feature", "properties": {"CD_SETOR": "291850607000002", "CD_SIT": "8", "NM_DIST": "Queimada Nova", "NM_SUBDIST": null}, "geometry": {"type": "Polygon", "coordinates": [[[-41.97944, -11.04007], [-41.98755, -11.05019], [-41.98373, -11.05358], [-41.98493, -11.05475], [-41.98678, -11.05622], [-41.988, -11.05832], [-41.98842, -11.05865], [-41.99026, -11.05904], [-41.99084, -11.05933], [-41.99213, -11.06047], [-41.99329, -11.06211], [-41.99425, -11.06389], [-41.99497, -11.06634], [-41.99602, -11.06842], [-41.99913, -11.07165], [-42.00034, -11.07503], [-42.00473, -11.07416], [-42.00502, -11.07472], [-42.00599, -11.07871], [-42.00785, -11.08174], [-42.00827, -11.08307], [-42.00896, -11.08419], [-42.00919, -11.0857], [-42.01056, -11.08733], [-42.01157, -11.08819], [-42.01695, -11.08774], [-42.02168, -11.09033], [-42.02162, -11.09118], [-42.02207, -11.09161], [-42.02298, -11.09197], [-42.0246, -11.09375], [-42.02524, -11.09402], [-42.02539, -11.09421], [-42.0254, -11.09593], [-42.02515, -11.09622], [-42.02381, -11.09677], [-42.02366, -11.09697], [-42.02409, -11.09973], [-42.02449, -11.09965], [-42.04891, -11.06227], [-42.07561, -11.02977], [-42.00554, -11.02171], [-42.00393, -11.01917], [-42.00086, -11.02076], [-41.99974, -11.02082], [-41.99868, -11.02109], [-41.99668, -11.02269], [-41.99438, -11.02408], [-41.9917, -11.02735], [-41.99085, -11.02909], [-41.98836, -11.03154], [-41.98814, -11.03327], [-41.98772, -11.03399], [-41.98651, -11.03507], [-41.98437, -11.03629], [-41.97944, -11.04007]], [[-42.03069, -11.03391], [-42.03085, -11.03278], [-42.03206, -11.0314], [-42.04, -11.02968], [-42.04671, -11.02783], [-42.05291, -11.02977], [-42.05344, -11.03042], [-42.04937, -11.03396], [-42.03071, -11.03665], [-42.03069, -11.03391]]]}}, 
{"type": "Feature", "properties": {"CD_SETOR": "291850607000003", "CD_SIT": "5", "NM_DIST": "Queimada Nova", "NM_SUBDIST": null}, "geometry": {"type": "Polygon", "coordinates": [[[-42.01157, -11.08819], [-42.01064, -11.08835], [-42.01061, -11.08868], [-42.01279, -11.09308], [-42.02063, -11.09124], [-42.02162, -11.09118], [-42.02168, -11.09033], [-42.01695, -11.08774], [-42.01157, -11.08819]]]}}, 
{"type": "Feature", "properties": {"CD_SETOR": "291850610000001", "CD_SIT": "1", "NM_DIST": "Recife", "NM_SUBDIST": null}, "geometry": {"type": "Polygon", "coordinates": [[[-41.89043, -11.00992], [-41.89029, -11.01018], [-41.89266, -11.01096], [-41.89417, -11.01173], [-41.89347, -11.01294], [-41.89473, -11.01344], [-41.89563, -11.01414], [-41.89765, -11.0152], [-41.89887, -11.01556], [-41.90296, -11.01609], [-41.90338, -11.01436], [-41.89662, -11.00973], [-41.89373, -11.00586], [-41.89309, -11.00633], [-41.89238, -11.00727], [-41.89098, -11.00849], [-41.89043, -11.00992]]]}}, 
{"type": "Feature", "properties": {"CD_SETOR": "291850610000002", "CD_SIT": "1", "NM_DIST": "Recife", "NM_SUBDIST": null}, "geometry": {"type": "Polygon", "coordinates": [[[-41.88106, -11.00549], [-41.8838, -11.00701], [-41.88699, -11.00783], [-41.88695, -11.00822], [-41.88842, -11.00865], [-41.89043, -11.00992], [-41.89098, -11.00849], [-41.89238, -11.00727], [-41.89309, -11.00633], [-41.89373, -11.00586], [-41.88068, -11.00386], [-41.88106, -11.00549]]]}}, 
{"type": "Feature", "properties": {"CD_SETOR": "291850610000003", "CD_SIT": "1", "NM_DIST": "Recife", "NM_SUBDIST": null}, "geometry": {"type": "Polygon", "coordinates": [[[-41.88568, -11.00977], [-41.88903, -11.01198], [-41.88997, -11.01089], [-41.89043, -11.00992], [-41.88842, -11.00865], [-41.88695, -11.00822], [-41.88699, -11.00783], [-41.8838, -11.00701], [-41.88106, -11.00549], [-41.88087, -11.0066], [-41.88568, -11.00977]]]}}, 
{"type": "Feature", "properties": {"CD_SETOR": "291850610000004", "CD_SIT": "1", "NM_DIST": "Recife", "NM_SUBDIST": null}, "geometry": {"type": "Polygon", "coordinates": [[[-41.88903, -11.01198], [-41.89213, -11.01402], [-41.89243, -11.01482], [-41.8939, -11.01552], [-41.90087, -11.01638], [-41.90296, -11.01609], [-41.89887, -11.01556], [-41.89765, -11.0152], [-41.89563, -11.01414], [-41.89473, -11.01344], [-41.89347, -11.01294], [-41.89417, -11.01173], [-41.89266, -11.01096], [-41.89029, -11.01018], [-41.88997, -11.01089], [-41.88903, -11.01198]]]}}, 
{"type": "Feature", "properties": {"CD_SETOR": "291850610000005", "CD_SIT": "8", "NM_DIST": "Recife", "NM_SUBDIST": null}, "geometry": {"type": "Polygon", "coordinates": [[[-41.78645, -10.98433], [-41.81353, -11.02027], [-41.81566, -11.02531], [-41.81648, -11.02796], [-41.81867, -11.03382], [-41.8235, -11.04515], [-41.82469, -11.04756], [-41.82657, -11.05019], [-41.82923, -11.05483], [-41.83043, -11.05925], [-41.83167, -11.06301], [-41.83164, -11.06352], [-41.83137, -11.06398], [-41.84159, -11.08549], [-41.84245, -11.0842], [-41.84217, -11.08263], [-41.84145, -11.08105], [-41.84231, -11.07833], [-41.84353, -11.07886], [-41.84413, -11.07871], [-41.84425, -11.07851], [-41.84402, -11.07794], [-41.8436, -11.0776], [-41.84451, -11.07574], [-41.8448, -11.07289], [-41.84496, -11.07228], [-41.84526, -11.07191], [-41.84568, -11.07189], [-41.84612, -11.07253], [-41.84603, -11.07398], [-41.84551, -11.07447], [-41.84557, -11.07491], [-41.84573, -11.07501], [-41.84737, -11.07537], [-41.84877, -11.07484], [-41.84927, -11.0748], [-41.85039, -11.07511], [-41.85116, -11.07511], [-41.85187, -11.07491], [-41.85178, -11.0745], [-41.8509, -11.0739], [-41.85054, -11.07308], [-41.85088, -11.07289], [-41.85129, -11.07303], [-41.85157, -11.07285], [-41.85167, -11.07263], [-41.85136, -11.07213], [-41.85185, -11.07188], [-41.85169, -11.07137], [-41.85098, -11.07102], [-41.85039, -11.0703], [-41.85111, -11.0693], [-41.85045, -11.06905], [-41.84958, -11.06957], [-41.84872, -11.06964], [-41.84843, -11.06953], [-41.84832, -11.06912], [-41.84848, -11.06684], [-41.84872, -11.06603], [-41.85012, -11.06436], [-41.85303, -11.06314], [-41.85341, -11.06337], [-41.85289, -11.06399], [-41.85286, -11.06469], [-41.85316, -11.06537], [-41.85384, -11.06521], [-41.85428, -11.06453], [-41.85483, -11.06456], [-41.85507, -11.06434], [-41.85444, -11.06155], [-41.8542, -11.06128], [-41.85374, -11.06127], [-41.85373, -11.06217], [-41.85325, -11.06209], [-41.85293, -11.06181], [-41.85287, -11.06118], [-41.85234, -11.06018], [-41.8524, -11.05977], [-41.85301, -11.05937], [-41.85347, -11.05943], [-41.85378, -11.06012], [-41.85399, -11.06025], [-41.85521, -11.06025], [-41.85566, -11.06046], [-41.85606, -11.06006], [-41.85603, -11.05984], [-41.85478, -11.0588], [-41.85332, -11.05805], [-41.85318, -11.0572], [-41.85374, -11.05585], [-41.85437, -11.05538], [-41.85562, -11.05509], [-41.85711, -11.05512], [-41.85859, -11.05551], [-41.85891, -11.0558], [-41.85943, -11.05753], [-41.85931, -11.05813], [-41.85947, -11.05875], [-41.85985, -11.05898], [-41.86052, -11.05879], [-41.86202, -11.0591], [-41.86292, -11.059], [-41.8628, -11.05863], [-41.86123, -11.05818], [-41.86085, -11.05784], [-41.86125, -11.05731], [-41.86188, -11.05699], [-41.86245, -11.05568], [-41.8629, -11.05507], [-41.86275, -11.05329], [-41.86286, -11.05163], [-41.86335, -11.05132], [-41.86458, -11.05183], [-41.86512, -11.05169], [-41.86521, -11.05133], [-41.865, -11.05043], [-41.8656, -11.0495], [-41.86487, -11.04903], [-41.86379, -11.04915], [-41.86225, -11.04882], [-41.86086, -11.04827], [-41.86073, -11.04782], [-41.8608, -11.04761], [-41.86126, -11.04745], [-41.86255, -11.04772], [-41.86285, -11.04715], [-41.86445, -11.04636], [-41.86446, -11.04609], [-41.86394, -11.04533], [-41.86291, -11.04448], [-41.86287, -11.04422], [-41.86306, -11.04407], [-41.86366, -11.0442], [-41.86522, -11.04368], [-41.8661, -11.04291], [-41.86631, -11.04259], [-41.86616, -11.04203], [-41.86585, -11.04159], [-41.86502, -11.04112], [-41.865, -11.04067], [-41.86543, -11.04025], [-41.86646, -11.03988], [-41.86669, -11.0394], [-41.86757, -11.03897], [-41.86775, -11.03872], [-41.86739, -11.03779], [-41.86706, -11.03752], [-41.86587, -11.03718], [-41.86579, -11.0359], [-41.86425, -11.03567], [-41.86406, -11.03521], [-41.86416, -11.0349], [-41.86467, -11.0345], [-41.86529, -11.0346], [-41.86575, -11.03486], [-41.86644, -11.03558], [-41.86688, -11.0355], [-41.86688, -11.03369], [-41.86639, -11.03272], [-41.86647, -11.03234], [-41.867, -11.03235], [-41.86829, -11.03275], [-41.86904, -11.03315], [-41.87016, -11.03408], [-41.87082, -11.03439], [-41.87138, -11.03413], [-41.87149, -11.03348], [-41.87209, -11.03297], [-41.87301, -11.03298], [-41.87354, -11.03362], [-41.87384, -11.0336], [-41.87449, -11.0331], [-41.87464, -11.0329], [-41.87456, -11.03242], [-41.87347, -11.03068], [-41.87359, -11.02852], [-41.87313, -11.02757], [-41.87241, -11.02705], [-41.87236, -11.02669], [-41.87281, -11.02638], [-41.87417, -11.02619], [-41.87553, -11.02666], [-41.87645, -11.02577], [-41.87645, -11.02521], [-41.87598, -11.02394], [-41.87592, -11.02239], [-41.8761, -11.02065], [-41.87642, -11.01988], [-41.87714, -11.01885], [-41.87763, -11.01703], [-41.87767, -11.01592], [-41.87819, -11.01424], [-41.87913, -11.01346], [-41.87982, -11.0139], [-41.88025, -11.01449], [-41.87974, -11.01531], [-41.87922, -11.01577], [-41.87913, -11.01615], [-41.87994, -11.01686], [-41.88046, -11.01766], [-41.88223, -11.01856], [-41.88278, -11.01842], [-41.88307, -11.01767], [-41.88199, -11.01659], [-41.88217, -11.01546], [-41.8824, -11.015], [-41.88332, -11.01451], [-41.88381, -11.01233], [-41.88531, -11.0109], [-41.88568, -11.00977], [-41.88087, -11.0066], [-41.88106, -11.00549], [-41.87419, -11.00164], [-41.87301, -11.00118], [-41.86982, -11.00052], [-41.8688, -10.99981], [-41.86713, -10.99801], [-41.86525, -10.99672], [-41.86224, -10.99601], [-41.86076, -10.99525], [-41.85788, -10.99483], [-41.8551, -10.99414], [-41.85372, -10.99344], [-41.85324, -10.99297], [-41.85309, -10.99239], [-41.85117, -10.99026], [-41.84606, -10.98798], [-41.84418, -10.98696], [-41.84068, -10.98436], [-41.83922, -10.98236], [-41.83808, -10.98182], [-41.83645, -10.98132], [-41.83501, -10.98017], [-41.83193, -10.97947], [-41.8306, -10.97853], [-41.82955, -10.97811], [-41.82678, -10.97742], [-41.82338, -10.97724], [-41.82084, -10.97645], [-41.81597, -10.97635], [-41.81169, -10.97554], [-41.81157, -10.97619], [-41.81017, -10.97638], [-41.80698, -10.97626], [-41.8062, -10.976], [-41.80506, -10.97407], [-41.80464, -10.97295], [-41.80396, -10.97219], [-41.80314, -10.97401], [-41.80208, -10.975], [-41.80173, -10.97522], [-41.80006, -10.9752], [-41.79827, -10.97655], [-41.79616, -10.97697], [-41.79397, -10.97809], [-41.7919, -10.98042], [-41.79012, -10.98318], [-41.7891, -10.98364], [-41.78875, -10.98399], [-41.78755, -10.98464], [-41.78702, -10.98437], [-41.78645, -10.98433]]]}}, 
{"type": "Feature", "properties": {"CD_SETOR": "291850610000006", "CD_SIT": "8", "NM_DIST": "Recife", "NM_SUBDIST": null}, "geometry": {"type": "Polygon", "coordinates": [[[-41.84159, -11.08549], [-41.85603, -11.11586], [-41.89836, -11.12854], [-41.89844, -11.13127], [-41.9081, -11.14878], [-41.92549, -11.10339], [-41.94946, -11.03302], [-41.90338, -11.01436], [-41.90296, -11.01609], [-41.90087, -11.01638], [-41.8939, -11.01552], [-41.89243, -11.01482], [-41.89213, -11.01402], [-41.88568, -11.00977], [-41.88531, -11.0109], [-41.88381, -11.01233], [-41.88332, -11.01451], [-41.8824, -11.015], [-41.88217, -11.01546], [-41.88199, -11.01659], [-41.88307, -11.01767], [-41.88278, -11.01842], [-41.88223, -11.01856], [-41.88046, -11.01766], [-41.87994, -11.01686], [-41.87913, -11.01615], [-41.87922, -11.01577], [-41.87974, -11.01531], [-41.88025, -11.01449], [-41.87982, -11.0139], [-41.87913, -11.01346], [-41.87819, -11.01424], [-41.87767, -11.01592], [-41.87763, -11.01703], [-41.87714, -11.01885], [-41.87642, -11.01988], [-41.8761, -11.02065], [-41.87592, -11.02239], [-41.87598, -11.02394], [-41.87645, -11.02521], [-41.87645, -11.02577], [-41.87553, -11.02666], [-41.87417, -11.02619], [-41.87281, -11.02638], [-41.87236, -11.02669], [-41.87241, -11.02705], [-41.87313, -11.02757], [-41.87359, -11.02852], [-41.87347, -11.03068], [-41.87456, -11.03242], [-41.87464, -11.0329], [-41.87449, -11.0331], [-41.87384, -11.0336], [-41.87354, -11.03362], [-41.87301, -11.03298], [-41.87209, -11.03297], [-41.87149, -11.03348], [-41.87138, -11.03413], [-41.87082, -11.03439], [-41.87016, -11.03408], [-41.86904, -11.03315], [-41.86829, -11.03275], [-41.867, -11.03235], [-41.86647, -11.03234], [-41.86639, -11.03272], [-41.86688, -11.03369], [-41.86688, -11.0355], [-41.86644, -11.03558], [-41.86575, -11.03486], [-41.86529, -11.0346], [-41.86467, -11.0345], [-41.86416, -11.0349], [-41.86406, -11.03521], [-41.86425, -11.03567], [-41.86579, -11.0359], [-41.86587, -11.03718], [-41.86706, -11.03752], [-41.86739, -11.03779], [-41.86775, -11.03872], [-41.86757, -11.03897], [-41.86669, -11.0394], [-41.86646, -11.03988], [-41.86543, -11.04025], [-41.865, -11.04067], [-41.86502, -11.04112], [-41.86585, -11.04159], [-41.86616, -11.04203], [-41.86631, -11.04259], [-41.8661, -11.04291], [-41.86522, -11.04368], [-41.86366, -11.0442], [-41.86306, -11.04407], [-41.86287, -11.04422], [-41.86291, -11.04448], [-41.86394, -11.04533], [-41.86446, -11.04609], [-41.86445, -11.04636], [-41.86285, -11.04715], [-41.86255, -11.04772], [-41.86126, -11.04745], [-41.8608, -11.04761], [-41.86073, -11.04782], [-41.86086, -11.04827], [-41.86225, -11.04882], [-41.86379, -11.04915], [-41.86487, -11.04903], [-41.8656, -11.0495], [-41.865, -11.05043], [-41.86521, -11.05133], [-41.86512, -11.05169], [-41.86458, -11.05183], [-41.86335, -11.05132], [-41.86286, -11.05163], [-41.86275, -11.05329], [-41.8629, -11.05507], [-41.86245, -11.05568], [-41.86188, -11.05699], [-41.86125, -11.05731], [-41.86085, -11.05784], [-41.86123, -11.05818], [-41.8628, -11.05863], [-41.86292, -11.059], [-41.86202, -11.0591], [-41.86052, -11.05879], [-41.85985, -11.05898], [-41.85947, -11.05875], [-41.85931, -11.05813], [-41.85943, -11.05753], [-41.85891, -11.0558], [-41.85859, -11.05551], [-41.85711, -11.05512], [-41.85562, -11.05509], [-41.85437, -11.05538], [-41.85374, -11.05585], [-41.85318, -11.0572], [-41.85332, -11.05805], [-41.85478, -11.0588], [-41.85603, -11.05984], [-41.85606, -11.06006], [-41.85566, -11.06046], [-41.85521, -11.06025], [-41.85399, -11.06025], [-41.85378, -11.06012], [-41.85347, -11.05943], [-41.85301, -11.05937], [-41.8524, -11.05977], [-41.85234, -11.06018], [-41.85287, -11.06118], [-41.85293, -11.06181], [-41.85325, -11.06209], [-41.85373, -11.06217], [-41.85374, -11.06127], [-41.8542, -11.06128], [-41.85444, -11.06155], [-41.85507, -11.06434], [-41.85483, -11.06456], [-41.85428, -11.06453], [-41.85384, -11.06521], [-41.85316, -11.06537], [-41.85286, -11.06469], [-41.85289, -11.06399], [-41.85341, -11.06337], [-41.85303, -11.06314], [-41.85012, -11.06436], [-41.84872, -11.06603], [-41.84848, -11.06684], [-41.84832, -11.06912], [-41.84843, -11.06953], [-41.84872, -11.06964], [-41.84958, -11.06957], [-41.85045, -11.06905], [-41.85111, -11.0693], [-41.85039, -11.0703], [-41.85098, -11.07102], [-41.85169, -11.07137], [-41.85185, -11.07188], [-41.85136, -11.07213], [-41.85167, -11.07263], [-41.85157, -11.07285], [-41.85129, -11.07303], [-41.85088, -11.07289], [-41.85054, -11.07308], [-41.8509, -11.0739], [-41.85178, -11.0745], [-41.85187, -11.07491], [-41.85116, -11.07511], [-41.85039, -11.07511], [-41.84927, -11.0748], [-41.84877, -11.07484], [-41.84737, -11.07537], [-41.84573, -11.07501], [-41.84557, -11.07491], [-41.84551, -11.07447], [-41.84603, -11.07398], [-41.84612, -11.07253], [-41.84568, -11.07189], [-41.84526, -11.07191], [-41.84496, -11.07228], [-41.8448, -11.07289], [-41.84451, -11.07574], [-41.8436, -11.0776], [-41.84402, -11.07794], [-41.84425, -11.07851], [-41.84413, -11.07871], [-41.84353, -11.07886], [-41.84231, -11.07833], [-41.84145, -11.08105], [-41.84217, -11.08263], [-41.84245, -11.0842], [-41.84159, -11.08549]]]}}, 
{"type": "Feature", "properties": {"CD_SETOR": "291850610000008", "CD_SIT": "8", "NM_DIST": "Recife", "NM_SUBDIST": null}, "geometry": {"type": "Polygon", "coordinates": [[[-41.70184, -10.78008], [-41.70168, -10.78146], [-41.70179, -10.78318], [-41.70147, -10.78406], [-41.69909, -10.78504], [-41.69831, -10.78564], [-41.69734, -10.78731], [-41.69611, -10.7879], [-41.69587, -10.78894], [-41.69608, -10.78981], [-41.69605, -10.79122], [-41.69561, -10.79274], [-41.69525, -10.79331], [-41.69397, -10.79428], [-41.68648, -10.79909], [-41.68292, -10.80226], [-41.68141, -10.803], [-41.67963, -10.80447], [-41.67761, -10.80558], [-41.67673, -10.80625], [-41.67567, -10.80735], [-41.67436, -10.80968], [-41.6734, -10.81063], [-41.67184, -10.8112], [-41.66817, -10.8121], [-41.66729, -10.81188], [-41.6666, -10.81134], [-41.66576, -10.81016], [-41.6653, -10.80976], [-41.6648, -10.80963], [-41.66378, -10.81004], [-41.66276, -10.8112], [-41.69737, -10.86325], [-41.69835, -10.89585], [-41.69461, -10.88926], [-41.68664, -10.88201], [-41.68439, -10.877], [-41.68168, -10.87471], [-41.68067, -10.87365], [-41.67981, -10.87237], [-41.67891, -10.87175], [-41.67827, -10.87148], [-41.67364, -10.8706], [-41.67196, -10.86912], [-41.66579, -10.87508], [-41.65599, -10.88523], [-41.65484, -10.88554], [-41.65299, -10.88558], [-41.64487, -10.91261], [-41.64928, -10.91218], [-41.65171, -10.91262], [-41.65364, -10.91268], [-41.65526, -10.91184], [-41.65606, -10.9116], [-41.65802, -10.91178], [-41.66217, -10.91296], [-41.66308, -10.91403], [-41.66328, -10.9155], [-41.66311, -10.91657], [-41.66366, -10.91736], [-41.66508, -10.91823], [-41.66803, -10.91914], [-41.67032, -10.9202], [-41.67331, -10.92207], [-41.68003, -10.92568], [-41.6854, -10.92686], [-41.69036, -10.92844], [-41.69837, -10.9323], [-41.70672, -10.93505], [-41.71299, -10.93765], [-41.71531, -10.93799], [-41.7173, -10.93783], [-41.71861, -10.93731], [-41.72042, -10.93687], [-41.72245, -10.93705], [-41.72431, -10.93762], [-41.72619, -10.9386], [-41.72963, -10.93943], [-41.73171, -10.94039], [-41.73349, -10.94095], [-41.73504, -10.94103], [-41.73697, -10.94083], [-41.73849, -10.94088], [-41.73964, -10.94121], [-41.74201, -10.94121], [-41.74327, -10.94142], [-41.74463, -10.9421], [-41.74567, -10.94194], [-41.74717, -10.94097], [-41.74989, -10.94041], [-41.7531, -10.94003], [-41.78645, -10.98433], [-41.78766, -10.9846], [-41.7891, -10.98364], [-41.79012, -10.98318], [-41.7919, -10.98042], [-41.79397, -10.97809], [-41.79616, -10.97697], [-41.79827, -10.97655], [-41.80006, -10.9752], [-41.80173, -10.97522], [-41.80208, -10.975], [-41.80314, -10.97401], [-41.80396, -10.97219], [-41.80331, -10.97163], [-41.80336, -10.96992], [-41.80455, -10.97039], [-41.8048, -10.97068], [-41.80601, -10.96799], [-41.80648, -10.96751], [-41.81542, -10.96142], [-41.81606, -10.96044], [-41.81789, -10.95481], [-41.81782, -10.95398], [-41.81721, -10.95207], [-41.81626, -10.95096], [-41.81421, -10.9505], [-41.81321, -10.9499], [-41.81285, -10.94953], [-41.81284, -10.9493], [-41.81326, -10.94593], [-41.8143, -10.94277], [-41.81474, -10.94186], [-41.81566, -10.93094], [-41.8156, -10.93019], [-41.81508, -10.92878], [-41.81515, -10.92788], [-41.81575, -10.92587], [-41.81572, -10.92456], [-41.8153, -10.92251], [-41.81573, -10.91972], [-41.83731, -10.88686], [-41.83848, -10.88629], [-41.842, -10.88596], [-41.85008, -10.87954], [-41.85209, -10.8799], [-41.85419, -10.87927], [-41.85456, -10.87837], [-41.85624, -10.87642], [-41.86035, -10.87021], [-41.86101, -10.86893], [-41.8723, -10.85952], [-41.85048, -10.83231], [-41.85007, -10.83189], [-41.84627, -10.8293], [-41.84336, -10.82526], [-41.83896, -10.82066], [-41.82416, -10.80308], [-41.77332, -10.74138], [-41.76997, -10.73797], [-41.70184, -10.78008]]]}}, 
{"type": "Feature", "properties": {"CD_SETOR": "291850610000009", "CD_SIT": "8", "NM_DIST": "Recife", "NM_SUBDIST": null}, "geometry": {"type": "Polygon", "coordinates": [[[-41.76997, -10.73797], [-41.77332, -10.74138], [-41.82416, -10.80308], [-41.83896, -10.82066], [-41.84336, -10.82526], [-41.84627, -10.8293], [-41.85007, -10.83189], [-41.85048, -10.83231], [-41.8739, -10.86148], [-41.89744, -10.8917], [-41.89839, -10.89143], [-41.89867, -10.89094], [-41.89856, -10.89017], [-41.89713, -10.88891], [-41.89546, -10.88821], [-41.89525, -10.88783], [-41.89511, -10.88685], [-41.89585, -10.8851], [-41.89763, -10.88339], [-41.89799, -10.88265], [-41.89799, -10.88179], [-41.89722, -10.88059], [-41.89705, -10.87997], [-41.89866, -10.87888], [-41.89901, -10.87848], [-41.89993, -10.8769], [-41.90003, -10.87603], [-41.89956, -10.87487], [-41.89971, -10.87366], [-41.89946, -10.87265], [-41.89923, -10.87232], [-41.89848, -10.87193], [-41.89757, -10.87208], [-41.89627, -10.87196], [-41.89589, -10.87174], [-41.89551, -10.87124], [-41.89524, -10.86893], [-41.8956, -10.86786], [-41.89642, -10.86687], [-41.89636, -10.86602], [-41.89597, -10.86571], [-41.89423, -10.86551], [-41.89353, -10.86477], [-41.89347, -10.86371], [-41.89384, -10.86229], [-41.89305, -10.86148], [-41.89287, -10.8602], [-41.89283, -10.85785], [-41.8932, -10.85559], [-41.8928, -10.85475], [-41.89201, -10.85413], [-41.89165, -10.8532], [-41.89187, -10.85223], [-41.89223, -10.85157], [-41.89187, -10.85028], [-41.8918, -10.84917], [-41.89224, -10.84647], [-41.8921, -10.84518], [-41.89269, -10.84313], [-41.81044, -10.71296], [-41.76997, -10.73797]]]}}, 
{"type": "Feature", "properties": {"CD_SETOR": "291850610000010", "CD_SIT": "8", "NM_DIST": "Recife", "NM_SUBDIST": null}, "geometry": {"type": "Polygon", "coordinates": [[[-41.89744, -10.8917], [-41.91914, -10.9199], [-41.92552, -10.92848], [-41.92846, -10.93205], [-41.93173, -10.9339], [-41.93231, -10.93444], [-41.94114, -10.94643], [-41.94974, -10.95854], [-41.96316, -10.98195], [-41.96358, -10.98238], [-41.96454, -10.98285], [-41.96496, -10.98334], [-41.9651, -10.9846], [-41.97209, -10.96878], [-41.89269, -10.84313], [-41.8921, -10.84518], [-41.89224, -10.84647], [-41.8918, -10.84917], [-41.89187, -10.85028], [-41.89223, -10.85157], [-41.89187, -10.85223], [-41.89165, -10.8532], [-41.89201, -10.85413], [-41.8928, -10.85475], [-41.8932, -10.85559], [-41.89283, -10.85785], [-41.89287, -10.8602], [-41.89305, -10.86148], [-41.89384, -10.86229], [-41.89347, -10.86371], [-41.89353, -10.86477], [-41.89423, -10.86551], [-41.89597, -10.86571], [-41.89636, -10.86602], [-41.89642, -10.86687], [-41.8956, -10.86786], [-41.89524, -10.86893], [-41.89551, -10.87124], [-41.89589, -10.87174], [-41.89627, -10.87196], [-41.89757, -10.87208], [-41.89848, -10.87193], [-41.89923, -10.87232], [-41.89946, -10.87265], [-41.89971, -10.87366], [-41.89956, -10.87487], [-41.89996, -10.87568], [-41.90006, -10.87631], [-41.89993, -10.8769], [-41.89882, -10.87872], [-41.89705, -10.87997], [-41.89722, -10.88059], [-41.89799, -10.88179], [-41.89799, -10.88265], [-41.89763, -10.88339], [-41.89585, -10.8851], [-41.89511, -10.88685], [-41.89525, -10.88783], [-41.89546, -10.88821], [-41.89754, -10.88918], [-41.89866, -10.89031], [-41.89867, -10.89094], [-41.89839, -10.89143], [-41.89744, -10.8917]]]}}, 
{"type": "Feature", "properties": {"CD_SETOR": "291850610000011", "CD_SIT": "8", "NM_DIST": "Recife", "NM_SUBDIST": null}, "geometry": {"type": "Polygon", "coordinates": [[[-41.89105, -10.84057], [-42.0039, -11.01913], [-42.0045, -11.0189], [-42.00928, -11.01853], [-42.00944, -11.01833], [-42.00969, -11.01685], [-42.00958, -11.0161], [-42.00962, -11.00719], [-42.0111, -11.00679], [-42.01221, -11.00599], [-42.01303, -11.00573], [-42.01591, -11.00558], [-42.02376, -11.00589], [-42.02394, -11.00568], [-42.02347, -11.00412], [-42.02346, -11.00294], [-42.02364, -11.00212], [-42.02507, -10.99878], [-42.02563, -10.99681], [-42.02781, -10.99527], [-42.0282, -10.99465], [-42.0285, -10.99295], [-42.0286, -10.99115], [-42.02823, -10.98981], [-42.02831, -10.98968], [-42.03131, -10.98876], [-42.03315, -10.98602], [-42.03385, -10.98408], [-42.03505, -10.98182], [-42.03567, -10.98118], [-42.03924, -10.97923], [-42.04005, -10.97902], [-42.04132, -10.97812], [-42.04138, -10.97789], [-42.03614, -10.96195], [-42.0317, -10.94957], [-42.02873, -10.93293], [-42.04131, -10.92896], [-42.05792, -10.91995], [-42.07085, -10.91699], [-41.91466, -10.77937], [-41.91485, -10.77979], [-41.91472, -10.78127], [-41.91421, -10.78251], [-41.91398, -10.78385], [-41.91418, -10.78738], [-41.91409, -10.78772], [-41.91381, -10.78791], [-41.91295, -10.78797], [-41.91263, -10.7882], [-41.91191, -10.78965], [-41.91183, -10.79027], [-41.91257, -10.79188], [-41.91352, -10.7927], [-41.91363, -10.79321], [-41.9135, -10.79394], [-41.91197, -10.79522], [-41.9116, -10.79585], [-41.91033, -10.79729], [-41.91042, -10.79937], [-41.91022, -10.80012], [-41.90896, -10.80158], [-41.90799, -10.80206], [-41.9077, -10.80262], [-41.90749, -10.80367], [-41.9066, -10.80438], [-41.90634, -10.80477], [-41.90628, -10.80514], [-41.90672, -10.8063], [-41.90662, -10.80689], [-41.90607, -10.80787], [-41.90548, -10.80869], [-41.90393, -10.81022], [-41.90321, -10.81044], [-41.90131, -10.81282], [-41.90034, -10.8129], [-41.90015, -10.81305], [-41.90003, -10.81329], [-41.9001, -10.81403], [-41.90069, -10.81486], [-41.90012, -10.816], [-41.89904, -10.81682], [-41.89734, -10.81853], [-41.8963, -10.81994], [-41.8955, -10.82044], [-41.895, -10.82053], [-41.89379, -10.82036], [-41.89345, -10.82091], [-41.89207, -10.82584], [-41.89114, -10.82719], [-41.89114, -10.82768], [-41.89215, -10.82834], [-41.89227, -10.82876], [-41.89198, -10.8301], [-41.89118, -10.83138], [-41.89101, -10.83198], [-41.89099, -10.83331], [-41.89137, -10.8351], [-41.89133, -10.83559], [-41.89081, -10.83648], [-41.89073, -10.83715], [-41.89105, -10.84057]]]}}, 
{"type": "Feature", "properties": {"CD_SETOR": "291850610000014", "CD_SIT": "8", "NM_DIST": "Recife", "NM_SUBDIST": null}, "geometry": {"type": "Polygon", "coordinates": [[[-41.70184, -10.78008], [-41.81044, -10.71296], [-41.89105, -10.84057], [-41.89073, -10.83715], [-41.89081, -10.83648], [-41.89133, -10.83559], [-41.89137, -10.8351], [-41.89099, -10.83331], [-41.89101, -10.83198], [-41.89118, -10.83138], [-41.89198, -10.8301], [-41.89227, -10.82876], [-41.89215, -10.82834], [-41.89114, -10.82768], [-41.89114, -10.82719], [-41.89207, -10.82584], [-41.89345, -10.82091], [-41.89379, -10.82036], [-41.895, -10.82053], [-41.8955, -10.82044], [-41.8963, -10.81994], [-41.89734, -10.81853], [-41.89904, -10.81682], [-41.90012, -10.816], [-41.90069, -10.81486], [-41.9001, -10.81403], [-41.90003, -10.81329], [-41.90015, -10.81305], [-41.90034, -10.8129], [-41.90131, -10.81282], [-41.90321, -10.81044], [-41.90393, -10.81022], [-41.90548, -10.80869], [-41.90607, -10.80787], [-41.90662, -10.80689], [-41.90672, -10.8063], [-41.90628, -10.80514], [-41.90634, -10.80477], [-41.9066, -10.80438], [-41.90749, -10.80367], [-41.9077, -10.80262], [-41.90799, -10.80206], [-41.90896, -10.80158], [-41.91022, -10.80012], [-41.91042, -10.79937], [-41.91033, -10.79729], [-41.9116, -10.79585], [-41.91197, -10.79522], [-41.9135, -10.79394], [-41.91363, -10.79321], [-41.91352, -10.7927], [-41.91257, -10.79188], [-41.91183, -10.79027], [-41.91191, -10.78965], [-41.91263, -10.7882], [-41.91295, -10.78797], [-41.91381, -10.78791], [-41.91409, -10.78772], [-41.91413, -10.7848], [-41.91398, -10.78385], [-41.91421, -10.78251], [-41.91472, -10.78127], [-41.91485, -10.77979], [-41.91466, -10.77937], [-41.82197, -10.6977], [-41.76908, -10.72215], [-41.76794, -10.72097], [-41.76692, -10.71926], [-41.7661, -10.71835], [-41.76366, -10.71641], [-41.76264, -10.71511], [-41.76199, -10.71455], [-41.76078, -10.71413], [-41.75892, -10.71399], [-41.75803, -10.71416], [-41.75667, -10.71517], [-41.75602, -10.71541], [-41.7552, -10.71537], [-41.75471, -10.71426], [-41.75398, -10.71394], [-41.75353, -10.71391], [-41.75184, -10.71428], [-41.75107, -10.71401], [-41.74896, -10.71283], [-41.74782, -10.71173], [-41.74672, -10.70982], [-41.74627, -10.70935], [-41.7453, -10.70884], [-41.74448, -10.70813], [-41.74182, -10.7089], [-41.74097, -10.70883], [-41.73939, -10.70808], [-41.7386, -10.70794], [-41.73843, -10.70972], [-41.73797, -10.71165], [-41.73673, -10.71321], [-41.73535, -10.714], [-41.73454, -10.71426], [-41.73247, -10.71443], [-41.73199, -10.71461], [-41.73148, -10.71504], [-41.73029, -10.71856], [-41.72959, -10.72299], [-41.72916, -10.72417], [-41.72864, -10.72509], [-41.72743, -10.72612], [-41.7269, -10.72627], [-41.72593, -10.72631], [-41.72501, -10.72601], [-41.72401, -10.72597], [-41.72281, -10.728], [-41.72089, -10.72988], [-41.71945, -10.73236], [-41.71791, -10.73396], [-41.7174, -10.73489], [-41.71724, -10.73625], [-41.7178, -10.73742], [-41.7183, -10.73783], [-41.71896, -10.73892], [-41.71897, -10.73989], [-41.71868, -10.74027], [-41.71718, -10.74109], [-41.71645, -10.74125], [-41.7146, -10.74116], [-41.71392, -10.74153], [-41.71341, -10.74313], [-41.71306, -10.74774], [-41.71277, -10.74879], [-41.71163, -10.75091], [-41.71127, -10.75189], [-41.71126, -10.75359], [-41.71169, -10.75438], [-41.71207, -10.75563], [-41.71184, -10.75956], [-41.71162, -10.76079], [-41.71113, -10.76177], [-41.70925, -10.76298], [-41.70811, -10.76445], [-41.70599, -10.76593], [-41.70496, -10.76713], [-41.70486, -10.76822], [-41.7044, -10.769], [-41.70435, -10.76962], [-41.70438, -10.76998], [-41.70531, -10.77224], [-41.70351, -10.77453], [-41.70297, -10.77586], [-41.70221, -10.77666], [-41.70185, -10.779], [-41.70184, -10.78008]]]}}, 
{"type": "Feature", "properties": {"CD_SETOR": "291850610000015", "CD_SIT": "8", "NM_DIST": "Recife", "NM_SUBDIST": null}, "geometry": {"type": "Polygon", "coordinates": [[[-42.00393, -11.01917], [-42.00554, -11.02171], [-42.07561, -11.02977], [-42.07423, -11.02743], [-42.08889, -10.93289], [-42.07085, -10.91699], [-42.05792, -10.91995], [-42.04131, -10.92896], [-42.02873, -10.93293], [-42.0317, -10.94957], [-42.03614, -10.96195], [-42.04129, -10.97748], [-42.04132, -10.97812], [-42.04005, -10.97902], [-42.03924, -10.97923], [-42.03567, -10.98118], [-42.03505, -10.98182], [-42.03385, -10.98408], [-42.03315, -10.98602], [-42.03131, -10.98876], [-42.02831, -10.98968], [-42.02823, -10.98981], [-42.0286, -10.99115], [-42.0285, -10.99295], [-42.0282, -10.99465], [-42.02781, -10.99527], [-42.02563, -10.99681], [-42.02507, -10.99878], [-42.02364, -11.00212], [-42.02346, -11.00294], [-42.02347, -11.00412], [-42.02394, -11.00568], [-42.02376, -11.00589], [-42.01591, -11.00558], [-42.01303, -11.00573], [-42.01221, -11.00599], [-42.0111, -11.00679], [-42.00962, -11.00719], [-42.00958, -11.0161], [-42.00969, -11.01685], [-42.00944, -11.01833], [-42.00897, -11.01861], [-42.0045, -11.0189], [-42.00393, -11.01917]]]}}, 
{"type": "Feature", "properties": {"CD_SETOR": "291850610000016", "CD_SIT": "8", "NM_DIST": "Recife", "NM_SUBDIST": null}, "geometry": {"type": "Polygon", "coordinates": [[[-41.8048, -10.97068], [-41.80567, -10.97167], [-41.80628, -10.9727], [-41.80711, -10.97355], [-41.80761, -10.97293], [-41.81097, -10.97481], [-41.81086, -10.97544], [-41.81597, -10.97635], [-41.82, -10.97635], [-41.82145, -10.9766], [-41.82338, -10.97724], [-41.82678, -10.97742], [-41.83027, -10.97837], [-41.83193, -10.97947], [-41.83501, -10.98017], [-41.83645, -10.98132], [-41.83808, -10.98182], [-41.83922, -10.98236], [-41.84068, -10.98436], [-41.84493, -10.98744], [-41.85101, -10.99014], [-41.85309, -10.99239], [-41.85324, -10.99297], [-41.85351, -10.99328], [-41.85471, -10.99399], [-41.85788, -10.99483], [-41.86076, -10.99525], [-41.86224, -10.99601], [-41.86525, -10.99672], [-41.86713, -10.99801], [-41.8688, -10.99981], [-41.86982, -11.00052], [-41.87301, -11.00118], [-41.87419, -11.00164], [-41.88106, -11.00549], [-41.88068, -11.00386], [-41.89373, -11.00586], [-41.89662, -11.00973], [-41.90338, -11.01436], [-41.94946, -11.03302], [-41.95137, -11.02717], [-41.95558, -11.01262], [-41.9651, -10.9846], [-41.96496, -10.98334], [-41.96454, -10.98285], [-41.96358, -10.98238], [-41.96316, -10.98195], [-41.94974, -10.95854], [-41.93504, -10.93811], [-41.93192, -10.93405], [-41.92846, -10.93205], [-41.92552, -10.92848], [-41.91914, -10.9199], [-41.89404, -10.88718], [-41.8723, -10.85952], [-41.86101, -10.86893], [-41.86035, -10.87021], [-41.85624, -10.87642], [-41.85456, -10.87837], [-41.85419, -10.87927], [-41.85209, -10.8799], [-41.85008, -10.87954], [-41.842, -10.88596], [-41.83848, -10.88629], [-41.83731, -10.88686], [-41.81573, -10.91972], [-41.8153, -10.92251], [-41.81572, -10.92456], [-41.81575, -10.92587], [-41.81515, -10.92788], [-41.81508, -10.92878], [-41.8156, -10.93019], [-41.81566, -10.93094], [-41.81474, -10.94186], [-41.8143, -10.94277], [-41.81326, -10.94593], [-41.81285, -10.94953], [-41.81421, -10.9505], [-41.81626, -10.95096], [-41.81721, -10.95207], [-41.81782, -10.95398], [-41.81789, -10.95481], [-41.81638, -10.95966], [-41.81574, -10.96104], [-41.81542, -10.96142], [-41.80648, -10.96751], [-41.80601, -10.96799], [-41.8048, -10.97068]]]}}, 
{"type": "Feature", "properties": {"CD_SETOR": "291850610000017", "CD_SIT": "7", "NM_DIST": "Recife", "NM_SUBDIST": null}, "geometry": {"type": "Polygon", "coordinates": [[[-41.80396, -10.97219], [-41.80464, -10.97295], [-41.80506, -10.97407], [-41.8062, -10.976], [-41.80698, -10.97626], [-41.80803, -10.97637], [-41.81017, -10.97638], [-41.81157, -10.97619], [-41.81169, -10.97554], [-41.81086, -10.97544], [-41.81097, -10.97481], [-41.80761, -10.97293], [-41.80711, -10.97355], [-41.80628, -10.9727], [-41.80567, -10.97167], [-41.80455, -10.97039], [-41.80336, -10.96992], [-41.80331, -10.97163], [-41.80396, -10.97219]]]}}]}