{"type": "FeatureCollection", "features": [
{"type": "Feature", "properties": {"CD_SETOR": "291992605000002", "CD_SIT": "1", "NM_DIST": "Madre de Deus", "NM_SUBDIST": null}, "geometry": {"type": "Polygon", "coordinates": [[[-38.61045, -12.74393], [-38.61092, -12.74434], [-38.61121, -12.7444], [-38.61199, -12.74417], [-38.61311, -12.74471], [-38.61406, -12.7439], [-38.61451, -12.74271], [-38.61348, -12.74205], [-38.61319, -12.74223], [-38.6117, -12.74144], [-38.61045, -12.74393]]]}}, 
{"type": "Feature", "properties": {"CD_SETOR": "291992605000003", "CD_SIT": "1", "NM_DIST": "Madre de Deus", "NM_SUBDIST": null}, "geometry": {"type": "Polygon", "coordinates": [[[-38.61556, -12.74264], [-38.61582, -12.74388], [-38.61613, -12.74414], [-38.61573, -12.74488], [-38.61605, -12.74507], [-38.61576, -12.7455], [-38.61657, -12.74498], [-38.61744, -12.74469], [-38.61723, -12.74428], [-38.61677, -12.7439], [-38.61631, -12.74262], [-38.61556, -12.74264]]]}}, 
{"type": "Feature", "properties": {"CD_SETOR": "291992605000004", "CD_SIT": "1", "NM_DIST": "Madre de Deus", "NM_SUBDIST": null}, "geometry": {"type": "Polygon", "coordinates": [[[-38.61744, -12.74469], [-38.61619, -12.74517], [-38.61523, -12.74597], [-38.61541, -12.74614], [-38.61909, -12.74522], [-38.61901, -12.74431], [-38.61744, -12.74469]]]}}, 
{"type": "Feature", "properties": {"CD_SETOR": "291992605000005", "CD_SIT": "1", "NM_DIST": "Madre de Deus", "NM_SUBDIST": null}, "geometry": {"type": "Polygon", "coordinates": [[[-38.61901, -12.74431], [-38.61912, -12.74601], [-38.61985, -12.74596], [-38.62006, -12.74535], [-38.61992, -12.74492], [-38.61946, -12.74485], [-38.6197, -12.74442], [-38.62012, -12.74412], [-38.61959, -12.74404], [-38.61901, -12.74431]]]}}, 
{"type": "Feature", "properties": {"CD_SETOR": "291992605000006", "CD_SIT": "1", "NM_DIST": "Madre de Deus", "NM_SUBDIST": null}, "geometry": {"type": "Polygon", "coordinates": [[[-38.618, -12.74147], [-38.61814, -12.74318], [-38.61875, -12.74305], [-38.61928, -12.74338], [-38.61954, -12.74277], [-38.61977, -12.74294], [-38.61982, -12.74321], [-38.6201, -12.74324], [-38.62071, -12.7427], [-38.62099, -12.74295], [-38.62159, -12.74272], [-38.62149, -12.74229], [-38.62082, -12.74128], [-38.6206, -12.74141], [-38.61962, -12.74054], [-38.61849, -12.74134], [-38.618, -12.74147]]]}}, 
{"type": "Feature", "properties": {"CD_SETOR": "291992605000007", "CD_SIT": "1", "NM_DIST": "Madre de Deus", "NM_SUBDIST": null}, "geometry": {"type": "Polygon", "coordinates": [[[-38.61645, -12.743], [-38.61677, -12.7439], [-38.61705, -12.74415], [-38.6181, -12.74399], [-38.61928, -12.74338], [-38.61875, -12.74305], [-38.61798, -12.74319], [-38.61712, -12.74292], [-38.61682, -12.74311], [-38.6167, -12.7429], [-38.61645, -12.743]]]}}, 
{"type": "Feature", "properties": {"CD_SETOR": "291992605000008", "CD_SIT": "1", "NM_DIST": "Madre de Deus", "NM_SUBDIST": null}, "geometry": {"type": "Polygon", "coordinates": [[[-38.61599, -12.7409], [-38.61559, -12.74105], [-38.61645, -12.743], [-38.6167, -12.7429], [-38.61719, -12.74189], [-38.61682, -12.74168], [-38.61719, -12.74123], [-38.6165, -12.74064], [-38.61599, -12.7409]]]}}, 
{"type": "Feature", "properties": {"CD_SETOR": "291992605000009", "CD_SIT": "1", "NM_DIST": "Madre de Deus", "NM_SUBDIST": null}, "geometry": {"type": "Polygon", "coordinates": [[[-38.6165, -12.74064], [-38.61719, -12.74123], [-38.61793, -12.74086], [-38.61783, -12.74035], [-38.61799, -12.74012], [-38.61761, -12.73977], [-38.618, -12.73921], [-38.6172, -12.73868], [-38.61664, -12.73944], [-38.61675, -12.74001], [-38.61698, -12.74031], [-38.6165, -12.74064]]]}}, 
{"type": "Feature", "properties": {"CD_SETOR": "291992605000011", "CD_SIT": "1", "NM_DIST": "Madre de Deus", "NM_SUBDIST": null}, "geometry": {"type": "Polygon", "coordinates": [[[-38.61354, -12.7393], [-38.6143, -12.74081], [-38.61459, -12.74096], [-38.61531, -12.74048], [-38.61389, -12.7384], [-38.61354, -12.7393]]]}}, 
{"type": "Feature", "properties": {"CD_SETOR": "291992605000012", "CD_SIT": "1", "NM_DIST": "Madre de Deus", "NM_SUBDIST": null}, "geometry": {"type": "Polygon", "coordinates": [[[-38.61319, -12.73972], [-38.61395, -12.74105], [-38.61348, -12.74205], [-38.61511, -12.74307], [-38.61561, -12.74247], [-38.6154, -12.74207], [-38.61459, -12.74096], [-38.6143, -12.74081], [-38.61354, -12.7393], [-38.61319, -12.73972]]]}}, 
{"type": "Feature", "properties": {"CD_SETOR": "291992605000013", "CD_SIT": "1", "NM_DIST": "Madre de Deus", "NM_SUBDIST": null}, "geometry": {"type": "Polygon", "coordinates": [[[-38.60674, -12.73732], [-38.60675, -12.73758], [-38.60908, -12.73721], [-38.6083, -12.73594], [-38.60749, -12.73581], [-38.60727, -12.73556], [-38.60701, -12.73578], [-38.60674, -12.73732]]]}}, 
{"type": "Feature", "properties": {"CD_SETOR": "291992605000014", "CD_SIT": "1", "NM_DIST": "Madre de Deus", "NM_SUBDIST": null}, "geometry": {"type": "Polygon", "coordinates": [[[-38.60998, -12.73709], [-38.60893, -12.73723], [-38.60895, -12.73806], [-38.60948, -12.73803], [-38.60984, -12.73921], [-38.61111, -12.73964], [-38.61042, -12.74132], [-38.60904, -12.74205], [-38.60879, -12.74269], [-38.61045, -12.74393], [-38.61217, -12.74033], [-38.61294, -12.73914], [-38.61273, -12.73853], [-38.61187, -12.73756], [-38.61185, -12.73712], [-38.60998, -12.73709]]]}}, 
{"type": "Feature", "properties": {"CD_SETOR": "291992605000015", "CD_SIT": "1", "NM_DIST": "Madre de Deus", "NM_SUBDIST": null}, "geometry": {"type": "Polygon", "coordinates": [[[-38.59957, -12.73677], [-38.59996, -12.73797], [-38.60038, -12.73834], [-38.60087, -12.73849], [-38.60675, -12.73758], [-38.60674, -12.73732], [-38.60304, -12.73792], [-38.60265, -12.73685], [-38.60346, -12.73692], [-38.60435, -12.73746], [-38.60494, -12.73604], [-38.60548, -12.73558], [-38.60528, -12.73534], [-38.60495, -12.73559], [-38.6045, -12.73632], [-38.60427, -12.73636], [-38.60403, -12.73617], [-38.60325, -12.73668], [-38.60063, -12.73694], [-38.60048, -12.73707], [-38.59995, -12.73704], [-38.59957, -12.73677]]]}}, 
{"type": "Feature", "properties": {"CD_SETOR": "291992605000016", "CD_SIT": "8", "NM_DIST": "Madre de Deus", "NM_SUBDIST": null}, "geometry": {"type": "MultiPolygon", "coordinates": [[[[-38.63784, -12.74653], [-38.63814, -12.74659], [-38.63791, -12.74708], [-38.63764, -12.74745], [-38.6374, -12.74739], [-38.63719, -12.74756], [-38.6374, -12.74775], [-38.63781, -12.74748], [-38.63829, -12.74782], [-38.63839, -12.74776], [-38.63821, -12.74732], [-38.63867, -12.74647], [-38.63855, -12.74603], [-38.63843, -12.74592], [-38.63784, -12.74653]]], [[[-38.64194, -12.7337], [-38.6416, -12.73481], [-38.64147, -12.73475], [-38.64128, -12.73516], [-38.6414, -12.7353], [-38.64115, -12.73556], [-38.64118, -12.7364], [-38.64066, -12.73708], [-38.64082, -12.73779], [-38.64036, -12.73835], [-38.64055, -12.73891], [-38.64021, -12.73935], [-38.64031, -12.73996], [-38.64052, -12.74024], [-38.6415, -12.74047], [-38.64218, -12.74099], [-38.6425, -12.74196], [-38.64243, -12.74239], [-38.64157, -12.74302], [-38.64151, -12.74329], [-38.64175, -12.74337], [-38.64159, -12.7437], [-38.64162, -12.74391], [-38.64173, -12.74388], [-38.64161, -12.74424], [-38.64183, -12.74486], [-38.64175, -12.74555], [-38.64153, -12.74593], [-38.64183, -12.74659], [-38.64164, -12.74703], [-38.64169, -12.74744], [-38.64102, -12.74874], [-38.64091, -12.7497], [-38.64114, -12.74993], [-38.64196, -12.74961], [-38.64202, -12.74944], [-38.64255, -12.74967], [-38.64267, -12.74957], [-38.64359, -12.74974], [-38.644, -12.74995], [-38.64424, -12.74977], [-38.64441, -12.74921], [-38.64492, -12.74869], [-38.64527, -12.74791], [-38.6451, -12.74777], [-38.64507, -12.74712], [-38.64553, -12.7469], [-38.64531, -12.74612], [-38.64569, -12.74587], [-38.64634, -12.74496], [-38.6472, -12.7445], [-38.64763, -12.74391], [-38.64681, -12.74349], [-38.64619, -12.74293], [-38.64608, -12.74193], [-38.64542, -12.74181], [-38.64476, -12.741], [-38.64457, -12.73991], [-38.64489, -12.73806], [-38.64456, -12.73767], [-38.64446, -12.73722], [-38.64417, -12.73731], [-38.644, -12.73708], [-38.6444, -12.73689], [-38.64425, -12.73687], [-38.64407, -12.73642], [-38.64384, -12.73645], [-38.64404, -12.73588], [-38.64378, -12.73486], [-38.64388, -12.73408], [-38.64361, -12.73382], [-38.64301, -12.73381], [-38.64271, -12.73316], [-38.64244, -12.73297], [-38.6424, -12.73242], [-38.64209, -12.73204], [-38.64174, -12.73246], [-38.64205, -12.73344], [-38.64194, -12.7337]]], [[[-38.63536, -12.72842], [-38.63426, -12.72885], [-38.6338, -12.72925], [-38.63364, -12.72949], [-38.63371, -12.72985], [-38.6323, -12.72877], [-38.63113, -12.72897], [-38.63064, -12.72954], [-38.63102, -12.7305], [-38.63098, -12.73238], [-38.63069, -12.73252], [-38.63065, -12.73283], [-38.63098, -12.73361], [-38.63088, -12.73375], [-38.63101, -12.73421], [-38.63119, -12.73427], [-38.63132, -12.73411], [-38.63172, -12.73462], [-38.63152, -12.73457], [-38.63154, -12.73483], [-38.63188, -12.73513], [-38.63229, -12.73655], [-38.6331, -12.73723], [-38.63353, -12.73838], [-38.63343, -12.73879], [-38.63362, -12.73899], [-38.63421, -12.73886], [-38.63537, -12.73769], [-38.63526, -12.73697], [-38.6355, -12.73579], [-38.63643, -12.73509], [-38.63665, -12.7344], [-38.6364, -12.73418], [-38.63625, -12.73368], [-38.63642, -12.73329], [-38.63597, -12.73223], [-38.63588, -12.73157], [-38.63597, -12.73092], [-38.6363, -12.73046], [-38.6363, -12.73], [-38.63594, -12.72969], [-38.63647, -12.7282], [-38.6359, -12.72768], [-38.63536, -12.72842]]]]}}, 
{"type": "Feature", "properties": {"CD_SETOR": "291992605000017", "CD_SIT": "1", "NM_DIST": "Madre de Deus", "NM_SUBDIST": null}, "geometry": {"type": "Polygon", "coordinates": [[[-38.61246, -12.73986], [-38.6117, -12.74144], [-38.61319, -12.74223], [-38.61348, -12.74205], [-38.61395, -12.74105], [-38.61319, -12.73972], [-38.61274, -12.73994], [-38.61246, -12.73986]]]}}, 
{"type": "Feature", "properties": {"CD_SETOR": "291992605000018", "CD_SIT": "1", "NM_DIST": "Madre de Deus", "NM_SUBDIST": null}, "geometry": {"type": "Polygon", "coordinates": [[[-38.61511, -12.74307], [-38.61452, -12.74472], [-38.61501, -12.74506], [-38.61593, -12.74527], [-38.61605, -12.74507], [-38.61573, -12.74488], [-38.61613, -12.74414], [-38.61582, -12.74388], [-38.61556, -12.74264], [-38.61511, -12.74307]]]}}, 
{"type": "Feature", "properties": {"CD_SETOR": "291992605000019", "CD_SIT": "1", "NM_DIST": "Madre de Deus", "NM_SUBDIST": null}, "geometry": {"type": "Polygon", "coordinates": [[[-38.61311, -12.74471], [-38.61371, -12.7452], [-38.61523, -12.74597], [-38.61593, -12.74527], [-38.61501, -12.74506], [-38.61452, -12.74472], [-38.61511, -12.74307], [-38.61451, -12.74271], [-38.61406, -12.7439], [-38.61311, -12.74471]]]}}, 
{"type": "Feature", "properties": {"CD_SETOR": "291992605000021", "CD_SIT": "1", "NM_DIST": "Madre de Deus", "NM_SUBDIST": null}, "geometry": {"type": "Polygon", "coordinates": [[[-38.62012, -12.74412], [-38.6197, -12.74442], [-38.61946, -12.74485], [-38.61992, -12.74492], [-38.62006, -12.74535], [-38.61985, -12.74596], [-38.62174, -12.74588], [-38.62171, -12.74456], [-38.62075, -12.74401], [-38.62012, -12.74412]]]}}, 
{"type": "Feature", "properties": {"CD_SETOR": "291992605000022", "CD_SIT": "1", "NM_DIST": "Madre de Deus", "NM_SUBDIST": null}, "geometry": {"type": "Polygon", "coordinates": [[[-38.61928, -12.74338], [-38.6181, -12.74399], [-38.61705, -12.74415], [-38.61744, -12.74469], [-38.61979, -12.74402], [-38.62012, -12.74412], [-38.62075, -12.74401], [-38.62171, -12.74456], [-38.6217, -12.74408], [-38.62204, -12.74364], [-38.62163, -12.74318], [-38.62159, -12.74272], [-38.62099, -12.74295], [-38.62071, -12.7427], [-38.6201, -12.74324], [-38.61982, -12.74321], [-38.61977, -12.74294], [-38.61954, -12.74277], [-38.61928, -12.74338]]]}}, 
{"type": "Feature", "properties": {"CD_SETOR": "291992605000023", "CD_SIT": "1", "NM_DIST": "Madre de Deus", "NM_SUBDIST": null}, "geometry": {"type": "Polygon", "coordinates": [[[-38.61719, -12.74189], [-38.6167, -12.7429], [-38.61682, -12.74311], [-38.61712, -12.74292], [-38.61814, -12.74318], [-38.618, -12.74147], [-38.61719, -12.74189]]]}}, 
{"type": "Feature", "properties": {"CD_SETOR": "291992605000025", "CD_SIT": "1", "NM_DIST": "Madre de Deus", "NM_SUBDIST": null}, "geometry": {"type": "Polygon", "coordinates": [[[-38.61479, -12.73963], [-38.61531, -12.74048], [-38.61459, -12.74096], [-38.6154, -12.74207], [-38.61556, -12.74264], [-38.61631, -12.74262], [-38.61559, -12.74105], [-38.61599, -12.7409], [-38.61557, -12.73981], [-38.61564, -12.73927], [-38.61479, -12.73963]]]}}, 
{"type": "Feature", "properties": {"CD_SETOR": "291992605000026", "CD_SIT": "1", "NM_DIST": "Madre de Deus", "NM_SUBDIST": null}, "geometry": {"type": "Polygon", "coordinates": [[[-38.61389, -12.7384], [-38.61479, -12.73963], [-38.61564, -12.73927], [-38.61566, -12.7386], [-38.61503, -12.73838], [-38.61513, -12.73801], [-38.61402, -12.73772], [-38.61389, -12.7384]]]}}, 
{"type": "Feature", "properties": {"CD_SETOR": "291992605000027", "CD_SIT": "1", "NM_DIST": "Madre de Deus", "NM_SUBDIST": null}, "geometry": {"type": "Polygon", "coordinates": [[[-38.60727, -12.73556], [-38.60749, -12.73581], [-38.6083, -12.73594], [-38.60908, -12.73721], [-38.60998, -12.73709], [-38.60943, -12.73604], [-38.60876, -12.73583], [-38.60849, -12.73544], [-38.60848, -12.73486], [-38.60876, -12.73452], [-38.60857, -12.73453], [-38.60845, -12.73413], [-38.60798, -12.73397], [-38.60818, -12.73344], [-38.60747, -12.73312], [-38.60734, -12.73326], [-38.60732, -12.73458], [-38.6075, -12.7354], [-38.60727, -12.73556]]]}}, 
{"type": "Feature", "properties": {"CD_SETOR": "291992605000029", "CD_SIT": "1", "NM_DIST": "Madre de Deus", "NM_SUBDIST": null}, "geometry": {"type": "Polygon", "coordinates": [[[-38.61273, -12.73853], [-38.61327, -12.7375], [-38.61185, -12.73712], [-38.61187, -12.73756], [-38.61273, -12.73853]]]}}, 
{"type": "Feature", "properties": {"CD_SETOR": "291992605000030", "CD_SIT": "1", "NM_DIST": "Madre de Deus", "NM_SUBDIST": null}, "geometry": {"type": "Polygon", "coordinates": [[[-38.61273, -12.73853], [-38.61294, -12.73914], [-38.61246, -12.73986], [-38.61274, -12.73994], [-38.61319, -12.73972], [-38.61354, -12.7393], [-38.61402, -12.73772], [-38.61327, -12.7375], [-38.61273, -12.73853]]]}}, 
{"type": "Feature", "properties": {"CD_SETOR": "291992605000031", "CD_SIT": "1", "NM_DIST": "Madre de Deus", "NM_SUBDIST": null}, "geometry": {"type": "Polygon", "coordinates": [[[-38.60528, -12.73534], [-38.60548, -12.73558], [-38.60494, -12.73604], [-38.60435, -12.73746], [-38.60346, -12.73692], [-38.60265, -12.73685], [-38.60304, -12.73792], [-38.60674, -12.73732], [-38.60701, -12.73578], [-38.6075, -12.7354], [-38.60732, -12.73458], [-38.60734, -12.73326], [-38.60747, -12.73312], [-38.60695, -12.73291], [-38.60694, -12.73348], [-38.60711, -12.73368], [-38.60703, -12.73414], [-38.60672, -12.73457], [-38.60695, -12.73496], [-38.60717, -12.73499], [-38.60731, -12.73525], [-38.60721, -12.73542], [-38.60643, -12.73452], [-38.60605, -12.73471], [-38.60623, -12.73558], [-38.60684, -12.73601], [-38.60673, -12.73656], [-38.60646, -12.73645], [-38.60559, -12.73538], [-38.60528, -12.73534]]]}}, 
{"type": "Feature", "properties": {"CD_SETOR": "291992605000032", "CD_SIT": "9", "NM_DIST": "Madre de Deus", "NM_SUBDIST": null}, "geometry": {"type": "Polygon", "coordinates": [[[-38.59963, -12.73588], [-38.59832, -12.73554], [-38.5933, -12.7352], [-38.59189, -12.73463], [-38.58793, -12.73388], [-38.5879, -12.75396], [-38.69522, -12.75411], [-38.6933, -12.74469], [-38.69193, -12.73925], [-38.68946, -12.73158], [-38.68721, -12.72654], [-38.63626, -12.72627], [-38.63441, -12.72701], [-38.63345, -12.72714], [-38.63228, -12.727], [-38.62988, -12.72626], [-38.6257, -12.72679], [-38.62152, -12.7282], [-38.61761, -12.72853], [-38.61426, -12.72678], [-38.61268, -12.7263], [-38.61131, -12.7263], [-38.60992, -12.7265], [-38.6086, -12.72779], [-38.608, -12.7288], [-38.60719, -12.73151], [-38.60672, -12.73239], [-38.60518, -12.73444], [-38.60407, -12.73531], [-38.6028, -12.73585], [-38.60169, -12.73602], [-38.59963, -12.73588]], [[-38.60528, -12.73534], [-38.60559, -12.73538], [-38.60646, -12.73645], [-38.60673, -12.73656], [-38.60684, -12.73601], [-38.60623, -12.73558], [-38.60605, -12.73471], [-38.60643, -12.73452], [-38.60721, -12.73542], [-38.60731, -12.73525], [-38.60672, -12.73457], [-38.60703, -12.73414], [-38.60711, -12.73368], [-38.60694, -12.73348], [-38.60695, -12.73291], [-38.60719, -12.73248], [-38.60745, -12.7326], [-38.60735, -12.73213], [-38.60751, -12.73159], [-38.60814, -12.7318], [-38.60771, -12.73124], [-38.60768, -12.73079], [-38.60842, -12.72932], [-38.60922, -12.72836], [-38.6095, -12.7283], [-38.60967, -12.72843], [-38.60976, -12.72856], [-38.60962, -12.72895], [-38.61003, -12.72914], [-38.61043, -12.72884], [-38.6106, -12.72951], [-38.61102, -12.72889], [-38.61115, -12.72884], [-38.61121, -12.72916], [-38.61149, -12.72918], [-38.61145, -12.72884], [-38.61162, -12.72878], [-38.61165, -12.72853], [-38.61236, -12.72803], [-38.61276, -12.72816], [-38.61278, -12.72778], [-38.61324, -12.7277], [-38.61361, -12.72801], [-38.61373, -12.72833], [-38.61365, -12.72899], [-38.61339, -12.72932], [-38.61337, -12.72965], [-38.61314, -12.72985], [-38.6133, -12.73032], [-38.61322, -12.73058], [-38.61373, -12.73026], [-38.6139, -12.73058], [-38.61406, -12.73045], [-38.61417, -12.73088], [-38.6144, -12.7308], [-38.6145, -12.73104], [-38.61473, -12.7309], [-38.61476, -12.73048], [-38.61447, -12.7299], [-38.61474, -12.72909], [-38.61554, -12.72897], [-38.61577, -12.72927], [-38.61584, -12.72979], [-38.6157, -12.73036], [-38.616, -12.73017], [-38.61637, -12.73034], [-38.61662, -12.7302], [-38.61703, -12.73053], [-38.61687, -12.73103], [-38.61733, -12.73108], [-38.61709, -12.73194], [-38.61654, -12.73196], [-38.61671, -12.73211], [-38.61675, -12.73253], [-38.61649, -12.73343], [-38.61734, -12.73449], [-38.61744, -12.73436], [-38.61733, -12.73398], [-38.61823, -12.73385], [-38.61836, -12.73346], [-38.61917, -12.73305], [-38.61951, -12.73251], [-38.61981, -12.73233], [-38.61994, -12.73217], [-38.61981, -12.73208], [-38.61992, -12.73198], [-38.61974, -12.73138], [-38.62003, -12.73092], [-38.62033, -12.73089], [-38.62151, -12.73255], [-38.62158, -12.73368], [-38.62183, -12.73451], [-38.62175, -12.73509], [-38.62145, -12.73534], [-38.62157, -12.73555], [-38.62172, -12.73548], [-38.62177, -12.73586], [-38.62205, -12.73611], [-38.62148, -12.73605], [-38.62119, -12.73642], [-38.62085, -12.73728], [-38.62112, -12.73805], [-38.62328, -12.73807], [-38.62328, -12.73821], [-38.62238, -12.73811], [-38.62239, -12.73823], [-38.62231, -12.73812], [-38.62113, -12.7381], [-38.62108, -12.73868], [-38.62094, -12.73876], [-38.62103, -12.73996], [-38.62065, -12.74092], [-38.62149, -12.74229], [-38.62163, -12.74318], [-38.62204, -12.74364], [-38.6217, -12.74408], [-38.62174, -12.74588], [-38.62195, -12.7459], [-38.62195, -12.74641], [-38.62263, -12.74734], [-38.62218, -12.7477], [-38.62265, -12.74857], [-38.62248, -12.74932], [-38.62216, -12.7498], [-38.62139, -12.75033], [-38.61968, -12.74984], [-38.61873, -12.74906], [-38.61713, -12.74807], [-38.61572, -12.74641], [-38.6147, -12.74562], [-38.61371, -12.7452], [-38.61311, -12.74471], [-38.61199, -12.74417], [-38.61121, -12.7444], [-38.61073, -12.74427], [-38.61032, -12.74375], [-38.60879, -12.74269], [-38.60691, -12.74195], [-38.60377, -12.74112], [-38.60264, -12.74104], [-38.59915, -12.74144], [-38.59774, -12.74192], [-38.59725, -12.74168], [-38.59683, -12.74095], [-38.59669, -12.73965], [-38.5971, -12.7389], [-38.59693, -12.73801], [-38.59717, -12.73774], [-38.59775, -12.73753], [-38.59892, -12.73668], [-38.59957, -12.73677], [-38.59995, -12.73704], [-38.60048, -12.73707], [-38.60063, -12.73694], [-38.60325, -12.73668], [-38.60403, -12.73617], [-38.60427, -12.73636], [-38.6045, -12.73632], [-38.60495, -12.73559], [-38.60528, -12.73534]], [[-38.64194, -12.7337], [-38.64205, -12.73344], [-38.64174, -12.73246], [-38.64209, -12.73204], [-38.6424, -12.73242], [-38.64244, -12.73297], [-38.64271, -12.73316], [-38.64301, -12.73381], [-38.64361, -12.73382], [-38.64388, -12.73408], [-38.64378, -12.73486], [-38.64404, -12.73588], [-38.64384, -12.73645], [-38.64407, -12.73642], [-38.64425, -12.73687], [-38.6444, -12.73689], [-38.644, -12.73708], [-38.64417, -12.73731], [-38.64446, -12.73722], [-38.64456, -12.73767], [-38.64489, -12.73806], [-38.64457, -12.73991], [-38.64476, -12.741], [-38.64542, -12.74181], [-38.64608, -12.74193], [-38.64619, -12.74293], [-38.64681, -12.74349], [-38.64763, -12.74391], [-38.6472, -12.7445], [-38.64634, -12.74496], [-38.64569, -12.74587], [-38.64531, -12.74612], [-38.64553, -12.7469], [-38.64507, -12.74712], [-38.6451, -12.74777], [-38.64527, -12.74791], [-38.64492, -12.74869], [-38.64441, -12.74921], [-38.64424, -12.74977], [-38.644, -12.74995], [-38.64359, -12.74974], [-38.64267, -12.74957], [-38.64255, -12.74967], [-38.64202, -12.74944], [-38.64196, -12.74961], [-38.64114, -12.74993], [-38.64091, -12.7497], [-38.64102, -12.74874], [-38.64169, -12.74744], [-38.64164, -12.74703], [-38.64183, -12.74659], [-38.64153, -12.74593], [-38.64175, -12.74555], [-38.64183, -12.74486], [-38.64161, -12.74424], [-38.64173, -12.74388], [-38.64162, -12.74391], [-38.64159, -12.7437], [-38.64175, -12.74337], [-38.64151, -12.74329], [-38.64157, -12.74302], [-38.64243, -12.74239], [-38.6425, -12.74196], [-38.64218, -12.74099], [-38.6415, -12.74047], [-38.64052, -12.74024], [-38.64031, -12.73996], [-38.64021, -12.73935], [-38.64055, -12.73891], [-38.64036, -12.73835], [-38.64082, -12.73779], [-38.64066, -12.73708], [-38.64118, -12.7364], [-38.64115, -12.73556], [-38.6414, -12.7353], [-38.64128, -12.73516], [-38.64147, -12.73475], [-38.6416, -12.73481], [-38.64194, -12.7337]], [[-38.63536, -12.72842], [-38.6359, -12.72768], [-38.63647, -12.7282], [-38.63594, -12.72969], [-38.6363, -12.73], [-38.6363, -12.73046], [-38.63597, -12.73092], [-38.63588, -12.73157], [-38.63597, -12.73223], [-38.63642, -12.73329], [-38.63625, -12.73368], [-38.6364, -12.73418], [-38.63665, -12.7344], [-38.63643, -12.73509], [-38.6355, -12.73579], [-38.63526, -12.73697], [-38.63537, -12.73769], [-38.63421, -12.73886], [-38.63362, -12.73899], [-38.63343, -12.73879], [-38.63353, -12.73838], [-38.6331, -12.73723], [-38.63229, -12.73655], [-38.63188, -12.73513], [-38.63154, -12.73483], [-38.63152, -12.73457], [-38.63172, -12.73462], [-38.63132, -12.73411], [-38.63119, -12.73427], [-38.63101, -12.73421], [-38.63088, -12.73375], [-38.63098, -12.73361], [-38.63065, -12.73283], [-38.63069, -12.73252], [-38.63098, -12.73238], [-38.63102, -12.7305], [-38.63064, -12.72954], [-38.63113, -12.72897], [-38.6323, -12.72877], [-38.63371, -12.72985], [-38.63364, -12.72949], [-38.6338, -12.72925], [-38.63426, -12.72885], [-38.63536, -12.72842]], [[-38.63784, -12.74653], [-38.63843, -12.74592], [-38.63855, -12.74603], [-38.63867, -12.74647], [-38.63821, -12.74732], [-38.63839, -12.74776], [-38.63829, -12.74782], [-38.63781, -12.74748], [-38.6374, -12.74775], [-38.63719, -12.74756], [-38.6374, -12.74739], [-38.63764, -12.74745], [-38.63791, -12.74708], [-38.63814, -12.74659], [-38.63784, -12.74653]]]}}, 
{"type": "Feature", "properties": {"CD_SETOR": "291992605000033", "CD_SIT": "1", "NM_DIST": "Madre de Deus", "NM_SUBDIST": null}, "geometry": {"type": "Polygon", "coordinates": [[[-38.60772, -12.73743], [-38.60774, -12.73871], [-38.60979, -12.73929], [-38.61104, -12.73981], [-38.61111, -12.73964], [-38.60984, -12.73921], [-38.60948, -12.73803], [-38.60895, -12.73806], [-38.60893, -12.73723], [-38.60772, -12.73743]]]}}, 
{"type": "Feature", "properties": {"CD_SETOR": "291992605000034", "CD_SIT": "1", "NM_DIST": "Madre de Deus", "NM_SUBDIST": null}, "geometry": {"type": "Polygon", "coordinates": [[[-38.60879, -12.74269], [-38.60904, -12.74205], [-38.61042, -12.74132], [-38.61104, -12.73981], [-38.60979, -12.73929], [-38.60774, -12.73871], [-38.60772, -12.73743], [-38.60087, -12.73849], [-38.60038, -12.73834], [-38.59996, -12.73797], [-38.59957, -12.73677], [-38.59892, -12.73668], [-38.59693, -12.73801], [-38.59712, -12.73877], [-38.59669, -12.73965], [-38.5968, -12.74082], [-38.59725, -12.74168], [-38.59761, -12.74191], [-38.59915, -12.74144], [-38.60264, -12.74104], [-38.60377, -12.74112], [-38.60567, -12.74155], [-38.60879, -12.74269]]]}}, 
{"type": "Feature", "properties": {"CD_SETOR": "291992605000035", "CD_SIT": "1", "NM_DIST": "Madre de Deus", "NM_SUBDIST": null}, "geometry": {"type": "Polygon", "coordinates": [[[-38.61564, -12.73927], [-38.61557, -12.73981], [-38.61599, -12.7409], [-38.61698, -12.74031], [-38.61675, -12.74001], [-38.61664, -12.73944], [-38.6172, -12.73868], [-38.61513, -12.73801], [-38.61503, -12.73838], [-38.61566, -12.7386], [-38.61564, -12.73927]]]}}, 
{"type": "Feature", "properties": {"CD_SETOR": "291992605000036", "CD_SIT": "1", "NM_DIST": "Madre de Deus", "NM_SUBDIST": null}, "geometry": {"type": "Polygon", "coordinates": [[[-38.6171, -12.73432], [-38.61598, -12.73489], [-38.61516, -12.73577], [-38.61471, -12.73595], [-38.61402, -12.73772], [-38.6172, -12.73868], [-38.61798, -12.73801], [-38.6193, -12.73537], [-38.61865, -12.73332], [-38.61827, -12.73356], [-38.61823, -12.73385], [-38.61733, -12.73398], [-38.61744, -12.73436], [-38.61734, -12.73449], [-38.6171, -12.73432]]]}}, 
{"type": "Feature", "properties": {"CD_SETOR": "291992605000037", "CD_SIT": "1", "NM_DIST": "Madre de Deus", "NM_SUBDIST": null}, "geometry": {"type": "Polygon", "coordinates": [[[-38.61541, -12.74614], [-38.61713, -12.74807], [-38.61762, -12.74763], [-38.61767, -12.7472], [-38.6186, -12.74612], [-38.61912, -12.74601], [-38.61909, -12.74522], [-38.61541, -12.74614]]]}}, 
{"type": "Feature", "properties": {"CD_SETOR": "291992605000038", "CD_SIT": "1", "NM_DIST": "Madre de Deus", "NM_SUBDIST": null}, "geometry": {"type": "Polygon", "coordinates": [[[-38.61985, -12.74596], [-38.6186, -12.74612], [-38.61767, -12.7472], [-38.61762, -12.74763], [-38.61713, -12.74807], [-38.61873, -12.74906], [-38.61968, -12.74984], [-38.62139, -12.75033], [-38.62216, -12.7498], [-38.62248, -12.74932], [-38.62265, -12.74857], [-38.62218, -12.7477], [-38.62263, -12.74734], [-38.62195, -12.74641], [-38.62195, -12.7459], [-38.61985, -12.74596]]]}}, 
{"type": "Feature", "properties": {"CD_SETOR": "291992605000039", "CD_SIT": "1", "NM_DIST": "Madre de Deus", "NM_SUBDIST": null}, "geometry": {"type": "Polygon", "coordinates": [[[-38.61719, -12.74123], [-38.61682, -12.74168], [-38.61719, -12.74189], [-38.61849, -12.74134], [-38.61962, -12.74054], [-38.618, -12.73921], [-38.61761, -12.73977], [-38.61799, -12.74012], [-38.61783, -12.74035], [-38.61793, -12.74086], [-38.61719, -12.74123]]]}}, 
{"type": "Feature", "properties": {"CD_SETOR": "291992605000040", "CD_SIT": "1", "NM_DIST": "Madre de Deus", "NM_SUBDIST": null}, "geometry": {"type": "Polygon", "coordinates": [[[-38.61865, -12.73332], [-38.6193, -12.73537], [-38.61798, -12.73801], [-38.6172, -12.73868], [-38.6206, -12.74141], [-38.62082, -12.74128], [-38.62065, -12.74092], [-38.62103, -12.73996], [-38.62094, -12.73876], [-38.62108, -12.73868], [-38.62113, -12.7381], [-38.62231, -12.73812], [-38.62239, -12.73823], [-38.62238, -12.73811], [-38.62328, -12.73821], [-38.62328, -12.73807], [-38.62112, -12.73805], [-38.62085, -12.73728], [-38.62119, -12.73642], [-38.62148, -12.73605], [-38.62205, -12.73611], [-38.62177, -12.73586], [-38.62172, -12.73548], [-38.62157, -12.73555], [-38.62145, -12.73534], [-38.62175, -12.73509], [-38.62183, -12.73451], [-38.62158, -12.73368], [-38.62151, -12.73255], [-38.62033, -12.73089], [-38.62003, -12.73092], [-38.61974, -12.73138], [-38.61992, -12.73198], [-38.61981, -12.73208], [-38.61994, -12.73217], [-38.61917, -12.73305], [-38.61865, -12.73332]]]}}, 
{"type": "Feature", "properties": {"CD_SETOR": "291992605000041", "CD_SIT": "1", "NM_DIST": "Madre de Deus", "NM_SUBDIST": null}, "geometry": {"type": "Polygon", "coordinates": [[[-38.60695, -12.73291], [-38.60818, -12.73344], [-38.60798, -12.73397], [-38.60845, -12.73413], [-38.60857, -12.73453], [-38.60876, -12.73452], [-38.60905, -12.73313], [-38.60719, -12.73248], [-38.60695, -12.73291]]]}}, 
{"type": "Feature", "properties": {"CD_SETOR": "291992605000042", "CD_SIT": "1", "NM_DIST": "Madre de Deus", "NM_SUBDIST": null}, "geometry": {"type": "Polygon", "coordinates": [[[-38.60745, -12.7326], [-38.60905, -12.73313], [-38.60876, -12.73452], [-38.60928, -12.73431], [-38.60973, -12.73443], [-38.61155, -12.73334], [-38.61198, -12.73334], [-38.61278, -12.73401], [-38.61299, -12.73272], [-38.61388, -12.73234], [-38.61392, -12.73196], [-38.61438, -12.73163], [-38.6145, -12.73104], [-38.6144, -12.7308], [-38.61417, -12.73088], [-38.61406, -12.73045], [-38.6139, -12.73058], [-38.61373, -12.73026], [-38.61322, -12.73058], [-38.6133, -12.73032], [-38.61314, -12.72985], [-38.61337, -12.72965], [-38.61339, -12.72932], [-38.61365, -12.72899], [-38.61371, -12.72815], [-38.61324, -12.7277], [-38.61278, -12.72778], [-38.61276, -12.72816], [-38.61236, -12.72803], [-38.61165, -12.72853], [-38.61162, -12.72878], [-38.61145, -12.72884], [-38.61149, -12.72918], [-38.61121, -12.72916], [-38.61115, -12.72884], [-38.61102, -12.72889], [-38.6106, -12.72951], [-38.61043, -12.72884], [-38.61003, -12.72914], [-38.60962, -12.72895], [-38.60976, -12.72856], [-38.60967, -12.72843], [-38.6095, -12.7283], [-38.60908, -12.72843], [-38.60786, -12.7303], [-38.60768, -12.73079], [-38.60771, -12.73124], [-38.60814, -12.7318], [-38.60751, -12.73159], [-38.60735, -12.73213], [-38.60745, -12.7326]]]}}, 
{"type": "Feature", "properties": {"CD_SETOR": "291992605000043", "CD_SIT": "1", "NM_DIST": "Madre de Deus", "NM_SUBDIST": null}, "geometry": {"type": "Polygon", "coordinates": [[[-38.6145, -12.73104], [-38.61438, -12.73163], [-38.61392, -12.73196], [-38.61388, -12.73234], [-38.61299, -12.73272], [-38.61278, -12.73401], [-38.613, -12.73445], [-38.61314, -12.73567], [-38.61288, -12.73639], [-38.61325, -12.73692], [-38.61297, -12.73722], [-38.61327, -12.7375], [-38.61402, -12.73772], [-38.61471, -12.73595], [-38.61516, -12.73577], [-38.61598, -12.73489], [-38.6171, -12.73432], [-38.61706, -12.734], [-38.61649, -12.73343], [-38.61675, -12.73253], [-38.61671, -12.73211], [-38.61654, -12.73196], [-38.61709, -12.73194], [-38.61735, -12.73116], [-38.61713, -12.73098], [-38.61687, -12.73103], [-38.61703, -12.73053], [-38.61662, -12.7302], [-38.61637, -12.73034], [-38.616, -12.73017], [-38.6157, -12.73036], [-38.61584, -12.72979], [-38.61577, -12.72927], [-38.61544, -12.72892], [-38.61474, -12.72909], [-38.61447, -12.7299], [-38.61476, -12.73048], [-38.61473, -12.7309], [-38.6145, -12.73104]]]}}, 
{"type": "Feature", "properties": {"CD_SETOR": "291992605000044", "CD_SIT": "1", "NM_DIST": "Madre de Deus", "NM_SUBDIST": null}, "geometry": {"type": "Polygon", "coordinates": [[[-38.60876, -12.73452], [-38.60848, -12.73486], [-38.60849, -12.73544], [-38.60876, -12.73583], [-38.60943, -12.73604], [-38.60998, -12.73709], [-38.61157, -12.73707], [-38.61327, -12.7375], [-38.61297, -12.73722], [-38.61325, -12.73692], [-38.61288, -12.73639], [-38.61314, -12.73567], [-38.613, -12.73445], [-38.61278, -12.73401], [-38.61198, -12.73334], [-38.61155, -12.73334], [-38.60973, -12.73443], [-38.60928, -12.73431], [-38.60876, -12.73452]]]}}]}