{"type": "FeatureCollection", "features": [
{"type": "Feature", "properties": {"CD_SETOR": "293077405000001", "CD_SIT": "1", "NM_DIST": "Sobradinho", "NM_SUBDIST": null}, "geometry": {"type": "Polygon", "coordinates": [[[-40.78775, -9.469944], [-40.78855, -9.471664], [-40.79542, -9.471673], [-40.79542, -9.470094], [-40.78775, -9.469944]]]}}, 
{"type": "Feature", "properties": {"CD_SETOR": "293077405000002", "CD_SIT": "1", "NM_DIST": "Sobradinho", "NM_SUBDIST": null}, "geometry": {"type": "Polygon", "coordinates": [[[-40.78855, -9.471664], [-40.78865, -9.472036], [-40.78951, -9.473224], [-40.79542, -9.473281], [-40.79542, -9.471673], [-40.78855, -9.471664]]]}}, 
{"type": "Feature", "properties": {"CD_SETOR": "293077405000003", "CD_SIT": "1", "NM_DIST": "Sobradinho", "NM_SUBDIST": null}, "geometry": {"type": "Polygon", "coordinates": [[[-40.79543, -9.47057], [-40.79541, -9.477192], [-40.7968, -9.478055], [-40.79885, -9.478535], [-40.79891, -9.473904], [-40.79649, -9.473899], [-40.79646, -9.469915], [-40.79543, -9.47057]]]}}, 
{"type": "Feature", "properties": {"CD_SETOR": "293077405000004", "CD_SIT": "1", "NM_DIST": "Sobradinho", "NM_SUBDIST": null}, "geometry": {"type": "Polygon", "coordinates": [[[-40.79654, -9.469861], [-40.79649, -9.473899], [-40.79891, -9.473904], [-40.79891, -9.47009], [-40.79654, -9.469861]]]}}, 
{"type": "Feature", "properties": {"CD_SETOR": "293077405000005", "CD_SIT": "1", "NM_DIST": "Sobradinho", "NM_SUBDIST": null}, "geometry": {"type": "Polygon", "coordinates": [[[-40.79891, -9.473904], [-40.80238, -9.473921], [-40.8024, -9.471057], [-40.79891, -9.47009], [-40.79891, -9.473904]]]}}, 
{"type": "Feature", "properties": {"CD_SETOR": "293077405000006", "CD_SIT": "1", "NM_DIST": "Sobradinho", "NM_SUBDIST": null}, "geometry": {"type": "Polygon", "coordinates": [[[-40.79885, -9.478535], [-40.79978, -9.479004], [-40.80034, -9.479567], [-40.80095, -9.480569], [-40.80119, -9.479262], [-40.80123, -9.473921], [-40.79891, -9.473904], [-40.79885, -9.478535]]]}}, 
{"type": "Feature", "properties": {"CD_SETOR": "293077405000007", "CD_SIT": "1", "NM_DIST": "Sobradinho", "NM_SUBDIST": null}, "geometry": {"type": "Polygon", "coordinates": [[[-40.80122, -9.476584], [-40.80395, -9.4766], [-40.80396, -9.47499], [-40.80237, -9.474983], [-40.80238, -9.473921], [-40.80123, -9.473921], [-40.80122, -9.476584]]]}}, 
{"type": "Feature", "properties": {"CD_SETOR": "293077405000008", "CD_SIT": "1", "NM_DIST": "Sobradinho", "NM_SUBDIST": null}, "geometry": {"type": "Polygon", "coordinates": [[[-40.80238, -9.473921], [-40.80237, -9.474983], [-40.80812, -9.475005], [-40.80803, -9.474446], [-40.80754, -9.473655], [-40.80471, -9.47208], [-40.8024, -9.471057], [-40.80238, -9.473921]]]}}, 
{"type": "Feature", "properties": {"CD_SETOR": "293077405000009", "CD_SIT": "2", "NM_DIST": "Sobradinho", "NM_SUBDIST": null}, "geometry": {"type": "Polygon", "coordinates": [[[-40.80842, -9.474262], [-40.80812, -9.474714], [-40.808, -9.488676], [-40.80824, -9.489169], [-40.80903, -9.489425], [-40.81592, -9.485614], [-40.8157, -9.484634], [-40.81575, -9.480971], [-40.81571, -9.480498], [-40.8151, -9.480478], [-40.81512, -9.475506], [-40.81277, -9.475235], [-40.80894, -9.474216], [-40.80842, -9.474262]]]}}, 
{"type": "Feature", "properties": {"CD_SETOR": "293077405000011", "CD_SIT": "2", "NM_DIST": "Sobradinho", "NM_SUBDIST": null}, "geometry": {"type": "Polygon", "coordinates": [[[-40.81471, -9.457582], [-40.81496, -9.458453], [-40.81563, -9.46514], [-40.81806, -9.466951], [-40.8186, -9.469571], [-40.81859, -9.475317], [-40.81975, -9.475148], [-40.81979, -9.475253], [-40.81982, -9.480061], [-40.8196, -9.480263], [-40.81974, -9.483437], [-40.82324, -9.481577], [-40.83602, -9.481906], [-40.836, -9.481527], [-40.83631, -9.480734], [-40.83531, -9.479756], [-40.83527, -9.478689], [-40.83559, -9.47761], [-40.83558, -9.476221], [-40.83467, -9.475363], [-40.83453, -9.472847], [-40.83433, -9.472262], [-40.83348, -9.471058], [-40.83272, -9.470462], [-40.83214, -9.469748], [-40.83213, -9.469174], [-40.83176, -9.468446], [-40.83182, -9.468251], [-40.8322, -9.468097], [-40.83229, -9.467733], [-40.83146, -9.466935], [-40.83175, -9.465606], [-40.83236, -9.464431], [-40.83237, -9.463171], [-40.83202, -9.462374], [-40.83142, -9.461786], [-40.83132, -9.461408], [-40.83161, -9.457728], [-40.83153, -9.456371], [-40.83118, -9.455349], [-40.82211, -9.460179], [-40.82212, -9.459804], [-40.82103, -9.458842], [-40.82087, -9.458432], [-40.81721, -9.45743], [-40.8157, -9.457412], [-40.8157, -9.457553], [-40.81471, -9.457582]]]}}, 
{"type": "Feature", "properties": {"CD_SETOR": "293077405000012", "CD_SIT": "1", "NM_DIST": "Sobradinho", "NM_SUBDIST": null}, "geometry": {"type": "Polygon", "coordinates": [[[-40.81512, -9.475506], [-40.81512, -9.476867], [-40.81745, -9.476772], [-40.81745, -9.476509], [-40.81981, -9.476595], [-40.81975, -9.475148], [-40.81859, -9.475317], [-40.81861, -9.4724], [-40.8163, -9.472315], [-40.81629, -9.475431], [-40.81513, -9.475399], [-40.81512, -9.475506]]]}}, 
{"type": "Feature", "properties": {"CD_SETOR": "293077405000013", "CD_SIT": "1", "NM_DIST": "Sobradinho", "NM_SUBDIST": null}, "geometry": {"type": "Polygon", "coordinates": [[[-40.8163, -9.472315], [-40.81861, -9.4724], [-40.8186, -9.469571], [-40.81806, -9.466951], [-40.81563, -9.46514], [-40.81603, -9.466136], [-40.81631, -9.470117], [-40.81398, -9.469911], [-40.81398, -9.471058], [-40.81631, -9.470991], [-40.8163, -9.472315]]]}}, 
{"type": "Feature", "properties": {"CD_SETOR": "293077405000014", "CD_SIT": "2", "NM_DIST": "Sobradinho", "NM_SUBDIST": null}, "geometry": {"type": "Polygon", "coordinates": [[[-40.79903, -9.458158], [-40.7989, -9.467525], [-40.80355, -9.467543], [-40.80369, -9.464031], [-40.80364, -9.457324], [-40.80208, -9.45736], [-40.80055, -9.458042], [-40.79903, -9.458158]]]}}, 
{"type": "Feature", "properties": {"CD_SETOR": "293077405000015", "CD_SIT": "1", "NM_DIST": "Sobradinho", "NM_SUBDIST": null}, "geometry": {"type": "Polygon", "coordinates": [[[-40.7989, -9.467525], [-40.79892, -9.469992], [-40.80179, -9.470824], [-40.80387, -9.471665], [-40.80391, -9.471562], [-40.80348, -9.471381], [-40.80355, -9.467543], [-40.7989, -9.467525]]]}}, 
{"type": "Feature", "properties": {"CD_SETOR": "293077405000016", "CD_SIT": "1", "NM_DIST": "Sobradinho", "NM_SUBDIST": null}, "geometry": {"type": "Polygon", "coordinates": [[[-40.79654, -9.469861], [-40.79942, -9.470198], [-40.79945, -9.470101], [-40.79892, -9.469992], [-40.79891, -9.467316], [-40.79663, -9.467291], [-40.79654, -9.469861]]]}}, 
{"type": "Feature", "properties": {"CD_SETOR": "293077405000017", "CD_SIT": "1", "NM_DIST": "Sobradinho", "NM_SUBDIST": null}, "geometry": {"type": "Polygon", "coordinates": [[[-40.7931, -9.470062], [-40.79542, -9.470094], [-40.79543, -9.47057], [-40.79654, -9.469861], [-40.79662, -9.466764], [-40.79314, -9.46674], [-40.7931, -9.470062]]]}}, 
{"type": "Feature", "properties": {"CD_SETOR": "293077405000018", "CD_SIT": "2", "NM_DIST": "Sobradinho", "NM_SUBDIST": null}, "geometry": {"type": "Polygon", "coordinates": [[[-40.78775, -9.469944], [-40.7931, -9.470062], [-40.79315, -9.464607], [-40.79077, -9.464627], [-40.79071, -9.463009], [-40.79021, -9.462016], [-40.79049, -9.460556], [-40.79023, -9.460407], [-40.78941, -9.460478], [-40.78846, -9.459651], [-40.78733, -9.46012], [-40.78639, -9.460085], [-40.78537, -9.459593], [-40.78603, -9.461902], [-40.78564, -9.463174], [-40.78565, -9.463602], [-40.78579, -9.463983], [-40.78613, -9.464229], [-40.78612, -9.464674], [-40.78577, -9.464891], [-40.7858, -9.46536], [-40.78651, -9.466427], [-40.78625, -9.467458], [-40.78647, -9.468437], [-40.78775, -9.469944]]]}}, 
{"type": "Feature", "properties": {"CD_SETOR": "293077405000019", "CD_SIT": "2", "NM_DIST": "Sobradinho", "NM_SUBDIST": null}, "geometry": {"type": "Polygon", "coordinates": [[[-40.79049, -9.460556], [-40.79021, -9.462016], [-40.79071, -9.463009], [-40.79077, -9.464627], [-40.79315, -9.464607], [-40.79314, -9.46674], [-40.79662, -9.466764], [-40.79671, -9.459406], [-40.79577, -9.459953], [-40.79544, -9.460569], [-40.79456, -9.460955], [-40.79393, -9.46102], [-40.79362, -9.461243], [-40.79341, -9.461237], [-40.79289, -9.460692], [-40.79252, -9.460041], [-40.7917, -9.460091], [-40.79122, -9.460472], [-40.79049, -9.460556]]]}}, 
{"type": "Feature", "properties": {"CD_SETOR": "293077405000020", "CD_SIT": "8", "NM_DIST": "Sobradinho", "NM_SUBDIST": null}, "geometry": {"type": "Polygon", "coordinates": [[[-40.8407, -9.453057], [-40.83987, -9.453978], [-40.84077, -9.455609], [-40.84085, -9.4562], [-40.8407, -9.45696], [-40.83215, -9.469754], [-40.83272, -9.470462], [-40.83348, -9.471058], [-40.83433, -9.472262], [-40.83453, -9.472847], [-40.83467, -9.475363], [-40.83558, -9.476221], [-40.83559, -9.47761], [-40.83527, -9.478689], [-40.83531, -9.479756], [-40.83631, -9.480734], [-40.836, -9.481527], [-40.83602, -9.481906], [-40.84365, -9.482185], [-40.84745, -9.483], [-40.84929, -9.483886], [-40.85086, -9.485419], [-40.85511, -9.490157], [-40.88574, -9.524577], [-40.88911, -9.528081], [-40.89299, -9.530271], [-40.898, -9.532197], [-40.89882, -9.532738], [-40.90316, -9.536744], [-40.90427, -9.537244], [-40.92689, -9.543873], [-40.93521, -9.54433], [-40.94246, -9.546537], [-40.94754, -9.545659], [-40.95984, -9.551185], [-40.95883, -9.508199], [-40.95679, -9.509166], [-40.95637, -9.509119], [-40.95577, -9.509377], [-40.95634, -9.506435], [-40.95708, -9.505726], [-40.95791, -9.505878], [-40.95858, -9.505325], [-40.95762, -9.500191], [-40.9565, -9.496527], [-40.95549, -9.494596], [-40.95529, -9.493505], [-40.95484, -9.492424], [-40.95335, -9.489556], [-40.95302, -9.48796], [-40.95297, -9.485889], [-40.95336, -9.482652], [-40.95383, -9.480265], [-40.95396, -9.478595], [-40.95444, -9.476619], [-40.95497, -9.475204], [-40.95535, -9.474552], [-40.95625, -9.473645], [-40.95327, -9.466708], [-40.95098, -9.46727], [-40.95013, -9.459862], [-40.95193, -9.457986], [-40.9526, -9.453016], [-40.95132, -9.450484], [-40.94975, -9.449312], [-40.9487, -9.45039], [-40.94747, -9.447952], [-40.94808, -9.446451], [-40.94685, -9.440778], [-40.94271, -9.436698], [-40.93862, -9.437026], [-40.93634, -9.438011], [-40.93416, -9.4412], [-40.9334, -9.441575], [-40.93306, -9.440355], [-40.93016, -9.440496], [-40.92988, -9.439089], [-40.92669, -9.438152], [-40.92527, -9.440355], [-40.91543, -9.431962], [-40.914, -9.435197], [-40.91334, -9.430133], [-40.91129, -9.429101], [-40.91053, -9.428304], [-40.91248, -9.427601], [-40.91343, -9.426475], [-40.91305, -9.418222], [-40.91015, -9.417143], [-40.90635, -9.417143], [-40.90107, -9.418784], [-40.90331, -9.431587], [-40.90003, -9.43032], [-40.90036, -9.436651], [-40.8957, -9.435948], [-40.8957, -9.430133], [-40.89451, -9.429101], [-40.89318, -9.43018], [-40.89052, -9.429336], [-40.89242, -9.426757], [-40.88885, -9.426194], [-40.87959, -9.429242], [-40.88177, -9.436182], [-40.88377, -9.438527], [-40.88605, -9.446123], [-40.88044, -9.441434], [-40.87692, -9.441997], [-40.86884, -9.434306], [-40.87131, -9.441153], [-40.87241, -9.44556], [-40.87379, -9.447717], [-40.87711, -9.456252], [-40.8754, -9.455642], [-40.87398, -9.453719], [-40.87293, -9.453532], [-40.86415, -9.434986], [-40.86387, -9.43501], [-40.86341, -9.437179], [-40.86184, -9.438597], [-40.86132, -9.441727], [-40.85932, -9.439535], [-40.85685, -9.438304], [-40.85563, -9.437085], [-40.85451, -9.435619], [-40.85289, -9.434166], [-40.85219, -9.434365], [-40.8506, -9.435385], [-40.85039, -9.43739], [-40.85182, -9.441704], [-40.85094, -9.447166], [-40.85136, -9.451398], [-40.85308, -9.452324], [-40.85453, -9.456744], [-40.85421, -9.45978], [-40.85384, -9.459803], [-40.85414, -9.460788], [-40.85305, -9.460987], [-40.8532, -9.461538], [-40.85269, -9.461913], [-40.85244, -9.461515], [-40.85203, -9.459592], [-40.85146, -9.458889], [-40.85012, -9.458045], [-40.84917, -9.458045], [-40.84442, -9.452606], [-40.84209, -9.451058], [-40.8407, -9.453057]]]}}, 
{"type": "Feature", "properties": {"CD_SETOR": "293077405000022", "CD_SIT": "8", "NM_DIST": "Sobradinho", "NM_SUBDIST": null}, "geometry": {"type": "Polygon", "coordinates": [[[-40.75118, -9.689731], [-40.75063, -9.690514], [-40.74937, -9.691705], [-40.74906, -9.692786], [-40.74837, -9.693451], [-40.74826, -9.694078], [-40.74843, -9.695164], [-40.74807, -9.695648], [-40.74503, -9.697704], [-40.74254, -9.700188], [-40.74171, -9.7018], [-40.74135, -9.703081], [-40.74123, -9.704603], [-40.74132, -9.705233], [-40.74064, -9.707221], [-40.7407, -9.70761], [-40.7413, -9.708479], [-40.74142, -9.709109], [-40.74069, -9.712033], [-40.74049, -9.713785], [-40.74066, -9.715494], [-40.74104, -9.717315], [-40.74162, -9.718237], [-40.74196, -9.720309], [-40.74229, -9.720991], [-40.74445, -9.722259], [-40.74579, -9.723257], [-40.74668, -9.724034], [-40.74709, -9.724639], [-40.74699, -9.726782], [-40.74678, -9.727763], [-40.74698, -9.728634], [-40.74902, -9.730914], [-40.74941, -9.731598], [-40.74937, -9.734071], [-40.75149, -9.736582], [-40.7522, -9.738622], [-40.75542, -9.741565], [-40.75707, -9.743628], [-40.75771, -9.744197], [-40.75968, -9.745193], [-40.76201, -9.7457], [-40.76273, -9.747518], [-40.76358, -9.748985], [-40.7638, -9.749754], [-40.76409, -9.752899], [-40.76438, -9.753647], [-40.76473, -9.755623], [-40.76446, -9.756135], [-40.76328, -9.756816], [-40.76278, -9.757466], [-40.76258, -9.759358], [-40.76197, -9.760328], [-40.76173, -9.761112], [-40.76169, -9.762101], [-40.76241, -9.763837], [-40.76339, -9.765468], [-40.76333, -9.767079], [-40.7637, -9.769878], [-40.76432, -9.771183], [-40.76606, -9.773312], [-40.76629, -9.775353], [-40.76821, -9.777736], [-40.76836, -9.778294], [-40.76785, -9.779805], [-40.76708, -9.78114], [-40.76625, -9.783479], [-40.76598, -9.785652], [-40.76528, -9.786777], [-40.76445, -9.790494], [-40.76375, -9.792109], [-40.76333, -9.792391], [-40.76187, -9.792787], [-40.75952, -9.794463], [-40.75741, -9.795434], [-40.75565, -9.797328], [-40.75531, -9.798074], [-40.75549, -9.79918], [-40.75692, -9.800892], [-40.75865, -9.803355], [-40.76065, -9.805489], [-40.76189, -9.807331], [-40.76277, -9.809081], [-40.76305, -9.811154], [-40.76318, -9.814423], [-40.76383, -9.815854], [-40.76623, -9.816881], [-40.76682, -9.817521], [-40.76787, -9.820399], [-40.77129, -9.826121], [-40.77198, -9.828637], [-40.77318, -9.831093], [-40.77444, -9.833174], [-40.77479, -9.835194], [-40.77573, -9.835959], [-40.77684, -9.836443], [-40.78219, -9.842928], [-40.78313, -9.844682], [-40.78432, -9.84631], [-40.78496, -9.848152], [-40.78577, -9.84948], [-40.78674, -9.85057], [-40.78808, -9.851445], [-40.78873, -9.852467], [-40.79304, -9.856917], [-40.79451, -9.857505], [-40.79941, -9.858284], [-40.80105, -9.85907], [-40.80326, -9.860854], [-40.80677, -9.864682], [-40.81017, -9.867315], [-40.81353, -9.869631], [-40.81376, -9.870367], [-40.81375, -9.87137], [-40.81658, -9.871684], [-40.8174, -9.871162], [-40.81832, -9.869696], [-40.81824, -9.849876], [-40.81752, -9.845129], [-40.81741, -9.842845], [-40.81975, -9.84136], [-40.82112, -9.839305], [-40.82181, -9.83742], [-40.82369, -9.836335], [-40.82529, -9.838334], [-40.82804, -9.844035], [-40.82824, -9.848632], [-40.82793, -9.851373], [-40.82845, -9.854916], [-40.82893, -9.857193], [-40.83032, -9.862083], [-40.83163, -9.864471], [-40.83687, -9.863337], [-40.8389, -9.860837], [-40.8399, -9.861371], [-40.84099, -9.863645], [-40.84121, -9.865495], [-40.84331, -9.869043], [-40.84398, -9.871047], [-40.84565, -9.874077], [-40.84745, -9.875655], [-40.84955, -9.878045], [-40.85368, -9.882113], [-40.8577, -9.884464], [-40.8606, -9.887369], [-40.86409, -9.889393], [-40.8661, -9.889521], [-40.8694, -9.89084], [-40.8729, -9.89084], [-40.87467, -9.891418], [-40.87918, -9.893418], [-40.88228, -9.89584], [-40.88433, -9.898635], [-40.88655, -9.903873], [-40.88766, -9.905845], [-40.88958, -9.91043], [-40.89156, -9.913711], [-40.89383, -9.914822], [-40.89643, -9.914179], [-40.89743, -9.911908], [-40.89879, -9.910551], [-40.903, -9.909682], [-40.90406, -9.909717], [-40.90554, -9.908599], [-40.90631, -9.908201], [-40.90742, -9.906762], [-40.90999, -9.905357], [-40.91165, -9.904724], [-40.91336, -9.903726], [-40.91283, -9.90083], [-40.9156, -9.899034], [-40.92139, -9.897294], [-40.92296, -9.897285], [-40.92442, -9.896785], [-40.92621, -9.897642], [-40.9276, -9.898641], [-40.93032, -9.903591], [-40.93456, -9.907932], [-40.93605, -9.911902], [-40.93914, -9.914294], [-40.94159, -9.915238], [-40.94237, -9.914944], [-40.9426, -9.913962], [-40.94185, -9.913061], [-40.94089, -9.91244], [-40.94005, -9.911129], [-40.93991, -9.910356], [-40.93895, -9.908893], [-40.93868, -9.905884], [-40.9373, -9.902975], [-40.93708, -9.901032], [-40.93752, -9.898889], [-40.9374, -9.898187], [-40.93667, -9.896911], [-40.93639, -9.895881], [-40.93563, -9.895284], [-40.93483, -9.894944], [-40.93382, -9.892977], [-40.93401, -9.891221], [-40.9337, -9.889887], [-40.93324, -9.888962], [-40.93092, -9.886363], [-40.93034, -9.885473], [-40.93001, -9.885286], [-40.92932, -9.88538], [-40.92757, -9.884795], [-40.92552, -9.883398], [-40.92458, -9.88203], [-40.92426, -9.88011], [-40.92356, -9.878706], [-40.92349, -9.877849], [-40.92278, -9.87617], [-40.92267, -9.874762], [-40.92325, -9.872905], [-40.92272, -9.87127], [-40.92327, -9.870271], [-40.92181, -9.868837], [-40.92132, -9.868119], [-40.92141, -9.866298], [-40.92189, -9.865642], [-40.92307, -9.865429], [-40.92324, -9.865188], [-40.9232, -9.864878], [-40.92226, -9.863956], [-40.92132, -9.862725], [-40.92052, -9.86115], [-40.92017, -9.859641], [-40.92033, -9.858677], [-40.92098, -9.8573], [-40.92101, -9.856534], [-40.92021, -9.855473], [-40.92002, -9.853037], [-40.91953, -9.851149], [-40.91904, -9.84995], [-40.91868, -9.848027], [-40.91844, -9.847652], [-40.91726, -9.847521], [-40.91671, -9.84797], [-40.91603, -9.849177], [-40.9151, -9.849525], [-40.91326, -9.849124], [-40.91261, -9.848818], [-40.91104, -9.847178], [-40.91045, -9.846976], [-40.90907, -9.847155], [-40.90826, -9.847537], [-40.90747, -9.847542], [-40.90671, -9.846859], [-40.90464, -9.847043], [-40.90429, -9.846872], [-40.90418, -9.845568], [-40.90351, -9.843856], [-40.90121, -9.840982], [-40.89979, -9.839754], [-40.89992, -9.839226], [-40.90061, -9.838572], [-40.90043, -9.837404], [-40.90008, -9.837062], [-40.89978, -9.837099], [-40.89936, -9.837444], [-40.89888, -9.837378], [-40.89832, -9.83642], [-40.89789, -9.834497], [-40.8981, -9.833878], [-40.89875, -9.833428], [-40.89875, -9.833154], [-40.89732, -9.831994], [-40.89698, -9.831239], [-40.89569, -9.829633], [-40.89558, -9.828775], [-40.89473, -9.826306], [-40.89484, -9.82555], [-40.89463, -9.825207], [-40.89317, -9.82422], [-40.89272, -9.823569], [-40.89272, -9.823157], [-40.89191, -9.821255], [-40.89179, -9.81885], [-40.89163, -9.818363], [-40.89113, -9.817955], [-40.89093, -9.817428], [-40.89089, -9.81491], [-40.89124, -9.813552], [-40.89121, -9.812591], [-40.8911, -9.812029], [-40.89032, -9.810624], [-40.89056, -9.810308], [-40.89112, -9.81039], [-40.89173, -9.809945], [-40.89151, -9.807779], [-40.89068, -9.807088], [-40.88984, -9.805472], [-40.88936, -9.804886], [-40.88755, -9.804521], [-40.88534, -9.804359], [-40.88338, -9.803293], [-40.88317, -9.80293], [-40.88321, -9.801783], [-40.88296, -9.800752], [-40.88276, -9.80053], [-40.8825, -9.800448], [-40.88208, -9.800823], [-40.88128, -9.800752], [-40.87986, -9.801303], [-40.87902, -9.801408], [-40.87796, -9.801022], [-40.87757, -9.8006], [-40.87749, -9.80019], [-40.87768, -9.799722], [-40.8772, -9.79615], [-40.87568, -9.7943], [-40.87478, -9.79362], [-40.87523, -9.793029], [-40.87531, -9.792678], [-40.8746, -9.790997], [-40.87418, -9.790669], [-40.87295, -9.790453], [-40.87281, -9.790295], [-40.87292, -9.789738], [-40.87355, -9.78876], [-40.87483, -9.78708], [-40.87548, -9.786612], [-40.87605, -9.785909], [-40.87604, -9.785657], [-40.87478, -9.784984], [-40.8744, -9.784474], [-40.87406, -9.78345], [-40.873, -9.782331], [-40.87258, -9.781464], [-40.87269, -9.780563], [-40.87339, -9.77979], [-40.87356, -9.779263], [-40.87296, -9.777284], [-40.87334, -9.775474], [-40.87353, -9.773442], [-40.87343, -9.771311], [-40.8729, -9.769495], [-40.873, -9.76737], [-40.87284, -9.767054], [-40.87254, -9.766901], [-40.87134, -9.768365], [-40.87086, -9.768576], [-40.87011, -9.768547], [-40.86886, -9.768781], [-40.86866, -9.768758], [-40.86874, -9.768389], [-40.8686, -9.768225], [-40.86729, -9.767458], [-40.86603, -9.767218], [-40.86572, -9.766679], [-40.86561, -9.765607], [-40.86591, -9.764822], [-40.86672, -9.764735], [-40.86708, -9.764085], [-40.86713, -9.76378], [-40.86691, -9.762943], [-40.86719, -9.761508], [-40.86705, -9.760788], [-40.86688, -9.760577], [-40.86573, -9.760044], [-40.86536, -9.7593], [-40.86443, -9.758504], [-40.86339, -9.756378], [-40.86292, -9.755734], [-40.86288, -9.755388], [-40.8631, -9.754738], [-40.86285, -9.753758], [-40.86098, -9.752903], [-40.86109, -9.752308], [-40.8616, -9.752068], [-40.86185, -9.751728], [-40.86154, -9.750106], [-40.86176, -9.749556], [-40.86371, -9.748537], [-40.86455, -9.747688], [-40.86481, -9.747155], [-40.86426, -9.746083], [-40.86441, -9.745187], [-40.86381, -9.742435], [-40.86399, -9.741662], [-40.86517, -9.73929], [-40.86519, -9.738991], [-40.86485, -9.738593], [-40.86444, -9.738839], [-40.86192, -9.737755], [-40.86078, -9.736859], [-40.86037, -9.736215], [-40.86027, -9.735495], [-40.86038, -9.733931], [-40.85925, -9.731519], [-40.85823, -9.731548], [-40.85731, -9.731378], [-40.85534, -9.72903], [-40.85429, -9.728403], [-40.83142, -9.717221], [-40.8269, -9.716366], [-40.82626, -9.716079], [-40.81619, -9.710679], [-40.81295, -9.709098], [-40.81266, -9.708776], [-40.80318, -9.704125], [-40.80104, -9.702632], [-40.7984, -9.701501], [-40.79769, -9.701449], [-40.79648, -9.701021], [-40.79567, -9.700453], [-40.79504, -9.699668], [-40.79416, -9.698936], [-40.79317, -9.698298], [-40.79266, -9.698327], [-40.79189, -9.697395], [-40.79153, -9.69732], [-40.79141, -9.696718], [-40.78999, -9.695646], [-40.78964, -9.694961], [-40.7896, -9.693862], [-40.78904, -9.693078], [-40.78831, -9.692528], [-40.78817, -9.691723], [-40.78726, -9.691493], [-40.78649, -9.690797], [-40.78497, -9.690174], [-40.78021, -9.687522], [-40.77832, -9.687533], [-40.77573, -9.686492], [-40.77406, -9.686199], [-40.77309, -9.685163], [-40.7725, -9.684159], [-40.77229, -9.683212], [-40.7708, -9.681632], [-40.77007, -9.680157], [-40.76877, -9.679388], [-40.76691, -9.678975], [-40.76589, -9.678426], [-40.76547, -9.678426], [-40.76374, -9.677693], [-40.76325, -9.676689], [-40.76112, -9.674884], [-40.76048, -9.676402], [-40.75982, -9.67747], [-40.7575, -9.679713], [-40.75599, -9.682023], [-40.7555, -9.682513], [-40.75361, -9.682871], [-40.75256, -9.683921], [-40.75236, -9.684827], [-40.75213, -9.687824], [-40.75164, -9.68908], [-40.75118, -9.689731]]]}}, 
{"type": "Feature", "properties": {"CD_SETOR": "293077405000023", "CD_SIT": "7", "NM_DIST": "Sobradinho", "NM_SUBDIST": null}, "geometry": {"type": "Polygon", "coordinates": [[[-40.95883, -9.508199], [-40.95878, -9.505777], [-40.95858, -9.505325], [-40.95791, -9.505878], [-40.95708, -9.505726], [-40.95634, -9.506435], [-40.95577, -9.509377], [-40.95637, -9.509119], [-40.95679, -9.509166], [-40.95883, -9.508199]]]}}, 
{"type": "Feature", "properties": {"CD_SETOR": "293077405000024", "CD_SIT": "8", "NM_DIST": "Sobradinho", "NM_SUBDIST": null}, "geometry": {"type": "Polygon", "coordinates": [[[-40.72218, -9.445949], [-40.71525, -9.448806], [-40.71588, -9.450725], [-40.7169, -9.451454], [-40.71931, -9.451834], [-40.72108, -9.450955], [-40.72165, -9.450949], [-40.72238, -9.451237], [-40.72354, -9.452628], [-40.72445, -9.455266], [-40.72486, -9.455854], [-40.72603, -9.456298], [-40.72801, -9.456065], [-40.72945, -9.456483], [-40.7304, -9.457309], [-40.73109, -9.45865], [-40.73202, -9.46134], [-40.7324, -9.465993], [-40.73279, -9.468298], [-40.73277, -9.47068], [-40.73221, -9.474029], [-40.73227, -9.474692], [-40.73279, -9.476144], [-40.73348, -9.47713], [-40.73446, -9.47799], [-40.73629, -9.478893], [-40.737, -9.479569], [-40.73758, -9.480536], [-40.73766, -9.481324], [-40.73734, -9.482667], [-40.73665, -9.483664], [-40.73624, -9.484858], [-40.73605, -9.486054], [-40.73613, -9.488058], [-40.73679, -9.489563], [-40.73825, -9.491199], [-40.73839, -9.491775], [-40.7383, -9.494053], [-40.73852, -9.494837], [-40.73974, -9.496461], [-40.7425, -9.500897], [-40.74257, -9.502256], [-40.742, -9.503072], [-40.74189, -9.503562], [-40.7421, -9.505042], [-40.74198, -9.507402], [-40.74216, -9.507778], [-40.74358, -9.508509], [-40.74479, -9.509748], [-40.74531, -9.510292], [-40.746, -9.511587], [-40.74601, -9.512374], [-40.7458, -9.512989], [-40.74481, -9.514449], [-40.74398, -9.516171], [-40.74323, -9.517081], [-40.74344, -9.519592], [-40.74404, -9.521042], [-40.74437, -9.521531], [-40.76446, -9.517718], [-40.76556, -9.517438], [-40.76674, -9.516808], [-40.76773, -9.516025], [-40.77601, -9.507763], [-40.77712, -9.507358], [-40.77895, -9.507281], [-40.77934, -9.506064], [-40.77944, -9.505042], [-40.77985, -9.503979], [-40.77948, -9.501908], [-40.77928, -9.498984], [-40.77931, -9.498438], [-40.77966, -9.498005], [-40.77978, -9.497571], [-40.77978, -9.496396], [-40.77965, -9.496102], [-40.77993, -9.494563], [-40.78012, -9.494143], [-40.78311, -9.493989], [-40.78269, -9.49182], [-40.78056, -9.486895], [-40.79002, -9.48296], [-40.78954, -9.482104], [-40.7879, -9.480217], [-40.78795, -9.479995], [-40.78309, -9.474685], [-40.78662, -9.471776], [-40.78725, -9.471637], [-40.78823, -9.471829], [-40.78855, -9.471664], [-40.78797, -9.470207], [-40.78647, -9.468437], [-40.78625, -9.467458], [-40.78651, -9.466427], [-40.7858, -9.46536], [-40.78577, -9.464891], [-40.78612, -9.464674], [-40.78613, -9.464229], [-40.78579, -9.463983], [-40.78564, -9.463174], [-40.78603, -9.461902], [-40.78537, -9.459588], [-40.78573, -9.458859], [-40.78581, -9.458307], [-40.78575, -9.455349], [-40.7838, -9.455226], [-40.78191, -9.455917], [-40.7805, -9.456035], [-40.77863, -9.455425], [-40.77672, -9.454445], [-40.76746, -9.45265], [-40.76276, -9.450314], [-40.75805, -9.448806], [-40.75504, -9.446482], [-40.74984, -9.443847], [-40.74532, -9.443351], [-40.73053, -9.444692], [-40.72218, -9.445949]]]}}, 
{"type": "Feature", "properties": {"CD_SETOR": "293077405000025", "CD_SIT": "8", "NM_DIST": "Sobradinho", "NM_SUBDIST": null}, "geometry": {"type": "Polygon", "coordinates": [[[-40.74437, -9.521531], [-40.74872, -9.527703], [-40.75014, -9.530358], [-40.75046, -9.532287], [-40.75051, -9.533707], [-40.75077, -9.534263], [-40.75085, -9.535305], [-40.75117, -9.536294], [-40.75115, -9.537223], [-40.7521, -9.538366], [-40.75355, -9.539542], [-40.75599, -9.543408], [-40.75926, -9.547619], [-40.75964, -9.549655], [-40.76069, -9.551504], [-40.76076, -9.55199], [-40.76043, -9.553452], [-40.76054, -9.554669], [-40.76106, -9.555274], [-40.76352, -9.556841], [-40.76417, -9.55748], [-40.76504, -9.558803], [-40.76548, -9.560042], [-40.76583, -9.561733], [-40.76584, -9.563778], [-40.76613, -9.564627], [-40.76823, -9.568487], [-40.76851, -9.568839], [-40.76988, -9.56941], [-40.77001, -9.569652], [-40.76992, -9.570099], [-40.76882, -9.571353], [-40.76837, -9.57264], [-40.768, -9.575781], [-40.76818, -9.576765], [-40.76866, -9.577833], [-40.76867, -9.578389], [-40.76707, -9.581428], [-40.7673, -9.583566], [-40.76676, -9.584009], [-40.7657, -9.584252], [-40.76557, -9.584708], [-40.76571, -9.585321], [-40.76647, -9.585931], [-40.76651, -9.587386], [-40.76629, -9.588143], [-40.76625, -9.589212], [-40.76653, -9.5908], [-40.76674, -9.591201], [-40.76842, -9.592875], [-40.76873, -9.593897], [-40.76827, -9.594875], [-40.7676, -9.595712], [-40.76734, -9.597114], [-40.76745, -9.597727], [-40.76812, -9.599198], [-40.7687, -9.600083], [-40.76919, -9.601837], [-40.7692, -9.603595], [-40.76857, -9.605674], [-40.76852, -9.60642], [-40.76852, -9.607485], [-40.76896, -9.608494], [-40.76898, -9.60918], [-40.76864, -9.61033], [-40.76805, -9.611057], [-40.76807, -9.612117], [-40.769, -9.61643], [-40.76926, -9.616891], [-40.77001, -9.617473], [-40.77037, -9.617983], [-40.77005, -9.62089], [-40.77051, -9.622582], [-40.77053, -9.623418], [-40.77047, -9.623903], [-40.77003, -9.624559], [-40.76838, -9.626296], [-40.76817, -9.627225], [-40.76839, -9.627751], [-40.7702, -9.628374], [-40.7706, -9.628794], [-40.77064, -9.631856], [-40.77032, -9.632816], [-40.76989, -9.63335], [-40.76974, -9.634044], [-40.76985, -9.635531], [-40.76861, -9.638022], [-40.76892, -9.642298], [-40.76882, -9.644269], [-40.76923, -9.646699], [-40.7692, -9.64694], [-40.76826, -9.648274], [-40.76817, -9.649028], [-40.76878, -9.649841], [-40.76893, -9.65042], [-40.76873, -9.650867], [-40.7684, -9.650959], [-40.76727, -9.650543], [-40.76699, -9.650605], [-40.76678, -9.650787], [-40.76627, -9.652148], [-40.76622, -9.653531], [-40.76663, -9.655943], [-40.76662, -9.65691], [-40.76638, -9.657576], [-40.76505, -9.658638], [-40.76469, -9.659124], [-40.76439, -9.66003], [-40.76436, -9.660695], [-40.7646, -9.661669], [-40.76539, -9.663723], [-40.7653, -9.664415], [-40.76475, -9.666451], [-40.76322, -9.669126], [-40.76295, -9.670964], [-40.76269, -9.671518], [-40.76145, -9.672749], [-40.76127, -9.673145], [-40.76112, -9.674884], [-40.76325, -9.676689], [-40.76374, -9.677693], [-40.76547, -9.678426], [-40.76589, -9.678426], [-40.76691, -9.678975], [-40.76877, -9.679388], [-40.77007, -9.680157], [-40.7708, -9.681632], [-40.77229, -9.683212], [-40.7725, -9.684159], [-40.77309, -9.685163], [-40.77406, -9.686199], [-40.77573, -9.686492], [-40.77832, -9.687533], [-40.78021, -9.687522], [-40.78497, -9.690174], [-40.78649, -9.690797], [-40.78726, -9.691493], [-40.78817, -9.691723], [-40.78831, -9.692528], [-40.78904, -9.693078], [-40.7896, -9.693862], [-40.78964, -9.694961], [-40.78999, -9.695646], [-40.79141, -9.696718], [-40.79153, -9.69732], [-40.79189, -9.697395], [-40.79266, -9.698327], [-40.79317, -9.698298], [-40.79416, -9.698936], [-40.79504, -9.699668], [-40.79567, -9.700453], [-40.79648, -9.701021], [-40.79769, -9.701449], [-40.7984, -9.701501], [-40.80104, -9.702632], [-40.80318, -9.704125], [-40.81266, -9.708776], [-40.81295, -9.709098], [-40.8159, -9.710527], [-40.82674, -9.716302], [-40.83103, -9.717092], [-40.83336, -9.718153], [-40.85513, -9.728843], [-40.85623, -9.729973], [-40.85731, -9.731378], [-40.85929, -9.731574], [-40.85825, -9.727261], [-40.85809, -9.724906], [-40.85766, -9.724069], [-40.85582, -9.723091], [-40.85434, -9.719846], [-40.85169, -9.718177], [-40.85153, -9.717837], [-40.85121, -9.714253], [-40.8513, -9.713046], [-40.85202, -9.711207], [-40.85218, -9.709843], [-40.85273, -9.709667], [-40.85504, -9.707969], [-40.85628, -9.7062], [-40.85633, -9.705239], [-40.85587, -9.701748], [-40.85639, -9.701274], [-40.85675, -9.70039], [-40.85639, -9.699371], [-40.85673, -9.698756], [-40.85762, -9.698082], [-40.8595, -9.697209], [-40.85983, -9.696676], [-40.8599, -9.696126], [-40.85971, -9.695493], [-40.85885, -9.693736], [-40.8584, -9.693155], [-40.85816, -9.692434], [-40.85805, -9.690652], [-40.85616, -9.687859], [-40.85514, -9.687087], [-40.85466, -9.685798], [-40.85408, -9.684918], [-40.85197, -9.682398], [-40.85128, -9.681796], [-40.85071, -9.681013], [-40.85056, -9.680456], [-40.84991, -9.679752], [-40.84786, -9.678254], [-40.84678, -9.676954], [-40.84564, -9.676278], [-40.84473, -9.674797], [-40.84271, -9.672866], [-40.84193, -9.672345], [-40.84178, -9.671368], [-40.84269, -9.669129], [-40.84287, -9.668103], [-40.84267, -9.667596], [-40.84112, -9.664389], [-40.84045, -9.664111], [-40.83938, -9.663091], [-40.83858, -9.662065], [-40.83795, -9.660786], [-40.83785, -9.65984], [-40.83697, -9.658642], [-40.83558, -9.656219], [-40.8353, -9.655329], [-40.8349, -9.655008], [-40.8346, -9.654278], [-40.83454, -9.653574], [-40.83471, -9.653228], [-40.83474, -9.652196], [-40.83559, -9.651059], [-40.8364, -9.648302], [-40.83646, -9.647017], [-40.83622, -9.64617], [-40.83632, -9.645509], [-40.83691, -9.644396], [-40.8367, -9.644001], [-40.83675, -9.643352], [-40.83754, -9.641726], [-40.83864, -9.641164], [-40.8388, -9.640731], [-40.83904, -9.639816], [-40.83906, -9.637301], [-40.83944, -9.63591], [-40.83942, -9.634514], [-40.84102, -9.631065], [-40.84077, -9.626337], [-40.84053, -9.625459], [-40.83988, -9.624235], [-40.83954, -9.622282], [-40.83822, -9.619229], [-40.83696, -9.615693], [-40.83617, -9.614358], [-40.8352, -9.613338], [-40.83454, -9.612071], [-40.83436, -9.610458], [-40.83459, -9.606805], [-40.83365, -9.603282], [-40.82303, -9.571813], [-40.8164, -9.554318], [-40.81633, -9.553966], [-40.81656, -9.553749], [-40.82687, -9.547487], [-40.82726, -9.54672], [-40.82678, -9.543802], [-40.82648, -9.542943], [-40.81614, -9.515403], [-40.81488, -9.503656], [-40.81425, -9.502809], [-40.81227, -9.501492], [-40.81056, -9.49994], [-40.80843, -9.496026], [-40.80685, -9.490754], [-40.80331, -9.49285], [-40.79779, -9.496534], [-40.80022, -9.502293], [-40.80091, -9.502267], [-40.80439, -9.500772], [-40.80461, -9.502486], [-40.80488, -9.503029], [-40.80135, -9.504638], [-40.79927, -9.505398], [-40.79845, -9.503572], [-40.7982, -9.503306], [-40.79894, -9.502982], [-40.79647, -9.498185], [-40.79612, -9.497638], [-40.79571, -9.497917], [-40.79531, -9.497205], [-40.79534, -9.484249], [-40.79061, -9.485838], [-40.79002, -9.48296], [-40.78056, -9.486895], [-40.78269, -9.49182], [-40.78311, -9.493989], [-40.78012, -9.494143], [-40.77993, -9.494563], [-40.77965, -9.496102], [-40.77978, -9.496396], [-40.77978, -9.497571], [-40.77966, -9.498005], [-40.77931, -9.498438], [-40.77928, -9.498984], [-40.77948, -9.501908], [-40.77985, -9.503979], [-40.77944, -9.505042], [-40.77934, -9.506064], [-40.77894, -9.507303], [-40.77712, -9.507358], [-40.77601, -9.507763], [-40.76773, -9.516025], [-40.76674, -9.516808], [-40.76556, -9.517438], [-40.74437, -9.521531]]]}}, 
{"type": "Feature", "properties": {"CD_SETOR": "293077405000026", "CD_SIT": "8", "NM_DIST": "Sobradinho", "NM_SUBDIST": null}, "geometry": {"type": "Polygon", "coordinates": [[[-40.96347, -9.705203], [-40.95984, -9.551185], [-40.94754, -9.545659], [-40.94246, -9.546537], [-40.93521, -9.54433], [-40.92689, -9.543873], [-40.90367, -9.53704], [-40.90248, -9.536165], [-40.89882, -9.532738], [-40.898, -9.532197], [-40.89299, -9.530271], [-40.89016, -9.528774], [-40.88862, -9.527656], [-40.87742, -9.51512], [-40.87113, -9.508309], [-40.85086, -9.485419], [-40.84929, -9.483886], [-40.84745, -9.483], [-40.84365, -9.482185], [-40.82936, -9.481679], [-40.84534, -9.525646], [-40.84717, -9.525478], [-40.85358, -9.524417], [-40.85502, -9.526283], [-40.85981, -9.527317], [-40.86084, -9.527971], [-40.8668, -9.529645], [-40.87168, -9.535139], [-40.88225, -9.555447], [-40.88236, -9.560774], [-40.88246, -9.561119], [-40.88266, -9.561066], [-40.88249, -9.561219], [-40.88651, -9.568608], [-40.89091, -9.580008], [-40.89255, -9.584725], [-40.89232, -9.585433], [-40.9023, -9.60375], [-40.90648, -9.611784], [-40.9088, -9.614893], [-40.9101, -9.615734], [-40.91101, -9.616603], [-40.91191, -9.617959], [-40.91372, -9.621547], [-40.93115, -9.657285], [-40.93232, -9.661766], [-40.93259, -9.663845], [-40.93342, -9.665383], [-40.93457, -9.668203], [-40.93471, -9.669953], [-40.93511, -9.670953], [-40.93586, -9.671969], [-40.93729, -9.676542], [-40.94288, -9.682567], [-40.94418, -9.683322], [-40.94456, -9.683865], [-40.94458, -9.684262], [-40.94306, -9.686794], [-40.94289, -9.68756], [-40.94311, -9.689398], [-40.94423, -9.692318], [-40.94813, -9.70067], [-40.95317, -9.70729], [-40.95337, -9.707617], [-40.95348, -9.708338], [-40.95401, -9.708376], [-40.95505, -9.707631], [-40.95646, -9.707428], [-40.95804, -9.70683], [-40.96088, -9.707252], [-40.96224, -9.706303], [-40.96328, -9.705193], [-40.96347, -9.705203]]]}}, 
{"type": "Feature", "properties": {"CD_SETOR": "293077405000028", "CD_SIT": "8", "NM_DIST": "Sobradinho", "NM_SUBDIST": null}, "geometry": {"type": "Polygon", "coordinates": [[[-40.85818, -9.72628], [-40.85854, -9.728766], [-40.85919, -9.731331], [-40.86038, -9.733931], [-40.86027, -9.735495], [-40.86057, -9.73659], [-40.86192, -9.737755], [-40.86444, -9.738839], [-40.86485, -9.738593], [-40.86519, -9.738991], [-40.86517, -9.73929], [-40.86399, -9.741662], [-40.86381, -9.742435], [-40.86441, -9.745187], [-40.86426, -9.746083], [-40.86481, -9.747155], [-40.86455, -9.747688], [-40.86371, -9.748537], [-40.86176, -9.749556], [-40.86154, -9.750106], [-40.86185, -9.751728], [-40.8616, -9.752068], [-40.86109, -9.752308], [-40.86098, -9.752903], [-40.86285, -9.753758], [-40.8631, -9.754738], [-40.86288, -9.755388], [-40.86292, -9.755734], [-40.86339, -9.756378], [-40.86443, -9.758504], [-40.86536, -9.7593], [-40.86573, -9.760044], [-40.86688, -9.760577], [-40.86705, -9.760788], [-40.86719, -9.761508], [-40.86691, -9.762943], [-40.86713, -9.76378], [-40.86708, -9.764085], [-40.86672, -9.764735], [-40.86591, -9.764822], [-40.86561, -9.765607], [-40.86572, -9.766679], [-40.86603, -9.767218], [-40.86729, -9.767458], [-40.8686, -9.768225], [-40.86874, -9.768389], [-40.86866, -9.768758], [-40.86886, -9.768781], [-40.87011, -9.768547], [-40.87086, -9.768576], [-40.87134, -9.768365], [-40.87254, -9.766901], [-40.87284, -9.767054], [-40.873, -9.76737], [-40.8729, -9.769495], [-40.87343, -9.771311], [-40.87353, -9.773442], [-40.87334, -9.775474], [-40.87296, -9.777284], [-40.87356, -9.779263], [-40.87339, -9.77979], [-40.87269, -9.780563], [-40.87258, -9.781464], [-40.873, -9.782331], [-40.87406, -9.78345], [-40.8744, -9.784474], [-40.87478, -9.784984], [-40.87604, -9.785657], [-40.87605, -9.785909], [-40.87548, -9.786612], [-40.87483, -9.78708], [-40.87355, -9.78876], [-40.87292, -9.789738], [-40.87281, -9.790295], [-40.87295, -9.790453], [-40.87418, -9.790669], [-40.8746, -9.790997], [-40.87531, -9.792678], [-40.87523, -9.793029], [-40.87478, -9.79362], [-40.87568, -9.7943], [-40.8772, -9.79615], [-40.87768, -9.799722], [-40.87749, -9.80019], [-40.87757, -9.8006], [-40.87796, -9.801022], [-40.87902, -9.801408], [-40.87986, -9.801303], [-40.88128, -9.800752], [-40.88208, -9.800823], [-40.8825, -9.800448], [-40.88276, -9.80053], [-40.88296, -9.800752], [-40.88321, -9.801783], [-40.88317, -9.80293], [-40.88338, -9.803293], [-40.88534, -9.804359], [-40.88755, -9.804521], [-40.88936, -9.804886], [-40.88984, -9.805472], [-40.89068, -9.807088], [-40.89151, -9.807779], [-40.89173, -9.809945], [-40.89112, -9.81039], [-40.89056, -9.810308], [-40.89032, -9.810624], [-40.8911, -9.812029], [-40.89121, -9.812591], [-40.89124, -9.813552], [-40.89089, -9.81491], [-40.89093, -9.817428], [-40.89113, -9.817955], [-40.89163, -9.818363], [-40.89179, -9.81885], [-40.89191, -9.821255], [-40.89272, -9.823157], [-40.89272, -9.823569], [-40.89317, -9.82422], [-40.89463, -9.825207], [-40.89484, -9.82555], [-40.89473, -9.826306], [-40.89558, -9.828775], [-40.89569, -9.829633], [-40.89698, -9.831239], [-40.89732, -9.831994], [-40.89875, -9.833154], [-40.89875, -9.833428], [-40.8981, -9.833878], [-40.89789, -9.834497], [-40.89832, -9.83642], [-40.89888, -9.837378], [-40.89936, -9.837444], [-40.89978, -9.837099], [-40.90008, -9.837062], [-40.90043, -9.837404], [-40.90061, -9.838572], [-40.89992, -9.839226], [-40.89979, -9.839754], [-40.90121, -9.840982], [-40.90351, -9.843856], [-40.90418, -9.845568], [-40.90429, -9.846872], [-40.90464, -9.847043], [-40.90671, -9.846859], [-40.90747, -9.847542], [-40.90826, -9.847537], [-40.90907, -9.847155], [-40.91045, -9.846976], [-40.91104, -9.847178], [-40.91261, -9.848818], [-40.91326, -9.849124], [-40.9151, -9.849525], [-40.91603, -9.849177], [-40.91671, -9.84797], [-40.91726, -9.847521], [-40.91844, -9.847652], [-40.91868, -9.848027], [-40.91904, -9.84995], [-40.91953, -9.851149], [-40.92002, -9.853037], [-40.92021, -9.855473], [-40.92101, -9.856534], [-40.92098, -9.8573], [-40.92033, -9.858677], [-40.92017, -9.859641], [-40.92052, -9.86115], [-40.92132, -9.862725], [-40.92226, -9.863956], [-40.9232, -9.864878], [-40.92324, -9.865188], [-40.92307, -9.865429], [-40.92189, -9.865642], [-40.92141, -9.866298], [-40.92132, -9.868119], [-40.92181, -9.868837], [-40.92327, -9.870271], [-40.92272, -9.87127], [-40.92325, -9.872905], [-40.92267, -9.874762], [-40.92278, -9.87617], [-40.92349, -9.877849], [-40.92356, -9.878706], [-40.92426, -9.88011], [-40.92458, -9.88203], [-40.92552, -9.883398], [-40.92757, -9.884795], [-40.92932, -9.88538], [-40.93001, -9.885286], [-40.93034, -9.885473], [-40.93092, -9.886363], [-40.93324, -9.888962], [-40.9337, -9.889887], [-40.93401, -9.891221], [-40.93382, -9.892977], [-40.93483, -9.894944], [-40.93563, -9.895284], [-40.93639, -9.895881], [-40.93667, -9.896911], [-40.9374, -9.898187], [-40.93752, -9.898889], [-40.93708, -9.901032], [-40.9373, -9.902975], [-40.93868, -9.905884], [-40.93895, -9.908893], [-40.93991, -9.910356], [-40.94005, -9.911129], [-40.94089, -9.91244], [-40.94185, -9.913061], [-40.9426, -9.913962], [-40.94237, -9.914944], [-40.94312, -9.914665], [-40.94411, -9.913512], [-40.94408, -9.911779], [-40.94455, -9.907876], [-40.94494, -9.902318], [-40.94494, -9.897365], [-40.94426, -9.89512], [-40.94412, -9.893576], [-40.94459, -9.889595], [-40.94446, -9.885878], [-40.94411, -9.883144], [-40.94457, -9.881278], [-40.94631, -9.882232], [-40.9475, -9.883751], [-40.94918, -9.884177], [-40.95109, -9.885359], [-40.95413, -9.888044], [-40.95651, -9.889249], [-40.95867, -9.890925], [-40.96061, -9.891672], [-40.96181, -9.891144], [-40.96153, -9.887304], [-40.96199, -9.884561], [-40.96338, -9.883839], [-40.96434, -9.884252], [-40.96491, -9.885742], [-40.96601, -9.886466], [-40.96774, -9.886969], [-40.96473, -9.759128], [-40.95607, -9.75572], [-40.95501, -9.755633], [-40.95424, -9.755806], [-40.95407, -9.75572], [-40.95417, -9.754954], [-40.94586, -9.751617], [-40.94277, -9.749653], [-40.94187, -9.749257], [-40.92569, -9.74463], [-40.92297, -9.743147], [-40.92192, -9.744704], [-40.92105, -9.745022], [-40.9203, -9.745696], [-40.91997, -9.745578], [-40.91912, -9.745723], [-40.91924, -9.74515], [-40.91991, -9.744433], [-40.91974, -9.743563], [-40.91942, -9.743406], [-40.89668, -9.742253], [-40.894, -9.73702], [-40.89228, -9.740868], [-40.88234, -9.737588], [-40.86502, -9.71972], [-40.85818, -9.72628]]]}}, 
{"type": "Feature", "properties": {"CD_SETOR": "293077405000029", "CD_SIT": "1", "NM_DIST": "Sobradinho", "NM_SUBDIST": null}, "geometry": {"type": "Polygon", "coordinates": [[[-40.79541, -9.477192], [-40.79542, -9.473281], [-40.78951, -9.473224], [-40.79037, -9.475154], [-40.79168, -9.476431], [-40.79541, -9.477192]]]}}, 
{"type": "Feature", "properties": {"CD_SETOR": "293077405000030", "CD_SIT": "1", "NM_DIST": "Sobradinho", "NM_SUBDIST": null}, "geometry": {"type": "Polygon", "coordinates": [[[-40.80095, -9.480569], [-40.80163, -9.480892], [-40.80246, -9.481589], [-40.80265, -9.481544], [-40.80282, -9.479645], [-40.80264, -9.479261], [-40.80307, -9.478211], [-40.80395, -9.478193], [-40.80395, -9.4766], [-40.80122, -9.476584], [-40.80119, -9.479262], [-40.80095, -9.480569]]]}}, 
{"type": "Feature", "properties": {"CD_SETOR": "293077405000031", "CD_SIT": "1", "NM_DIST": "Sobradinho", "NM_SUBDIST": null}, "geometry": {"type": "Polygon", "coordinates": [[[-40.80395, -9.4766], [-40.80395, -9.478193], [-40.80307, -9.478211], [-40.80264, -9.479261], [-40.80282, -9.479645], [-40.80265, -9.481544], [-40.80305, -9.481466], [-40.8033, -9.481231], [-40.80405, -9.481214], [-40.80519, -9.481853], [-40.8066, -9.481882], [-40.80668, -9.482134], [-40.80698, -9.482175], [-40.80759, -9.482011], [-40.80806, -9.482372], [-40.80812, -9.475005], [-40.80396, -9.47499], [-40.80395, -9.4766]]]}}, 
{"type": "Feature", "properties": {"CD_SETOR": "293077405000032", "CD_SIT": "2", "NM_DIST": "Sobradinho", "NM_SUBDIST": null}, "geometry": {"type": "Polygon", "coordinates": [[[-40.80818, -9.465766], [-40.80813, -9.472828], [-40.80864, -9.473907], [-40.80832, -9.474283], [-40.80894, -9.474216], [-40.81016, -9.474643], [-40.81284, -9.475245], [-40.81512, -9.475506], [-40.81513, -9.475399], [-40.81629, -9.475431], [-40.81631, -9.470991], [-40.81398, -9.471058], [-40.81398, -9.469911], [-40.81631, -9.470117], [-40.81634, -9.469688], [-40.81603, -9.466136], [-40.81563, -9.46514], [-40.81496, -9.458453], [-40.81471, -9.457582], [-40.81247, -9.457231], [-40.81239, -9.457342], [-40.80893, -9.455208], [-40.80823, -9.454945], [-40.80818, -9.465766]]]}}, 
{"type": "Feature", "properties": {"CD_SETOR": "293077405000034", "CD_SIT": "1", "NM_DIST": "Sobradinho", "NM_SUBDIST": null}, "geometry": {"type": "Polygon", "coordinates": [[[-40.79671, -9.459406], [-40.79663, -9.467291], [-40.79891, -9.467316], [-40.79903, -9.458158], [-40.79818, -9.458488], [-40.79671, -9.459406]]]}}, 
{"type": "Feature", "properties": {"CD_SETOR": "293077405000035", "CD_SIT": "3", "NM_DIST": "Sobradinho", "NM_SUBDIST": null}, "geometry": {"type": "Polygon", "coordinates": [[[-40.79612, -9.497638], [-40.79761, -9.500423], [-40.79912, -9.499651], [-40.79779, -9.496534], [-40.79612, -9.497638]]]}}, 
{"type": "Feature", "properties": {"CD_SETOR": "293077405000036", "CD_SIT": "3", "NM_DIST": "Sobradinho", "NM_SUBDIST": null}, "geometry": {"type": "Polygon", "coordinates": [[[-40.79761, -9.500423], [-40.79881, -9.502819], [-40.80017, -9.502204], [-40.79912, -9.499651], [-40.79761, -9.500423]]]}}, 
{"type": "Feature", "properties": {"CD_SETOR": "293077405000037", "CD_SIT": "3", "NM_DIST": "Sobradinho", "NM_SUBDIST": null}, "geometry": {"type": "Polygon", "coordinates": [[[-40.80017, -9.502204], [-40.79881, -9.502819], [-40.79894, -9.502982], [-40.7982, -9.503306], [-40.79882, -9.504444], [-40.80042, -9.50376], [-40.80029, -9.503418], [-40.80456, -9.50171], [-40.80439, -9.500772], [-40.80091, -9.502267], [-40.80044, -9.50237], [-40.80017, -9.502204]]]}}, 
{"type": "Feature", "properties": {"CD_SETOR": "293077405000038", "CD_SIT": "3", "NM_DIST": "Sobradinho", "NM_SUBDIST": null}, "geometry": {"type": "Polygon", "coordinates": [[[-40.79882, -9.504444], [-40.79927, -9.505398], [-40.80423, -9.503343], [-40.80488, -9.503029], [-40.80461, -9.502486], [-40.80456, -9.50171], [-40.80029, -9.503418], [-40.80042, -9.50376], [-40.79882, -9.504444]]]}}, 
{"type": "Feature", "properties": {"CD_SETOR": "293077405000039", "CD_SIT": "2", "NM_DIST": "Sobradinho", "NM_SUBDIST": null}, "geometry": {"type": "Polygon", "coordinates": [[[-40.79534, -9.484249], [-40.79528, -9.496819], [-40.79534, -9.497361], [-40.79571, -9.497917], [-40.80411, -9.492344], [-40.80932, -9.489368], [-40.80844, -9.489315], [-40.808, -9.488676], [-40.80806, -9.482372], [-40.8078, -9.482134], [-40.80759, -9.482011], [-40.80698, -9.482175], [-40.80668, -9.482134], [-40.8066, -9.481882], [-40.80519, -9.481853], [-40.80405, -9.481214], [-40.8033, -9.481231], [-40.80305, -9.481466], [-40.80246, -9.481589], [-40.80147, -9.480786], [-40.80082, -9.480528], [-40.80034, -9.479567], [-40.79939, -9.478746], [-40.7968, -9.478055], [-40.79541, -9.477192], [-40.79534, -9.484249]]]}}, 
{"type": "Feature", "properties": {"CD_SETOR": "293077405000040", "CD_SIT": "2", "NM_DIST": "Sobradinho", "NM_SUBDIST": null}, "geometry": {"type": "Polygon", "coordinates": [[[-40.79002, -9.48296], [-40.79061, -9.485838], [-40.79534, -9.484249], [-40.79541, -9.477192], [-40.79168, -9.476431], [-40.79037, -9.475154], [-40.78994, -9.473952], [-40.78925, -9.472721], [-40.78865, -9.472036], [-40.78855, -9.471664], [-40.78823, -9.471829], [-40.78725, -9.471637], [-40.7867, -9.471747], [-40.78309, -9.474685], [-40.78795, -9.479995], [-40.7879, -9.480217], [-40.78954, -9.482104], [-40.79002, -9.48296]]]}}, 
{"type": "Feature", "properties": {"CD_SETOR": "293077405000041", "CD_SIT": "9", "NM_DIST": "Sobradinho", "NM_SUBDIST": null}, "geometry": {"type": "Polygon", "coordinates": [[[-40.86486, -9.393626], [-40.86312, -9.394097], [-40.86206, -9.395291], [-40.86143, -9.39796], [-40.86066, -9.399716], [-40.85848, -9.402877], [-40.85672, -9.404633], [-40.85261, -9.409679], [-40.84602, -9.41396], [-40.8393, -9.421082], [-40.83786, -9.422866], [-40.83406, -9.425484], [-40.83022, -9.427459], [-40.81471, -9.433215], [-40.8056, -9.439104], [-40.79489, -9.445471], [-40.79108, -9.447192], [-40.78518, -9.44951], [-40.77957, -9.44974], [-40.77423, -9.44844], [-40.76716, -9.445412], [-40.76729, -9.445704], [-40.76959, -9.447443], [-40.77685, -9.454534], [-40.77863, -9.455425], [-40.7805, -9.456035], [-40.78191, -9.455917], [-40.7838, -9.455226], [-40.78575, -9.455349], [-40.80043, -9.447398], [-40.80372, -9.446774], [-40.80543, -9.446152], [-40.80751, -9.445097], [-40.80785, -9.444863], [-40.80787, -9.444664], [-40.80863, -9.444476], [-40.80886, -9.443988], [-40.81076, -9.44263], [-40.81064, -9.442126], [-40.81094, -9.442003], [-40.8113, -9.442554], [-40.81214, -9.441229], [-40.81172, -9.43964], [-40.82099, -9.435021], [-40.82522, -9.434459], [-40.82961, -9.432724], [-40.83258, -9.437647], [-40.83358, -9.441493], [-40.8407, -9.453057], [-40.84209, -9.451058], [-40.84442, -9.452606], [-40.84917, -9.458045], [-40.85012, -9.458045], [-40.85146, -9.458889], [-40.85203, -9.459592], [-40.85244, -9.461515], [-40.85269, -9.461913], [-40.8532, -9.461538], [-40.85305, -9.460987], [-40.85414, -9.460788], [-40.85384, -9.459803], [-40.85421, -9.45978], [-40.85453, -9.456744], [-40.85308, -9.452324], [-40.85136, -9.451398], [-40.85094, -9.447166], [-40.85182, -9.441704], [-40.85039, -9.43739], [-40.8506, -9.435385], [-40.85219, -9.434365], [-40.85289, -9.434166], [-40.85451, -9.435619], [-40.85563, -9.437085], [-40.85685, -9.438304], [-40.85932, -9.439535], [-40.86132, -9.441727], [-40.86184, -9.438597], [-40.86341, -9.437179], [-40.86387, -9.43501], [-40.86415, -9.434986], [-40.87293, -9.453532], [-40.87398, -9.453719], [-40.8754, -9.455642], [-40.87711, -9.456252], [-40.87379, -9.447717], [-40.87241, -9.44556], [-40.87131, -9.441153], [-40.86884, -9.434306], [-40.87692, -9.441997], [-40.88044, -9.441434], [-40.88605, -9.446123], [-40.88377, -9.438527], [-40.88177, -9.436182], [-40.87959, -9.429242], [-40.88885, -9.426194], [-40.89242, -9.426757], [-40.89052, -9.429336], [-40.89318, -9.43018], [-40.89451, -9.429101], [-40.8957, -9.430133], [-40.8957, -9.435948], [-40.90036, -9.436651], [-40.90003, -9.43032], [-40.90331, -9.431587], [-40.90107, -9.418784], [-40.90635, -9.417143], [-40.91015, -9.417143], [-40.91305, -9.418222], [-40.91343, -9.426475], [-40.91248, -9.427601], [-40.91053, -9.428304], [-40.91129, -9.429101], [-40.91334, -9.430133], [-40.914, -9.435197], [-40.91543, -9.431962], [-40.92527, -9.440355], [-40.92669, -9.438152], [-40.92988, -9.439089], [-40.93016, -9.440496], [-40.93306, -9.440355], [-40.9334, -9.441575], [-40.93416, -9.4412], [-40.93634, -9.438011], [-40.93862, -9.437026], [-40.94271, -9.436698], [-40.94685, -9.440778], [-40.94808, -9.446451], [-40.94747, -9.447952], [-40.9487, -9.45039], [-40.94975, -9.449312], [-40.95132, -9.450484], [-40.9526, -9.453016], [-40.95193, -9.457986], [-40.95013, -9.459862], [-40.95098, -9.46727], [-40.95327, -9.466708], [-40.95625, -9.473645], [-40.95535, -9.474552], [-40.95497, -9.475204], [-40.9543, -9.477109], [-40.95396, -9.478595], [-40.95383, -9.480265], [-40.95336, -9.482652], [-40.95297, -9.485889], [-40.95302, -9.48796], [-40.95335, -9.489556], [-40.95484, -9.492424], [-40.95515, -9.493297], [-40.95713, -9.491306], [-40.95733, -9.490939], [-40.95695, -9.490885], [-40.95674, -9.490407], [-40.95685, -9.489659], [-40.95642, -9.488991], [-40.95588, -9.488718], [-40.95535, -9.487342], [-40.95606, -9.487323], [-40.95609, -9.48688], [-40.9565, -9.486442], [-40.95714, -9.486491], [-40.95702, -9.48364], [-40.95731, -9.48275], [-40.95723, -9.482455], [-40.95642, -9.482186], [-40.95614, -9.481904], [-40.95611, -9.481362], [-40.95662, -9.480111], [-40.95752, -9.479499], [-40.95774, -9.478948], [-40.95815, -9.478844], [-40.95837, -9.479024], [-40.95879, -9.478671], [-40.95902, -9.479313], [-40.9594, -9.479386], [-40.96123, -9.478962], [-40.96183, -9.478329], [-40.96194, -9.477917], [-40.96345, -9.476893], [-40.96419, -9.476699], [-40.96588, -9.476726], [-40.96644, -9.476963], [-40.96696, -9.476457], [-40.96813, -9.476527], [-40.96847, -9.476913], [-40.96859, -9.477462], [-40.96924, -9.477506], [-40.96954, -9.478206], [-40.96984, -9.478264], [-40.97025, -9.479136], [-40.97035, -9.480227], [-40.97075, -9.481243], [-40.97172, -9.480588], [-40.97167, -9.479177], [-40.97125, -9.478502], [-40.97142, -9.477981], [-40.97117, -9.477817], [-40.97154, -9.47769], [-40.97192, -9.477173], [-40.97162, -9.476989], [-40.97157, -9.476556], [-40.96984, -9.475733], [-40.96925, -9.474965], [-40.96887, -9.474891], [-40.96847, -9.473925], [-40.96818, -9.473712], [-40.96789, -9.473147], [-40.96743, -9.472888], [-40.96728, -9.471893], [-40.96676, -9.471786], [-40.96631, -9.472193], [-40.96592, -9.472265], [-40.96529, -9.472141], [-40.96541, -9.471499], [-40.96503, -9.471362], [-40.96492, -9.471112], [-40.9649, -9.470425], [-40.96522, -9.469555], [-40.96497, -9.468992], [-40.96475, -9.468872], [-40.96469, -9.468483], [-40.96314, -9.469066], [-40.96274, -9.468942], [-40.9626, -9.468474], [-40.96315, -9.467538], [-40.9644, -9.468315], [-40.96468, -9.468123], [-40.9648, -9.467737], [-40.9647, -9.466944], [-40.96487, -9.46624], [-40.96465, -9.465723], [-40.96374, -9.465507], [-40.96343, -9.464921], [-40.9625, -9.465789], [-40.96192, -9.464879], [-40.96218, -9.464461], [-40.96368, -9.4641], [-40.96323, -9.463431], [-40.96192, -9.46318], [-40.96162, -9.462576], [-40.96326, -9.460852], [-40.96326, -9.459276], [-40.9641, -9.457927], [-40.96442, -9.45558], [-40.96507, -9.454877], [-40.96512, -9.453859], [-40.96627, -9.453135], [-40.96657, -9.45229], [-40.96725, -9.452215], [-40.96684, -9.453774], [-40.96762, -9.453994], [-40.96875, -9.457009], [-40.9701, -9.457693], [-40.97103, -9.460508], [-40.97118, -9.461788], [-40.97175, -9.461561], [-40.97264, -9.462835], [-40.9733, -9.463425], [-40.97386, -9.464871], [-40.97661, -9.466463], [-40.98055, -9.467177], [-40.98166, -9.46833], [-40.98168, -9.469657], [-40.98236, -9.47045], [-40.98285, -9.469717], [-40.98261, -9.468769], [-40.98321, -9.467829], [-40.98402, -9.467614], [-40.98446, -9.468463], [-40.98565, -9.46825], [-40.98633, -9.467861], [-40.98747, -9.467898], [-40.9888, -9.467225], [-40.99039, -9.467794], [-40.99077, -9.467183], [-40.99153, -9.467107], [-40.99242, -9.466766], [-40.99211, -9.467943], [-40.9932, -9.467868], [-40.99383, -9.468845], [-40.99423, -9.468885], [-40.99469, -9.467757], [-40.9951, -9.46757], [-40.99574, -9.467796], [-40.99541, -9.468386], [-40.99563, -9.468945], [-40.99687, -9.470019], [-40.99724, -9.471262], [-40.99667, -9.472245], [-40.99615, -9.472575], [-40.99596, -9.473404], [-40.9964, -9.474179], [-40.99717, -9.474584], [-40.99938, -9.474298], [-40.99961, -9.472527], [-41.00038, -9.471209], [-41.00075, -9.469548], [-41.00015, -9.46923], [-41.00067, -9.467707], [-41.00087, -9.466457], [-41.00095, -9.467119], [-41.00147, -9.467898], [-41.00294, -9.465587], [-41.00541, -9.466688], [-41.00672, -9.466997], [-40.95378, -9.397915], [-40.94749, -9.396732], [-40.9345, -9.393967], [-40.93271, -9.394061], [-40.93119, -9.395881], [-40.91817, -9.396808], [-40.90917, -9.397035], [-40.90265, -9.39674], [-40.88734, -9.393772], [-40.87962, -9.393035], [-40.87218, -9.392681], [-40.8688, -9.392847], [-40.86486, -9.393626]]]}}, 
{"type": "Feature", "properties": {"CD_SETOR": "293077405000042", "CD_SIT": "2", "NM_DIST": "Sobradinho", "NM_SUBDIST": null}, "geometry": {"type": "Polygon", "coordinates": [[[-40.80785, -9.444863], [-40.80869, -9.446467], [-40.80838, -9.447068], [-40.8082, -9.448082], [-40.8078, -9.448652], [-40.80825, -9.44949], [-40.80823, -9.454945], [-40.80893, -9.455208], [-40.81239, -9.457342], [-40.81247, -9.457231], [-40.8147, -9.457582], [-40.8157, -9.457553], [-40.8157, -9.457412], [-40.81721, -9.45743], [-40.81898, -9.45786], [-40.82087, -9.458432], [-40.82103, -9.458842], [-40.82212, -9.459804], [-40.82211, -9.460179], [-40.83118, -9.455349], [-40.83153, -9.456371], [-40.83161, -9.457728], [-40.83132, -9.461408], [-40.83142, -9.461786], [-40.83202, -9.462374], [-40.83237, -9.463171], [-40.83236, -9.464431], [-40.83175, -9.465606], [-40.83146, -9.466935], [-40.83229, -9.467733], [-40.8322, -9.468097], [-40.83182, -9.468251], [-40.83176, -9.468446], [-40.83213, -9.469174], [-40.83215, -9.469754], [-40.8407, -9.45696], [-40.84085, -9.4562], [-40.84077, -9.455609], [-40.83987, -9.453978], [-40.8407, -9.453057], [-40.83358, -9.441493], [-40.83258, -9.437647], [-40.82961, -9.432724], [-40.82522, -9.434459], [-40.82099, -9.435021], [-40.81172, -9.43964], [-40.81214, -9.441229], [-40.8113, -9.442554], [-40.81094, -9.442003], [-40.81064, -9.442126], [-40.81076, -9.44263], [-40.80886, -9.443988], [-40.80863, -9.444476], [-40.80787, -9.444664], [-40.80785, -9.444863]]]}}, 
{"type": "Feature", "properties": {"CD_SETOR": "293077405000043", "CD_SIT": "2", "NM_DIST": "Sobradinho", "NM_SUBDIST": null}, "geometry": {"type": "Polygon", "coordinates": [[[-40.78575, -9.455349], [-40.78581, -9.458307], [-40.78573, -9.458859], [-40.78537, -9.459593], [-40.78639, -9.460085], [-40.78733, -9.46012], [-40.78846, -9.459651], [-40.78941, -9.460478], [-40.79023, -9.460407], [-40.79039, -9.460554], [-40.79122, -9.460472], [-40.7917, -9.460091], [-40.79252, -9.460041], [-40.79341, -9.461237], [-40.79517, -9.460727], [-40.79566, -9.460322], [-40.79577, -9.459953], [-40.79885, -9.458183], [-40.80055, -9.458042], [-40.80208, -9.45736], [-40.80407, -9.457313], [-40.80506, -9.456809], [-40.80523, -9.456574], [-40.80718, -9.455777], [-40.80782, -9.454986], [-40.80823, -9.454945], [-40.80825, -9.44949], [-40.8078, -9.448652], [-40.8082, -9.448082], [-40.80838, -9.447068], [-40.80869, -9.446467], [-40.80785, -9.444863], [-40.80543, -9.446152], [-40.80372, -9.446774], [-40.80043, -9.447398], [-40.78575, -9.455349]]]}}, 
{"type": "Feature", "properties": {"CD_SETOR": "293077405000044", "CD_SIT": "1", "NM_DIST": "Sobradinho", "NM_SUBDIST": null}, "geometry": {"type": "Polygon", "coordinates": [[[-40.80356, -9.467008], [-40.80348, -9.471381], [-40.80754, -9.473655], [-40.80812, -9.474714], [-40.80864, -9.473907], [-40.80813, -9.472828], [-40.80818, -9.465766], [-40.80745, -9.465741], [-40.8074, -9.467036], [-40.80356, -9.467008]]]}}, 
{"type": "Feature", "properties": {"CD_SETOR": "293077405000045", "CD_SIT": "2", "NM_DIST": "Sobradinho", "NM_SUBDIST": null}, "geometry": {"type": "Polygon", "coordinates": [[[-40.80364, -9.457324], [-40.80369, -9.464031], [-40.80356, -9.467008], [-40.8074, -9.467036], [-40.80745, -9.465741], [-40.80818, -9.465766], [-40.80823, -9.454945], [-40.80782, -9.454986], [-40.80718, -9.455777], [-40.80523, -9.456574], [-40.80506, -9.456809], [-40.80407, -9.457313], [-40.80364, -9.457324]]]}}, 
{"type": "Feature", "properties": {"CD_SETOR": "293077405000046", "CD_SIT": "8", "NM_DIST": "Sobradinho", "NM_SUBDIST": null}, "geometry": {"type": "Polygon", "coordinates": [[[-40.95515, -9.493297], [-40.95549, -9.494596], [-40.9565, -9.496527], [-40.95762, -9.500191], [-40.95854, -9.50523], [-40.95878, -9.505777], [-40.95985, -9.551227], [-40.96127, -9.551777], [-40.96357, -9.552272], [-40.96464, -9.553059], [-40.96445, -9.55268], [-40.96715, -9.552577], [-40.96855, -9.551744], [-40.97026, -9.550078], [-40.9703, -9.543946], [-40.97205, -9.540675], [-40.97526, -9.537579], [-40.97694, -9.534915], [-40.97734, -9.530068], [-40.97736, -9.526315], [-40.983, -9.520161], [-40.98352, -9.518415], [-40.98828, -9.517198], [-40.98915, -9.513979], [-40.99071, -9.511749], [-40.99122, -9.508439], [-40.99445, -9.50675], [-40.99511, -9.50674], [-41.00472, -9.491736], [-41.00425, -9.490617], [-41.00349, -9.487578], [-41.00325, -9.485371], [-41.00366, -9.483039], [-41.00297, -9.481152], [-41.00336, -9.479959], [-41.004, -9.478717], [-41.0044, -9.477023], [-41.00548, -9.475362], [-41.00568, -9.473917], [-41.00618, -9.472539], [-41.00635, -9.471193], [-41.00706, -9.46995], [-41.00742, -9.467905], [-41.00672, -9.466997], [-41.00541, -9.466688], [-41.00294, -9.465587], [-41.00147, -9.467898], [-41.00095, -9.467119], [-41.00087, -9.466457], [-41.00067, -9.467707], [-41.00015, -9.46923], [-41.00075, -9.469548], [-41.00038, -9.471209], [-40.99961, -9.472527], [-40.99938, -9.474298], [-40.99717, -9.474584], [-40.9964, -9.474179], [-40.99596, -9.473404], [-40.99615, -9.472575], [-40.99667, -9.472245], [-40.99724, -9.471262], [-40.99687, -9.470019], [-40.99563, -9.468945], [-40.99541, -9.468386], [-40.99574, -9.467796], [-40.9951, -9.46757], [-40.99469, -9.467757], [-40.99423, -9.468885], [-40.99383, -9.468845], [-40.9932, -9.467868], [-40.99211, -9.467943], [-40.99242, -9.466766], [-40.99153, -9.467107], [-40.99077, -9.467183], [-40.99039, -9.467794], [-40.9888, -9.467225], [-40.98747, -9.467898], [-40.98633, -9.467861], [-40.98565, -9.46825], [-40.98446, -9.468463], [-40.98402, -9.467614], [-40.98321, -9.467829], [-40.98261, -9.468769], [-40.98285, -9.469717], [-40.98236, -9.47045], [-40.98168, -9.469657], [-40.98166, -9.46833], [-40.98055, -9.467177], [-40.97661, -9.466463], [-40.97386, -9.464871], [-40.9733, -9.463425], [-40.97264, -9.462835], [-40.97175, -9.461561], [-40.97118, -9.461788], [-40.97103, -9.460508], [-40.9701, -9.457693], [-40.96875, -9.457009], [-40.96762, -9.453994], [-40.96684, -9.453774], [-40.96725, -9.452215], [-40.96657, -9.45229], [-40.96627, -9.453135], [-40.96512, -9.453859], [-40.96507, -9.454877], [-40.96442, -9.45558], [-40.9641, -9.457927], [-40.96326, -9.459276], [-40.96326, -9.460852], [-40.96162, -9.462576], [-40.96192, -9.46318], [-40.96323, -9.463431], [-40.96368, -9.4641], [-40.96218, -9.464461], [-40.96192, -9.464879], [-40.9625, -9.465789], [-40.96343, -9.464921], [-40.96374, -9.465507], [-40.96465, -9.465723], [-40.96487, -9.46624], [-40.9647, -9.466944], [-40.9648, -9.467737], [-40.96468, -9.468123], [-40.9644, -9.468315], [-40.96315, -9.467538], [-40.9626, -9.468474], [-40.96274, -9.468942], [-40.96314, -9.469066], [-40.96469, -9.468483], [-40.96475, -9.468872], [-40.96497, -9.468992], [-40.96522, -9.469555], [-40.9649, -9.470425], [-40.96492, -9.471112], [-40.96503, -9.471362], [-40.96541, -9.471499], [-40.96529, -9.472141], [-40.96592, -9.472265], [-40.96631, -9.472193], [-40.96676, -9.471786], [-40.96728, -9.471893], [-40.96743, -9.472888], [-40.96789, -9.473147], [-40.96818, -9.473712], [-40.96847, -9.473925], [-40.96887, -9.474891], [-40.96925, -9.474965], [-40.96984, -9.475733], [-40.97157, -9.476556], [-40.97162, -9.476989], [-40.97192, -9.477173], [-40.97154, -9.47769], [-40.97117, -9.477817], [-40.97142, -9.477981], [-40.97125, -9.478502], [-40.97167, -9.479177], [-40.97172, -9.480588], [-40.97075, -9.481243], [-40.97035, -9.480227], [-40.97025, -9.479136], [-40.96984, -9.478264], [-40.96954, -9.478206], [-40.96924, -9.477506], [-40.96859, -9.477462], [-40.96847, -9.476913], [-40.96813, -9.476527], [-40.96696, -9.476457], [-40.96644, -9.476963], [-40.96588, -9.476726], [-40.96419, -9.476699], [-40.96345, -9.476893], [-40.96194, -9.477917], [-40.96183, -9.478329], [-40.96123, -9.478962], [-40.9594, -9.479386], [-40.95902, -9.479313], [-40.95879, -9.478671], [-40.95837, -9.479024], [-40.95815, -9.478844], [-40.95774, -9.478948], [-40.95752, -9.479499], [-40.95662, -9.480111], [-40.95611, -9.481362], [-40.95614, -9.481904], [-40.95642, -9.482186], [-40.95723, -9.482455], [-40.95731, -9.48275], [-40.95702, -9.48364], [-40.95714, -9.486491], [-40.9565, -9.486442], [-40.95609, -9.48688], [-40.95606, -9.487323], [-40.95535, -9.487342], [-40.95588, -9.488718], [-40.95642, -9.488991], [-40.95685, -9.489659], [-40.95674, -9.490407], [-40.95695, -9.490885], [-40.95733, -9.490939], [-40.95713, -9.491306], [-40.95515, -9.493297]], [[-40.96617, -9.482738], [-40.96762, -9.482544], [-40.96807, -9.482117], [-40.96838, -9.484237], [-40.96823, -9.484279], [-40.96854, -9.485264], [-40.96831, -9.485258], [-40.96867, -9.486024], [-40.96846, -9.48653], [-40.96769, -9.486495], [-40.9672, -9.48667], [-40.9669, -9.486541], [-40.96678, -9.486729], [-40.96614, -9.486225], [-40.96539, -9.486143], [-40.96508, -9.485838], [-40.965, -9.485281], [-40.96536, -9.485152], [-40.96533, -9.484467], [-40.96544, -9.484484], [-40.96527, -9.482269], [-40.96561, -9.482709], [-40.96617, -9.482738]]]}}, 
{"type": "Feature", "properties": {"CD_SETOR": "293077405000047", "CD_SIT": "5", "NM_DIST": "Sobradinho", "NM_SUBDIST": null}, "geometry": {"type": "Polygon", "coordinates": [[[-40.96617, -9.482738], [-40.96561, -9.482709], [-40.96527, -9.482269], [-40.96544, -9.484484], [-40.96533, -9.484467], [-40.96536, -9.485152], [-40.965, -9.485281], [-40.96508, -9.485838], [-40.96539, -9.486143], [-40.96614, -9.486225], [-40.96678, -9.486729], [-40.9669, -9.486541], [-40.9672, -9.48667], [-40.96769, -9.486495], [-40.96846, -9.48653], [-40.96867, -9.486024], [-40.96831, -9.485258], [-40.96854, -9.485264], [-40.96823, -9.484279], [-40.96838, -9.484237], [-40.96807, -9.482117], [-40.96762, -9.482544], [-40.96617, -9.482738]]]}}, 
{"type": "Feature", "properties": {"CD_SETOR": "293077405000048", "CD_SIT": "8", "NM_DIST": "Sobradinho", "NM_SUBDIST": null}, "geometry": {"type": "Polygon", "coordinates": [[[-40.96347, -9.705203], [-40.96356, -9.709156], [-40.96519, -9.70962], [-40.96911, -9.709831], [-40.97465, -9.608092], [-40.97818, -9.610256], [-40.98068, -9.609435], [-40.98157, -9.60865], [-40.98369, -9.602455], [-40.98449, -9.594057], [-40.98445, -9.592237], [-40.98461, -9.590218], [-40.98432, -9.587427], [-40.98278, -9.585421], [-40.98038, -9.583705], [-40.96464, -9.553059], [-40.96357, -9.552272], [-40.96127, -9.551777], [-40.95985, -9.551227], [-40.96347, -9.705203]]]}}, 
{"type": "Feature", "properties": {"CD_SETOR": "293077405000049", "CD_SIT": "8", "NM_DIST": "Sobradinho", "NM_SUBDIST": null}, "geometry": {"type": "Polygon", "coordinates": [[[-40.96473, -9.759128], [-40.96713, -9.75975], [-40.96924, -9.759679], [-40.96987, -9.7595], [-40.97012, -9.759203], [-40.97029, -9.758025], [-40.97724, -9.762489], [-40.97838, -9.763484], [-40.9821, -9.764617], [-40.98362, -9.764083], [-40.9834, -9.768848], [-40.98363, -9.769697], [-40.98367, -9.771094], [-40.98323, -9.771729], [-40.98307, -9.773159], [-40.98337, -9.774063], [-40.98554, -9.777239], [-40.98679, -9.779407], [-40.98713, -9.782598], [-40.98696, -9.784805], [-40.9878, -9.791964], [-40.98743, -9.794869], [-40.98973, -9.797692], [-40.99125, -9.800182], [-40.99173, -9.801752], [-40.99236, -9.802579], [-40.99284, -9.804767], [-40.99284, -9.806112], [-40.99256, -9.806914], [-40.99379, -9.80804], [-40.99497, -9.809557], [-40.99475, -9.811013], [-40.99544, -9.813984], [-40.9974, -9.821902], [-41.0014, -9.836247], [-41.00188, -9.836931], [-41.00359, -9.841149], [-41.00425, -9.841671], [-41.00525, -9.841867], [-41.00536, -9.842641], [-41.00608, -9.84415], [-41.00669, -9.845983], [-41.00668, -9.846461], [-41.00447, -9.84768], [-41.00111, -9.852108], [-41.00126, -9.8536], [-41.00223, -9.856758], [-41.00247, -9.857137], [-41.00484, -9.859142], [-41.00544, -9.859293], [-41.00736, -9.858721], [-41.00869, -9.857983], [-41.01056, -9.858766], [-41.01603, -9.85614], [-41.01924, -9.858365], [-41.02076, -9.858812], [-41.02389, -9.858529], [-41.02432, -9.858694], [-41.02767, -9.857352], [-41.02898, -9.858094], [-41.02966, -9.856999], [-41.02965, -9.856434], [-41.02998, -9.85601], [-41.02968, -9.855728], [-41.03052, -9.855645], [-41.03156, -9.85601], [-41.03184, -9.855963], [-41.03183, -9.855833], [-41.03247, -9.855504], [-41.0341, -9.854833], [-41.03454, -9.853903], [-41.03489, -9.853573], [-41.03652, -9.852266], [-41.03854, -9.850971], [-41.03919, -9.850359], [-41.03947, -9.849982], [-41.0397, -9.849041], [-41.04047, -9.849041], [-41.04093, -9.848205], [-41.04143, -9.847981], [-41.04259, -9.848264], [-41.04365, -9.848019], [-41.04446, -9.846131], [-41.04513, -9.84531], [-41.04551, -9.844987], [-41.0462, -9.844748], [-41.04864, -9.842399], [-41.04487, -9.838412], [-41.04026, -9.834079], [-41.03646, -9.831265], [-41.02988, -9.822834], [-41.02808, -9.81977], [-41.02958, -9.816132], [-41.03387, -9.812675], [-41.03426, -9.806684], [-41.03098, -9.803503], [-41.02585, -9.800961], [-41.02039, -9.798995], [-41.01569, -9.79687], [-41.01227, -9.792301], [-41.00847, -9.788529], [-41.00504, -9.786307], [-40.99956, -9.780873], [-40.99558, -9.777204], [-40.99191, -9.771616], [-40.98503, -9.7622], [-40.98189, -9.759307], [-40.97915, -9.756025], [-40.9759, -9.75132], [-40.97366, -9.74436], [-40.97025, -9.740726], [-40.96763, -9.73708], [-40.96911, -9.709831], [-40.96519, -9.70962], [-40.96356, -9.709156], [-40.96473, -9.759128]]]}}, 
{"type": "Feature", "properties": {"CD_SETOR": "293077405000050", "CD_SIT": "8", "NM_DIST": "Sobradinho", "NM_SUBDIST": null}, "geometry": {"type": "Polygon", "coordinates": [[[-40.96473, -9.759181], [-40.96774, -9.886969], [-40.97473, -9.891412], [-40.97805, -9.892507], [-40.98196, -9.892728], [-40.98349, -9.893949], [-40.98676, -9.897083], [-40.98877, -9.897754], [-40.98988, -9.897854], [-40.99091, -9.897582], [-40.99219, -9.896869], [-40.99307, -9.895969], [-40.99332, -9.894727], [-40.99412, -9.892528], [-40.99566, -9.887288], [-40.99635, -9.886185], [-40.99679, -9.886118], [-40.99771, -9.887045], [-40.99922, -9.889059], [-41.00419, -9.895013], [-41.00819, -9.90026], [-41.00867, -9.901228], [-41.01064, -9.903155], [-41.01248, -9.9077], [-41.01324, -9.909128], [-41.01557, -9.910627], [-41.01812, -9.910817], [-41.02128, -9.909603], [-41.02499, -9.910841], [-41.0296, -9.912135], [-41.03277, -9.914981], [-41.03361, -9.918978], [-41.03394, -9.921596], [-41.03616, -9.925287], [-41.0381, -9.926878], [-41.04014, -9.92749], [-41.04259, -9.92751], [-41.04377, -9.926706], [-41.04518, -9.924866], [-41.04616, -9.924178], [-41.04823, -9.923476], [-41.04992, -9.923094], [-41.05133, -9.922429], [-41.05267, -9.921139], [-41.05358, -9.920759], [-41.05414, -9.919592], [-41.05491, -9.918644], [-41.05497, -9.918374], [-41.05494, -9.917602], [-41.05308, -9.910466], [-41.05057, -9.905868], [-41.05136, -9.902467], [-41.05344, -9.896827], [-41.05525, -9.894447], [-41.05528, -9.894037], [-41.05457, -9.891197], [-41.05427, -9.890537], [-41.05418, -9.889562], [-41.05348, -9.888009], [-41.05338, -9.886555], [-41.05307, -9.886126], [-41.05284, -9.885316], [-41.05281, -9.884672], [-41.05314, -9.883185], [-41.05098, -9.878163], [-41.05006, -9.877056], [-41.05001, -9.87656], [-41.05054, -9.875255], [-41.05026, -9.873289], [-41.05066, -9.872298], [-41.05046, -9.870976], [-41.05089, -9.870563], [-41.05101, -9.869803], [-41.05084, -9.869324], [-41.04912, -9.868168], [-41.04883, -9.867639], [-41.04915, -9.866681], [-41.0491, -9.866202], [-41.04831, -9.865293], [-41.04843, -9.863723], [-41.04669, -9.86151], [-41.04684, -9.860122], [-41.04674, -9.859775], [-41.04612, -9.859477], [-41.04578, -9.859081], [-41.04742, -9.858684], [-41.04759, -9.857445], [-41.04731, -9.855496], [-41.04612, -9.852687], [-41.04603, -9.85196], [-41.0463, -9.851448], [-41.0462, -9.850217], [-41.04526, -9.84868], [-41.04436, -9.848705], [-41.04365, -9.848019], [-41.04259, -9.848264], [-41.04143, -9.847981], [-41.04093, -9.848205], [-41.04047, -9.849041], [-41.0397, -9.849041], [-41.03947, -9.849982], [-41.03854, -9.850971], [-41.03652, -9.852266], [-41.03454, -9.853903], [-41.0341, -9.854833], [-41.03247, -9.855504], [-41.03183, -9.855833], [-41.03184, -9.855963], [-41.03156, -9.85601], [-41.03052, -9.855645], [-41.02968, -9.855728], [-41.02998, -9.85601], [-41.02965, -9.856434], [-41.02966, -9.856999], [-41.02898, -9.858094], [-41.02767, -9.857352], [-41.02432, -9.858694], [-41.02389, -9.858529], [-41.02076, -9.858812], [-41.01924, -9.858365], [-41.01603, -9.85614], [-41.01056, -9.858766], [-41.00869, -9.857983], [-41.00736, -9.858721], [-41.00544, -9.859293], [-41.00484, -9.859142], [-41.00247, -9.857137], [-41.00223, -9.856758], [-41.00126, -9.8536], [-41.00111, -9.852108], [-41.00447, -9.84768], [-41.00668, -9.846461], [-41.00669, -9.845983], [-41.00608, -9.84415], [-41.00536, -9.842641], [-41.00525, -9.841867], [-41.00425, -9.841671], [-41.00359, -9.841149], [-41.00188, -9.836931], [-41.0014, -9.836247], [-40.9974, -9.821902], [-40.99544, -9.813984], [-40.99475, -9.811013], [-40.99497, -9.809557], [-40.99379, -9.80804], [-40.99256, -9.806914], [-40.99284, -9.806112], [-40.99284, -9.804767], [-40.99236, -9.802579], [-40.99173, -9.801752], [-40.99125, -9.800182], [-40.98973, -9.797692], [-40.98743, -9.794869], [-40.9878, -9.791964], [-40.98696, -9.784805], [-40.98713, -9.782598], [-40.98679, -9.779407], [-40.98554, -9.777239], [-40.98337, -9.774063], [-40.98307, -9.773159], [-40.98323, -9.771729], [-40.98367, -9.771094], [-40.98363, -9.769697], [-40.9834, -9.768848], [-40.98362, -9.764083], [-40.9821, -9.764617], [-40.97838, -9.763484], [-40.97724, -9.762489], [-40.97029, -9.758025], [-40.97012, -9.759203], [-40.96987, -9.7595], [-40.96924, -9.759679], [-40.96713, -9.75975], [-40.96473, -9.759181]]]}}, 
{"type": "Feature", "properties": {"CD_SETOR": "293077405000051", "CD_SIT": "8", "NM_DIST": "Sobradinho", "NM_SUBDIST": null}, "geometry": {"type": "Polygon", "coordinates": [[[-41.04365, -9.848019], [-41.04436, -9.848705], [-41.04526, -9.84868], [-41.0462, -9.850217], [-41.0463, -9.851448], [-41.04603, -9.85196], [-41.04612, -9.852687], [-41.04731, -9.855496], [-41.04759, -9.857445], [-41.04742, -9.858684], [-41.04578, -9.859081], [-41.04612, -9.859477], [-41.04674, -9.859775], [-41.04684, -9.860122], [-41.04669, -9.86151], [-41.04843, -9.863723], [-41.04831, -9.865293], [-41.0491, -9.866202], [-41.04915, -9.866681], [-41.04883, -9.867639], [-41.04912, -9.868168], [-41.05084, -9.869324], [-41.05101, -9.869803], [-41.05089, -9.870563], [-41.05046, -9.870976], [-41.05066, -9.872298], [-41.05026, -9.873289], [-41.05054, -9.875255], [-41.05001, -9.87656], [-41.05006, -9.877056], [-41.05098, -9.878163], [-41.05314, -9.883185], [-41.05281, -9.884672], [-41.05284, -9.885316], [-41.05307, -9.886126], [-41.05338, -9.886555], [-41.05348, -9.888009], [-41.05418, -9.889562], [-41.05427, -9.890537], [-41.05457, -9.891197], [-41.05528, -9.894037], [-41.05545, -9.89178], [-41.05617, -9.889587], [-41.05585, -9.887093], [-41.05886, -9.883452], [-41.06445, -9.880181], [-41.06633, -9.878589], [-41.06613, -9.876015], [-41.06358, -9.872702], [-41.06226, -9.870081], [-41.06053, -9.867744], [-41.05881, -9.864773], [-41.05672, -9.862683], [-41.05792, -9.852927], [-41.05161, -9.846851], [-41.04942, -9.843226], [-41.04864, -9.842399], [-41.0462, -9.844748], [-41.04551, -9.844987], [-41.04513, -9.84531], [-41.04446, -9.846131], [-41.04365, -9.848019]]]}}, 
{"type": "Feature", "properties": {"CD_SETOR": "293077405000052", "CD_SIT": "8", "NM_DIST": "Sobradinho", "NM_SUBDIST": null}, "geometry": {"type": "Polygon", "coordinates": [[[-40.81974, -9.483437], [-40.80685, -9.490754], [-40.80843, -9.496026], [-40.81056, -9.49994], [-40.81227, -9.501492], [-40.81425, -9.502809], [-40.81494, -9.503798], [-40.81614, -9.515403], [-40.82648, -9.542943], [-40.82698, -9.544853], [-40.82726, -9.54672], [-40.82687, -9.547487], [-40.81633, -9.553966], [-40.82303, -9.571813], [-40.83365, -9.603282], [-40.83459, -9.606805], [-40.83436, -9.610458], [-40.83454, -9.612071], [-40.8352, -9.613338], [-40.83617, -9.614358], [-40.83696, -9.615693], [-40.83822, -9.619229], [-40.83954, -9.622282], [-40.83988, -9.624235], [-40.84053, -9.625459], [-40.84077, -9.626337], [-40.84102, -9.631065], [-40.83942, -9.634514], [-40.83944, -9.63591], [-40.83906, -9.637301], [-40.83904, -9.639816], [-40.8388, -9.640731], [-40.83864, -9.641164], [-40.83754, -9.641726], [-40.83675, -9.643352], [-40.8367, -9.644001], [-40.83691, -9.644396], [-40.83632, -9.645509], [-40.83622, -9.64617], [-40.83646, -9.647017], [-40.8364, -9.648302], [-40.83559, -9.651059], [-40.83474, -9.652196], [-40.83471, -9.653228], [-40.83454, -9.653574], [-40.8346, -9.654278], [-40.8349, -9.655008], [-40.8353, -9.655329], [-40.83558, -9.656219], [-40.83697, -9.658642], [-40.83785, -9.65984], [-40.83795, -9.660786], [-40.83858, -9.662065], [-40.83938, -9.663091], [-40.84045, -9.664111], [-40.84112, -9.664389], [-40.84267, -9.667596], [-40.84287, -9.668103], [-40.84269, -9.669129], [-40.84178, -9.671368], [-40.84193, -9.672345], [-40.84271, -9.672866], [-40.84473, -9.674797], [-40.84564, -9.676278], [-40.84678, -9.676954], [-40.84786, -9.678254], [-40.84991, -9.679752], [-40.85056, -9.680456], [-40.85071, -9.681013], [-40.85128, -9.681796], [-40.85197, -9.682398], [-40.85408, -9.684918], [-40.85466, -9.685798], [-40.85514, -9.687087], [-40.85616, -9.687859], [-40.85805, -9.690652], [-40.85816, -9.692434], [-40.8584, -9.693155], [-40.85885, -9.693736], [-40.8599, -9.696126], [-40.85983, -9.696676], [-40.8595, -9.697209], [-40.85762, -9.698082], [-40.85673, -9.698756], [-40.85639, -9.699371], [-40.85675, -9.70039], [-40.85639, -9.701274], [-40.85587, -9.701748], [-40.85633, -9.705239], [-40.85628, -9.7062], [-40.85611, -9.706551], [-40.85504, -9.707969], [-40.8545, -9.708443], [-40.85273, -9.709667], [-40.85218, -9.709843], [-40.85202, -9.711207], [-40.85164, -9.712004], [-40.85125, -9.713556], [-40.85143, -9.716953], [-40.85169, -9.718177], [-40.85434, -9.719846], [-40.85582, -9.723091], [-40.85766, -9.724069], [-40.85809, -9.724906], [-40.85818, -9.72628], [-40.86502, -9.71972], [-40.88234, -9.737588], [-40.89228, -9.740868], [-40.894, -9.73702], [-40.89668, -9.742253], [-40.91942, -9.743406], [-40.91974, -9.743563], [-40.91991, -9.744433], [-40.91924, -9.74515], [-40.91912, -9.745723], [-40.91997, -9.745578], [-40.9203, -9.745696], [-40.92105, -9.745022], [-40.92192, -9.744704], [-40.92297, -9.743147], [-40.92569, -9.74463], [-40.94187, -9.749257], [-40.94277, -9.749653], [-40.94586, -9.751617], [-40.95417, -9.754954], [-40.95407, -9.75572], [-40.95424, -9.755806], [-40.95501, -9.755633], [-40.95607, -9.75572], [-40.96473, -9.759128], [-40.96347, -9.705203], [-40.96328, -9.705193], [-40.96224, -9.706303], [-40.96088, -9.707252], [-40.95804, -9.70683], [-40.95646, -9.707428], [-40.95505, -9.707631], [-40.95401, -9.708376], [-40.95348, -9.708338], [-40.95337, -9.707617], [-40.95317, -9.70729], [-40.94834, -9.700975], [-40.94771, -9.699904], [-40.94423, -9.692318], [-40.94311, -9.689398], [-40.94289, -9.68756], [-40.94306, -9.686794], [-40.94458, -9.684262], [-40.94456, -9.683865], [-40.94418, -9.683322], [-40.94288, -9.682567], [-40.93729, -9.676542], [-40.93586, -9.671969], [-40.93511, -9.670953], [-40.93471, -9.669953], [-40.93457, -9.668203], [-40.93342, -9.665383], [-40.93259, -9.663845], [-40.93232, -9.661766], [-40.93115, -9.657285], [-40.91372, -9.621547], [-40.91191, -9.617959], [-40.91101, -9.616603], [-40.9101, -9.615734], [-40.9088, -9.614893], [-40.90648, -9.611784], [-40.9023, -9.60375], [-40.89232, -9.585433], [-40.89255, -9.584725], [-40.89091, -9.580008], [-40.88651, -9.568608], [-40.88249, -9.561219], [-40.88266, -9.561066], [-40.88246, -9.561119], [-40.88236, -9.560774], [-40.88225, -9.555447], [-40.87168, -9.535139], [-40.8668, -9.529645], [-40.86084, -9.527971], [-40.85981, -9.527317], [-40.85502, -9.526283], [-40.85358, -9.524417], [-40.84717, -9.525478], [-40.84534, -9.525646], [-40.82936, -9.481679], [-40.82324, -9.481577], [-40.81974, -9.483437]]]}}, 
{"type": "Feature", "properties": {"CD_SETOR": "293077405000053", "CD_SIT": "1", "NM_DIST": "Sobradinho", "NM_SUBDIST": null}, "geometry": {"type": "Polygon", "coordinates": [[[-40.81745, -9.476772], [-40.81743, -9.478146], [-40.81978, -9.47822], [-40.81981, -9.476595], [-40.81745, -9.476509], [-40.81745, -9.476772]]]}}, 
{"type": "Feature", "properties": {"CD_SETOR": "293077405000054", "CD_SIT": "2", "NM_DIST": "Sobradinho", "NM_SUBDIST": null}, "geometry": {"type": "Polygon", "coordinates": [[[-40.81512, -9.476867], [-40.8151, -9.480478], [-40.81571, -9.480498], [-40.8157, -9.484634], [-40.81592, -9.485614], [-40.81974, -9.483437], [-40.8196, -9.480263], [-40.81982, -9.480061], [-40.81978, -9.47822], [-40.81743, -9.478146], [-40.81745, -9.476772], [-40.81512, -9.476867]]]}}]}