{"type": "FeatureCollection", "features": [
{"type": "Feature", "properties": {"CD_SETOR": "310140905000002", "CD_SIT": "1", "NM_DIST": "Albertina", "NM_SUBDIST": null}, "geometry": {"type": "Polygon", "coordinates": [[[-46.61547, -22.20349], [-46.61544, -22.20379], [-46.61577, -22.20441], [-46.61651, -22.20455], [-46.61662, -22.20531], [-46.61804, -22.20528], [-46.6179, -22.20368], [-46.62022, -22.20376], [-46.62082, -22.20407], [-46.62146, -22.20469], [-46.62241, -22.20433], [-46.62388, -22.20273], [-46.62533, -22.20181], [-46.62746, -22.20163], [-46.62761, -22.20239], [-46.63037, -22.20215], [-46.62973, -22.20116], [-46.62862, -22.19826], [-46.62313, -22.19974], [-46.61705, -22.19921], [-46.6169, -22.20081], [-46.6176, -22.20086], [-46.61736, -22.20365], [-46.61547, -22.20349]]]}}, 
{"type": "Feature", "properties": {"CD_SETOR": "310140905000005", "CD_SIT": "1", "NM_DIST": "Albertina", "NM_SUBDIST": null}, "geometry": {"type": "Polygon", "coordinates": [[[-46.61594, -22.19869], [-46.61547, -22.20349], [-46.61736, -22.20365], [-46.6176, -22.20086], [-46.6169, -22.20081], [-46.61705, -22.19921], [-46.62313, -22.19974], [-46.62862, -22.19826], [-46.62838, -22.19746], [-46.62685, -22.19821], [-46.62583, -22.19815], [-46.62512, -22.19856], [-46.62443, -22.19832], [-46.62416, -22.19871], [-46.62224, -22.19899], [-46.62182, -22.19891], [-46.62148, -22.1985], [-46.62075, -22.19841], [-46.62051, -22.19769], [-46.6197, -22.19701], [-46.61992, -22.19675], [-46.61979, -22.19611], [-46.61784, -22.19757], [-46.61756, -22.19818], [-46.6164, -22.19837], [-46.61594, -22.19869]]]}}, 
{"type": "Feature", "properties": {"CD_SETOR": "310140905000006", "CD_SIT": "8", "NM_DIST": "Albertina", "NM_SUBDIST": null}, "geometry": {"type": "Polygon", "coordinates": [[[-46.53304, -22.18549], [-46.53324, -22.18603], [-46.53611, -22.18442], [-46.53708, -22.18424], [-46.53838, -22.18426], [-46.53857, -22.18551], [-46.53833, -22.18556], [-46.53791, -22.18522], [-46.53753, -22.18521], [-46.53735, -22.18543], [-46.53737, -22.18633], [-46.5378, -22.1867], [-46.53863, -22.18696], [-46.54188, -22.18703], [-46.54215, -22.18727], [-46.54277, -22.18718], [-46.54287, -22.18698], [-46.54361, -22.18777], [-46.54377, -22.18819], [-46.54363, -22.18879], [-46.54542, -22.18944], [-46.54792, -22.18911], [-46.54924, -22.18873], [-46.55029, -22.1889], [-46.55048, -22.18878], [-46.55131, -22.18921], [-46.55198, -22.18933], [-46.55327, -22.1889], [-46.5541, -22.1891], [-46.55506, -22.18901], [-46.55612, -22.18941], [-46.55836, -22.18955], [-46.56022, -22.19043], [-46.56066, -22.19034], [-46.56126, -22.18989], [-46.56179, -22.1899], [-46.56375, -22.19066], [-46.56456, -22.19047], [-46.56476, -22.19007], [-46.56474, -22.18946], [-46.56567, -22.18921], [-46.56602, -22.18827], [-46.56829, -22.18944], [-46.57039, -22.18983], [-46.57217, -22.18951], [-46.57311, -22.189], [-46.57542, -22.18873], [-46.57662, -22.18867], [-46.57749, -22.18934], [-46.57855, -22.18958], [-46.58077, -22.18885], [-46.58354, -22.18828], [-46.58553, -22.18829], [-46.58666, -22.18925], [-46.58731, -22.1902], [-46.59057, -22.19109], [-46.59249, -22.19104], [-46.59543, -22.19177], [-46.59699, -22.19199], [-46.59927, -22.19298], [-46.60117, -22.19343], [-46.6031, -22.19499], [-46.60351, -22.19512], [-46.60544, -22.1949], [-46.60658, -22.19516], [-46.60732, -22.19557], [-46.60839, -22.19659], [-46.61035, -22.19748], [-46.61161, -22.19892], [-46.61223, -22.19705], [-46.61288, -22.19627], [-46.61349, -22.19497], [-46.61336, -22.19425], [-46.61368, -22.19352], [-46.6137, -22.19234], [-46.6125, -22.19161], [-46.61211, -22.19103], [-46.61154, -22.19099], [-46.61143, -22.19002], [-46.61036, -22.18895], [-46.61008, -22.18796], [-46.60956, -22.18753], [-46.60842, -22.1877], [-46.60759, -22.18685], [-46.60722, -22.18627], [-46.60724, -22.18438], [-46.6063, -22.18371], [-46.60578, -22.18361], [-46.60514, -22.1829], [-46.60495, -22.18163], [-46.60531, -22.18133], [-46.60521, -22.1811], [-46.60529, -22.18049], [-46.60258, -22.17912], [-46.5996, -22.17829], [-46.59526, -22.17784], [-46.59298, -22.17731], [-46.59014, -22.17699], [-46.58635, -22.17678], [-46.58338, -22.17727], [-46.58204, -22.17793], [-46.58128, -22.17803], [-46.57332, -22.17615], [-46.56722, -22.17589], [-46.56565, -22.17529], [-46.56481, -22.17476], [-46.56201, -22.17353], [-46.55732, -22.17085], [-46.55626, -22.1714], [-46.5514, -22.17511], [-46.55016, -22.17579], [-46.54876, -22.17685], [-46.54465, -22.17857], [-46.54156, -22.18095], [-46.53986, -22.18279], [-46.53818, -22.18349], [-46.53531, -22.18346], [-46.53467, -22.18358], [-46.53377, -22.18419], [-46.5331, -22.18509], [-46.53304, -22.18549]]]}}, 
{"type": "Feature", "properties": {"CD_SETOR": "310140905000007", "CD_SIT": "8", "NM_DIST": "Albertina", "NM_SUBDIST": null}, "geometry": {"type": "Polygon", "coordinates": [[[-46.53322, -22.18588], [-46.53319, -22.1867], [-46.53373, -22.18852], [-46.53443, -22.19045], [-46.535, -22.19119], [-46.53643, -22.19131], [-46.54106, -22.19089], [-46.54411, -22.19143], [-46.54838, -22.19407], [-46.55016, -22.19562], [-46.55333, -22.19722], [-46.55661, -22.19832], [-46.55891, -22.19929], [-46.56299, -22.20015], [-46.5647, -22.2009], [-46.56505, -22.20125], [-46.5656, -22.20236], [-46.56616, -22.20429], [-46.5669, -22.20565], [-46.57024, -22.20856], [-46.57257, -22.21245], [-46.57315, -22.21303], [-46.57387, -22.21417], [-46.57446, -22.2156], [-46.57503, -22.21769], [-46.57526, -22.22009], [-46.57642, -22.22028], [-46.57713, -22.2194], [-46.5781, -22.21937], [-46.57961, -22.21798], [-46.58102, -22.21734], [-46.58121, -22.21707], [-46.58229, -22.21687], [-46.58399, -22.21742], [-46.58412, -22.21723], [-46.58398, -22.21668], [-46.58415, -22.21621], [-46.5838, -22.21584], [-46.58377, -22.21458], [-46.58445, -22.21443], [-46.58487, -22.21396], [-46.58521, -22.21382], [-46.58751, -22.21317], [-46.58756, -22.21255], [-46.588, -22.21237], [-46.58842, -22.21131], [-46.589, -22.21109], [-46.5891, -22.21072], [-46.5896, -22.21044], [-46.59041, -22.21036], [-46.59062, -22.21046], [-46.59145, -22.20935], [-46.59185, -22.20914], [-46.5924, -22.20924], [-46.59372, -22.20875], [-46.59465, -22.2086], [-46.59501, -22.20832], [-46.59559, -22.20732], [-46.59611, -22.20722], [-46.59644, -22.20691], [-46.59652, -22.20589], [-46.59719, -22.20515], [-46.59761, -22.20497], [-46.59891, -22.20508], [-46.60046, -22.20486], [-46.60111, -22.20454], [-46.60564, -22.2034], [-46.60689, -22.20337], [-46.60722, -22.20321], [-46.60723, -22.20296], [-46.60841, -22.20286], [-46.6089, -22.20251], [-46.60888, -22.20233], [-46.60929, -22.20239], [-46.60953, -22.20226], [-46.6101, -22.20166], [-46.61095, -22.20163], [-46.61163, -22.20134], [-46.61197, -22.20091], [-46.61255, -22.20094], [-46.61244, -22.20033], [-46.60892, -22.19907], [-46.60947, -22.19793], [-46.60914, -22.19694], [-46.60839, -22.19659], [-46.60732, -22.19557], [-46.60658, -22.19516], [-46.60544, -22.1949], [-46.60351, -22.19512], [-46.6031, -22.19499], [-46.60117, -22.19343], [-46.59927, -22.19298], [-46.59699, -22.19199], [-46.59543, -22.19177], [-46.59249, -22.19104], [-46.59057, -22.19109], [-46.58731, -22.1902], [-46.58666, -22.18925], [-46.58553, -22.18829], [-46.58354, -22.18828], [-46.58077, -22.18885], [-46.57855, -22.18958], [-46.57749, -22.18934], [-46.57662, -22.18867], [-46.57542, -22.18873], [-46.57311, -22.189], [-46.57217, -22.18951], [-46.57039, -22.18983], [-46.56829, -22.18944], [-46.56602, -22.18827], [-46.56567, -22.18921], [-46.56474, -22.18946], [-46.56476, -22.19007], [-46.56456, -22.19047], [-46.56375, -22.19066], [-46.56179, -22.1899], [-46.56126, -22.18989], [-46.56066, -22.19034], [-46.56022, -22.19043], [-46.55836, -22.18955], [-46.55612, -22.18941], [-46.55506, -22.18901], [-46.5541, -22.1891], [-46.55327, -22.1889], [-46.55198, -22.18933], [-46.55131, -22.18921], [-46.55048, -22.18878], [-46.55029, -22.1889], [-46.54924, -22.18873], [-46.54792, -22.18911], [-46.54542, -22.18944], [-46.54363, -22.18879], [-46.54377, -22.18819], [-46.54361, -22.18777], [-46.54287, -22.18698], [-46.54277, -22.18718], [-46.54215, -22.18727], [-46.54188, -22.18703], [-46.53863, -22.18696], [-46.5378, -22.1867], [-46.53737, -22.18633], [-46.53735, -22.18543], [-46.53753, -22.18521], [-46.53791, -22.18522], [-46.53833, -22.18556], [-46.53857, -22.18551], [-46.53838, -22.18426], [-46.53708, -22.18424], [-46.53611, -22.18442], [-46.53324, -22.18603], [-46.53322, -22.18588]]]}}, 
{"type": "Feature", "properties": {"CD_SETOR": "310140905000008", "CD_SIT": "8", "NM_DIST": "Albertina", "NM_SUBDIST": null}, "geometry": {"type": "Polygon", "coordinates": [[[-46.64559, -22.18065], [-46.64523, -22.18068], [-46.64463, -22.18167], [-46.64405, -22.18419], [-46.64355, -22.18485], [-46.64275, -22.18559], [-46.64152, -22.1863], [-46.64054, -22.18648], [-46.63863, -22.18646], [-46.63727, -22.18621], [-46.63149, -22.18371], [-46.6293, -22.18315], [-46.62709, -22.18232], [-46.62477, -22.18175], [-46.62408, -22.18132], [-46.62143, -22.18028], [-46.6195, -22.17889], [-46.61565, -22.17776], [-46.61353, -22.17792], [-46.61209, -22.17851], [-46.60985, -22.18031], [-46.60827, -22.18098], [-46.60699, -22.18095], [-46.60529, -22.18049], [-46.60521, -22.1811], [-46.60531, -22.18133], [-46.60495, -22.18163], [-46.60514, -22.1829], [-46.60578, -22.18361], [-46.6063, -22.18371], [-46.60724, -22.18438], [-46.60722, -22.18627], [-46.60759, -22.18685], [-46.60842, -22.1877], [-46.60973, -22.18762], [-46.61027, -22.18828], [-46.61036, -22.18895], [-46.61143, -22.19002], [-46.61154, -22.19099], [-46.61211, -22.19103], [-46.6125, -22.19161], [-46.6137, -22.19234], [-46.61368, -22.19352], [-46.61336, -22.19425], [-46.61349, -22.19497], [-46.61288, -22.19627], [-46.6123, -22.19697], [-46.61324, -22.19726], [-46.61439, -22.19669], [-46.61507, -22.19685], [-46.6153, -22.19639], [-46.61521, -22.19588], [-46.61618, -22.1955], [-46.61822, -22.19544], [-46.61927, -22.19502], [-46.61979, -22.19557], [-46.61964, -22.19604], [-46.61979, -22.19611], [-46.61992, -22.19675], [-46.6197, -22.19701], [-46.62051, -22.19769], [-46.6208, -22.19844], [-46.62107, -22.19835], [-46.62144, -22.19848], [-46.62175, -22.19888], [-46.62224, -22.19899], [-46.62416, -22.19871], [-46.62443, -22.19832], [-46.62512, -22.19856], [-46.62583, -22.19815], [-46.62685, -22.19821], [-46.62838, -22.19746], [-46.62861, -22.19822], [-46.63875, -22.19695], [-46.64691, -22.19447], [-46.64781, -22.19472], [-46.65087, -22.19644], [-46.65249, -22.1969], [-46.65701, -22.19642], [-46.65933, -22.19849], [-46.66163, -22.19937], [-46.66275, -22.20155], [-46.66437, -22.20238], [-46.67215, -22.20286], [-46.67355, -22.20172], [-46.67682, -22.20082], [-46.67515, -22.19754], [-46.6747, -22.19426], [-46.67287, -22.19103], [-46.67259, -22.18803], [-46.6708, -22.18426], [-46.6707, -22.18024], [-46.67156, -22.17944], [-46.67195, -22.17794], [-46.6743, -22.1763], [-46.67384, -22.17562], [-46.67128, -22.17416], [-46.66901, -22.17474], [-46.66313, -22.1804], [-46.6607, -22.18005], [-46.65533, -22.17822], [-46.65261, -22.17763], [-46.6508, -22.17753], [-46.65004, -22.17776], [-46.64689, -22.18105], [-46.64629, -22.18132], [-46.64559, -22.18065]]]}}, 
{"type": "Feature", "properties": {"CD_SETOR": "310140905000009", "CD_SIT": "8", "NM_DIST": "Albertina", "NM_SUBDIST": null}, "geometry": {"type": "Polygon", "coordinates": [[[-46.62861, -22.19822], [-46.62973, -22.20116], [-46.63037, -22.20215], [-46.62761, -22.20239], [-46.62746, -22.20163], [-46.62533, -22.20181], [-46.62388, -22.20273], [-46.62241, -22.20433], [-46.62146, -22.20469], [-46.62082, -22.20407], [-46.62022, -22.20376], [-46.6179, -22.20368], [-46.61804, -22.20528], [-46.61662, -22.20531], [-46.61651, -22.20455], [-46.61609, -22.20457], [-46.61561, -22.20426], [-46.61544, -22.20379], [-46.61555, -22.20253], [-46.61368, -22.20451], [-46.6133, -22.20443], [-46.61444, -22.20307], [-46.61437, -22.20253], [-46.61388, -22.20244], [-46.61361, -22.20206], [-46.61307, -22.20185], [-46.61264, -22.20147], [-46.61255, -22.20094], [-46.61197, -22.20091], [-46.61163, -22.20134], [-46.61095, -22.20163], [-46.6101, -22.20166], [-46.60953, -22.20226], [-46.60929, -22.20239], [-46.60888, -22.20233], [-46.6089, -22.20251], [-46.60841, -22.20286], [-46.60723, -22.20296], [-46.60722, -22.20321], [-46.60689, -22.20337], [-46.60564, -22.2034], [-46.60111, -22.20454], [-46.60046, -22.20486], [-46.59891, -22.20508], [-46.59761, -22.20497], [-46.59719, -22.20515], [-46.59652, -22.20589], [-46.59644, -22.20691], [-46.59611, -22.20722], [-46.59559, -22.20732], [-46.59501, -22.20832], [-46.59465, -22.2086], [-46.59372, -22.20875], [-46.5924, -22.20924], [-46.59185, -22.20914], [-46.59145, -22.20935], [-46.59062, -22.21046], [-46.59041, -22.21036], [-46.5896, -22.21044], [-46.5891, -22.21072], [-46.589, -22.21109], [-46.58842, -22.21131], [-46.588, -22.21237], [-46.58756, -22.21255], [-46.58751, -22.21317], [-46.58521, -22.21382], [-46.58487, -22.21396], [-46.58445, -22.21443], [-46.58377, -22.21458], [-46.5838, -22.21584], [-46.58415, -22.21621], [-46.58398, -22.21668], [-46.58412, -22.21723], [-46.58399, -22.21742], [-46.58229, -22.21687], [-46.58121, -22.21707], [-46.58102, -22.21734], [-46.57961, -22.21798], [-46.5781, -22.21937], [-46.57713, -22.2194], [-46.57642, -22.22028], [-46.579, -22.22074], [-46.58084, -22.2215], [-46.58176, -22.22168], [-46.58258, -22.22162], [-46.58479, -22.22085], [-46.58601, -22.22076], [-46.58765, -22.22091], [-46.5894, -22.22176], [-46.59, -22.22229], [-46.59127, -22.22394], [-46.59305, -22.22505], [-46.5942, -22.22597], [-46.59513, -22.22638], [-46.59614, -22.22638], [-46.59666, -22.22616], [-46.59756, -22.22522], [-46.5998, -22.22183], [-46.60186, -22.22042], [-46.60433, -22.22017], [-46.60666, -22.22097], [-46.6083, -22.22118], [-46.60987, -22.22117], [-46.61494, -22.21911], [-46.61828, -22.21882], [-46.61961, -22.21798], [-46.62231, -22.21581], [-46.62332, -22.21532], [-46.6245, -22.21526], [-46.62609, -22.21613], [-46.62693, -22.21617], [-46.62802, -22.2153], [-46.62937, -22.21386], [-46.63091, -22.21363], [-46.63116, -22.2137], [-46.63246, -22.21579], [-46.63394, -22.21765], [-46.63445, -22.21801], [-46.63682, -22.21874], [-46.6386, -22.21965], [-46.64168, -22.22321], [-46.64239, -22.22368], [-46.64478, -22.22605], [-46.64593, -22.22691], [-46.64769, -22.22746], [-46.64825, -22.22738], [-46.64875, -22.22701], [-46.65267, -22.2232], [-46.65335, -22.22281], [-46.65479, -22.22241], [-46.65606, -22.22247], [-46.65741, -22.22293], [-46.65839, -22.22295], [-46.66097, -22.22229], [-46.66404, -22.22208], [-46.66719, -22.22268], [-46.66962, -22.22366], [-46.67186, -22.2239], [-46.67441, -22.21952], [-46.67506, -22.21775], [-46.67555, -22.2171], [-46.67597, -22.21676], [-46.67695, -22.21642], [-46.68031, -22.21652], [-46.68063, -22.21429], [-46.67967, -22.20835], [-46.67888, -22.20617], [-46.67812, -22.20337], [-46.67682, -22.20082], [-46.67355, -22.20172], [-46.67215, -22.20286], [-46.66437, -22.20238], [-46.66275, -22.20155], [-46.66163, -22.19937], [-46.65933, -22.19849], [-46.65701, -22.19642], [-46.65249, -22.1969], [-46.65087, -22.19644], [-46.64781, -22.19472], [-46.64691, -22.19447], [-46.63875, -22.19695], [-46.62861, -22.19822]]]}}, 
{"type": "Feature", "properties": {"CD_SETOR": "310140905000010", "CD_SIT": "1", "NM_DIST": "Albertina", "NM_SUBDIST": null}, "geometry": {"type": "Polygon", "coordinates": [[[-46.61264, -22.20147], [-46.61307, -22.20185], [-46.61361, -22.20206], [-46.61388, -22.20244], [-46.61437, -22.20253], [-46.61444, -22.20307], [-46.6133, -22.20443], [-46.61368, -22.20451], [-46.61555, -22.20253], [-46.61594, -22.19869], [-46.61519, -22.19907], [-46.61336, -22.19922], [-46.61326, -22.20098], [-46.61264, -22.20147]]]}}, 
{"type": "Feature", "properties": {"CD_SETOR": "310140905000011", "CD_SIT": "1", "NM_DIST": "Albertina", "NM_SUBDIST": null}, "geometry": {"type": "Polygon", "coordinates": [[[-46.6123, -22.19697], [-46.61181, -22.19803], [-46.61161, -22.19892], [-46.61035, -22.19748], [-46.60914, -22.19694], [-46.60947, -22.19793], [-46.60892, -22.19907], [-46.61244, -22.20033], [-46.61264, -22.20147], [-46.61326, -22.20098], [-46.61336, -22.19922], [-46.61519, -22.19907], [-46.6164, -22.19837], [-46.61756, -22.19818], [-46.61784, -22.19757], [-46.61979, -22.19611], [-46.61964, -22.19604], [-46.61979, -22.19557], [-46.61927, -22.19502], [-46.61822, -22.19544], [-46.61618, -22.1955], [-46.61521, -22.19588], [-46.6153, -22.19639], [-46.61507, -22.19685], [-46.61439, -22.19669], [-46.61324, -22.19726], [-46.6123, -22.19697]]]}}]}