{"type": "FeatureCollection", "features": [
{"type": "Feature", "properties": {"CD_SETOR": "310205005000001", "CD_SIT": "1", "NM_DIST": "Alto Caparaó", "NM_SUBDIST": null}, "geometry": {"type": "Polygon", "coordinates": [[[-41.86968, -20.44173], [-41.87201, -20.44577], [-41.87291, -20.44696], [-41.87471, -20.4485], [-41.87545, -20.44798], [-41.87578, -20.44716], [-41.87599, -20.44702], [-41.87598, -20.44672], [-41.87529, -20.44642], [-41.87502, -20.44658], [-41.87464, -20.44612], [-41.87451, -20.44543], [-41.87463, -20.44495], [-41.87427, -20.44378], [-41.87382, -20.44348], [-41.87234, -20.44311], [-41.87203, -20.44258], [-41.87189, -20.44197], [-41.87231, -20.44084], [-41.87216, -20.43976], [-41.86968, -20.44173]]]}}, 
{"type": "Feature", "properties": {"CD_SETOR": "310205005000002", "CD_SIT": "1", "NM_DIST": "Alto Caparaó", "NM_SUBDIST": null}, "geometry": {"type": "Polygon", "coordinates": [[[-41.8677, -20.44156], [-41.8681, -20.44286], [-41.86904, -20.44479], [-41.86941, -20.44468], [-41.86948, -20.44481], [-41.87099, -20.44394], [-41.87011, -20.44231], [-41.86943, -20.44138], [-41.86892, -20.44097], [-41.86868, -20.44081], [-41.8677, -20.44156]]]}}, 
{"type": "Feature", "properties": {"CD_SETOR": "310205005000003", "CD_SIT": "1", "NM_DIST": "Alto Caparaó", "NM_SUBDIST": null}, "geometry": {"type": "Polygon", "coordinates": [[[-41.86707, -20.43307], [-41.8677, -20.43358], [-41.86839, -20.43522], [-41.86848, -20.43704], [-41.86789, -20.43868], [-41.86819, -20.4399], [-41.86868, -20.44081], [-41.86968, -20.44173], [-41.87216, -20.43976], [-41.87081, -20.43751], [-41.87103, -20.43615], [-41.87247, -20.43254], [-41.87079, -20.4319], [-41.87079, -20.43154], [-41.87002, -20.43101], [-41.86972, -20.43154], [-41.86955, -20.43143], [-41.86884, -20.43169], [-41.86787, -20.4328], [-41.86707, -20.43307]]]}}, 
{"type": "Feature", "properties": {"CD_SETOR": "310205005000004", "CD_SIT": "8", "NM_DIST": "Alto Caparaó", "NM_SUBDIST": null}, "geometry": {"type": "Polygon", "coordinates": [[[-41.85506, -20.40223], [-41.85458, -20.40215], [-41.85369, -20.40253], [-41.8529, -20.40252], [-41.85122, -20.40207], [-41.8507, -20.40208], [-41.85046, -20.4021], [-41.85022, -20.40248], [-41.85001, -20.40328], [-41.85003, -20.40398], [-41.84958, -20.40521], [-41.84956, -20.40602], [-41.84974, -20.40634], [-41.84994, -20.40797], [-41.84916, -20.40829], [-41.84882, -20.40864], [-41.84902, -20.4096], [-41.84948, -20.41046], [-41.84952, -20.4111], [-41.8489, -20.41248], [-41.84979, -20.41368], [-41.84963, -20.41454], [-41.84972, -20.41611], [-41.8501, -20.4171], [-41.85055, -20.41723], [-41.85175, -20.41694], [-41.85248, -20.4177], [-41.85244, -20.41801], [-41.85077, -20.41897], [-41.85065, -20.41939], [-41.84977, -20.41979], [-41.84932, -20.41955], [-41.84879, -20.41973], [-41.84845, -20.41964], [-41.84822, -20.41934], [-41.84767, -20.41921], [-41.84769, -20.41994], [-41.84861, -20.42103], [-41.84971, -20.42116], [-41.85103, -20.42191], [-41.85343, -20.42293], [-41.85395, -20.42382], [-41.85397, -20.42429], [-41.85486, -20.42454], [-41.85534, -20.42487], [-41.85663, -20.42457], [-41.85687, -20.42467], [-41.85763, -20.42585], [-41.85805, -20.42594], [-41.85821, -20.42628], [-41.85919, -20.42681], [-41.85968, -20.4274], [-41.861, -20.4275], [-41.86212, -20.42779], [-41.86305, -20.42869], [-41.8646, -20.42918], [-41.86473, -20.43003], [-41.86554, -20.4305], [-41.8654, -20.43117], [-41.86551, -20.43144], [-41.86594, -20.43208], [-41.8667, -20.43262], [-41.86668, -20.43332], [-41.86787, -20.4328], [-41.86884, -20.43169], [-41.86955, -20.43143], [-41.86972, -20.43154], [-41.87002, -20.43101], [-41.87079, -20.43154], [-41.87079, -20.4319], [-41.87247, -20.43254], [-41.87103, -20.43615], [-41.87081, -20.43751], [-41.87216, -20.43976], [-41.87231, -20.44084], [-41.87189, -20.44197], [-41.87203, -20.44258], [-41.87234, -20.44311], [-41.87382, -20.44348], [-41.87427, -20.44378], [-41.87463, -20.44495], [-41.87451, -20.44543], [-41.87464, -20.44612], [-41.87502, -20.44658], [-41.87529, -20.44642], [-41.87598, -20.44672], [-41.87622, -20.44741], [-41.8759, -20.44811], [-41.87616, -20.44901], [-41.87726, -20.44966], [-41.87913, -20.44935], [-41.88004, -20.44936], [-41.88011, -20.45036], [-41.87982, -20.45053], [-41.87919, -20.4505], [-41.87857, -20.45088], [-41.87836, -20.45221], [-41.8777, -20.45357], [-41.87801, -20.45371], [-41.87792, -20.45425], [-41.87784, -20.45447], [-41.87719, -20.45488], [-41.87855, -20.45658], [-41.87875, -20.4575], [-41.87921, -20.45778], [-41.87994, -20.4593], [-41.88057, -20.45973], [-41.88079, -20.45931], [-41.88103, -20.45946], [-41.88136, -20.46086], [-41.88117, -20.46188], [-41.88137, -20.46234], [-41.88131, -20.46308], [-41.8811, -20.4639], [-41.87944, -20.46577], [-41.8786, -20.46627], [-41.87799, -20.46695], [-41.87759, -20.46774], [-41.87754, -20.46837], [-41.87796, -20.46876], [-41.87802, -20.4692], [-41.87934, -20.46856], [-41.87979, -20.46854], [-41.88189, -20.46919], [-41.88241, -20.46985], [-41.8833, -20.46964], [-41.8838, -20.46997], [-41.88416, -20.46995], [-41.88456, -20.46971], [-41.88549, -20.46825], [-41.88607, -20.46782], [-41.88642, -20.46706], [-41.88753, -20.46585], [-41.88769, -20.46535], [-41.88832, -20.46509], [-41.8886, -20.46401], [-41.88945, -20.46307], [-41.89112, -20.46238], [-41.89192, -20.4625], [-41.89246, -20.46291], [-41.89346, -20.46308], [-41.89395, -20.46281], [-41.89455, -20.46305], [-41.89493, -20.46274], [-41.89685, -20.4629], [-41.89802, -20.46239], [-41.89847, -20.46174], [-41.89909, -20.46131], [-41.89956, -20.46118], [-41.90003, -20.46136], [-41.90022, -20.46129], [-41.89978, -20.46005], [-41.89976, -20.4593], [-41.90008, -20.45857], [-41.90006, -20.4578], [-41.89982, -20.45739], [-41.89998, -20.45697], [-41.89967, -20.45626], [-41.90012, -20.45563], [-41.90119, -20.45552], [-41.90159, -20.455], [-41.90264, -20.45466], [-41.90314, -20.45413], [-41.90343, -20.45357], [-41.9039, -20.451], [-41.90459, -20.44938], [-41.90405, -20.44864], [-41.90377, -20.44619], [-41.90344, -20.44531], [-41.90266, -20.44447], [-41.90098, -20.44388], [-41.90007, -20.44328], [-41.8982, -20.43985], [-41.89792, -20.43919], [-41.89792, -20.43871], [-41.89972, -20.43747], [-41.9007, -20.43706], [-41.90193, -20.43684], [-41.90264, -20.43646], [-41.90344, -20.43557], [-41.90332, -20.43487], [-41.90314, -20.43471], [-41.90236, -20.43458], [-41.90035, -20.43488], [-41.8991, -20.43488], [-41.89591, -20.43431], [-41.89413, -20.43434], [-41.89342, -20.43457], [-41.89253, -20.43525], [-41.89021, -20.43509], [-41.88942, -20.43528], [-41.88806, -20.43592], [-41.88683, -20.43566], [-41.88616, -20.43534], [-41.8827, -20.43275], [-41.88271, -20.4323], [-41.88491, -20.43149], [-41.8865, -20.43066], [-41.88669, -20.43043], [-41.88667, -20.42996], [-41.88607, -20.42961], [-41.88343, -20.42933], [-41.88296, -20.42905], [-41.88194, -20.42888], [-41.88107, -20.42838], [-41.88078, -20.42802], [-41.87939, -20.42468], [-41.87879, -20.42388], [-41.8763, -20.42253], [-41.87527, -20.42173], [-41.87335, -20.41905], [-41.87282, -20.41805], [-41.87273, -20.41701], [-41.8732, -20.41581], [-41.87337, -20.41483], [-41.87318, -20.41166], [-41.87346, -20.40943], [-41.87443, -20.40857], [-41.87612, -20.40781], [-41.87661, -20.40741], [-41.87717, -20.40678], [-41.87787, -20.40518], [-41.87747, -20.4035], [-41.87646, -20.40156], [-41.87357, -20.39795], [-41.87317, -20.39813], [-41.87293, -20.39905], [-41.87231, -20.39979], [-41.87016, -20.40022], [-41.86676, -20.40033], [-41.86571, -20.40066], [-41.86474, -20.40152], [-41.86379, -20.40288], [-41.8623, -20.40387], [-41.86155, -20.40417], [-41.86083, -20.40423], [-41.85883, -20.40315], [-41.85667, -20.40267], [-41.85602, -20.40233], [-41.85506, -20.40223]]]}}, 
{"type": "Feature", "properties": {"CD_SETOR": "310205005000006", "CD_SIT": "8", "NM_DIST": "Alto Caparaó", "NM_SUBDIST": null}, "geometry": {"type": "Polygon", "coordinates": [[[-41.85777, -20.49366], [-41.85857, -20.49337], [-41.8593, -20.49329], [-41.86146, -20.49358], [-41.86334, -20.49342], [-41.867, -20.49218], [-41.86773, -20.49238], [-41.8689, -20.49328], [-41.87215, -20.49424], [-41.87371, -20.4945], [-41.87659, -20.4946], [-41.87918, -20.49596], [-41.88176, -20.4958], [-41.88329, -20.49549], [-41.88379, -20.49522], [-41.88505, -20.49504], [-41.88251, -20.4934], [-41.88196, -20.49359], [-41.88174, -20.4935], [-41.88076, -20.49361], [-41.88004, -20.49342], [-41.88022, -20.49206], [-41.88197, -20.49128], [-41.88231, -20.49097], [-41.88265, -20.4903], [-41.88282, -20.48927], [-41.88369, -20.48856], [-41.883, -20.48824], [-41.88195, -20.48825], [-41.88113, -20.48902], [-41.88025, -20.48928], [-41.88037, -20.48822], [-41.88119, -20.48709], [-41.88092, -20.48622], [-41.88028, -20.48557], [-41.88024, -20.48533], [-41.88045, -20.48509], [-41.88126, -20.48512], [-41.88186, -20.48487], [-41.88202, -20.48446], [-41.88245, -20.48416], [-41.88256, -20.48302], [-41.8831, -20.48129], [-41.88352, -20.481], [-41.88404, -20.48099], [-41.88373, -20.4791], [-41.88332, -20.47868], [-41.88249, -20.47865], [-41.88236, -20.47842], [-41.88379, -20.47792], [-41.88416, -20.47698], [-41.88515, -20.47574], [-41.88494, -20.47528], [-41.8866, -20.47475], [-41.8872, -20.47438], [-41.88724, -20.47398], [-41.88685, -20.47365], [-41.88631, -20.47367], [-41.88593, -20.47343], [-41.88506, -20.47241], [-41.88463, -20.47153], [-41.88337, -20.47099], [-41.88321, -20.47009], [-41.88261, -20.4701], [-41.88191, -20.46984], [-41.88164, -20.46998], [-41.88061, -20.46954], [-41.87998, -20.47087], [-41.87947, -20.47131], [-41.87891, -20.47112], [-41.87823, -20.4702], [-41.87796, -20.46876], [-41.87754, -20.46837], [-41.87759, -20.46774], [-41.87824, -20.46662], [-41.87944, -20.46577], [-41.88119, -20.46375], [-41.88137, -20.46234], [-41.88117, -20.46188], [-41.88136, -20.46086], [-41.88103, -20.45946], [-41.88079, -20.45931], [-41.88057, -20.45973], [-41.87994, -20.4593], [-41.87921, -20.45778], [-41.87875, -20.4575], [-41.87855, -20.45658], [-41.87723, -20.45498], [-41.87725, -20.45474], [-41.87784, -20.45437], [-41.87711, -20.45364], [-41.87657, -20.45366], [-41.87641, -20.45311], [-41.87567, -20.45344], [-41.87536, -20.45286], [-41.87334, -20.45317], [-41.8725, -20.45342], [-41.87185, -20.45385], [-41.87116, -20.45388], [-41.87079, -20.4537], [-41.87056, -20.45306], [-41.86967, -20.45322], [-41.86923, -20.45213], [-41.86946, -20.45108], [-41.86855, -20.4495], [-41.86805, -20.44932], [-41.86767, -20.44946], [-41.86741, -20.44983], [-41.86679, -20.44995], [-41.86616, -20.44936], [-41.86597, -20.44879], [-41.86611, -20.44662], [-41.86707, -20.44577], [-41.86839, -20.44513], [-41.86817, -20.4447], [-41.86705, -20.44471], [-41.86626, -20.44497], [-41.86605, -20.44521], [-41.86527, -20.44521], [-41.86497, -20.44555], [-41.86459, -20.44564], [-41.86381, -20.44471], [-41.86389, -20.44421], [-41.86348, -20.44447], [-41.86286, -20.44458], [-41.86194, -20.4439], [-41.86073, -20.44374], [-41.8603, -20.44345], [-41.85992, -20.44288], [-41.8602, -20.44233], [-41.86082, -20.44222], [-41.8613, -20.44182], [-41.86121, -20.44142], [-41.8614, -20.4404], [-41.86181, -20.44017], [-41.86095, -20.43948], [-41.8598, -20.43897], [-41.85926, -20.43825], [-41.85963, -20.43788], [-41.86173, -20.43668], [-41.86165, -20.4335], [-41.86077, -20.4333], [-41.8615, -20.43212], [-41.86222, -20.43194], [-41.86308, -20.43198], [-41.86384, -20.4314], [-41.86435, -20.43162], [-41.8647, -20.43199], [-41.86517, -20.43321], [-41.86668, -20.43332], [-41.8667, -20.43262], [-41.86594, -20.43208], [-41.86551, -20.43144], [-41.8654, -20.43117], [-41.86554, -20.4305], [-41.86473, -20.43003], [-41.8646, -20.42918], [-41.86305, -20.42869], [-41.86212, -20.42779], [-41.861, -20.4275], [-41.85968, -20.4274], [-41.85919, -20.42681], [-41.85821, -20.42628], [-41.85805, -20.42594], [-41.85763, -20.42585], [-41.85687, -20.42467], [-41.85663, -20.42457], [-41.85534, -20.42487], [-41.85486, -20.42454], [-41.85397, -20.42429], [-41.85395, -20.42382], [-41.85343, -20.42293], [-41.85103, -20.42191], [-41.84971, -20.42116], [-41.84861, -20.42103], [-41.84769, -20.41994], [-41.84679, -20.42359], [-41.84647, -20.42582], [-41.84735, -20.43015], [-41.84536, -20.43267], [-41.8453, -20.43547], [-41.84713, -20.4363], [-41.84817, -20.43716], [-41.84654, -20.43824], [-41.84633, -20.44202], [-41.84644, -20.44275], [-41.84713, -20.44326], [-41.84877, -20.44372], [-41.84952, -20.44336], [-41.84991, -20.44333], [-41.85058, -20.44368], [-41.85104, -20.4443], [-41.85144, -20.44525], [-41.85233, -20.44979], [-41.85282, -20.45484], [-41.8549, -20.45757], [-41.85689, -20.46191], [-41.85741, -20.46486], [-41.857, -20.46682], [-41.85746, -20.47103], [-41.85727, -20.48051], [-41.85742, -20.4843], [-41.85697, -20.48681], [-41.85593, -20.48832], [-41.85568, -20.49062], [-41.85618, -20.49266], [-41.85777, -20.49366]]]}}, 
{"type": "Feature", "properties": {"CD_SETOR": "310205005000007", "CD_SIT": "8", "NM_DIST": "Alto Caparaó", "NM_SUBDIST": null}, "geometry": {"type": "Polygon", "coordinates": [[[-41.83664, -20.40911], [-41.83653, -20.40931], [-41.83511, -20.40863], [-41.8346, -20.41105], [-41.83431, -20.41146], [-41.83376, -20.41151], [-41.8332, -20.41226], [-41.83269, -20.41249], [-41.83111, -20.41241], [-41.83045, -20.41308], [-41.82787, -20.41314], [-41.82672, -20.41418], [-41.82346, -20.41576], [-41.81929, -20.41756], [-41.81715, -20.41805], [-41.81476, -20.41935], [-41.81142, -20.41991], [-41.80979, -20.42051], [-41.80808, -20.42009], [-41.80661, -20.42146], [-41.80368, -20.42198], [-41.80288, -20.42317], [-41.80326, -20.42601], [-41.80293, -20.42753], [-41.80382, -20.42881], [-41.8036, -20.42953], [-41.80139, -20.43098], [-41.79823, -20.43502], [-41.79913, -20.43701], [-41.79947, -20.4397], [-41.80206, -20.44173], [-41.80287, -20.44296], [-41.80175, -20.44928], [-41.80163, -20.4539], [-41.79926, -20.46314], [-41.79984, -20.46596], [-41.80142, -20.46817], [-41.80156, -20.46927], [-41.79993, -20.47355], [-41.79944, -20.47728], [-41.80175, -20.47657], [-41.8056, -20.47822], [-41.80817, -20.47772], [-41.81065, -20.47964], [-41.81287, -20.48057], [-41.82089, -20.48143], [-41.82565, -20.48336], [-41.82585, -20.48371], [-41.82639, -20.48387], [-41.82712, -20.48454], [-41.82762, -20.48462], [-41.82868, -20.48591], [-41.82919, -20.48606], [-41.8297, -20.4859], [-41.83059, -20.48525], [-41.83188, -20.48381], [-41.83314, -20.48371], [-41.8344, -20.48406], [-41.83604, -20.48382], [-41.83649, -20.48355], [-41.83755, -20.48187], [-41.83804, -20.48178], [-41.8392, -20.48271], [-41.84069, -20.48493], [-41.84083, -20.48744], [-41.84142, -20.48848], [-41.8428, -20.48925], [-41.84434, -20.4894], [-41.84506, -20.48971], [-41.84656, -20.4899], [-41.84725, -20.49028], [-41.84775, -20.49083], [-41.84795, -20.49155], [-41.84798, -20.49403], [-41.84903, -20.49632], [-41.85021, -20.49817], [-41.85263, -20.49664], [-41.85389, -20.49629], [-41.85437, -20.4963], [-41.85483, -20.49605], [-41.85643, -20.49476], [-41.85682, -20.49428], [-41.85777, -20.49366], [-41.85618, -20.49266], [-41.85568, -20.49062], [-41.85593, -20.48832], [-41.85697, -20.48681], [-41.85742, -20.4843], [-41.85727, -20.48051], [-41.85746, -20.47103], [-41.857, -20.46682], [-41.85741, -20.46486], [-41.85689, -20.46191], [-41.8549, -20.45757], [-41.85282, -20.45484], [-41.85233, -20.44979], [-41.85144, -20.44525], [-41.85104, -20.4443], [-41.85058, -20.44368], [-41.84991, -20.44333], [-41.84952, -20.44336], [-41.84877, -20.44372], [-41.84713, -20.44326], [-41.84644, -20.44275], [-41.84633, -20.44202], [-41.84654, -20.43824], [-41.84817, -20.43716], [-41.84713, -20.4363], [-41.8453, -20.43547], [-41.84536, -20.43267], [-41.84735, -20.43015], [-41.84647, -20.42582], [-41.84679, -20.42359], [-41.84769, -20.41994], [-41.84767, -20.41921], [-41.84822, -20.41934], [-41.84845, -20.41964], [-41.84879, -20.41973], [-41.84932, -20.41955], [-41.84977, -20.41979], [-41.85065, -20.41939], [-41.85077, -20.41897], [-41.85244, -20.41801], [-41.85248, -20.4177], [-41.85175, -20.41694], [-41.85055, -20.41723], [-41.8501, -20.4171], [-41.84972, -20.41611], [-41.84963, -20.41454], [-41.84979, -20.41368], [-41.8489, -20.41248], [-41.84952, -20.4111], [-41.84948, -20.41046], [-41.84902, -20.4096], [-41.84882, -20.40864], [-41.84916, -20.40829], [-41.84994, -20.40797], [-41.84974, -20.40634], [-41.84956, -20.40602], [-41.84958, -20.40521], [-41.85003, -20.40398], [-41.85001, -20.40328], [-41.85022, -20.40248], [-41.85046, -20.4021], [-41.84963, -20.40263], [-41.84804, -20.40584], [-41.84518, -20.40835], [-41.84422, -20.40852], [-41.84096, -20.40775], [-41.84021, -20.40775], [-41.83891, -20.40816], [-41.83801, -20.40901], [-41.83715, -20.40925], [-41.83664, -20.40911]]]}}, 
{"type": "Feature", "properties": {"CD_SETOR": "310205005000008", "CD_SIT": "1", "NM_DIST": "Alto Caparaó", "NM_SUBDIST": null}, "geometry": {"type": "Polygon", "coordinates": [[[-41.87456, -20.44839], [-41.87304, -20.45006], [-41.87248, -20.44985], [-41.87144, -20.45023], [-41.87141, -20.45066], [-41.87056, -20.45096], [-41.87144, -20.45216], [-41.8711, -20.45232], [-41.87109, -20.45269], [-41.87056, -20.45306], [-41.87079, -20.4537], [-41.87116, -20.45388], [-41.87185, -20.45385], [-41.8725, -20.45342], [-41.87334, -20.45317], [-41.87536, -20.45286], [-41.87567, -20.45344], [-41.87641, -20.45311], [-41.87657, -20.45366], [-41.87711, -20.45364], [-41.87784, -20.45437], [-41.87801, -20.45371], [-41.8777, -20.45357], [-41.87836, -20.45221], [-41.87857, -20.45088], [-41.87919, -20.4505], [-41.87982, -20.45053], [-41.88011, -20.45036], [-41.88004, -20.44936], [-41.87913, -20.44935], [-41.87763, -20.44967], [-41.87697, -20.44956], [-41.87616, -20.44901], [-41.8759, -20.44811], [-41.87622, -20.44741], [-41.87599, -20.44702], [-41.87578, -20.44716], [-41.87545, -20.44798], [-41.87471, -20.4485], [-41.87456, -20.44839]]]}}, 
{"type": "Feature", "properties": {"CD_SETOR": "310205005000011", "CD_SIT": "1", "NM_DIST": "Alto Caparaó", "NM_SUBDIST": null}, "geometry": {"type": "Polygon", "coordinates": [[[-41.86904, -20.44479], [-41.86874, -20.44599], [-41.86894, -20.44649], [-41.87064, -20.44658], [-41.87233, -20.44816], [-41.87393, -20.44917], [-41.87456, -20.44839], [-41.87257, -20.44657], [-41.87099, -20.44394], [-41.86948, -20.44481], [-41.86941, -20.44468], [-41.86904, -20.44479]]]}}, 
{"type": "Feature", "properties": {"CD_SETOR": "310205005000012", "CD_SIT": "1", "NM_DIST": "Alto Caparaó", "NM_SUBDIST": null}, "geometry": {"type": "Polygon", "coordinates": [[[-41.86389, -20.44421], [-41.86381, -20.44471], [-41.86459, -20.44564], [-41.86497, -20.44555], [-41.86527, -20.44521], [-41.86585, -20.44526], [-41.86626, -20.44497], [-41.86761, -20.44462], [-41.86817, -20.4447], [-41.86841, -20.44504], [-41.86707, -20.44577], [-41.86611, -20.44662], [-41.86597, -20.44865], [-41.86842, -20.44764], [-41.86855, -20.44818], [-41.8696, -20.44831], [-41.87192, -20.4477], [-41.87051, -20.44651], [-41.86902, -20.44653], [-41.86885, -20.4464], [-41.86874, -20.44599], [-41.86904, -20.44479], [-41.8681, -20.44286], [-41.8677, -20.44156], [-41.86702, -20.4417], [-41.86642, -20.4421], [-41.86472, -20.44279], [-41.86468, -20.4438], [-41.86389, -20.44421]]]}}, 
{"type": "Feature", "properties": {"CD_SETOR": "310205005000013", "CD_SIT": "1", "NM_DIST": "Alto Caparaó", "NM_SUBDIST": null}, "geometry": {"type": "Polygon", "coordinates": [[[-41.86597, -20.44865], [-41.86616, -20.44936], [-41.86679, -20.44995], [-41.86741, -20.44983], [-41.86767, -20.44946], [-41.86805, -20.44932], [-41.86855, -20.4495], [-41.86946, -20.45108], [-41.86923, -20.45213], [-41.86961, -20.45312], [-41.86979, -20.45325], [-41.87078, -20.45296], [-41.87109, -20.45269], [-41.8711, -20.45232], [-41.87144, -20.45216], [-41.87056, -20.45096], [-41.87141, -20.45066], [-41.87144, -20.45023], [-41.87248, -20.44985], [-41.87304, -20.45006], [-41.87393, -20.44917], [-41.87233, -20.44816], [-41.87192, -20.4477], [-41.8696, -20.44831], [-41.86855, -20.44818], [-41.86842, -20.44764], [-41.86597, -20.44865]]]}}, 
{"type": "Feature", "properties": {"CD_SETOR": "310205005000014", "CD_SIT": "1", "NM_DIST": "Alto Caparaó", "NM_SUBDIST": null}, "geometry": {"type": "Polygon", "coordinates": [[[-41.86163, -20.43345], [-41.86322, -20.43305], [-41.86473, -20.43329], [-41.86482, -20.43359], [-41.86568, -20.43438], [-41.86527, -20.43544], [-41.86544, -20.43565], [-41.86616, -20.4357], [-41.86705, -20.43648], [-41.86633, -20.43874], [-41.86575, -20.4392], [-41.86684, -20.44053], [-41.86713, -20.44111], [-41.8677, -20.44156], [-41.86868, -20.44081], [-41.86823, -20.44002], [-41.86789, -20.43868], [-41.86848, -20.43687], [-41.86839, -20.43522], [-41.8677, -20.43358], [-41.86707, -20.43307], [-41.86668, -20.43332], [-41.86517, -20.43321], [-41.8647, -20.43199], [-41.86435, -20.43162], [-41.86384, -20.4314], [-41.86308, -20.43198], [-41.86222, -20.43194], [-41.8615, -20.43212], [-41.86077, -20.4333], [-41.86163, -20.43345]]]}}, 
{"type": "Feature", "properties": {"CD_SETOR": "310205005000015", "CD_SIT": "1", "NM_DIST": "Alto Caparaó", "NM_SUBDIST": null}, "geometry": {"type": "Polygon", "coordinates": [[[-41.86163, -20.43345], [-41.86173, -20.43668], [-41.85963, -20.43788], [-41.85926, -20.43825], [-41.8598, -20.43897], [-41.86095, -20.43948], [-41.86181, -20.44017], [-41.8614, -20.4404], [-41.86121, -20.44142], [-41.8613, -20.44182], [-41.86082, -20.44222], [-41.8602, -20.44233], [-41.85992, -20.44288], [-41.8603, -20.44345], [-41.86073, -20.44374], [-41.86194, -20.4439], [-41.86286, -20.44458], [-41.86324, -20.44456], [-41.86463, -20.44388], [-41.86472, -20.44279], [-41.86642, -20.4421], [-41.86702, -20.4417], [-41.8677, -20.44156], [-41.86713, -20.44111], [-41.86684, -20.44053], [-41.86575, -20.4392], [-41.86633, -20.43874], [-41.86705, -20.43648], [-41.86616, -20.4357], [-41.86544, -20.43565], [-41.86527, -20.43544], [-41.86568, -20.43438], [-41.86482, -20.43359], [-41.86468, -20.43325], [-41.86322, -20.43305], [-41.86163, -20.43345]]]}}, 
{"type": "Feature", "properties": {"CD_SETOR": "310205005000016", "CD_SIT": "8", "NM_DIST": "Alto Caparaó", "NM_SUBDIST": null}, "geometry": {"type": "Polygon", "coordinates": [[[-41.91307, -20.46252], [-41.91341, -20.46566], [-41.91234, -20.46912], [-41.91333, -20.47233], [-41.91431, -20.47427], [-41.9132, -20.47692], [-41.91022, -20.47883], [-41.90939, -20.48034], [-41.90919, -20.48101], [-41.91053, -20.48301], [-41.913, -20.48499], [-41.9136, -20.48598], [-41.91466, -20.48716], [-41.91527, -20.48825], [-41.91592, -20.48871], [-41.91615, -20.4894], [-41.91619, -20.49094], [-41.91658, -20.49162], [-41.91962, -20.49332], [-41.92068, -20.49476], [-41.92068, -20.49548], [-41.92036, -20.49627], [-41.91959, -20.49727], [-41.91802, -20.49861], [-41.91737, -20.50047], [-41.91698, -20.50111], [-41.91455, -20.503], [-41.91423, -20.50333], [-41.91414, -20.50379], [-41.91458, -20.50512], [-41.91567, -20.50621], [-41.91688, -20.50714], [-41.91861, -20.50906], [-41.92123, -20.51358], [-41.92268, -20.51388], [-41.92452, -20.5138], [-41.9263, -20.51342], [-41.92681, -20.51348], [-41.9279, -20.51411], [-41.92981, -20.51612], [-41.93045, -20.51656], [-41.93092, -20.5166], [-41.93145, -20.51638], [-41.93245, -20.51464], [-41.93381, -20.51347], [-41.93515, -20.51351], [-41.93608, -20.5138], [-41.93859, -20.51371], [-41.94034, -20.51257], [-41.94087, -20.51172], [-41.94237, -20.51053], [-41.94433, -20.50966], [-41.94509, -20.5094], [-41.95074, -20.50874], [-41.95145, -20.50836], [-41.95234, -20.50733], [-41.95352, -20.50661], [-41.95667, -20.50723], [-41.95784, -20.50711], [-41.95898, -20.50662], [-41.96095, -20.50494], [-41.96251, -20.50453], [-41.96063, -20.50191], [-41.96024, -20.50165], [-41.95882, -20.50122], [-41.95829, -20.50077], [-41.95761, -20.49993], [-41.95745, -20.4994], [-41.95675, -20.49844], [-41.95346, -20.49675], [-41.95246, -20.49666], [-41.94823, -20.49719], [-41.94641, -20.49697], [-41.94341, -20.49502], [-41.94056, -20.49496], [-41.94009, -20.49477], [-41.9398, -20.49437], [-41.93969, -20.49343], [-41.93943, -20.493], [-41.93819, -20.492], [-41.93728, -20.49162], [-41.93615, -20.49167], [-41.93523, -20.49207], [-41.93352, -20.49252], [-41.93228, -20.49234], [-41.93165, -20.49156], [-41.93107, -20.48776], [-41.93051, -20.48609], [-41.9306, -20.4843], [-41.93044, -20.4829], [-41.92905, -20.48047], [-41.9286, -20.47877], [-41.92825, -20.47645], [-41.92797, -20.4755], [-41.92766, -20.47509], [-41.92772, -20.47411], [-41.92851, -20.47254], [-41.92838, -20.47158], [-41.92755, -20.47071], [-41.92504, -20.46927], [-41.92476, -20.46928], [-41.92437, -20.46904], [-41.92309, -20.46781], [-41.92129, -20.4667], [-41.92107, -20.46603], [-41.91967, -20.46389], [-41.91851, -20.46318], [-41.91786, -20.46282], [-41.91559, -20.46265], [-41.91382, -20.46272], [-41.91307, -20.46252]]]}}, 
{"type": "Feature", "properties": {"CD_SETOR": "310205005000017", "CD_SIT": "8", "NM_DIST": "Alto Caparaó", "NM_SUBDIST": null}, "geometry": {"type": "Polygon", "coordinates": [[[-41.91527, -20.48825], [-41.91466, -20.48716], [-41.9136, -20.48598], [-41.913, -20.48499], [-41.91053, -20.48301], [-41.90919, -20.48101], [-41.90939, -20.48034], [-41.91022, -20.47883], [-41.9132, -20.47692], [-41.91431, -20.47427], [-41.91333, -20.47233], [-41.91234, -20.46912], [-41.91341, -20.46566], [-41.91307, -20.46252], [-41.91217, -20.46172], [-41.91077, -20.45999], [-41.91099, -20.4583], [-41.91174, -20.45673], [-41.91181, -20.45576], [-41.91108, -20.45444], [-41.90981, -20.45319], [-41.90861, -20.4522], [-41.90565, -20.45052], [-41.90459, -20.44938], [-41.9039, -20.451], [-41.90343, -20.45357], [-41.90314, -20.45413], [-41.90264, -20.45466], [-41.90159, -20.455], [-41.90119, -20.45552], [-41.90012, -20.45563], [-41.89967, -20.45626], [-41.89998, -20.45697], [-41.89982, -20.45739], [-41.90006, -20.4578], [-41.90008, -20.45857], [-41.89976, -20.4593], [-41.89978, -20.46005], [-41.90022, -20.46129], [-41.90003, -20.46136], [-41.89956, -20.46118], [-41.89909, -20.46131], [-41.89847, -20.46174], [-41.89802, -20.46239], [-41.89685, -20.4629], [-41.89493, -20.46274], [-41.89455, -20.46305], [-41.89395, -20.46281], [-41.89346, -20.46308], [-41.89246, -20.46291], [-41.89192, -20.4625], [-41.89112, -20.46238], [-41.88945, -20.46307], [-41.8886, -20.46401], [-41.88832, -20.46509], [-41.88769, -20.46535], [-41.88753, -20.46585], [-41.88642, -20.46706], [-41.88607, -20.46782], [-41.88549, -20.46825], [-41.88456, -20.46971], [-41.88416, -20.46995], [-41.8838, -20.46997], [-41.8833, -20.46964], [-41.88241, -20.46985], [-41.88189, -20.46919], [-41.87979, -20.46854], [-41.87934, -20.46856], [-41.87802, -20.4692], [-41.87823, -20.4702], [-41.8792, -20.4713], [-41.87967, -20.47125], [-41.87983, -20.47107], [-41.88061, -20.46954], [-41.88164, -20.46998], [-41.88191, -20.46984], [-41.88261, -20.4701], [-41.88321, -20.47009], [-41.88337, -20.47099], [-41.88463, -20.47153], [-41.88506, -20.47241], [-41.88593, -20.47343], [-41.88631, -20.47367], [-41.88685, -20.47365], [-41.88724, -20.47398], [-41.8872, -20.47438], [-41.8866, -20.47475], [-41.88494, -20.47528], [-41.88515, -20.47574], [-41.88416, -20.47698], [-41.88379, -20.47792], [-41.88236, -20.47842], [-41.88249, -20.47865], [-41.88332, -20.47868], [-41.88373, -20.4791], [-41.88404, -20.48099], [-41.88352, -20.481], [-41.8831, -20.48129], [-41.88256, -20.48302], [-41.88245, -20.48416], [-41.88202, -20.48446], [-41.88186, -20.48487], [-41.88126, -20.48512], [-41.88045, -20.48509], [-41.88024, -20.48533], [-41.88028, -20.48557], [-41.88092, -20.48622], [-41.88119, -20.48709], [-41.88037, -20.48822], [-41.88021, -20.48913], [-41.88025, -20.48928], [-41.88078, -20.48921], [-41.88195, -20.48825], [-41.883, -20.48824], [-41.88369, -20.48856], [-41.88282, -20.48927], [-41.88265, -20.4903], [-41.88231, -20.49097], [-41.88197, -20.49128], [-41.88022, -20.49206], [-41.88004, -20.49342], [-41.88076, -20.49361], [-41.88174, -20.4935], [-41.88196, -20.49359], [-41.88251, -20.4934], [-41.88505, -20.49504], [-41.88693, -20.49508], [-41.88785, -20.49545], [-41.8889, -20.49689], [-41.89086, -20.49872], [-41.89325, -20.49986], [-41.89493, -20.50172], [-41.89578, -20.5022], [-41.89629, -20.50223], [-41.8967, -20.50192], [-41.8969, -20.50028], [-41.89727, -20.49916], [-41.89808, -20.49792], [-41.89949, -20.49663], [-41.89996, -20.49524], [-41.90017, -20.49402], [-41.90054, -20.4931], [-41.90104, -20.49258], [-41.9022, -20.49197], [-41.90433, -20.49161], [-41.9062, -20.49069], [-41.91082, -20.48972], [-41.9143, -20.48813], [-41.91527, -20.48825]]]}}]}