{"type": "FeatureCollection", "features": [
{"type": "Feature", "properties": {"CD_SETOR": "310390005000001", "CD_SIT": "1", "NM_DIST": "Araújos", "NM_SUBDIST": null}, "geometry": {"type": "Polygon", "coordinates": [[[-45.16436, -19.94595], [-45.1668, -19.94804], [-45.16734, -19.94746], [-45.16951, -19.94926], [-45.17015, -19.94857], [-45.16801, -19.94674], [-45.16703, -19.94531], [-45.16595, -19.94431], [-45.16436, -19.94595]]]}}, 
{"type": "Feature", "properties": {"CD_SETOR": "310390005000002", "CD_SIT": "1", "NM_DIST": "Araújos", "NM_SUBDIST": null}, "geometry": {"type": "Polygon", "coordinates": [[[-45.16029, -19.94459], [-45.16326, -19.94714], [-45.16215, -19.9482], [-45.16309, -19.94826], [-45.16432, -19.94931], [-45.16575, -19.94787], [-45.16643, -19.94844], [-45.1668, -19.94804], [-45.16138, -19.94347], [-45.16029, -19.94459]]]}}, 
{"type": "Feature", "properties": {"CD_SETOR": "310390005000005", "CD_SIT": "1", "NM_DIST": "Araújos", "NM_SUBDIST": null}, "geometry": {"type": "Polygon", "coordinates": [[[-45.16595, -19.94431], [-45.16703, -19.94531], [-45.16801, -19.94674], [-45.17015, -19.94857], [-45.16951, -19.94926], [-45.17151, -19.95097], [-45.17343, -19.94966], [-45.174, -19.94955], [-45.174, -19.94939], [-45.17318, -19.94872], [-45.17315, -19.94823], [-45.17373, -19.94759], [-45.1728, -19.94681], [-45.17192, -19.94768], [-45.16925, -19.94543], [-45.16955, -19.9451], [-45.16869, -19.94433], [-45.1677, -19.94466], [-45.16782, -19.94447], [-45.1667, -19.94355], [-45.16595, -19.94431]]]}}, 
{"type": "Feature", "properties": {"CD_SETOR": "310390005000006", "CD_SIT": "1", "NM_DIST": "Araújos", "NM_SUBDIST": null}, "geometry": {"type": "Polygon", "coordinates": [[[-45.15977, -19.93996], [-45.1616, -19.94197], [-45.16206, -19.9427], [-45.16138, -19.94347], [-45.16299, -19.94481], [-45.16454, -19.94318], [-45.16372, -19.94246], [-45.16479, -19.94132], [-45.16172, -19.94181], [-45.16149, -19.94128], [-45.16008, -19.93965], [-45.15977, -19.93996]]]}}, 
{"type": "Feature", "properties": {"CD_SETOR": "310390005000007", "CD_SIT": "1", "NM_DIST": "Araújos", "NM_SUBDIST": null}, "geometry": {"type": "Polygon", "coordinates": [[[-45.15842, -19.93678], [-45.15845, -19.93747], [-45.15977, -19.93996], [-45.16008, -19.93965], [-45.16149, -19.94128], [-45.16172, -19.94181], [-45.16498, -19.9413], [-45.16584, -19.93824], [-45.165, -19.93775], [-45.16353, -19.93728], [-45.16263, -19.9365], [-45.16127, -19.93662], [-45.1596, -19.9365], [-45.15842, -19.93678]]]}}, 
{"type": "Feature", "properties": {"CD_SETOR": "310390005000009", "CD_SIT": "8", "NM_DIST": "Araújos", "NM_SUBDIST": null}, "geometry": {"type": "Polygon", "coordinates": [[[-45.12818, -19.78096], [-45.12886, -19.78186], [-45.12896, -19.78232], [-45.12808, -19.78341], [-45.12832, -19.78543], [-45.1281, -19.78592], [-45.12777, -19.78622], [-45.12648, -19.78678], [-45.12472, -19.78793], [-45.12426, -19.78802], [-45.12378, -19.78801], [-45.12297, -19.78753], [-45.121, -19.78739], [-45.12108, -19.78783], [-45.1214, -19.78814], [-45.1215, -19.78913], [-45.12109, -19.78934], [-45.11992, -19.78837], [-45.11948, -19.78858], [-45.11937, -19.78904], [-45.11952, -19.78952], [-45.11935, -19.78998], [-45.11882, -19.78996], [-45.11755, -19.78929], [-45.11655, -19.78932], [-45.11636, -19.78978], [-45.11652, -19.79068], [-45.11628, -19.79109], [-45.11472, -19.79104], [-45.11448, -19.79152], [-45.11451, -19.79196], [-45.11562, -19.79356], [-45.11595, -19.79445], [-45.11596, -19.79733], [-45.11536, -19.79862], [-45.11412, -19.80008], [-45.11388, -19.80101], [-45.11397, -19.80241], [-45.11349, -19.80319], [-45.11303, -19.80329], [-45.1127, -19.80362], [-45.1117, -19.80374], [-45.11201, -19.8056], [-45.11165, -19.80588], [-45.11119, -19.80595], [-45.11026, -19.80578], [-45.1102, -19.80622], [-45.11059, -19.80654], [-45.11101, -19.80752], [-45.11073, -19.8084], [-45.10992, -19.80972], [-45.10977, -19.8109], [-45.12741, -19.80628], [-45.13335, -19.80331], [-45.13466, -19.80584], [-45.13474, -19.8079], [-45.13724, -19.81122], [-45.13734, -19.81193], [-45.13692, -19.81278], [-45.13269, -19.81686], [-45.13213, -19.81842], [-45.1321, -19.81916], [-45.13273, -19.82174], [-45.1327, -19.82229], [-45.13246, -19.82282], [-45.13114, -19.82408], [-45.12932, -19.82951], [-45.12919, -19.83109], [-45.12942, -19.83212], [-45.13004, -19.83348], [-45.13066, -19.83431], [-45.13275, -19.83534], [-45.13315, -19.83578], [-45.1334, -19.83701], [-45.13376, -19.8373], [-45.1356, -19.83768], [-45.1366, -19.83811], [-45.14019, -19.84053], [-45.14483, -19.84318], [-45.14678, -19.84545], [-45.1468, -19.84633], [-45.14431, -19.85109], [-45.14401, -19.85196], [-45.14453, -19.85497], [-45.14555, -19.85902], [-45.14678, -19.86159], [-45.14689, -19.86214], [-45.14627, -19.86388], [-45.14604, -19.86524], [-45.14622, -19.8662], [-45.14849, -19.87079], [-45.15094, -19.87245], [-45.15181, -19.87328], [-45.15243, -19.87417], [-45.15372, -19.87496], [-45.1562, -19.87726], [-45.15681, -19.87821], [-45.15775, -19.8803], [-45.15833, -19.88211], [-45.15856, -19.88331], [-45.15846, -19.88397], [-45.15816, -19.88449], [-45.15662, -19.88541], [-45.15632, -19.88603], [-45.15647, -19.88813], [-45.15679, -19.88895], [-45.15787, -19.89072], [-45.15844, -19.89219], [-45.15864, -19.89412], [-45.15888, -19.90212], [-45.15852, -19.90302], [-45.15801, -19.90352], [-45.15799, -19.90402], [-45.15838, -19.90731], [-45.15747, -19.91145], [-45.15631, -19.91531], [-45.15653, -19.91789], [-45.15701, -19.91895], [-45.15784, -19.91992], [-45.15801, -19.9204], [-45.15781, -19.92333], [-45.15702, -19.9252], [-45.15692, -19.92577], [-45.15784, -19.92869], [-45.15804, -19.93151], [-45.16069, -19.92965], [-45.16554, -19.9244], [-45.16597, -19.92381], [-45.16621, -19.92297], [-45.16626, -19.9216], [-45.16665, -19.92089], [-45.16842, -19.91876], [-45.16961, -19.91668], [-45.17104, -19.91581], [-45.17203, -19.91431], [-45.17348, -19.91301], [-45.17417, -19.91093], [-45.17511, -19.91011], [-45.17536, -19.90912], [-45.17597, -19.90793], [-45.1769, -19.90704], [-45.17706, -19.90665], [-45.17664, -19.90607], [-45.17616, -19.90486], [-45.17647, -19.9008], [-45.17559, -19.89817], [-45.17615, -19.89672], [-45.17601, -19.89601], [-45.17683, -19.89327], [-45.17652, -19.89089], [-45.1766, -19.88976], [-45.1761, -19.8889], [-45.17617, -19.88729], [-45.17648, -19.88597], [-45.17648, -19.88514], [-45.17683, -19.88469], [-45.17665, -19.8838], [-45.17676, -19.88302], [-45.17765, -19.88246], [-45.17845, -19.88249], [-45.17896, -19.88217], [-45.17985, -19.87757], [-45.17972, -19.87613], [-45.1793, -19.87458], [-45.17919, -19.87156], [-45.17827, -19.86917], [-45.17818, -19.86853], [-45.17785, -19.86582], [-45.17799, -19.86433], [-45.1776, -19.86186], [-45.17771, -19.86124], [-45.17856, -19.85923], [-45.17894, -19.85864], [-45.17964, -19.85826], [-45.17988, -19.8572], [-45.17995, -19.85485], [-45.18205, -19.85275], [-45.18232, -19.85233], [-45.1825, -19.85156], [-45.18238, -19.85068], [-45.18184, -19.84984], [-45.18023, -19.84886], [-45.18029, -19.84784], [-45.18008, -19.84692], [-45.18037, -19.84597], [-45.18067, -19.84556], [-45.1811, -19.84535], [-45.19094, -19.8445], [-45.19265, -19.84315], [-45.19408, -19.84281], [-45.19507, -19.84228], [-45.19498, -19.84119], [-45.19628, -19.84034], [-45.19899, -19.83954], [-45.20002, -19.83948], [-45.20036, -19.83978], [-45.20051, -19.84024], [-45.20187, -19.83967], [-45.20216, -19.83885], [-45.20202, -19.83771], [-45.2036, -19.8379], [-45.20867, -19.83749], [-45.21009, -19.83752], [-45.21203, -19.83805], [-45.21329, -19.83801], [-45.21414, -19.83766], [-45.21509, -19.8368], [-45.21564, -19.83657], [-45.21704, -19.83629], [-45.21858, -19.83634], [-45.22179, -19.83574], [-45.22922, -19.83346], [-45.22947, -19.83316], [-45.23022, -19.83281], [-45.23069, -19.8318], [-45.23066, -19.83129], [-45.23027, -19.83102], [-45.22981, -19.83119], [-45.2293, -19.83099], [-45.227, -19.82816], [-45.22603, -19.82782], [-45.22568, -19.82746], [-45.22563, -19.82493], [-45.22496, -19.82415], [-45.22411, -19.82368], [-45.22301, -19.82344], [-45.22253, -19.82358], [-45.22195, -19.8243], [-45.22198, -19.82476], [-45.22155, -19.82492], [-45.22069, -19.82443], [-45.22046, -19.8239], [-45.22002, -19.82363], [-45.21862, -19.8239], [-45.21816, -19.82413], [-45.21787, -19.8245], [-45.21778, -19.82494], [-45.21744, -19.82527], [-45.21487, -19.82534], [-45.21388, -19.82569], [-45.21242, -19.82559], [-45.21182, -19.82427], [-45.21154, -19.82388], [-45.21071, -19.82338], [-45.21059, -19.82294], [-45.20827, -19.82221], [-45.20789, -19.82129], [-45.20783, -19.82017], [-45.20763, -19.81966], [-45.20731, -19.81923], [-45.20646, -19.81887], [-45.20575, -19.8183], [-45.2048, -19.81845], [-45.20401, -19.81795], [-45.20312, -19.8181], [-45.20181, -19.82064], [-45.20135, -19.82081], [-45.20033, -19.82064], [-45.19987, -19.82073], [-45.19936, -19.82094], [-45.19866, -19.82164], [-45.19769, -19.82202], [-45.19665, -19.82196], [-45.19472, -19.82136], [-45.19424, -19.82136], [-45.19278, -19.82182], [-45.19176, -19.82183], [-45.19038, -19.82214], [-45.18893, -19.82268], [-45.18786, -19.82253], [-45.18736, -19.82164], [-45.18619, -19.8208], [-45.18554, -19.82007], [-45.1854, -19.81828], [-45.18488, -19.81746], [-45.18467, -19.8161], [-45.18435, -19.81569], [-45.18422, -19.81477], [-45.1839, -19.81443], [-45.18353, -19.81409], [-45.18168, -19.8133], [-45.18019, -19.8132], [-45.17919, -19.81278], [-45.17827, -19.81265], [-45.17712, -19.81188], [-45.17669, -19.8105], [-45.17671, -19.808], [-45.17723, -19.80725], [-45.17774, -19.80709], [-45.17808, -19.80676], [-45.1779, -19.80635], [-45.17792, -19.80541], [-45.17827, -19.80446], [-45.17826, -19.80395], [-45.17752, -19.80265], [-45.17652, -19.80257], [-45.17563, -19.80297], [-45.17514, -19.80286], [-45.17441, -19.80227], [-45.17331, -19.80226], [-45.17288, -19.80251], [-45.17239, -19.80254], [-45.17186, -19.80241], [-45.17006, -19.80054], [-45.1699, -19.79909], [-45.1691, -19.79719], [-45.16828, -19.79587], [-45.16792, -19.79557], [-45.16595, -19.79536], [-45.16511, -19.79477], [-45.16461, -19.79376], [-45.16425, -19.79345], [-45.16381, -19.79322], [-45.16279, -19.79314], [-45.16188, -19.79266], [-45.1613, -19.79276], [-45.16138, -19.79322], [-45.16122, -19.79428], [-45.16086, -19.79472], [-45.15994, -19.79471], [-45.15822, -19.79351], [-45.15773, -19.7934], [-45.1573, -19.79356], [-45.15681, -19.7935], [-45.15639, -19.79309], [-45.15593, -19.79298], [-45.15507, -19.79243], [-45.15409, -19.79141], [-45.15321, -19.79089], [-45.15165, -19.79047], [-45.1507, -19.79045], [-45.14936, -19.79001], [-45.14887, -19.78967], [-45.14843, -19.78887], [-45.14687, -19.78888], [-45.14493, -19.78952], [-45.14391, -19.78951], [-45.14345, -19.78933], [-45.14054, -19.78738], [-45.14025, -19.78545], [-45.13901, -19.78378], [-45.13888, -19.78236], [-45.13846, -19.78154], [-45.13797, -19.7814], [-45.13649, -19.78142], [-45.13575, -19.7808], [-45.13529, -19.78095], [-45.13441, -19.78052], [-45.13388, -19.78052], [-45.13301, -19.77945], [-45.1325, -19.77941], [-45.13204, -19.7796], [-45.132, -19.7805], [-45.13169, -19.78082], [-45.13084, -19.78042], [-45.12994, -19.78077], [-45.12818, -19.78096]], [[-45.15355, -19.80349], [-45.15414, -19.80333], [-45.15332, -19.80093], [-45.15523, -19.80027], [-45.15578, -19.80053], [-45.1562, -19.80112], [-45.1575, -19.80421], [-45.15413, -19.80514], [-45.15355, -19.80349]]]}}, 
{"type": "Feature", "properties": {"CD_SETOR": "310390005000010", "CD_SIT": "5", "NM_DIST": "Araújos", "NM_SUBDIST": null}, "geometry": {"type": "Polygon", "coordinates": [[[-45.19507, -19.84228], [-45.19532, -19.84326], [-45.19586, -19.8435], [-45.19657, -19.84348], [-45.20022, -19.84266], [-45.20064, -19.84129], [-45.20062, -19.84054], [-45.20036, -19.83978], [-45.20002, -19.83948], [-45.19899, -19.83954], [-45.19628, -19.84034], [-45.19498, -19.84119], [-45.19507, -19.84228]]]}}, 
{"type": "Feature", "properties": {"CD_SETOR": "310390005000011", "CD_SIT": "5", "NM_DIST": "Araújos", "NM_SUBDIST": null}, "geometry": {"type": "Polygon", "coordinates": [[[-45.15355, -19.80349], [-45.15413, -19.80514], [-45.1575, -19.80421], [-45.1562, -19.80112], [-45.15578, -19.80053], [-45.15523, -19.80027], [-45.15332, -19.80093], [-45.15414, -19.80333], [-45.15355, -19.80349]]]}}, 
{"type": "Feature", "properties": {"CD_SETOR": "310390005000013", "CD_SIT": "1", "NM_DIST": "Araújos", "NM_SUBDIST": null}, "geometry": {"type": "Polygon", "coordinates": [[[-45.1668, -19.94804], [-45.16643, -19.94844], [-45.16575, -19.94787], [-45.16464, -19.94899], [-45.16609, -19.95025], [-45.16645, -19.94986], [-45.16734, -19.95061], [-45.16902, -19.94887], [-45.16734, -19.94746], [-45.1668, -19.94804]]]}}, 
{"type": "Feature", "properties": {"CD_SETOR": "310390005000016", "CD_SIT": "8", "NM_DIST": "Araújos", "NM_SUBDIST": null}, "geometry": {"type": "Polygon", "coordinates": [[[-45.10977, -19.8109], [-45.11006, -19.81142], [-45.1106, -19.81157], [-45.11108, -19.81152], [-45.11209, -19.81059], [-45.11258, -19.81054], [-45.11283, -19.81192], [-45.11355, -19.81253], [-45.11397, -19.81384], [-45.11532, -19.81431], [-45.11568, -19.8146], [-45.11522, -19.81486], [-45.11331, -19.81495], [-45.11292, -19.81523], [-45.1127, -19.81562], [-45.11302, -19.81596], [-45.11308, -19.8164], [-45.11289, -19.8173], [-45.11382, -19.81747], [-45.11476, -19.81719], [-45.11525, -19.81723], [-45.11567, -19.81753], [-45.11577, -19.81796], [-45.11565, -19.8184], [-45.11412, -19.81878], [-45.11389, -19.8192], [-45.11411, -19.81963], [-45.11455, -19.81981], [-45.11552, -19.81964], [-45.11594, -19.81985], [-45.11633, -19.82072], [-45.11656, -19.82173], [-45.1165, -19.82274], [-45.11636, -19.82318], [-45.11561, -19.82381], [-45.11535, -19.82422], [-45.11528, -19.82471], [-45.11553, -19.82509], [-45.11653, -19.82513], [-45.11796, -19.82493], [-45.11838, -19.82516], [-45.1187, -19.82605], [-45.11902, -19.82646], [-45.1198, -19.82705], [-45.12078, -19.82748], [-45.12336, -19.82769], [-45.12429, -19.82814], [-45.12493, -19.82884], [-45.12474, -19.82926], [-45.12423, -19.82922], [-45.12394, -19.82957], [-45.12427, -19.83099], [-45.12401, -19.83141], [-45.12353, -19.83159], [-45.1225, -19.83147], [-45.12153, -19.83154], [-45.12129, -19.83196], [-45.12168, -19.83382], [-45.12159, -19.83479], [-45.12118, -19.83502], [-45.12074, -19.83482], [-45.11966, -19.83377], [-45.11922, -19.83355], [-45.11869, -19.8336], [-45.11828, -19.83443], [-45.11844, -19.83537], [-45.11876, -19.83571], [-45.11857, -19.83615], [-45.11801, -19.83611], [-45.11693, -19.83511], [-45.11603, -19.83477], [-45.11569, -19.83517], [-45.11597, -19.83659], [-45.1159, -19.83707], [-45.11544, -19.83712], [-45.11359, -19.83673], [-45.11318, -19.83701], [-45.11168, -19.83732], [-45.1115, -19.83875], [-45.11023, -19.84021], [-45.10992, -19.84111], [-45.10995, -19.84155], [-45.11117, -19.84246], [-45.11174, -19.84326], [-45.11187, -19.84374], [-45.11158, -19.84409], [-45.11112, -19.84425], [-45.11055, -19.84506], [-45.11009, -19.84514], [-45.10967, -19.84491], [-45.10921, -19.84512], [-45.10837, -19.8463], [-45.10791, -19.84644], [-45.10691, -19.8462], [-45.10626, -19.84683], [-45.10442, -19.84744], [-45.10416, -19.84786], [-45.10405, -19.84876], [-45.10431, -19.85014], [-45.10384, -19.85021], [-45.10304, -19.84967], [-45.10217, -19.85016], [-45.10128, -19.85125], [-45.10131, -19.85173], [-45.10239, -19.85269], [-45.10256, -19.85312], [-45.10249, -19.85356], [-45.10102, -19.85385], [-45.10061, -19.85408], [-45.10049, -19.85452], [-45.10115, -19.85465], [-45.10263, -19.85461], [-45.10316, -19.85475], [-45.10344, -19.85516], [-45.10315, -19.85606], [-45.10241, -19.85689], [-45.10139, -19.85704], [-45.10103, -19.85732], [-45.10089, -19.85778], [-45.10095, -19.85873], [-45.10137, -19.85953], [-45.10115, -19.85992], [-45.09965, -19.85993], [-45.09936, -19.8603], [-45.09941, -19.86074], [-45.09978, -19.86104], [-45.10027, -19.86105], [-45.10081, -19.86176], [-45.10135, -19.8647], [-45.10182, -19.86488], [-45.10281, -19.86489], [-45.10335, -19.86477], [-45.10375, -19.8644], [-45.10422, -19.86426], [-45.10519, -19.86437], [-45.1061, -19.86537], [-45.10652, -19.86562], [-45.10795, -19.86574], [-45.10995, -19.86671], [-45.11144, -19.86711], [-45.1122, -19.86768], [-45.1132, -19.86781], [-45.11345, -19.86829], [-45.11463, -19.86917], [-45.1148, -19.86958], [-45.11406, -19.8709], [-45.11428, -19.87134], [-45.11531, -19.8716], [-45.1157, -19.87188], [-45.11588, -19.87231], [-45.11554, -19.87264], [-45.11354, -19.87256], [-45.1126, -19.87271], [-45.11209, -19.87297], [-45.11227, -19.87343], [-45.11358, -19.87394], [-45.11395, -19.87429], [-45.11435, -19.8752], [-45.11431, -19.87571], [-45.11397, -19.87615], [-45.11088, -19.87806], [-45.11064, -19.87848], [-45.11075, -19.8794], [-45.11114, -19.87986], [-45.11156, -19.88006], [-45.11181, -19.88054], [-45.11184, -19.8815], [-45.1116, -19.88197], [-45.11172, -19.88344], [-45.11333, -19.88457], [-45.114, -19.88539], [-45.11527, -19.88626], [-45.11552, -19.88676], [-45.11563, -19.88982], [-45.11546, -19.89023], [-45.11602, -19.89211], [-45.11598, -19.89303], [-45.11514, -19.89412], [-45.11466, -19.89445], [-45.11457, -19.89491], [-45.11346, -19.89596], [-45.1114, -19.89632], [-45.11062, -19.89681], [-45.11033, -19.89716], [-45.10979, -19.89848], [-45.10854, -19.90001], [-45.10785, -19.90132], [-45.10742, -19.90151], [-45.10523, -19.90156], [-45.10479, -19.90177], [-45.1039, -19.90286], [-45.10369, -19.90334], [-45.10332, -19.90532], [-45.10294, -19.90629], [-45.1032, -19.90772], [-45.10387, -19.90847], [-45.10464, -19.90977], [-45.10589, -19.91061], [-45.10805, -19.91078], [-45.10958, -19.91044], [-45.1106, -19.91043], [-45.11275, -19.91144], [-45.11321, -19.91116], [-45.11352, -19.91068], [-45.11371, -19.90973], [-45.11399, -19.90918], [-45.11469, -19.90857], [-45.11461, -19.90761], [-45.11366, -19.90538], [-45.11387, -19.90439], [-45.11532, -19.90424], [-45.11584, -19.90444], [-45.11727, -19.90461], [-45.11868, -19.90442], [-45.11895, -19.90485], [-45.11809, -19.90608], [-45.11827, -19.90649], [-45.11915, -19.90719], [-45.12107, -19.90738], [-45.12139, -19.9077], [-45.12167, -19.9086], [-45.12209, -19.90889], [-45.12355, -19.90913], [-45.1245, -19.90942], [-45.12531, -19.90987], [-45.12579, -19.90987], [-45.12679, -19.90963], [-45.12754, -19.90909], [-45.12858, -19.9088], [-45.12896, -19.9085], [-45.12955, -19.90845], [-45.12999, -19.90861], [-45.12997, -19.90904], [-45.12963, -19.90937], [-45.1284, -19.91012], [-45.12841, -19.91101], [-45.12931, -19.91137], [-45.13023, -19.91086], [-45.13285, -19.90786], [-45.13374, -19.90744], [-45.13404, -19.90781], [-45.13387, -19.90838], [-45.13415, -19.90942], [-45.1345, -19.90971], [-45.13496, -19.90982], [-45.13615, -19.91188], [-45.13754, -19.91263], [-45.13806, -19.91274], [-45.13852, -19.91257], [-45.13876, -19.91296], [-45.13853, -19.9134], [-45.13753, -19.91382], [-45.1372, -19.91412], [-45.13665, -19.91487], [-45.1356, -19.91506], [-45.13524, -19.91534], [-45.13529, -19.9158], [-45.13622, -19.91623], [-45.13625, -19.91666], [-45.13579, -19.91683], [-45.13484, -19.91686], [-45.13458, -19.9173], [-45.1351, -19.91808], [-45.13518, -19.91854], [-45.1349, -19.91941], [-45.13449, -19.91972], [-45.134, -19.91977], [-45.13343, -19.91901], [-45.1325, -19.91845], [-45.13202, -19.91845], [-45.1311, -19.91901], [-45.13091, -19.91994], [-45.13153, -19.92117], [-45.13217, -19.92183], [-45.13412, -19.92172], [-45.13466, -19.92192], [-45.13564, -19.9229], [-45.13608, -19.9231], [-45.13805, -19.92341], [-45.13881, -19.92402], [-45.13972, -19.92447], [-45.14022, -19.92589], [-45.14081, -19.92658], [-45.14069, -19.9284], [-45.14089, -19.92881], [-45.1413, -19.92913], [-45.14223, -19.92942], [-45.1428, -19.93015], [-45.14326, -19.93019], [-45.14384, -19.92993], [-45.14423, -19.92967], [-45.14422, -19.92921], [-45.14461, -19.92895], [-45.14507, -19.9289], [-45.14568, -19.92956], [-45.14661, -19.92919], [-45.14692, -19.92884], [-45.14731, -19.92909], [-45.14752, -19.93051], [-45.1483, -19.93101], [-45.14858, -19.9314], [-45.14768, -19.93168], [-45.14729, -19.93196], [-45.14763, -19.93387], [-45.14728, -19.93525], [-45.14748, -19.93622], [-45.14898, -19.93513], [-45.15046, -19.93503], [-45.1509, -19.93525], [-45.15167, -19.93615], [-45.15194, -19.9372], [-45.15231, -19.93769], [-45.15411, -19.93816], [-45.15525, -19.93813], [-45.15652, -19.93729], [-45.15842, -19.93678], [-45.15784, -19.92869], [-45.15692, -19.92577], [-45.15702, -19.9252], [-45.15781, -19.92333], [-45.15801, -19.9204], [-45.15784, -19.91992], [-45.15701, -19.91895], [-45.15653, -19.91789], [-45.15631, -19.91531], [-45.15747, -19.91145], [-45.15838, -19.90731], [-45.15799, -19.90402], [-45.15801, -19.90352], [-45.15852, -19.90302], [-45.15888, -19.90212], [-45.15864, -19.89412], [-45.15844, -19.89219], [-45.15787, -19.89072], [-45.15679, -19.88895], [-45.15647, -19.88813], [-45.15647, -19.88711], [-45.15632, -19.88662], [-45.15632, -19.88603], [-45.15662, -19.88541], [-45.15816, -19.88449], [-45.15846, -19.88397], [-45.15856, -19.88331], [-45.15775, -19.8803], [-45.15681, -19.87821], [-45.1562, -19.87726], [-45.15372, -19.87496], [-45.15243, -19.87417], [-45.15181, -19.87328], [-45.15094, -19.87245], [-45.14849, -19.87079], [-45.14622, -19.8662], [-45.14604, -19.86524], [-45.14627, -19.86388], [-45.14689, -19.86214], [-45.14678, -19.86159], [-45.14555, -19.85902], [-45.14453, -19.85497], [-45.14401, -19.85196], [-45.14431, -19.85109], [-45.1468, -19.84633], [-45.14678, -19.84545], [-45.14483, -19.84318], [-45.14019, -19.84053], [-45.1366, -19.83811], [-45.1356, -19.83768], [-45.13376, -19.8373], [-45.1334, -19.83701], [-45.13315, -19.83578], [-45.13275, -19.83534], [-45.13066, -19.83431], [-45.13004, -19.83348], [-45.12942, -19.83212], [-45.12917, -19.83021], [-45.12962, -19.82849], [-45.13114, -19.82408], [-45.13246, -19.82282], [-45.1327, -19.82229], [-45.13273, -19.82174], [-45.1321, -19.81916], [-45.13213, -19.81842], [-45.13269, -19.81686], [-45.13692, -19.81278], [-45.13734, -19.81193], [-45.13724, -19.81122], [-45.13474, -19.8079], [-45.13466, -19.80584], [-45.13335, -19.80331], [-45.12741, -19.80628], [-45.10977, -19.8109]]]}}, 
{"type": "Feature", "properties": {"CD_SETOR": "310390005000017", "CD_SIT": "2", "NM_DIST": "Araújos", "NM_SUBDIST": null}, "geometry": {"type": "Polygon", "coordinates": [[[-45.18247, -19.94967], [-45.18015, -19.9506], [-45.1796, -19.95062], [-45.17576, -19.94916], [-45.17482, -19.94913], [-45.17416, -19.94929], [-45.17381, -19.94965], [-45.17343, -19.94966], [-45.17284, -19.95014], [-45.17499, -19.95196], [-45.17395, -19.95304], [-45.17476, -19.95374], [-45.17087, -19.9577], [-45.17096, -19.95821], [-45.17126, -19.95851], [-45.17231, -19.95882], [-45.17249, -19.9592], [-45.17317, -19.95968], [-45.17393, -19.9605], [-45.17509, -19.96086], [-45.17532, -19.95963], [-45.1769, -19.95871], [-45.17729, -19.95799], [-45.17776, -19.95788], [-45.17907, -19.95831], [-45.18021, -19.9583], [-45.18064, -19.95791], [-45.18072, -19.95702], [-45.1815, -19.9567], [-45.18196, -19.95574], [-45.18286, -19.95501], [-45.18456, -19.95413], [-45.18627, -19.95423], [-45.18667, -19.95172], [-45.18625, -19.9513], [-45.18706, -19.94979], [-45.18702, -19.94928], [-45.18676, -19.94881], [-45.18649, -19.94868], [-45.18428, -19.94881], [-45.18247, -19.94967]]]}}, 
{"type": "Feature", "properties": {"CD_SETOR": "310390005000018", "CD_SIT": "1", "NM_DIST": "Araújos", "NM_SUBDIST": null}, "geometry": {"type": "Polygon", "coordinates": [[[-45.16498, -19.9413], [-45.16479, -19.94132], [-45.16372, -19.94246], [-45.16454, -19.94318], [-45.16299, -19.94481], [-45.16436, -19.94595], [-45.16717, -19.94303], [-45.16514, -19.94129], [-45.16498, -19.9413]]]}}, 
{"type": "Feature", "properties": {"CD_SETOR": "310390005000020", "CD_SIT": "1", "NM_DIST": "Araújos", "NM_SUBDIST": null}, "geometry": {"type": "Polygon", "coordinates": [[[-45.15525, -19.93813], [-45.15749, -19.94008], [-45.1571, -19.94041], [-45.15826, -19.9414], [-45.15748, -19.94216], [-45.16029, -19.94459], [-45.16206, -19.9427], [-45.1616, -19.94197], [-45.15977, -19.93996], [-45.15845, -19.93747], [-45.15842, -19.93678], [-45.15652, -19.93729], [-45.15525, -19.93813]]]}}, 
{"type": "Feature", "properties": {"CD_SETOR": "310390005000021", "CD_SIT": "2", "NM_DIST": "Araújos", "NM_SUBDIST": null}, "geometry": {"type": "Polygon", "coordinates": [[[-45.17535, -19.94524], [-45.17326, -19.9472], [-45.17373, -19.94759], [-45.17315, -19.94823], [-45.17318, -19.94872], [-45.174, -19.94939], [-45.17482, -19.94913], [-45.17576, -19.94916], [-45.1796, -19.95062], [-45.18015, -19.9506], [-45.18247, -19.94967], [-45.18179, -19.94818], [-45.18166, -19.94754], [-45.18121, -19.94707], [-45.18115, -19.94643], [-45.18095, -19.94616], [-45.18035, -19.9461], [-45.18004, -19.94559], [-45.17978, -19.94549], [-45.17867, -19.94545], [-45.17764, -19.94431], [-45.17719, -19.94348], [-45.17535, -19.94524]]]}}, 
{"type": "Feature", "properties": {"CD_SETOR": "310390005000022", "CD_SIT": "2", "NM_DIST": "Araújos", "NM_SUBDIST": null}, "geometry": {"type": "Polygon", "coordinates": [[[-45.14828, -19.93564], [-45.14815, -19.93604], [-45.14829, -19.93621], [-45.1493, -19.9361], [-45.14975, -19.93655], [-45.14957, -19.93761], [-45.1498, -19.93869], [-45.14924, -19.93954], [-45.14926, -19.93983], [-45.14979, -19.94023], [-45.15112, -19.94068], [-45.15153, -19.9413], [-45.15139, -19.94183], [-45.15054, -19.94256], [-45.15041, -19.94291], [-45.15047, -19.94342], [-45.15086, -19.94375], [-45.1523, -19.94378], [-45.1525, -19.94395], [-45.15253, -19.94419], [-45.15191, -19.94526], [-45.15179, -19.94592], [-45.15519, -19.94626], [-45.1575, -19.94747], [-45.16029, -19.94459], [-45.15748, -19.94216], [-45.15826, -19.9414], [-45.1571, -19.94041], [-45.15749, -19.94008], [-45.15525, -19.93813], [-45.15411, -19.93816], [-45.15231, -19.93769], [-45.15194, -19.9372], [-45.15167, -19.93615], [-45.1509, -19.93525], [-45.15046, -19.93503], [-45.14898, -19.93513], [-45.14828, -19.93564]]]}}, 
{"type": "Feature", "properties": {"CD_SETOR": "310390005000023", "CD_SIT": "1", "NM_DIST": "Araújos", "NM_SUBDIST": null}, "geometry": {"type": "Polygon", "coordinates": [[[-45.16187, -19.94849], [-45.16599, -19.95198], [-45.16734, -19.95061], [-45.16645, -19.94986], [-45.16609, -19.95025], [-45.16464, -19.94899], [-45.16432, -19.94931], [-45.16309, -19.94826], [-45.16215, -19.9482], [-45.16187, -19.94849]]]}}, 
{"type": "Feature", "properties": {"CD_SETOR": "310390005000024", "CD_SIT": "1", "NM_DIST": "Araújos", "NM_SUBDIST": null}, "geometry": {"type": "Polygon", "coordinates": [[[-45.16033, -19.95017], [-45.15954, -19.95122], [-45.16214, -19.95235], [-45.16348, -19.95319], [-45.16433, -19.95353], [-45.1647, -19.95357], [-45.16503, -19.95299], [-45.16599, -19.95198], [-45.16187, -19.94849], [-45.16033, -19.95017]]]}}, 
{"type": "Feature", "properties": {"CD_SETOR": "310390005000025", "CD_SIT": "1", "NM_DIST": "Araújos", "NM_SUBDIST": null}, "geometry": {"type": "Polygon", "coordinates": [[[-45.17151, -19.95097], [-45.17045, -19.95116], [-45.16949, -19.95108], [-45.16811, -19.95259], [-45.16833, -19.95277], [-45.16721, -19.95395], [-45.16867, -19.95498], [-45.16951, -19.95509], [-45.1707, -19.95561], [-45.17124, -19.95662], [-45.17087, -19.9577], [-45.17476, -19.95374], [-45.17395, -19.95304], [-45.17499, -19.95196], [-45.17284, -19.95014], [-45.17151, -19.95097]]]}}, 
{"type": "Feature", "properties": {"CD_SETOR": "310390005000026", "CD_SIT": "1", "NM_DIST": "Araújos", "NM_SUBDIST": null}, "geometry": {"type": "Polygon", "coordinates": [[[-45.16734, -19.95061], [-45.16503, -19.95299], [-45.1647, -19.95357], [-45.16721, -19.95395], [-45.16833, -19.95277], [-45.16811, -19.95259], [-45.16949, -19.95108], [-45.17045, -19.95116], [-45.17151, -19.95097], [-45.16902, -19.94887], [-45.16734, -19.95061]]]}}, 
{"type": "Feature", "properties": {"CD_SETOR": "310390005000027", "CD_SIT": "1", "NM_DIST": "Araújos", "NM_SUBDIST": null}, "geometry": {"type": "Polygon", "coordinates": [[[-45.1575, -19.94747], [-45.15845, -19.94789], [-45.15979, -19.94811], [-45.1589, -19.94908], [-45.16033, -19.95017], [-45.16326, -19.94714], [-45.16029, -19.94459], [-45.1575, -19.94747]]]}}, 
{"type": "Feature", "properties": {"CD_SETOR": "310390005000028", "CD_SIT": "2", "NM_DIST": "Araújos", "NM_SUBDIST": null}, "geometry": {"type": "Polygon", "coordinates": [[[-45.15112, -19.94816], [-45.15206, -19.94826], [-45.15389, -19.94812], [-45.15495, -19.94839], [-45.1567, -19.94922], [-45.15811, -19.95053], [-45.15875, -19.95096], [-45.15954, -19.95122], [-45.16033, -19.95017], [-45.1589, -19.94908], [-45.15979, -19.94811], [-45.15792, -19.94769], [-45.15519, -19.94626], [-45.15179, -19.94592], [-45.15129, -19.94713], [-45.15112, -19.94816]]]}}, 
{"type": "Feature", "properties": {"CD_SETOR": "310390005000029", "CD_SIT": "1", "NM_DIST": "Araújos", "NM_SUBDIST": null}, "geometry": {"type": "Polygon", "coordinates": [[[-45.16955, -19.9451], [-45.16925, -19.94543], [-45.17192, -19.94768], [-45.1728, -19.94681], [-45.17326, -19.9472], [-45.17535, -19.94524], [-45.17338, -19.94347], [-45.17201, -19.94253], [-45.16955, -19.9451]]]}}, 
{"type": "Feature", "properties": {"CD_SETOR": "310390005000030", "CD_SIT": "1", "NM_DIST": "Araújos", "NM_SUBDIST": null}, "geometry": {"type": "Polygon", "coordinates": [[[-45.17201, -19.94253], [-45.17338, -19.94347], [-45.17535, -19.94524], [-45.17719, -19.94348], [-45.17678, -19.94209], [-45.17566, -19.94077], [-45.17525, -19.93965], [-45.17381, -19.94042], [-45.17201, -19.94253]]]}}, 
{"type": "Feature", "properties": {"CD_SETOR": "310390005000031", "CD_SIT": "1", "NM_DIST": "Araújos", "NM_SUBDIST": null}, "geometry": {"type": "Polygon", "coordinates": [[[-45.17011, -19.93936], [-45.17042, -19.94001], [-45.17046, -19.94232], [-45.1688, -19.94346], [-45.1677, -19.94466], [-45.16869, -19.94433], [-45.16955, -19.9451], [-45.1725, -19.94202], [-45.17381, -19.94042], [-45.17525, -19.93965], [-45.17514, -19.93914], [-45.1749, -19.93892], [-45.17268, -19.9392], [-45.17117, -19.93915], [-45.17053, -19.93898], [-45.17015, -19.93912], [-45.17011, -19.93936]]]}}, 
{"type": "Feature", "properties": {"CD_SETOR": "310390005000032", "CD_SIT": "1", "NM_DIST": "Araújos", "NM_SUBDIST": null}, "geometry": {"type": "Polygon", "coordinates": [[[-45.16498, -19.9413], [-45.16514, -19.94129], [-45.16717, -19.94303], [-45.1667, -19.94355], [-45.16782, -19.94447], [-45.1688, -19.94346], [-45.17046, -19.94232], [-45.17042, -19.94001], [-45.17011, -19.93936], [-45.16995, -19.9395], [-45.1684, -19.93914], [-45.16794, -19.9389], [-45.16704, -19.93877], [-45.16584, -19.93824], [-45.16498, -19.9413]]]}}, 
{"type": "Feature", "properties": {"CD_SETOR": "310390005000033", "CD_SIT": "1", "NM_DIST": "Araújos", "NM_SUBDIST": null}, "geometry": {"type": "Polygon", "coordinates": [[[-45.16395, -19.95692], [-45.16433, -19.95583], [-45.16272, -19.95516], [-45.16191, -19.95724], [-45.16283, -19.95758], [-45.1632, -19.95665], [-45.16395, -19.95692]]]}}, 
{"type": "Feature", "properties": {"CD_SETOR": "310390005000034", "CD_SIT": "2", "NM_DIST": "Araújos", "NM_SUBDIST": null}, "geometry": {"type": "Polygon", "coordinates": [[[-45.16395, -19.95692], [-45.1632, -19.95665], [-45.16283, -19.95758], [-45.16191, -19.95724], [-45.16272, -19.95516], [-45.16433, -19.95583], [-45.16433, -19.95418], [-45.1647, -19.95357], [-45.16348, -19.95319], [-45.16214, -19.95235], [-45.15958, -19.95124], [-45.15809, -19.95342], [-45.15874, -19.95989], [-45.16251, -19.96122], [-45.16395, -19.95692]]]}}, 
{"type": "Feature", "properties": {"CD_SETOR": "310390005000035", "CD_SIT": "8", "NM_DIST": "Araújos", "NM_SUBDIST": null}, "geometry": {"type": "Polygon", "coordinates": [[[-45.17527, -19.93969], [-45.17566, -19.94077], [-45.17678, -19.94209], [-45.17722, -19.94357], [-45.1781, -19.94488], [-45.17867, -19.94545], [-45.17978, -19.94549], [-45.18004, -19.94559], [-45.18035, -19.9461], [-45.18095, -19.94616], [-45.18115, -19.94643], [-45.18121, -19.94707], [-45.18166, -19.94754], [-45.18179, -19.94818], [-45.18247, -19.94967], [-45.18428, -19.94881], [-45.18649, -19.94868], [-45.18676, -19.94881], [-45.18702, -19.94928], [-45.18706, -19.94979], [-45.18625, -19.9513], [-45.18667, -19.95172], [-45.18627, -19.95423], [-45.18456, -19.95413], [-45.18286, -19.95501], [-45.18196, -19.95574], [-45.1815, -19.9567], [-45.18072, -19.95702], [-45.18064, -19.95791], [-45.18021, -19.9583], [-45.17907, -19.95831], [-45.17776, -19.95788], [-45.17729, -19.95799], [-45.1769, -19.95871], [-45.17532, -19.95963], [-45.17509, -19.96086], [-45.17393, -19.9605], [-45.17317, -19.95968], [-45.17249, -19.9592], [-45.17231, -19.95882], [-45.17126, -19.95851], [-45.17096, -19.95821], [-45.17087, -19.95767], [-45.17124, -19.95662], [-45.1707, -19.95561], [-45.16951, -19.95509], [-45.16867, -19.95498], [-45.16721, -19.95395], [-45.1647, -19.95357], [-45.16433, -19.95418], [-45.16433, -19.95583], [-45.16251, -19.96122], [-45.15874, -19.95989], [-45.15809, -19.95342], [-45.15958, -19.95124], [-45.15875, -19.95096], [-45.15811, -19.95053], [-45.1567, -19.94922], [-45.15439, -19.94821], [-45.15112, -19.94816], [-45.14969, -19.94845], [-45.14955, -19.94908], [-45.14897, -19.9498], [-45.14886, -19.95033], [-45.14894, -19.95131], [-45.14878, -19.95175], [-45.14879, -19.95306], [-45.1485, -19.95343], [-45.14766, -19.95386], [-45.14737, -19.95425], [-45.14742, -19.95469], [-45.14877, -19.95527], [-45.14882, -19.95578], [-45.14866, -19.95619], [-45.14744, -19.95834], [-45.14695, -19.9583], [-45.14629, -19.95769], [-45.14583, -19.95774], [-45.14505, -19.95952], [-45.14364, -19.95997], [-45.143, -19.96145], [-45.143, -19.96191], [-45.14344, -19.96211], [-45.14369, -19.96252], [-45.14372, -19.96305], [-45.14318, -19.96444], [-45.14314, -19.96545], [-45.14344, -19.96632], [-45.14381, -19.96659], [-45.14384, -19.96703], [-45.14355, -19.9674], [-45.14265, -19.96761], [-45.14232, -19.96854], [-45.14371, -19.96841], [-45.14362, -19.96887], [-45.14333, -19.96926], [-45.14367, -19.96958], [-45.14411, -19.96942], [-45.14476, -19.96877], [-45.1452, -19.96902], [-45.14528, -19.96947], [-45.14526, -19.97044], [-45.145, -19.97081], [-45.14359, -19.97112], [-45.1428, -19.97168], [-45.14297, -19.97212], [-45.14399, -19.97227], [-45.14422, -19.97266], [-45.1451, -19.973], [-45.14446, -19.97493], [-45.14455, -19.97675], [-45.14434, -19.97717], [-45.14388, -19.97708], [-45.14342, -19.97795], [-45.14411, -19.97802], [-45.14533, -19.97877], [-45.14534, -19.97923], [-45.14495, -19.97951], [-45.14474, -19.9799], [-45.14491, -19.98031], [-45.14579, -19.98076], [-45.14597, -19.98117], [-45.14578, -19.98161], [-45.14579, -19.98463], [-45.14499, -19.98523], [-45.14385, -19.9854], [-45.14388, -19.98589], [-45.14501, -19.98698], [-45.14526, -19.98741], [-45.14531, -19.98794], [-45.14573, -19.98817], [-45.14724, -19.98813], [-45.14847, -19.98952], [-45.14939, -19.98972], [-45.15067, -19.99044], [-45.15115, -19.99048], [-45.1522, -19.99015], [-45.15268, -19.99015], [-45.15349, -19.9906], [-45.154, -19.99057], [-45.1549, -19.99024], [-45.1569, -19.98854], [-45.15859, -19.98753], [-45.15924, -19.98684], [-45.16209, -19.98488], [-45.16257, -19.98471], [-45.16408, -19.98463], [-45.16507, -19.9843], [-45.1659, -19.98371], [-45.16703, -19.98255], [-45.16726, -19.98209], [-45.16842, -19.98125], [-45.16929, -19.98087], [-45.17107, -19.98049], [-45.17301, -19.98049], [-45.17406, -19.9811], [-45.1765, -19.98172], [-45.1775, -19.98171], [-45.17794, -19.98152], [-45.18218, -19.98251], [-45.18584, -19.98289], [-45.18967, -19.98373], [-45.19181, -19.98398], [-45.1941, -19.98458], [-45.20013, -19.98394], [-45.20066, -19.98382], [-45.204, -19.98222], [-45.20506, -19.98106], [-45.20524, -19.97998], [-45.20617, -19.97808], [-45.20694, -19.97755], [-45.20902, -19.97683], [-45.21179, -19.97618], [-45.21259, -19.97549], [-45.21402, -19.97508], [-45.21599, -19.97363], [-45.21691, -19.97321], [-45.21789, -19.97302], [-45.21995, -19.97295], [-45.22128, -19.97236], [-45.22198, -19.97146], [-45.22202, -19.97102], [-45.221, -19.96935], [-45.22094, -19.96799], [-45.22038, -19.96581], [-45.22051, -19.96427], [-45.22106, -19.96348], [-45.22287, -19.96238], [-45.22391, -19.96205], [-45.22422, -19.96166], [-45.22433, -19.96074], [-45.22366, -19.95948], [-45.22355, -19.95849], [-45.22367, -19.95798], [-45.22526, -19.95624], [-45.22587, -19.95488], [-45.22613, -19.95373], [-45.22624, -19.94905], [-45.22487, -19.94675], [-45.22416, -19.94657], [-45.22283, -19.94705], [-45.22204, -19.94702], [-45.22149, -19.94668], [-45.22073, -19.94555], [-45.21909, -19.94403], [-45.22122, -19.94438], [-45.2236, -19.94214], [-45.2253, -19.94135], [-45.22562, -19.94085], [-45.22599, -19.93919], [-45.22542, -19.93827], [-45.22541, -19.93644], [-45.22925, -19.92952], [-45.22946, -19.92658], [-45.22923, -19.92332], [-45.22803, -19.91942], [-45.22707, -19.91724], [-45.22571, -19.91917], [-45.22417, -19.9199], [-45.22228, -19.92182], [-45.22099, -19.92064], [-45.22055, -19.91968], [-45.21942, -19.9192], [-45.21871, -19.91872], [-45.2177, -19.91904], [-45.21632, -19.91891], [-45.21466, -19.92013], [-45.21119, -19.9203], [-45.20976, -19.92074], [-45.20918, -19.92109], [-45.20887, -19.92108], [-45.2083, -19.92075], [-45.20679, -19.92063], [-45.20384, -19.91915], [-45.20321, -19.91949], [-45.20183, -19.91987], [-45.20069, -19.91999], [-45.19976, -19.91989], [-45.19905, -19.92017], [-45.19772, -19.92033], [-45.19651, -19.92076], [-45.19448, -19.92093], [-45.19264, -19.92143], [-45.19148, -19.92236], [-45.18831, -19.92578], [-45.18817, -19.9262], [-45.18812, -19.92949], [-45.18793, -19.92996], [-45.18701, -19.93081], [-45.18068, -19.93521], [-45.1797, -19.93578], [-45.17844, -19.93625], [-45.17808, -19.93673], [-45.17789, -19.93758], [-45.17757, -19.93804], [-45.17624, -19.93918], [-45.17527, -19.93969]]]}}, 
{"type": "Feature", "properties": {"CD_SETOR": "310390005000036", "CD_SIT": "8", "NM_DIST": "Araújos", "NM_SUBDIST": null}, "geometry": {"type": "Polygon", "coordinates": [[[-45.20051, -19.84024], [-45.20061, -19.84168], [-45.20022, -19.84266], [-45.19657, -19.84348], [-45.19586, -19.8435], [-45.19532, -19.84326], [-45.19507, -19.84228], [-45.19408, -19.84281], [-45.19265, -19.84315], [-45.19094, -19.8445], [-45.19056, -19.84461], [-45.1811, -19.84535], [-45.18067, -19.84556], [-45.18037, -19.84597], [-45.18008, -19.84692], [-45.18029, -19.84784], [-45.18023, -19.84886], [-45.18184, -19.84984], [-45.18238, -19.85068], [-45.1825, -19.85156], [-45.18232, -19.85233], [-45.18205, -19.85275], [-45.17995, -19.85485], [-45.17988, -19.8572], [-45.17964, -19.85826], [-45.17894, -19.85864], [-45.17856, -19.85923], [-45.17771, -19.86124], [-45.1776, -19.86186], [-45.17799, -19.86433], [-45.17785, -19.86582], [-45.17818, -19.86853], [-45.17827, -19.86917], [-45.17919, -19.87156], [-45.1793, -19.87458], [-45.17972, -19.87613], [-45.17985, -19.87757], [-45.17896, -19.88217], [-45.17845, -19.88249], [-45.17765, -19.88246], [-45.17676, -19.88302], [-45.17665, -19.8838], [-45.17683, -19.88469], [-45.17648, -19.88514], [-45.17648, -19.88597], [-45.17617, -19.88729], [-45.1761, -19.8889], [-45.1766, -19.88976], [-45.17652, -19.89089], [-45.17683, -19.89327], [-45.17601, -19.89601], [-45.17615, -19.89672], [-45.17559, -19.89817], [-45.17647, -19.9008], [-45.17616, -19.90486], [-45.17664, -19.90607], [-45.17706, -19.90665], [-45.1769, -19.90704], [-45.17597, -19.90793], [-45.17536, -19.90912], [-45.17511, -19.91011], [-45.17417, -19.91093], [-45.17348, -19.91301], [-45.17203, -19.91431], [-45.17104, -19.91581], [-45.16961, -19.91668], [-45.16842, -19.91876], [-45.16665, -19.92089], [-45.16626, -19.9216], [-45.16621, -19.92297], [-45.16597, -19.92381], [-45.16554, -19.9244], [-45.16069, -19.92965], [-45.15804, -19.93151], [-45.15842, -19.93678], [-45.1596, -19.9365], [-45.16127, -19.93662], [-45.16263, -19.9365], [-45.16353, -19.93728], [-45.165, -19.93775], [-45.16552, -19.93817], [-45.16704, -19.93877], [-45.16794, -19.9389], [-45.1684, -19.93914], [-45.16995, -19.9395], [-45.17032, -19.93901], [-45.17268, -19.9392], [-45.1749, -19.93892], [-45.17514, -19.93914], [-45.17527, -19.93969], [-45.17624, -19.93918], [-45.17757, -19.93804], [-45.17789, -19.93758], [-45.17808, -19.93673], [-45.17844, -19.93625], [-45.1797, -19.93578], [-45.18068, -19.93521], [-45.18701, -19.93081], [-45.18793, -19.92996], [-45.18812, -19.92949], [-45.18817, -19.9262], [-45.18831, -19.92578], [-45.19148, -19.92236], [-45.19264, -19.92143], [-45.19448, -19.92093], [-45.19651, -19.92076], [-45.19772, -19.92033], [-45.19905, -19.92017], [-45.19976, -19.91989], [-45.20069, -19.91999], [-45.20183, -19.91987], [-45.20321, -19.91949], [-45.20384, -19.91915], [-45.20679, -19.92063], [-45.2083, -19.92075], [-45.20887, -19.92108], [-45.20918, -19.92109], [-45.20976, -19.92074], [-45.21119, -19.9203], [-45.21466, -19.92013], [-45.21632, -19.91891], [-45.2177, -19.91904], [-45.21871, -19.91872], [-45.21942, -19.9192], [-45.22055, -19.91968], [-45.22099, -19.92064], [-45.22228, -19.92182], [-45.22417, -19.9199], [-45.22571, -19.91917], [-45.22707, -19.91724], [-45.22831, -19.92017], [-45.22923, -19.92332], [-45.22946, -19.92658], [-45.22925, -19.92952], [-45.22541, -19.93644], [-45.22542, -19.93827], [-45.22599, -19.93919], [-45.22545, -19.94121], [-45.22387, -19.94193], [-45.22122, -19.94438], [-45.21909, -19.94403], [-45.22073, -19.94555], [-45.22149, -19.94668], [-45.22204, -19.94702], [-45.22283, -19.94705], [-45.22416, -19.94657], [-45.22487, -19.94675], [-45.22624, -19.94905], [-45.22704, -19.94452], [-45.22766, -19.94322], [-45.22814, -19.94301], [-45.22847, -19.94397], [-45.22876, -19.94592], [-45.22941, -19.9473], [-45.23052, -19.94837], [-45.23139, -19.94866], [-45.23176, -19.94907], [-45.23223, -19.94911], [-45.23402, -19.94817], [-45.23548, -19.94694], [-45.23858, -19.94509], [-45.24026, -19.94371], [-45.24167, -19.94312], [-45.24275, -19.94226], [-45.24462, -19.94173], [-45.24597, -19.94045], [-45.24795, -19.93993], [-45.24829, -19.93956], [-45.24844, -19.93806], [-45.24941, -19.93768], [-45.25023, -19.93694], [-45.2511, -19.93656], [-45.25126, -19.9361], [-45.25083, -19.93458], [-45.2508, -19.93353], [-45.25161, -19.93237], [-45.25231, -19.93176], [-45.25252, -19.93135], [-45.25277, -19.92964], [-45.25317, -19.92863], [-45.25406, -19.92751], [-45.25498, -19.92552], [-45.25575, -19.92476], [-45.25723, -19.9221], [-45.25809, -19.92089], [-45.25922, -19.91991], [-45.26029, -19.91942], [-45.26055, -19.919], [-45.26274, -19.91746], [-45.26327, -19.9167], [-45.265, -19.91488], [-45.26539, -19.91332], [-45.26584, -19.91239], [-45.26551, -19.9109], [-45.26555, -19.91042], [-45.26646, -19.90661], [-45.26663, -19.90449], [-45.2666, -19.90397], [-45.26607, -19.90245], [-45.26583, -19.90062], [-45.26538, -19.89965], [-45.26429, -19.89854], [-45.26424, -19.89803], [-45.26453, -19.89766], [-45.26418, -19.89525], [-45.26445, -19.89483], [-45.26503, -19.89469], [-45.2657, -19.89399], [-45.26674, -19.89391], [-45.26723, -19.89372], [-45.26722, -19.89319], [-45.26667, -19.89177], [-45.26641, -19.89031], [-45.26579, -19.8896], [-45.26606, -19.88778], [-45.26518, -19.88728], [-45.26449, -19.88642], [-45.26396, -19.88647], [-45.26359, -19.88613], [-45.26372, -19.8852], [-45.2636, -19.88475], [-45.26278, -19.88347], [-45.26195, -19.88297], [-45.2617, -19.88251], [-45.26195, -19.88166], [-45.26129, -19.88098], [-45.26191, -19.88032], [-45.26181, -19.8798], [-45.26129, -19.87904], [-45.26126, -19.87861], [-45.26157, -19.87819], [-45.26459, -19.87848], [-45.26476, -19.87802], [-45.26468, -19.87747], [-45.2644, -19.8771], [-45.26311, -19.8764], [-45.26067, -19.87578], [-45.25979, -19.87531], [-45.2578, -19.87563], [-45.25709, -19.87499], [-45.25625, -19.87229], [-45.25579, -19.87202], [-45.25255, -19.87196], [-45.25153, -19.87172], [-45.25074, -19.87115], [-45.25059, -19.87071], [-45.25068, -19.87021], [-45.25097, -19.86984], [-45.25069, -19.86897], [-45.25063, -19.86807], [-45.25028, -19.86715], [-45.25034, -19.86561], [-45.24979, -19.86431], [-45.24935, -19.86403], [-45.2482, -19.86161], [-45.24814, -19.86067], [-45.24838, -19.86027], [-45.24878, -19.85873], [-45.24831, -19.85673], [-45.24825, -19.85535], [-45.24785, -19.85451], [-45.24699, -19.8541], [-45.24705, -19.8527], [-45.24666, -19.8524], [-45.24648, -19.85194], [-45.24632, -19.85084], [-45.24648, -19.84987], [-45.24637, -19.84893], [-45.24613, -19.84845], [-45.24434, -19.84753], [-45.24295, -19.84543], [-45.24247, -19.8452], [-45.2405, -19.84524], [-45.24004, -19.84543], [-45.23903, -19.84657], [-45.23857, -19.84667], [-45.23752, -19.84638], [-45.23671, -19.84581], [-45.23581, -19.8455], [-45.23502, -19.84438], [-45.23496, -19.84392], [-45.23666, -19.8416], [-45.2368, -19.84061], [-45.23598, -19.83938], [-45.23578, -19.83849], [-45.23546, -19.83814], [-45.23528, -19.83723], [-45.23481, -19.83695], [-45.23345, -19.83738], [-45.23243, -19.83723], [-45.2317, -19.83662], [-45.23046, -19.83493], [-45.23, -19.83491], [-45.2297, -19.83455], [-45.2297, -19.83402], [-45.23022, -19.83281], [-45.22947, -19.83316], [-45.22922, -19.83346], [-45.22179, -19.83574], [-45.21858, -19.83634], [-45.21704, -19.83629], [-45.21564, -19.83657], [-45.21509, -19.8368], [-45.21414, -19.83766], [-45.21329, -19.83801], [-45.21203, -19.83805], [-45.21009, -19.83752], [-45.20867, -19.83749], [-45.2036, -19.8379], [-45.20202, -19.83771], [-45.20216, -19.83885], [-45.20187, -19.83967], [-45.20051, -19.84024]]]}}]}