{"type": "FeatureCollection", "features": [
{"type": "Feature", "properties": {"CD_SETOR": "310610105000001", "CD_SIT": "1", "NM_DIST": "Belmiro Braga", "NM_SUBDIST": null}, "geometry": {"type": "Polygon", "coordinates": [[[-43.41399, -21.94847], [-43.41232, -21.95001], [-43.41094, -21.95017], [-43.4109, -21.95058], [-43.4111, -21.95082], [-43.41186, -21.95108], [-43.41182, -21.95146], [-43.41228, -21.95209], [-43.41146, -21.95162], [-43.41132, -21.95168], [-43.41102, -21.95194], [-43.41172, -21.95258], [-43.41168, -21.95278], [-43.41103, -21.95337], [-43.41053, -21.95348], [-43.40985, -21.95323], [-43.40962, -21.95354], [-43.41037, -21.9538], [-43.41106, -21.95429], [-43.41125, -21.95411], [-43.41161, -21.95409], [-43.41196, -21.95459], [-43.4121, -21.95447], [-43.41209, -21.95369], [-43.41225, -21.95358], [-43.41282, -21.9537], [-43.41405, -21.95346], [-43.41421, -21.953], [-43.4129, -21.95237], [-43.41218, -21.95131], [-43.4128, -21.95097], [-43.41356, -21.95152], [-43.41372, -21.95107], [-43.41459, -21.95066], [-43.41507, -21.95114], [-43.4155, -21.95106], [-43.41596, -21.95229], [-43.41668, -21.95227], [-43.41726, -21.95285], [-43.41792, -21.95278], [-43.41941, -21.95192], [-43.41922, -21.95123], [-43.41924, -21.95054], [-43.41939, -21.95031], [-43.42044, -21.94972], [-43.42103, -21.94984], [-43.42133, -21.94927], [-43.42046, -21.94919], [-43.41892, -21.95026], [-43.41809, -21.94972], [-43.41772, -21.94986], [-43.41697, -21.9492], [-43.41685, -21.94879], [-43.41698, -21.94842], [-43.41674, -21.94788], [-43.41652, -21.94774], [-43.41538, -21.9476], [-43.41399, -21.94847]]]}}, 
{"type": "Feature", "properties": {"CD_SETOR": "310610105000002", "CD_SIT": "8", "NM_DIST": "Belmiro Braga", "NM_SUBDIST": null}, "geometry": {"type": "Polygon", "coordinates": [[[-43.37457, -21.89596], [-43.374, -21.89735], [-43.37403, -21.89804], [-43.37425, -21.89851], [-43.37455, -21.89889], [-43.37501, -21.89911], [-43.37785, -21.90019], [-43.37836, -21.90071], [-43.37952, -21.90233], [-43.38058, -21.90466], [-43.38267, -21.90843], [-43.38279, -21.90906], [-43.38267, -21.90978], [-43.38203, -21.9102], [-43.38153, -21.91002], [-43.37996, -21.90892], [-43.37897, -21.90866], [-43.37516, -21.9097], [-43.37495, -21.91106], [-43.37508, -21.91156], [-43.37615, -21.91277], [-43.37722, -21.91318], [-43.37882, -21.91417], [-43.37978, -21.91418], [-43.38024, -21.91478], [-43.38106, -21.91539], [-43.38437, -21.91693], [-43.3849, -21.9178], [-43.38499, -21.91887], [-43.38535, -21.91911], [-43.3865, -21.91909], [-43.38682, -21.91922], [-43.38746, -21.91966], [-43.38799, -21.9203], [-43.38783, -21.9212], [-43.3875, -21.9219], [-43.38652, -21.92316], [-43.38637, -21.92396], [-43.38676, -21.92463], [-43.38803, -21.92567], [-43.38815, -21.92602], [-43.38783, -21.92644], [-43.38609, -21.92778], [-43.3857, -21.92901], [-43.38575, -21.92942], [-43.38591, -21.92984], [-43.38617, -21.93002], [-43.38861, -21.93033], [-43.38894, -21.93079], [-43.38886, -21.93136], [-43.38811, -21.93264], [-43.3879, -21.93376], [-43.38845, -21.93464], [-43.39067, -21.93637], [-43.39119, -21.93745], [-43.39218, -21.93834], [-43.39304, -21.93942], [-43.39318, -21.94137], [-43.39209, -21.94611], [-43.39166, -21.94714], [-43.3916, -21.95034], [-43.39014, -21.95352], [-43.39041, -21.9559], [-43.39022, -21.95707], [-43.3895, -21.95872], [-43.38836, -21.96039], [-43.38461, -21.96419], [-43.38332, -21.96525], [-43.3832, -21.9656], [-43.38331, -21.96627], [-43.3839, -21.96755], [-43.38555, -21.96976], [-43.38583, -21.97134], [-43.38696, -21.97338], [-43.38717, -21.97433], [-43.3874, -21.97464], [-43.38733, -21.97504], [-43.38758, -21.97485], [-43.38849, -21.97477], [-43.38879, -21.97452], [-43.38891, -21.97399], [-43.38847, -21.97215], [-43.3874, -21.97106], [-43.38742, -21.97058], [-43.38777, -21.97041], [-43.38772, -21.96986], [-43.38685, -21.96796], [-43.38727, -21.96682], [-43.39057, -21.96478], [-43.39108, -21.96362], [-43.39148, -21.96193], [-43.39208, -21.9613], [-43.39237, -21.96131], [-43.39277, -21.96072], [-43.39313, -21.96067], [-43.39394, -21.95946], [-43.39615, -21.95826], [-43.39719, -21.95748], [-43.39777, -21.95732], [-43.39807, -21.95745], [-43.39864, -21.95721], [-43.39854, -21.95692], [-43.39886, -21.9566], [-43.39965, -21.95641], [-43.3999, -21.95596], [-43.39981, -21.95576], [-43.40023, -21.95508], [-43.40135, -21.95439], [-43.40182, -21.95435], [-43.40221, -21.95404], [-43.40239, -21.95353], [-43.40282, -21.95344], [-43.40265, -21.95271], [-43.40361, -21.95263], [-43.40346, -21.95244], [-43.40354, -21.9521], [-43.40308, -21.95174], [-43.40341, -21.95083], [-43.40383, -21.95051], [-43.40377, -21.95011], [-43.40413, -21.95007], [-43.40377, -21.94951], [-43.40457, -21.94867], [-43.40608, -21.94843], [-43.4067, -21.9481], [-43.40692, -21.94794], [-43.40658, -21.94774], [-43.40666, -21.94731], [-43.40755, -21.94718], [-43.40798, -21.94653], [-43.41087, -21.94643], [-43.41084, -21.94695], [-43.41213, -21.94745], [-43.41399, -21.94847], [-43.41538, -21.9476], [-43.41652, -21.94774], [-43.41674, -21.94788], [-43.41698, -21.94842], [-43.41686, -21.94901], [-43.41772, -21.94986], [-43.41809, -21.94972], [-43.41892, -21.95026], [-43.42035, -21.94924], [-43.42075, -21.94916], [-43.42133, -21.94927], [-43.42103, -21.94984], [-43.42118, -21.94999], [-43.42204, -21.95013], [-43.42232, -21.94972], [-43.42255, -21.94999], [-43.42293, -21.94975], [-43.42335, -21.94977], [-43.42439, -21.94946], [-43.42515, -21.94933], [-43.4255, -21.94949], [-43.42576, -21.94937], [-43.42659, -21.9481], [-43.42826, -21.94701], [-43.4294, -21.94586], [-43.42946, -21.94506], [-43.42966, -21.94494], [-43.42988, -21.94421], [-43.43088, -21.94369], [-43.43143, -21.94314], [-43.43275, -21.94277], [-43.43316, -21.94292], [-43.43441, -21.9425], [-43.43461, -21.94279], [-43.43567, -21.94299], [-43.43678, -21.94416], [-43.4385, -21.94477], [-43.43911, -21.94521], [-43.43989, -21.94612], [-43.44019, -21.94606], [-43.44002, -21.94556], [-43.44063, -21.94521], [-43.44062, -21.94484], [-43.44092, -21.9444], [-43.44078, -21.94415], [-43.44112, -21.94384], [-43.44239, -21.94344], [-43.44353, -21.94351], [-43.44373, -21.944], [-43.44379, -21.94491], [-43.44368, -21.94517], [-43.44388, -21.94582], [-43.44425, -21.94673], [-43.44495, -21.94758], [-43.44701, -21.94728], [-43.45169, -21.94502], [-43.45535, -21.9426], [-43.45738, -21.9402], [-43.45885, -21.93601], [-43.46002, -21.93519], [-43.46164, -21.93475], [-43.46276, -21.93392], [-43.46325, -21.93288], [-43.46327, -21.93171], [-43.46272, -21.93065], [-43.46168, -21.92975], [-43.45846, -21.92777], [-43.4564, -21.92545], [-43.45346, -21.92324], [-43.45241, -21.9222], [-43.45176, -21.92106], [-43.45086, -21.91743], [-43.45102, -21.91616], [-43.45185, -21.91351], [-43.452, -21.91174], [-43.45193, -21.91006], [-43.45219, -21.90878], [-43.45395, -21.90503], [-43.45741, -21.90015], [-43.45804, -21.8988], [-43.45856, -21.89709], [-43.459, -21.89237], [-43.45888, -21.88975], [-43.45854, -21.88887], [-43.45793, -21.88798], [-43.45719, -21.88805], [-43.45669, -21.88785], [-43.45673, -21.8859], [-43.45623, -21.88466], [-43.45608, -21.88337], [-43.45728, -21.88163], [-43.45881, -21.8788], [-43.46017, -21.8773], [-43.4604, -21.87627], [-43.46038, -21.87434], [-43.45939, -21.8739], [-43.45797, -21.87374], [-43.45437, -21.87267], [-43.45388, -21.87317], [-43.45327, -21.8735], [-43.45104, -21.87398], [-43.44782, -21.87498], [-43.4464, -21.87509], [-43.44536, -21.87539], [-43.44413, -21.87668], [-43.44255, -21.87731], [-43.44175, -21.87736], [-43.44131, -21.87675], [-43.44154, -21.87617], [-43.44169, -21.87205], [-43.44137, -21.86846], [-43.44149, -21.86742], [-43.44304, -21.86406], [-43.44459, -21.86226], [-43.44505, -21.86152], [-43.44509, -21.86117], [-43.44461, -21.86039], [-43.44277, -21.85873], [-43.44203, -21.85833], [-43.4387, -21.85762], [-43.43722, -21.85616], [-43.43637, -21.85612], [-43.43409, -21.85675], [-43.43281, -21.85826], [-43.43182, -21.85877], [-43.43079, -21.85843], [-43.42915, -21.85696], [-43.42838, -21.85671], [-43.42588, -21.85692], [-43.42463, -21.85787], [-43.42178, -21.85801], [-43.42055, -21.85764], [-43.41886, -21.85664], [-43.41671, -21.85426], [-43.4153, -21.85479], [-43.41415, -21.85552], [-43.41388, -21.85551], [-43.41244, -21.85731], [-43.41228, -21.85778], [-43.41231, -21.8588], [-43.413, -21.86113], [-43.41324, -21.86122], [-43.41377, -21.86109], [-43.41519, -21.86011], [-43.41574, -21.86003], [-43.41725, -21.86066], [-43.41932, -21.86106], [-43.41985, -21.8616], [-43.42048, -21.86381], [-43.42038, -21.86427], [-43.41916, -21.86562], [-43.41872, -21.86658], [-43.41896, -21.86701], [-43.41919, -21.86696], [-43.41956, -21.86731], [-43.42001, -21.86821], [-43.42025, -21.86941], [-43.42013, -21.87098], [-43.41976, -21.87213], [-43.41933, -21.87279], [-43.41664, -21.87517], [-43.41669, -21.87672], [-43.41761, -21.8772], [-43.42105, -21.87747], [-43.42297, -21.87647], [-43.42453, -21.87644], [-43.42513, -21.87702], [-43.42596, -21.8792], [-43.4273, -21.88138], [-43.42732, -21.88253], [-43.42655, -21.88407], [-43.42437, -21.88531], [-43.42175, -21.88616], [-43.41967, -21.88723], [-43.41908, -21.88774], [-43.41864, -21.8886], [-43.41842, -21.88997], [-43.41857, -21.89267], [-43.4182, -21.89372], [-43.41759, -21.8943], [-43.41707, -21.89447], [-43.41618, -21.89443], [-43.41518, -21.89401], [-43.41436, -21.89335], [-43.41335, -21.89218], [-43.41203, -21.89143], [-43.41157, -21.89049], [-43.41055, -21.88971], [-43.40955, -21.8883], [-43.40931, -21.88595], [-43.40875, -21.88468], [-43.40844, -21.88336], [-43.40838, -21.88211], [-43.40845, -21.88188], [-43.40888, -21.88162], [-43.41005, -21.88162], [-43.41078, -21.88142], [-43.41086, -21.88031], [-43.41042, -21.87831], [-43.41002, -21.878], [-43.40834, -21.87788], [-43.40684, -21.87739], [-43.40492, -21.87713], [-43.40254, -21.87824], [-43.40075, -21.87966], [-43.40011, -21.8805], [-43.39983, -21.88196], [-43.39913, -21.88272], [-43.39865, -21.88284], [-43.39726, -21.88276], [-43.39669, -21.88253], [-43.39595, -21.88251], [-43.39542, -21.88258], [-43.39427, -21.88312], [-43.39395, -21.88346], [-43.39351, -21.8849], [-43.39262, -21.88644], [-43.39074, -21.88812], [-43.38961, -21.8887], [-43.38939, -21.88862], [-43.38848, -21.88904], [-43.38664, -21.88927], [-43.38614, -21.88947], [-43.38591, -21.89038], [-43.38536, -21.89157], [-43.38467, -21.89229], [-43.38236, -21.89281], [-43.38198, -21.89312], [-43.3807, -21.89338], [-43.38042, -21.89329], [-43.38023, -21.89346], [-43.37867, -21.89383], [-43.37767, -21.8942], [-43.37457, -21.89596]], [[-43.38582, -21.90883], [-43.38537, -21.90774], [-43.38569, -21.90734], [-43.38625, -21.9071], [-43.38906, -21.90858], [-43.38998, -21.90876], [-43.39176, -21.9095], [-43.39096, -21.91018], [-43.39073, -21.90977], [-43.39058, -21.90978], [-43.39056, -21.90949], [-43.39023, -21.90929], [-43.3897, -21.90912], [-43.38852, -21.90909], [-43.38798, -21.90932], [-43.38814, -21.91056], [-43.3881, -21.91073], [-43.3878, -21.9108], [-43.38758, -21.91073], [-43.38759, -21.91033], [-43.38701, -21.90999], [-43.38701, -21.90967], [-43.38622, -21.90948], [-43.38582, -21.90883]]]}}, 
{"type": "Feature", "properties": {"CD_SETOR": "310610105000003", "CD_SIT": "5", "NM_DIST": "Belmiro Braga", "NM_SUBDIST": null}, "geometry": {"type": "Polygon", "coordinates": [[[-43.38582, -21.90883], [-43.38622, -21.90948], [-43.38701, -21.90967], [-43.38701, -21.90999], [-43.38759, -21.91033], [-43.38758, -21.91073], [-43.3878, -21.9108], [-43.3881, -21.91073], [-43.38814, -21.91056], [-43.38798, -21.90932], [-43.38852, -21.90909], [-43.3897, -21.90912], [-43.39023, -21.90929], [-43.39056, -21.90949], [-43.39058, -21.90978], [-43.39073, -21.90977], [-43.39096, -21.91018], [-43.39176, -21.9095], [-43.38998, -21.90876], [-43.38906, -21.90858], [-43.38625, -21.9071], [-43.38569, -21.90734], [-43.38537, -21.90774], [-43.38582, -21.90883]]]}}, 
{"type": "Feature", "properties": {"CD_SETOR": "310610105000005", "CD_SIT": "1", "NM_DIST": "Belmiro Braga", "NM_SUBDIST": null}, "geometry": {"type": "Polygon", "coordinates": [[[-43.40692, -21.94794], [-43.40795, -21.94743], [-43.41046, -21.94737], [-43.41147, -21.94758], [-43.41354, -21.949], [-43.41399, -21.94847], [-43.41213, -21.94745], [-43.41084, -21.94695], [-43.41087, -21.94643], [-43.40798, -21.94653], [-43.40755, -21.94718], [-43.40666, -21.94731], [-43.40658, -21.94774], [-43.40692, -21.94794]]]}}, 
{"type": "Feature", "properties": {"CD_SETOR": "310610105000006", "CD_SIT": "8", "NM_DIST": "Belmiro Braga", "NM_SUBDIST": null}, "geometry": {"type": "Polygon", "coordinates": [[[-43.42103, -21.94984], [-43.42044, -21.94972], [-43.41939, -21.95031], [-43.41924, -21.95054], [-43.41922, -21.95123], [-43.41941, -21.95192], [-43.41784, -21.95281], [-43.41726, -21.95285], [-43.41668, -21.95227], [-43.41596, -21.95229], [-43.4155, -21.95106], [-43.41507, -21.95114], [-43.4147, -21.95068], [-43.41388, -21.95095], [-43.41356, -21.95152], [-43.4128, -21.95097], [-43.41226, -21.95123], [-43.41226, -21.95155], [-43.4129, -21.95237], [-43.41401, -21.95288], [-43.41425, -21.95314], [-43.41405, -21.95346], [-43.41282, -21.9537], [-43.41225, -21.95358], [-43.41209, -21.95369], [-43.4121, -21.95447], [-43.41196, -21.95459], [-43.41161, -21.95409], [-43.41125, -21.95411], [-43.41106, -21.95429], [-43.4108, -21.95421], [-43.41055, -21.95389], [-43.40995, -21.95374], [-43.40963, -21.95347], [-43.40985, -21.95323], [-43.41053, -21.95348], [-43.41103, -21.95337], [-43.41168, -21.95278], [-43.41172, -21.95258], [-43.41102, -21.95194], [-43.41132, -21.95168], [-43.41146, -21.95162], [-43.41228, -21.95209], [-43.41182, -21.95146], [-43.41186, -21.95108], [-43.4111, -21.95082], [-43.41082, -21.95043], [-43.4112, -21.95005], [-43.41232, -21.95001], [-43.41325, -21.94916], [-43.41302, -21.949], [-43.41178, -21.94903], [-43.4112, -21.9489], [-43.41016, -21.94824], [-43.4096, -21.94817], [-43.4077, -21.94823], [-43.40743, -21.94851], [-43.40669, -21.94872], [-43.40638, -21.94898], [-43.40539, -21.94908], [-43.40471, -21.9499], [-43.40432, -21.94984], [-43.40413, -21.95007], [-43.40377, -21.95011], [-43.40383, -21.95051], [-43.40341, -21.95083], [-43.40308, -21.95174], [-43.40354, -21.9521], [-43.40346, -21.95244], [-43.40361, -21.95263], [-43.40265, -21.95271], [-43.40282, -21.95344], [-43.40239, -21.95353], [-43.40221, -21.95404], [-43.40182, -21.95435], [-43.40135, -21.95439], [-43.40023, -21.95508], [-43.39981, -21.95576], [-43.3999, -21.95596], [-43.39965, -21.95641], [-43.39886, -21.9566], [-43.39854, -21.95692], [-43.39864, -21.95721], [-43.39807, -21.95745], [-43.39777, -21.95732], [-43.39719, -21.95748], [-43.39615, -21.95826], [-43.39394, -21.95946], [-43.39313, -21.96067], [-43.39277, -21.96072], [-43.39237, -21.96131], [-43.39208, -21.9613], [-43.39148, -21.96193], [-43.39108, -21.96362], [-43.39057, -21.96478], [-43.38773, -21.96644], [-43.38701, -21.96725], [-43.38691, -21.9682], [-43.38772, -21.96986], [-43.38778, -21.97029], [-43.38772, -21.97049], [-43.38742, -21.97058], [-43.3874, -21.97106], [-43.38847, -21.97215], [-43.38891, -21.97399], [-43.38879, -21.97452], [-43.38849, -21.97477], [-43.38758, -21.97485], [-43.38733, -21.97504], [-43.38724, -21.97565], [-43.38822, -21.97633], [-43.38986, -21.97701], [-43.39103, -21.97716], [-43.39153, -21.97739], [-43.39191, -21.97815], [-43.39278, -21.97807], [-43.39359, -21.97828], [-43.39433, -21.97884], [-43.39507, -21.97969], [-43.39562, -21.98123], [-43.39576, -21.985], [-43.39631, -21.98603], [-43.39674, -21.98749], [-43.39664, -21.98832], [-43.39602, -21.98882], [-43.39564, -21.98984], [-43.39572, -21.99289], [-43.39593, -21.9943], [-43.39647, -21.99614], [-43.39895, -21.99929], [-43.39974, -21.99995], [-43.40009, -22.00078], [-43.40109, -22.00142], [-43.40299, -22.00397], [-43.40274, -22.00497], [-43.40276, -22.00614], [-43.40221, -22.00693], [-43.40169, -22.00836], [-43.40134, -22.00851], [-43.40039, -22.00823], [-43.39986, -22.0083], [-43.39962, -22.00934], [-43.39844, -22.0105], [-43.39779, -22.01088], [-43.39746, -22.01154], [-43.39713, -22.01159], [-43.39609, -22.01127], [-43.39789, -22.01326], [-43.3995, -22.01434], [-43.40004, -22.01435], [-43.40054, -22.01383], [-43.40161, -22.01195], [-43.40262, -22.00928], [-43.40341, -22.00812], [-43.40474, -22.00561], [-43.40476, -22.00488], [-43.40434, -22.00304], [-43.40322, -22.00038], [-43.40301, -21.99932], [-43.40313, -21.99865], [-43.40396, -21.99729], [-43.40508, -21.99591], [-43.40742, -21.99496], [-43.4093, -21.99449], [-43.41161, -21.99451], [-43.41333, -21.99392], [-43.41411, -21.99392], [-43.41482, -21.99366], [-43.41678, -21.99356], [-43.41752, -21.99375], [-43.4186, -21.99473], [-43.4196, -21.99511], [-43.42071, -21.99507], [-43.42203, -21.9953], [-43.42226, -21.99546], [-43.42486, -21.9952], [-43.42661, -21.9946], [-43.42735, -21.99388], [-43.42921, -21.99373], [-43.43067, -21.99384], [-43.43191, -21.99365], [-43.43371, -21.99308], [-43.43683, -21.992], [-43.43698, -21.99178], [-43.43955, -21.99073], [-43.44095, -21.98981], [-43.44123, -21.98979], [-43.44244, -21.98999], [-43.4449, -21.99007], [-43.44632, -21.99086], [-43.4494, -21.99214], [-43.45051, -21.99215], [-43.45161, -21.99193], [-43.45172, -21.99174], [-43.45281, -21.9912], [-43.45414, -21.99115], [-43.45513, -21.99149], [-43.45591, -21.99219], [-43.45719, -21.99478], [-43.45959, -21.99652], [-43.46072, -21.99796], [-43.46456, -21.99812], [-43.46846, -21.99547], [-43.4699, -21.99538], [-43.47239, -21.99457], [-43.47422, -21.99449], [-43.47595, -21.99507], [-43.47653, -21.99513], [-43.47688, -21.99473], [-43.47722, -21.99372], [-43.47759, -21.99126], [-43.47847, -21.98979], [-43.48215, -21.98651], [-43.48454, -21.98563], [-43.4846, -21.98537], [-43.48428, -21.98463], [-43.48329, -21.98377], [-43.48299, -21.98291], [-43.4832, -21.98223], [-43.48376, -21.98179], [-43.48526, -21.98116], [-43.48639, -21.97988], [-43.48756, -21.97751], [-43.48821, -21.97674], [-43.48889, -21.97623], [-43.48965, -21.97535], [-43.49229, -21.9732], [-43.49461, -21.9707], [-43.49628, -21.96987], [-43.49729, -21.96895], [-43.49908, -21.96526], [-43.49987, -21.96409], [-43.50136, -21.96329], [-43.50512, -21.96034], [-43.5065, -21.96001], [-43.50964, -21.95972], [-43.5101, -21.95952], [-43.51078, -21.9588], [-43.51117, -21.95814], [-43.51121, -21.9571], [-43.51044, -21.95575], [-43.51043, -21.95526], [-43.51048, -21.955], [-43.5113, -21.95406], [-43.51158, -21.95344], [-43.51172, -21.95008], [-43.51159, -21.94963], [-43.50712, -21.94965], [-43.50506, -21.95029], [-43.50238, -21.95159], [-43.50201, -21.95196], [-43.50186, -21.95276], [-43.50124, -21.95367], [-43.49921, -21.95435], [-43.49629, -21.95443], [-43.49384, -21.95427], [-43.49323, -21.95447], [-43.493, -21.95501], [-43.49239, -21.95523], [-43.49229, -21.95558], [-43.49182, -21.95596], [-43.49118, -21.95522], [-43.48986, -21.95504], [-43.48664, -21.95508], [-43.48577, -21.95758], [-43.4838, -21.95924], [-43.48379, -21.96112], [-43.48346, -21.96195], [-43.48258, -21.96266], [-43.48066, -21.96284], [-43.47963, -21.96232], [-43.47884, -21.96242], [-43.47747, -21.9622], [-43.47755, -21.96129], [-43.47744, -21.96119], [-43.47083, -21.95729], [-43.47009, -21.95708], [-43.47, -21.95727], [-43.47014, -21.95744], [-43.47, -21.95765], [-43.46905, -21.95745], [-43.46911, -21.9565], [-43.4688, -21.95567], [-43.46779, -21.95564], [-43.46517, -21.9545], [-43.46378, -21.95447], [-43.46303, -21.95401], [-43.46189, -21.95291], [-43.46151, -21.95295], [-43.46092, -21.95379], [-43.46019, -21.95388], [-43.45981, -21.95369], [-43.45896, -21.95282], [-43.45741, -21.95264], [-43.45667, -21.95175], [-43.45506, -21.95156], [-43.45426, -21.95069], [-43.45253, -21.94938], [-43.45185, -21.94943], [-43.45102, -21.94979], [-43.45003, -21.94974], [-43.44894, -21.95022], [-43.44815, -21.95008], [-43.44713, -21.94933], [-43.44676, -21.94921], [-43.44642, -21.94939], [-43.44608, -21.94927], [-43.44594, -21.94903], [-43.44558, -21.94904], [-43.44548, -21.94852], [-43.4452, -21.94832], [-43.44521, -21.94811], [-43.44496, -21.94811], [-43.44479, -21.94786], [-43.44493, -21.94753], [-43.44425, -21.94673], [-43.44364, -21.94508], [-43.44266, -21.94498], [-43.44157, -21.9457], [-43.43989, -21.94612], [-43.43911, -21.94521], [-43.4385, -21.94477], [-43.43678, -21.94416], [-43.43567, -21.94299], [-43.43461, -21.94279], [-43.43441, -21.9425], [-43.43316, -21.94292], [-43.43275, -21.94277], [-43.43143, -21.94314], [-43.43088, -21.94369], [-43.42988, -21.94421], [-43.42966, -21.94494], [-43.42946, -21.94506], [-43.4294, -21.94586], [-43.42826, -21.94701], [-43.42659, -21.9481], [-43.42561, -21.94946], [-43.42515, -21.94933], [-43.42439, -21.94946], [-43.42335, -21.94977], [-43.42293, -21.94975], [-43.42255, -21.94999], [-43.42232, -21.94972], [-43.42204, -21.95013], [-43.4213, -21.95005], [-43.42103, -21.94984]]]}}, 
{"type": "Feature", "properties": {"CD_SETOR": "310610105000007", "CD_SIT": "5", "NM_DIST": "Belmiro Braga", "NM_SUBDIST": null}, "geometry": {"type": "Polygon", "coordinates": [[[-43.44019, -21.94606], [-43.44157, -21.9457], [-43.44266, -21.94498], [-43.44327, -21.94499], [-43.44368, -21.94517], [-43.44379, -21.94463], [-43.44362, -21.94363], [-43.44353, -21.94351], [-43.44239, -21.94344], [-43.44112, -21.94384], [-43.44078, -21.94415], [-43.44092, -21.9444], [-43.44062, -21.94484], [-43.44063, -21.94521], [-43.44002, -21.94556], [-43.44019, -21.94606]]]}}, 
{"type": "Feature", "properties": {"CD_SETOR": "310610105000008", "CD_SIT": "8", "NM_DIST": "Belmiro Braga", "NM_SUBDIST": null}, "geometry": {"type": "Polygon", "coordinates": [[[-43.47951, -21.88004], [-43.47767, -21.88062], [-43.47594, -21.88315], [-43.47511, -21.88599], [-43.47519, -21.88632], [-43.47576, -21.88686], [-43.47592, -21.88732], [-43.47594, -21.88858], [-43.47517, -21.8907], [-43.47492, -21.8911], [-43.47448, -21.89136], [-43.47252, -21.89116], [-43.47096, -21.89123], [-43.46981, -21.891], [-43.46966, -21.89052], [-43.47012, -21.88911], [-43.47041, -21.8874], [-43.46872, -21.88571], [-43.46802, -21.8853], [-43.4666, -21.88371], [-43.46617, -21.88348], [-43.46442, -21.88354], [-43.464, -21.88384], [-43.46344, -21.88501], [-43.46307, -21.88533], [-43.46242, -21.88572], [-43.46156, -21.8859], [-43.46033, -21.88648], [-43.45793, -21.88798], [-43.45854, -21.88887], [-43.45888, -21.88975], [-43.459, -21.89237], [-43.45856, -21.89709], [-43.45804, -21.8988], [-43.45741, -21.90015], [-43.45395, -21.90503], [-43.45219, -21.90878], [-43.45193, -21.91006], [-43.452, -21.91174], [-43.45185, -21.91351], [-43.45102, -21.91616], [-43.45086, -21.91743], [-43.45176, -21.92106], [-43.45241, -21.9222], [-43.45346, -21.92324], [-43.4564, -21.92545], [-43.45846, -21.92777], [-43.46168, -21.92975], [-43.46272, -21.93065], [-43.46327, -21.93171], [-43.46325, -21.93288], [-43.46276, -21.93392], [-43.46164, -21.93475], [-43.46002, -21.93519], [-43.45885, -21.93601], [-43.45738, -21.9402], [-43.45535, -21.9426], [-43.45169, -21.94502], [-43.44853, -21.94666], [-43.44701, -21.94728], [-43.44495, -21.94758], [-43.44477, -21.94781], [-43.44548, -21.94852], [-43.44558, -21.94904], [-43.44594, -21.94903], [-43.44608, -21.94927], [-43.44642, -21.94939], [-43.44676, -21.94921], [-43.44713, -21.94933], [-43.4483, -21.95013], [-43.44894, -21.95022], [-43.45003, -21.94974], [-43.45102, -21.94979], [-43.45185, -21.94943], [-43.45253, -21.94938], [-43.45426, -21.95069], [-43.45506, -21.95156], [-43.45667, -21.95175], [-43.45741, -21.95264], [-43.45896, -21.95282], [-43.45981, -21.95369], [-43.46019, -21.95388], [-43.46092, -21.95379], [-43.46151, -21.95295], [-43.46189, -21.95291], [-43.46303, -21.95401], [-43.46378, -21.95447], [-43.46517, -21.9545], [-43.46779, -21.95564], [-43.4688, -21.95567], [-43.46911, -21.9565], [-43.46905, -21.95745], [-43.47, -21.95765], [-43.47014, -21.95744], [-43.46999, -21.95716], [-43.47028, -21.95708], [-43.47189, -21.95783], [-43.47744, -21.96119], [-43.47755, -21.96129], [-43.47747, -21.9622], [-43.47884, -21.96242], [-43.47963, -21.96232], [-43.48066, -21.96284], [-43.48172, -21.96282], [-43.48258, -21.96266], [-43.48346, -21.96195], [-43.48379, -21.96112], [-43.4838, -21.95924], [-43.48577, -21.95758], [-43.48664, -21.95508], [-43.48986, -21.95504], [-43.49118, -21.95522], [-43.49182, -21.95596], [-43.49229, -21.95558], [-43.49239, -21.95523], [-43.493, -21.95501], [-43.49323, -21.95447], [-43.49384, -21.95427], [-43.49629, -21.95443], [-43.49921, -21.95435], [-43.50124, -21.95367], [-43.50186, -21.95276], [-43.50216, -21.95176], [-43.50506, -21.95029], [-43.50712, -21.94965], [-43.51159, -21.94963], [-43.5112, -21.94865], [-43.51003, -21.94731], [-43.50613, -21.94425], [-43.5042, -21.94454], [-43.5023, -21.94584], [-43.50153, -21.94582], [-43.5013, -21.94567], [-43.50107, -21.94502], [-43.501, -21.94263], [-43.5006, -21.94089], [-43.49962, -21.93956], [-43.49803, -21.93893], [-43.49657, -21.93788], [-43.49586, -21.93796], [-43.4946, -21.93881], [-43.49241, -21.93864], [-43.49193, -21.93845], [-43.49125, -21.93781], [-43.49042, -21.93655], [-43.4907, -21.93496], [-43.49186, -21.93423], [-43.49266, -21.93409], [-43.4941, -21.93341], [-43.49485, -21.93269], [-43.49481, -21.92985], [-43.49511, -21.92901], [-43.49513, -21.92825], [-43.49539, -21.92763], [-43.49484, -21.92686], [-43.49484, -21.92616], [-43.49515, -21.92575], [-43.49515, -21.92552], [-43.49471, -21.92468], [-43.49469, -21.92416], [-43.49501, -21.92354], [-43.49515, -21.92193], [-43.49509, -21.92144], [-43.49474, -21.92078], [-43.49472, -21.91978], [-43.49493, -21.91941], [-43.49507, -21.91825], [-43.49577, -21.91805], [-43.49577, -21.91707], [-43.49611, -21.9152], [-43.49527, -21.91265], [-43.49386, -21.91227], [-43.49267, -21.9116], [-43.49158, -21.90973], [-43.49008, -21.90857], [-43.48805, -21.90653], [-43.48796, -21.90602], [-43.48976, -21.90394], [-43.4915, -21.90254], [-43.49283, -21.90265], [-43.49307, -21.9029], [-43.49323, -21.90335], [-43.49331, -21.90541], [-43.49368, -21.90561], [-43.49481, -21.90564], [-43.49518, -21.90549], [-43.49543, -21.90492], [-43.49552, -21.90361], [-43.49654, -21.90137], [-43.49653, -21.90111], [-43.49627, -21.90083], [-43.49492, -21.89983], [-43.49447, -21.89894], [-43.49441, -21.89846], [-43.49508, -21.89578], [-43.49523, -21.89171], [-43.49506, -21.89125], [-43.49459, -21.89078], [-43.49325, -21.89041], [-43.49246, -21.88998], [-43.49144, -21.88854], [-43.49112, -21.88778], [-43.49207, -21.88664], [-43.49198, -21.88591], [-43.49282, -21.88483], [-43.49398, -21.88431], [-43.49598, -21.88409], [-43.49843, -21.88336], [-43.49912, -21.88296], [-43.49938, -21.88253], [-43.4993, -21.88181], [-43.49874, -21.8812], [-43.49781, -21.88071], [-43.49704, -21.8805], [-43.49083, -21.88031], [-43.48882, -21.8817], [-43.48729, -21.8833], [-43.48612, -21.88402], [-43.48556, -21.88408], [-43.4851, -21.88384], [-43.48472, -21.88331], [-43.48436, -21.88221], [-43.48333, -21.88149], [-43.48106, -21.88036], [-43.48, -21.88002], [-43.47951, -21.88004]]]}}, 
{"type": "Feature", "properties": {"CD_SETOR": "310610105000009", "CD_SIT": "1", "NM_DIST": "Belmiro Braga", "NM_SUBDIST": null}, "geometry": {"type": "Polygon", "coordinates": [[[-43.40692, -21.94794], [-43.40608, -21.94843], [-43.40457, -21.94867], [-43.40377, -21.94951], [-43.40382, -21.94968], [-43.40413, -21.95007], [-43.40432, -21.94984], [-43.40471, -21.9499], [-43.40539, -21.94908], [-43.40638, -21.94898], [-43.40669, -21.94872], [-43.40743, -21.94851], [-43.4077, -21.94823], [-43.41, -21.94819], [-43.4111, -21.94886], [-43.41178, -21.94903], [-43.41302, -21.949], [-43.41327, -21.94919], [-43.41354, -21.949], [-43.41147, -21.94758], [-43.41103, -21.94745], [-43.40795, -21.94743], [-43.40692, -21.94794]]]}}, 
{"type": "Feature", "properties": {"CD_SETOR": "310610110000001", "CD_SIT": "1", "NM_DIST": "Porto das Flores", "NM_SUBDIST": null}, "geometry": {"type": "Polygon", "coordinates": [[[-43.55188, -22.08107], [-43.5534, -22.08152], [-43.55536, -22.08268], [-43.55732, -22.08287], [-43.55841, -22.08346], [-43.55961, -22.08381], [-43.56029, -22.08453], [-43.56066, -22.08542], [-43.56158, -22.08463], [-43.5623, -22.08456], [-43.56286, -22.08481], [-43.56289, -22.08432], [-43.56268, -22.08398], [-43.56085, -22.08269], [-43.56038, -22.08267], [-43.55965, -22.08232], [-43.5592, -22.0816], [-43.55882, -22.08131], [-43.55728, -22.08207], [-43.55685, -22.08152], [-43.55558, -22.08117], [-43.55522, -22.08186], [-43.55277, -22.08075], [-43.55211, -22.08062], [-43.55188, -22.08107]]]}}, 
{"type": "Feature", "properties": {"CD_SETOR": "310610110000002", "CD_SIT": "8", "NM_DIST": "Porto das Flores", "NM_SUBDIST": null}, "geometry": {"type": "Polygon", "coordinates": [[[-43.49139, -22.07425], [-43.4919, -22.07412], [-43.49266, -22.07423], [-43.49433, -22.07493], [-43.49483, -22.07479], [-43.49701, -22.07352], [-43.49856, -22.07396], [-43.5, -22.0748], [-43.50172, -22.07476], [-43.50317, -22.07517], [-43.50382, -22.0752], [-43.5045, -22.07501], [-43.50634, -22.07365], [-43.50683, -22.07303], [-43.50663, -22.07231], [-43.50604, -22.07146], [-43.50504, -22.07128], [-43.50457, -22.07083], [-43.50446, -22.07049], [-43.50434, -22.06969], [-43.50457, -22.06838], [-43.50523, -22.06753], [-43.50528, -22.06719], [-43.50478, -22.06637], [-43.50484, -22.0661], [-43.5054, -22.06531], [-43.50611, -22.06468], [-43.50641, -22.06401], [-43.50684, -22.06358], [-43.507, -22.0632], [-43.50693, -22.06201], [-43.50724, -22.06159], [-43.50921, -22.06059], [-43.50994, -22.06042], [-43.51151, -22.05937], [-43.51236, -22.05919], [-43.51367, -22.05956], [-43.51455, -22.06013], [-43.51578, -22.06063], [-43.51809, -22.0608], [-43.51842, -22.06095], [-43.51899, -22.06181], [-43.52031, -22.06314], [-43.52048, -22.06352], [-43.52068, -22.06592], [-43.52057, -22.0671], [-43.52085, -22.0677], [-43.5218, -22.06858], [-43.52268, -22.06971], [-43.52278, -22.06992], [-43.52261, -22.07058], [-43.52283, -22.07085], [-43.52433, -22.07143], [-43.52483, -22.07241], [-43.52568, -22.07271], [-43.52714, -22.07231], [-43.52987, -22.07391], [-43.53097, -22.07423], [-43.53191, -22.07417], [-43.53361, -22.07485], [-43.53437, -22.07534], [-43.5355, -22.07543], [-43.53634, -22.07599], [-43.53844, -22.07824], [-43.54067, -22.07909], [-43.54211, -22.07943], [-43.54405, -22.0793], [-43.54572, -22.07971], [-43.5467, -22.07948], [-43.5474, -22.07899], [-43.54796, -22.07898], [-43.54845, -22.0793], [-43.54872, -22.0797], [-43.5491, -22.08074], [-43.54959, -22.08094], [-43.5511, -22.08091], [-43.55188, -22.08107], [-43.55245, -22.08027], [-43.55356, -22.07985], [-43.5538, -22.07889], [-43.55464, -22.07988], [-43.55557, -22.08003], [-43.55738, -22.07846], [-43.55737, -22.07813], [-43.55706, -22.0776], [-43.55727, -22.07712], [-43.55691, -22.07605], [-43.5572, -22.07604], [-43.5586, -22.07666], [-43.55949, -22.07771], [-43.55944, -22.07802], [-43.55872, -22.07947], [-43.55727, -22.08077], [-43.55693, -22.08116], [-43.55685, -22.08152], [-43.55728, -22.08207], [-43.55882, -22.08131], [-43.5592, -22.0816], [-43.55965, -22.08232], [-43.56038, -22.08267], [-43.56085, -22.08269], [-43.56268, -22.08398], [-43.56289, -22.08432], [-43.56286, -22.08481], [-43.5623, -22.08456], [-43.56158, -22.08463], [-43.56066, -22.08542], [-43.56055, -22.08622], [-43.56011, -22.08721], [-43.5601, -22.08779], [-43.56114, -22.08844], [-43.56508, -22.08854], [-43.5659, -22.08797], [-43.56605, -22.08748], [-43.56582, -22.08467], [-43.5665, -22.08247], [-43.56673, -22.08068], [-43.56747, -22.07886], [-43.56856, -22.07733], [-43.56938, -22.07695], [-43.57057, -22.07735], [-43.57166, -22.07715], [-43.57199, -22.07724], [-43.57272, -22.078], [-43.57334, -22.07839], [-43.57431, -22.07833], [-43.57493, -22.07795], [-43.57524, -22.07752], [-43.5757, -22.0762], [-43.57703, -22.07487], [-43.57764, -22.07371], [-43.58122, -22.07054], [-43.58356, -22.07131], [-43.58403, -22.07112], [-43.58414, -22.07042], [-43.58401, -22.06956], [-43.58436, -22.06858], [-43.58432, -22.06684], [-43.58469, -22.06351], [-43.58371, -22.05785], [-43.5834, -22.05711], [-43.58387, -22.05445], [-43.58449, -22.05329], [-43.58501, -22.05181], [-43.58567, -22.05153], [-43.58625, -22.05171], [-43.58663, -22.05225], [-43.58694, -22.05437], [-43.5888, -22.05567], [-43.58952, -22.05589], [-43.59111, -22.05569], [-43.59141, -22.05579], [-43.59335, -22.05412], [-43.59434, -22.05238], [-43.59652, -22.05081], [-43.59722, -22.0505], [-43.59822, -22.05035], [-43.60107, -22.05011], [-43.60161, -22.0502], [-43.60323, -22.04998], [-43.60558, -22.04908], [-43.60812, -22.04731], [-43.60984, -22.04566], [-43.61144, -22.04432], [-43.61227, -22.04382], [-43.61327, -22.04328], [-43.61596, -22.04228], [-43.61789, -22.04189], [-43.61975, -22.04098], [-43.62098, -22.03967], [-43.62138, -22.03879], [-43.62228, -22.03782], [-43.62369, -22.03752], [-43.62937, -22.03722], [-43.63374, -22.03627], [-43.63669, -22.03356], [-43.63752, -22.03261], [-43.63771, -22.03216], [-43.63819, -22.02951], [-43.63801, -22.02711], [-43.63745, -22.02337], [-43.63697, -22.02279], [-43.6365, -22.02254], [-43.63319, -22.02284], [-43.63188, -22.0225], [-43.62937, -22.02131], [-43.62838, -22.02035], [-43.62539, -22.0202], [-43.6237, -22.01946], [-43.62234, -22.01854], [-43.62046, -22.01807], [-43.61979, -22.01767], [-43.61812, -22.01561], [-43.61691, -22.01482], [-43.61645, -22.01491], [-43.6162, -22.01455], [-43.61449, -22.01373], [-43.61411, -22.0134], [-43.61347, -22.0123], [-43.61277, -22.01186], [-43.6111, -22.01181], [-43.60879, -22.0115], [-43.608, -22.01157], [-43.60755, -22.01137], [-43.6072, -22.01074], [-43.60685, -22.01045], [-43.60424, -22.00988], [-43.60352, -22.00956], [-43.602, -22.00937], [-43.59699, -22.00919], [-43.59658, -22.0089], [-43.59467, -22.00832], [-43.59335, -22.00825], [-43.59157, -22.00622], [-43.59012, -22.00565], [-43.58929, -22.00503], [-43.58808, -22.00256], [-43.58669, -22.00158], [-43.58512, -21.99982], [-43.58513, -21.99892], [-43.58421, -21.99889], [-43.58374, -21.99913], [-43.58344, -21.99904], [-43.58088, -21.99934], [-43.57989, -21.99915], [-43.57968, -21.99818], [-43.58025, -21.99712], [-43.58032, -21.99614], [-43.57997, -21.995], [-43.57937, -21.99417], [-43.5784, -21.99391], [-43.57735, -21.99318], [-43.57642, -21.99135], [-43.57575, -21.99059], [-43.57528, -21.99072], [-43.57469, -21.99181], [-43.57433, -21.99211], [-43.57279, -21.99242], [-43.57173, -21.99234], [-43.56983, -21.98966], [-43.56828, -21.98803], [-43.5674, -21.98792], [-43.56568, -21.98817], [-43.5655, -21.98795], [-43.5648, -21.98568], [-43.56414, -21.98458], [-43.56132, -21.98385], [-43.55907, -21.98272], [-43.55631, -21.97993], [-43.55371, -21.97848], [-43.55141, -21.97598], [-43.55119, -21.97587], [-43.54975, -21.97611], [-43.54893, -21.97663], [-43.54817, -21.97677], [-43.54728, -21.97662], [-43.54689, -21.9763], [-43.54474, -21.97551], [-43.5441, -21.97463], [-43.54384, -21.97315], [-43.54364, -21.97298], [-43.54286, -21.97102], [-43.54203, -21.9686], [-43.54186, -21.96845], [-43.54134, -21.96847], [-43.54047, -21.96894], [-43.53943, -21.96918], [-43.53838, -21.9689], [-43.53575, -21.96678], [-43.53529, -21.96607], [-43.53525, -21.96553], [-43.53235, -21.96723], [-43.53048, -21.96928], [-43.52955, -21.96994], [-43.5244, -21.97245], [-43.52249, -21.97298], [-43.52191, -21.97292], [-43.52102, -21.97309], [-43.52002, -21.97411], [-43.51931, -21.97552], [-43.51885, -21.97749], [-43.51868, -21.98032], [-43.51772, -21.98226], [-43.51691, -21.98461], [-43.5165, -21.9892], [-43.51685, -21.99105], [-43.51743, -21.99192], [-43.51833, -21.99233], [-43.52056, -21.9928], [-43.52096, -21.9931], [-43.52101, -21.99332], [-43.52106, -21.99446], [-43.52059, -21.99583], [-43.52047, -21.99875], [-43.52022, -22.00052], [-43.52033, -22.00098], [-43.52144, -22.00298], [-43.52156, -22.0042], [-43.52126, -22.00507], [-43.52058, -22.0061], [-43.52018, -22.00786], [-43.51951, -22.00927], [-43.5193, -22.01073], [-43.51938, -22.01167], [-43.51964, -22.01207], [-43.52009, -22.01236], [-43.52349, -22.01392], [-43.5248, -22.01511], [-43.52575, -22.0155], [-43.52608, -22.01586], [-43.526, -22.01608], [-43.52478, -22.0169], [-43.52376, -22.01711], [-43.52279, -22.01759], [-43.52054, -22.01792], [-43.5179, -22.0163], [-43.5168, -22.01612], [-43.51433, -22.01501], [-43.51235, -22.01485], [-43.51201, -22.01516], [-43.51196, -22.01631], [-43.51146, -22.01748], [-43.51024, -22.01846], [-43.5077, -22.01896], [-43.50664, -22.01975], [-43.5063, -22.02073], [-43.50563, -22.02107], [-43.50514, -22.02095], [-43.50432, -22.02183], [-43.50419, -22.02251], [-43.50364, -22.02301], [-43.50337, -22.0237], [-43.50329, -22.02621], [-43.50362, -22.02691], [-43.50426, -22.02765], [-43.50438, -22.02808], [-43.5043, -22.02878], [-43.50468, -22.02938], [-43.50417, -22.03051], [-43.5043, -22.03244], [-43.50511, -22.03362], [-43.50801, -22.03556], [-43.50845, -22.03611], [-43.50859, -22.03707], [-43.50889, -22.03744], [-43.50847, -22.03853], [-43.50876, -22.03966], [-43.50872, -22.04015], [-43.50846, -22.04051], [-43.50683, -22.0403], [-43.5062, -22.04036], [-43.50543, -22.0406], [-43.50492, -22.04109], [-43.50465, -22.0416], [-43.50459, -22.04282], [-43.50511, -22.04389], [-43.50536, -22.04384], [-43.50549, -22.04455], [-43.50538, -22.04476], [-43.50465, -22.04468], [-43.50378, -22.04509], [-43.50283, -22.04527], [-43.50204, -22.04721], [-43.50136, -22.047], [-43.50071, -22.04767], [-43.49979, -22.04756], [-43.49887, -22.04864], [-43.49706, -22.0493], [-43.49465, -22.04937], [-43.49376, -22.04975], [-43.493, -22.04973], [-43.49274, -22.05007], [-43.49175, -22.05035], [-43.49088, -22.05082], [-43.49018, -22.05326], [-43.49021, -22.05425], [-43.49069, -22.05563], [-43.49068, -22.05651], [-43.49039, -22.05763], [-43.49056, -22.05828], [-43.49035, -22.05868], [-43.48965, -22.05854], [-43.48929, -22.05892], [-43.48917, -22.05934], [-43.4893, -22.06008], [-43.48875, -22.06041], [-43.48879, -22.06063], [-43.49005, -22.06178], [-43.4901, -22.06228], [-43.49046, -22.06291], [-43.49118, -22.0633], [-43.49155, -22.06391], [-43.49245, -22.06479], [-43.493, -22.06613], [-43.49324, -22.06754], [-43.49263, -22.06852], [-43.49266, -22.06967], [-43.49202, -22.0709], [-43.49139, -22.07425]]]}}, 
{"type": "Feature", "properties": {"CD_SETOR": "310610110000003", "CD_SIT": "1", "NM_DIST": "Porto das Flores", "NM_SUBDIST": null}, "geometry": {"type": "Polygon", "coordinates": [[[-43.55211, -22.08062], [-43.55418, -22.08129], [-43.55522, -22.08186], [-43.55558, -22.08117], [-43.55685, -22.08152], [-43.55693, -22.08116], [-43.55727, -22.08077], [-43.55872, -22.07947], [-43.55949, -22.07771], [-43.5586, -22.07666], [-43.55698, -22.07602], [-43.55685, -22.07612], [-43.55727, -22.07712], [-43.55706, -22.0776], [-43.55737, -22.07813], [-43.55738, -22.07846], [-43.55557, -22.08003], [-43.55464, -22.07988], [-43.5538, -22.07889], [-43.55356, -22.07985], [-43.55292, -22.08], [-43.55211, -22.08062]]]}}, 
{"type": "Feature", "properties": {"CD_SETOR": "310610113000001", "CD_SIT": "1", "NM_DIST": "Sobragi", "NM_SUBDIST": null}, "geometry": {"type": "Polygon", "coordinates": [[[-43.37166, -21.96254], [-43.37107, -21.9642], [-43.37107, -21.9647], [-43.37151, -21.96532], [-43.37238, -21.96581], [-43.37281, -21.96731], [-43.37277, -21.9681], [-43.37568, -21.96736], [-43.37587, -21.96633], [-43.37549, -21.96603], [-43.37559, -21.96569], [-43.37645, -21.96556], [-43.37687, -21.96568], [-43.37718, -21.96528], [-43.37772, -21.965], [-43.37798, -21.96505], [-43.37863, -21.9645], [-43.37829, -21.96396], [-43.37743, -21.96365], [-43.37741, -21.96295], [-43.3768, -21.96262], [-43.37634, -21.96291], [-43.37616, -21.96385], [-43.3757, -21.96448], [-43.37539, -21.96472], [-43.3749, -21.96448], [-43.37434, -21.96472], [-43.37374, -21.96315], [-43.37375, -21.9627], [-43.37425, -21.96245], [-43.37433, -21.96217], [-43.37329, -21.96208], [-43.37166, -21.96254]]]}}, 
{"type": "Feature", "properties": {"CD_SETOR": "310610113000002", "CD_SIT": "8", "NM_DIST": "Sobragi", "NM_SUBDIST": null}, "geometry": {"type": "Polygon", "coordinates": [[[-43.34577, -21.91609], [-43.34608, -21.91659], [-43.34645, -21.91851], [-43.34713, -21.91989], [-43.34881, -21.92124], [-43.34972, -21.92175], [-43.35236, -21.92269], [-43.3538, -21.92374], [-43.35478, -21.92511], [-43.35589, -21.92802], [-43.35633, -21.92871], [-43.35802, -21.93004], [-43.35824, -21.93049], [-43.3582, -21.93158], [-43.35798, -21.93213], [-43.35727, -21.93234], [-43.35558, -21.93041], [-43.35367, -21.92924], [-43.35313, -21.92896], [-43.3524, -21.92888], [-43.35142, -21.92926], [-43.35152, -21.92993], [-43.35212, -21.93107], [-43.35182, -21.93276], [-43.35224, -21.93396], [-43.35213, -21.9344], [-43.35141, -21.93547], [-43.35168, -21.93639], [-43.3528, -21.93748], [-43.3553, -21.93867], [-43.3568, -21.93891], [-43.35812, -21.93823], [-43.35887, -21.93821], [-43.36039, -21.93894], [-43.36163, -21.93987], [-43.36244, -21.94134], [-43.36243, -21.94236], [-43.36217, -21.94364], [-43.36279, -21.94496], [-43.36294, -21.94574], [-43.36281, -21.94739], [-43.36627, -21.94898], [-43.3676, -21.94941], [-43.36952, -21.94977], [-43.37207, -21.95237], [-43.37274, -21.95374], [-43.37286, -21.95497], [-43.37255, -21.95566], [-43.37206, -21.95593], [-43.37155, -21.95598], [-43.36999, -21.95571], [-43.3698, -21.95621], [-43.36997, -21.95713], [-43.37169, -21.95887], [-43.372, -21.95958], [-43.37199, -21.96119], [-43.37166, -21.96254], [-43.37329, -21.96208], [-43.37433, -21.96217], [-43.37425, -21.96245], [-43.37375, -21.9627], [-43.37374, -21.96315], [-43.37434, -21.96472], [-43.3749, -21.96448], [-43.37539, -21.96472], [-43.3757, -21.96448], [-43.37616, -21.96385], [-43.37634, -21.96291], [-43.37672, -21.96263], [-43.37741, -21.96295], [-43.37743, -21.96365], [-43.37829, -21.96396], [-43.37863, -21.9645], [-43.37798, -21.96505], [-43.37772, -21.965], [-43.37718, -21.96528], [-43.37687, -21.96568], [-43.37645, -21.96556], [-43.37559, -21.96569], [-43.37549, -21.96603], [-43.37587, -21.96633], [-43.37568, -21.96736], [-43.37699, -21.96829], [-43.37737, -21.9688], [-43.37775, -21.96996], [-43.38106, -21.97195], [-43.38131, -21.97362], [-43.38169, -21.97413], [-43.38222, -21.97544], [-43.38276, -21.97544], [-43.38363, -21.974], [-43.3841, -21.97394], [-43.38538, -21.97409], [-43.38568, -21.97468], [-43.38669, -21.97512], [-43.38733, -21.97504], [-43.3874, -21.97464], [-43.38717, -21.97433], [-43.38696, -21.97338], [-43.38583, -21.97134], [-43.38555, -21.96976], [-43.3839, -21.96755], [-43.38331, -21.96627], [-43.3832, -21.9656], [-43.38332, -21.96525], [-43.38461, -21.96419], [-43.38836, -21.96039], [-43.3895, -21.95872], [-43.39022, -21.95707], [-43.39041, -21.9559], [-43.39014, -21.95352], [-43.3916, -21.95034], [-43.39166, -21.94714], [-43.39209, -21.94611], [-43.39318, -21.94137], [-43.39304, -21.93942], [-43.39218, -21.93834], [-43.39119, -21.93745], [-43.39067, -21.93637], [-43.38845, -21.93464], [-43.3879, -21.93376], [-43.38791, -21.93321], [-43.38886, -21.93136], [-43.38894, -21.93079], [-43.38861, -21.93033], [-43.38617, -21.93002], [-43.38591, -21.92984], [-43.38575, -21.92942], [-43.3857, -21.92901], [-43.38609, -21.92778], [-43.38783, -21.92644], [-43.38815, -21.92602], [-43.38803, -21.92567], [-43.38676, -21.92463], [-43.38637, -21.92396], [-43.38652, -21.92316], [-43.3875, -21.9219], [-43.38783, -21.9212], [-43.38799, -21.9203], [-43.38746, -21.91966], [-43.38682, -21.91922], [-43.3865, -21.91909], [-43.38535, -21.91911], [-43.38499, -21.91887], [-43.3849, -21.9178], [-43.38437, -21.91693], [-43.38106, -21.91539], [-43.38024, -21.91478], [-43.37978, -21.91418], [-43.37882, -21.91417], [-43.37722, -21.91318], [-43.37615, -21.91277], [-43.37508, -21.91156], [-43.37495, -21.91106], [-43.37516, -21.9097], [-43.37234, -21.91036], [-43.37057, -21.91057], [-43.36714, -21.91046], [-43.36647, -21.91081], [-43.36566, -21.912], [-43.36552, -21.9133], [-43.36572, -21.91371], [-43.36717, -21.91426], [-43.37211, -21.91539], [-43.37347, -21.91582], [-43.37387, -21.91613], [-43.37391, -21.91669], [-43.37373, -21.91743], [-43.37309, -21.91825], [-43.37235, -21.91869], [-43.36854, -21.91902], [-43.36264, -21.91911], [-43.3619, -21.91901], [-43.36129, -21.91853], [-43.36078, -21.91703], [-43.35991, -21.91541], [-43.35955, -21.91511], [-43.35625, -21.9138], [-43.3555, -21.91391], [-43.3549, -21.91444], [-43.35463, -21.91511], [-43.35449, -21.91668], [-43.35414, -21.91775], [-43.35327, -21.91882], [-43.35233, -21.91938], [-43.35154, -21.91934], [-43.35083, -21.91854], [-43.35027, -21.9153], [-43.34977, -21.91475], [-43.34902, -21.91473], [-43.34577, -21.91609]]]}}, 
{"type": "Feature", "properties": {"CD_SETOR": "310610113000003", "CD_SIT": "8", "NM_DIST": "Sobragi", "NM_SUBDIST": null}, "geometry": {"type": "Polygon", "coordinates": [[[-43.37277, -21.9681], [-43.37229, -21.96851], [-43.37161, -21.96952], [-43.37062, -21.96996], [-43.36785, -21.97021], [-43.36526, -21.96951], [-43.36447, -21.96964], [-43.3632, -21.97024], [-43.36317, -21.972], [-43.36394, -21.97753], [-43.36383, -21.97801], [-43.36326, -21.9785], [-43.36273, -21.97848], [-43.36157, -21.97708], [-43.36045, -21.97646], [-43.35962, -21.97622], [-43.35833, -21.97527], [-43.35771, -21.97452], [-43.35676, -21.97412], [-43.35543, -21.97403], [-43.35328, -21.97418], [-43.3519, -21.97396], [-43.35006, -21.97433], [-43.34795, -21.97451], [-43.34714, -21.97481], [-43.34636, -21.97584], [-43.3465, -21.97692], [-43.3467, -21.9777], [-43.34845, -21.98087], [-43.34846, -21.98193], [-43.34776, -21.98261], [-43.34668, -21.98294], [-43.3456, -21.9837], [-43.34522, -21.98435], [-43.34518, -21.98551], [-43.34501, -21.98597], [-43.34323, -21.98769], [-43.3416, -21.98844], [-43.33924, -21.9889], [-43.33866, -21.98933], [-43.33842, -21.99027], [-43.33866, -21.99193], [-43.33855, -21.99532], [-43.33888, -21.9968], [-43.33882, -21.99778], [-43.33852, -21.99817], [-43.33801, -21.99837], [-43.33638, -21.99839], [-43.33543, -21.99868], [-43.33509, -21.99903], [-43.33498, -21.99971], [-43.33443, -22.00035], [-43.33383, -22.0017], [-43.33245, -22.00245], [-43.33145, -22.00327], [-43.33098, -22.0035], [-43.32855, -22.00395], [-43.32764, -22.00434], [-43.32735, -22.00498], [-43.32665, -22.00783], [-43.32788, -22.00842], [-43.3279, -22.00892], [-43.32848, -22.00971], [-43.33, -22.01073], [-43.33088, -22.01091], [-43.33483, -22.01011], [-43.33701, -22.00919], [-43.33812, -22.01018], [-43.33879, -22.01048], [-43.33966, -22.01043], [-43.34072, -22.00969], [-43.34172, -22.00856], [-43.34212, -22.00615], [-43.34286, -22.00515], [-43.34303, -22.00462], [-43.34269, -22.00371], [-43.34275, -22.00344], [-43.3442, -22.00405], [-43.34541, -22.00426], [-43.3467, -22.00376], [-43.34771, -22.00228], [-43.34831, -22.00211], [-43.34887, -22.00231], [-43.34962, -22.00292], [-43.3502, -22.004], [-43.35005, -22.00682], [-43.35037, -22.00803], [-43.35241, -22.00896], [-43.35314, -22.00901], [-43.35429, -22.00839], [-43.35512, -22.00839], [-43.35618, -22.00891], [-43.35814, -22.00922], [-43.35881, -22.0095], [-43.35945, -22.01039], [-43.36027, -22.01068], [-43.36141, -22.01059], [-43.36378, -22.01002], [-43.36436, -22.01012], [-43.36501, -22.01047], [-43.36674, -22.0129], [-43.36734, -22.01458], [-43.3676, -22.01567], [-43.36728, -22.01635], [-43.36723, -22.01709], [-43.36783, -22.01981], [-43.36858, -22.02051], [-43.37135, -22.02219], [-43.37246, -22.02312], [-43.37345, -22.02435], [-43.37562, -22.02495], [-43.37767, -22.02616], [-43.37928, -22.02744], [-43.3823, -22.02926], [-43.38284, -22.03016], [-43.38696, -22.03197], [-43.38806, -22.02958], [-43.38804, -22.02913], [-43.38747, -22.02774], [-43.38747, -22.02731], [-43.38899, -22.02416], [-43.38971, -22.02314], [-43.38979, -22.02264], [-43.38956, -22.02182], [-43.38933, -22.02176], [-43.38859, -22.02095], [-43.38629, -22.01906], [-43.38622, -22.01839], [-43.38639, -22.01761], [-43.38672, -22.01724], [-43.3873, -22.01578], [-43.38797, -22.01258], [-43.39031, -22.00894], [-43.39107, -22.00646], [-43.39145, -22.00614], [-43.39184, -22.00695], [-43.39253, -22.00757], [-43.39331, -22.00927], [-43.39387, -22.00999], [-43.39609, -22.01127], [-43.39713, -22.01159], [-43.39746, -22.01154], [-43.39779, -22.01088], [-43.39844, -22.0105], [-43.39962, -22.00934], [-43.39986, -22.0083], [-43.40039, -22.00823], [-43.40134, -22.00851], [-43.40169, -22.00836], [-43.40221, -22.00693], [-43.40276, -22.00614], [-43.40274, -22.00497], [-43.40299, -22.00397], [-43.40109, -22.00142], [-43.40009, -22.00078], [-43.39974, -21.99995], [-43.39895, -21.99929], [-43.39647, -21.99614], [-43.39593, -21.9943], [-43.39572, -21.99289], [-43.39564, -21.98984], [-43.39602, -21.98882], [-43.39664, -21.98832], [-43.39674, -21.98749], [-43.39631, -21.98603], [-43.39576, -21.985], [-43.39562, -21.98123], [-43.39507, -21.97969], [-43.39433, -21.97884], [-43.39359, -21.97828], [-43.39278, -21.97807], [-43.39191, -21.97815], [-43.39153, -21.97739], [-43.39103, -21.97716], [-43.38986, -21.97701], [-43.38822, -21.97633], [-43.38724, -21.97565], [-43.38733, -21.97504], [-43.38669, -21.97512], [-43.38568, -21.97468], [-43.38538, -21.97409], [-43.38363, -21.974], [-43.38276, -21.97544], [-43.38222, -21.97544], [-43.38169, -21.97413], [-43.38131, -21.97362], [-43.38106, -21.97195], [-43.37775, -21.96996], [-43.37737, -21.9688], [-43.37699, -21.96829], [-43.37568, -21.96736], [-43.37277, -21.9681]]]}}, 
{"type": "Feature", "properties": {"CD_SETOR": "310610115000001", "CD_SIT": "1", "NM_DIST": "Três Ilhas", "NM_SUBDIST": null}, "geometry": {"type": "Polygon", "coordinates": [[[-43.4839, -22.03055], [-43.48264, -22.03142], [-43.48291, -22.03175], [-43.48282, -22.03199], [-43.48122, -22.03323], [-43.48104, -22.03438], [-43.4827, -22.03492], [-43.48466, -22.03313], [-43.48554, -22.0336], [-43.48489, -22.03372], [-43.48484, -22.03429], [-43.48527, -22.0343], [-43.48545, -22.03381], [-43.48571, -22.03366], [-43.48512, -22.03323], [-43.48529, -22.03307], [-43.48548, -22.03307], [-43.48557, -22.03288], [-43.48664, -22.03285], [-43.48724, -22.03261], [-43.4876, -22.03187], [-43.48753, -22.03165], [-43.48603, -22.03204], [-43.48505, -22.03119], [-43.48519, -22.03047], [-43.4848, -22.03044], [-43.48454, -22.03068], [-43.4842, -22.0304], [-43.4839, -22.03055]]]}}, 
{"type": "Feature", "properties": {"CD_SETOR": "310610115000002", "CD_SIT": "8", "NM_DIST": "Três Ilhas", "NM_SUBDIST": null}, "geometry": {"type": "Polygon", "coordinates": [[[-43.39609, -22.01127], [-43.39366, -22.0098], [-43.39253, -22.00757], [-43.39184, -22.00695], [-43.39145, -22.00614], [-43.39121, -22.00624], [-43.39031, -22.00894], [-43.38797, -22.01258], [-43.3873, -22.01578], [-43.38672, -22.01724], [-43.38639, -22.01761], [-43.38622, -22.01839], [-43.38629, -22.01906], [-43.38859, -22.02095], [-43.38933, -22.02176], [-43.38956, -22.02182], [-43.38979, -22.02264], [-43.38971, -22.02314], [-43.38899, -22.02416], [-43.38747, -22.02731], [-43.38747, -22.02774], [-43.38804, -22.02913], [-43.38806, -22.02958], [-43.38696, -22.03197], [-43.39329, -22.03513], [-43.39448, -22.03612], [-43.39542, -22.03726], [-43.39729, -22.03838], [-43.39894, -22.0408], [-43.40028, -22.04159], [-43.4027, -22.04221], [-43.4038, -22.04214], [-43.40469, -22.04239], [-43.40999, -22.04657], [-43.41049, -22.04731], [-43.4103, -22.0484], [-43.41099, -22.04896], [-43.41193, -22.04924], [-43.41453, -22.04879], [-43.41522, -22.04897], [-43.41673, -22.0498], [-43.41705, -22.05015], [-43.41715, -22.0522], [-43.41757, -22.05304], [-43.41844, -22.0538], [-43.4193, -22.05419], [-43.4214, -22.05453], [-43.42277, -22.05522], [-43.42719, -22.05462], [-43.42817, -22.05475], [-43.42902, -22.05505], [-43.4298, -22.05555], [-43.43151, -22.05743], [-43.43386, -22.05871], [-43.43537, -22.05912], [-43.44039, -22.06158], [-43.44333, -22.06148], [-43.44487, -22.06258], [-43.44644, -22.06323], [-43.4468, -22.06407], [-43.44685, -22.06568], [-43.44702, -22.06616], [-43.44777, -22.06682], [-43.44871, -22.06722], [-43.45153, -22.06648], [-43.45323, -22.06687], [-43.45475, -22.06764], [-43.45598, -22.06963], [-43.45691, -22.07029], [-43.4575, -22.07065], [-43.45985, -22.07123], [-43.46173, -22.07226], [-43.46368, -22.07265], [-43.46504, -22.07272], [-43.46603, -22.07237], [-43.46626, -22.07205], [-43.46679, -22.07183], [-43.46929, -22.07139], [-43.47012, -22.07079], [-43.47194, -22.0709], [-43.47353, -22.07053], [-43.47408, -22.07034], [-43.47572, -22.06924], [-43.47616, -22.06921], [-43.47679, -22.06939], [-43.48019, -22.0714], [-43.48205, -22.07286], [-43.48321, -22.07327], [-43.48376, -22.07326], [-43.48444, -22.07296], [-43.48495, -22.07299], [-43.48585, -22.07333], [-43.48847, -22.07371], [-43.49045, -22.07437], [-43.49139, -22.07425], [-43.49202, -22.0709], [-43.49266, -22.06967], [-43.49263, -22.06852], [-43.49324, -22.06754], [-43.493, -22.06613], [-43.49245, -22.06479], [-43.49155, -22.06391], [-43.49118, -22.0633], [-43.49046, -22.06291], [-43.4901, -22.06228], [-43.49005, -22.06178], [-43.48879, -22.06063], [-43.48875, -22.06041], [-43.4893, -22.06008], [-43.48917, -22.05934], [-43.48929, -22.05892], [-43.48965, -22.05854], [-43.49035, -22.05868], [-43.49056, -22.05828], [-43.49039, -22.05763], [-43.49068, -22.05651], [-43.49069, -22.05563], [-43.49021, -22.05425], [-43.49018, -22.05326], [-43.49088, -22.05082], [-43.49175, -22.05035], [-43.49274, -22.05007], [-43.493, -22.04973], [-43.49376, -22.04975], [-43.49465, -22.04937], [-43.49706, -22.0493], [-43.49887, -22.04864], [-43.49979, -22.04756], [-43.50071, -22.04767], [-43.50136, -22.047], [-43.50204, -22.04721], [-43.50283, -22.04527], [-43.50378, -22.04509], [-43.50465, -22.04468], [-43.50538, -22.04476], [-43.50549, -22.04455], [-43.50536, -22.04384], [-43.50511, -22.04389], [-43.50459, -22.04282], [-43.50465, -22.0416], [-43.50492, -22.04109], [-43.50543, -22.0406], [-43.5062, -22.04036], [-43.50683, -22.0403], [-43.50846, -22.04051], [-43.50872, -22.04015], [-43.50876, -22.03966], [-43.50847, -22.03853], [-43.50889, -22.03744], [-43.50859, -22.03707], [-43.50845, -22.03611], [-43.50801, -22.03556], [-43.50511, -22.03362], [-43.5043, -22.03244], [-43.50417, -22.03051], [-43.50468, -22.02938], [-43.5043, -22.02878], [-43.50438, -22.02808], [-43.50426, -22.02765], [-43.50362, -22.02691], [-43.50329, -22.02621], [-43.50337, -22.0237], [-43.50364, -22.02301], [-43.50419, -22.02251], [-43.50432, -22.02183], [-43.50514, -22.02095], [-43.50563, -22.02107], [-43.5063, -22.02073], [-43.50664, -22.01975], [-43.5077, -22.01896], [-43.51024, -22.01846], [-43.51146, -22.01748], [-43.51196, -22.01631], [-43.51201, -22.01516], [-43.51235, -22.01485], [-43.51433, -22.01501], [-43.5168, -22.01612], [-43.5179, -22.0163], [-43.52054, -22.01792], [-43.52279, -22.01759], [-43.52376, -22.01711], [-43.52478, -22.0169], [-43.526, -22.01608], [-43.52608, -22.01586], [-43.52575, -22.0155], [-43.5248, -22.01511], [-43.52349, -22.01392], [-43.52009, -22.01236], [-43.51964, -22.01207], [-43.51938, -22.01167], [-43.5193, -22.01073], [-43.51951, -22.00927], [-43.52018, -22.00786], [-43.52058, -22.0061], [-43.52126, -22.00507], [-43.52156, -22.0042], [-43.52144, -22.00298], [-43.52033, -22.00098], [-43.52022, -22.00052], [-43.52047, -21.99875], [-43.52059, -21.99583], [-43.52106, -21.99446], [-43.52101, -21.99332], [-43.52096, -21.9931], [-43.52056, -21.9928], [-43.51833, -21.99233], [-43.51743, -21.99192], [-43.51685, -21.99105], [-43.5165, -21.9892], [-43.51691, -21.98461], [-43.51772, -21.98226], [-43.51868, -21.98032], [-43.51885, -21.97749], [-43.51931, -21.97552], [-43.52002, -21.97411], [-43.52102, -21.97309], [-43.52191, -21.97292], [-43.52249, -21.97298], [-43.5244, -21.97245], [-43.53002, -21.96967], [-43.53213, -21.96741], [-43.53525, -21.96553], [-43.53538, -21.96467], [-43.53527, -21.96417], [-43.53425, -21.96301], [-43.53197, -21.96209], [-43.53155, -21.9615], [-43.53116, -21.95991], [-43.52962, -21.95872], [-43.5272, -21.95806], [-43.52442, -21.95816], [-43.52297, -21.95806], [-43.52105, -21.95738], [-43.52007, -21.95674], [-43.51937, -21.95594], [-43.51877, -21.95506], [-43.51816, -21.95338], [-43.51763, -21.95268], [-43.51614, -21.95175], [-43.51234, -21.95116], [-43.51187, -21.95061], [-43.51172, -21.95008], [-43.51158, -21.95344], [-43.5113, -21.95406], [-43.51048, -21.955], [-43.51043, -21.95526], [-43.51044, -21.95575], [-43.51121, -21.9571], [-43.51117, -21.95814], [-43.51078, -21.9588], [-43.5101, -21.95952], [-43.50964, -21.95972], [-43.5065, -21.96001], [-43.50512, -21.96034], [-43.50136, -21.96329], [-43.49987, -21.96409], [-43.49908, -21.96526], [-43.49729, -21.96895], [-43.49628, -21.96987], [-43.49461, -21.9707], [-43.49229, -21.9732], [-43.48965, -21.97535], [-43.48889, -21.97623], [-43.48821, -21.97674], [-43.48756, -21.97751], [-43.48639, -21.97988], [-43.48526, -21.98116], [-43.48376, -21.98179], [-43.4832, -21.98223], [-43.48299, -21.98291], [-43.48329, -21.98377], [-43.48428, -21.98463], [-43.4846, -21.98537], [-43.48454, -21.98563], [-43.48215, -21.98651], [-43.47847, -21.98979], [-43.47759, -21.99126], [-43.47722, -21.99372], [-43.47688, -21.99473], [-43.47653, -21.99513], [-43.47595, -21.99507], [-43.47422, -21.99449], [-43.47239, -21.99457], [-43.4699, -21.99538], [-43.46846, -21.99547], [-43.46456, -21.99812], [-43.46072, -21.99796], [-43.45959, -21.99652], [-43.45719, -21.99478], [-43.45591, -21.99219], [-43.45513, -21.99149], [-43.45414, -21.99115], [-43.45281, -21.9912], [-43.45172, -21.99174], [-43.45161, -21.99193], [-43.45051, -21.99215], [-43.4494, -21.99214], [-43.44632, -21.99086], [-43.4449, -21.99007], [-43.44244, -21.98999], [-43.44123, -21.98979], [-43.44095, -21.98981], [-43.43955, -21.99073], [-43.43698, -21.99178], [-43.43683, -21.992], [-43.43371, -21.99308], [-43.43191, -21.99365], [-43.43067, -21.99384], [-43.42921, -21.99373], [-43.42735, -21.99388], [-43.42661, -21.9946], [-43.42486, -21.9952], [-43.42226, -21.99546], [-43.42203, -21.9953], [-43.42071, -21.99507], [-43.4196, -21.99511], [-43.4186, -21.99473], [-43.41752, -21.99375], [-43.41678, -21.99356], [-43.41482, -21.99366], [-43.41411, -21.99392], [-43.41333, -21.99392], [-43.41161, -21.99451], [-43.4093, -21.99449], [-43.40742, -21.99496], [-43.40508, -21.99591], [-43.40396, -21.99729], [-43.40313, -21.99865], [-43.40301, -21.99932], [-43.40322, -22.00038], [-43.40434, -22.00304], [-43.40476, -22.00488], [-43.40474, -22.00561], [-43.40341, -22.00812], [-43.40262, -22.00928], [-43.40161, -22.01195], [-43.40038, -22.01405], [-43.40004, -22.01435], [-43.3995, -22.01434], [-43.39789, -22.01326], [-43.39609, -22.01127]], [[-43.4839, -22.03055], [-43.4842, -22.0304], [-43.48454, -22.03068], [-43.4848, -22.03044], [-43.48519, -22.03047], [-43.48505, -22.03119], [-43.48603, -22.03204], [-43.48753, -22.03165], [-43.4876, -22.03187], [-43.48724, -22.03261], [-43.48664, -22.03285], [-43.48557, -22.03288], [-43.48548, -22.03307], [-43.48529, -22.03307], [-43.48512, -22.03323], [-43.48571, -22.03366], [-43.48545, -22.03381], [-43.48527, -22.0343], [-43.48484, -22.03429], [-43.48489, -22.03372], [-43.48554, -22.0336], [-43.48466, -22.03313], [-43.4827, -22.03492], [-43.48104, -22.03438], [-43.48122, -22.03323], [-43.48282, -22.03199], [-43.48291, -22.03175], [-43.48264, -22.03142], [-43.4839, -22.03055]]]}}]}