{"type": "FeatureCollection", "features": [
{"type": "Feature", "properties": {"CD_SETOR": "311060805000001", "CD_SIT": "1", "NM_DIST": "Cambuí", "NM_SUBDIST": null}, "geometry": {"type": "Polygon", "coordinates": [[[-46.05668, -22.61098], [-46.05657, -22.61334], [-46.05741, -22.61334], [-46.0574, -22.61276], [-46.05893, -22.61278], [-46.05892, -22.61096], [-46.05668, -22.61098]]]}}, 
{"type": "Feature", "properties": {"CD_SETOR": "311060805000011", "CD_SIT": "1", "NM_DIST": "Cambuí", "NM_SUBDIST": null}, "geometry": {"type": "Polygon", "coordinates": [[[-46.05552, -22.61681], [-46.05495, -22.61808], [-46.05511, -22.61946], [-46.05562, -22.61965], [-46.05825, -22.61657], [-46.05734, -22.61597], [-46.05637, -22.61732], [-46.05552, -22.61681]]]}}, 
{"type": "Feature", "properties": {"CD_SETOR": "311060805000013", "CD_SIT": "1", "NM_DIST": "Cambuí", "NM_SUBDIST": null}, "geometry": {"type": "Polygon", "coordinates": [[[-46.05989, -22.61529], [-46.06221, -22.61704], [-46.06325, -22.61574], [-46.06318, -22.61556], [-46.06053, -22.61403], [-46.06051, -22.61384], [-46.05988, -22.61381], [-46.05989, -22.61529]]]}}, 
{"type": "Feature", "properties": {"CD_SETOR": "311060805000014", "CD_SIT": "1", "NM_DIST": "Cambuí", "NM_SUBDIST": null}, "geometry": {"type": "Polygon", "coordinates": [[[-46.05825, -22.61657], [-46.05787, -22.617], [-46.06015, -22.61865], [-46.06134, -22.61857], [-46.06207, -22.61814], [-46.06112, -22.61743], [-46.06173, -22.61671], [-46.05958, -22.61504], [-46.05825, -22.61657]]]}}, 
{"type": "Feature", "properties": {"CD_SETOR": "311060805000015", "CD_SIT": "1", "NM_DIST": "Cambuí", "NM_SUBDIST": null}, "geometry": {"type": "Polygon", "coordinates": [[[-46.05893, -22.61278], [-46.05785, -22.61278], [-46.05782, -22.61509], [-46.05734, -22.61597], [-46.05825, -22.61657], [-46.05958, -22.61504], [-46.05989, -22.61529], [-46.05986, -22.61274], [-46.05893, -22.61278]]]}}, 
{"type": "Feature", "properties": {"CD_SETOR": "311060805000018", "CD_SIT": "1", "NM_DIST": "Cambuí", "NM_SUBDIST": null}, "geometry": {"type": "Polygon", "coordinates": [[[-46.0795, -22.62073], [-46.08079, -22.62296], [-46.08255, -22.62266], [-46.08253, -22.62207], [-46.0823, -22.62208], [-46.08236, -22.62164], [-46.08162, -22.62118], [-46.08142, -22.62088], [-46.08033, -22.62067], [-46.08023, -22.62096], [-46.0795, -22.62073]]]}}, 
{"type": "Feature", "properties": {"CD_SETOR": "311060805000020", "CD_SIT": "2", "NM_DIST": "Cambuí", "NM_SUBDIST": null}, "geometry": {"type": "Polygon", "coordinates": [[[-46.0634, -22.60656], [-46.06179, -22.60764], [-46.06103, -22.60895], [-46.06114, -22.60912], [-46.06524, -22.6132], [-46.06516, -22.61361], [-46.06599, -22.61431], [-46.06685, -22.61465], [-46.0713, -22.61895], [-46.07338, -22.62049], [-46.07425, -22.62076], [-46.0743, -22.62147], [-46.07463, -22.6221], [-46.07514, -22.62181], [-46.07603, -22.62171], [-46.07895, -22.62008], [-46.07887, -22.6196], [-46.07913, -22.619], [-46.08049, -22.61791], [-46.08051, -22.61703], [-46.07945, -22.61578], [-46.0783, -22.61509], [-46.07722, -22.61355], [-46.07609, -22.61294], [-46.07291, -22.61044], [-46.07023, -22.60938], [-46.06905, -22.60865], [-46.06841, -22.60796], [-46.06688, -22.60693], [-46.06614, -22.60662], [-46.06479, -22.6064], [-46.0634, -22.60656]]]}}, 
{"type": "Feature", "properties": {"CD_SETOR": "311060805000022", "CD_SIT": "1", "NM_DIST": "Cambuí", "NM_SUBDIST": null}, "geometry": {"type": "Polygon", "coordinates": [[[-46.05365, -22.5963], [-46.05465, -22.59759], [-46.05762, -22.60433], [-46.05764, -22.60889], [-46.06052, -22.60881], [-46.06073, -22.6092], [-46.06103, -22.60895], [-46.05718, -22.59872], [-46.05624, -22.59463], [-46.05444, -22.59541], [-46.05375, -22.59594], [-46.05365, -22.5963]]]}}, 
{"type": "Feature", "properties": {"CD_SETOR": "311060805000024", "CD_SIT": "2", "NM_DIST": "Cambuí", "NM_SUBDIST": null}, "geometry": {"type": "Polygon", "coordinates": [[[-46.04946, -22.58597], [-46.05607, -22.59428], [-46.05718, -22.59872], [-46.05891, -22.6033], [-46.06025, -22.60316], [-46.0604, -22.60306], [-46.06037, -22.60269], [-46.06085, -22.60102], [-46.06173, -22.59914], [-46.0606, -22.59715], [-46.06066, -22.59688], [-46.06108, -22.59646], [-46.06109, -22.59615], [-46.06036, -22.59515], [-46.06008, -22.59498], [-46.05999, -22.59448], [-46.06404, -22.59157], [-46.06426, -22.59137], [-46.06428, -22.59079], [-46.06298, -22.59102], [-46.06022, -22.59223], [-46.05829, -22.59274], [-46.05714, -22.59291], [-46.05628, -22.59286], [-46.05632, -22.59189], [-46.05565, -22.59096], [-46.05569, -22.59029], [-46.05538, -22.58915], [-46.05556, -22.58727], [-46.05572, -22.58697], [-46.05536, -22.58591], [-46.05529, -22.58503], [-46.05334, -22.58395], [-46.05261, -22.58267], [-46.05137, -22.58328], [-46.05089, -22.58374], [-46.05025, -22.58462], [-46.05046, -22.58499], [-46.04946, -22.58597]]]}}, 
{"type": "Feature", "properties": {"CD_SETOR": "311060805000025", "CD_SIT": "1", "NM_DIST": "Cambuí", "NM_SUBDIST": null}, "geometry": {"type": "Polygon", "coordinates": [[[-46.05327, -22.59995], [-46.05615, -22.60367], [-46.0563, -22.6043], [-46.05743, -22.60394], [-46.05505, -22.59861], [-46.0545, -22.59884], [-46.05327, -22.59995]]]}}, 
{"type": "Feature", "properties": {"CD_SETOR": "311060805000026", "CD_SIT": "1", "NM_DIST": "Cambuí", "NM_SUBDIST": null}, "geometry": {"type": "Polygon", "coordinates": [[[-46.05252, -22.60055], [-46.05451, -22.60294], [-46.0563, -22.6043], [-46.05615, -22.60367], [-46.05327, -22.59995], [-46.05252, -22.60055]]]}}, 
{"type": "Feature", "properties": {"CD_SETOR": "311060805000027", "CD_SIT": "8", "NM_DIST": "Cambuí", "NM_SUBDIST": null}, "geometry": {"type": "Polygon", "coordinates": [[[-46.07181, -22.61945], [-46.07374, -22.62137], [-46.07524, -22.62357], [-46.07757, -22.62764], [-46.0783, -22.63025], [-46.07947, -22.63798], [-46.07985, -22.63875], [-46.08459, -22.64354], [-46.0858, -22.6453], [-46.08892, -22.64687], [-46.0893, -22.6475], [-46.08934, -22.64832], [-46.08874, -22.65136], [-46.08877, -22.65263], [-46.08923, -22.6544], [-46.08922, -22.65539], [-46.08824, -22.65974], [-46.0885, -22.66113], [-46.0888, -22.66169], [-46.09188, -22.66416], [-46.09283, -22.66542], [-46.09312, -22.66639], [-46.09338, -22.66823], [-46.09358, -22.67235], [-46.09351, -22.67374], [-46.094, -22.67448], [-46.09524, -22.67487], [-46.09727, -22.67447], [-46.0977, -22.67469], [-46.09801, -22.6753], [-46.09824, -22.6771], [-46.09903, -22.67803], [-46.09993, -22.67954], [-46.10062, -22.68015], [-46.10105, -22.6803], [-46.10128, -22.68064], [-46.10116, -22.68283], [-46.10346, -22.68321], [-46.1044, -22.68312], [-46.10493, -22.68287], [-46.10578, -22.68212], [-46.10599, -22.68165], [-46.10586, -22.67915], [-46.1059, -22.67857], [-46.1062, -22.67818], [-46.10718, -22.67776], [-46.11184, -22.67707], [-46.11499, -22.67441], [-46.1224, -22.6715], [-46.12588, -22.66842], [-46.12689, -22.66775], [-46.12761, -22.66691], [-46.12922, -22.6659], [-46.1296, -22.66548], [-46.13056, -22.66403], [-46.13061, -22.66333], [-46.12961, -22.66281], [-46.12857, -22.66281], [-46.128, -22.6626], [-46.12762, -22.66221], [-46.12737, -22.66139], [-46.12738, -22.65998], [-46.12781, -22.65755], [-46.12769, -22.6544], [-46.12796, -22.65327], [-46.12974, -22.65178], [-46.13024, -22.64995], [-46.13078, -22.64928], [-46.13163, -22.64904], [-46.13412, -22.64899], [-46.13544, -22.64862], [-46.1373, -22.6472], [-46.1388, -22.64671], [-46.13938, -22.64623], [-46.13959, -22.64578], [-46.13954, -22.64294], [-46.13912, -22.64203], [-46.13859, -22.63877], [-46.13712, -22.63546], [-46.13698, -22.63312], [-46.13667, -22.63264], [-46.13441, -22.63072], [-46.13396, -22.63053], [-46.13359, -22.62984], [-46.13325, -22.62864], [-46.12996, -22.62937], [-46.13075, -22.63183], [-46.13046, -22.63251], [-46.13046, -22.633], [-46.12955, -22.63402], [-46.12684, -22.63449], [-46.12628, -22.6338], [-46.12501, -22.63372], [-46.12446, -22.63329], [-46.12369, -22.63304], [-46.12126, -22.6326], [-46.12063, -22.63268], [-46.11983, -22.63251], [-46.11871, -22.63316], [-46.11822, -22.63316], [-46.11731, -22.63228], [-46.11696, -22.63139], [-46.1165, -22.63155], [-46.11631, -22.63223], [-46.11568, -22.63219], [-46.11538, -22.63181], [-46.11461, -22.63144], [-46.11442, -22.63059], [-46.1135, -22.63103], [-46.11204, -22.63082], [-46.11133, -22.62927], [-46.11104, -22.62928], [-46.11075, -22.62965], [-46.11018, -22.62993], [-46.10927, -22.62964], [-46.10914, -22.62922], [-46.10701, -22.62769], [-46.10681, -22.62734], [-46.10679, -22.6268], [-46.1066, -22.62666], [-46.10584, -22.62726], [-46.10487, -22.62708], [-46.10434, -22.62667], [-46.104, -22.62612], [-46.10429, -22.62519], [-46.10176, -22.62473], [-46.10078, -22.62429], [-46.10019, -22.62333], [-46.09935, -22.62352], [-46.09845, -22.62329], [-46.09766, -22.62285], [-46.09742, -22.62245], [-46.09588, -22.62177], [-46.09506, -22.62169], [-46.09401, -22.62196], [-46.093, -22.62175], [-46.09182, -22.62118], [-46.09077, -22.62177], [-46.08979, -22.62195], [-46.09015, -22.62246], [-46.09026, -22.62303], [-46.08973, -22.62247], [-46.08753, -22.62416], [-46.08624, -22.62243], [-46.08507, -22.62143], [-46.0847, -22.62209], [-46.08394, -22.62269], [-46.08367, -22.62277], [-46.0826, -22.62247], [-46.08255, -22.62266], [-46.08079, -22.62296], [-46.0795, -22.62073], [-46.07895, -22.62004], [-46.07603, -22.62171], [-46.07514, -22.62181], [-46.07463, -22.6221], [-46.0743, -22.62147], [-46.07425, -22.62076], [-46.07338, -22.62049], [-46.0713, -22.61895], [-46.07181, -22.61945]]]}}, 
{"type": "Feature", "properties": {"CD_SETOR": "311060805000029", "CD_SIT": "8", "NM_DIST": "Cambuí", "NM_SUBDIST": null}, "geometry": {"type": "Polygon", "coordinates": [[[-46.10075, -22.55973], [-46.1003, -22.5593], [-46.09953, -22.55908], [-46.09918, -22.55915], [-46.09902, -22.55892], [-46.09844, -22.55888], [-46.09812, -22.55854], [-46.09737, -22.55869], [-46.09711, -22.55894], [-46.09698, -22.55961], [-46.09653, -22.55976], [-46.09672, -22.56027], [-46.09664, -22.56049], [-46.09606, -22.56068], [-46.0958, -22.56111], [-46.09544, -22.56135], [-46.09473, -22.56118], [-46.09372, -22.56121], [-46.09362, -22.56076], [-46.09215, -22.56073], [-46.0914, -22.56154], [-46.0905, -22.56193], [-46.08892, -22.56323], [-46.08794, -22.56368], [-46.08665, -22.56455], [-46.08532, -22.56707], [-46.08514, -22.56814], [-46.08538, -22.56872], [-46.08403, -22.56996], [-46.08382, -22.5708], [-46.08357, -22.571], [-46.0831, -22.57092], [-46.0825, -22.57109], [-46.08169, -22.57198], [-46.08235, -22.57405], [-46.08213, -22.57568], [-46.08179, -22.57635], [-46.08044, -22.57755], [-46.08024, -22.57791], [-46.08042, -22.57929], [-46.08093, -22.58006], [-46.08099, -22.58098], [-46.08137, -22.58174], [-46.08177, -22.58386], [-46.0825, -22.58568], [-46.08228, -22.58684], [-46.08129, -22.58858], [-46.07975, -22.58931], [-46.07831, -22.58976], [-46.07694, -22.58991], [-46.07439, -22.59115], [-46.07115, -22.59246], [-46.06816, -22.59332], [-46.06679, -22.59465], [-46.06565, -22.5948], [-46.06474, -22.59586], [-46.06424, -22.59689], [-46.06433, -22.59766], [-46.065, -22.59899], [-46.06488, -22.59954], [-46.06422, -22.60087], [-46.06276, -22.60173], [-46.06211, -22.60241], [-46.06167, -22.60317], [-46.06168, -22.60442], [-46.0664, -22.60365], [-46.06653, -22.60483], [-46.06807, -22.60481], [-46.06822, -22.60464], [-46.06774, -22.6039], [-46.06766, -22.60338], [-46.06788, -22.60286], [-46.06831, -22.6024], [-46.07186, -22.60026], [-46.07411, -22.59994], [-46.07477, -22.5989], [-46.07602, -22.59793], [-46.07827, -22.59765], [-46.07996, -22.59725], [-46.08061, -22.59804], [-46.08132, -22.5984], [-46.0826, -22.5981], [-46.08447, -22.59793], [-46.08606, -22.59733], [-46.0875, -22.59637], [-46.08904, -22.59568], [-46.08949, -22.59459], [-46.08928, -22.59364], [-46.08968, -22.5928], [-46.09003, -22.59255], [-46.09151, -22.59218], [-46.0929, -22.59081], [-46.09285, -22.59023], [-46.09504, -22.58915], [-46.09663, -22.589], [-46.09711, -22.58847], [-46.0972, -22.58769], [-46.09737, -22.58744], [-46.09792, -22.58715], [-46.09861, -22.58705], [-46.09925, -22.58726], [-46.10024, -22.58704], [-46.10257, -22.58606], [-46.10497, -22.58388], [-46.10532, -22.58373], [-46.1059, -22.58386], [-46.10734, -22.58384], [-46.10845, -22.58342], [-46.10897, -22.58376], [-46.10962, -22.58383], [-46.11202, -22.58276], [-46.11334, -22.58247], [-46.11511, -22.58336], [-46.11556, -22.58381], [-46.11639, -22.5835], [-46.11739, -22.58456], [-46.1179, -22.58415], [-46.11824, -22.58359], [-46.11848, -22.58355], [-46.11897, -22.58404], [-46.11966, -22.58411], [-46.12027, -22.58445], [-46.12181, -22.58374], [-46.12234, -22.58366], [-46.12251, -22.58392], [-46.1225, -22.58444], [-46.12277, -22.58473], [-46.12316, -22.5847], [-46.12365, -22.58433], [-46.12452, -22.5841], [-46.12456, -22.58296], [-46.12483, -22.58239], [-46.12468, -22.58201], [-46.12354, -22.58097], [-46.12303, -22.57992], [-46.12241, -22.57952], [-46.12108, -22.57779], [-46.12008, -22.57696], [-46.12099, -22.57674], [-46.1222, -22.57532], [-46.12245, -22.57365], [-46.12205, -22.5726], [-46.12177, -22.57239], [-46.12121, -22.57237], [-46.12062, -22.57212], [-46.11999, -22.57127], [-46.11964, -22.56991], [-46.11906, -22.56981], [-46.11835, -22.5691], [-46.11752, -22.56952], [-46.11701, -22.56874], [-46.11703, -22.56841], [-46.11757, -22.56805], [-46.11782, -22.56725], [-46.11729, -22.56646], [-46.11738, -22.56466], [-46.11709, -22.56372], [-46.11714, -22.56288], [-46.11651, -22.56175], [-46.11567, -22.5616], [-46.11501, -22.56113], [-46.11575, -22.56048], [-46.11579, -22.55957], [-46.11541, -22.55789], [-46.11486, -22.55713], [-46.11373, -22.55629], [-46.11402, -22.55526], [-46.11328, -22.5558], [-46.11288, -22.55575], [-46.11258, -22.55598], [-46.11134, -22.55581], [-46.11081, -22.55611], [-46.11052, -22.55648], [-46.10966, -22.55671], [-46.10936, -22.55714], [-46.10833, -22.55696], [-46.10737, -22.55824], [-46.10669, -22.55821], [-46.10636, -22.5584], [-46.10581, -22.55926], [-46.10524, -22.55972], [-46.10389, -22.55978], [-46.1035, -22.55961], [-46.10174, -22.56024], [-46.1012, -22.56007], [-46.10075, -22.55973]]]}}, 
{"type": "Feature", "properties": {"CD_SETOR": "311060805000030", "CD_SIT": "8", "NM_DIST": "Cambuí", "NM_SUBDIST": null}, "geometry": {"type": "Polygon", "coordinates": [[[-46.09249, -22.49334], [-46.09201, -22.49466], [-46.09175, -22.49492], [-46.09211, -22.49627], [-46.09185, -22.49725], [-46.09202, -22.4983], [-46.09252, -22.49893], [-46.09363, -22.49925], [-46.09505, -22.50024], [-46.09589, -22.50107], [-46.09653, -22.50124], [-46.09769, -22.50202], [-46.09777, -22.50236], [-46.0988, -22.5036], [-46.09898, -22.50412], [-46.10069, -22.50624], [-46.10138, -22.50811], [-46.10288, -22.51047], [-46.10316, -22.51118], [-46.10319, -22.51283], [-46.10363, -22.51442], [-46.10331, -22.51487], [-46.10262, -22.51502], [-46.10222, -22.5162], [-46.10237, -22.51697], [-46.1035, -22.51837], [-46.10327, -22.51948], [-46.10387, -22.52066], [-46.10309, -22.52179], [-46.10334, -22.52386], [-46.10308, -22.52449], [-46.1031, -22.52532], [-46.10233, -22.52549], [-46.10191, -22.52783], [-46.10325, -22.52788], [-46.10359, -22.52875], [-46.10392, -22.52911], [-46.10413, -22.53014], [-46.10505, -22.53005], [-46.10564, -22.52928], [-46.10594, -22.52931], [-46.10653, -22.53], [-46.10767, -22.53002], [-46.1079, -22.52917], [-46.1084, -22.52931], [-46.10896, -22.52981], [-46.1092, -22.52985], [-46.10991, -22.52916], [-46.10999, -22.5288], [-46.11029, -22.52848], [-46.11046, -22.52848], [-46.1109, -22.52875], [-46.11093, -22.52919], [-46.11129, -22.52944], [-46.11174, -22.53032], [-46.11235, -22.53065], [-46.1125, -22.53107], [-46.11303, -22.53136], [-46.11394, -22.53247], [-46.11566, -22.53247], [-46.1164, -22.53229], [-46.1172, -22.53139], [-46.11855, -22.53158], [-46.11874, -22.53178], [-46.11891, -22.5326], [-46.11997, -22.53425], [-46.12121, -22.53448], [-46.12193, -22.53502], [-46.12196, -22.53541], [-46.12221, -22.53571], [-46.12309, -22.53578], [-46.12329, -22.53629], [-46.12209, -22.53738], [-46.12213, -22.53785], [-46.12261, -22.53855], [-46.12372, -22.5394], [-46.12437, -22.53925], [-46.12528, -22.53938], [-46.12542, -22.53954], [-46.12535, -22.53974], [-46.12485, -22.54025], [-46.12572, -22.54047], [-46.12663, -22.54116], [-46.12653, -22.54141], [-46.12626, -22.54139], [-46.12523, -22.54221], [-46.12543, -22.54251], [-46.12538, -22.54293], [-46.12587, -22.54302], [-46.12648, -22.54354], [-46.12646, -22.54402], [-46.12577, -22.54386], [-46.12631, -22.54518], [-46.12714, -22.54503], [-46.12788, -22.54513], [-46.1285, -22.54395], [-46.12882, -22.54374], [-46.1293, -22.54376], [-46.12951, -22.5442], [-46.13049, -22.54425], [-46.13154, -22.54511], [-46.13212, -22.54526], [-46.13275, -22.54571], [-46.13419, -22.54561], [-46.13495, -22.54588], [-46.13574, -22.54671], [-46.13576, -22.5473], [-46.13634, -22.54758], [-46.13791, -22.54795], [-46.13833, -22.54722], [-46.13868, -22.54717], [-46.13919, -22.54801], [-46.14022, -22.54808], [-46.14044, -22.54823], [-46.14054, -22.54873], [-46.14087, -22.54922], [-46.14179, -22.54969], [-46.1422, -22.54984], [-46.14423, -22.54942], [-46.14484, -22.54956], [-46.14569, -22.55097], [-46.14679, -22.55098], [-46.14744, -22.55187], [-46.14891, -22.55209], [-46.14992, -22.55256], [-46.15087, -22.55358], [-46.15172, -22.55377], [-46.1524, -22.55416], [-46.15329, -22.55486], [-46.15487, -22.55675], [-46.1554, -22.5567], [-46.15657, -22.5561], [-46.15678, -22.55569], [-46.15681, -22.55497], [-46.15635, -22.55258], [-46.15637, -22.55155], [-46.15761, -22.54956], [-46.15794, -22.54874], [-46.15787, -22.54672], [-46.1552, -22.54315], [-46.15425, -22.54118], [-46.15273, -22.53857], [-46.15266, -22.53772], [-46.15284, -22.53433], [-46.15301, -22.53379], [-46.15295, -22.53306], [-46.15128, -22.53038], [-46.15046, -22.52676], [-46.15012, -22.52626], [-46.14704, -22.52339], [-46.14696, -22.52246], [-46.14733, -22.52073], [-46.14739, -22.51956], [-46.1478, -22.51847], [-46.1455, -22.51751], [-46.14369, -22.51616], [-46.14272, -22.5152], [-46.14171, -22.51471], [-46.13893, -22.51396], [-46.1363, -22.51378], [-46.13445, -22.51309], [-46.13389, -22.51189], [-46.13348, -22.50912], [-46.13288, -22.50662], [-46.13243, -22.50546], [-46.13176, -22.50401], [-46.12954, -22.50076], [-46.12903, -22.49951], [-46.12711, -22.49797], [-46.1255, -22.4962], [-46.12339, -22.49568], [-46.11903, -22.49539], [-46.11671, -22.49486], [-46.11549, -22.49393], [-46.11447, -22.49264], [-46.11318, -22.49202], [-46.11198, -22.49172], [-46.10683, -22.49173], [-46.10199, -22.49241], [-46.10012, -22.49289], [-46.09906, -22.49356], [-46.09606, -22.49499], [-46.0953, -22.49494], [-46.09352, -22.49377], [-46.09249, -22.49334]]]}}, 
{"type": "Feature", "properties": {"CD_SETOR": "311060805000031", "CD_SIT": "8", "NM_DIST": "Cambuí", "NM_SUBDIST": null}, "geometry": {"type": "Polygon", "coordinates": [[[-46.09001, -22.49447], [-46.08828, -22.49692], [-46.08788, -22.49783], [-46.08786, -22.49865], [-46.0881, -22.49981], [-46.08891, -22.50042], [-46.08943, -22.50114], [-46.08989, -22.50139], [-46.09089, -22.50275], [-46.09115, -22.50441], [-46.09085, -22.50525], [-46.09039, -22.50551], [-46.08919, -22.50552], [-46.08764, -22.50525], [-46.08652, -22.50483], [-46.0853, -22.50486], [-46.08343, -22.50633], [-46.08071, -22.50704], [-46.07966, -22.50755], [-46.07797, -22.50891], [-46.0766, -22.51046], [-46.07589, -22.51103], [-46.07537, -22.5112], [-46.07334, -22.51131], [-46.0715, -22.51197], [-46.06849, -22.51272], [-46.06571, -22.51455], [-46.06405, -22.51652], [-46.0631, -22.51706], [-46.06213, -22.51736], [-46.06292, -22.51845], [-46.06349, -22.52044], [-46.06473, -22.5212], [-46.06605, -22.52324], [-46.06641, -22.52357], [-46.06634, -22.52446], [-46.06669, -22.52551], [-46.06726, -22.52636], [-46.07004, -22.52831], [-46.0699, -22.52887], [-46.07054, -22.531], [-46.07107, -22.53166], [-46.07189, -22.53196], [-46.07503, -22.53097], [-46.07727, -22.53212], [-46.07859, -22.5336], [-46.0798, -22.5341], [-46.08048, -22.53462], [-46.08262, -22.53765], [-46.08433, -22.53959], [-46.08458, -22.54022], [-46.08458, -22.5418], [-46.08394, -22.54489], [-46.08479, -22.54568], [-46.08554, -22.5469], [-46.08668, -22.54825], [-46.08718, -22.54976], [-46.08857, -22.55129], [-46.08921, -22.55145], [-46.09053, -22.5501], [-46.09089, -22.54993], [-46.09288, -22.55081], [-46.09363, -22.55096], [-46.09477, -22.55285], [-46.09487, -22.55348], [-46.09566, -22.55437], [-46.09671, -22.55644], [-46.0972, -22.55654], [-46.09761, -22.55638], [-46.09788, -22.55592], [-46.09808, -22.55593], [-46.0987, -22.55624], [-46.09914, -22.5567], [-46.09871, -22.55339], [-46.09799, -22.55243], [-46.09726, -22.55179], [-46.0968, -22.55046], [-46.09667, -22.54991], [-46.0968, -22.54845], [-46.09661, -22.54702], [-46.096, -22.54549], [-46.095, -22.5443], [-46.09489, -22.54381], [-46.09528, -22.54283], [-46.09521, -22.54232], [-46.09545, -22.54085], [-46.09533, -22.53989], [-46.09584, -22.5394], [-46.09677, -22.53777], [-46.0977, -22.53699], [-46.09814, -22.53624], [-46.09853, -22.53608], [-46.09899, -22.53554], [-46.09982, -22.5331], [-46.1007, -22.53187], [-46.10072, -22.53133], [-46.10203, -22.5275], [-46.10233, -22.52549], [-46.1031, -22.52532], [-46.10308, -22.52449], [-46.10334, -22.52386], [-46.10309, -22.52179], [-46.10387, -22.52066], [-46.10327, -22.51948], [-46.1035, -22.51837], [-46.10237, -22.51697], [-46.10222, -22.5162], [-46.10262, -22.51502], [-46.10331, -22.51487], [-46.10363, -22.51442], [-46.10319, -22.51283], [-46.1032, -22.51146], [-46.10288, -22.51047], [-46.10138, -22.50811], [-46.10069, -22.50624], [-46.09898, -22.50412], [-46.0988, -22.5036], [-46.09777, -22.50236], [-46.09769, -22.50202], [-46.09653, -22.50124], [-46.09589, -22.50107], [-46.09505, -22.50024], [-46.09363, -22.49925], [-46.09252, -22.49893], [-46.09202, -22.4983], [-46.09185, -22.49725], [-46.09211, -22.49627], [-46.09175, -22.49492], [-46.09201, -22.49466], [-46.09249, -22.49334], [-46.09198, -22.49335], [-46.09089, -22.49374], [-46.09001, -22.49447]]]}}, 
{"type": "Feature", "properties": {"CD_SETOR": "311060805000032", "CD_SIT": "3", "NM_DIST": "Cambuí", "NM_SUBDIST": null}, "geometry": {"type": "Polygon", "coordinates": [[[-46.02279, -22.51805], [-46.02255, -22.51915], [-46.02314, -22.5191], [-46.02422, -22.51969], [-46.02403, -22.5206], [-46.02441, -22.5214], [-46.02441, -22.52182], [-46.02543, -22.52221], [-46.02549, -22.52158], [-46.02578, -22.52116], [-46.02614, -22.52127], [-46.02694, -22.52109], [-46.02789, -22.52048], [-46.02745, -22.51989], [-46.0277, -22.51905], [-46.02716, -22.5186], [-46.02644, -22.5183], [-46.02496, -22.51804], [-46.02279, -22.51805]]]}}, 
{"type": "Feature", "properties": {"CD_SETOR": "311060805000033", "CD_SIT": "8", "NM_DIST": "Cambuí", "NM_SUBDIST": null}, "geometry": {"type": "Polygon", "coordinates": [[[-46.0422, -22.57216], [-46.04245, -22.57561], [-46.04516, -22.57971], [-46.04626, -22.58199], [-46.04946, -22.58597], [-46.05046, -22.58499], [-46.05025, -22.58462], [-46.05089, -22.58374], [-46.05137, -22.58328], [-46.05261, -22.58267], [-46.05334, -22.58395], [-46.05529, -22.58503], [-46.05536, -22.58591], [-46.05572, -22.58697], [-46.05556, -22.58727], [-46.05538, -22.58915], [-46.05569, -22.59029], [-46.05565, -22.59096], [-46.05632, -22.59189], [-46.05628, -22.59286], [-46.05714, -22.59291], [-46.05829, -22.59274], [-46.06022, -22.59223], [-46.06298, -22.59102], [-46.06428, -22.59079], [-46.06426, -22.59137], [-46.06404, -22.59157], [-46.05999, -22.59448], [-46.06008, -22.59498], [-46.06036, -22.59515], [-46.06109, -22.59615], [-46.06108, -22.59646], [-46.06066, -22.59688], [-46.0606, -22.59715], [-46.06173, -22.59914], [-46.06234, -22.59853], [-46.0629, -22.59829], [-46.06469, -22.59835], [-46.06433, -22.59766], [-46.06424, -22.59689], [-46.06474, -22.59586], [-46.06565, -22.5948], [-46.06679, -22.59465], [-46.06816, -22.59332], [-46.07115, -22.59246], [-46.07439, -22.59115], [-46.07694, -22.58991], [-46.07831, -22.58976], [-46.07975, -22.58931], [-46.08129, -22.58858], [-46.08228, -22.58684], [-46.08245, -22.58549], [-46.08177, -22.58386], [-46.08137, -22.58174], [-46.08099, -22.58098], [-46.08093, -22.58006], [-46.08042, -22.57929], [-46.08024, -22.57791], [-46.08044, -22.57755], [-46.08179, -22.57635], [-46.08213, -22.57568], [-46.08235, -22.57405], [-46.08169, -22.57198], [-46.0825, -22.57109], [-46.0831, -22.57092], [-46.08357, -22.571], [-46.08382, -22.5708], [-46.08325, -22.57026], [-46.08287, -22.57043], [-46.08239, -22.57006], [-46.08101, -22.56967], [-46.08018, -22.56821], [-46.07929, -22.56787], [-46.07868, -22.56742], [-46.07779, -22.56731], [-46.07761, -22.5671], [-46.07721, -22.56716], [-46.07725, -22.56751], [-46.07649, -22.5675], [-46.07611, -22.5671], [-46.0756, -22.56698], [-46.07525, -22.5665], [-46.07537, -22.56637], [-46.07528, -22.56623], [-46.07467, -22.56649], [-46.07426, -22.56473], [-46.07464, -22.56434], [-46.07445, -22.56382], [-46.07413, -22.56372], [-46.07404, -22.56347], [-46.07425, -22.56325], [-46.07379, -22.56261], [-46.07324, -22.5629], [-46.07317, -22.56272], [-46.07342, -22.5626], [-46.0731, -22.56209], [-46.07277, -22.56242], [-46.07266, -22.56231], [-46.07273, -22.56196], [-46.07134, -22.56241], [-46.07095, -22.5623], [-46.0707, -22.56243], [-46.07064, -22.56273], [-46.06956, -22.56245], [-46.06909, -22.56199], [-46.06821, -22.56233], [-46.06758, -22.56196], [-46.06745, -22.56166], [-46.06755, -22.56143], [-46.06729, -22.56115], [-46.06678, -22.56135], [-46.06657, -22.56117], [-46.06692, -22.56062], [-46.06649, -22.56069], [-46.06643, -22.56042], [-46.06663, -22.56027], [-46.06686, -22.56037], [-46.06684, -22.5602], [-46.06633, -22.56026], [-46.06634, -22.56005], [-46.06607, -22.56001], [-46.06608, -22.55956], [-46.06563, -22.55924], [-46.0659, -22.55889], [-46.06584, -22.5587], [-46.06547, -22.55859], [-46.06559, -22.55815], [-46.06534, -22.55763], [-46.06568, -22.5573], [-46.06554, -22.5571], [-46.06588, -22.55694], [-46.06571, -22.55606], [-46.06613, -22.55586], [-46.06607, -22.55563], [-46.06627, -22.55524], [-46.06575, -22.55518], [-46.06552, -22.55486], [-46.06541, -22.5549], [-46.06513, -22.55437], [-46.06413, -22.55509], [-46.06347, -22.55491], [-46.06282, -22.55524], [-46.0617, -22.55425], [-46.06082, -22.55522], [-46.0588, -22.55608], [-46.05832, -22.55563], [-46.05654, -22.55478], [-46.0556, -22.55607], [-46.05601, -22.55679], [-46.05453, -22.55861], [-46.05321, -22.55907], [-46.05129, -22.55918], [-46.05003, -22.55961], [-46.05078, -22.55744], [-46.05117, -22.55691], [-46.05, -22.55504], [-46.05172, -22.55373], [-46.05234, -22.55256], [-46.05177, -22.55094], [-46.05126, -22.55038], [-46.05123, -22.55], [-46.05075, -22.54942], [-46.05031, -22.54923], [-46.04996, -22.54939], [-46.04849, -22.54921], [-46.04727, -22.54938], [-46.04673, -22.54989], [-46.0439, -22.5479], [-46.04255, -22.54674], [-46.04121, -22.546], [-46.04084, -22.54531], [-46.0396, -22.54393], [-46.03821, -22.54195], [-46.038, -22.54144], [-46.03787, -22.53958], [-46.03733, -22.53896], [-46.03775, -22.54217], [-46.0395, -22.54532], [-46.03981, -22.5462], [-46.04002, -22.54843], [-46.03991, -22.54975], [-46.03957, -22.55079], [-46.03917, -22.5542], [-46.0398, -22.5564], [-46.0411, -22.56425], [-46.04073, -22.56782], [-46.0422, -22.57216]]]}}, 
{"type": "Feature", "properties": {"CD_SETOR": "311060805000035", "CD_SIT": "8", "NM_DIST": "Cambuí", "NM_SUBDIST": null}, "geometry": {"type": "Polygon", "coordinates": [[[-46.0188, -22.56957], [-46.01909, -22.56941], [-46.01893, -22.56899], [-46.01902, -22.56871], [-46.01949, -22.56818], [-46.01935, -22.568], [-46.01975, -22.5674], [-46.02057, -22.56727], [-46.02119, -22.56812], [-46.02136, -22.56798], [-46.02301, -22.56793], [-46.02424, -22.56729], [-46.02426, -22.56711], [-46.0244, -22.56711], [-46.02546, -22.56589], [-46.02582, -22.56529], [-46.02582, -22.56467], [-46.02608, -22.56435], [-46.02586, -22.56399], [-46.02611, -22.5633], [-46.02604, -22.56298], [-46.02695, -22.56168], [-46.02773, -22.56115], [-46.02772, -22.5603], [-46.02795, -22.56012], [-46.028, -22.55972], [-46.02845, -22.55932], [-46.02849, -22.55896], [-46.02872, -22.55889], [-46.02856, -22.55865], [-46.02913, -22.5578], [-46.02891, -22.55695], [-46.02992, -22.55553], [-46.03097, -22.55492], [-46.03299, -22.55705], [-46.03368, -22.55803], [-46.03435, -22.55836], [-46.03461, -22.55925], [-46.03503, -22.55998], [-46.03485, -22.5604], [-46.03608, -22.56106], [-46.03626, -22.56133], [-46.0365, -22.56183], [-46.0364, -22.56239], [-46.036, -22.56296], [-46.03606, -22.56389], [-46.03821, -22.56662], [-46.03855, -22.56728], [-46.03864, -22.56781], [-46.03901, -22.56824], [-46.03983, -22.57014], [-46.04003, -22.57094], [-46.04059, -22.57162], [-46.04062, -22.5728], [-46.04091, -22.57253], [-46.04181, -22.57216], [-46.0422, -22.57216], [-46.04073, -22.56782], [-46.0411, -22.56425], [-46.0398, -22.5564], [-46.03917, -22.5542], [-46.03957, -22.55079], [-46.03991, -22.54975], [-46.04002, -22.54843], [-46.03981, -22.5462], [-46.0395, -22.54532], [-46.03775, -22.54217], [-46.03733, -22.53896], [-46.03427, -22.53379], [-46.03362, -22.53343], [-46.03179, -22.53291], [-46.02926, -22.5331], [-46.02813, -22.53232], [-46.02585, -22.52666], [-46.025, -22.52505], [-46.02251, -22.52182], [-46.02214, -22.52082], [-46.01982, -22.52307], [-46.0193, -22.52335], [-46.01868, -22.52453], [-46.01696, -22.52577], [-46.01596, -22.52729], [-46.01591, -22.52764], [-46.01621, -22.52839], [-46.01806, -22.53126], [-46.01922, -22.53247], [-46.02027, -22.53397], [-46.02074, -22.53483], [-46.02083, -22.53532], [-46.02299, -22.53779], [-46.02317, -22.53818], [-46.02325, -22.54036], [-46.02387, -22.54101], [-46.02407, -22.54169], [-46.02464, -22.54272], [-46.02409, -22.5441], [-46.02357, -22.54719], [-46.02282, -22.54927], [-46.02213, -22.55024], [-46.02087, -22.55178], [-46.01944, -22.55267], [-46.0187, -22.55386], [-46.01724, -22.55553], [-46.0145, -22.55693], [-46.01297, -22.55721], [-46.01254, -22.55779], [-46.01242, -22.5586], [-46.01254, -22.55939], [-46.01338, -22.56081], [-46.01538, -22.56225], [-46.01628, -22.56246], [-46.01662, -22.56276], [-46.01718, -22.56399], [-46.01714, -22.56457], [-46.01787, -22.56663], [-46.01782, -22.56875], [-46.0181, -22.56924], [-46.0188, -22.56957]]]}}, 
{"type": "Feature", "properties": {"CD_SETOR": "311060805000036", "CD_SIT": "8", "NM_DIST": "Cambuí", "NM_SUBDIST": null}, "geometry": {"type": "Polygon", "coordinates": [[[-46.01362, -22.51697], [-46.0121, -22.51747], [-46.0088, -22.51911], [-46.00743, -22.51936], [-46.00572, -22.51929], [-46.00473, -22.5195], [-46.00301, -22.52067], [-46.00191, -22.52184], [-46.00078, -22.52381], [-46.00035, -22.52488], [-46.00014, -22.52609], [-46.0002, -22.52761], [-46.00094, -22.5291], [-46.00308, -22.53104], [-46.00412, -22.53238], [-46.00432, -22.53282], [-46.00453, -22.53554], [-46.00379, -22.53637], [-46.00303, -22.53676], [-46.00139, -22.53683], [-45.99952, -22.53661], [-45.99792, -22.53786], [-45.99632, -22.53859], [-45.9955, -22.5392], [-45.99527, -22.53965], [-45.99507, -22.54133], [-45.99522, -22.54729], [-45.99481, -22.54811], [-45.99392, -22.54867], [-45.9924, -22.54882], [-45.98741, -22.54826], [-45.98566, -22.5479], [-45.98332, -22.54783], [-45.98223, -22.54796], [-45.98169, -22.54818], [-45.97914, -22.55004], [-45.9786, -22.55005], [-45.97779, -22.54978], [-45.97548, -22.54842], [-45.97326, -22.54648], [-45.97253, -22.54551], [-45.97215, -22.54474], [-45.97194, -22.54351], [-45.97134, -22.54267], [-45.97065, -22.54238], [-45.96886, -22.54228], [-45.96659, -22.54249], [-45.96558, -22.54219], [-45.96467, -22.54152], [-45.96327, -22.53961], [-45.96009, -22.5372], [-45.95882, -22.53643], [-45.95728, -22.53588], [-45.95618, -22.5353], [-45.95374, -22.53599], [-45.95084, -22.53768], [-45.94966, -22.53906], [-45.94842, -22.54002], [-45.9452, -22.54146], [-45.94186, -22.5424], [-45.94115, -22.543], [-45.94094, -22.54342], [-45.94128, -22.54379], [-45.9435, -22.54385], [-45.94578, -22.5443], [-45.94784, -22.54569], [-45.94826, -22.54681], [-45.94836, -22.55214], [-45.95085, -22.55283], [-45.95397, -22.55286], [-45.95523, -22.55372], [-45.95604, -22.55462], [-45.95725, -22.55528], [-45.95987, -22.55642], [-45.96061, -22.55653], [-45.9619, -22.55628], [-45.96305, -22.55705], [-45.96473, -22.55671], [-45.96627, -22.55562], [-45.96754, -22.55582], [-45.96971, -22.55695], [-45.97241, -22.56016], [-45.97384, -22.56146], [-45.97512, -22.56227], [-45.9762, -22.56242], [-45.97915, -22.56227], [-45.9807, -22.56278], [-45.98157, -22.56335], [-45.9834, -22.56374], [-45.98616, -22.5648], [-45.98864, -22.56612], [-45.9907, -22.56672], [-45.99174, -22.56752], [-45.99323, -22.5697], [-45.9938, -22.57019], [-45.99696, -22.57083], [-45.99726, -22.57096], [-45.99866, -22.57262], [-45.99977, -22.57252], [-46.00047, -22.57279], [-46.00086, -22.57312], [-46.00118, -22.57383], [-46.00117, -22.57533], [-46.0016, -22.57588], [-46.0054, -22.57652], [-46.00602, -22.57696], [-46.00765, -22.57948], [-46.00839, -22.58016], [-46.0098, -22.58068], [-46.01046, -22.5811], [-46.0121, -22.58272], [-46.01275, -22.58302], [-46.01535, -22.58493], [-46.01625, -22.58582], [-46.01675, -22.586], [-46.01802, -22.58602], [-46.01845, -22.58461], [-46.01834, -22.58328], [-46.01808, -22.58265], [-46.01821, -22.58127], [-46.01802, -22.58004], [-46.01809, -22.5797], [-46.01907, -22.57815], [-46.02031, -22.57673], [-46.02106, -22.57475], [-46.02098, -22.57437], [-46.02033, -22.57358], [-46.01978, -22.57107], [-46.01948, -22.57049], [-46.0189, -22.56965], [-46.01793, -22.56907], [-46.01787, -22.56663], [-46.01731, -22.56519], [-46.01712, -22.56437], [-46.01718, -22.56399], [-46.01691, -22.56327], [-46.01628, -22.56246], [-46.01538, -22.56225], [-46.01338, -22.56081], [-46.01254, -22.55939], [-46.01242, -22.5586], [-46.01254, -22.55779], [-46.01297, -22.55721], [-46.0145, -22.55693], [-46.01724, -22.55553], [-46.0187, -22.55386], [-46.01944, -22.55267], [-46.02126, -22.55139], [-46.02282, -22.54927], [-46.02357, -22.54719], [-46.02409, -22.5441], [-46.02464, -22.54272], [-46.02407, -22.54169], [-46.02387, -22.54101], [-46.02325, -22.54036], [-46.02329, -22.53885], [-46.02299, -22.53779], [-46.02083, -22.53532], [-46.02074, -22.53483], [-46.02027, -22.53397], [-46.01922, -22.53247], [-46.01806, -22.53126], [-46.01621, -22.52839], [-46.01591, -22.52764], [-46.01596, -22.52729], [-46.01696, -22.52577], [-46.01868, -22.52453], [-46.0193, -22.52335], [-46.01982, -22.52307], [-46.02214, -22.52082], [-46.02192, -22.51846], [-46.02155, -22.5179], [-46.0207, -22.51793], [-46.02042, -22.51779], [-46.02014, -22.51673], [-46.02023, -22.51556], [-46.01985, -22.51528], [-46.01925, -22.51522], [-46.01683, -22.51599], [-46.01609, -22.51609], [-46.01362, -22.51697]]]}}, 
{"type": "Feature", "properties": {"CD_SETOR": "311060805000037", "CD_SIT": "8", "NM_DIST": "Cambuí", "NM_SUBDIST": null}, "geometry": {"type": "Polygon", "coordinates": [[[-46.06337, -22.67016], [-46.06311, -22.67087], [-46.06252, -22.67169], [-46.06138, -22.67223], [-46.06033, -22.6738], [-46.05909, -22.67434], [-46.05869, -22.67491], [-46.05827, -22.6752], [-46.05675, -22.67533], [-46.05629, -22.67553], [-46.05615, -22.67698], [-46.05514, -22.67847], [-46.05516, -22.67939], [-46.05472, -22.68024], [-46.0546, -22.68149], [-46.05405, -22.68246], [-46.05389, -22.68468], [-46.05414, -22.68635], [-46.05391, -22.68737], [-46.05597, -22.68743], [-46.05808, -22.68789], [-46.06049, -22.68899], [-46.0623, -22.68949], [-46.06556, -22.69144], [-46.06734, -22.69148], [-46.06785, -22.69134], [-46.06978, -22.69146], [-46.0704, -22.69166], [-46.07136, -22.69163], [-46.07517, -22.69038], [-46.07642, -22.68971], [-46.07761, -22.68847], [-46.07844, -22.68624], [-46.07874, -22.6858], [-46.08058, -22.68456], [-46.08228, -22.6842], [-46.08547, -22.68415], [-46.08675, -22.68429], [-46.08726, -22.68445], [-46.08872, -22.68539], [-46.08971, -22.68613], [-46.09047, -22.68696], [-46.09098, -22.6872], [-46.09203, -22.68726], [-46.09254, -22.68711], [-46.09379, -22.68615], [-46.09672, -22.6851], [-46.0975, -22.68448], [-46.09834, -22.68343], [-46.09911, -22.68284], [-46.10116, -22.68283], [-46.10128, -22.68064], [-46.10105, -22.6803], [-46.10062, -22.68015], [-46.09993, -22.67954], [-46.09903, -22.67803], [-46.09824, -22.6771], [-46.09801, -22.6753], [-46.0977, -22.67469], [-46.09727, -22.67447], [-46.09524, -22.67487], [-46.094, -22.67448], [-46.09351, -22.67374], [-46.09358, -22.67235], [-46.09338, -22.66823], [-46.09312, -22.66639], [-46.09283, -22.66542], [-46.09188, -22.66416], [-46.0888, -22.66169], [-46.0885, -22.66113], [-46.08824, -22.65974], [-46.08922, -22.65539], [-46.08923, -22.6544], [-46.08877, -22.65263], [-46.08874, -22.65136], [-46.08934, -22.64832], [-46.0893, -22.6475], [-46.08892, -22.64687], [-46.0858, -22.6453], [-46.08459, -22.64354], [-46.07985, -22.63875], [-46.07947, -22.63798], [-46.07937, -22.63723], [-46.079, -22.63754], [-46.07911, -22.63825], [-46.07816, -22.63917], [-46.07552, -22.64055], [-46.07503, -22.64218], [-46.07499, -22.64355], [-46.07587, -22.6448], [-46.07595, -22.64619], [-46.07539, -22.64741], [-46.07531, -22.64864], [-46.07507, -22.64909], [-46.07527, -22.64958], [-46.07499, -22.65145], [-46.07527, -22.65231], [-46.07516, -22.65381], [-46.07387, -22.65536], [-46.0739, -22.65611], [-46.07356, -22.65702], [-46.07367, -22.65771], [-46.07431, -22.65786], [-46.07447, -22.65807], [-46.07446, -22.65842], [-46.07359, -22.6589], [-46.07254, -22.65999], [-46.07236, -22.66125], [-46.07214, -22.66162], [-46.07184, -22.66183], [-46.07114, -22.66159], [-46.07087, -22.66173], [-46.07082, -22.66238], [-46.07138, -22.66302], [-46.07123, -22.66368], [-46.07101, -22.66388], [-46.07063, -22.66563], [-46.06984, -22.66688], [-46.06907, -22.66688], [-46.06883, -22.66796], [-46.0662, -22.66875], [-46.06578, -22.66921], [-46.06561, -22.67023], [-46.06526, -22.67007], [-46.0645, -22.67005], [-46.06408, -22.66978], [-46.06337, -22.67016]]]}}, 
{"type": "Feature", "properties": {"CD_SETOR": "311060805000038", "CD_SIT": "1", "NM_DIST": "Cambuí", "NM_SUBDIST": null}, "geometry": {"type": "Polygon", "coordinates": [[[-46.08507, -22.62143], [-46.08624, -22.62243], [-46.08753, -22.62416], [-46.08973, -22.62247], [-46.09026, -22.62303], [-46.09015, -22.62246], [-46.08979, -22.62195], [-46.08912, -22.62156], [-46.0864, -22.62052], [-46.08507, -22.62143]]]}}, 
{"type": "Feature", "properties": {"CD_SETOR": "311060805000041", "CD_SIT": "1", "NM_DIST": "Cambuí", "NM_SUBDIST": null}, "geometry": {"type": "Polygon", "coordinates": [[[-46.05264, -22.60256], [-46.05578, -22.60511], [-46.05616, -22.60609], [-46.05661, -22.60594], [-46.05627, -22.60499], [-46.0563, -22.6043], [-46.05451, -22.60294], [-46.05252, -22.60055], [-46.05221, -22.60092], [-46.05317, -22.60211], [-46.05264, -22.60256]]]}}, 
{"type": "Feature", "properties": {"CD_SETOR": "311060805000042", "CD_SIT": "1", "NM_DIST": "Cambuí", "NM_SUBDIST": null}, "geometry": {"type": "Polygon", "coordinates": [[[-46.05241, -22.60595], [-46.05232, -22.60647], [-46.05216, -22.60645], [-46.05265, -22.60685], [-46.05321, -22.60701], [-46.05369, -22.60875], [-46.05497, -22.6084], [-46.0548, -22.60751], [-46.05339, -22.60708], [-46.05469, -22.60692], [-46.05445, -22.60548], [-46.05241, -22.60595]]]}}, 
{"type": "Feature", "properties": {"CD_SETOR": "311060805000043", "CD_SIT": "1", "NM_DIST": "Cambuí", "NM_SUBDIST": null}, "geometry": {"type": "Polygon", "coordinates": [[[-46.05764, -22.60889], [-46.05693, -22.60886], [-46.05668, -22.61098], [-46.05892, -22.61096], [-46.05888, -22.60884], [-46.05764, -22.60889]]]}}, 
{"type": "Feature", "properties": {"CD_SETOR": "311060805000044", "CD_SIT": "1", "NM_DIST": "Cambuí", "NM_SUBDIST": null}, "geometry": {"type": "Polygon", "coordinates": [[[-46.0563, -22.6043], [-46.05627, -22.60499], [-46.05661, -22.60594], [-46.05616, -22.60609], [-46.05635, -22.60672], [-46.05634, -22.60741], [-46.0573, -22.60886], [-46.05764, -22.60889], [-46.05762, -22.60433], [-46.05743, -22.60394], [-46.0563, -22.6043]]]}}, 
{"type": "Feature", "properties": {"CD_SETOR": "311060805000047", "CD_SIT": "1", "NM_DIST": "Cambuí", "NM_SUBDIST": null}, "geometry": {"type": "Polygon", "coordinates": [[[-46.05211, -22.62041], [-46.05304, -22.62195], [-46.0527, -22.62215], [-46.05403, -22.62393], [-46.05457, -22.62441], [-46.05607, -22.62476], [-46.05645, -22.62527], [-46.05707, -22.62511], [-46.05731, -22.62544], [-46.05732, -22.62514], [-46.05695, -22.62484], [-46.05684, -22.62454], [-46.0572, -22.62328], [-46.05334, -22.62194], [-46.05273, -22.62095], [-46.05211, -22.62041]]]}}, 
{"type": "Feature", "properties": {"CD_SETOR": "311060805000049", "CD_SIT": "8", "NM_DIST": "Cambuí", "NM_SUBDIST": null}, "geometry": {"type": "Polygon", "coordinates": [[[-46.12483, -22.58239], [-46.12456, -22.58296], [-46.12452, -22.5841], [-46.12365, -22.58433], [-46.12295, -22.58475], [-46.12259, -22.58461], [-46.12251, -22.58392], [-46.12234, -22.58366], [-46.12213, -22.58365], [-46.12027, -22.58445], [-46.11966, -22.58411], [-46.11897, -22.58404], [-46.11867, -22.58363], [-46.11824, -22.58359], [-46.1179, -22.58415], [-46.11739, -22.58456], [-46.11639, -22.5835], [-46.11556, -22.58381], [-46.11511, -22.58336], [-46.11334, -22.58247], [-46.11202, -22.58276], [-46.10962, -22.58383], [-46.10897, -22.58376], [-46.10845, -22.58342], [-46.10734, -22.58384], [-46.1059, -22.58386], [-46.10532, -22.58373], [-46.10497, -22.58388], [-46.10257, -22.58606], [-46.10024, -22.58704], [-46.09925, -22.58726], [-46.09861, -22.58705], [-46.09792, -22.58715], [-46.09737, -22.58744], [-46.0972, -22.58769], [-46.09711, -22.58847], [-46.09663, -22.589], [-46.09504, -22.58915], [-46.09285, -22.59023], [-46.0929, -22.59081], [-46.09151, -22.59218], [-46.09003, -22.59255], [-46.08968, -22.5928], [-46.08928, -22.59364], [-46.08949, -22.59459], [-46.08904, -22.59568], [-46.0875, -22.59637], [-46.08627, -22.59722], [-46.08447, -22.59793], [-46.0826, -22.5981], [-46.08132, -22.5984], [-46.08061, -22.59804], [-46.07996, -22.59725], [-46.07827, -22.59765], [-46.07602, -22.59793], [-46.07477, -22.5989], [-46.07411, -22.59994], [-46.07186, -22.60026], [-46.06831, -22.6024], [-46.06788, -22.60286], [-46.06766, -22.60338], [-46.06774, -22.6039], [-46.06822, -22.60464], [-46.06807, -22.60481], [-46.06622, -22.60488], [-46.06875, -22.60676], [-46.06822, -22.60785], [-46.06905, -22.60865], [-46.07078, -22.60963], [-46.07252, -22.61022], [-46.07384, -22.61111], [-46.07459, -22.61121], [-46.07564, -22.61094], [-46.0779, -22.60926], [-46.07882, -22.60908], [-46.07882, -22.60956], [-46.07843, -22.6104], [-46.07872, -22.61038], [-46.07908, -22.61074], [-46.08021, -22.61061], [-46.07988, -22.61104], [-46.0801, -22.61121], [-46.07977, -22.61161], [-46.07961, -22.61146], [-46.07896, -22.61379], [-46.0797, -22.61443], [-46.08115, -22.61338], [-46.08185, -22.61233], [-46.0831, -22.61177], [-46.08346, -22.61179], [-46.08438, -22.61222], [-46.08419, -22.61308], [-46.08432, -22.6142], [-46.0846, -22.61463], [-46.08625, -22.61561], [-46.08684, -22.61566], [-46.08767, -22.61538], [-46.08925, -22.61559], [-46.08989, -22.61546], [-46.09149, -22.61462], [-46.09311, -22.61481], [-46.09492, -22.61467], [-46.09723, -22.61353], [-46.09895, -22.61308], [-46.10009, -22.61345], [-46.10131, -22.6135], [-46.10199, -22.6137], [-46.10242, -22.61347], [-46.10358, -22.61349], [-46.10459, -22.61333], [-46.10523, -22.61295], [-46.10644, -22.61163], [-46.10757, -22.61127], [-46.10861, -22.61048], [-46.11003, -22.61001], [-46.11067, -22.61018], [-46.11106, -22.61011], [-46.11158, -22.60983], [-46.11213, -22.60919], [-46.11284, -22.6091], [-46.1135, -22.60931], [-46.11431, -22.60896], [-46.11572, -22.60899], [-46.11663, -22.60922], [-46.11725, -22.60919], [-46.11765, -22.60947], [-46.11847, -22.60955], [-46.11901, -22.60978], [-46.11997, -22.6112], [-46.12015, -22.61212], [-46.12055, -22.61231], [-46.12114, -22.61332], [-46.1226, -22.61391], [-46.12381, -22.61533], [-46.1241, -22.61513], [-46.12473, -22.61543], [-46.12494, -22.61598], [-46.1269, -22.61753], [-46.12737, -22.61744], [-46.128, -22.61837], [-46.12803, -22.6188], [-46.12789, -22.6191], [-46.12841, -22.61939], [-46.1292, -22.61981], [-46.12951, -22.61936], [-46.13147, -22.61936], [-46.13162, -22.61905], [-46.13275, -22.61885], [-46.13334, -22.61933], [-46.13417, -22.61922], [-46.13413, -22.61971], [-46.13433, -22.6201], [-46.13412, -22.62089], [-46.13496, -22.62156], [-46.13514, -22.62205], [-46.13636, -22.62205], [-46.1368, -22.62177], [-46.13752, -22.62182], [-46.13827, -22.62159], [-46.13875, -22.61945], [-46.13889, -22.61925], [-46.13938, -22.61913], [-46.13992, -22.61919], [-46.14056, -22.61957], [-46.14198, -22.62139], [-46.14304, -22.62206], [-46.14619, -22.6218], [-46.14931, -22.62227], [-46.14994, -22.6222], [-46.15063, -22.62186], [-46.15094, -22.62121], [-46.15084, -22.62005], [-46.14958, -22.6174], [-46.1494, -22.6165], [-46.14943, -22.61566], [-46.15072, -22.6132], [-46.15213, -22.61176], [-46.15216, -22.60938], [-46.15247, -22.60838], [-46.15289, -22.60768], [-46.15222, -22.60633], [-46.15147, -22.60525], [-46.14938, -22.60324], [-46.14821, -22.60185], [-46.14801, -22.60101], [-46.14793, -22.59924], [-46.14817, -22.59694], [-46.14799, -22.59574], [-46.14753, -22.59497], [-46.14647, -22.59369], [-46.14564, -22.59307], [-46.14332, -22.59071], [-46.14115, -22.58938], [-46.13983, -22.58815], [-46.13934, -22.58815], [-46.13893, -22.58845], [-46.13838, -22.58854], [-46.13713, -22.58817], [-46.13531, -22.58792], [-46.13445, -22.58669], [-46.13303, -22.58628], [-46.13239, -22.58554], [-46.13121, -22.58528], [-46.13085, -22.58459], [-46.13044, -22.58454], [-46.12975, -22.58517], [-46.1289, -22.58511], [-46.12769, -22.5838], [-46.12679, -22.5836], [-46.12541, -22.58248], [-46.12483, -22.58239]]]}}, 
{"type": "Feature", "properties": {"CD_SETOR": "311060805000051", "CD_SIT": "8", "NM_DIST": "Cambuí", "NM_SUBDIST": null}, "geometry": {"type": "Polygon", "coordinates": [[[-46.09914, -22.5567], [-46.09908, -22.55761], [-46.09936, -22.55846], [-46.10038, -22.55892], [-46.10072, -22.55928], [-46.10075, -22.55973], [-46.1012, -22.56007], [-46.10174, -22.56024], [-46.1035, -22.55961], [-46.10389, -22.55978], [-46.10524, -22.55972], [-46.10581, -22.55926], [-46.10636, -22.5584], [-46.10669, -22.55821], [-46.10737, -22.55824], [-46.10833, -22.55696], [-46.10936, -22.55714], [-46.10966, -22.55671], [-46.11052, -22.55648], [-46.11081, -22.55611], [-46.11134, -22.55581], [-46.11258, -22.55598], [-46.11288, -22.55575], [-46.11328, -22.5558], [-46.11402, -22.55526], [-46.11373, -22.55629], [-46.11486, -22.55713], [-46.11541, -22.55789], [-46.11579, -22.55957], [-46.11575, -22.56048], [-46.11501, -22.56113], [-46.11567, -22.5616], [-46.11651, -22.56175], [-46.11714, -22.56288], [-46.11709, -22.56372], [-46.11738, -22.56466], [-46.11729, -22.56646], [-46.11782, -22.56725], [-46.11757, -22.56805], [-46.11703, -22.56841], [-46.11708, -22.56892], [-46.11752, -22.56952], [-46.11835, -22.5691], [-46.11906, -22.56981], [-46.11964, -22.56991], [-46.1201, -22.57143], [-46.12076, -22.57224], [-46.12194, -22.57248], [-46.12245, -22.57365], [-46.1222, -22.57532], [-46.12137, -22.57642], [-46.12089, -22.57681], [-46.12016, -22.57686], [-46.12019, -22.57713], [-46.12108, -22.57779], [-46.12207, -22.57915], [-46.12303, -22.57992], [-46.12354, -22.58097], [-46.12454, -22.5818], [-46.12483, -22.58239], [-46.12541, -22.58248], [-46.12679, -22.5836], [-46.12769, -22.5838], [-46.1289, -22.58511], [-46.12987, -22.58513], [-46.13031, -22.58464], [-46.13068, -22.58451], [-46.13121, -22.58528], [-46.13239, -22.58554], [-46.13303, -22.58628], [-46.13445, -22.58669], [-46.13531, -22.58792], [-46.13865, -22.58855], [-46.13934, -22.58815], [-46.13983, -22.58815], [-46.13825, -22.58537], [-46.13686, -22.58333], [-46.13672, -22.58261], [-46.13675, -22.58111], [-46.13696, -22.58017], [-46.13741, -22.5792], [-46.13931, -22.57771], [-46.13983, -22.57703], [-46.13984, -22.57587], [-46.13921, -22.57419], [-46.13916, -22.57344], [-46.13943, -22.57243], [-46.14042, -22.5717], [-46.1407, -22.57099], [-46.1407, -22.57045], [-46.14034, -22.56881], [-46.13954, -22.56753], [-46.13796, -22.5657], [-46.13793, -22.56428], [-46.13909, -22.56216], [-46.14002, -22.56153], [-46.14124, -22.56121], [-46.14262, -22.56115], [-46.1446, -22.56135], [-46.1461, -22.56159], [-46.14856, -22.56237], [-46.14971, -22.5624], [-46.1505, -22.56142], [-46.1505, -22.55933], [-46.15138, -22.55649], [-46.15142, -22.55577], [-46.15117, -22.55422], [-46.15123, -22.55371], [-46.15087, -22.55358], [-46.14992, -22.55256], [-46.14891, -22.55209], [-46.14744, -22.55187], [-46.14679, -22.55098], [-46.14569, -22.55097], [-46.14484, -22.54956], [-46.14423, -22.54942], [-46.1422, -22.54984], [-46.14179, -22.54969], [-46.14087, -22.54922], [-46.14054, -22.54873], [-46.14044, -22.54823], [-46.14022, -22.54808], [-46.13919, -22.54801], [-46.13868, -22.54717], [-46.13833, -22.54722], [-46.13791, -22.54795], [-46.13634, -22.54758], [-46.13576, -22.5473], [-46.13574, -22.54671], [-46.13495, -22.54588], [-46.13419, -22.54561], [-46.13275, -22.54571], [-46.13212, -22.54526], [-46.13154, -22.54511], [-46.13049, -22.54425], [-46.12951, -22.5442], [-46.1293, -22.54376], [-46.12882, -22.54374], [-46.1285, -22.54395], [-46.12788, -22.54513], [-46.12714, -22.54503], [-46.12631, -22.54518], [-46.12577, -22.54386], [-46.12646, -22.54402], [-46.12648, -22.54354], [-46.12587, -22.54302], [-46.12538, -22.54293], [-46.12543, -22.54251], [-46.12523, -22.54221], [-46.12626, -22.54139], [-46.12653, -22.54141], [-46.12663, -22.54116], [-46.12572, -22.54047], [-46.12485, -22.54025], [-46.12535, -22.53974], [-46.12542, -22.53954], [-46.12528, -22.53938], [-46.12437, -22.53925], [-46.12372, -22.5394], [-46.12261, -22.53855], [-46.12213, -22.53785], [-46.12209, -22.53738], [-46.12329, -22.53629], [-46.12309, -22.53578], [-46.12221, -22.53571], [-46.12196, -22.53541], [-46.12193, -22.53502], [-46.12121, -22.53448], [-46.11997, -22.53425], [-46.11891, -22.5326], [-46.11874, -22.53178], [-46.11855, -22.53158], [-46.1172, -22.53139], [-46.1164, -22.53229], [-46.11566, -22.53247], [-46.11394, -22.53247], [-46.11303, -22.53136], [-46.1125, -22.53107], [-46.11235, -22.53065], [-46.11174, -22.53032], [-46.11129, -22.52944], [-46.11093, -22.52919], [-46.1109, -22.52875], [-46.11046, -22.52848], [-46.11029, -22.52848], [-46.10999, -22.5288], [-46.10991, -22.52916], [-46.1092, -22.52985], [-46.10896, -22.52981], [-46.1084, -22.52931], [-46.1079, -22.52917], [-46.10767, -22.53002], [-46.10653, -22.53], [-46.10594, -22.52931], [-46.10564, -22.52928], [-46.10505, -22.53005], [-46.10424, -22.5302], [-46.10398, -22.5299], [-46.10406, -22.5295], [-46.10392, -22.52911], [-46.10359, -22.52875], [-46.10325, -22.52788], [-46.10191, -22.52783], [-46.10072, -22.53133], [-46.1007, -22.53187], [-46.09982, -22.5331], [-46.09899, -22.53554], [-46.09853, -22.53608], [-46.09814, -22.53624], [-46.0977, -22.53699], [-46.09677, -22.53777], [-46.09584, -22.5394], [-46.09533, -22.53989], [-46.09545, -22.54085], [-46.09521, -22.54232], [-46.09528, -22.54283], [-46.09489, -22.54381], [-46.095, -22.5443], [-46.096, -22.54549], [-46.09661, -22.54702], [-46.0968, -22.54845], [-46.09667, -22.54991], [-46.0968, -22.55046], [-46.09726, -22.55179], [-46.09799, -22.55243], [-46.09871, -22.55339], [-46.09914, -22.5567]]]}}, 
{"type": "Feature", "properties": {"CD_SETOR": "311060805000052", "CD_SIT": "8", "NM_DIST": "Cambuí", "NM_SUBDIST": null}, "geometry": {"type": "Polygon", "coordinates": [[[-46.02754, -22.51961], [-46.02745, -22.51989], [-46.02789, -22.52048], [-46.02694, -22.52109], [-46.02614, -22.52127], [-46.02578, -22.52116], [-46.02549, -22.52158], [-46.02543, -22.52221], [-46.02441, -22.52182], [-46.02441, -22.5214], [-46.02403, -22.5206], [-46.02422, -22.51969], [-46.02314, -22.5191], [-46.02255, -22.51915], [-46.02279, -22.51805], [-46.02261, -22.51762], [-46.02155, -22.5179], [-46.02192, -22.51846], [-46.02214, -22.52082], [-46.02251, -22.52182], [-46.025, -22.52505], [-46.02585, -22.52666], [-46.02813, -22.53232], [-46.02926, -22.5331], [-46.03179, -22.53291], [-46.03362, -22.53343], [-46.03427, -22.53379], [-46.03626, -22.53707], [-46.03655, -22.53688], [-46.03734, -22.53749], [-46.03824, -22.53791], [-46.03881, -22.53851], [-46.03926, -22.5386], [-46.03951, -22.53916], [-46.04026, -22.53955], [-46.04051, -22.53996], [-46.04081, -22.53955], [-46.04161, -22.5394], [-46.04184, -22.53897], [-46.04306, -22.53913], [-46.04358, -22.53898], [-46.04404, -22.53914], [-46.04509, -22.53814], [-46.04585, -22.53852], [-46.04665, -22.53741], [-46.04644, -22.53717], [-46.04675, -22.5371], [-46.04668, -22.53696], [-46.04685, -22.53673], [-46.04769, -22.5365], [-46.04781, -22.53606], [-46.04809, -22.53647], [-46.04856, -22.53649], [-46.0484, -22.53674], [-46.04857, -22.53687], [-46.049, -22.53685], [-46.04959, -22.53653], [-46.04958, -22.53718], [-46.05088, -22.53769], [-46.05139, -22.5375], [-46.05182, -22.53789], [-46.05218, -22.53797], [-46.05212, -22.53828], [-46.05273, -22.5382], [-46.05317, -22.53839], [-46.05333, -22.53811], [-46.0541, -22.53804], [-46.05473, -22.53752], [-46.05517, -22.53749], [-46.05553, -22.53729], [-46.05572, -22.5369], [-46.05594, -22.53687], [-46.05618, -22.53707], [-46.05601, -22.53759], [-46.05615, -22.53777], [-46.05643, -22.53768], [-46.05759, -22.53843], [-46.0583, -22.53838], [-46.05857, -22.53856], [-46.05823, -22.53885], [-46.05802, -22.53878], [-46.05768, -22.53935], [-46.05922, -22.53933], [-46.05936, -22.5395], [-46.05946, -22.54005], [-46.05901, -22.54007], [-46.05902, -22.54018], [-46.0595, -22.54038], [-46.05912, -22.54068], [-46.05902, -22.54119], [-46.05871, -22.54134], [-46.05885, -22.54191], [-46.05874, -22.54244], [-46.05909, -22.54298], [-46.05913, -22.54366], [-46.05944, -22.54409], [-46.06013, -22.54447], [-46.0601, -22.54478], [-46.05971, -22.54517], [-46.05971, -22.54565], [-46.06009, -22.54596], [-46.06043, -22.54775], [-46.0607, -22.54802], [-46.0615, -22.54826], [-46.06173, -22.54872], [-46.06176, -22.54931], [-46.06215, -22.54909], [-46.06224, -22.54945], [-46.06212, -22.54953], [-46.06206, -22.55051], [-46.06236, -22.55079], [-46.06234, -22.55141], [-46.06253, -22.55185], [-46.06301, -22.55203], [-46.06306, -22.55243], [-46.0637, -22.553], [-46.06382, -22.55358], [-46.06404, -22.55347], [-46.06406, -22.55365], [-46.06441, -22.55371], [-46.06459, -22.55411], [-46.06509, -22.55433], [-46.06541, -22.5549], [-46.06552, -22.55486], [-46.06575, -22.55518], [-46.06627, -22.55524], [-46.06607, -22.55563], [-46.06613, -22.55586], [-46.06571, -22.55606], [-46.06588, -22.55694], [-46.06554, -22.5571], [-46.06568, -22.5573], [-46.06534, -22.55763], [-46.06559, -22.55815], [-46.06547, -22.55859], [-46.06584, -22.5587], [-46.0659, -22.55889], [-46.06563, -22.55924], [-46.06608, -22.55956], [-46.06607, -22.56001], [-46.06634, -22.56005], [-46.06633, -22.56026], [-46.06684, -22.5602], [-46.06686, -22.56037], [-46.06663, -22.56027], [-46.06643, -22.56042], [-46.06649, -22.56069], [-46.06692, -22.56062], [-46.06657, -22.56117], [-46.06678, -22.56135], [-46.06729, -22.56115], [-46.06755, -22.56143], [-46.06745, -22.56166], [-46.06758, -22.56196], [-46.06821, -22.56233], [-46.06909, -22.56199], [-46.06956, -22.56245], [-46.07064, -22.56273], [-46.0707, -22.56243], [-46.07095, -22.5623], [-46.07134, -22.56241], [-46.07273, -22.56196], [-46.07266, -22.56231], [-46.07277, -22.56242], [-46.0731, -22.56209], [-46.07342, -22.5626], [-46.07317, -22.56272], [-46.07324, -22.5629], [-46.07379, -22.56261], [-46.07425, -22.56325], [-46.07404, -22.56347], [-46.07413, -22.56372], [-46.07445, -22.56382], [-46.07464, -22.56434], [-46.07426, -22.56473], [-46.07463, -22.56607], [-46.07454, -22.56639], [-46.07467, -22.56649], [-46.07528, -22.56623], [-46.07537, -22.56637], [-46.07525, -22.5665], [-46.0756, -22.56698], [-46.07611, -22.5671], [-46.07649, -22.5675], [-46.07725, -22.56751], [-46.07721, -22.56716], [-46.07761, -22.5671], [-46.07779, -22.56731], [-46.07868, -22.56742], [-46.07929, -22.56787], [-46.08018, -22.56821], [-46.08101, -22.56967], [-46.08239, -22.57006], [-46.08287, -22.57043], [-46.08325, -22.57026], [-46.08382, -22.5708], [-46.08403, -22.56996], [-46.08538, -22.56872], [-46.08514, -22.56814], [-46.08532, -22.56707], [-46.08665, -22.56455], [-46.08794, -22.56368], [-46.08892, -22.56323], [-46.0905, -22.56193], [-46.0914, -22.56154], [-46.09215, -22.56073], [-46.09362, -22.56076], [-46.09372, -22.56121], [-46.09473, -22.56118], [-46.09544, -22.56135], [-46.0958, -22.56111], [-46.09606, -22.56068], [-46.09664, -22.56049], [-46.09672, -22.56027], [-46.09649, -22.55987], [-46.09698, -22.55961], [-46.0972, -22.55877], [-46.09792, -22.55854], [-46.09825, -22.55862], [-46.09844, -22.55888], [-46.09902, -22.55892], [-46.09918, -22.55915], [-46.09953, -22.55908], [-46.1003, -22.5593], [-46.10075, -22.55973], [-46.10072, -22.55928], [-46.10038, -22.55892], [-46.09936, -22.55846], [-46.09908, -22.55761], [-46.09914, -22.5567], [-46.0987, -22.55624], [-46.09788, -22.55592], [-46.09761, -22.55638], [-46.0972, -22.55654], [-46.09671, -22.55644], [-46.09566, -22.55437], [-46.09487, -22.55348], [-46.09477, -22.55285], [-46.09363, -22.55096], [-46.09288, -22.55081], [-46.09089, -22.54993], [-46.09053, -22.5501], [-46.08921, -22.55145], [-46.089, -22.55142], [-46.08857, -22.55129], [-46.08718, -22.54976], [-46.08668, -22.54825], [-46.08554, -22.5469], [-46.08479, -22.54568], [-46.08394, -22.54489], [-46.08458, -22.5418], [-46.08458, -22.54022], [-46.08433, -22.53959], [-46.08262, -22.53765], [-46.08048, -22.53462], [-46.0798, -22.5341], [-46.07859, -22.5336], [-46.07727, -22.53212], [-46.07503, -22.53097], [-46.07189, -22.53196], [-46.07107, -22.53166], [-46.07054, -22.531], [-46.0699, -22.52887], [-46.07004, -22.52831], [-46.06726, -22.52636], [-46.06669, -22.52551], [-46.06634, -22.52446], [-46.06641, -22.52357], [-46.06605, -22.52324], [-46.06473, -22.5212], [-46.06349, -22.52044], [-46.06292, -22.51845], [-46.06213, -22.51736], [-46.05926, -22.51737], [-46.05807, -22.51709], [-46.05533, -22.51697], [-46.05378, -22.51711], [-46.05053, -22.51794], [-46.04407, -22.51802], [-46.04184, -22.51819], [-46.03979, -22.51769], [-46.03753, -22.51606], [-46.03648, -22.51584], [-46.03414, -22.51729], [-46.03327, -22.51755], [-46.03131, -22.51858], [-46.03008, -22.51947], [-46.02839, -22.5199], [-46.02782, -22.51982], [-46.02754, -22.51961]]]}}, 
{"type": "Feature", "properties": {"CD_SETOR": "311060805000053", "CD_SIT": "3", "NM_DIST": "Cambuí", "NM_SUBDIST": null}, "geometry": {"type": "Polygon", "coordinates": [[[-46.03626, -22.53707], [-46.03733, -22.53896], [-46.03792, -22.53963], [-46.0387, -22.54022], [-46.04003, -22.5417], [-46.04201, -22.54313], [-46.04257, -22.54278], [-46.04313, -22.54194], [-46.04425, -22.54178], [-46.0459, -22.54254], [-46.04846, -22.54332], [-46.0487, -22.54374], [-46.04881, -22.54367], [-46.05047, -22.54421], [-46.05331, -22.54443], [-46.05542, -22.54495], [-46.05513, -22.54577], [-46.05563, -22.54703], [-46.05566, -22.54762], [-46.05503, -22.54855], [-46.05696, -22.5507], [-46.05737, -22.5519], [-46.05605, -22.55401], [-46.05616, -22.55446], [-46.05648, -22.55475], [-46.05832, -22.55563], [-46.0588, -22.55608], [-46.06082, -22.55522], [-46.0617, -22.55425], [-46.06282, -22.55524], [-46.06347, -22.55491], [-46.06413, -22.55509], [-46.06513, -22.55437], [-46.06459, -22.55411], [-46.06441, -22.55371], [-46.06406, -22.55365], [-46.06404, -22.55347], [-46.06382, -22.55358], [-46.0637, -22.553], [-46.06306, -22.55243], [-46.06301, -22.55203], [-46.06253, -22.55185], [-46.06234, -22.55141], [-46.06236, -22.55079], [-46.06206, -22.55051], [-46.06212, -22.54953], [-46.06224, -22.54945], [-46.06215, -22.54909], [-46.06176, -22.54931], [-46.06173, -22.54872], [-46.0615, -22.54826], [-46.0607, -22.54802], [-46.06043, -22.54775], [-46.06009, -22.54596], [-46.05971, -22.54565], [-46.05971, -22.54517], [-46.0601, -22.54478], [-46.06013, -22.54447], [-46.05944, -22.54409], [-46.05913, -22.54366], [-46.05909, -22.54298], [-46.05874, -22.54244], [-46.05885, -22.54191], [-46.05871, -22.54134], [-46.05902, -22.54119], [-46.05912, -22.54068], [-46.0595, -22.54038], [-46.05902, -22.54018], [-46.05901, -22.54007], [-46.05946, -22.54005], [-46.05936, -22.5395], [-46.05922, -22.53933], [-46.05768, -22.53935], [-46.05802, -22.53878], [-46.05823, -22.53885], [-46.05857, -22.53856], [-46.0583, -22.53838], [-46.05759, -22.53843], [-46.05643, -22.53768], [-46.05615, -22.53777], [-46.05601, -22.53759], [-46.05618, -22.53707], [-46.05594, -22.53687], [-46.05572, -22.5369], [-46.05553, -22.53729], [-46.05517, -22.53749], [-46.05473, -22.53752], [-46.05429, -22.53796], [-46.05333, -22.53811], [-46.05308, -22.53839], [-46.05273, -22.5382], [-46.05212, -22.53828], [-46.05218, -22.53797], [-46.05182, -22.53789], [-46.05139, -22.5375], [-46.05088, -22.53769], [-46.04958, -22.53718], [-46.04959, -22.53653], [-46.049, -22.53685], [-46.04857, -22.53687], [-46.0484, -22.53674], [-46.04856, -22.53649], [-46.04809, -22.53647], [-46.04781, -22.53606], [-46.04769, -22.5365], [-46.04685, -22.53673], [-46.04668, -22.53696], [-46.04675, -22.5371], [-46.04644, -22.53717], [-46.04665, -22.53741], [-46.04585, -22.53852], [-46.04509, -22.53814], [-46.04404, -22.53914], [-46.04358, -22.53898], [-46.04306, -22.53913], [-46.04184, -22.53897], [-46.04161, -22.5394], [-46.04081, -22.53955], [-46.04051, -22.53996], [-46.04026, -22.53955], [-46.03951, -22.53916], [-46.03926, -22.5386], [-46.03881, -22.53851], [-46.03824, -22.53791], [-46.03734, -22.53749], [-46.03655, -22.53688], [-46.03626, -22.53707]]]}}, 
{"type": "Feature", "properties": {"CD_SETOR": "311060805000054", "CD_SIT": "3", "NM_DIST": "Cambuí", "NM_SUBDIST": null}, "geometry": {"type": "Polygon", "coordinates": [[[-46.05654, -22.55478], [-46.05616, -22.55446], [-46.05605, -22.55401], [-46.05661, -22.55294], [-46.0573, -22.55211], [-46.05733, -22.55163], [-46.05696, -22.5507], [-46.05525, -22.54869], [-46.05387, -22.54826], [-46.05334, -22.54852], [-46.05233, -22.54817], [-46.05118, -22.54726], [-46.05106, -22.54678], [-46.0497, -22.54627], [-46.04943, -22.5466], [-46.04835, -22.54731], [-46.04773, -22.54678], [-46.0472, -22.54679], [-46.04658, -22.5463], [-46.04558, -22.54604], [-46.04548, -22.54572], [-46.04591, -22.54519], [-46.04798, -22.54314], [-46.04629, -22.54268], [-46.04415, -22.54178], [-46.04313, -22.54194], [-46.04257, -22.54278], [-46.04201, -22.54313], [-46.04003, -22.5417], [-46.0387, -22.54022], [-46.03787, -22.53958], [-46.038, -22.54144], [-46.03821, -22.54195], [-46.0396, -22.54393], [-46.04084, -22.54531], [-46.04121, -22.546], [-46.04255, -22.54674], [-46.0439, -22.5479], [-46.04673, -22.54989], [-46.04727, -22.54938], [-46.04849, -22.54921], [-46.04996, -22.54939], [-46.05031, -22.54923], [-46.05075, -22.54942], [-46.05123, -22.55], [-46.05126, -22.55038], [-46.05177, -22.55094], [-46.05234, -22.55256], [-46.05172, -22.55373], [-46.05, -22.55504], [-46.05117, -22.55691], [-46.05078, -22.55744], [-46.05003, -22.55961], [-46.05129, -22.55918], [-46.05321, -22.55907], [-46.05453, -22.55861], [-46.05601, -22.55679], [-46.0556, -22.55607], [-46.05654, -22.55478]]]}}, 
{"type": "Feature", "properties": {"CD_SETOR": "311060805000056", "CD_SIT": "8", "NM_DIST": "Cambuí", "NM_SUBDIST": null}, "geometry": {"type": "Polygon", "coordinates": [[[-46.03893, -22.60781], [-46.03888, -22.60862], [-46.03909, -22.6093], [-46.03919, -22.61068], [-46.04013, -22.61177], [-46.04033, -22.61222], [-46.04038, -22.61338], [-46.04025, -22.61405], [-46.0397, -22.61482], [-46.03816, -22.61558], [-46.03711, -22.61664], [-46.03648, -22.61791], [-46.03612, -22.61926], [-46.03543, -22.62003], [-46.03509, -22.62068], [-46.03424, -22.62121], [-46.03392, -22.62158], [-46.03358, -22.62226], [-46.03321, -22.62365], [-46.03272, -22.62657], [-46.03278, -22.62796], [-46.03331, -22.62849], [-46.0335, -22.62893], [-46.03352, -22.63176], [-46.03407, -22.63305], [-46.03406, -22.63395], [-46.03537, -22.63471], [-46.03543, -22.63516], [-46.03507, -22.63598], [-46.03598, -22.63712], [-46.03577, -22.6383], [-46.03625, -22.63913], [-46.03575, -22.64041], [-46.03641, -22.6411], [-46.03651, -22.64156], [-46.03634, -22.64247], [-46.03687, -22.64337], [-46.037, -22.64458], [-46.03744, -22.64521], [-46.03756, -22.64618], [-46.03782, -22.64658], [-46.03874, -22.64696], [-46.03894, -22.64742], [-46.03907, -22.6486], [-46.03993, -22.64909], [-46.04002, -22.64955], [-46.03989, -22.65043], [-46.04019, -22.65159], [-46.04596, -22.65518], [-46.04788, -22.65592], [-46.05057, -22.65596], [-46.05139, -22.65616], [-46.05282, -22.65674], [-46.05351, -22.65747], [-46.05424, -22.6577], [-46.05532, -22.65786], [-46.05797, -22.65781], [-46.05916, -22.65819], [-46.05994, -22.6594], [-46.06182, -22.66104], [-46.06202, -22.6627], [-46.06241, -22.66333], [-46.06282, -22.66354], [-46.06293, -22.66449], [-46.06342, -22.66504], [-46.06329, -22.66572], [-46.06336, -22.66706], [-46.064, -22.66777], [-46.0639, -22.66823], [-46.06419, -22.66886], [-46.06337, -22.67016], [-46.06408, -22.66978], [-46.0645, -22.67005], [-46.06526, -22.67007], [-46.06561, -22.67023], [-46.06589, -22.66899], [-46.06688, -22.66846], [-46.06865, -22.66806], [-46.06891, -22.66777], [-46.06907, -22.66688], [-46.06984, -22.66688], [-46.07063, -22.66563], [-46.07101, -22.66388], [-46.07131, -22.6634], [-46.07133, -22.66285], [-46.07082, -22.66238], [-46.07087, -22.66173], [-46.07114, -22.66159], [-46.07184, -22.66183], [-46.07214, -22.66162], [-46.07236, -22.66125], [-46.07254, -22.65999], [-46.07359, -22.6589], [-46.07447, -22.65838], [-46.07431, -22.65786], [-46.07367, -22.65771], [-46.07356, -22.65702], [-46.0739, -22.65611], [-46.07387, -22.65536], [-46.07516, -22.65381], [-46.07527, -22.65231], [-46.07499, -22.65145], [-46.07527, -22.64958], [-46.07507, -22.64909], [-46.07531, -22.64864], [-46.07539, -22.64741], [-46.07595, -22.64619], [-46.07587, -22.6448], [-46.07499, -22.64355], [-46.07503, -22.64218], [-46.07552, -22.64055], [-46.07816, -22.63917], [-46.07911, -22.63825], [-46.079, -22.63754], [-46.07937, -22.63723], [-46.0783, -22.63025], [-46.07757, -22.62764], [-46.07524, -22.62357], [-46.07337, -22.62087], [-46.07181, -22.61945], [-46.07211, -22.62008], [-46.06873, -22.6179], [-46.06666, -22.61688], [-46.06626, -22.61997], [-46.06421, -22.61965], [-46.06287, -22.62148], [-46.06215, -22.62167], [-46.06189, -22.62216], [-46.06204, -22.62291], [-46.06035, -22.62506], [-46.05983, -22.62617], [-46.05924, -22.62621], [-46.05857, -22.62598], [-46.05845, -22.62567], [-46.05731, -22.62544], [-46.05707, -22.62511], [-46.05645, -22.62527], [-46.05607, -22.62476], [-46.05457, -22.62441], [-46.05358, -22.62344], [-46.0527, -22.62215], [-46.05304, -22.62195], [-46.05211, -22.62041], [-46.04959, -22.62076], [-46.04896, -22.62111], [-46.04796, -22.61925], [-46.04812, -22.61704], [-46.04613, -22.61726], [-46.04315, -22.61855], [-46.04287, -22.61827], [-46.04275, -22.6177], [-46.04298, -22.61728], [-46.04231, -22.6172], [-46.04255, -22.6167], [-46.04245, -22.61632], [-46.04256, -22.61561], [-46.0428, -22.61517], [-46.04444, -22.61345], [-46.04409, -22.61263], [-46.04375, -22.6111], [-46.04258, -22.61021], [-46.04246, -22.60909], [-46.04204, -22.60851], [-46.04201, -22.60778], [-46.04219, -22.6074], [-46.0421, -22.60717], [-46.04006, -22.6074], [-46.03945, -22.60715], [-46.03893, -22.60781]]]}}, 
{"type": "Feature", "properties": {"CD_SETOR": "311060805000057", "CD_SIT": "8", "NM_DIST": "Cambuí", "NM_SUBDIST": null}, "geometry": {"type": "Polygon", "coordinates": [[[-46.0797, -22.61443], [-46.0789, -22.61494], [-46.07816, -22.6149], [-46.07964, -22.61595], [-46.08038, -22.61679], [-46.0806, -22.61753], [-46.08034, -22.61808], [-46.07913, -22.619], [-46.07887, -22.6196], [-46.07895, -22.62004], [-46.07971, -22.62084], [-46.08023, -22.62096], [-46.08033, -22.62067], [-46.08142, -22.62088], [-46.08162, -22.62118], [-46.08236, -22.62164], [-46.0823, -22.62208], [-46.08253, -22.62207], [-46.0826, -22.62247], [-46.08367, -22.62277], [-46.08394, -22.62269], [-46.0847, -22.62209], [-46.08533, -22.62116], [-46.0864, -22.62052], [-46.08912, -22.62156], [-46.08979, -22.62195], [-46.09077, -22.62177], [-46.09182, -22.62118], [-46.093, -22.62175], [-46.09401, -22.62196], [-46.09506, -22.62169], [-46.09588, -22.62177], [-46.09742, -22.62245], [-46.09766, -22.62285], [-46.09845, -22.62329], [-46.09935, -22.62352], [-46.10019, -22.62333], [-46.10078, -22.62429], [-46.10176, -22.62473], [-46.10429, -22.62519], [-46.104, -22.62612], [-46.10434, -22.62667], [-46.10487, -22.62708], [-46.10584, -22.62726], [-46.1066, -22.62666], [-46.10679, -22.6268], [-46.10681, -22.62734], [-46.10701, -22.62769], [-46.10914, -22.62922], [-46.10927, -22.62964], [-46.11018, -22.62993], [-46.11075, -22.62965], [-46.11104, -22.62928], [-46.11133, -22.62927], [-46.11204, -22.63082], [-46.1135, -22.63103], [-46.11442, -22.63059], [-46.11461, -22.63144], [-46.11538, -22.63181], [-46.11568, -22.63219], [-46.11631, -22.63223], [-46.1165, -22.63155], [-46.11696, -22.63139], [-46.11731, -22.63228], [-46.11822, -22.63316], [-46.11871, -22.63316], [-46.11983, -22.63251], [-46.12063, -22.63268], [-46.12126, -22.6326], [-46.12369, -22.63304], [-46.12446, -22.63329], [-46.12501, -22.63372], [-46.12628, -22.6338], [-46.12684, -22.63449], [-46.12923, -22.63414], [-46.12955, -22.63402], [-46.13019, -22.63339], [-46.13046, -22.633], [-46.13046, -22.63251], [-46.13075, -22.63183], [-46.1304, -22.631], [-46.13027, -22.63003], [-46.12991, -22.62943], [-46.13052, -22.62918], [-46.13196, -22.62901], [-46.13325, -22.62864], [-46.1331, -22.62673], [-46.13326, -22.62614], [-46.1338, -22.62551], [-46.13667, -22.62412], [-46.13725, -22.62363], [-46.13797, -22.6227], [-46.13827, -22.62159], [-46.13752, -22.62182], [-46.1368, -22.62177], [-46.13636, -22.62205], [-46.13514, -22.62205], [-46.13496, -22.62156], [-46.13412, -22.62089], [-46.13433, -22.6201], [-46.13413, -22.61971], [-46.13417, -22.61922], [-46.13334, -22.61933], [-46.13275, -22.61885], [-46.13162, -22.61905], [-46.13147, -22.61936], [-46.12951, -22.61936], [-46.1292, -22.61981], [-46.12789, -22.6191], [-46.12803, -22.6188], [-46.128, -22.61837], [-46.12737, -22.61744], [-46.1269, -22.61753], [-46.12494, -22.61598], [-46.12473, -22.61543], [-46.1241, -22.61513], [-46.12381, -22.61533], [-46.1226, -22.61391], [-46.12114, -22.61332], [-46.12055, -22.61231], [-46.12015, -22.61212], [-46.11997, -22.6112], [-46.11901, -22.60978], [-46.11847, -22.60955], [-46.11765, -22.60947], [-46.11725, -22.60919], [-46.11663, -22.60922], [-46.11572, -22.60899], [-46.11431, -22.60896], [-46.1135, -22.60931], [-46.11284, -22.6091], [-46.11213, -22.60919], [-46.11158, -22.60983], [-46.11106, -22.61011], [-46.11067, -22.61018], [-46.11003, -22.61001], [-46.10861, -22.61048], [-46.10757, -22.61127], [-46.10644, -22.61163], [-46.10523, -22.61295], [-46.10459, -22.61333], [-46.10358, -22.61349], [-46.10242, -22.61347], [-46.10199, -22.6137], [-46.10131, -22.6135], [-46.10009, -22.61345], [-46.09895, -22.61308], [-46.09723, -22.61353], [-46.09492, -22.61467], [-46.09311, -22.61481], [-46.09149, -22.61462], [-46.08989, -22.61546], [-46.08925, -22.61559], [-46.08767, -22.61538], [-46.08684, -22.61566], [-46.08625, -22.61561], [-46.0846, -22.61463], [-46.08432, -22.6142], [-46.08419, -22.61308], [-46.08438, -22.61222], [-46.08346, -22.61179], [-46.0831, -22.61177], [-46.08185, -22.61233], [-46.08115, -22.61338], [-46.0797, -22.61443]]]}}, 
{"type": "Feature", "properties": {"CD_SETOR": "311060805000058", "CD_SIT": "1", "NM_DIST": "Cambuí", "NM_SUBDIST": null}, "geometry": {"type": "Polygon", "coordinates": [[[-46.06274, -22.61531], [-46.06325, -22.61574], [-46.06221, -22.61704], [-46.06173, -22.61671], [-46.06112, -22.61743], [-46.06207, -22.61814], [-46.06196, -22.61831], [-46.06134, -22.61857], [-46.06015, -22.61865], [-46.05964, -22.61895], [-46.06089, -22.61978], [-46.06215, -22.62167], [-46.06287, -22.62148], [-46.06421, -22.61965], [-46.06626, -22.61997], [-46.06666, -22.61688], [-46.06289, -22.61509], [-46.06274, -22.61531]]]}}, 
{"type": "Feature", "properties": {"CD_SETOR": "311060805000059", "CD_SIT": "1", "NM_DIST": "Cambuí", "NM_SUBDIST": null}, "geometry": {"type": "Polygon", "coordinates": [[[-46.05888, -22.61909], [-46.058, -22.61926], [-46.05748, -22.61909], [-46.05666, -22.61948], [-46.05802, -22.62175], [-46.05739, -22.62228], [-46.05713, -22.62222], [-46.05678, -22.62315], [-46.0572, -22.62328], [-46.05685, -22.62464], [-46.05725, -22.62501], [-46.05731, -22.62544], [-46.05845, -22.62567], [-46.05857, -22.62598], [-46.05924, -22.62621], [-46.05983, -22.62617], [-46.06035, -22.62506], [-46.06204, -22.62291], [-46.06189, -22.62216], [-46.06217, -22.6218], [-46.06089, -22.61978], [-46.06035, -22.61931], [-46.05964, -22.61895], [-46.05888, -22.61909]]]}}, 
{"type": "Feature", "properties": {"CD_SETOR": "311060805000060", "CD_SIT": "1", "NM_DIST": "Cambuí", "NM_SUBDIST": null}, "geometry": {"type": "Polygon", "coordinates": [[[-46.0572, -22.61335], [-46.05702, -22.61407], [-46.05552, -22.61681], [-46.05637, -22.61732], [-46.05782, -22.61509], [-46.05785, -22.61278], [-46.0574, -22.61276], [-46.05741, -22.61334], [-46.0572, -22.61335]]]}}, 
{"type": "Feature", "properties": {"CD_SETOR": "311060805000061", "CD_SIT": "1", "NM_DIST": "Cambuí", "NM_SUBDIST": null}, "geometry": {"type": "Polygon", "coordinates": [[[-46.05612, -22.61437], [-46.05531, -22.61605], [-46.05582, -22.61628], [-46.05702, -22.61407], [-46.0572, -22.61335], [-46.05657, -22.61334], [-46.05612, -22.61437]]]}}, 
{"type": "Feature", "properties": {"CD_SETOR": "311060805000062", "CD_SIT": "1", "NM_DIST": "Cambuí", "NM_SUBDIST": null}, "geometry": {"type": "Polygon", "coordinates": [[[-46.056, -22.61966], [-46.05492, -22.62256], [-46.05678, -22.62315], [-46.05713, -22.62222], [-46.05739, -22.62228], [-46.05802, -22.62175], [-46.05666, -22.61948], [-46.05654, -22.61964], [-46.056, -22.61966]]]}}, 
{"type": "Feature", "properties": {"CD_SETOR": "311060805000063", "CD_SIT": "1", "NM_DIST": "Cambuí", "NM_SUBDIST": null}, "geometry": {"type": "Polygon", "coordinates": [[[-46.05227, -22.62048], [-46.05334, -22.62194], [-46.05492, -22.62256], [-46.056, -22.61966], [-46.05511, -22.61946], [-46.05478, -22.62016], [-46.05406, -22.62054], [-46.05294, -22.62061], [-46.05227, -22.62048]]]}}, 
{"type": "Feature", "properties": {"CD_SETOR": "311060805000064", "CD_SIT": "1", "NM_DIST": "Cambuí", "NM_SUBDIST": null}, "geometry": {"type": "Polygon", "coordinates": [[[-46.06529, -22.61477], [-46.06657, -22.61569], [-46.06873, -22.6179], [-46.07211, -22.62008], [-46.07181, -22.61945], [-46.06685, -22.61465], [-46.06599, -22.61431], [-46.06471, -22.61318], [-46.06249, -22.613], [-46.06529, -22.61477]]]}}, 
{"type": "Feature", "properties": {"CD_SETOR": "311060805000065", "CD_SIT": "1", "NM_DIST": "Cambuí", "NM_SUBDIST": null}, "geometry": {"type": "Polygon", "coordinates": [[[-46.06492, -22.6153], [-46.06451, -22.61588], [-46.06459, -22.61595], [-46.06609, -22.61651], [-46.06703, -22.61712], [-46.06873, -22.6179], [-46.06657, -22.61569], [-46.06529, -22.61477], [-46.06492, -22.6153]]]}}, 
{"type": "Feature", "properties": {"CD_SETOR": "311060805000066", "CD_SIT": "1", "NM_DIST": "Cambuí", "NM_SUBDIST": null}, "geometry": {"type": "Polygon", "coordinates": [[[-46.04661, -22.59887], [-46.04747, -22.5982], [-46.04767, -22.59835], [-46.04791, -22.59908], [-46.05007, -22.59909], [-46.05147, -22.59833], [-46.05264, -22.59917], [-46.05327, -22.59995], [-46.0545, -22.59884], [-46.05505, -22.59861], [-46.05444, -22.59716], [-46.05365, -22.5963], [-46.05341, -22.59627], [-46.05259, -22.59676], [-46.05163, -22.59487], [-46.05123, -22.59349], [-46.04975, -22.59379], [-46.04853, -22.59465], [-46.04661, -22.59887]]]}}, 
{"type": "Feature", "properties": {"CD_SETOR": "311060805000067", "CD_SIT": "2", "NM_DIST": "Cambuí", "NM_SUBDIST": null}, "geometry": {"type": "Polygon", "coordinates": [[[-46.04661, -22.59887], [-46.04342, -22.60627], [-46.04325, -22.60712], [-46.04476, -22.60708], [-46.046, -22.60589], [-46.04689, -22.60538], [-46.04935, -22.60475], [-46.05004, -22.60378], [-46.0513, -22.60387], [-46.05185, -22.60264], [-46.05226, -22.60236], [-46.05264, -22.60256], [-46.05317, -22.60211], [-46.0522, -22.60082], [-46.05327, -22.59995], [-46.05264, -22.59917], [-46.05153, -22.59834], [-46.05007, -22.59909], [-46.04791, -22.59908], [-46.04767, -22.59835], [-46.04747, -22.5982], [-46.04661, -22.59887]]]}}, 
{"type": "Feature", "properties": {"CD_SETOR": "311060805000068", "CD_SIT": "1", "NM_DIST": "Cambuí", "NM_SUBDIST": null}, "geometry": {"type": "Polygon", "coordinates": [[[-46.07652, -22.61034], [-46.0767, -22.61152], [-46.07767, -22.61136], [-46.07776, -22.61189], [-46.07779, -22.6128], [-46.07729, -22.61302], [-46.07783, -22.61342], [-46.07698, -22.61336], [-46.07816, -22.6149], [-46.07849, -22.61501], [-46.07912, -22.61485], [-46.0797, -22.61443], [-46.07896, -22.61379], [-46.07961, -22.61146], [-46.07977, -22.61161], [-46.0801, -22.61121], [-46.07988, -22.61104], [-46.08021, -22.61061], [-46.07908, -22.61074], [-46.07872, -22.61038], [-46.07843, -22.6104], [-46.07882, -22.60956], [-46.07882, -22.60908], [-46.0779, -22.60926], [-46.07652, -22.61034]]]}}, 
{"type": "Feature", "properties": {"CD_SETOR": "311060805000069", "CD_SIT": "1", "NM_DIST": "Cambuí", "NM_SUBDIST": null}, "geometry": {"type": "Polygon", "coordinates": [[[-46.07384, -22.61111], [-46.07609, -22.61294], [-46.07698, -22.61336], [-46.07783, -22.61342], [-46.07729, -22.61302], [-46.07772, -22.61291], [-46.07784, -22.61265], [-46.07767, -22.61136], [-46.0767, -22.61152], [-46.07652, -22.61034], [-46.07564, -22.61094], [-46.07459, -22.61121], [-46.07384, -22.61111]]]}}, 
{"type": "Feature", "properties": {"CD_SETOR": "311060805000070", "CD_SIT": "1", "NM_DIST": "Cambuí", "NM_SUBDIST": null}, "geometry": {"type": "Polygon", "coordinates": [[[-46.05979, -22.60884], [-46.05986, -22.61274], [-46.06471, -22.61318], [-46.06516, -22.61361], [-46.06524, -22.6132], [-46.06103, -22.60895], [-46.06073, -22.6092], [-46.06052, -22.60881], [-46.05979, -22.60884]]]}}, 
{"type": "Feature", "properties": {"CD_SETOR": "311060805000071", "CD_SIT": "1", "NM_DIST": "Cambuí", "NM_SUBDIST": null}, "geometry": {"type": "Polygon", "coordinates": [[[-46.05892, -22.61096], [-46.05893, -22.61278], [-46.05986, -22.61274], [-46.05979, -22.60884], [-46.05888, -22.60884], [-46.05892, -22.61096]]]}}, 
{"type": "Feature", "properties": {"CD_SETOR": "311060805000072", "CD_SIT": "1", "NM_DIST": "Cambuí", "NM_SUBDIST": null}, "geometry": {"type": "Polygon", "coordinates": [[[-46.05445, -22.60548], [-46.05459, -22.60629], [-46.05537, -22.60618], [-46.05545, -22.60682], [-46.05635, -22.60672], [-46.05578, -22.60511], [-46.05479, -22.60434], [-46.05433, -22.60448], [-46.05445, -22.60548]]]}}, 
{"type": "Feature", "properties": {"CD_SETOR": "311060805000073", "CD_SIT": "1", "NM_DIST": "Cambuí", "NM_SUBDIST": null}, "geometry": {"type": "Polygon", "coordinates": [[[-46.05459, -22.60629], [-46.05469, -22.60692], [-46.05339, -22.60708], [-46.0548, -22.60751], [-46.05497, -22.6084], [-46.05571, -22.60824], [-46.05626, -22.60785], [-46.05635, -22.60672], [-46.05545, -22.60682], [-46.05537, -22.60618], [-46.05459, -22.60629]]]}}, 
{"type": "Feature", "properties": {"CD_SETOR": "311060805000074", "CD_SIT": "1", "NM_DIST": "Cambuí", "NM_SUBDIST": null}, "geometry": {"type": "Polygon", "coordinates": [[[-46.06492, -22.6153], [-46.06529, -22.61477], [-46.06249, -22.613], [-46.06264, -22.61297], [-46.06041, -22.61276], [-46.0603, -22.61319], [-46.06176, -22.61408], [-46.06208, -22.61361], [-46.06492, -22.6153]]]}}, 
{"type": "Feature", "properties": {"CD_SETOR": "311060805000075", "CD_SIT": "1", "NM_DIST": "Cambuí", "NM_SUBDIST": null}, "geometry": {"type": "Polygon", "coordinates": [[[-46.05988, -22.61381], [-46.06051, -22.61384], [-46.06053, -22.61403], [-46.06274, -22.61531], [-46.06289, -22.61509], [-46.06451, -22.61588], [-46.06492, -22.6153], [-46.06208, -22.61361], [-46.06176, -22.61408], [-46.0603, -22.61319], [-46.06041, -22.61276], [-46.05986, -22.61274], [-46.05988, -22.61381]]]}}, 
{"type": "Feature", "properties": {"CD_SETOR": "311060805000076", "CD_SIT": "1", "NM_DIST": "Cambuí", "NM_SUBDIST": null}, "geometry": {"type": "Polygon", "coordinates": [[[-46.05241, -22.60595], [-46.05445, -22.60548], [-46.05433, -22.60448], [-46.05479, -22.60434], [-46.05301, -22.6029], [-46.05263, -22.60323], [-46.05241, -22.60595]]]}}, 
{"type": "Feature", "properties": {"CD_SETOR": "311060805000077", "CD_SIT": "1", "NM_DIST": "Cambuí", "NM_SUBDIST": null}, "geometry": {"type": "Polygon", "coordinates": [[[-46.0513, -22.60387], [-46.0514, -22.60399], [-46.05101, -22.60456], [-46.05055, -22.6061], [-46.05232, -22.60647], [-46.05263, -22.60323], [-46.05301, -22.6029], [-46.05237, -22.60235], [-46.05214, -22.60241], [-46.05177, -22.60272], [-46.05158, -22.60347], [-46.0513, -22.60387]]]}}, 
{"type": "Feature", "properties": {"CD_SETOR": "311060805000078", "CD_SIT": "1", "NM_DIST": "Cambuí", "NM_SUBDIST": null}, "geometry": {"type": "Polygon", "coordinates": [[[-46.06281, -22.60581], [-46.06335, -22.60651], [-46.0645, -22.6058], [-46.06472, -22.60615], [-46.06664, -22.60522], [-46.06628, -22.60496], [-46.06594, -22.60417], [-46.06504, -22.60443], [-46.06281, -22.60581]]]}}, 
{"type": "Feature", "properties": {"CD_SETOR": "311060805000079", "CD_SIT": "1", "NM_DIST": "Cambuí", "NM_SUBDIST": null}, "geometry": {"type": "Polygon", "coordinates": [[[-46.06335, -22.60651], [-46.06349, -22.60663], [-46.06446, -22.60638], [-46.06614, -22.60662], [-46.06729, -22.60716], [-46.06822, -22.60785], [-46.06875, -22.60676], [-46.06664, -22.60522], [-46.06472, -22.60615], [-46.0645, -22.6058], [-46.06335, -22.60651]]]}}, 
{"type": "Feature", "properties": {"CD_SETOR": "311060805000080", "CD_SIT": "1", "NM_DIST": "Cambuí", "NM_SUBDIST": null}, "geometry": {"type": "Polygon", "coordinates": [[[-46.05445, -22.61182], [-46.0566, -22.61187], [-46.05676, -22.61003], [-46.05418, -22.61003], [-46.05445, -22.61182]]]}}, 
{"type": "Feature", "properties": {"CD_SETOR": "311060805000081", "CD_SIT": "1", "NM_DIST": "Cambuí", "NM_SUBDIST": null}, "geometry": {"type": "Polygon", "coordinates": [[[-46.05418, -22.61344], [-46.05612, -22.61437], [-46.05657, -22.61334], [-46.0566, -22.61187], [-46.05445, -22.61182], [-46.05418, -22.61344]]]}}, 
{"type": "Feature", "properties": {"CD_SETOR": "311060805000082", "CD_SIT": "1", "NM_DIST": "Cambuí", "NM_SUBDIST": null}, "geometry": {"type": "Polygon", "coordinates": [[[-46.05497, -22.6084], [-46.05326, -22.60899], [-46.05375, -22.61181], [-46.05357, -22.61315], [-46.05407, -22.61342], [-46.05424, -22.61329], [-46.05445, -22.61186], [-46.05418, -22.61003], [-46.05676, -22.61003], [-46.05693, -22.60886], [-46.0573, -22.60886], [-46.05634, -22.60741], [-46.05626, -22.60785], [-46.056, -22.60806], [-46.05497, -22.6084]]]}}, 
{"type": "Feature", "properties": {"CD_SETOR": "311060805000083", "CD_SIT": "1", "NM_DIST": "Cambuí", "NM_SUBDIST": null}, "geometry": {"type": "Polygon", "coordinates": [[[-46.0514, -22.61111], [-46.05159, -22.6112], [-46.05108, -22.61173], [-46.05291, -22.61325], [-46.05307, -22.61328], [-46.05322, -22.61298], [-46.05357, -22.61315], [-46.05375, -22.61181], [-46.05326, -22.60899], [-46.05209, -22.60945], [-46.05186, -22.61002], [-46.05134, -22.61055], [-46.0514, -22.61111]]]}}, 
{"type": "Feature", "properties": {"CD_SETOR": "311060805000084", "CD_SIT": "1", "NM_DIST": "Cambuí", "NM_SUBDIST": null}, "geometry": {"type": "Polygon", "coordinates": [[[-46.05717, -22.61784], [-46.05888, -22.61909], [-46.05964, -22.61895], [-46.06015, -22.61865], [-46.05787, -22.617], [-46.05717, -22.61784]]]}}, 
{"type": "Feature", "properties": {"CD_SETOR": "311060805000085", "CD_SIT": "1", "NM_DIST": "Cambuí", "NM_SUBDIST": null}, "geometry": {"type": "Polygon", "coordinates": [[[-46.05562, -22.61965], [-46.05654, -22.61964], [-46.0571, -22.61919], [-46.05748, -22.61909], [-46.058, -22.61926], [-46.05888, -22.61909], [-46.05717, -22.61784], [-46.05562, -22.61965]]]}}, 
{"type": "Feature", "properties": {"CD_SETOR": "311060805000086", "CD_SIT": "1", "NM_DIST": "Cambuí", "NM_SUBDIST": null}, "geometry": {"type": "Polygon", "coordinates": [[[-46.05307, -22.61328], [-46.05283, -22.61392], [-46.05216, -22.61445], [-46.05158, -22.6155], [-46.05151, -22.61686], [-46.05315, -22.61683], [-46.0542, -22.61703], [-46.05469, -22.61579], [-46.05531, -22.61605], [-46.05612, -22.61437], [-46.05322, -22.61298], [-46.05307, -22.61328]]]}}, 
{"type": "Feature", "properties": {"CD_SETOR": "311060805000087", "CD_SIT": "1", "NM_DIST": "Cambuí", "NM_SUBDIST": null}, "geometry": {"type": "Polygon", "coordinates": [[[-46.05151, -22.61686], [-46.05145, -22.61956], [-46.05163, -22.61983], [-46.05227, -22.62048], [-46.05266, -22.62056], [-46.05406, -22.62054], [-46.0546, -22.62034], [-46.05511, -22.61946], [-46.05496, -22.61789], [-46.05582, -22.61628], [-46.05469, -22.61579], [-46.0542, -22.61703], [-46.05315, -22.61683], [-46.05151, -22.61686]]]}}, 
{"type": "Feature", "properties": {"CD_SETOR": "311060805000088", "CD_SIT": "3", "NM_DIST": "Cambuí", "NM_SUBDIST": null}, "geometry": {"type": "Polygon", "coordinates": [[[-46.0487, -22.54374], [-46.04957, -22.54548], [-46.05021, -22.54605], [-46.05136, -22.54649], [-46.05148, -22.54638], [-46.05234, -22.547], [-46.05225, -22.54709], [-46.05409, -22.54827], [-46.05503, -22.54855], [-46.0551, -22.54827], [-46.05554, -22.54785], [-46.05563, -22.54703], [-46.05513, -22.54577], [-46.05542, -22.54495], [-46.05331, -22.54443], [-46.05047, -22.54421], [-46.04881, -22.54367], [-46.0487, -22.54374]]]}}, 
{"type": "Feature", "properties": {"CD_SETOR": "311060805000089", "CD_SIT": "3", "NM_DIST": "Cambuí", "NM_SUBDIST": null}, "geometry": {"type": "Polygon", "coordinates": [[[-46.05503, -22.54855], [-46.05356, -22.54798], [-46.05148, -22.54638], [-46.05136, -22.54649], [-46.04997, -22.54591], [-46.04957, -22.54548], [-46.04846, -22.54332], [-46.04798, -22.54314], [-46.04591, -22.54519], [-46.04543, -22.54588], [-46.04658, -22.5463], [-46.0472, -22.54679], [-46.04773, -22.54678], [-46.04835, -22.54731], [-46.04943, -22.5466], [-46.0497, -22.54627], [-46.05106, -22.54678], [-46.05118, -22.54726], [-46.05233, -22.54817], [-46.05334, -22.54852], [-46.05387, -22.54826], [-46.05503, -22.54855]]]}}, 
{"type": "Feature", "properties": {"CD_SETOR": "311060805000090", "CD_SIT": "8", "NM_DIST": "Cambuí", "NM_SUBDIST": null}, "geometry": {"type": "Polygon", "coordinates": [[[-46.0188, -22.56957], [-46.01978, -22.57107], [-46.02033, -22.57358], [-46.02098, -22.57437], [-46.02106, -22.57475], [-46.02031, -22.57673], [-46.01907, -22.57815], [-46.01809, -22.5797], [-46.01802, -22.58004], [-46.01821, -22.58127], [-46.01808, -22.58265], [-46.01834, -22.58328], [-46.01845, -22.58461], [-46.01809, -22.58599], [-46.01957, -22.58505], [-46.02081, -22.58493], [-46.02128, -22.58517], [-46.02166, -22.58579], [-46.02172, -22.58627], [-46.0202, -22.5882], [-46.02018, -22.58894], [-46.02032, -22.58913], [-46.02077, -22.58937], [-46.02175, -22.58953], [-46.02282, -22.5903], [-46.02449, -22.59264], [-46.02733, -22.59251], [-46.02781, -22.59274], [-46.02893, -22.59391], [-46.02968, -22.59511], [-46.03202, -22.59722], [-46.03251, -22.59783], [-46.03278, -22.59852], [-46.03329, -22.60284], [-46.03361, -22.60401], [-46.03398, -22.60465], [-46.03495, -22.60538], [-46.0365, -22.60581], [-46.03896, -22.60539], [-46.04018, -22.60546], [-46.04051, -22.60578], [-46.04052, -22.60623], [-46.0394, -22.60683], [-46.03893, -22.60781], [-46.03945, -22.60715], [-46.04006, -22.6074], [-46.04146, -22.60716], [-46.04325, -22.60712], [-46.04342, -22.60627], [-46.04853, -22.59465], [-46.04975, -22.59379], [-46.05123, -22.59349], [-46.05163, -22.59487], [-46.05259, -22.59676], [-46.05341, -22.59627], [-46.05365, -22.5963], [-46.05375, -22.59594], [-46.05444, -22.59541], [-46.05624, -22.59463], [-46.05563, -22.59366], [-46.04626, -22.58199], [-46.04516, -22.57971], [-46.04245, -22.57561], [-46.0422, -22.57216], [-46.04181, -22.57216], [-46.04091, -22.57253], [-46.04062, -22.5728], [-46.04059, -22.57162], [-46.04003, -22.57094], [-46.03983, -22.57014], [-46.03901, -22.56824], [-46.03864, -22.56781], [-46.03855, -22.56728], [-46.03821, -22.56662], [-46.03606, -22.56389], [-46.036, -22.56296], [-46.0364, -22.56239], [-46.0365, -22.56183], [-46.03626, -22.56133], [-46.03608, -22.56106], [-46.03485, -22.5604], [-46.03503, -22.55998], [-46.03461, -22.55925], [-46.03435, -22.55836], [-46.03368, -22.55803], [-46.03299, -22.55705], [-46.03097, -22.55492], [-46.02992, -22.55553], [-46.02891, -22.55695], [-46.02913, -22.5578], [-46.02856, -22.55865], [-46.02872, -22.55889], [-46.02849, -22.55896], [-46.02845, -22.55932], [-46.028, -22.55972], [-46.02795, -22.56012], [-46.02772, -22.5603], [-46.02773, -22.56115], [-46.02695, -22.56168], [-46.02604, -22.56298], [-46.02611, -22.5633], [-46.02586, -22.56399], [-46.02608, -22.56435], [-46.02582, -22.56467], [-46.02582, -22.56529], [-46.02546, -22.56589], [-46.0244, -22.56711], [-46.02426, -22.56711], [-46.02424, -22.56729], [-46.02301, -22.56793], [-46.02136, -22.56798], [-46.02119, -22.56812], [-46.02057, -22.56727], [-46.01975, -22.5674], [-46.01935, -22.568], [-46.01949, -22.56818], [-46.01902, -22.56871], [-46.01893, -22.56899], [-46.01909, -22.56941], [-46.0188, -22.56957]], [[-46.03872, -22.57419], [-46.03927, -22.5738], [-46.03992, -22.57454], [-46.0401, -22.57621], [-46.03984, -22.57678], [-46.0403, -22.57802], [-46.04173, -22.57871], [-46.03961, -22.5802], [-46.04001, -22.58135], [-46.0398, -22.58221], [-46.03946, -22.58226], [-46.03904, -22.58222], [-46.0381, -22.57961], [-46.03772, -22.57961], [-46.03744, -22.57982], [-46.0374, -22.58042], [-46.03698, -22.58062], [-46.03687, -22.57789], [-46.03715, -22.57716], [-46.03653, -22.57671], [-46.03601, -22.57742], [-46.03565, -22.57695], [-46.03536, -22.57776], [-46.03507, -22.57779], [-46.03553, -22.57588], [-46.03508, -22.57574], [-46.03561, -22.57517], [-46.03636, -22.57477], [-46.03642, -22.57426], [-46.03838, -22.57446], [-46.03872, -22.57419]]]}}, 
{"type": "Feature", "properties": {"CD_SETOR": "311060805000091", "CD_SIT": "5", "NM_DIST": "Cambuí", "NM_SUBDIST": null}, "geometry": {"type": "Polygon", "coordinates": [[[-46.03872, -22.57419], [-46.03838, -22.57446], [-46.03642, -22.57426], [-46.03636, -22.57477], [-46.03561, -22.57517], [-46.03508, -22.57574], [-46.03553, -22.57588], [-46.03507, -22.57779], [-46.03536, -22.57776], [-46.03565, -22.57695], [-46.03601, -22.57742], [-46.03653, -22.57671], [-46.03715, -22.57716], [-46.03687, -22.57789], [-46.03698, -22.58062], [-46.0374, -22.58042], [-46.03744, -22.57982], [-46.03772, -22.57961], [-46.0381, -22.57961], [-46.03904, -22.58222], [-46.03946, -22.58226], [-46.0398, -22.58221], [-46.04001, -22.58135], [-46.03961, -22.5802], [-46.04173, -22.57871], [-46.0403, -22.57802], [-46.03984, -22.57678], [-46.0401, -22.57621], [-46.03992, -22.57454], [-46.03927, -22.5738], [-46.03872, -22.57419]]]}}, 
{"type": "Feature", "properties": {"CD_SETOR": "311060805000092", "CD_SIT": "1", "NM_DIST": "Cambuí", "NM_SUBDIST": null}, "geometry": {"type": "Polygon", "coordinates": [[[-46.06173, -22.59914], [-46.06085, -22.60102], [-46.06037, -22.60269], [-46.0604, -22.60306], [-46.05982, -22.60327], [-46.05891, -22.6033], [-46.05946, -22.60478], [-46.05988, -22.60533], [-46.06012, -22.60543], [-46.06059, -22.60526], [-46.06163, -22.60556], [-46.06185, -22.60575], [-46.06193, -22.60621], [-46.06244, -22.60539], [-46.06281, -22.60581], [-46.06545, -22.6043], [-46.06594, -22.60417], [-46.06622, -22.60488], [-46.06653, -22.60483], [-46.0664, -22.60365], [-46.06168, -22.60442], [-46.06167, -22.60317], [-46.06211, -22.60241], [-46.06276, -22.60173], [-46.06422, -22.60087], [-46.06488, -22.59954], [-46.065, -22.59899], [-46.06469, -22.59835], [-46.06333, -22.59826], [-46.06257, -22.59838], [-46.06173, -22.59914]]]}}, 
{"type": "Feature", "properties": {"CD_SETOR": "311060805000093", "CD_SIT": "1", "NM_DIST": "Cambuí", "NM_SUBDIST": null}, "geometry": {"type": "Polygon", "coordinates": [[[-46.06103, -22.60895], [-46.06179, -22.60764], [-46.0634, -22.60656], [-46.06244, -22.60539], [-46.06193, -22.60621], [-46.06185, -22.60575], [-46.06163, -22.60556], [-46.06059, -22.60526], [-46.05999, -22.60542], [-46.05946, -22.60478], [-46.06103, -22.60895]]]}}, 
{"type": "Feature", "properties": {"CD_SETOR": "311060805000094", "CD_SIT": "1", "NM_DIST": "Cambuí", "NM_SUBDIST": null}, "geometry": {"type": "Polygon", "coordinates": [[[-46.0522, -22.6144], [-46.05283, -22.61392], [-46.05307, -22.61328], [-46.05108, -22.61173], [-46.05159, -22.6112], [-46.05152, -22.6111], [-46.04999, -22.61223], [-46.04935, -22.61303], [-46.04964, -22.61354], [-46.0522, -22.6144]]]}}, 
{"type": "Feature", "properties": {"CD_SETOR": "311060805000095", "CD_SIT": "2", "NM_DIST": "Cambuí", "NM_SUBDIST": null}, "geometry": {"type": "Polygon", "coordinates": [[[-46.04444, -22.61345], [-46.0428, -22.61517], [-46.04256, -22.61561], [-46.04245, -22.61632], [-46.04255, -22.6167], [-46.04231, -22.6172], [-46.04298, -22.61728], [-46.04274, -22.61791], [-46.04315, -22.61855], [-46.04613, -22.61726], [-46.04812, -22.61704], [-46.04841, -22.61632], [-46.0515, -22.61609], [-46.05158, -22.6155], [-46.0522, -22.6144], [-46.04964, -22.61354], [-46.04935, -22.61303], [-46.04999, -22.61223], [-46.05152, -22.6111], [-46.04999, -22.61198], [-46.04929, -22.61211], [-46.04884, -22.6119], [-46.04817, -22.61103], [-46.04785, -22.61083], [-46.04726, -22.61081], [-46.04643, -22.61136], [-46.04444, -22.61345]]]}}, 
{"type": "Feature", "properties": {"CD_SETOR": "311060805000096", "CD_SIT": "1", "NM_DIST": "Cambuí", "NM_SUBDIST": null}, "geometry": {"type": "Polygon", "coordinates": [[[-46.04812, -22.61704], [-46.04796, -22.61925], [-46.04896, -22.62111], [-46.04959, -22.62076], [-46.05222, -22.62041], [-46.05145, -22.61956], [-46.0515, -22.61609], [-46.04841, -22.61632], [-46.04812, -22.61704]]]}}, 
{"type": "Feature", "properties": {"CD_SETOR": "311060805000097", "CD_SIT": "1", "NM_DIST": "Cambuí", "NM_SUBDIST": null}, "geometry": {"type": "Polygon", "coordinates": [[[-46.04713, -22.60529], [-46.04727, -22.60545], [-46.04641, -22.60587], [-46.04733, -22.60707], [-46.04832, -22.60607], [-46.04877, -22.60611], [-46.04995, -22.60751], [-46.05148, -22.60631], [-46.05055, -22.6061], [-46.05101, -22.60456], [-46.0514, -22.60399], [-46.0513, -22.60387], [-46.05004, -22.60378], [-46.04935, -22.60475], [-46.04713, -22.60529]]]}}, 
{"type": "Feature", "properties": {"CD_SETOR": "311060805000098", "CD_SIT": "2", "NM_DIST": "Cambuí", "NM_SUBDIST": null}, "geometry": {"type": "Polygon", "coordinates": [[[-46.04325, -22.60712], [-46.0421, -22.60717], [-46.04219, -22.6074], [-46.04201, -22.60778], [-46.04204, -22.60851], [-46.04246, -22.60909], [-46.04258, -22.61021], [-46.04375, -22.6111], [-46.04409, -22.61263], [-46.04444, -22.61345], [-46.04643, -22.61136], [-46.04726, -22.61081], [-46.04785, -22.61083], [-46.04817, -22.61103], [-46.04912, -22.61208], [-46.04999, -22.61198], [-46.0514, -22.61111], [-46.05134, -22.61055], [-46.05186, -22.61002], [-46.05217, -22.60936], [-46.05369, -22.60875], [-46.05321, -22.60701], [-46.05265, -22.60685], [-46.05196, -22.60639], [-46.05148, -22.60631], [-46.04995, -22.60751], [-46.04877, -22.60611], [-46.04832, -22.60607], [-46.04733, -22.60707], [-46.04641, -22.60587], [-46.04727, -22.60545], [-46.04713, -22.60529], [-46.046, -22.60589], [-46.04476, -22.60708], [-46.04325, -22.60712]]]}}]}