{"type": "FeatureCollection", "features": [
{"type": "Feature", "properties": {"CD_SETOR": "312790905000001", "CD_SIT": "1", "NM_DIST": "Grupiara", "NM_SUBDIST": null}, "geometry": {"type": "Polygon", "coordinates": [[[-47.72084, -18.49738], [-47.72211, -18.49624], [-47.723, -18.49714], [-47.72336, -18.49645], [-47.72387, -18.49686], [-47.72468, -18.49616], [-47.72498, -18.4954], [-47.72606, -18.49525], [-47.72685, -18.49461], [-47.72719, -18.49411], [-47.7276, -18.49403], [-47.72783, -18.49324], [-47.72865, -18.49295], [-47.7287, -18.4928], [-47.72857, -18.49186], [-47.72848, -18.49171], [-47.72813, -18.49173], [-47.72798, -18.49134], [-47.72833, -18.49127], [-47.72876, -18.49093], [-47.72908, -18.48999], [-47.72893, -18.48953], [-47.72917, -18.4893], [-47.72861, -18.48931], [-47.72848, -18.48867], [-47.72813, -18.4889], [-47.7274, -18.48883], [-47.72697, -18.48935], [-47.72633, -18.48946], [-47.72613, -18.48974], [-47.72627, -18.49062], [-47.72615, -18.49098], [-47.7254, -18.49142], [-47.72505, -18.49051], [-47.72472, -18.49054], [-47.7245, -18.49106], [-47.72414, -18.49079], [-47.72424, -18.49016], [-47.72383, -18.48996], [-47.72315, -18.4901], [-47.72271, -18.48956], [-47.72282, -18.48906], [-47.72213, -18.48914], [-47.72178, -18.48878], [-47.7215, -18.48897], [-47.72095, -18.48972], [-47.72096, -18.48995], [-47.72149, -18.49016], [-47.72136, -18.49066], [-47.72082, -18.49111], [-47.72113, -18.49149], [-47.72165, -18.49134], [-47.72177, -18.49169], [-47.72157, -18.49255], [-47.72126, -18.49267], [-47.721, -18.49328], [-47.72079, -18.49336], [-47.72055, -18.49292], [-47.72013, -18.49322], [-47.71996, -18.49356], [-47.71924, -18.49342], [-47.71892, -18.49363], [-47.7197, -18.49572], [-47.72052, -18.49628], [-47.72062, -18.49648], [-47.72049, -18.49696], [-47.72084, -18.49738]]]}}, 
{"type": "Feature", "properties": {"CD_SETOR": "312790905000002", "CD_SIT": "1", "NM_DIST": "Grupiara", "NM_SUBDIST": null}, "geometry": {"type": "Polygon", "coordinates": [[[-47.72084, -18.49738], [-47.72136, -18.4979], [-47.72151, -18.4984], [-47.7213, -18.49897], [-47.7214, -18.49945], [-47.72119, -18.49977], [-47.72133, -18.50006], [-47.72125, -18.50067], [-47.72135, -18.50086], [-47.72153, -18.50079], [-47.72132, -18.50193], [-47.72165, -18.50246], [-47.72067, -18.50637], [-47.72203, -18.50735], [-47.72319, -18.50665], [-47.7239, -18.5054], [-47.72398, -18.50371], [-47.72474, -18.5017], [-47.72477, -18.50065], [-47.72427, -18.4992], [-47.7245, -18.49834], [-47.72518, -18.49773], [-47.72671, -18.49578], [-47.72794, -18.49483], [-47.72844, -18.49466], [-47.72827, -18.49449], [-47.72797, -18.49455], [-47.7276, -18.49403], [-47.72719, -18.49411], [-47.72622, -18.49516], [-47.72569, -18.49538], [-47.72498, -18.4954], [-47.72468, -18.49616], [-47.72387, -18.49686], [-47.72336, -18.49645], [-47.723, -18.49714], [-47.72211, -18.49624], [-47.72084, -18.49738]]]}}, 
{"type": "Feature", "properties": {"CD_SETOR": "312790905000003", "CD_SIT": "8", "NM_DIST": "Grupiara", "NM_SUBDIST": null}, "geometry": {"type": "Polygon", "coordinates": [[[-47.76949, -18.4183], [-47.76936, -18.41876], [-47.7684, -18.4202], [-47.76719, -18.42108], [-47.76564, -18.42138], [-47.7641, -18.42104], [-47.76253, -18.42116], [-47.76221, -18.42153], [-47.7622, -18.42394], [-47.762, -18.42509], [-47.76117, -18.42572], [-47.76046, -18.42597], [-47.75885, -18.42572], [-47.75804, -18.42525], [-47.75738, -18.42439], [-47.75681, -18.4233], [-47.75557, -18.42236], [-47.75513, -18.42139], [-47.75524, -18.4199], [-47.75494, -18.41906], [-47.75323, -18.41925], [-47.75208, -18.4202], [-47.75091, -18.42288], [-47.7504, -18.42315], [-47.74722, -18.42309], [-47.74607, -18.42436], [-47.7458, -18.4248], [-47.74565, -18.42687], [-47.74479, -18.42762], [-47.74427, -18.42867], [-47.74416, -18.42972], [-47.74443, -18.43138], [-47.74441, -18.43272], [-47.74418, -18.43366], [-47.74352, -18.43446], [-47.74248, -18.43486], [-47.74137, -18.43468], [-47.74094, -18.43422], [-47.74049, -18.43359], [-47.7403, -18.43179], [-47.73983, -18.43059], [-47.73931, -18.43012], [-47.73797, -18.42969], [-47.73752, -18.42874], [-47.73771, -18.42741], [-47.73889, -18.42538], [-47.73938, -18.42492], [-47.74052, -18.42259], [-47.74065, -18.42204], [-47.7405, -18.42105], [-47.73761, -18.42064], [-47.73664, -18.42066], [-47.7363, -18.42097], [-47.7357, -18.42265], [-47.73431, -18.42539], [-47.73324, -18.4266], [-47.73249, -18.42799], [-47.73183, -18.43238], [-47.73107, -18.43479], [-47.7308, -18.43522], [-47.73009, -18.43585], [-47.72913, -18.43582], [-47.72853, -18.43563], [-47.72803, -18.43528], [-47.72775, -18.43412], [-47.72719, -18.4331], [-47.72674, -18.43273], [-47.72635, -18.43245], [-47.72587, -18.43267], [-47.72545, -18.43315], [-47.72528, -18.43372], [-47.72516, -18.43549], [-47.7254, -18.4372], [-47.72498, -18.4394], [-47.72494, -18.44055], [-47.72506, -18.44226], [-47.72568, -18.44434], [-47.72548, -18.44482], [-47.72514, -18.44516], [-47.72398, -18.44533], [-47.72338, -18.44523], [-47.72202, -18.44448], [-47.7211, -18.44463], [-47.71925, -18.44543], [-47.71845, -18.44616], [-47.71815, -18.44664], [-47.71781, -18.4488], [-47.71717, -18.44957], [-47.71661, -18.44977], [-47.71493, -18.44973], [-47.71253, -18.45009], [-47.71093, -18.45087], [-47.70926, -18.45108], [-47.70819, -18.45176], [-47.7079, -18.45212], [-47.70782, -18.45261], [-47.70825, -18.45309], [-47.70925, -18.45366], [-47.70968, -18.45422], [-47.71092, -18.45527], [-47.71144, -18.45606], [-47.71166, -18.45742], [-47.71197, -18.45777], [-47.71443, -18.45796], [-47.71466, -18.45835], [-47.71468, -18.45879], [-47.71571, -18.45903], [-47.71597, -18.4601], [-47.7171, -18.45981], [-47.71745, -18.46115], [-47.71891, -18.46149], [-47.71972, -18.46217], [-47.72076, -18.46207], [-47.72122, -18.46173], [-47.72168, -18.46164], [-47.72219, -18.46165], [-47.72257, -18.46193], [-47.72236, -18.46305], [-47.722, -18.46339], [-47.72185, -18.4639], [-47.72213, -18.46432], [-47.72256, -18.46455], [-47.72462, -18.46531], [-47.72558, -18.46602], [-47.72591, -18.46646], [-47.72564, -18.46685], [-47.72559, -18.46733], [-47.72598, -18.46832], [-47.72601, -18.4701], [-47.72566, -18.47055], [-47.72416, -18.47076], [-47.72121, -18.47181], [-47.72001, -18.47315], [-47.71921, -18.47457], [-47.71885, -18.47647], [-47.71845, -18.48314], [-47.71773, -18.48624], [-47.71676, -18.48814], [-47.71476, -18.49007], [-47.71377, -18.49142], [-47.70952, -18.49369], [-47.70843, -18.49379], [-47.70396, -18.49592], [-47.69717, -18.49714], [-47.69592, -18.49819], [-47.69538, -18.49899], [-47.6953, -18.50033], [-47.69465, -18.50071], [-47.69274, -18.50238], [-47.69084, -18.50309], [-47.69029, -18.50314], [-47.6872, -18.5052], [-47.6848, -18.50602], [-47.68187, -18.50808], [-47.68118, -18.50877], [-47.68001, -18.50945], [-47.67856, -18.50992], [-47.67715, -18.51063], [-47.67554, -18.51092], [-47.674, -18.51172], [-47.67025, -18.51322], [-47.66781, -18.5146], [-47.66666, -18.51551], [-47.66609, -18.5166], [-47.66591, -18.51991], [-47.66595, -18.52412], [-47.6656, -18.52592], [-47.66502, -18.52735], [-47.66311, -18.52921], [-47.66189, -18.53104], [-47.66185, -18.53148], [-47.66221, -18.5335], [-47.66449, -18.53707], [-47.66541, -18.5404], [-47.66593, -18.54136], [-47.66788, -18.54348], [-47.67241, -18.545], [-47.67369, -18.54529], [-47.6764, -18.54653], [-47.67771, -18.5467], [-47.67936, -18.54749], [-47.68035, -18.54822], [-47.68067, -18.54875], [-47.68182, -18.55196], [-47.68294, -18.55365], [-47.68518, -18.55542], [-47.68775, -18.55669], [-47.69005, -18.55701], [-47.6926, -18.55685], [-47.69727, -18.55561], [-47.69821, -18.55549], [-47.70134, -18.55456], [-47.70341, -18.5542], [-47.70596, -18.55408], [-47.70746, -18.55432], [-47.70973, -18.5543], [-47.71284, -18.55374], [-47.71595, -18.55346], [-47.71833, -18.55341], [-47.71937, -18.55358], [-47.7202, -18.55415], [-47.72199, -18.55731], [-47.72365, -18.56093], [-47.72458, -18.56248], [-47.72548, -18.56296], [-47.72624, -18.56408], [-47.72789, -18.56549], [-47.72952, -18.566], [-47.73166, -18.56617], [-47.73388, -18.56576], [-47.73494, -18.56522], [-47.736, -18.56516], [-47.73792, -18.56461], [-47.74011, -18.56425], [-47.74171, -18.56448], [-47.74314, -18.56525], [-47.74589, -18.5675], [-47.74824, -18.56877], [-47.74948, -18.56917], [-47.75137, -18.57014], [-47.75291, -18.57148], [-47.75423, -18.5734], [-47.75591, -18.57495], [-47.75793, -18.57668], [-47.75826, -18.57682], [-47.75893, -18.57677], [-47.75951, -18.57636], [-47.75869, -18.5758], [-47.75808, -18.57502], [-47.75794, -18.57344], [-47.75992, -18.57271], [-47.76216, -18.57312], [-47.76513, -18.57311], [-47.76561, -18.57299], [-47.76644, -18.57133], [-47.76617, -18.56848], [-47.76571, -18.56816], [-47.76177, -18.56802], [-47.76029, -18.56752], [-47.75998, -18.56718], [-47.76011, -18.56626], [-47.76047, -18.56598], [-47.76206, -18.56569], [-47.76447, -18.5656], [-47.76481, -18.5652], [-47.76497, -18.56469], [-47.76479, -18.56428], [-47.76436, -18.56392], [-47.7632, -18.56358], [-47.76288, -18.5632], [-47.76282, -18.56207], [-47.76293, -18.56149], [-47.76496, -18.55908], [-47.76569, -18.55762], [-47.7671, -18.55614], [-47.76796, -18.55553], [-47.76827, -18.55504], [-47.76828, -18.55415], [-47.7678, -18.55245], [-47.76663, -18.55067], [-47.76657, -18.55023], [-47.76679, -18.54981], [-47.76714, -18.54942], [-47.76863, -18.54885], [-47.76925, -18.54802], [-47.7706, -18.54729], [-47.77229, -18.54746], [-47.77498, -18.54893], [-47.77619, -18.54926], [-47.77822, -18.54952], [-47.77876, -18.54873], [-47.77925, -18.54711], [-47.78047, -18.54616], [-47.78058, -18.54475], [-47.78012, -18.54467], [-47.77946, -18.54387], [-47.77918, -18.54235], [-47.77846, -18.54093], [-47.77842, -18.53951], [-47.77994, -18.53691], [-47.78078, -18.53631], [-47.78183, -18.53524], [-47.78233, -18.53282], [-47.78278, -18.53194], [-47.78345, -18.53117], [-47.78373, -18.53018], [-47.78495, -18.52773], [-47.78519, -18.52681], [-47.78518, -18.52582], [-47.78473, -18.52486], [-47.78347, -18.52411], [-47.78228, -18.52391], [-47.78127, -18.52344], [-47.78061, -18.52352], [-47.78021, -18.52375], [-47.77912, -18.52344], [-47.77885, -18.52305], [-47.77876, -18.52195], [-47.77907, -18.5216], [-47.78035, -18.52156], [-47.7835, -18.52259], [-47.78502, -18.52262], [-47.78543, -18.52229], [-47.78551, -18.52124], [-47.7858, -18.52084], [-47.78637, -18.52084], [-47.78678, -18.52062], [-47.787, -18.52021], [-47.78745, -18.52018], [-47.78771, -18.51967], [-47.78797, -18.51861], [-47.78795, -18.51705], [-47.78843, -18.5146], [-47.78869, -18.51423], [-47.78948, -18.51367], [-47.79, -18.51279], [-47.79077, -18.51193], [-47.79208, -18.51102], [-47.79353, -18.51099], [-47.79396, -18.51126], [-47.79433, -18.51162], [-47.79432, -18.51316], [-47.79459, -18.51362], [-47.79508, -18.51382], [-47.79793, -18.51439], [-47.80169, -18.51447], [-47.80487, -18.51384], [-47.8077, -18.51264], [-47.81025, -18.51197], [-47.81157, -18.51113], [-47.81205, -18.51101], [-47.81284, -18.51024], [-47.81503, -18.50994], [-47.81599, -18.50947], [-47.8171, -18.50937], [-47.81793, -18.50842], [-47.81809, -18.50731], [-47.81789, -18.50686], [-47.81656, -18.50613], [-47.81636, -18.50572], [-47.81624, -18.50374], [-47.81595, -18.50335], [-47.81495, -18.503], [-47.81028, -18.50302], [-47.80921, -18.50287], [-47.80815, -18.50249], [-47.80778, -18.50217], [-47.80685, -18.50101], [-47.80686, -18.50039], [-47.80716, -18.49998], [-47.80833, -18.49922], [-47.80893, -18.49864], [-47.80939, -18.49857], [-47.81035, -18.49877], [-47.81139, -18.49858], [-47.81254, -18.49753], [-47.8135, -18.49757], [-47.81479, -18.49836], [-47.81542, -18.49856], [-47.81684, -18.4985], [-47.81777, -18.49796], [-47.8184, -18.49726], [-47.81934, -18.49531], [-47.81974, -18.49483], [-47.82073, -18.49425], [-47.82108, -18.4951], [-47.8211, -18.49602], [-47.82136, -18.49649], [-47.82186, -18.49684], [-47.82239, -18.49687], [-47.82438, -18.4956], [-47.82542, -18.49573], [-47.82713, -18.49554], [-47.82886, -18.49407], [-47.82988, -18.49373], [-47.83032, -18.49339], [-47.83065, -18.49239], [-47.83071, -18.49117], [-47.83137, -18.48857], [-47.83234, -18.48647], [-47.83238, -18.48539], [-47.83231, -18.48493], [-47.83148, -18.4843], [-47.83076, -18.48348], [-47.83085, -18.48242], [-47.83142, -18.48146], [-47.83148, -18.48036], [-47.83123, -18.47946], [-47.83087, -18.47904], [-47.82998, -18.47878], [-47.82867, -18.47773], [-47.82751, -18.47642], [-47.82699, -18.47552], [-47.8269, -18.47508], [-47.82706, -18.47389], [-47.8277, -18.47251], [-47.82904, -18.47129], [-47.8295, -18.47106], [-47.83108, -18.47078], [-47.83204, -18.46888], [-47.83307, -18.46915], [-47.83334, -18.46876], [-47.83365, -18.46771], [-47.83406, -18.46741], [-47.83522, -18.46717], [-47.83804, -18.46751], [-47.83908, -18.46747], [-47.84007, -18.46725], [-47.84071, -18.46648], [-47.84177, -18.46592], [-47.84322, -18.4657], [-47.84376, -18.46543], [-47.84412, -18.46505], [-47.84443, -18.4636], [-47.84435, -18.46084], [-47.84399, -18.45872], [-47.84424, -18.4578], [-47.84495, -18.45714], [-47.84585, -18.45681], [-47.8464, -18.45707], [-47.84736, -18.4577], [-47.84895, -18.45933], [-47.84943, -18.45956], [-47.85112, -18.45945], [-47.85231, -18.45877], [-47.85302, -18.45809], [-47.85336, -18.45765], [-47.85327, -18.45719], [-47.85294, -18.45689], [-47.84764, -18.45427], [-47.84674, -18.45355], [-47.8464, -18.45311], [-47.84643, -18.45256], [-47.84676, -18.45164], [-47.84712, -18.45132], [-47.85226, -18.45134], [-47.85407, -18.45154], [-47.85571, -18.45333], [-47.85689, -18.45353], [-47.85742, -18.45342], [-47.85912, -18.45204], [-47.85961, -18.45181], [-47.86044, -18.4507], [-47.86169, -18.44979], [-47.8637, -18.44913], [-47.8646, -18.44909], [-47.86488, -18.44718], [-47.86045, -18.44019], [-47.85796, -18.43901], [-47.85441, -18.4394], [-47.84946, -18.44132], [-47.84735, -18.44305], [-47.84627, -18.44505], [-47.8448, -18.44654], [-47.84238, -18.44783], [-47.83879, -18.45176], [-47.83738, -18.4519], [-47.83458, -18.45127], [-47.83194, -18.44978], [-47.83083, -18.44798], [-47.8306, -18.44522], [-47.83085, -18.44438], [-47.83085, -18.44349], [-47.83162, -18.44179], [-47.83704, -18.43583], [-47.83657, -18.43311], [-47.83185, -18.42823], [-47.83077, -18.42519], [-47.83091, -18.41935], [-47.83052, -18.41628], [-47.83118, -18.41405], [-47.82974, -18.4113], [-47.81532, -18.40626], [-47.81212, -18.40097], [-47.81057, -18.40012], [-47.80838, -18.40022], [-47.80199, -18.40344], [-47.79755, -18.40691], [-47.7973, -18.40784], [-47.80021, -18.41039], [-47.80074, -18.41196], [-47.79997, -18.4149], [-47.7985, -18.41631], [-47.79535, -18.41763], [-47.7926, -18.41736], [-47.78921, -18.41766], [-47.78357, -18.42263], [-47.77902, -18.42414], [-47.77681, -18.42251], [-47.77529, -18.4205], [-47.77121, -18.41935], [-47.76949, -18.4183]], [[-47.7276, -18.49403], [-47.72797, -18.49455], [-47.72827, -18.49449], [-47.72844, -18.49466], [-47.72794, -18.49483], [-47.72671, -18.49578], [-47.72518, -18.49773], [-47.7245, -18.49834], [-47.72427, -18.4992], [-47.72477, -18.50065], [-47.72474, -18.5017], [-47.72398, -18.50371], [-47.7239, -18.5054], [-47.72319, -18.50665], [-47.72203, -18.50735], [-47.72067, -18.50637], [-47.72165, -18.50246], [-47.72132, -18.50193], [-47.72153, -18.50079], [-47.72135, -18.50086], [-47.72125, -18.50067], [-47.72133, -18.50006], [-47.72119, -18.49977], [-47.7214, -18.49945], [-47.7213, -18.49897], [-47.72151, -18.4984], [-47.72136, -18.4979], [-47.72049, -18.49696], [-47.72062, -18.49648], [-47.72052, -18.49628], [-47.7197, -18.49572], [-47.71892, -18.49363], [-47.71924, -18.49342], [-47.71996, -18.49356], [-47.72013, -18.49322], [-47.72055, -18.49292], [-47.72079, -18.49336], [-47.721, -18.49328], [-47.72126, -18.49267], [-47.72157, -18.49255], [-47.72177, -18.49169], [-47.72165, -18.49134], [-47.72113, -18.49149], [-47.72082, -18.49111], [-47.72136, -18.49066], [-47.72149, -18.49016], [-47.72096, -18.48995], [-47.72099, -18.48956], [-47.72178, -18.48878], [-47.72213, -18.48914], [-47.7229, -18.48914], [-47.72271, -18.48956], [-47.72315, -18.4901], [-47.72383, -18.48996], [-47.72424, -18.49016], [-47.72411, -18.49064], [-47.7243, -18.49096], [-47.7245, -18.49106], [-47.72472, -18.49054], [-47.72505, -18.49051], [-47.7255, -18.49142], [-47.72622, -18.49085], [-47.72613, -18.48974], [-47.72633, -18.48946], [-47.72697, -18.48935], [-47.7274, -18.48883], [-47.72813, -18.4889], [-47.72848, -18.48867], [-47.72861, -18.48931], [-47.7291, -18.48925], [-47.72918, -18.48938], [-47.72893, -18.48953], [-47.72908, -18.48999], [-47.72876, -18.49093], [-47.72833, -18.49127], [-47.72798, -18.49134], [-47.72813, -18.49173], [-47.72848, -18.49171], [-47.72857, -18.49186], [-47.7287, -18.4928], [-47.72865, -18.49295], [-47.72783, -18.49324], [-47.7276, -18.49403]]]}}]}