{"type": "FeatureCollection", "features": [
{"type": "Feature", "properties": {"CD_SETOR": "314940805000002", "CD_SIT": "8", "NM_DIST": "Pedro Teixeira", "NM_SUBDIST": null}, "geometry": {"type": "Polygon", "coordinates": [[[-43.67967, -21.71318], [-43.67936, -21.71376], [-43.67949, -21.71421], [-43.67744, -21.71419], [-43.67661, -21.71531], [-43.67523, -21.71628], [-43.67441, -21.7177], [-43.67334, -21.71881], [-43.67288, -21.71954], [-43.67129, -21.72099], [-43.67123, -21.7225], [-43.67084, -21.72318], [-43.67061, -21.72329], [-43.67018, -21.72228], [-43.66986, -21.72235], [-43.6692, -21.7237], [-43.66753, -21.72354], [-43.66516, -21.72504], [-43.66439, -21.72526], [-43.66374, -21.72526], [-43.66182, -21.72392], [-43.66133, -21.7231], [-43.66097, -21.7228], [-43.66025, -21.72285], [-43.65985, -21.72481], [-43.66051, -21.72554], [-43.66052, -21.72578], [-43.66015, -21.72606], [-43.65951, -21.72703], [-43.65897, -21.7271], [-43.6585, -21.72696], [-43.65839, -21.72721], [-43.6585, -21.72793], [-43.65886, -21.72821], [-43.65915, -21.7289], [-43.65897, -21.72989], [-43.66016, -21.73126], [-43.66067, -21.73121], [-43.66089, -21.73134], [-43.66092, -21.73161], [-43.66021, -21.73302], [-43.66024, -21.73328], [-43.66045, -21.73341], [-43.66142, -21.73319], [-43.66185, -21.73338], [-43.66238, -21.73426], [-43.66306, -21.73453], [-43.66306, -21.73578], [-43.66372, -21.73547], [-43.66444, -21.73541], [-43.66494, -21.73495], [-43.66517, -21.73498], [-43.66518, -21.73547], [-43.66589, -21.7357], [-43.66614, -21.73608], [-43.6667, -21.73584], [-43.66679, -21.73538], [-43.66717, -21.73508], [-43.66781, -21.73612], [-43.66884, -21.73634], [-43.66899, -21.73653], [-43.66896, -21.73798], [-43.66853, -21.73866], [-43.668, -21.74015], [-43.66777, -21.74029], [-43.66755, -21.74015], [-43.66744, -21.73971], [-43.66721, -21.73965], [-43.66676, -21.73975], [-43.6663, -21.74009], [-43.66558, -21.74203], [-43.66564, -21.74228], [-43.66608, -21.74242], [-43.66646, -21.74214], [-43.66681, -21.7415], [-43.66724, -21.74132], [-43.66742, -21.74177], [-43.6679, -21.74187], [-43.66776, -21.74229], [-43.66774, -21.74374], [-43.66762, -21.74396], [-43.66671, -21.74427], [-43.66657, -21.74495], [-43.66623, -21.74533], [-43.66625, -21.74556], [-43.66648, -21.7456], [-43.6664, -21.74609], [-43.66655, -21.74626], [-43.66703, -21.74634], [-43.66708, -21.74665], [-43.66633, -21.74866], [-43.66642, -21.74891], [-43.66666, -21.74901], [-43.66741, -21.74897], [-43.66784, -21.74919], [-43.66789, -21.75039], [-43.67, -21.75065], [-43.67128, -21.74987], [-43.67131, -21.74957], [-43.67106, -21.74918], [-43.67114, -21.74873], [-43.67214, -21.74901], [-43.67297, -21.74851], [-43.67339, -21.74787], [-43.67419, -21.7472], [-43.67543, -21.74734], [-43.67565, -21.74743], [-43.67586, -21.74812], [-43.67699, -21.74908], [-43.67824, -21.74919], [-43.67934, -21.74976], [-43.68028, -21.7498], [-43.68077, -21.75], [-43.68103, -21.75063], [-43.68093, -21.75136], [-43.68173, -21.75225], [-43.68159, -21.75466], [-43.68313, -21.75673], [-43.68334, -21.75683], [-43.68404, -21.75612], [-43.68489, -21.75617], [-43.6854, -21.75602], [-43.68588, -21.75552], [-43.68615, -21.75546], [-43.68669, -21.75595], [-43.68798, -21.75585], [-43.68823, -21.75596], [-43.68913, -21.75724], [-43.69157, -21.7582], [-43.6924, -21.75906], [-43.69314, -21.75912], [-43.69362, -21.75897], [-43.69406, -21.75911], [-43.69452, -21.75997], [-43.69532, -21.76084], [-43.69533, -21.76109], [-43.69482, -21.76194], [-43.69465, -21.76259], [-43.69484, -21.76326], [-43.69473, -21.76408], [-43.69444, -21.76483], [-43.69359, -21.76595], [-43.69345, -21.76693], [-43.69374, -21.76817], [-43.6942, -21.76846], [-43.69465, -21.76908], [-43.69595, -21.7697], [-43.69668, -21.77037], [-43.69709, -21.77121], [-43.69752, -21.77298], [-43.69684, -21.77454], [-43.69673, -21.7753], [-43.69673, -21.77754], [-43.69704, -21.7782], [-43.69787, -21.77841], [-43.69895, -21.77839], [-43.70003, -21.7791], [-43.70108, -21.77942], [-43.70162, -21.77947], [-43.70187, -21.77934], [-43.70178, -21.77841], [-43.70205, -21.7775], [-43.70159, -21.77631], [-43.70162, -21.77561], [-43.70308, -21.77501], [-43.70349, -21.77435], [-43.70432, -21.77409], [-43.70542, -21.77414], [-43.70729, -21.77395], [-43.7083, -21.77446], [-43.70967, -21.77579], [-43.71033, -21.77679], [-43.71053, -21.77867], [-43.711, -21.77993], [-43.71026, -21.78059], [-43.71001, -21.78105], [-43.70987, -21.78301], [-43.70884, -21.78388], [-43.70431, -21.78535], [-43.70394, -21.78595], [-43.70404, -21.78798], [-43.70372, -21.789], [-43.70278, -21.78927], [-43.702, -21.78913], [-43.70147, -21.78925], [-43.70119, -21.78984], [-43.70147, -21.79021], [-43.70155, -21.79075], [-43.70082, -21.79141], [-43.70128, -21.79166], [-43.70176, -21.79166], [-43.70208, -21.79268], [-43.70419, -21.79382], [-43.7049, -21.79459], [-43.70575, -21.79517], [-43.70607, -21.7962], [-43.70673, -21.79695], [-43.70702, -21.79761], [-43.70797, -21.79889], [-43.70893, -21.79912], [-43.7118, -21.7992], [-43.71219, -21.79941], [-43.71215, -21.80015], [-43.71148, -21.80111], [-43.71146, -21.80158], [-43.71246, -21.80218], [-43.71287, -21.80352], [-43.71344, -21.80439], [-43.71397, -21.80487], [-43.7149, -21.80457], [-43.71575, -21.80224], [-43.71645, -21.80144], [-43.71748, -21.80072], [-43.71776, -21.80022], [-43.71765, -21.79769], [-43.7172, -21.79548], [-43.71724, -21.79476], [-43.71744, -21.7943], [-43.718, -21.79385], [-43.72177, -21.79374], [-43.72328, -21.79307], [-43.72519, -21.79336], [-43.72645, -21.79287], [-43.72691, -21.79055], [-43.72679, -21.78767], [-43.727, -21.78697], [-43.72799, -21.78491], [-43.72932, -21.78327], [-43.73179, -21.78133], [-43.73329, -21.78079], [-43.73462, -21.78066], [-43.73625, -21.78112], [-43.73813, -21.78225], [-43.73916, -21.78243], [-43.7422, -21.78227], [-43.74339, -21.78214], [-43.74422, -21.78186], [-43.74523, -21.78188], [-43.74787, -21.78252], [-43.74946, -21.78346], [-43.75144, -21.78367], [-43.75325, -21.78344], [-43.75592, -21.7817], [-43.75621, -21.78128], [-43.75687, -21.77907], [-43.758, -21.7764], [-43.75848, -21.77266], [-43.75818, -21.77225], [-43.75732, -21.77226], [-43.75438, -21.77143], [-43.75448, -21.77101], [-43.75602, -21.76889], [-43.75613, -21.76783], [-43.75554, -21.76708], [-43.75409, -21.76601], [-43.75267, -21.76359], [-43.75262, -21.76311], [-43.7518, -21.76184], [-43.75173, -21.76011], [-43.75105, -21.7594], [-43.74977, -21.75869], [-43.74945, -21.75834], [-43.74939, -21.75688], [-43.74976, -21.75524], [-43.75111, -21.75374], [-43.75266, -21.7535], [-43.75442, -21.75281], [-43.75485, -21.75257], [-43.75571, -21.75168], [-43.75757, -21.74816], [-43.75637, -21.74529], [-43.75449, -21.74432], [-43.75408, -21.74368], [-43.75392, -21.7431], [-43.75326, -21.74214], [-43.75281, -21.74036], [-43.7522, -21.73927], [-43.7519, -21.73901], [-43.75226, -21.73847], [-43.75216, -21.73838], [-43.75124, -21.73816], [-43.75076, -21.73834], [-43.75015, -21.73867], [-43.75008, -21.73895], [-43.74984, -21.7389], [-43.74969, -21.73908], [-43.74934, -21.73911], [-43.7492, -21.73944], [-43.749, -21.73928], [-43.74883, -21.73936], [-43.74749, -21.74037], [-43.74648, -21.73928], [-43.74587, -21.739], [-43.74536, -21.73841], [-43.74491, -21.73688], [-43.74494, -21.73669], [-43.74563, -21.73635], [-43.7455, -21.7357], [-43.74597, -21.73312], [-43.74583, -21.73206], [-43.74377, -21.72784], [-43.74354, -21.72761], [-43.74255, -21.72761], [-43.74151, -21.7273], [-43.74149, -21.72678], [-43.74133, -21.72665], [-43.74062, -21.72433], [-43.74034, -21.72445], [-43.73961, -21.72275], [-43.7397, -21.72233], [-43.73917, -21.72217], [-43.73986, -21.72106], [-43.73971, -21.72086], [-43.73884, -21.72061], [-43.73871, -21.72037], [-43.73734, -21.72055], [-43.73731, -21.72032], [-43.73703, -21.72057], [-43.73654, -21.72059], [-43.73623, -21.72085], [-43.73556, -21.72025], [-43.73536, -21.72027], [-43.73521, -21.71935], [-43.7346, -21.71861], [-43.73361, -21.71798], [-43.73345, -21.71751], [-43.7336, -21.71673], [-43.73339, -21.71658], [-43.73364, -21.71602], [-43.73359, -21.7159], [-43.73316, -21.7159], [-43.73336, -21.71569], [-43.73325, -21.71549], [-43.73348, -21.71535], [-43.73317, -21.71521], [-43.73298, -21.71449], [-43.73186, -21.71443], [-43.7298, -21.71514], [-43.72918, -21.71596], [-43.72893, -21.71606], [-43.72867, -21.71611], [-43.72831, -21.71568], [-43.72795, -21.71566], [-43.72775, -21.71574], [-43.72745, -21.7163], [-43.72732, -21.71597], [-43.72709, -21.71608], [-43.72665, -21.71578], [-43.72665, -21.71558], [-43.72519, -21.71528], [-43.72452, -21.71488], [-43.72355, -21.71319], [-43.72221, -21.71142], [-43.721, -21.7117], [-43.72081, -21.71187], [-43.72082, -21.71214], [-43.72131, -21.71322], [-43.72125, -21.71343], [-43.7201, -21.71297], [-43.71903, -21.71303], [-43.718, -21.71451], [-43.71786, -21.71505], [-43.71666, -21.71645], [-43.71675, -21.71666], [-43.71806, -21.71733], [-43.71872, -21.71732], [-43.7194, -21.71776], [-43.71944, -21.71812], [-43.71905, -21.71882], [-43.71913, -21.71899], [-43.71965, -21.71914], [-43.71964, -21.71959], [-43.71908, -21.71965], [-43.71863, -21.71994], [-43.71851, -21.71978], [-43.71859, -21.71922], [-43.71801, -21.71893], [-43.7176, -21.71892], [-43.71714, -21.71978], [-43.71665, -21.71984], [-43.71641, -21.72005], [-43.71658, -21.72071], [-43.71645, -21.72089], [-43.71531, -21.72081], [-43.7148, -21.72148], [-43.71432, -21.72113], [-43.71418, -21.72123], [-43.71422, -21.72181], [-43.71398, -21.72191], [-43.71329, -21.72131], [-43.71333, -21.72073], [-43.7127, -21.72069], [-43.71255, -21.72015], [-43.71201, -21.7196], [-43.71205, -21.71938], [-43.71267, -21.71945], [-43.71332, -21.71925], [-43.7133, -21.719], [-43.71222, -21.71869], [-43.71215, -21.7182], [-43.71233, -21.71789], [-43.71223, -21.71774], [-43.71194, -21.71784], [-43.71158, -21.71826], [-43.71143, -21.71814], [-43.71151, -21.71765], [-43.71132, -21.71762], [-43.71101, -21.71789], [-43.71072, -21.71781], [-43.71062, -21.71737], [-43.71124, -21.71666], [-43.71072, -21.71651], [-43.71037, -21.71601], [-43.71011, -21.71633], [-43.70986, -21.7163], [-43.70952, -21.71562], [-43.70963, -21.71521], [-43.7095, -21.71475], [-43.70868, -21.71449], [-43.70876, -21.71384], [-43.70834, -21.71334], [-43.70866, -21.71277], [-43.70827, -21.71235], [-43.70756, -21.7124], [-43.70749, -21.71203], [-43.7073, -21.71194], [-43.70608, -21.71232], [-43.7051, -21.7123], [-43.70486, -21.71244], [-43.70503, -21.71274], [-43.70583, -21.71308], [-43.7058, -21.71364], [-43.7061, -21.71386], [-43.70597, -21.71412], [-43.70562, -21.71418], [-43.70535, -21.7147], [-43.70533, -21.7149], [-43.70577, -21.71521], [-43.70587, -21.71563], [-43.70464, -21.71555], [-43.70451, -21.71622], [-43.7048, -21.71651], [-43.70479, -21.71714], [-43.70456, -21.71719], [-43.70415, -21.71681], [-43.70364, -21.71712], [-43.70296, -21.71731], [-43.70246, -21.71727], [-43.7022, -21.71747], [-43.7016, -21.71735], [-43.70033, -21.71938], [-43.69997, -21.71955], [-43.69931, -21.71867], [-43.69941, -21.71764], [-43.69921, -21.71734], [-43.69858, -21.71716], [-43.69838, -21.71747], [-43.69838, -21.71784], [-43.69822, -21.71794], [-43.69626, -21.71653], [-43.69473, -21.71569], [-43.69354, -21.71571], [-43.69293, -21.71546], [-43.69241, -21.71496], [-43.69195, -21.71476], [-43.69114, -21.71533], [-43.6909, -21.71521], [-43.69086, -21.71472], [-43.69066, -21.71465], [-43.69045, -21.71465], [-43.6902, -21.71501], [-43.68951, -21.71472], [-43.68838, -21.7149], [-43.68814, -21.71463], [-43.68815, -21.71428], [-43.68792, -21.71412], [-43.68761, -21.71421], [-43.68681, -21.71405], [-43.6866, -21.71418], [-43.68665, -21.71468], [-43.6861, -21.71461], [-43.68559, -21.71416], [-43.68574, -21.71389], [-43.68564, -21.71376], [-43.68485, -21.71424], [-43.68413, -21.71367], [-43.6835, -21.71341], [-43.68294, -21.71276], [-43.68211, -21.71244], [-43.67984, -21.71278], [-43.67967, -21.71318]]]}}, 
{"type": "Feature", "properties": {"CD_SETOR": "314940805000004", "CD_SIT": "8", "NM_DIST": "Pedro Teixeira", "NM_SUBDIST": null}, "geometry": {"type": "Polygon", "coordinates": [[[-43.7604, -21.70544], [-43.76149, -21.70766], [-43.76015, -21.70801], [-43.75548, -21.70828], [-43.75309, -21.70761], [-43.74919, -21.70805], [-43.74518, -21.70785], [-43.74439, -21.70817], [-43.74174, -21.71023], [-43.74149, -21.71093], [-43.74109, -21.71145], [-43.73985, -21.71179], [-43.73994, -21.71186], [-43.73959, -21.71226], [-43.73647, -21.71176], [-43.73622, -21.71187], [-43.73567, -21.7126], [-43.73404, -21.71301], [-43.73311, -21.71291], [-43.73203, -21.71372], [-43.72885, -21.71486], [-43.72725, -21.71517], [-43.72577, -21.71486], [-43.72519, -21.71528], [-43.72665, -21.71558], [-43.72665, -21.71578], [-43.72709, -21.71608], [-43.72732, -21.71597], [-43.72753, -21.7163], [-43.72775, -21.71574], [-43.72795, -21.71566], [-43.72831, -21.71568], [-43.72867, -21.71611], [-43.72893, -21.71606], [-43.72918, -21.71596], [-43.7298, -21.71514], [-43.73186, -21.71443], [-43.7328, -21.7144], [-43.73302, -21.7146], [-43.73317, -21.71521], [-43.73348, -21.71535], [-43.73325, -21.71549], [-43.73336, -21.71569], [-43.73316, -21.7159], [-43.73359, -21.7159], [-43.73364, -21.71602], [-43.73339, -21.71658], [-43.7336, -21.71673], [-43.73345, -21.71751], [-43.73361, -21.71798], [-43.7346, -21.71861], [-43.73521, -21.71935], [-43.73536, -21.72027], [-43.73556, -21.72025], [-43.73623, -21.72085], [-43.73654, -21.72059], [-43.73703, -21.72057], [-43.73731, -21.72032], [-43.73734, -21.72055], [-43.73871, -21.72037], [-43.73884, -21.72061], [-43.7398, -21.72095], [-43.73986, -21.72106], [-43.73917, -21.72217], [-43.7397, -21.72233], [-43.73961, -21.72275], [-43.74034, -21.72445], [-43.74062, -21.72433], [-43.74133, -21.72665], [-43.74149, -21.72678], [-43.74151, -21.7273], [-43.74255, -21.72761], [-43.74354, -21.72761], [-43.74377, -21.72784], [-43.74583, -21.73206], [-43.74597, -21.73312], [-43.7455, -21.7357], [-43.74563, -21.73635], [-43.74494, -21.73669], [-43.74491, -21.73688], [-43.74536, -21.73841], [-43.74587, -21.739], [-43.74648, -21.73928], [-43.74749, -21.74037], [-43.74883, -21.73936], [-43.749, -21.73928], [-43.7492, -21.73944], [-43.74934, -21.73911], [-43.74969, -21.73908], [-43.74984, -21.7389], [-43.75008, -21.73895], [-43.75015, -21.73867], [-43.75076, -21.73834], [-43.75124, -21.73816], [-43.75216, -21.73838], [-43.75226, -21.73847], [-43.7519, -21.73901], [-43.7522, -21.73927], [-43.75281, -21.74036], [-43.75326, -21.74214], [-43.75392, -21.7431], [-43.75408, -21.74368], [-43.75449, -21.74432], [-43.75637, -21.74529], [-43.75757, -21.74816], [-43.75785, -21.74785], [-43.7585, -21.74611], [-43.76021, -21.74295], [-43.76328, -21.74154], [-43.76437, -21.74026], [-43.7655, -21.7395], [-43.76883, -21.73792], [-43.77187, -21.73694], [-43.77377, -21.73516], [-43.77501, -21.73477], [-43.77634, -21.73493], [-43.77711, -21.73486], [-43.77797, -21.73426], [-43.77878, -21.73333], [-43.77964, -21.73105], [-43.78018, -21.73021], [-43.78202, -21.72901], [-43.78318, -21.72757], [-43.78346, -21.72691], [-43.78329, -21.72526], [-43.78352, -21.72406], [-43.78394, -21.72353], [-43.78496, -21.72282], [-43.78588, -21.7217], [-43.78657, -21.71878], [-43.78637, -21.71805], [-43.7855, -21.71653], [-43.78555, -21.71572], [-43.78539, -21.71526], [-43.78546, -21.71476], [-43.78602, -21.71391], [-43.78608, -21.71344], [-43.78685, -21.71259], [-43.78814, -21.71274], [-43.78915, -21.71316], [-43.78958, -21.7127], [-43.78946, -21.71116], [-43.78913, -21.71018], [-43.78911, -21.70931], [-43.78881, -21.70859], [-43.78867, -21.70842], [-43.78638, -21.70793], [-43.78576, -21.7075], [-43.78462, -21.7062], [-43.78448, -21.70498], [-43.78475, -21.70424], [-43.78479, -21.70272], [-43.78396, -21.70027], [-43.78399, -21.69838], [-43.78348, -21.69749], [-43.78242, -21.69666], [-43.78154, -21.69619], [-43.78151, -21.69596], [-43.78306, -21.6951], [-43.7835, -21.69452], [-43.78348, -21.694], [-43.78168, -21.69136], [-43.78104, -21.68938], [-43.78098, -21.68822], [-43.78053, -21.68758], [-43.78007, -21.68736], [-43.77772, -21.68725], [-43.77701, -21.68695], [-43.7766, -21.68659], [-43.77637, -21.68494], [-43.77573, -21.68333], [-43.77542, -21.68193], [-43.77367, -21.68064], [-43.77288, -21.68148], [-43.77214, -21.68178], [-43.77246, -21.68341], [-43.77195, -21.68415], [-43.77114, -21.68484], [-43.77071, -21.68612], [-43.76973, -21.68628], [-43.76776, -21.68628], [-43.76765, -21.68664], [-43.76805, -21.68727], [-43.76769, -21.68785], [-43.76728, -21.68811], [-43.76642, -21.6881], [-43.76614, -21.68829], [-43.76607, -21.68887], [-43.76647, -21.68947], [-43.76666, -21.69065], [-43.76733, -21.69243], [-43.76689, -21.69464], [-43.76714, -21.69589], [-43.76718, -21.69744], [-43.76405, -21.69814], [-43.76245, -21.69918], [-43.762, -21.69986], [-43.76139, -21.70015], [-43.76028, -21.70132], [-43.75988, -21.70246], [-43.76021, -21.70367], [-43.7601, -21.70466], [-43.7604, -21.70544]]]}}, 
{"type": "Feature", "properties": {"CD_SETOR": "314940805000005", "CD_SIT": "2", "NM_DIST": "Pedro Teixeira", "NM_SUBDIST": null}, "geometry": {"type": "Polygon", "coordinates": [[[-43.75244, -21.70504], [-43.75462, -21.70602], [-43.75547, -21.70618], [-43.75558, -21.70557], [-43.75524, -21.70533], [-43.75515, -21.70473], [-43.7556, -21.70367], [-43.75349, -21.7023], [-43.75256, -21.70246], [-43.75223, -21.70283], [-43.75247, -21.7039], [-43.75244, -21.70504]]]}}, 
{"type": "Feature", "properties": {"CD_SETOR": "314940805000006", "CD_SIT": "8", "NM_DIST": "Pedro Teixeira", "NM_SUBDIST": null}, "geometry": {"type": "Polygon", "coordinates": [[[-43.72479, -21.67025], [-43.7244, -21.67009], [-43.72385, -21.66954], [-43.72276, -21.66821], [-43.72202, -21.66788], [-43.72069, -21.66789], [-43.71909, -21.66815], [-43.71714, -21.66883], [-43.71645, -21.66927], [-43.71561, -21.6706], [-43.71554, -21.67272], [-43.7157, -21.67424], [-43.71545, -21.67606], [-43.71456, -21.6776], [-43.71387, -21.67945], [-43.71251, -21.68231], [-43.7094, -21.68462], [-43.70679, -21.68624], [-43.70571, -21.68716], [-43.7019, -21.68901], [-43.70098, -21.68997], [-43.70039, -21.69117], [-43.69876, -21.69247], [-43.69735, -21.6939], [-43.69733, -21.69441], [-43.69767, -21.69476], [-43.69882, -21.69534], [-43.70007, -21.69571], [-43.70099, -21.69633], [-43.70086, -21.69733], [-43.7004, -21.69804], [-43.69833, -21.69943], [-43.69558, -21.70051], [-43.69493, -21.70149], [-43.69445, -21.7028], [-43.69348, -21.70389], [-43.69298, -21.70482], [-43.69197, -21.70601], [-43.69119, -21.70775], [-43.69027, -21.70856], [-43.68895, -21.70895], [-43.68821, -21.70893], [-43.68707, -21.70835], [-43.68626, -21.7076], [-43.68547, -21.70712], [-43.68463, -21.70694], [-43.68402, -21.70704], [-43.68278, -21.70871], [-43.68199, -21.71018], [-43.68018, -21.71174], [-43.67909, -21.71181], [-43.67874, -21.7124], [-43.67885, -21.71266], [-43.67953, -21.71296], [-43.67967, -21.71318], [-43.67984, -21.71278], [-43.68232, -21.71249], [-43.68294, -21.71276], [-43.6835, -21.71341], [-43.68413, -21.71367], [-43.68485, -21.71424], [-43.68564, -21.71376], [-43.68574, -21.71389], [-43.68559, -21.71416], [-43.6861, -21.71461], [-43.68665, -21.71468], [-43.6866, -21.71418], [-43.68681, -21.71405], [-43.68761, -21.71421], [-43.68792, -21.71412], [-43.68815, -21.71428], [-43.68814, -21.71463], [-43.68838, -21.7149], [-43.68951, -21.71472], [-43.6902, -21.71501], [-43.69045, -21.71465], [-43.69066, -21.71465], [-43.69086, -21.71472], [-43.6909, -21.71521], [-43.69114, -21.71533], [-43.69195, -21.71476], [-43.69241, -21.71496], [-43.69293, -21.71546], [-43.69354, -21.71571], [-43.69473, -21.71569], [-43.69626, -21.71653], [-43.69822, -21.71794], [-43.69838, -21.71784], [-43.69838, -21.71747], [-43.69858, -21.71716], [-43.69921, -21.71734], [-43.69941, -21.71764], [-43.69931, -21.71867], [-43.69997, -21.71955], [-43.70033, -21.71938], [-43.7016, -21.71735], [-43.7022, -21.71747], [-43.70246, -21.71727], [-43.70296, -21.71731], [-43.70364, -21.71712], [-43.70415, -21.71681], [-43.70456, -21.71719], [-43.70479, -21.71714], [-43.7048, -21.71651], [-43.70451, -21.71622], [-43.70464, -21.71555], [-43.70587, -21.71563], [-43.70577, -21.71521], [-43.70533, -21.7149], [-43.70535, -21.7147], [-43.70562, -21.71418], [-43.70597, -21.71412], [-43.7061, -21.71386], [-43.7058, -21.71364], [-43.70583, -21.71308], [-43.70503, -21.71274], [-43.70486, -21.71244], [-43.7051, -21.7123], [-43.70608, -21.71232], [-43.7073, -21.71194], [-43.70749, -21.71203], [-43.70756, -21.7124], [-43.70827, -21.71235], [-43.70866, -21.71277], [-43.70834, -21.71334], [-43.70876, -21.71384], [-43.70868, -21.71449], [-43.7095, -21.71475], [-43.70963, -21.71521], [-43.70952, -21.71562], [-43.70986, -21.7163], [-43.71011, -21.71633], [-43.71037, -21.71601], [-43.71072, -21.71651], [-43.71124, -21.71666], [-43.71062, -21.71737], [-43.71072, -21.71781], [-43.71101, -21.71789], [-43.71132, -21.71762], [-43.71151, -21.71765], [-43.71143, -21.71814], [-43.71158, -21.71826], [-43.71194, -21.71784], [-43.71223, -21.71774], [-43.71233, -21.71789], [-43.71215, -21.7182], [-43.71222, -21.71869], [-43.7133, -21.719], [-43.71332, -21.71925], [-43.71267, -21.71945], [-43.71205, -21.71938], [-43.71201, -21.7196], [-43.71255, -21.72015], [-43.7127, -21.72069], [-43.71333, -21.72073], [-43.71329, -21.72131], [-43.71398, -21.72191], [-43.71422, -21.72181], [-43.71418, -21.72123], [-43.71432, -21.72113], [-43.7148, -21.72148], [-43.71531, -21.72081], [-43.71645, -21.72089], [-43.71658, -21.72071], [-43.71641, -21.72005], [-43.71665, -21.71984], [-43.71714, -21.71978], [-43.7176, -21.71892], [-43.71801, -21.71893], [-43.71859, -21.71922], [-43.71851, -21.71978], [-43.71863, -21.71994], [-43.71908, -21.71965], [-43.71964, -21.71959], [-43.71965, -21.71914], [-43.71913, -21.71899], [-43.71905, -21.71882], [-43.71944, -21.71812], [-43.7194, -21.71776], [-43.71872, -21.71732], [-43.71806, -21.71733], [-43.71675, -21.71666], [-43.71666, -21.71645], [-43.71786, -21.71505], [-43.718, -21.71451], [-43.71903, -21.71303], [-43.7201, -21.71297], [-43.72125, -21.71343], [-43.72131, -21.71322], [-43.72082, -21.71214], [-43.72081, -21.71187], [-43.721, -21.7117], [-43.72221, -21.71142], [-43.72355, -21.71319], [-43.72452, -21.71488], [-43.72519, -21.71528], [-43.72577, -21.71486], [-43.72725, -21.71517], [-43.72885, -21.71486], [-43.73203, -21.71372], [-43.73311, -21.71291], [-43.73404, -21.71301], [-43.73567, -21.7126], [-43.73622, -21.71187], [-43.73647, -21.71176], [-43.73959, -21.71226], [-43.73994, -21.71186], [-43.73985, -21.71179], [-43.7387, -21.7116], [-43.73828, -21.70929], [-43.73923, -21.70709], [-43.73963, -21.70564], [-43.74136, -21.70289], [-43.74255, -21.70226], [-43.74426, -21.70189], [-43.74655, -21.70189], [-43.74899, -21.70551], [-43.74898, -21.7059], [-43.74927, -21.70595], [-43.74982, -21.70586], [-43.7504, -21.70529], [-43.75024, -21.70508], [-43.75039, -21.70498], [-43.75068, -21.70511], [-43.75077, -21.70495], [-43.75122, -21.70487], [-43.75244, -21.70504], [-43.75247, -21.7039], [-43.75223, -21.70283], [-43.75256, -21.70246], [-43.75349, -21.7023], [-43.7556, -21.70367], [-43.75515, -21.70473], [-43.75524, -21.70533], [-43.75558, -21.70557], [-43.75547, -21.70618], [-43.75663, -21.70661], [-43.75795, -21.7068], [-43.75842, -21.70642], [-43.75913, -21.70624], [-43.75938, -21.70586], [-43.7604, -21.70544], [-43.7601, -21.70466], [-43.76021, -21.70367], [-43.75988, -21.70246], [-43.76019, -21.70147], [-43.76094, -21.70055], [-43.762, -21.69986], [-43.76245, -21.69918], [-43.76405, -21.69814], [-43.76718, -21.69744], [-43.76714, -21.69589], [-43.76689, -21.69464], [-43.76733, -21.69243], [-43.76666, -21.69065], [-43.76647, -21.68947], [-43.76607, -21.68887], [-43.76607, -21.68845], [-43.76635, -21.68812], [-43.76728, -21.68811], [-43.76769, -21.68785], [-43.76805, -21.68727], [-43.76765, -21.68664], [-43.76776, -21.68628], [-43.76973, -21.68628], [-43.77071, -21.68612], [-43.77114, -21.68484], [-43.77195, -21.68415], [-43.77246, -21.68341], [-43.77214, -21.68178], [-43.77288, -21.68148], [-43.77368, -21.68071], [-43.7732, -21.67934], [-43.77232, -21.67818], [-43.77056, -21.67711], [-43.7699, -21.67606], [-43.77001, -21.67393], [-43.77043, -21.6716], [-43.77047, -21.67043], [-43.7713, -21.66696], [-43.77131, -21.66547], [-43.77083, -21.66429], [-43.77007, -21.66309], [-43.7687, -21.66177], [-43.76783, -21.66132], [-43.76731, -21.66127], [-43.76699, -21.6616], [-43.76703, -21.66206], [-43.76616, -21.66251], [-43.76555, -21.66323], [-43.76505, -21.66317], [-43.76426, -21.66252], [-43.76377, -21.66235], [-43.76316, -21.66272], [-43.76262, -21.66277], [-43.76219, -21.66247], [-43.7621, -21.66179], [-43.76134, -21.66089], [-43.76051, -21.66047], [-43.76043, -21.65954], [-43.76013, -21.65985], [-43.75992, -21.66076], [-43.7593, -21.66112], [-43.75881, -21.66112], [-43.75827, -21.66159], [-43.75733, -21.66194], [-43.75734, -21.66268], [-43.75711, -21.66282], [-43.75599, -21.6621], [-43.75555, -21.66215], [-43.75552, -21.6631], [-43.75533, -21.66351], [-43.75501, -21.66384], [-43.7545, -21.66393], [-43.75427, -21.66384], [-43.75418, -21.6634], [-43.75382, -21.66297], [-43.75334, -21.66277], [-43.7526, -21.66208], [-43.75209, -21.66041], [-43.75192, -21.66024], [-43.75056, -21.66005], [-43.74874, -21.65901], [-43.74714, -21.65891], [-43.74647, -21.65852], [-43.74518, -21.65844], [-43.74487, -21.65878], [-43.74478, -21.6603], [-43.74409, -21.66193], [-43.74419, -21.66412], [-43.74365, -21.66517], [-43.74366, -21.66588], [-43.74403, -21.6663], [-43.74429, -21.66716], [-43.74362, -21.66843], [-43.74192, -21.66889], [-43.74065, -21.67061], [-43.74015, -21.67072], [-43.73996, -21.67056], [-43.74002, -21.6696], [-43.73934, -21.66886], [-43.73932, -21.66806], [-43.73906, -21.66723], [-43.73913, -21.66532], [-43.7389, -21.6646], [-43.73838, -21.66407], [-43.73765, -21.66385], [-43.73659, -21.6639], [-43.73475, -21.66428], [-43.73375, -21.66414], [-43.73302, -21.66447], [-43.73291, -21.66529], [-43.73359, -21.66628], [-43.73288, -21.66692], [-43.73249, -21.66752], [-43.73266, -21.66796], [-43.73353, -21.66832], [-43.73403, -21.66951], [-43.73342, -21.67085], [-43.73356, -21.67157], [-43.73307, -21.67183], [-43.73271, -21.67249], [-43.7323, -21.67228], [-43.73184, -21.67254], [-43.7316, -21.67247], [-43.73088, -21.67207], [-43.73082, -21.67153], [-43.73059, -21.67139], [-43.72988, -21.67179], [-43.72941, -21.67165], [-43.72874, -21.67176], [-43.72804, -21.67228], [-43.72688, -21.67169], [-43.72628, -21.67115], [-43.72557, -21.67101], [-43.72539, -21.67052], [-43.72479, -21.67025]]]}}, 
{"type": "Feature", "properties": {"CD_SETOR": "314940805000007", "CD_SIT": "1", "NM_DIST": "Pedro Teixeira", "NM_SUBDIST": null}, "geometry": {"type": "Polygon", "coordinates": [[[-43.73985, -21.71179], [-43.74109, -21.71145], [-43.74149, -21.71093], [-43.74174, -21.71023], [-43.74439, -21.70817], [-43.74518, -21.70785], [-43.74696, -21.7079], [-43.748, -21.70405], [-43.74655, -21.70189], [-43.74426, -21.70189], [-43.74255, -21.70226], [-43.74136, -21.70289], [-43.73963, -21.70564], [-43.73923, -21.70709], [-43.73828, -21.70929], [-43.7387, -21.7116], [-43.73985, -21.71179]]]}}, 
{"type": "Feature", "properties": {"CD_SETOR": "314940805000008", "CD_SIT": "1", "NM_DIST": "Pedro Teixeira", "NM_SUBDIST": null}, "geometry": {"type": "Polygon", "coordinates": [[[-43.74696, -21.7079], [-43.74919, -21.70805], [-43.75309, -21.70761], [-43.75548, -21.70828], [-43.76015, -21.70801], [-43.76149, -21.70766], [-43.7604, -21.70544], [-43.75938, -21.70586], [-43.75913, -21.70624], [-43.7586, -21.70633], [-43.75811, -21.70673], [-43.75771, -21.70683], [-43.756, -21.70645], [-43.75493, -21.70599], [-43.75469, -21.70604], [-43.75229, -21.70496], [-43.75122, -21.70487], [-43.75077, -21.70495], [-43.75068, -21.70511], [-43.75039, -21.70498], [-43.75024, -21.70508], [-43.7504, -21.70529], [-43.74982, -21.70586], [-43.74927, -21.70595], [-43.74898, -21.7059], [-43.74899, -21.70551], [-43.748, -21.70405], [-43.74696, -21.7079]]]}}]}