{"type": "FeatureCollection", "features": [
{"type": "Feature", "properties": {"CD_SETOR": "316200505000001", "CD_SIT": "1", "NM_DIST": "São Gonçalo do Sapucaí", "NM_SUBDIST": null}, "geometry": {"type": "Polygon", "coordinates": [[[-45.59133, -21.89243], [-45.59181, -21.89272], [-45.59176, -21.89297], [-45.59225, -21.89329], [-45.59349, -21.89373], [-45.59403, -21.89319], [-45.59449, -21.8934], [-45.59501, -21.89303], [-45.59531, -21.89344], [-45.59824, -21.89256], [-45.59703, -21.89133], [-45.59614, -21.89082], [-45.59353, -21.89051], [-45.59157, -21.8917], [-45.59133, -21.89243]]]}}, 
{"type": "Feature", "properties": {"CD_SETOR": "316200505000003", "CD_SIT": "1", "NM_DIST": "São Gonçalo do Sapucaí", "NM_SUBDIST": null}, "geometry": {"type": "Polygon", "coordinates": [[[-45.58843, -21.89631], [-45.5899, -21.89669], [-45.59133, -21.89243], [-45.5905, -21.89197], [-45.58959, -21.891], [-45.58904, -21.8918], [-45.58873, -21.89398], [-45.58977, -21.89451], [-45.58843, -21.89631]]]}}, 
{"type": "Feature", "properties": {"CD_SETOR": "316200505000004", "CD_SIT": "1", "NM_DIST": "São Gonçalo do Sapucaí", "NM_SUBDIST": null}, "geometry": {"type": "Polygon", "coordinates": [[[-45.59048, -21.89498], [-45.59121, -21.89514], [-45.59117, -21.89533], [-45.59197, -21.89581], [-45.59269, -21.89726], [-45.59368, -21.89795], [-45.59388, -21.89752], [-45.59392, -21.89649], [-45.59348, -21.89539], [-45.59274, -21.89488], [-45.59284, -21.89437], [-45.59349, -21.89373], [-45.59225, -21.89329], [-45.59176, -21.89297], [-45.59181, -21.89272], [-45.59133, -21.89243], [-45.59048, -21.89498]]]}}, 
{"type": "Feature", "properties": {"CD_SETOR": "316200505000005", "CD_SIT": "1", "NM_DIST": "São Gonçalo do Sapucaí", "NM_SUBDIST": null}, "geometry": {"type": "Polygon", "coordinates": [[[-45.59366, -21.89582], [-45.59392, -21.89649], [-45.59388, -21.89752], [-45.59285, -21.89925], [-45.59365, -21.89999], [-45.5942, -21.90099], [-45.59506, -21.89908], [-45.59525, -21.89898], [-45.59584, -21.89785], [-45.59509, -21.89627], [-45.59416, -21.89576], [-45.59366, -21.89582]]]}}, 
{"type": "Feature", "properties": {"CD_SETOR": "316200505000006", "CD_SIT": "1", "NM_DIST": "São Gonçalo do Sapucaí", "NM_SUBDIST": null}, "geometry": {"type": "Polygon", "coordinates": [[[-45.59349, -21.89373], [-45.59284, -21.89437], [-45.59274, -21.89488], [-45.59334, -21.89523], [-45.59366, -21.89582], [-45.59416, -21.89576], [-45.59509, -21.89627], [-45.59584, -21.89785], [-45.59631, -21.89664], [-45.5964, -21.89532], [-45.59671, -21.89476], [-45.59661, -21.89433], [-45.59575, -21.8941], [-45.59501, -21.89303], [-45.59449, -21.8934], [-45.59403, -21.89319], [-45.59349, -21.89373]]]}}, 
{"type": "Feature", "properties": {"CD_SETOR": "316200505000007", "CD_SIT": "1", "NM_DIST": "São Gonçalo do Sapucaí", "NM_SUBDIST": null}, "geometry": {"type": "Polygon", "coordinates": [[[-45.59531, -21.89344], [-45.59575, -21.8941], [-45.59661, -21.89433], [-45.59669, -21.89456], [-45.59634, -21.89564], [-45.59631, -21.89664], [-45.59584, -21.89785], [-45.59733, -21.89714], [-45.59714, -21.89673], [-45.59732, -21.89516], [-45.59781, -21.89412], [-45.5996, -21.89462], [-45.59993, -21.89427], [-45.59824, -21.89256], [-45.59531, -21.89344]]]}}, 
{"type": "Feature", "properties": {"CD_SETOR": "316200505000009", "CD_SIT": "1", "NM_DIST": "São Gonçalo do Sapucaí", "NM_SUBDIST": null}, "geometry": {"type": "Polygon", "coordinates": [[[-45.59611, -21.88693], [-45.59577, -21.88941], [-45.596, -21.89078], [-45.59683, -21.89122], [-45.59913, -21.88914], [-45.59949, -21.88864], [-45.59918, -21.8882], [-45.59818, -21.88872], [-45.59676, -21.88692], [-45.59644, -21.8871], [-45.59613, -21.88665], [-45.59611, -21.88693]]]}}, 
{"type": "Feature", "properties": {"CD_SETOR": "316200505000010", "CD_SIT": "1", "NM_DIST": "São Gonçalo do Sapucaí", "NM_SUBDIST": null}, "geometry": {"type": "Polygon", "coordinates": [[[-45.58779, -21.8824], [-45.58933, -21.88328], [-45.593, -21.88441], [-45.59384, -21.88518], [-45.59332, -21.88628], [-45.59483, -21.887], [-45.59611, -21.88693], [-45.59513, -21.88311], [-45.59583, -21.88282], [-45.59598, -21.88233], [-45.59655, -21.88173], [-45.59663, -21.88129], [-45.59698, -21.88073], [-45.59744, -21.88052], [-45.5975, -21.88], [-45.59615, -21.87967], [-45.59563, -21.87906], [-45.59518, -21.87807], [-45.58779, -21.8824]]]}}, 
{"type": "Feature", "properties": {"CD_SETOR": "316200505000011", "CD_SIT": "1", "NM_DIST": "São Gonçalo do Sapucaí", "NM_SUBDIST": null}, "geometry": {"type": "Polygon", "coordinates": [[[-45.59372, -21.88853], [-45.59352, -21.8889], [-45.59438, -21.88885], [-45.59441, -21.88872], [-45.59577, -21.88941], [-45.59611, -21.88693], [-45.59483, -21.887], [-45.59332, -21.88628], [-45.59267, -21.88765], [-45.59391, -21.88815], [-45.59372, -21.88853]]]}}, 
{"type": "Feature", "properties": {"CD_SETOR": "316200505000012", "CD_SIT": "1", "NM_DIST": "São Gonçalo do Sapucaí", "NM_SUBDIST": null}, "geometry": {"type": "Polygon", "coordinates": [[[-45.59024, -21.88362], [-45.58986, -21.88403], [-45.59104, -21.88444], [-45.58991, -21.88741], [-45.59102, -21.88716], [-45.59114, -21.88769], [-45.59216, -21.88786], [-45.59372, -21.88853], [-45.59391, -21.88815], [-45.59267, -21.88765], [-45.59384, -21.88518], [-45.59359, -21.88486], [-45.59254, -21.8842], [-45.59024, -21.88362]]]}}, 
{"type": "Feature", "properties": {"CD_SETOR": "316200505000013", "CD_SIT": "1", "NM_DIST": "São Gonçalo do Sapucaí", "NM_SUBDIST": null}, "geometry": {"type": "Polygon", "coordinates": [[[-45.58169, -21.88628], [-45.58276, -21.88621], [-45.58372, -21.88648], [-45.58559, -21.88838], [-45.58579, -21.88832], [-45.58638, -21.88758], [-45.58721, -21.88747], [-45.58793, -21.8876], [-45.58859, -21.88733], [-45.58921, -21.88749], [-45.58932, -21.88851], [-45.59033, -21.88905], [-45.59343, -21.88893], [-45.59372, -21.88853], [-45.59216, -21.88786], [-45.59114, -21.88769], [-45.59102, -21.88716], [-45.58991, -21.88741], [-45.59104, -21.88444], [-45.58986, -21.88403], [-45.59024, -21.88362], [-45.58894, -21.88313], [-45.58779, -21.8824], [-45.58169, -21.88628]]]}}, 
{"type": "Feature", "properties": {"CD_SETOR": "316200505000015", "CD_SIT": "1", "NM_DIST": "São Gonçalo do Sapucaí", "NM_SUBDIST": null}, "geometry": {"type": "Polygon", "coordinates": [[[-45.57687, -21.89337], [-45.57526, -21.89712], [-45.57588, -21.8979], [-45.57758, -21.89828], [-45.57936, -21.89828], [-45.58082, -21.89804], [-45.58456, -21.89659], [-45.58553, -21.89595], [-45.58621, -21.89576], [-45.58663, -21.89575], [-45.58777, -21.89638], [-45.58843, -21.89631], [-45.58977, -21.89451], [-45.58873, -21.89398], [-45.58904, -21.8918], [-45.58959, -21.891], [-45.58799, -21.88994], [-45.58768, -21.89103], [-45.58717, -21.89084], [-45.585, -21.89146], [-45.58406, -21.89266], [-45.58378, -21.8926], [-45.58352, -21.8928], [-45.58139, -21.89477], [-45.58048, -21.89495], [-45.57809, -21.89382], [-45.57738, -21.89372], [-45.57687, -21.89337]]]}}, 
{"type": "Feature", "properties": {"CD_SETOR": "316200505000016", "CD_SIT": "1", "NM_DIST": "São Gonçalo do Sapucaí", "NM_SUBDIST": null}, "geometry": {"type": "Polygon", "coordinates": [[[-45.57895, -21.91318], [-45.57914, -21.91264], [-45.57825, -21.90932], [-45.57838, -21.90855], [-45.57883, -21.90784], [-45.5795, -21.90722], [-45.58276, -21.90507], [-45.58365, -21.90411], [-45.58259, -21.90407], [-45.58212, -21.90447], [-45.58153, -21.90283], [-45.58076, -21.90275], [-45.58025, -21.90147], [-45.57999, -21.89958], [-45.57918, -21.89964], [-45.57922, -21.89874], [-45.58018, -21.89864], [-45.58011, -21.89817], [-45.57823, -21.89833], [-45.57718, -21.89825], [-45.57588, -21.8979], [-45.57526, -21.89712], [-45.57514, -21.89627], [-45.57486, -21.89587], [-45.57386, -21.89475], [-45.57336, -21.89383], [-45.57243, -21.89318], [-45.5721, -21.89505], [-45.57223, -21.89645], [-45.57182, -21.89807], [-45.56966, -21.89981], [-45.5699, -21.90059], [-45.5698, -21.90228], [-45.56915, -21.90345], [-45.56856, -21.9053], [-45.56949, -21.90708], [-45.57055, -21.90726], [-45.57248, -21.90716], [-45.57439, -21.90772], [-45.57447, -21.90904], [-45.57486, -21.91025], [-45.57643, -21.9115], [-45.57654, -21.91235], [-45.57749, -21.91292], [-45.57848, -21.91327], [-45.57895, -21.91318]]]}}, 
{"type": "Feature", "properties": {"CD_SETOR": "316200505000017", "CD_SIT": "1", "NM_DIST": "São Gonçalo do Sapucaí", "NM_SUBDIST": null}, "geometry": {"type": "Polygon", "coordinates": [[[-45.58018, -21.89864], [-45.57922, -21.89874], [-45.57918, -21.89964], [-45.57999, -21.89958], [-45.58025, -21.90147], [-45.58076, -21.90275], [-45.58101, -21.90277], [-45.58156, -21.90108], [-45.58043, -21.89862], [-45.58018, -21.89864]]]}}, 
{"type": "Feature", "properties": {"CD_SETOR": "316200505000018", "CD_SIT": "1", "NM_DIST": "São Gonçalo do Sapucaí", "NM_SUBDIST": null}, "geometry": {"type": "Polygon", "coordinates": [[[-45.58043, -21.89862], [-45.58156, -21.90108], [-45.58101, -21.90277], [-45.58153, -21.90283], [-45.58207, -21.90443], [-45.58224, -21.90447], [-45.58416, -21.90213], [-45.58335, -21.90165], [-45.5831, -21.90117], [-45.58346, -21.89958], [-45.58319, -21.8984], [-45.58386, -21.89714], [-45.58155, -21.89835], [-45.58043, -21.89862]]]}}, 
{"type": "Feature", "properties": {"CD_SETOR": "316200505000019", "CD_SIT": "1", "NM_DIST": "São Gonçalo do Sapucaí", "NM_SUBDIST": null}, "geometry": {"type": "Polygon", "coordinates": [[[-45.58346, -21.89958], [-45.5831, -21.90117], [-45.58335, -21.90165], [-45.58416, -21.90213], [-45.58259, -21.90407], [-45.58365, -21.90411], [-45.58364, -21.90423], [-45.58546, -21.90222], [-45.58751, -21.89871], [-45.58601, -21.89896], [-45.58569, -21.89883], [-45.58553, -21.89854], [-45.58644, -21.89661], [-45.58437, -21.8978], [-45.58346, -21.89958]]]}}, 
{"type": "Feature", "properties": {"CD_SETOR": "316200505000020", "CD_SIT": "1", "NM_DIST": "São Gonçalo do Sapucaí", "NM_SUBDIST": null}, "geometry": {"type": "Polygon", "coordinates": [[[-45.58777, -21.89638], [-45.58644, -21.89661], [-45.58554, -21.89843], [-45.58569, -21.89883], [-45.58621, -21.89895], [-45.58751, -21.89871], [-45.58823, -21.89784], [-45.5899, -21.89669], [-45.58835, -21.89629], [-45.58777, -21.89638]]]}}, 
{"type": "Feature", "properties": {"CD_SETOR": "316200505000021", "CD_SIT": "1", "NM_DIST": "São Gonçalo do Sapucaí", "NM_SUBDIST": null}, "geometry": {"type": "Polygon", "coordinates": [[[-45.5899, -21.89669], [-45.58844, -21.89767], [-45.58783, -21.89826], [-45.58575, -21.90174], [-45.58689, -21.90231], [-45.58732, -21.90177], [-45.58817, -21.90219], [-45.59018, -21.90108], [-45.59024, -21.90032], [-45.59112, -21.89991], [-45.59194, -21.89903], [-45.59422, -21.90133], [-45.5944, -21.90133], [-45.59365, -21.89999], [-45.59285, -21.89925], [-45.59368, -21.89795], [-45.59269, -21.89726], [-45.59197, -21.89581], [-45.59117, -21.89533], [-45.59121, -21.89514], [-45.59048, -21.89498], [-45.5899, -21.89669]]]}}, 
{"type": "Feature", "properties": {"CD_SETOR": "316200505000022", "CD_SIT": "2", "NM_DIST": "São Gonçalo do Sapucaí", "NM_SUBDIST": null}, "geometry": {"type": "Polygon", "coordinates": [[[-45.59733, -21.89714], [-45.59584, -21.89785], [-45.59525, -21.89898], [-45.59506, -21.89908], [-45.5942, -21.90099], [-45.59441, -21.90135], [-45.59454, -21.90247], [-45.5954, -21.90448], [-45.59629, -21.90735], [-45.59728, -21.90817], [-45.59831, -21.90934], [-45.59878, -21.90937], [-45.60004, -21.91025], [-45.5984, -21.91083], [-45.59806, -21.91109], [-45.59772, -21.91201], [-45.59792, -21.91311], [-45.59721, -21.91739], [-45.59739, -21.91873], [-45.59785, -21.91969], [-45.59804, -21.92052], [-45.59805, -21.92128], [-45.59779, -21.92248], [-45.60571, -21.92308], [-45.60934, -21.9232], [-45.60901, -21.93302], [-45.61103, -21.94166], [-45.61327, -21.94516], [-45.61492, -21.94161], [-45.62021, -21.92402], [-45.62074, -21.92278], [-45.62122, -21.92095], [-45.62147, -21.92055], [-45.62253, -21.91959], [-45.62434, -21.91876], [-45.62485, -21.91838], [-45.62585, -21.91707], [-45.62632, -21.91587], [-45.62621, -21.91523], [-45.62924, -21.91759], [-45.63164, -21.91799], [-45.63085, -21.91664], [-45.62935, -21.91578], [-45.6287, -21.91523], [-45.62623, -21.91393], [-45.62564, -21.91342], [-45.62405, -21.91129], [-45.62337, -21.91017], [-45.62358, -21.90707], [-45.62328, -21.90612], [-45.6216, -21.90556], [-45.62143, -21.9052], [-45.61935, -21.90751], [-45.61692, -21.90573], [-45.61305, -21.90453], [-45.61111, -21.9041], [-45.60968, -21.90252], [-45.60779, -21.90169], [-45.60702, -21.90074], [-45.60514, -21.89748], [-45.60439, -21.89646], [-45.60411, -21.89676], [-45.6027, -21.89677], [-45.60137, -21.89622], [-45.60083, -21.89569], [-45.60027, -21.89589], [-45.59962, -21.89665], [-45.59951, -21.89705], [-45.59899, -21.89728], [-45.59872, -21.89764], [-45.59733, -21.89714]]]}}, 
{"type": "Feature", "properties": {"CD_SETOR": "316200505000023", "CD_SIT": "1", "NM_DIST": "São Gonçalo do Sapucaí", "NM_SUBDIST": null}, "geometry": {"type": "Polygon", "coordinates": [[[-45.59733, -21.89714], [-45.59872, -21.89764], [-45.59899, -21.89728], [-45.59951, -21.89705], [-45.59962, -21.89665], [-45.60027, -21.89589], [-45.60083, -21.89569], [-45.60137, -21.89622], [-45.6027, -21.89677], [-45.60411, -21.89676], [-45.60439, -21.89646], [-45.60233, -21.89531], [-45.59993, -21.89427], [-45.5996, -21.89462], [-45.59781, -21.89412], [-45.59732, -21.89516], [-45.59714, -21.89673], [-45.59733, -21.89714]]]}}, 
{"type": "Feature", "properties": {"CD_SETOR": "316200505000024", "CD_SIT": "1", "NM_DIST": "São Gonçalo do Sapucaí", "NM_SUBDIST": null}, "geometry": {"type": "Polygon", "coordinates": [[[-45.60135, -21.89491], [-45.60439, -21.89646], [-45.60483, -21.89704], [-45.60534, -21.89685], [-45.60594, -21.89635], [-45.6068, -21.89616], [-45.60626, -21.89542], [-45.60578, -21.89525], [-45.6055, -21.89536], [-45.60486, -21.89516], [-45.60459, -21.89525], [-45.6036, -21.8944], [-45.60243, -21.89374], [-45.60135, -21.89491]]]}}, 
{"type": "Feature", "properties": {"CD_SETOR": "316200505000025", "CD_SIT": "1", "NM_DIST": "São Gonçalo do Sapucaí", "NM_SUBDIST": null}, "geometry": {"type": "Polygon", "coordinates": [[[-45.60483, -21.89704], [-45.60702, -21.90074], [-45.60779, -21.90169], [-45.60968, -21.90252], [-45.61111, -21.9041], [-45.6146, -21.905], [-45.61544, -21.90278], [-45.61458, -21.90121], [-45.61407, -21.89978], [-45.61297, -21.89906], [-45.61305, -21.89814], [-45.61075, -21.89751], [-45.60994, -21.89751], [-45.60897, -21.89698], [-45.60729, -21.89672], [-45.60698, -21.89653], [-45.6068, -21.89616], [-45.60594, -21.89635], [-45.60534, -21.89685], [-45.60483, -21.89704]]]}}, 
{"type": "Feature", "properties": {"CD_SETOR": "316200505000026", "CD_SIT": "1", "NM_DIST": "São Gonçalo do Sapucaí", "NM_SUBDIST": null}, "geometry": {"type": "Polygon", "coordinates": [[[-45.60651, -21.89352], [-45.60464, -21.89356], [-45.6033, -21.89383], [-45.60274, -21.89344], [-45.60243, -21.89374], [-45.6036, -21.8944], [-45.60438, -21.89515], [-45.6055, -21.89536], [-45.60578, -21.89525], [-45.60648, -21.8956], [-45.60654, -21.8959], [-45.60727, -21.89555], [-45.60835, -21.89306], [-45.60651, -21.89352]]]}}, 
{"type": "Feature", "properties": {"CD_SETOR": "316200505000027", "CD_SIT": "8", "NM_DIST": "São Gonçalo do Sapucaí", "NM_SUBDIST": null}, "geometry": {"type": "Polygon", "coordinates": [[[-45.55189, -21.79097], [-45.55033, -21.79106], [-45.54585, -21.79234], [-45.54318, -21.79247], [-45.5397, -21.79364], [-45.53843, -21.79371], [-45.53437, -21.79315], [-45.53156, -21.79307], [-45.53014, -21.7942], [-45.52861, -21.79513], [-45.52703, -21.79572], [-45.5242, -21.79567], [-45.51817, -21.79486], [-45.51671, -21.79487], [-45.51277, -21.79547], [-45.50788, -21.79813], [-45.507, -21.79837], [-45.5061, -21.79827], [-45.50507, -21.79775], [-45.5042, -21.79759], [-45.50181, -21.79674], [-45.4994, -21.79665], [-45.4989, -21.79697], [-45.49884, -21.79856], [-45.49907, -21.79962], [-45.49908, -21.80185], [-45.49878, -21.80368], [-45.49509, -21.80906], [-45.49435, -21.81035], [-45.49329, -21.81306], [-45.4935, -21.81393], [-45.49407, -21.81501], [-45.49418, -21.81566], [-45.49418, -21.81638], [-45.4938, -21.81738], [-45.4938, -21.81781], [-45.49409, -21.81795], [-45.49436, -21.81855], [-45.49419, -21.81973], [-45.49537, -21.82277], [-45.49574, -21.82334], [-45.49596, -21.82449], [-45.49712, -21.82494], [-45.49761, -21.8256], [-45.49886, -21.82676], [-45.49877, -21.82739], [-45.49843, -21.82812], [-45.49842, -21.82893], [-45.49907, -21.82982], [-45.50004, -21.83037], [-45.50043, -21.83091], [-45.50124, -21.83141], [-45.50493, -21.83438], [-45.50552, -21.83553], [-45.50555, -21.83595], [-45.50613, -21.836], [-45.50902, -21.8356], [-45.51114, -21.83669], [-45.51186, -21.83689], [-45.51305, -21.83692], [-45.51395, -21.83734], [-45.51572, -21.83755], [-45.51696, -21.83853], [-45.5178, -21.83968], [-45.51892, -21.84027], [-45.52131, -21.84063], [-45.52275, -21.84052], [-45.52771, -21.8437], [-45.52859, -21.84393], [-45.53136, -21.84376], [-45.53827, -21.84971], [-45.5392, -21.85175], [-45.53982, -21.85381], [-45.54067, -21.85483], [-45.54258, -21.85595], [-45.54502, -21.85809], [-45.54711, -21.85964], [-45.54969, -21.86269], [-45.5526, -21.86494], [-45.55353, -21.86545], [-45.5544, -21.86569], [-45.55605, -21.86681], [-45.55792, -21.86745], [-45.55982, -21.86989], [-45.56084, -21.87084], [-45.56492, -21.8732], [-45.56607, -21.87356], [-45.56729, -21.87316], [-45.56818, -21.87219], [-45.56926, -21.8716], [-45.57216, -21.87088], [-45.57258, -21.87093], [-45.57289, -21.87269], [-45.57179, -21.87379], [-45.57139, -21.87495], [-45.57166, -21.87755], [-45.5722, -21.87935], [-45.57416, -21.88209], [-45.57567, -21.8827], [-45.57612, -21.88257], [-45.57803, -21.88313], [-45.58083, -21.88539], [-45.58169, -21.88628], [-45.58779, -21.8824], [-45.59518, -21.87807], [-45.59563, -21.87906], [-45.59615, -21.87967], [-45.59721, -21.87988], [-45.59821, -21.88039], [-45.59945, -21.88362], [-45.59909, -21.88375], [-45.59974, -21.88474], [-45.59976, -21.88504], [-45.59914, -21.88564], [-45.60024, -21.88557], [-45.60321, -21.88275], [-45.60367, -21.88256], [-45.60499, -21.88255], [-45.60523, -21.88233], [-45.60577, -21.8811], [-45.60572, -21.88008], [-45.60611, -21.8796], [-45.60596, -21.87893], [-45.60529, -21.87882], [-45.60555, -21.8777], [-45.60746, -21.87871], [-45.60953, -21.87713], [-45.60927, -21.8764], [-45.60941, -21.87597], [-45.60922, -21.873], [-45.61003, -21.87067], [-45.61067, -21.86936], [-45.61074, -21.86637], [-45.61054, -21.86601], [-45.61094, -21.86487], [-45.61116, -21.86467], [-45.61216, -21.86479], [-45.61275, -21.86424], [-45.61248, -21.86357], [-45.6112, -21.86237], [-45.60879, -21.86125], [-45.60699, -21.85967], [-45.60644, -21.85825], [-45.60706, -21.85791], [-45.60785, -21.85702], [-45.6064, -21.85555], [-45.60648, -21.85493], [-45.60625, -21.85296], [-45.6065, -21.8524], [-45.60715, -21.85242], [-45.60756, -21.8522], [-45.60843, -21.85205], [-45.60862, -21.85075], [-45.60882, -21.85069], [-45.60896, -21.84929], [-45.6091, -21.84907], [-45.60812, -21.84921], [-45.60716, -21.84988], [-45.60635, -21.84974], [-45.60596, -21.84906], [-45.60539, -21.84713], [-45.60529, -21.84619], [-45.60457, -21.84431], [-45.60397, -21.84368], [-45.60197, -21.8439], [-45.60104, -21.84354], [-45.59919, -21.84057], [-45.59875, -21.83957], [-45.59837, -21.83732], [-45.5984, -21.83589], [-45.59926, -21.83437], [-45.60127, -21.832], [-45.60147, -21.83129], [-45.60146, -21.83054], [-45.60097, -21.82998], [-45.60006, -21.82933], [-45.59964, -21.82843], [-45.59944, -21.8269], [-45.59832, -21.82563], [-45.59457, -21.82388], [-45.59261, -21.8232], [-45.59184, -21.82249], [-45.59173, -21.82204], [-45.59201, -21.82141], [-45.5934, -21.82028], [-45.59481, -21.81706], [-45.59702, -21.81328], [-45.59776, -21.8129], [-45.59969, -21.81233], [-45.60271, -21.81047], [-45.60517, -21.80962], [-45.60581, -21.80897], [-45.6062, -21.80761], [-45.60623, -21.80656], [-45.60599, -21.80573], [-45.60323, -21.80247], [-45.60279, -21.80163], [-45.60167, -21.80045], [-45.60112, -21.80014], [-45.59833, -21.79937], [-45.59684, -21.79832], [-45.59593, -21.79745], [-45.59535, -21.7972], [-45.59393, -21.79602], [-45.59329, -21.79528], [-45.59216, -21.79443], [-45.59062, -21.79368], [-45.58695, -21.79264], [-45.58486, -21.79122], [-45.58308, -21.79058], [-45.58118, -21.79082], [-45.58066, -21.79107], [-45.57555, -21.79091], [-45.57186, -21.79233], [-45.57071, -21.7925], [-45.56914, -21.79249], [-45.56656, -21.79222], [-45.56415, -21.7916], [-45.56232, -21.79151], [-45.5609, -21.79125], [-45.55968, -21.7907], [-45.55794, -21.78955], [-45.55675, -21.78912], [-45.55621, -21.78908], [-45.55598, -21.78942], [-45.55468, -21.78969], [-45.55189, -21.79097]]]}}, 
{"type": "Feature", "properties": {"CD_SETOR": "316200505000028", "CD_SIT": "8", "NM_DIST": "São Gonçalo do Sapucaí", "NM_SUBDIST": null}, "geometry": {"type": "Polygon", "coordinates": [[[-45.49182, -21.84975], [-45.49239, -21.85102], [-45.49327, -21.85389], [-45.49372, -21.85561], [-45.49381, -21.85703], [-45.49292, -21.85874], [-45.49226, -21.8596], [-45.49024, -21.86451], [-45.49025, -21.86558], [-45.49124, -21.86925], [-45.49136, -21.87364], [-45.49096, -21.87645], [-45.49079, -21.87923], [-45.49006, -21.88222], [-45.48969, -21.88319], [-45.48883, -21.884], [-45.48845, -21.88463], [-45.49006, -21.88497], [-45.49264, -21.88491], [-45.49508, -21.88506], [-45.49785, -21.8855], [-45.49901, -21.88602], [-45.49946, -21.88633], [-45.49992, -21.88725], [-45.50041, -21.88769], [-45.50158, -21.88816], [-45.50342, -21.89068], [-45.50615, -21.89342], [-45.50843, -21.89418], [-45.51209, -21.89455], [-45.51294, -21.89491], [-45.514, -21.89603], [-45.5149, -21.89853], [-45.51581, -21.89972], [-45.51672, -21.90035], [-45.51835, -21.90062], [-45.52032, -21.90133], [-45.52144, -21.90199], [-45.52259, -21.90311], [-45.52323, -21.90416], [-45.52385, -21.90583], [-45.52392, -21.90683], [-45.52357, -21.90799], [-45.52263, -21.90889], [-45.52042, -21.90935], [-45.51948, -21.9099], [-45.51911, -21.91027], [-45.51892, -21.91102], [-45.51896, -21.91177], [-45.51931, -21.91252], [-45.52151, -21.91465], [-45.52192, -21.91545], [-45.52193, -21.91598], [-45.52089, -21.91866], [-45.52075, -21.92054], [-45.52099, -21.92141], [-45.52181, -21.92281], [-45.52194, -21.9243], [-45.5216, -21.92527], [-45.52102, -21.9261], [-45.52011, -21.92672], [-45.5175, -21.92802], [-45.51727, -21.92844], [-45.51714, -21.9294], [-45.51718, -21.93039], [-45.51739, -21.93088], [-45.51787, -21.93146], [-45.51916, -21.93197], [-45.5204, -21.93196], [-45.52233, -21.93145], [-45.52313, -21.93147], [-45.52417, -21.93176], [-45.52674, -21.93328], [-45.52784, -21.93429], [-45.52831, -21.93542], [-45.52926, -21.93604], [-45.53023, -21.93704], [-45.5318, -21.93828], [-45.53207, -21.93939], [-45.53195, -21.93985], [-45.53148, -21.94055], [-45.52953, -21.94233], [-45.529, -21.94407], [-45.52923, -21.94532], [-45.53112, -21.94695], [-45.53185, -21.94827], [-45.53172, -21.94999], [-45.5304, -21.9525], [-45.53157, -21.95221], [-45.53312, -21.95208], [-45.53406, -21.95232], [-45.5352, -21.95229], [-45.53648, -21.95272], [-45.53886, -21.95305], [-45.54021, -21.9539], [-45.54092, -21.95487], [-45.54172, -21.95555], [-45.54364, -21.95479], [-45.54775, -21.9544], [-45.54786, -21.95274], [-45.5488, -21.95032], [-45.54969, -21.94974], [-45.55116, -21.94774], [-45.55256, -21.94706], [-45.55546, -21.94356], [-45.55648, -21.94181], [-45.55618, -21.93956], [-45.55576, -21.93852], [-45.55582, -21.93782], [-45.55674, -21.93455], [-45.55758, -21.93264], [-45.55795, -21.92965], [-45.5582, -21.92895], [-45.55876, -21.92822], [-45.55895, -21.92725], [-45.55979, -21.92646], [-45.56155, -21.92657], [-45.56248, -21.92567], [-45.5634, -21.92527], [-45.56383, -21.92467], [-45.56382, -21.92374], [-45.56341, -21.92281], [-45.56298, -21.92268], [-45.56176, -21.92178], [-45.56356, -21.922], [-45.56443, -21.92146], [-45.56632, -21.91841], [-45.56711, -21.9167], [-45.56869, -21.91581], [-45.56975, -21.91496], [-45.56984, -21.91425], [-45.57008, -21.91382], [-45.57093, -21.91369], [-45.57225, -21.91389], [-45.57483, -21.91454], [-45.5753, -21.91425], [-45.57566, -21.91372], [-45.57495, -21.91259], [-45.57173, -21.90934], [-45.57082, -21.90892], [-45.56857, -21.90897], [-45.56496, -21.90958], [-45.56307, -21.90928], [-45.56056, -21.90769], [-45.55591, -21.9025], [-45.55356, -21.89849], [-45.55228, -21.89717], [-45.54993, -21.89571], [-45.54934, -21.89478], [-45.54896, -21.89374], [-45.54972, -21.89372], [-45.55132, -21.8941], [-45.55335, -21.89423], [-45.5541, -21.89397], [-45.55521, -21.894], [-45.55681, -21.89292], [-45.55761, -21.89201], [-45.55764, -21.89108], [-45.55961, -21.89059], [-45.5611, -21.88983], [-45.56194, -21.88921], [-45.56319, -21.88907], [-45.56496, -21.88978], [-45.56701, -21.89088], [-45.56864, -21.89106], [-45.56987, -21.89165], [-45.57054, -21.89215], [-45.57123, -21.89303], [-45.57219, -21.89308], [-45.5728, -21.89335], [-45.57336, -21.89383], [-45.57386, -21.89475], [-45.57514, -21.89627], [-45.57525, -21.89704], [-45.57687, -21.89337], [-45.58169, -21.88628], [-45.58083, -21.88539], [-45.57803, -21.88313], [-45.57612, -21.88257], [-45.57567, -21.8827], [-45.57416, -21.88209], [-45.5722, -21.87935], [-45.57166, -21.87755], [-45.57139, -21.87495], [-45.57179, -21.87379], [-45.57289, -21.87269], [-45.57258, -21.87093], [-45.57216, -21.87088], [-45.56926, -21.8716], [-45.56818, -21.87219], [-45.56729, -21.87316], [-45.56607, -21.87356], [-45.56492, -21.8732], [-45.56084, -21.87084], [-45.55982, -21.86989], [-45.55792, -21.86745], [-45.55605, -21.86681], [-45.5544, -21.86569], [-45.55353, -21.86545], [-45.5526, -21.86494], [-45.54969, -21.86269], [-45.54711, -21.85964], [-45.54502, -21.85809], [-45.54258, -21.85595], [-45.54067, -21.85483], [-45.53982, -21.85381], [-45.5392, -21.85175], [-45.53827, -21.84971], [-45.53136, -21.84376], [-45.52859, -21.84393], [-45.52771, -21.8437], [-45.52275, -21.84052], [-45.52131, -21.84063], [-45.51892, -21.84027], [-45.5178, -21.83968], [-45.51696, -21.83853], [-45.51572, -21.83755], [-45.51395, -21.83734], [-45.51305, -21.83692], [-45.51186, -21.83689], [-45.51114, -21.83669], [-45.50902, -21.8356], [-45.50613, -21.836], [-45.50555, -21.83595], [-45.50521, -21.8367], [-45.50462, -21.83739], [-45.50348, -21.83815], [-45.50141, -21.83993], [-45.501, -21.84067], [-45.50066, -21.84193], [-45.5003, -21.8462], [-45.49953, -21.84721], [-45.49915, -21.84835], [-45.49858, -21.84937], [-45.49796, -21.84982], [-45.49743, -21.84988], [-45.49701, -21.84963], [-45.4957, -21.84699], [-45.49478, -21.84559], [-45.493, -21.8435], [-45.49155, -21.84258], [-45.49025, -21.84209], [-45.48883, -21.84129], [-45.48764, -21.84024], [-45.48739, -21.83969], [-45.48679, -21.8363], [-45.48646, -21.83537], [-45.48533, -21.83445], [-45.48404, -21.83447], [-45.48259, -21.83548], [-45.48134, -21.83681], [-45.48014, -21.83783], [-45.47993, -21.83827], [-45.48004, -21.83884], [-45.4815, -21.84043], [-45.48408, -21.84193], [-45.4872, -21.84412], [-45.49006, -21.84709], [-45.49182, -21.84975]]]}}, 
{"type": "Feature", "properties": {"CD_SETOR": "316200505000030", "CD_SIT": "8", "NM_DIST": "São Gonçalo do Sapucaí", "NM_SUBDIST": null}, "geometry": {"type": "Polygon", "coordinates": [[[-45.69023, -21.82968], [-45.68922, -21.83061], [-45.6881, -21.83224], [-45.68765, -21.83476], [-45.6867, -21.83674], [-45.68596, -21.83764], [-45.68549, -21.83852], [-45.68448, -21.83919], [-45.68431, -21.84024], [-45.68323, -21.84247], [-45.68402, -21.84462], [-45.68527, -21.84677], [-45.68506, -21.84758], [-45.68516, -21.84925], [-45.68334, -21.85048], [-45.68259, -21.85202], [-45.6821, -21.85265], [-45.68208, -21.85407], [-45.68278, -21.85432], [-45.68412, -21.85516], [-45.68565, -21.85654], [-45.68608, -21.8584], [-45.68574, -21.86065], [-45.68165, -21.86133], [-45.68084, -21.86222], [-45.68015, -21.86397], [-45.67836, -21.86728], [-45.67868, -21.86921], [-45.67654, -21.87174], [-45.67596, -21.87337], [-45.67491, -21.87412], [-45.67261, -21.87459], [-45.67109, -21.87597], [-45.66935, -21.87663], [-45.66838, -21.87786], [-45.66778, -21.87914], [-45.66791, -21.88303], [-45.66723, -21.88361], [-45.66669, -21.88485], [-45.66753, -21.88689], [-45.66793, -21.88875], [-45.66727, -21.89009], [-45.66648, -21.89114], [-45.66487, -21.89281], [-45.6602, -21.89845], [-45.65891, -21.8991], [-45.65902, -21.90025], [-45.65718, -21.9005], [-45.65605, -21.90039], [-45.65597, -21.90087], [-45.65536, -21.90117], [-45.65459, -21.90131], [-45.65414, -21.9011], [-45.65336, -21.89988], [-45.65176, -21.89999], [-45.65175, -21.90118], [-45.65239, -21.90173], [-45.65235, -21.90335], [-45.65259, -21.90401], [-45.65096, -21.90429], [-45.6497, -21.90342], [-45.64906, -21.90076], [-45.64885, -21.90048], [-45.64922, -21.90009], [-45.64903, -21.89944], [-45.64816, -21.89892], [-45.64836, -21.89845], [-45.64699, -21.89773], [-45.64465, -21.89792], [-45.64389, -21.89774], [-45.64332, -21.89678], [-45.64235, -21.89566], [-45.63401, -21.89423], [-45.63109, -21.8947], [-45.62919, -21.89426], [-45.62759, -21.89356], [-45.62613, -21.89358], [-45.6255, -21.89406], [-45.62491, -21.89404], [-45.62375, -21.89351], [-45.62258, -21.89328], [-45.62155, -21.89348], [-45.62114, -21.89334], [-45.62081, -21.89292], [-45.62054, -21.89184], [-45.6194, -21.89082], [-45.61927, -21.8909], [-45.61909, -21.89303], [-45.61921, -21.89323], [-45.61894, -21.89428], [-45.61903, -21.89505], [-45.61881, -21.89558], [-45.61826, -21.89617], [-45.61814, -21.89674], [-45.6192, -21.89965], [-45.61953, -21.90265], [-45.62044, -21.90422], [-45.62155, -21.90528], [-45.6216, -21.90556], [-45.62328, -21.90612], [-45.62358, -21.90707], [-45.62337, -21.91017], [-45.62405, -21.91129], [-45.62564, -21.91342], [-45.62623, -21.91393], [-45.6287, -21.91523], [-45.62935, -21.91578], [-45.63085, -21.91664], [-45.63164, -21.91799], [-45.62924, -21.91759], [-45.62621, -21.91523], [-45.62632, -21.91587], [-45.62585, -21.91707], [-45.62485, -21.91838], [-45.62494, -21.91913], [-45.62606, -21.92035], [-45.6316, -21.9212], [-45.63386, -21.92187], [-45.63518, -21.92273], [-45.63738, -21.92338], [-45.6393, -21.92342], [-45.64069, -21.92433], [-45.64219, -21.92489], [-45.64372, -21.92512], [-45.64486, -21.92548], [-45.64632, -21.92561], [-45.64814, -21.92503], [-45.64993, -21.92388], [-45.65421, -21.92194], [-45.65571, -21.92355], [-45.65679, -21.92567], [-45.6568, -21.92865], [-45.65659, -21.92926], [-45.6567, -21.9301], [-45.65725, -21.93178], [-45.65649, -21.93398], [-45.65716, -21.93665], [-45.65775, -21.93691], [-45.65811, -21.93769], [-45.66001, -21.93883], [-45.66053, -21.93839], [-45.66224, -21.93795], [-45.6636, -21.93786], [-45.66519, -21.93817], [-45.66655, -21.93976], [-45.66732, -21.94021], [-45.66835, -21.94054], [-45.67, -21.94079], [-45.67366, -21.93999], [-45.67504, -21.94053], [-45.67664, -21.94213], [-45.67887, -21.9436], [-45.68014, -21.94577], [-45.68088, -21.94588], [-45.68164, -21.94627], [-45.68273, -21.94656], [-45.68315, -21.94622], [-45.68483, -21.94675], [-45.6855, -21.94674], [-45.68579, -21.94659], [-45.68532, -21.94497], [-45.68513, -21.94344], [-45.68566, -21.94108], [-45.68561, -21.93815], [-45.68528, -21.93617], [-45.68185, -21.93452], [-45.68042, -21.93353], [-45.67799, -21.93239], [-45.67428, -21.93098], [-45.67214, -21.92856], [-45.6697, -21.92506], [-45.66808, -21.92201], [-45.66793, -21.92019], [-45.66856, -21.9185], [-45.66941, -21.91696], [-45.67072, -21.91582], [-45.672, -21.91504], [-45.67407, -21.91513], [-45.67592, -21.91549], [-45.67986, -21.91278], [-45.68149, -21.91232], [-45.68306, -21.91235], [-45.68524, -21.9145], [-45.68685, -21.91499], [-45.69162, -21.91552], [-45.69309, -21.91651], [-45.69409, -21.91817], [-45.69702, -21.9204], [-45.69992, -21.92189], [-45.70237, -21.92211], [-45.70515, -21.92208], [-45.70629, -21.92175], [-45.70646, -21.92065], [-45.7047, -21.9166], [-45.70508, -21.91515], [-45.70586, -21.91392], [-45.70739, -21.91424], [-45.70886, -21.91553], [-45.70983, -21.91746], [-45.71016, -21.91897], [-45.71003, -21.9214], [-45.70954, -21.92469], [-45.70899, -21.92712], [-45.70914, -21.92966], [-45.70954, -21.93082], [-45.71018, -21.93185], [-45.71108, -21.93231], [-45.71229, -21.93227], [-45.71416, -21.92856], [-45.7145, -21.92653], [-45.7157, -21.92306], [-45.71732, -21.91991], [-45.71895, -21.91747], [-45.71947, -21.91484], [-45.71842, -21.91063], [-45.71923, -21.90953], [-45.72022, -21.90886], [-45.72239, -21.90806], [-45.72613, -21.90728], [-45.72724, -21.90738], [-45.72981, -21.90961], [-45.73128, -21.91043], [-45.73126, -21.91002], [-45.73173, -21.90995], [-45.73375, -21.91054], [-45.73583, -21.91065], [-45.73646, -21.91037], [-45.73682, -21.91], [-45.7368, -21.90932], [-45.73646, -21.908], [-45.73447, -21.90465], [-45.7346, -21.90374], [-45.73506, -21.90314], [-45.73548, -21.9029], [-45.73841, -21.90223], [-45.73916, -21.90158], [-45.7392, -21.90128], [-45.7392, -21.9], [-45.73831, -21.89655], [-45.73796, -21.89581], [-45.73692, -21.89475], [-45.7345, -21.89364], [-45.73347, -21.89296], [-45.733, -21.89123], [-45.73283, -21.88876], [-45.73265, -21.88819], [-45.73129, -21.88644], [-45.73088, -21.88556], [-45.72995, -21.88421], [-45.7291, -21.88329], [-45.72809, -21.88258], [-45.72661, -21.88204], [-45.72449, -21.88199], [-45.72332, -21.88224], [-45.72214, -21.88226], [-45.7205, -21.88214], [-45.719, -21.88128], [-45.71624, -21.8786], [-45.71518, -21.87856], [-45.71433, -21.87874], [-45.71385, -21.87902], [-45.71322, -21.87896], [-45.71225, -21.87852], [-45.7119, -21.87821], [-45.71156, -21.87756], [-45.71164, -21.87664], [-45.71309, -21.87386], [-45.71455, -21.87165], [-45.71535, -21.87093], [-45.7176, -21.87007], [-45.72053, -21.86938], [-45.72347, -21.86833], [-45.72408, -21.86789], [-45.72483, -21.86764], [-45.72692, -21.86741], [-45.73347, -21.86566], [-45.73641, -21.86434], [-45.7383, -21.86296], [-45.73886, -21.862], [-45.73822, -21.86197], [-45.73702, -21.86158], [-45.7362, -21.86068], [-45.73563, -21.8595], [-45.73538, -21.85794], [-45.73451, -21.85668], [-45.7342, -21.85593], [-45.73429, -21.85399], [-45.73397, -21.85283], [-45.73171, -21.85103], [-45.73118, -21.84962], [-45.73066, -21.84898], [-45.73016, -21.84876], [-45.72928, -21.84789], [-45.72811, -21.84723], [-45.72781, -21.84606], [-45.72684, -21.84529], [-45.72582, -21.84402], [-45.72395, -21.84331], [-45.72283, -21.84221], [-45.7224, -21.84199], [-45.7186, -21.84131], [-45.71828, -21.8406], [-45.71771, -21.84], [-45.71488, -21.8392], [-45.71386, -21.83802], [-45.71147, -21.83702], [-45.71012, -21.83517], [-45.70941, -21.83454], [-45.70573, -21.83237], [-45.70474, -21.83193], [-45.70362, -21.83205], [-45.70225, -21.83194], [-45.70082, -21.83082], [-45.69831, -21.83011], [-45.6972, -21.82958], [-45.69646, -21.8296], [-45.69559, -21.83017], [-45.69459, -21.83008], [-45.69354, -21.8303], [-45.6926, -21.83019], [-45.69214, -21.82964], [-45.69023, -21.82968]]]}}, 
{"type": "Feature", "properties": {"CD_SETOR": "316200505000031", "CD_SIT": "8", "NM_DIST": "São Gonçalo do Sapucaí", "NM_SUBDIST": null}, "geometry": {"type": "Polygon", "coordinates": [[[-45.67134, -21.83346], [-45.67109, -21.83483], [-45.67124, -21.84127], [-45.67111, -21.84175], [-45.67076, -21.84218], [-45.66979, -21.84261], [-45.66782, -21.84313], [-45.6607, -21.84368], [-45.65882, -21.84403], [-45.65699, -21.84456], [-45.656, -21.84531], [-45.65519, -21.84562], [-45.65307, -21.84561], [-45.65107, -21.8453], [-45.64984, -21.84538], [-45.64931, -21.84557], [-45.6478, -21.84664], [-45.64665, -21.84699], [-45.64524, -21.84713], [-45.64346, -21.8479], [-45.64283, -21.84865], [-45.64214, -21.85026], [-45.64157, -21.85081], [-45.64055, -21.85063], [-45.63885, -21.8492], [-45.63812, -21.84879], [-45.63528, -21.84785], [-45.63339, -21.84681], [-45.63243, -21.8465], [-45.63105, -21.84579], [-45.62831, -21.84513], [-45.62669, -21.84522], [-45.62508, -21.8458], [-45.62304, -21.84812], [-45.62114, -21.849], [-45.62083, -21.84947], [-45.6205, -21.85116], [-45.62012, -21.85149], [-45.61961, -21.85123], [-45.61827, -21.84873], [-45.61684, -21.84807], [-45.61532, -21.84806], [-45.61334, -21.84831], [-45.60975, -21.84819], [-45.60884, -21.84846], [-45.60812, -21.84921], [-45.6091, -21.84907], [-45.60896, -21.84929], [-45.60882, -21.85069], [-45.60862, -21.85075], [-45.60843, -21.85205], [-45.60756, -21.8522], [-45.60715, -21.85242], [-45.6065, -21.8524], [-45.60625, -21.85296], [-45.60648, -21.85493], [-45.6064, -21.85555], [-45.60785, -21.85702], [-45.60706, -21.85791], [-45.60644, -21.85825], [-45.60699, -21.85967], [-45.60879, -21.86125], [-45.6112, -21.86237], [-45.61248, -21.86357], [-45.61275, -21.86424], [-45.61216, -21.86479], [-45.61116, -21.86467], [-45.61094, -21.86487], [-45.61054, -21.86601], [-45.61074, -21.86637], [-45.61067, -21.86936], [-45.61003, -21.87067], [-45.60922, -21.873], [-45.60941, -21.87597], [-45.60927, -21.8764], [-45.60953, -21.87713], [-45.60746, -21.87871], [-45.60555, -21.8777], [-45.60529, -21.87882], [-45.60596, -21.87893], [-45.60611, -21.8796], [-45.60572, -21.88008], [-45.60577, -21.8811], [-45.60523, -21.88233], [-45.60499, -21.88255], [-45.60367, -21.88256], [-45.60321, -21.88275], [-45.60024, -21.88557], [-45.603, -21.88802], [-45.60878, -21.88778], [-45.612, -21.88672], [-45.61304, -21.88653], [-45.61346, -21.88687], [-45.61361, -21.88772], [-45.61409, -21.88859], [-45.61499, -21.88891], [-45.61554, -21.88948], [-45.61568, -21.89063], [-45.61599, -21.89109], [-45.61731, -21.89116], [-45.61929, -21.89077], [-45.61927, -21.8909], [-45.61967, -21.89097], [-45.62054, -21.89184], [-45.62081, -21.89292], [-45.62114, -21.89334], [-45.62155, -21.89348], [-45.62258, -21.89328], [-45.62375, -21.89351], [-45.62491, -21.89404], [-45.6255, -21.89406], [-45.62613, -21.89358], [-45.62759, -21.89356], [-45.62919, -21.89426], [-45.63109, -21.8947], [-45.63401, -21.89423], [-45.64235, -21.89566], [-45.64332, -21.89678], [-45.64389, -21.89774], [-45.64465, -21.89792], [-45.64668, -21.89775], [-45.64659, -21.89688], [-45.64759, -21.8969], [-45.64872, -21.89658], [-45.64941, -21.89705], [-45.64994, -21.8969], [-45.65004, -21.89718], [-45.65252, -21.89963], [-45.65196, -21.89968], [-45.65196, -21.89998], [-45.65338, -21.89988], [-45.65329, -21.89883], [-45.6563, -21.89811], [-45.65641, -21.89749], [-45.65735, -21.89758], [-45.65879, -21.89914], [-45.6602, -21.89845], [-45.66487, -21.89281], [-45.66648, -21.89114], [-45.66727, -21.89009], [-45.66793, -21.88875], [-45.66753, -21.88689], [-45.66669, -21.88485], [-45.66723, -21.88361], [-45.66791, -21.88303], [-45.66778, -21.87914], [-45.66838, -21.87786], [-45.66935, -21.87663], [-45.67109, -21.87597], [-45.67261, -21.87459], [-45.67491, -21.87412], [-45.67596, -21.87337], [-45.67654, -21.87174], [-45.67868, -21.86921], [-45.67836, -21.86728], [-45.68015, -21.86397], [-45.68084, -21.86222], [-45.68165, -21.86133], [-45.68574, -21.86065], [-45.68608, -21.8584], [-45.68565, -21.85654], [-45.68412, -21.85516], [-45.68278, -21.85432], [-45.68208, -21.85407], [-45.6821, -21.85265], [-45.68259, -21.85202], [-45.68334, -21.85048], [-45.68516, -21.84925], [-45.68506, -21.84758], [-45.68527, -21.84677], [-45.68402, -21.84462], [-45.68323, -21.84247], [-45.68431, -21.84024], [-45.68448, -21.83919], [-45.68549, -21.83852], [-45.68596, -21.83764], [-45.6867, -21.83674], [-45.68765, -21.83476], [-45.6881, -21.83224], [-45.68922, -21.83061], [-45.69023, -21.82968], [-45.68841, -21.8294], [-45.68731, -21.82941], [-45.68662, -21.82964], [-45.68533, -21.83044], [-45.68349, -21.83046], [-45.68225, -21.83106], [-45.6798, -21.83104], [-45.67908, -21.83135], [-45.67754, -21.83147], [-45.67556, -21.8322], [-45.67415, -21.83186], [-45.67306, -21.8319], [-45.67206, -21.83247], [-45.67134, -21.83346]]]}}, 
{"type": "Feature", "properties": {"CD_SETOR": "316200505000032", "CD_SIT": "1", "NM_DIST": "São Gonçalo do Sapucaí", "NM_SUBDIST": null}, "geometry": {"type": "Polygon", "coordinates": [[[-45.59683, -21.89122], [-45.59993, -21.89427], [-45.60135, -21.89491], [-45.60274, -21.89344], [-45.60061, -21.89191], [-45.60022, -21.89238], [-45.59928, -21.89159], [-45.59683, -21.89122]]]}}, 
{"type": "Feature", "properties": {"CD_SETOR": "316200505000033", "CD_SIT": "1", "NM_DIST": "São Gonçalo do Sapucaí", "NM_SUBDIST": null}, "geometry": {"type": "Polygon", "coordinates": [[[-45.59613, -21.88665], [-45.59644, -21.8871], [-45.59676, -21.88692], [-45.59818, -21.88872], [-45.59918, -21.8882], [-45.59949, -21.88864], [-45.60041, -21.88807], [-45.603, -21.88802], [-45.60033, -21.88562], [-45.59914, -21.88564], [-45.59976, -21.88504], [-45.59974, -21.88474], [-45.59909, -21.88375], [-45.59945, -21.88362], [-45.59821, -21.88039], [-45.5975, -21.88], [-45.59744, -21.88052], [-45.59698, -21.88073], [-45.59663, -21.88129], [-45.59655, -21.88173], [-45.59598, -21.88233], [-45.59583, -21.88282], [-45.59513, -21.88311], [-45.59583, -21.88609], [-45.59613, -21.88665]]]}}, 
{"type": "Feature", "properties": {"CD_SETOR": "316200505000034", "CD_SIT": "1", "NM_DIST": "São Gonçalo do Sapucaí", "NM_SUBDIST": null}, "geometry": {"type": "Polygon", "coordinates": [[[-45.58011, -21.89817], [-45.58018, -21.89864], [-45.58155, -21.89835], [-45.58386, -21.89714], [-45.58319, -21.8984], [-45.58346, -21.89958], [-45.58437, -21.8978], [-45.58618, -21.89665], [-45.58777, -21.89638], [-45.58663, -21.89575], [-45.58587, -21.89583], [-45.58456, -21.89659], [-45.58122, -21.8979], [-45.58011, -21.89817]]]}}, 
{"type": "Feature", "properties": {"CD_SETOR": "316200505000035", "CD_SIT": "1", "NM_DIST": "São Gonçalo do Sapucaí", "NM_SUBDIST": null}, "geometry": {"type": "Polygon", "coordinates": [[[-45.6146, -21.905], [-45.61692, -21.90573], [-45.61935, -21.90751], [-45.62143, -21.9052], [-45.62044, -21.90422], [-45.61953, -21.90265], [-45.61929, -21.90074], [-45.6188, -21.90047], [-45.61719, -21.90042], [-45.61684, -21.90028], [-45.6157, -21.89957], [-45.61553, -21.89915], [-45.61463, -21.89836], [-45.61305, -21.89814], [-45.61297, -21.89906], [-45.61407, -21.89978], [-45.61458, -21.90121], [-45.61544, -21.90278], [-45.6146, -21.905]]]}}, 
{"type": "Feature", "properties": {"CD_SETOR": "316200505000036", "CD_SIT": "2", "NM_DIST": "São Gonçalo do Sapucaí", "NM_SUBDIST": null}, "geometry": {"type": "Polygon", "coordinates": [[[-45.57495, -21.91259], [-45.5769, -21.91365], [-45.57738, -21.91376], [-45.57861, -21.91373], [-45.57895, -21.91318], [-45.57848, -21.91327], [-45.57749, -21.91292], [-45.57654, -21.91235], [-45.57643, -21.9115], [-45.57486, -21.91025], [-45.57447, -21.90904], [-45.57439, -21.90772], [-45.57248, -21.90716], [-45.57055, -21.90726], [-45.56949, -21.90708], [-45.56856, -21.9053], [-45.56915, -21.90345], [-45.5698, -21.90228], [-45.5699, -21.90059], [-45.56966, -21.89981], [-45.57182, -21.89807], [-45.57223, -21.89645], [-45.5721, -21.89505], [-45.57243, -21.89318], [-45.57123, -21.89303], [-45.57054, -21.89215], [-45.56987, -21.89165], [-45.56864, -21.89106], [-45.56701, -21.89088], [-45.56366, -21.88922], [-45.56235, -21.88909], [-45.55961, -21.89059], [-45.55764, -21.89108], [-45.55761, -21.89201], [-45.55681, -21.89292], [-45.55521, -21.894], [-45.5541, -21.89397], [-45.55335, -21.89423], [-45.55132, -21.8941], [-45.54972, -21.89372], [-45.54896, -21.89374], [-45.54934, -21.89478], [-45.54993, -21.89571], [-45.55228, -21.89717], [-45.55356, -21.89849], [-45.55591, -21.9025], [-45.56056, -21.90769], [-45.56307, -21.90928], [-45.56496, -21.90958], [-45.56857, -21.90897], [-45.57082, -21.90892], [-45.57173, -21.90934], [-45.57495, -21.91259]]]}}, 
{"type": "Feature", "properties": {"CD_SETOR": "316200505000037", "CD_SIT": "2", "NM_DIST": "São Gonçalo do Sapucaí", "NM_SUBDIST": null}, "geometry": {"type": "Polygon", "coordinates": [[[-45.58575, -21.90174], [-45.58511, -21.90267], [-45.58287, -21.90499], [-45.5795, -21.90722], [-45.57883, -21.90784], [-45.57838, -21.90855], [-45.57825, -21.90932], [-45.57914, -21.91264], [-45.57861, -21.91373], [-45.57808, -21.91381], [-45.5769, -21.91365], [-45.57495, -21.91259], [-45.57566, -21.91372], [-45.5753, -21.91425], [-45.57475, -21.91462], [-45.57406, -21.91619], [-45.57431, -21.91645], [-45.57577, -21.917], [-45.57798, -21.91766], [-45.59779, -21.92248], [-45.59805, -21.92128], [-45.59804, -21.92052], [-45.59785, -21.91969], [-45.59739, -21.91873], [-45.59721, -21.91739], [-45.59792, -21.91311], [-45.59772, -21.91201], [-45.59806, -21.91109], [-45.5984, -21.91083], [-45.60004, -21.91025], [-45.6, -21.9101], [-45.59878, -21.90937], [-45.59831, -21.90934], [-45.59728, -21.90817], [-45.59629, -21.90735], [-45.5954, -21.90448], [-45.59454, -21.90247], [-45.59441, -21.90135], [-45.59422, -21.90133], [-45.59194, -21.89903], [-45.59112, -21.89991], [-45.59024, -21.90032], [-45.59018, -21.90108], [-45.58817, -21.90219], [-45.58732, -21.90177], [-45.58689, -21.90231], [-45.58575, -21.90174]]]}}, 
{"type": "Feature", "properties": {"CD_SETOR": "316200505000038", "CD_SIT": "2", "NM_DIST": "São Gonçalo do Sapucaí", "NM_SUBDIST": null}, "geometry": {"type": "Polygon", "coordinates": [[[-45.61651, -21.8912], [-45.61304, -21.8926], [-45.61145, -21.89257], [-45.60835, -21.89306], [-45.60727, -21.89555], [-45.60654, -21.8959], [-45.60698, -21.89653], [-45.60729, -21.89672], [-45.60897, -21.89698], [-45.60994, -21.89751], [-45.61075, -21.89751], [-45.61243, -21.89802], [-45.61463, -21.89836], [-45.61553, -21.89915], [-45.6157, -21.89957], [-45.6164, -21.90008], [-45.61719, -21.90042], [-45.6188, -21.90047], [-45.61929, -21.90074], [-45.6192, -21.89965], [-45.61814, -21.89674], [-45.61826, -21.89617], [-45.61881, -21.89558], [-45.61903, -21.89505], [-45.61894, -21.89428], [-45.61921, -21.89323], [-45.61909, -21.89303], [-45.61929, -21.89077], [-45.61771, -21.89112], [-45.61651, -21.8912]]]}}, 
{"type": "Feature", "properties": {"CD_SETOR": "316200505000039", "CD_SIT": "7", "NM_DIST": "São Gonçalo do Sapucaí", "NM_SUBDIST": null}, "geometry": {"type": "Polygon", "coordinates": [[[-45.64668, -21.89775], [-45.64699, -21.89773], [-45.65079, -21.89975], [-45.65176, -21.89999], [-45.65196, -21.89998], [-45.65196, -21.89968], [-45.65252, -21.89963], [-45.65004, -21.89718], [-45.64994, -21.8969], [-45.64941, -21.89705], [-45.64872, -21.89658], [-45.64759, -21.8969], [-45.64659, -21.89688], [-45.64668, -21.89775]]]}}, 
{"type": "Feature", "properties": {"CD_SETOR": "316200505000040", "CD_SIT": "7", "NM_DIST": "São Gonçalo do Sapucaí", "NM_SUBDIST": null}, "geometry": {"type": "Polygon", "coordinates": [[[-45.65176, -21.89999], [-45.65079, -21.89975], [-45.64836, -21.89845], [-45.64816, -21.89892], [-45.64903, -21.89944], [-45.64922, -21.90009], [-45.64885, -21.90048], [-45.64906, -21.90076], [-45.6497, -21.90342], [-45.65096, -21.90429], [-45.65259, -21.90401], [-45.65235, -21.90335], [-45.65239, -21.90173], [-45.65175, -21.90118], [-45.65176, -21.89999]]]}}, 
{"type": "Feature", "properties": {"CD_SETOR": "316200505000041", "CD_SIT": "5", "NM_DIST": "São Gonçalo do Sapucaí", "NM_SUBDIST": null}, "geometry": {"type": "Polygon", "coordinates": [[[-45.65338, -21.89988], [-45.65663, -21.89923], [-45.65745, -21.89934], [-45.65879, -21.89914], [-45.65735, -21.89758], [-45.65641, -21.89749], [-45.6563, -21.89811], [-45.65329, -21.89883], [-45.65338, -21.89988]]]}}, 
{"type": "Feature", "properties": {"CD_SETOR": "316200505000042", "CD_SIT": "5", "NM_DIST": "São Gonçalo do Sapucaí", "NM_SUBDIST": null}, "geometry": {"type": "Polygon", "coordinates": [[[-45.65879, -21.89914], [-45.65745, -21.89934], [-45.65663, -21.89923], [-45.65336, -21.89988], [-45.65414, -21.9011], [-45.65459, -21.90131], [-45.65536, -21.90117], [-45.65597, -21.90087], [-45.65605, -21.90039], [-45.65718, -21.9005], [-45.65902, -21.90025], [-45.65891, -21.8991], [-45.65879, -21.89914]]]}}, 
{"type": "Feature", "properties": {"CD_SETOR": "316200505000043", "CD_SIT": "1", "NM_DIST": "São Gonçalo do Sapucaí", "NM_SUBDIST": null}, "geometry": {"type": "Polygon", "coordinates": [[[-45.58799, -21.88994], [-45.58986, -21.89118], [-45.5905, -21.89197], [-45.59133, -21.89243], [-45.59157, -21.8917], [-45.59353, -21.89051], [-45.596, -21.89078], [-45.59583, -21.88945], [-45.59522, -21.88912], [-45.59155, -21.8904], [-45.59079, -21.89034], [-45.58985, -21.89051], [-45.58884, -21.88955], [-45.58866, -21.88866], [-45.5882, -21.88891], [-45.58799, -21.88994]]]}}, 
{"type": "Feature", "properties": {"CD_SETOR": "316200505000044", "CD_SIT": "1", "NM_DIST": "São Gonçalo do Sapucaí", "NM_SUBDIST": null}, "geometry": {"type": "Polygon", "coordinates": [[[-45.58866, -21.88866], [-45.58884, -21.88955], [-45.58985, -21.89051], [-45.59079, -21.89034], [-45.59155, -21.8904], [-45.59522, -21.88912], [-45.59441, -21.88872], [-45.59438, -21.88885], [-45.59063, -21.88908], [-45.59, -21.88888], [-45.58929, -21.8884], [-45.58866, -21.88866]]]}}, 
{"type": "Feature", "properties": {"CD_SETOR": "316200505000045", "CD_SIT": "1", "NM_DIST": "São Gonçalo do Sapucaí", "NM_SUBDIST": null}, "geometry": {"type": "Polygon", "coordinates": [[[-45.603, -21.88802], [-45.60178, -21.88798], [-45.60191, -21.88891], [-45.60251, -21.88988], [-45.60408, -21.89067], [-45.60583, -21.89069], [-45.60589, -21.89251], [-45.60572, -21.89311], [-45.60628, -21.89321], [-45.60651, -21.89352], [-45.6092, -21.89288], [-45.61145, -21.89257], [-45.61304, -21.8926], [-45.61651, -21.8912], [-45.61579, -21.8909], [-45.61554, -21.88948], [-45.61499, -21.88891], [-45.61409, -21.88859], [-45.61361, -21.88772], [-45.61346, -21.88687], [-45.61304, -21.88653], [-45.612, -21.88672], [-45.60878, -21.88778], [-45.603, -21.88802]]]}}, 
{"type": "Feature", "properties": {"CD_SETOR": "316200505000046", "CD_SIT": "1", "NM_DIST": "São Gonçalo do Sapucaí", "NM_SUBDIST": null}, "geometry": {"type": "Polygon", "coordinates": [[[-45.59949, -21.88864], [-45.59913, -21.88914], [-45.59694, -21.89114], [-45.59928, -21.89159], [-45.60022, -21.89238], [-45.60061, -21.89191], [-45.6033, -21.89383], [-45.60464, -21.89356], [-45.60651, -21.89352], [-45.60628, -21.89321], [-45.60572, -21.89311], [-45.60589, -21.89251], [-45.60583, -21.89069], [-45.60408, -21.89067], [-45.60251, -21.88988], [-45.60191, -21.88891], [-45.60178, -21.88798], [-45.60041, -21.88807], [-45.59949, -21.88864]]]}}, 
{"type": "Feature", "properties": {"CD_SETOR": "316200505000047", "CD_SIT": "1", "NM_DIST": "São Gonçalo do Sapucaí", "NM_SUBDIST": null}, "geometry": {"type": "Polygon", "coordinates": [[[-45.57903, -21.89019], [-45.57687, -21.89337], [-45.57738, -21.89372], [-45.57809, -21.89382], [-45.58048, -21.89495], [-45.58139, -21.89477], [-45.58352, -21.8928], [-45.58378, -21.8926], [-45.58406, -21.89266], [-45.585, -21.89146], [-45.58717, -21.89084], [-45.58768, -21.89103], [-45.58799, -21.88994], [-45.58636, -21.88985], [-45.58514, -21.88959], [-45.58455, -21.88923], [-45.58329, -21.88789], [-45.58284, -21.88771], [-45.58176, -21.88851], [-45.58092, -21.88961], [-45.57941, -21.89026], [-45.57903, -21.89019]]]}}, 
{"type": "Feature", "properties": {"CD_SETOR": "316200505000048", "CD_SIT": "1", "NM_DIST": "São Gonçalo do Sapucaí", "NM_SUBDIST": null}, "geometry": {"type": "Polygon", "coordinates": [[[-45.58169, -21.88628], [-45.57903, -21.89019], [-45.57941, -21.89026], [-45.58092, -21.88961], [-45.58176, -21.88851], [-45.58278, -21.88772], [-45.58329, -21.88789], [-45.58477, -21.88943], [-45.58636, -21.88985], [-45.58799, -21.88994], [-45.5882, -21.88891], [-45.58929, -21.8884], [-45.58921, -21.88749], [-45.58859, -21.88733], [-45.58793, -21.8876], [-45.58721, -21.88747], [-45.58638, -21.88758], [-45.58579, -21.88832], [-45.58559, -21.88838], [-45.58372, -21.88648], [-45.58276, -21.88621], [-45.58169, -21.88628]]]}}, 
{"type": "Feature", "properties": {"CD_SETOR": "316200505000049", "CD_SIT": "8", "NM_DIST": "São Gonçalo do Sapucaí", "NM_SUBDIST": null}, "geometry": {"type": "Polygon", "coordinates": [[[-45.68536, -21.94675], [-45.68602, -21.94817], [-45.6876, -21.9503], [-45.68853, -21.95225], [-45.68848, -21.95371], [-45.68771, -21.95492], [-45.68489, -21.95696], [-45.6841, -21.95804], [-45.68339, -21.96021], [-45.68331, -21.96232], [-45.6841, -21.9645], [-45.68432, -21.96568], [-45.68061, -21.97214], [-45.67848, -21.97352], [-45.67587, -21.97437], [-45.67385, -21.97455], [-45.67216, -21.97403], [-45.67093, -21.97283], [-45.6705, -21.97144], [-45.67015, -21.97104], [-45.66942, -21.97115], [-45.66869, -21.97175], [-45.66844, -21.97276], [-45.66862, -21.97386], [-45.66903, -21.97461], [-45.66948, -21.97525], [-45.67068, -21.97617], [-45.67091, -21.97655], [-45.6713, -21.97643], [-45.67209, -21.97651], [-45.67248, -21.97684], [-45.6739, -21.97737], [-45.67529, -21.97754], [-45.67817, -21.97823], [-45.68103, -21.97917], [-45.68317, -21.97931], [-45.68426, -21.97965], [-45.68559, -21.98033], [-45.68678, -21.98219], [-45.68791, -21.98458], [-45.68842, -21.98678], [-45.68845, -21.9882], [-45.68833, -21.98911], [-45.68791, -21.99004], [-45.68547, -21.99281], [-45.68541, -21.99389], [-45.68558, -21.99444], [-45.68611, -21.99505], [-45.68774, -21.99614], [-45.68906, -21.99661], [-45.69087, -21.99649], [-45.69181, -21.99612], [-45.69235, -21.99608], [-45.69377, -21.99536], [-45.69531, -21.99434], [-45.69763, -21.99241], [-45.69838, -21.99154], [-45.70352, -21.98709], [-45.70421, -21.98679], [-45.70585, -21.98692], [-45.70955, -21.98898], [-45.71176, -21.99126], [-45.71397, -21.99276], [-45.71523, -21.99312], [-45.71681, -21.99412], [-45.71667, -21.99382], [-45.7166, -21.99216], [-45.7169, -21.98796], [-45.71714, -21.98725], [-45.71752, -21.98661], [-45.71816, -21.98614], [-45.72028, -21.98578], [-45.72138, -21.98536], [-45.72232, -21.98446], [-45.72238, -21.98346], [-45.72123, -21.98098], [-45.72057, -21.98004], [-45.71827, -21.97793], [-45.71698, -21.97719], [-45.71345, -21.97613], [-45.71269, -21.97574], [-45.71219, -21.97268], [-45.7122, -21.97156], [-45.71322, -21.97004], [-45.71583, -21.9676], [-45.71635, -21.96645], [-45.71649, -21.96541], [-45.71703, -21.96463], [-45.71803, -21.96386], [-45.72003, -21.96363], [-45.721, -21.96322], [-45.7221, -21.96249], [-45.7226, -21.96148], [-45.72302, -21.96], [-45.7237, -21.95865], [-45.7251, -21.95705], [-45.72748, -21.95544], [-45.72876, -21.95486], [-45.7296, -21.95481], [-45.73056, -21.955], [-45.73104, -21.9549], [-45.7326, -21.95114], [-45.73285, -21.95014], [-45.73473, -21.94752], [-45.73565, -21.94606], [-45.73604, -21.94513], [-45.73668, -21.94437], [-45.73808, -21.94314], [-45.73977, -21.9419], [-45.74024, -21.94129], [-45.74054, -21.93867], [-45.74114, -21.93749], [-45.742, -21.93654], [-45.74449, -21.93554], [-45.74458, -21.93462], [-45.74387, -21.93324], [-45.74384, -21.93196], [-45.74416, -21.93129], [-45.74552, -21.92974], [-45.7459, -21.92874], [-45.7457, -21.9244], [-45.74547, -21.92297], [-45.74468, -21.92213], [-45.74247, -21.92163], [-45.74003, -21.92056], [-45.73935, -21.91945], [-45.73867, -21.91784], [-45.73789, -21.91674], [-45.73214, -21.91276], [-45.73172, -21.91216], [-45.73128, -21.91043], [-45.72981, -21.90961], [-45.72724, -21.90738], [-45.72613, -21.90728], [-45.72239, -21.90806], [-45.72022, -21.90886], [-45.71923, -21.90953], [-45.71842, -21.91063], [-45.71947, -21.91484], [-45.71895, -21.91747], [-45.71732, -21.91991], [-45.7157, -21.92306], [-45.7145, -21.92653], [-45.71416, -21.92856], [-45.71229, -21.93227], [-45.71108, -21.93231], [-45.71018, -21.93185], [-45.70954, -21.93082], [-45.70914, -21.92966], [-45.70899, -21.92712], [-45.70954, -21.92469], [-45.71003, -21.9214], [-45.71016, -21.91897], [-45.70983, -21.91746], [-45.70886, -21.91553], [-45.70739, -21.91424], [-45.70586, -21.91392], [-45.70508, -21.91515], [-45.7047, -21.9166], [-45.70646, -21.92065], [-45.70629, -21.92175], [-45.70515, -21.92208], [-45.70237, -21.92211], [-45.69992, -21.92189], [-45.69702, -21.9204], [-45.69409, -21.91817], [-45.69309, -21.91651], [-45.69162, -21.91552], [-45.68685, -21.91499], [-45.68524, -21.9145], [-45.68306, -21.91235], [-45.68149, -21.91232], [-45.67986, -21.91278], [-45.67592, -21.91549], [-45.67407, -21.91513], [-45.672, -21.91504], [-45.67072, -21.91582], [-45.66941, -21.91696], [-45.66856, -21.9185], [-45.66793, -21.92019], [-45.66808, -21.92201], [-45.6697, -21.92506], [-45.67214, -21.92856], [-45.67428, -21.93098], [-45.67799, -21.93239], [-45.68042, -21.93353], [-45.68185, -21.93452], [-45.68528, -21.93617], [-45.68561, -21.93815], [-45.68566, -21.94108], [-45.68513, -21.94344], [-45.68532, -21.94497], [-45.68579, -21.94659], [-45.68536, -21.94675]]]}}, 
{"type": "Feature", "properties": {"CD_SETOR": "316200505000050", "CD_SIT": "8", "NM_DIST": "São Gonçalo do Sapucaí", "NM_SUBDIST": null}, "geometry": {"type": "Polygon", "coordinates": [[[-45.5304, -21.9525], [-45.53012, -21.95364], [-45.52999, -21.95614], [-45.5294, -21.959], [-45.5292, -21.96123], [-45.53204, -21.96045], [-45.53536, -21.96037], [-45.53705, -21.96055], [-45.53918, -21.96026], [-45.54068, -21.95979], [-45.54194, -21.9587], [-45.54277, -21.95842], [-45.54475, -21.95923], [-45.54663, -21.96056], [-45.54794, -21.96106], [-45.55038, -21.96102], [-45.55389, -21.96044], [-45.55636, -21.96056], [-45.55822, -21.96102], [-45.56004, -21.96112], [-45.56198, -21.96157], [-45.56615, -21.96174], [-45.56787, -21.96161], [-45.56974, -21.96177], [-45.5717, -21.96163], [-45.57322, -21.96056], [-45.57482, -21.95894], [-45.57672, -21.95524], [-45.57713, -21.95486], [-45.57807, -21.9544], [-45.57949, -21.95419], [-45.58089, -21.9542], [-45.58177, -21.95447], [-45.58278, -21.95437], [-45.58411, -21.95347], [-45.58579, -21.95275], [-45.58622, -21.95209], [-45.58628, -21.95106], [-45.58574, -21.95021], [-45.58289, -21.94845], [-45.58174, -21.94735], [-45.58053, -21.94583], [-45.57864, -21.94206], [-45.57806, -21.93924], [-45.57802, -21.93644], [-45.57868, -21.93567], [-45.57942, -21.93523], [-45.58049, -21.93492], [-45.58162, -21.93486], [-45.58476, -21.93572], [-45.5857, -21.93615], [-45.58676, -21.93698], [-45.58843, -21.93897], [-45.58872, -21.93897], [-45.59008, -21.93962], [-45.59106, -21.93998], [-45.59563, -21.94103], [-45.59928, -21.94305], [-45.60406, -21.94381], [-45.60526, -21.94421], [-45.60772, -21.94549], [-45.61224, -21.94655], [-45.61651, -21.94842], [-45.62178, -21.94997], [-45.62308, -21.9506], [-45.62525, -21.95236], [-45.6277, -21.95321], [-45.62947, -21.95489], [-45.63062, -21.95543], [-45.63314, -21.95718], [-45.63446, -21.9576], [-45.63717, -21.95779], [-45.63933, -21.95847], [-45.64165, -21.9595], [-45.64313, -21.96085], [-45.64435, -21.96157], [-45.64582, -21.96192], [-45.64787, -21.96284], [-45.64981, -21.96348], [-45.65153, -21.96386], [-45.65282, -21.96388], [-45.65388, -21.9635], [-45.65615, -21.96334], [-45.65713, -21.96388], [-45.65754, -21.9648], [-45.65802, -21.9652], [-45.65849, -21.96535], [-45.65935, -21.96532], [-45.66079, -21.96509], [-45.66149, -21.96481], [-45.66339, -21.96225], [-45.66497, -21.96143], [-45.66716, -21.96113], [-45.66922, -21.96124], [-45.67005, -21.96181], [-45.6705, -21.96245], [-45.67076, -21.96432], [-45.67057, -21.96532], [-45.67005, -21.96646], [-45.66852, -21.96745], [-45.66721, -21.96865], [-45.66709, -21.96984], [-45.66732, -21.97027], [-45.66777, -21.97052], [-45.66816, -21.97142], [-45.66844, -21.97276], [-45.66869, -21.97175], [-45.66942, -21.97115], [-45.67015, -21.97104], [-45.6705, -21.97144], [-45.67093, -21.97283], [-45.67216, -21.97403], [-45.67385, -21.97455], [-45.67587, -21.97437], [-45.67848, -21.97352], [-45.68061, -21.97214], [-45.68432, -21.96568], [-45.6841, -21.9645], [-45.68331, -21.96232], [-45.68339, -21.96021], [-45.6841, -21.95804], [-45.68489, -21.95696], [-45.68771, -21.95492], [-45.68848, -21.95371], [-45.68853, -21.95225], [-45.6876, -21.9503], [-45.68602, -21.94817], [-45.68536, -21.94675], [-45.68483, -21.94675], [-45.68315, -21.94622], [-45.68273, -21.94656], [-45.68164, -21.94627], [-45.68088, -21.94588], [-45.68014, -21.94577], [-45.67887, -21.9436], [-45.67664, -21.94213], [-45.67504, -21.94053], [-45.67366, -21.93999], [-45.67, -21.94079], [-45.66835, -21.94054], [-45.66732, -21.94021], [-45.66655, -21.93976], [-45.66519, -21.93817], [-45.6636, -21.93786], [-45.66224, -21.93795], [-45.66053, -21.93839], [-45.66001, -21.93883], [-45.65811, -21.93769], [-45.65775, -21.93691], [-45.65716, -21.93665], [-45.65649, -21.93398], [-45.65725, -21.93178], [-45.6567, -21.9301], [-45.65659, -21.92926], [-45.6568, -21.92865], [-45.65679, -21.92567], [-45.65571, -21.92355], [-45.65421, -21.92194], [-45.64993, -21.92388], [-45.64814, -21.92503], [-45.64632, -21.92561], [-45.64486, -21.92548], [-45.64372, -21.92512], [-45.64219, -21.92489], [-45.64069, -21.92433], [-45.6393, -21.92342], [-45.63738, -21.92338], [-45.63518, -21.92273], [-45.63386, -21.92187], [-45.6316, -21.9212], [-45.62606, -21.92035], [-45.62494, -21.91913], [-45.62485, -21.91838], [-45.62434, -21.91876], [-45.62253, -21.91959], [-45.62169, -21.9203], [-45.62122, -21.92095], [-45.61492, -21.94161], [-45.61327, -21.94516], [-45.61103, -21.94166], [-45.60901, -21.93302], [-45.60934, -21.9232], [-45.60571, -21.92308], [-45.59779, -21.92248], [-45.57798, -21.91766], [-45.57431, -21.91645], [-45.57406, -21.91619], [-45.57483, -21.91454], [-45.57093, -21.91369], [-45.57008, -21.91382], [-45.56984, -21.91425], [-45.56975, -21.91496], [-45.56869, -21.91581], [-45.56711, -21.9167], [-45.56632, -21.91841], [-45.56443, -21.92146], [-45.56356, -21.922], [-45.56176, -21.92178], [-45.56298, -21.92268], [-45.56341, -21.92281], [-45.56382, -21.92374], [-45.56383, -21.92467], [-45.5634, -21.92527], [-45.56248, -21.92567], [-45.56155, -21.92657], [-45.55979, -21.92646], [-45.55895, -21.92725], [-45.55876, -21.92822], [-45.5582, -21.92895], [-45.55795, -21.92965], [-45.55758, -21.93264], [-45.55674, -21.93455], [-45.55582, -21.93782], [-45.55576, -21.93852], [-45.55618, -21.93956], [-45.55648, -21.94181], [-45.55546, -21.94356], [-45.55256, -21.94706], [-45.55116, -21.94774], [-45.54969, -21.94974], [-45.5488, -21.95032], [-45.54786, -21.95274], [-45.54775, -21.9544], [-45.54364, -21.95479], [-45.54172, -21.95555], [-45.54092, -21.95487], [-45.54021, -21.9539], [-45.53886, -21.95305], [-45.53648, -21.95272], [-45.5352, -21.95229], [-45.53406, -21.95232], [-45.53312, -21.95208], [-45.53157, -21.95221], [-45.5304, -21.9525]]]}}, 
{"type": "Feature", "properties": {"CD_SETOR": "316200510000001", "CD_SIT": "1", "NM_DIST": "Ferreiras", "NM_SUBDIST": null}, "geometry": {"type": "Polygon", "coordinates": [[[-45.48497, -21.94203], [-45.48512, -21.94253], [-45.48482, -21.94302], [-45.48406, -21.94338], [-45.48622, -21.94409], [-45.48713, -21.94358], [-45.48843, -21.94225], [-45.48899, -21.94215], [-45.49041, -21.94251], [-45.49064, -21.94232], [-45.49005, -21.94173], [-45.48996, -21.9413], [-45.48959, -21.94098], [-45.48915, -21.94018], [-45.48684, -21.93943], [-45.48604, -21.9408], [-45.48509, -21.94132], [-45.48529, -21.94156], [-45.48483, -21.94172], [-45.48497, -21.94203]]]}}, 
{"type": "Feature", "properties": {"CD_SETOR": "316200510000003", "CD_SIT": "8", "NM_DIST": "Ferreiras", "NM_SUBDIST": null}, "geometry": {"type": "Polygon", "coordinates": [[[-45.48819, -21.88493], [-45.48601, -21.88708], [-45.48489, -21.88902], [-45.48434, -21.89058], [-45.48416, -21.89164], [-45.48436, -21.89374], [-45.48411, -21.89521], [-45.48442, -21.89835], [-45.48474, -21.89899], [-45.48508, -21.89948], [-45.48577, -21.89942], [-45.49402, -21.90309], [-45.4976, -21.90405], [-45.49847, -21.90387], [-45.49888, -21.90347], [-45.49948, -21.90394], [-45.50161, -21.90495], [-45.50265, -21.90577], [-45.50287, -21.90612], [-45.50273, -21.90715], [-45.50296, -21.908], [-45.50291, -21.90894], [-45.50525, -21.91092], [-45.50633, -21.91284], [-45.50525, -21.9137], [-45.50462, -21.91578], [-45.50404, -21.9165], [-45.50342, -21.91793], [-45.50085, -21.91904], [-45.5, -21.91899], [-45.49963, -21.91932], [-45.49946, -21.92002], [-45.49896, -21.92], [-45.4979, -21.92099], [-45.49728, -21.92115], [-45.49686, -21.92151], [-45.49638, -21.92158], [-45.49643, -21.92178], [-45.49684, -21.92202], [-45.49687, -21.92227], [-45.49642, -21.923], [-45.49566, -21.92348], [-45.49636, -21.92577], [-45.49619, -21.92639], [-45.49621, -21.92829], [-45.49532, -21.92948], [-45.49488, -21.93033], [-45.49438, -21.93082], [-45.49315, -21.93144], [-45.49145, -21.93092], [-45.49135, -21.9316], [-45.4917, -21.93413], [-45.49173, -21.93564], [-45.4915, -21.93735], [-45.49183, -21.93887], [-45.4912, -21.93985], [-45.49116, -21.94108], [-45.4909, -21.94236], [-45.49111, -21.94387], [-45.49089, -21.94415], [-45.49015, -21.94434], [-45.48994, -21.94471], [-45.49011, -21.94511], [-45.49003, -21.94646], [-45.49042, -21.94883], [-45.49017, -21.95042], [-45.48942, -21.95205], [-45.4888, -21.95254], [-45.48906, -21.9533], [-45.48822, -21.95405], [-45.48817, -21.95528], [-45.48744, -21.95613], [-45.48792, -21.957], [-45.48788, -21.95731], [-45.48657, -21.95827], [-45.48621, -21.9599], [-45.48501, -21.9613], [-45.48421, -21.96102], [-45.48378, -21.96027], [-45.48328, -21.95996], [-45.48266, -21.95998], [-45.48177, -21.95954], [-45.48082, -21.95962], [-45.47996, -21.95936], [-45.47875, -21.9594], [-45.47842, -21.96054], [-45.47808, -21.96096], [-45.47689, -21.96184], [-45.4763, -21.96283], [-45.4763, -21.9639], [-45.47672, -21.96491], [-45.47644, -21.96627], [-45.47708, -21.9679], [-45.47703, -21.96856], [-45.47631, -21.97102], [-45.47622, -21.97225], [-45.4764, -21.97269], [-45.47694, -21.97312], [-45.47725, -21.97422], [-45.47684, -21.97528], [-45.47623, -21.97501], [-45.47589, -21.97513], [-45.47542, -21.97716], [-45.47467, -21.97828], [-45.47419, -21.98001], [-45.47466, -21.98044], [-45.47556, -21.98041], [-45.47501, -21.9814], [-45.47532, -21.98237], [-45.47496, -21.98289], [-45.47407, -21.98348], [-45.47366, -21.98454], [-45.47436, -21.98559], [-45.4762, -21.9869], [-45.47664, -21.98764], [-45.47774, -21.9886], [-45.47826, -21.98799], [-45.47978, -21.98731], [-45.48113, -21.98712], [-45.48186, -21.98637], [-45.48295, -21.98569], [-45.48364, -21.98504], [-45.48453, -21.9837], [-45.48553, -21.9828], [-45.48665, -21.98208], [-45.48853, -21.98124], [-45.48951, -21.98023], [-45.4896, -21.97952], [-45.48939, -21.97849], [-45.48877, -21.97671], [-45.48833, -21.97485], [-45.48809, -21.97135], [-45.48885, -21.96963], [-45.48934, -21.969], [-45.49019, -21.96831], [-45.49228, -21.96706], [-45.49328, -21.96674], [-45.49493, -21.96659], [-45.49822, -21.96678], [-45.49937, -21.96652], [-45.50006, -21.96618], [-45.50354, -21.96707], [-45.50614, -21.96863], [-45.51035, -21.97042], [-45.5136, -21.96999], [-45.518, -21.96986], [-45.52139, -21.96916], [-45.52257, -21.96908], [-45.52391, -21.9693], [-45.52596, -21.97063], [-45.52667, -21.97041], [-45.52724, -21.96989], [-45.52827, -21.96791], [-45.52851, -21.96607], [-45.52913, -21.96367], [-45.52923, -21.9602], [-45.52999, -21.95614], [-45.53021, -21.95311], [-45.53062, -21.95196], [-45.53172, -21.94999], [-45.53185, -21.94941], [-45.53187, -21.9485], [-45.5317, -21.9478], [-45.53112, -21.94695], [-45.52923, -21.94532], [-45.529, -21.94432], [-45.52937, -21.94257], [-45.53148, -21.94055], [-45.53195, -21.93985], [-45.53207, -21.93939], [-45.5318, -21.93828], [-45.53023, -21.93704], [-45.52926, -21.93604], [-45.52831, -21.93542], [-45.52784, -21.93429], [-45.52674, -21.93328], [-45.52417, -21.93176], [-45.52313, -21.93147], [-45.52233, -21.93145], [-45.5204, -21.93196], [-45.51916, -21.93197], [-45.51787, -21.93146], [-45.51752, -21.9311], [-45.51718, -21.93039], [-45.51722, -21.92867], [-45.5175, -21.92802], [-45.52011, -21.92672], [-45.52102, -21.9261], [-45.5216, -21.92527], [-45.52194, -21.9243], [-45.52181, -21.92281], [-45.52099, -21.92141], [-45.52075, -21.92054], [-45.52089, -21.91866], [-45.52193, -21.91598], [-45.52192, -21.91545], [-45.52151, -21.91465], [-45.51931, -21.91252], [-45.51896, -21.91177], [-45.51892, -21.91102], [-45.51911, -21.91027], [-45.51948, -21.9099], [-45.52042, -21.90935], [-45.52263, -21.90889], [-45.52357, -21.90799], [-45.52392, -21.90683], [-45.52385, -21.90583], [-45.52323, -21.90416], [-45.52259, -21.90311], [-45.52144, -21.90199], [-45.52032, -21.90133], [-45.51835, -21.90062], [-45.51672, -21.90035], [-45.51581, -21.89972], [-45.5149, -21.89853], [-45.514, -21.89603], [-45.51294, -21.89491], [-45.51209, -21.89455], [-45.50843, -21.89418], [-45.50615, -21.89342], [-45.50342, -21.89068], [-45.50158, -21.88816], [-45.50041, -21.88769], [-45.49992, -21.88725], [-45.49946, -21.88633], [-45.49853, -21.88577], [-45.49731, -21.88538], [-45.49379, -21.88494], [-45.49006, -21.88497], [-45.48845, -21.88463], [-45.48819, -21.88493]]]}}, 
{"type": "Feature", "properties": {"CD_SETOR": "316200510000004", "CD_SIT": "8", "NM_DIST": "Ferreiras", "NM_SUBDIST": null}, "geometry": {"type": "Polygon", "coordinates": [[[-45.4879, -21.90386], [-45.4874, -21.90446], [-45.48768, -21.90527], [-45.48715, -21.90689], [-45.48764, -21.90746], [-45.4876, -21.9077], [-45.48718, -21.90828], [-45.48671, -21.90838], [-45.48658, -21.90996], [-45.48627, -21.91034], [-45.48559, -21.91068], [-45.48424, -21.91175], [-45.48341, -21.91371], [-45.48252, -21.91433], [-45.4825, -21.91573], [-45.48226, -21.91621], [-45.4816, -21.91695], [-45.4807, -21.91735], [-45.47984, -21.91824], [-45.47842, -21.91884], [-45.47695, -21.92061], [-45.4765, -21.92076], [-45.47482, -21.92083], [-45.47431, -21.92101], [-45.47393, -21.92136], [-45.4741, -21.92251], [-45.47356, -21.92405], [-45.47332, -21.92448], [-45.47211, -21.92571], [-45.4721, -21.92665], [-45.47157, -21.92715], [-45.47138, -21.92805], [-45.47059, -21.92922], [-45.47048, -21.92993], [-45.47064, -21.93037], [-45.47059, -21.93087], [-45.46989, -21.93159], [-45.46934, -21.93279], [-45.46942, -21.93351], [-45.47007, -21.93457], [-45.47022, -21.93752], [-45.47012, -21.93815], [-45.46985, -21.93856], [-45.46962, -21.94014], [-45.46925, -21.94078], [-45.46831, -21.94128], [-45.46471, -21.94186], [-45.46414, -21.9423], [-45.46335, -21.9438], [-45.46328, -21.94567], [-45.46314, -21.94611], [-45.46255, -21.94738], [-45.46184, -21.94753], [-45.46173, -21.94847], [-45.45899, -21.9485], [-45.45432, -21.94926], [-45.4533, -21.9501], [-45.45313, -21.95062], [-45.45314, -21.95203], [-45.45283, -21.95319], [-45.45238, -21.95381], [-45.45194, -21.95398], [-45.45021, -21.95399], [-45.45003, -21.95413], [-45.44957, -21.95528], [-45.44833, -21.95668], [-45.44643, -21.95723], [-45.44568, -21.9579], [-45.44194, -21.95896], [-45.44152, -21.95933], [-45.44109, -21.96002], [-45.44068, -21.96149], [-45.44065, -21.96265], [-45.4411, -21.96429], [-45.44059, -21.97029], [-45.44009, -21.97156], [-45.43916, -21.97328], [-45.43747, -21.9754], [-45.43676, -21.97606], [-45.43624, -21.97736], [-45.4383, -21.97813], [-45.44033, -21.97821], [-45.44118, -21.97806], [-45.44248, -21.97711], [-45.44303, -21.97701], [-45.44389, -21.97713], [-45.44475, -21.97765], [-45.44657, -21.97983], [-45.44783, -21.98076], [-45.44885, -21.98115], [-45.45295, -21.9821], [-45.45488, -21.98347], [-45.4565, -21.98382], [-45.45915, -21.98574], [-45.46106, -21.98594], [-45.46209, -21.98622], [-45.46305, -21.98664], [-45.46496, -21.98797], [-45.46705, -21.98889], [-45.46932, -21.99028], [-45.47154, -21.99102], [-45.47275, -21.99169], [-45.47395, -21.99165], [-45.47556, -21.99053], [-45.47693, -21.98984], [-45.47774, -21.9886], [-45.47664, -21.98764], [-45.4762, -21.9869], [-45.47436, -21.98559], [-45.47366, -21.98454], [-45.47407, -21.98348], [-45.47496, -21.98289], [-45.47532, -21.98237], [-45.47501, -21.9814], [-45.47556, -21.98041], [-45.47466, -21.98044], [-45.47419, -21.98001], [-45.47467, -21.97828], [-45.47542, -21.97716], [-45.47589, -21.97513], [-45.47623, -21.97501], [-45.47684, -21.97528], [-45.47725, -21.97422], [-45.47694, -21.97312], [-45.4764, -21.97269], [-45.47622, -21.97225], [-45.47631, -21.97102], [-45.47703, -21.96856], [-45.47708, -21.9679], [-45.47644, -21.96627], [-45.47672, -21.96491], [-45.4763, -21.9639], [-45.4763, -21.96283], [-45.47689, -21.96184], [-45.47808, -21.96096], [-45.47842, -21.96054], [-45.47875, -21.9594], [-45.47996, -21.95936], [-45.48082, -21.95962], [-45.48177, -21.95954], [-45.48266, -21.95998], [-45.48328, -21.95996], [-45.48378, -21.96027], [-45.48421, -21.96102], [-45.48501, -21.9613], [-45.48621, -21.9599], [-45.48657, -21.95827], [-45.48788, -21.95731], [-45.48792, -21.957], [-45.48744, -21.95613], [-45.48817, -21.95528], [-45.48822, -21.95405], [-45.48906, -21.9533], [-45.4888, -21.95254], [-45.48942, -21.95205], [-45.49017, -21.95042], [-45.49042, -21.94883], [-45.49003, -21.94646], [-45.49011, -21.94511], [-45.48994, -21.94471], [-45.49015, -21.94434], [-45.49089, -21.94415], [-45.49111, -21.94387], [-45.4909, -21.94236], [-45.49116, -21.94108], [-45.4912, -21.93985], [-45.49183, -21.93887], [-45.4915, -21.93735], [-45.49173, -21.93564], [-45.4917, -21.93413], [-45.49135, -21.9316], [-45.49145, -21.93092], [-45.49315, -21.93144], [-45.49438, -21.93082], [-45.49488, -21.93033], [-45.49532, -21.92948], [-45.49621, -21.92829], [-45.49619, -21.92639], [-45.49636, -21.92577], [-45.49566, -21.92348], [-45.49642, -21.923], [-45.49687, -21.92227], [-45.49684, -21.92202], [-45.49643, -21.92178], [-45.49638, -21.92158], [-45.49686, -21.92151], [-45.49728, -21.92115], [-45.4979, -21.92099], [-45.49896, -21.92], [-45.49946, -21.92002], [-45.49963, -21.91932], [-45.5, -21.91899], [-45.50085, -21.91904], [-45.50342, -21.91793], [-45.50404, -21.9165], [-45.50462, -21.91578], [-45.50525, -21.9137], [-45.50633, -21.91284], [-45.50525, -21.91092], [-45.50291, -21.90894], [-45.50296, -21.908], [-45.50273, -21.90715], [-45.50287, -21.90612], [-45.50265, -21.90577], [-45.50161, -21.90495], [-45.49948, -21.90394], [-45.49888, -21.90347], [-45.49847, -21.90387], [-45.4976, -21.90405], [-45.49402, -21.90309], [-45.48577, -21.89942], [-45.48508, -21.89948], [-45.48514, -21.89985], [-45.48482, -21.90048], [-45.48489, -21.90071], [-45.48615, -21.90098], [-45.48587, -21.90168], [-45.48632, -21.90232], [-45.48635, -21.9028], [-45.48651, -21.90298], [-45.48728, -21.9031], [-45.4879, -21.90386]], [[-45.49059, -21.94247], [-45.48955, -21.94238], [-45.48899, -21.94215], [-45.48843, -21.94225], [-45.48713, -21.94358], [-45.48622, -21.94409], [-45.48406, -21.94338], [-45.48482, -21.94302], [-45.48513, -21.94228], [-45.48483, -21.94172], [-45.48529, -21.94156], [-45.48509, -21.94132], [-45.48604, -21.9408], [-45.48684, -21.93943], [-45.48915, -21.94018], [-45.48959, -21.94098], [-45.48996, -21.9413], [-45.49005, -21.94173], [-45.49064, -21.94232], [-45.49059, -21.94247]]]}}, 
{"type": "Feature", "properties": {"CD_SETOR": "316200515000001", "CD_SIT": "1", "NM_DIST": "Ribeiros", "NM_SUBDIST": null}, "geometry": {"type": "Polygon", "coordinates": [[[-45.58854, -21.98773], [-45.58853, -21.98879], [-45.58837, -21.98883], [-45.58827, -21.98951], [-45.58862, -21.99314], [-45.58814, -21.99371], [-45.58831, -21.99426], [-45.58904, -21.99398], [-45.58946, -21.99353], [-45.59018, -21.99348], [-45.59076, -21.99373], [-45.59125, -21.99374], [-45.59075, -21.99185], [-45.59239, -21.99027], [-45.59339, -21.98828], [-45.59037, -21.98789], [-45.58921, -21.98794], [-45.58854, -21.98773]]]}}, 
{"type": "Feature", "properties": {"CD_SETOR": "316200515000002", "CD_SIT": "8", "NM_DIST": "Ribeiros", "NM_SUBDIST": null}, "geometry": {"type": "Polygon", "coordinates": [[[-45.57929, -21.94355], [-45.58053, -21.94583], [-45.58206, -21.94769], [-45.58309, -21.94861], [-45.58574, -21.95021], [-45.58628, -21.95106], [-45.58622, -21.95209], [-45.58579, -21.95275], [-45.58411, -21.95347], [-45.58278, -21.95437], [-45.58177, -21.95447], [-45.58089, -21.9542], [-45.57949, -21.95419], [-45.57807, -21.9544], [-45.57713, -21.95486], [-45.57672, -21.95524], [-45.57482, -21.95894], [-45.57322, -21.96056], [-45.5717, -21.96163], [-45.56974, -21.96177], [-45.56787, -21.96161], [-45.56615, -21.96174], [-45.56198, -21.96157], [-45.56004, -21.96112], [-45.55822, -21.96102], [-45.55636, -21.96056], [-45.55389, -21.96044], [-45.55038, -21.96102], [-45.54794, -21.96106], [-45.54663, -21.96056], [-45.54475, -21.95923], [-45.54277, -21.95842], [-45.54194, -21.9587], [-45.54068, -21.95979], [-45.53802, -21.96048], [-45.53204, -21.96045], [-45.5292, -21.96123], [-45.52913, -21.96367], [-45.52851, -21.96607], [-45.52827, -21.96791], [-45.52724, -21.96989], [-45.52622, -21.97062], [-45.52566, -21.97052], [-45.52391, -21.9693], [-45.52284, -21.96908], [-45.52139, -21.96916], [-45.518, -21.96986], [-45.5136, -21.96999], [-45.51035, -21.97042], [-45.50614, -21.96863], [-45.50354, -21.96707], [-45.50006, -21.96618], [-45.49937, -21.96652], [-45.49822, -21.96678], [-45.49493, -21.96659], [-45.49328, -21.96674], [-45.49228, -21.96706], [-45.49019, -21.96831], [-45.48934, -21.969], [-45.48885, -21.96963], [-45.48809, -21.97135], [-45.48833, -21.97485], [-45.48877, -21.97671], [-45.48939, -21.97849], [-45.4896, -21.97952], [-45.48951, -21.98023], [-45.48853, -21.98124], [-45.48665, -21.98208], [-45.48553, -21.9828], [-45.48453, -21.9837], [-45.48364, -21.98504], [-45.48295, -21.98569], [-45.48186, -21.98637], [-45.48113, -21.98712], [-45.48232, -21.98755], [-45.48363, -21.98832], [-45.48417, -21.98881], [-45.48567, -21.98957], [-45.48867, -21.98963], [-45.48942, -21.98984], [-45.4901, -21.99032], [-45.49026, -21.99074], [-45.49133, -21.99181], [-45.49256, -21.99267], [-45.49394, -21.9934], [-45.49656, -21.99446], [-45.49814, -21.99459], [-45.49912, -21.99445], [-45.50201, -21.99537], [-45.50451, -21.99555], [-45.50686, -21.99632], [-45.50824, -21.99646], [-45.50967, -21.99699], [-45.51141, -21.99775], [-45.51176, -21.99808], [-45.51413, -21.99931], [-45.51466, -21.99981], [-45.51606, -22.00067], [-45.51838, -22.00183], [-45.51937, -22.00252], [-45.52039, -22.00276], [-45.52185, -22.00274], [-45.5238, -22.00228], [-45.5244, -22.00187], [-45.52608, -22.00148], [-45.52839, -22.00217], [-45.52929, -22.00278], [-45.53027, -22.00373], [-45.53075, -22.00436], [-45.53107, -22.00512], [-45.5319, -22.00597], [-45.53319, -22.00648], [-45.53632, -22.00653], [-45.53863, -22.0068], [-45.54028, -22.00717], [-45.54106, -22.00714], [-45.54218, -22.00684], [-45.54513, -22.0067], [-45.54707, -22.0075], [-45.5476, -22.00759], [-45.54785, -22.0075], [-45.54854, -22.0065], [-45.55102, -22.00588], [-45.55164, -22.00586], [-45.55445, -22.00713], [-45.55609, -22.00711], [-45.55743, -22.00743], [-45.55952, -22.00857], [-45.56087, -22.0088], [-45.56169, -22.0094], [-45.56274, -22.00937], [-45.5639, -22.0089], [-45.56439, -22.00886], [-45.56529, -22.00983], [-45.56653, -22.01044], [-45.57019, -22.01046], [-45.57137, -22.0109], [-45.57226, -22.01166], [-45.57295, -22.01202], [-45.57383, -22.01205], [-45.57596, -22.01124], [-45.57753, -22.01108], [-45.5787, -22.01158], [-45.57922, -22.01214], [-45.57969, -22.01239], [-45.58083, -22.0124], [-45.58175, -22.01292], [-45.58248, -22.01356], [-45.5838, -22.01359], [-45.58622, -22.01314], [-45.58715, -22.01323], [-45.58811, -22.01374], [-45.58862, -22.01442], [-45.59022, -22.01568], [-45.59213, -22.01649], [-45.59293, -22.01643], [-45.59366, -22.01616], [-45.59451, -22.01619], [-45.59602, -22.01683], [-45.59805, -22.01696], [-45.59935, -22.01682], [-45.60092, -22.0163], [-45.60175, -22.01632], [-45.60259, -22.01661], [-45.6031, -22.01727], [-45.60398, -22.01786], [-45.60468, -22.01802], [-45.60526, -22.01799], [-45.60616, -22.01746], [-45.60782, -22.01694], [-45.60961, -22.01674], [-45.61173, -22.01678], [-45.6143, -22.01713], [-45.61665, -22.01829], [-45.61857, -22.01885], [-45.61813, -22.01551], [-45.61816, -22.0121], [-45.61799, -22.01078], [-45.61731, -22.00903], [-45.61705, -22.00677], [-45.61583, -22.0052], [-45.61568, -22.00473], [-45.61576, -22.00426], [-45.61622, -22.00368], [-45.61849, -22.00211], [-45.62183, -22.00072], [-45.62315, -22.00041], [-45.62494, -21.99918], [-45.62609, -21.99876], [-45.62788, -21.99904], [-45.63022, -22.00072], [-45.6326, -22.00161], [-45.63506, -22.00163], [-45.63649, -22.00121], [-45.63709, -22.00081], [-45.63786, -22], [-45.63726, -21.99815], [-45.63697, -21.99602], [-45.63691, -21.99443], [-45.63717, -21.99336], [-45.6384, -21.991], [-45.6389, -21.98883], [-45.63927, -21.98819], [-45.63983, -21.98775], [-45.64203, -21.9868], [-45.64266, -21.98601], [-45.64342, -21.98537], [-45.64568, -21.98532], [-45.64708, -21.98549], [-45.64799, -21.98576], [-45.6495, -21.98681], [-45.65004, -21.98695], [-45.65158, -21.98667], [-45.65225, -21.98635], [-45.65272, -21.98523], [-45.65343, -21.9849], [-45.65474, -21.98499], [-45.6555, -21.98528], [-45.65683, -21.98547], [-45.65793, -21.98477], [-45.66065, -21.98346], [-45.66427, -21.98347], [-45.6656, -21.9832], [-45.66749, -21.98222], [-45.66842, -21.98131], [-45.67083, -21.97684], [-45.67091, -21.97655], [-45.67068, -21.97617], [-45.66948, -21.97525], [-45.66873, -21.97409], [-45.66816, -21.97142], [-45.66777, -21.97052], [-45.66732, -21.97027], [-45.66709, -21.96984], [-45.66721, -21.96865], [-45.66852, -21.96745], [-45.67005, -21.96646], [-45.67057, -21.96532], [-45.67076, -21.96432], [-45.6705, -21.96245], [-45.67005, -21.96181], [-45.66922, -21.96124], [-45.66716, -21.96113], [-45.66497, -21.96143], [-45.66339, -21.96225], [-45.66149, -21.96481], [-45.66079, -21.96509], [-45.65935, -21.96532], [-45.65849, -21.96535], [-45.65802, -21.9652], [-45.65754, -21.9648], [-45.65713, -21.96388], [-45.65615, -21.96334], [-45.65388, -21.9635], [-45.65282, -21.96388], [-45.65153, -21.96386], [-45.64981, -21.96348], [-45.64787, -21.96284], [-45.64582, -21.96192], [-45.64435, -21.96157], [-45.64313, -21.96085], [-45.64165, -21.9595], [-45.63933, -21.95847], [-45.63717, -21.95779], [-45.63446, -21.9576], [-45.63314, -21.95718], [-45.63062, -21.95543], [-45.62947, -21.95489], [-45.6277, -21.95321], [-45.62525, -21.95236], [-45.62308, -21.9506], [-45.62178, -21.94997], [-45.61651, -21.94842], [-45.61224, -21.94655], [-45.60772, -21.94549], [-45.60526, -21.94421], [-45.60406, -21.94381], [-45.59928, -21.94305], [-45.59563, -21.94103], [-45.59106, -21.93998], [-45.59008, -21.93962], [-45.58872, -21.93897], [-45.58843, -21.93897], [-45.58676, -21.93698], [-45.5857, -21.93615], [-45.58476, -21.93572], [-45.58187, -21.93491], [-45.58049, -21.93492], [-45.57942, -21.93523], [-45.57868, -21.93567], [-45.57802, -21.93644], [-45.57806, -21.93924], [-45.57864, -21.94206], [-45.57929, -21.94355]], [[-45.63308, -21.98662], [-45.63473, -21.98673], [-45.63649, -21.9879], [-45.63821, -21.98876], [-45.63874, -21.98913], [-45.63872, -21.98946], [-45.63796, -21.98918], [-45.63755, -21.99051], [-45.63539, -21.98981], [-45.63594, -21.98871], [-45.63406, -21.98811], [-45.63304, -21.98885], [-45.63152, -21.98814], [-45.63208, -21.98684], [-45.63266, -21.98664], [-45.63283, -21.9864], [-45.63308, -21.98662]], [[-45.58871, -21.98782], [-45.59339, -21.98828], [-45.59239, -21.99027], [-45.59075, -21.99185], [-45.59125, -21.99374], [-45.59076, -21.99373], [-45.59018, -21.99348], [-45.58946, -21.99353], [-45.58904, -21.99398], [-45.58831, -21.99426], [-45.58814, -21.99371], [-45.58862, -21.99314], [-45.58827, -21.98951], [-45.58837, -21.98883], [-45.58853, -21.98879], [-45.58854, -21.98773], [-45.58871, -21.98782]]]}}, 
{"type": "Feature", "properties": {"CD_SETOR": "316200515000004", "CD_SIT": "3", "NM_DIST": "Ribeiros", "NM_SUBDIST": null}, "geometry": {"type": "Polygon", "coordinates": [[[-45.63482, -21.98678], [-45.63421, -21.98816], [-45.63594, -21.98871], [-45.63539, -21.98981], [-45.63755, -21.99051], [-45.63796, -21.98918], [-45.63872, -21.98946], [-45.63874, -21.98913], [-45.63821, -21.98876], [-45.63649, -21.9879], [-45.63482, -21.98678]]]}}, 
{"type": "Feature", "properties": {"CD_SETOR": "316200515000005", "CD_SIT": "3", "NM_DIST": "Ribeiros", "NM_SUBDIST": null}, "geometry": {"type": "Polygon", "coordinates": [[[-45.63421, -21.98816], [-45.63482, -21.98678], [-45.63327, -21.98666], [-45.63283, -21.9864], [-45.63266, -21.98664], [-45.63193, -21.98702], [-45.63152, -21.98814], [-45.63304, -21.98885], [-45.63406, -21.98811], [-45.63421, -21.98816]]]}}]}