{"type": "FeatureCollection", "features": [
{"type": "Feature", "properties": {"CD_SETOR": "350995705000001", "CD_SIT": "2", "NM_DIST": "Canas", "NM_SUBDIST": null}, "geometry": {"type": "Polygon", "coordinates": [[[-45.04164, -22.68515], [-45.04792, -22.68987], [-45.04954, -22.69162], [-45.0504, -22.69337], [-45.05243, -22.70244], [-45.05378, -22.70392], [-45.05599, -22.70288], [-45.05403, -22.69931], [-45.0545, -22.69887], [-45.05471, -22.69829], [-45.05552, -22.69767], [-45.05727, -22.6975], [-45.05841, -22.6969], [-45.06039, -22.69648], [-45.06118, -22.69649], [-45.06361, -22.69698], [-45.06503, -22.69691], [-45.0657, -22.69662], [-45.06643, -22.69602], [-45.06698, -22.69507], [-45.06715, -22.69391], [-45.06653, -22.69267], [-45.06212, -22.68634], [-45.06021, -22.68013], [-45.05938, -22.68102], [-45.05854, -22.68134], [-45.05735, -22.68121], [-45.05193, -22.67901], [-45.04968, -22.67775], [-45.0461, -22.67632], [-45.04562, -22.67579], [-45.04528, -22.67671], [-45.04413, -22.67871], [-45.04287, -22.6799], [-45.04239, -22.68068], [-45.04215, -22.68445], [-45.04164, -22.68515]]]}}, 
{"type": "Feature", "properties": {"CD_SETOR": "350995705000003", "CD_SIT": "8", "NM_DIST": "Canas", "NM_SUBDIST": null}, "geometry": {"type": "Polygon", "coordinates": [[[-45.06021, -22.68013], [-45.06212, -22.68634], [-45.06702, -22.69356], [-45.06813, -22.69251], [-45.07199, -22.69714], [-45.06344, -22.71582], [-45.06303, -22.71613], [-45.06409, -22.718], [-45.06426, -22.71792], [-45.065, -22.71931], [-45.06599, -22.72071], [-45.06769, -22.72235], [-45.07014, -22.72381], [-45.0722, -22.72447], [-45.0738, -22.72471], [-45.07524, -22.72544], [-45.07522, -22.67847], [-45.06921, -22.67633], [-45.06509, -22.67633], [-45.06326, -22.67677], [-45.0615, -22.67806], [-45.06021, -22.68013]]]}}, 
{"type": "Feature", "properties": {"CD_SETOR": "350995705000004", "CD_SIT": "8", "NM_DIST": "Canas", "NM_SUBDIST": null}, "geometry": {"type": "Polygon", "coordinates": [[[-45.01907, -22.74704], [-45.01845, -22.74885], [-45.01736, -22.75059], [-45.01709, -22.75085], [-45.01655, -22.75098], [-45.0162, -22.75159], [-45.01567, -22.75189], [-45.01529, -22.75234], [-45.01474, -22.75246], [-45.01417, -22.75299], [-45.01355, -22.75312], [-45.01312, -22.7537], [-45.01216, -22.75401], [-45.01147, -22.75388], [-45.01115, -22.75411], [-45.01031, -22.75579], [-45.00977, -22.75622], [-45.00909, -22.75816], [-45.00854, -22.75864], [-45.00835, -22.7592], [-45.00754, -22.76007], [-45.00718, -22.76023], [-45.00674, -22.76014], [-45.00659, -22.76039], [-45.00629, -22.76143], [-45.00677, -22.76178], [-45.00657, -22.76268], [-45.00724, -22.76397], [-45.00687, -22.76442], [-45.00716, -22.7649], [-45.00707, -22.76529], [-45.00659, -22.76591], [-45.00651, -22.76632], [-45.00586, -22.76659], [-45.00592, -22.76735], [-45.00559, -22.76794], [-45.00583, -22.76913], [-45.00544, -22.77151], [-45.00589, -22.7725], [-45.00535, -22.77314], [-45.00572, -22.77381], [-45.00544, -22.77419], [-45.00494, -22.77443], [-45.00442, -22.77508], [-45.00364, -22.77506], [-45.00313, -22.77547], [-45.00235, -22.77526], [-45.00161, -22.77567], [-45.00086, -22.77566], [-45.0004, -22.77607], [-44.99955, -22.7779], [-44.99916, -22.7782], [-44.99936, -22.77872], [-44.99911, -22.77914], [-44.99904, -22.77964], [-44.99871, -22.77989], [-44.99934, -22.78077], [-44.9995, -22.78134], [-44.99915, -22.78185], [-44.99932, -22.78224], [-44.99924, -22.7825], [-44.99842, -22.78263], [-44.99822, -22.78285], [-44.99813, -22.78479], [-44.99768, -22.78585], [-44.99545, -22.78638], [-44.99512, -22.78662], [-44.99469, -22.78738], [-44.99404, -22.78795], [-44.99296, -22.78972], [-44.99214, -22.79048], [-44.99187, -22.79127], [-44.99102, -22.79238], [-44.99101, -22.7936], [-44.99123, -22.79423], [-44.9906, -22.79538], [-44.98906, -22.79612], [-44.9884, -22.79678], [-44.98791, -22.79674], [-44.98753, -22.79624], [-44.98537, -22.79547], [-44.9847, -22.79537], [-44.98265, -22.79556], [-44.98001, -22.79547], [-44.9793, -22.79579], [-44.97829, -22.79688], [-44.977, -22.79749], [-44.97546, -22.79847], [-44.97526, -22.79876], [-44.97529, -22.7991], [-44.97582, -22.79989], [-44.97576, -22.8004], [-44.9754, -22.80152], [-44.9754, -22.80308], [-44.97523, -22.80341], [-44.97475, -22.8038], [-44.97468, -22.80418], [-44.97481, -22.80493], [-44.9747, -22.8072], [-44.97512, -22.80804], [-44.97522, -22.80707], [-44.97591, -22.80564], [-44.97648, -22.80502], [-44.97894, -22.80306], [-44.98107, -22.80518], [-44.98554, -22.8089], [-44.98866, -22.81005], [-44.98956, -22.81001], [-44.98995, -22.80954], [-44.99008, -22.80902], [-44.99028, -22.80504], [-44.99065, -22.80255], [-44.99165, -22.80148], [-44.99342, -22.80052], [-44.99614, -22.79961], [-44.99693, -22.79899], [-44.99714, -22.79855], [-44.99744, -22.79266], [-44.99829, -22.7899], [-44.99957, -22.78768], [-45.00059, -22.78637], [-45.00219, -22.78534], [-45.00513, -22.78395], [-45.00659, -22.78248], [-45.00707, -22.78176], [-45.00776, -22.77968], [-45.00788, -22.77778], [-45.00808, -22.77694], [-45.00978, -22.77505], [-45.01087, -22.77357], [-45.01445, -22.77236], [-45.01539, -22.77188], [-45.01659, -22.77204], [-45.01762, -22.77167], [-45.01911, -22.77214], [-45.02025, -22.77181], [-45.02146, -22.77115], [-45.02206, -22.76997], [-45.0229, -22.76947], [-45.02413, -22.76948], [-45.02503, -22.76931], [-45.02672, -22.76852], [-45.02809, -22.76832], [-45.02873, -22.76772], [-45.03051, -22.76755], [-45.03101, -22.76721], [-45.03135, -22.76643], [-45.03135, -22.76583], [-45.03182, -22.76516], [-45.03143, -22.7646], [-45.03153, -22.76386], [-45.03109, -22.76325], [-45.03137, -22.76271], [-45.0313, -22.76199], [-45.0323, -22.76078], [-45.03279, -22.7607], [-45.03342, -22.76105], [-45.034, -22.76086], [-45.03442, -22.76095], [-45.03473, -22.76135], [-45.03514, -22.76156], [-45.0353, -22.76259], [-45.03635, -22.7635], [-45.0364, -22.76409], [-45.03661, -22.76437], [-45.03698, -22.76438], [-45.03756, -22.76395], [-45.03833, -22.76417], [-45.039, -22.764], [-45.03943, -22.76375], [-45.04006, -22.76287], [-45.04066, -22.76249], [-45.04342, -22.76301], [-45.04721, -22.76435], [-45.04803, -22.76438], [-45.05078, -22.76371], [-45.05227, -22.76376], [-45.0528, -22.76406], [-45.05327, -22.7647], [-45.05312, -22.76676], [-45.05334, -22.76778], [-45.05395, -22.76862], [-45.05471, -22.7691], [-45.05632, -22.7697], [-45.05828, -22.76999], [-45.05897, -22.76991], [-45.05958, -22.76965], [-45.06105, -22.76877], [-45.06215, -22.76763], [-45.06213, -22.76722], [-45.06186, -22.76681], [-45.06088, -22.76575], [-45.06061, -22.76485], [-45.06074, -22.75963], [-45.06117, -22.75464], [-45.06116, -22.75332], [-45.06089, -22.75179], [-45.061, -22.75024], [-45.06177, -22.74909], [-45.06446, -22.74624], [-45.06529, -22.74517], [-45.06547, -22.74392], [-45.06591, -22.74283], [-45.066, -22.74186], [-45.06651, -22.7411], [-45.06769, -22.7386], [-45.06802, -22.73837], [-45.06927, -22.7382], [-45.06965, -22.73797], [-45.06976, -22.73602], [-45.07002, -22.73494], [-45.07038, -22.73448], [-45.07161, -22.73403], [-45.0723, -22.73306], [-45.07205, -22.7326], [-45.07097, -22.73262], [-45.06524, -22.7357], [-45.06371, -22.7363], [-45.06181, -22.73632], [-45.06029, -22.7371], [-45.05815, -22.73736], [-45.05619, -22.738], [-45.0553, -22.73788], [-45.05372, -22.73688], [-45.05313, -22.73691], [-45.05072, -22.73801], [-45.05056, -22.73867], [-45.05075, -22.73944], [-45.05046, -22.73957], [-45.04976, -22.7395], [-45.04938, -22.73967], [-45.04817, -22.74093], [-45.04633, -22.74232], [-45.04553, -22.74271], [-45.0444, -22.74276], [-45.04254, -22.74232], [-45.04166, -22.7424], [-45.04079, -22.74207], [-45.03995, -22.74213], [-45.03732, -22.74282], [-45.03561, -22.74554], [-45.03448, -22.74653], [-45.03371, -22.74835], [-45.03279, -22.74995], [-45.03246, -22.75026], [-45.03201, -22.75143], [-45.03178, -22.75165], [-45.03132, -22.75161], [-45.03076, -22.75121], [-45.03029, -22.75111], [-45.02948, -22.75146], [-45.02864, -22.7523], [-45.02681, -22.75269], [-45.02608, -22.75229], [-45.02366, -22.74941], [-45.02314, -22.74909], [-45.02169, -22.74891], [-45.02073, -22.74816], [-45.01962, -22.74795], [-45.01907, -22.74704]]]}}, 
{"type": "Feature", "properties": {"CD_SETOR": "350995705000007", "CD_SIT": "2", "NM_DIST": "Canas", "NM_SUBDIST": null}, "geometry": {"type": "Polygon", "coordinates": [[[-45.06409, -22.718], [-45.06399, -22.71813], [-45.06416, -22.71967], [-45.06375, -22.7203], [-45.06379, -22.72091], [-45.0636, -22.72117], [-45.07433, -22.72877], [-45.07524, -22.72544], [-45.0738, -22.72471], [-45.0722, -22.72447], [-45.0708, -22.72406], [-45.06825, -22.72277], [-45.06715, -22.72191], [-45.06599, -22.72071], [-45.065, -22.71931], [-45.06426, -22.71792], [-45.06409, -22.718]]]}}, 
{"type": "Feature", "properties": {"CD_SETOR": "350995705000008", "CD_SIT": "8", "NM_DIST": "Canas", "NM_SUBDIST": null}, "geometry": {"type": "Polygon", "coordinates": [[[-45.01907, -22.74704], [-45.01962, -22.74795], [-45.02073, -22.74816], [-45.02169, -22.74891], [-45.02314, -22.74909], [-45.02366, -22.74941], [-45.02608, -22.75229], [-45.02681, -22.75269], [-45.02864, -22.7523], [-45.02948, -22.75146], [-45.03029, -22.75111], [-45.03076, -22.75121], [-45.03132, -22.75161], [-45.03178, -22.75165], [-45.03201, -22.75143], [-45.03246, -22.75026], [-45.03279, -22.74995], [-45.03371, -22.74835], [-45.03448, -22.74653], [-45.03561, -22.74554], [-45.03732, -22.74282], [-45.03995, -22.74213], [-45.04079, -22.74207], [-45.04166, -22.7424], [-45.04254, -22.74232], [-45.0444, -22.74276], [-45.04553, -22.74271], [-45.04633, -22.74232], [-45.04817, -22.74093], [-45.04938, -22.73967], [-45.04976, -22.7395], [-45.05046, -22.73957], [-45.05075, -22.73944], [-45.05056, -22.73867], [-45.05072, -22.73801], [-45.05343, -22.73681], [-45.0553, -22.73788], [-45.056, -22.73802], [-45.05815, -22.73736], [-45.06029, -22.7371], [-45.06181, -22.73632], [-45.06371, -22.7363], [-45.06524, -22.7357], [-45.07073, -22.7327], [-45.07205, -22.7326], [-45.0723, -22.73306], [-45.0725, -22.73168], [-45.07376, -22.73002], [-45.07429, -22.7289], [-45.07433, -22.72877], [-45.0636, -22.72117], [-45.06044, -22.72467], [-45.03662, -22.7077], [-45.03992, -22.7043], [-45.0399, -22.70413], [-45.0449, -22.69861], [-45.04539, -22.69786], [-45.04578, -22.69782], [-45.04871, -22.69464], [-45.03888, -22.68708], [-45.03847, -22.68714], [-45.03822, -22.6874], [-45.03842, -22.68853], [-45.03941, -22.68907], [-45.03943, -22.68952], [-45.04005, -22.69031], [-45.03997, -22.69056], [-45.03956, -22.69087], [-45.03951, -22.69132], [-45.04031, -22.69195], [-45.04001, -22.69235], [-45.0401, -22.69294], [-45.0396, -22.6933], [-45.03956, -22.69385], [-45.03912, -22.69439], [-45.03924, -22.69487], [-45.03903, -22.69517], [-45.03794, -22.69485], [-45.03734, -22.69521], [-45.03635, -22.69532], [-45.03596, -22.69511], [-45.03564, -22.69466], [-45.03539, -22.69473], [-45.03502, -22.6952], [-45.03425, -22.69544], [-45.03383, -22.69581], [-45.03315, -22.6952], [-45.03156, -22.69642], [-45.03116, -22.69703], [-45.03109, -22.69755], [-45.0304, -22.69802], [-45.02975, -22.69902], [-45.02912, -22.69887], [-45.02893, -22.69838], [-45.02737, -22.69831], [-45.02609, -22.69782], [-45.02536, -22.698], [-45.02467, -22.6984], [-45.02439, -22.69837], [-45.02391, -22.698], [-45.02352, -22.69797], [-45.023, -22.69847], [-45.02219, -22.69867], [-45.02184, -22.69905], [-45.02161, -22.69964], [-45.02094, -22.70038], [-45.02065, -22.70129], [-45.02126, -22.70251], [-45.02127, -22.70299], [-45.02108, -22.70352], [-45.02044, -22.70429], [-45.01984, -22.70464], [-45.01945, -22.70508], [-45.01913, -22.70692], [-45.01932, -22.7074], [-45.01931, -22.70794], [-45.01964, -22.7087], [-45.01949, -22.70892], [-45.01866, -22.70924], [-45.01863, -22.70938], [-45.01878, -22.70956], [-45.01977, -22.70946], [-45.01988, -22.71009], [-45.01921, -22.71049], [-45.01943, -22.71096], [-45.01914, -22.71122], [-45.01874, -22.71138], [-45.018, -22.71123], [-45.01772, -22.71134], [-45.01759, -22.71183], [-45.01773, -22.71251], [-45.01723, -22.71302], [-45.01771, -22.71467], [-45.01735, -22.7172], [-45.01755, -22.71754], [-45.01897, -22.71806], [-45.01981, -22.71996], [-45.02012, -22.72024], [-45.0209, -22.72049], [-45.02107, -22.72082], [-45.021, -22.72154], [-45.02059, -22.72274], [-45.02076, -22.72332], [-45.02132, -22.72422], [-45.02113, -22.72485], [-45.02119, -22.72564], [-45.02071, -22.72634], [-45.01995, -22.72877], [-45.0196, -22.72938], [-45.01969, -22.72975], [-45.02031, -22.73026], [-45.02028, -22.73091], [-45.02074, -22.7315], [-45.02067, -22.73223], [-45.02024, -22.73328], [-45.0206, -22.73452], [-45.02055, -22.7368], [-45.0207, -22.73732], [-45.0212, -22.73807], [-45.02122, -22.7386], [-45.02061, -22.74006], [-45.02108, -22.74143], [-45.02055, -22.74309], [-45.02, -22.74402], [-45.01973, -22.74619], [-45.01907, -22.74704]]]}}, 
{"type": "Feature", "properties": {"CD_SETOR": "350995705000009", "CD_SIT": "2", "NM_DIST": "Canas", "NM_SUBDIST": null}, "geometry": {"type": "Polygon", "coordinates": [[[-45.03888, -22.68708], [-45.04871, -22.69464], [-45.04578, -22.69782], [-45.04872, -22.69889], [-45.04905, -22.69916], [-45.04995, -22.70069], [-45.05254, -22.70262], [-45.0504, -22.69337], [-45.04983, -22.69207], [-45.04872, -22.69059], [-45.04164, -22.68515], [-45.04117, -22.6858], [-45.0406, -22.68622], [-45.04061, -22.68676], [-45.03943, -22.68673], [-45.03888, -22.68708]]]}}, 
{"type": "Feature", "properties": {"CD_SETOR": "350995705000010", "CD_SIT": "2", "NM_DIST": "Canas", "NM_SUBDIST": null}, "geometry": {"type": "Polygon", "coordinates": [[[-45.03988, -22.70419], [-45.05195, -22.71284], [-45.05373, -22.71068], [-45.05328, -22.70725], [-45.05078, -22.70542], [-45.05187, -22.70435], [-45.05296, -22.70292], [-45.04995, -22.70069], [-45.04905, -22.69916], [-45.04848, -22.69876], [-45.04571, -22.6978], [-45.04539, -22.69786], [-45.0449, -22.69861], [-45.03988, -22.70419]]]}}, 
{"type": "Feature", "properties": {"CD_SETOR": "350995705000011", "CD_SIT": "8", "NM_DIST": "Canas", "NM_SUBDIST": null}, "geometry": {"type": "Polygon", "coordinates": [[[-45.0489, -22.71643], [-45.05195, -22.71284], [-45.03988, -22.70419], [-45.03992, -22.7043], [-45.03662, -22.7077], [-45.0489, -22.71643]]]}}, 
{"type": "Feature", "properties": {"CD_SETOR": "350995705000012", "CD_SIT": "2", "NM_DIST": "Canas", "NM_SUBDIST": null}, "geometry": {"type": "Polygon", "coordinates": [[[-45.05378, -22.70392], [-45.0544, -22.70478], [-45.0562, -22.70558], [-45.0571, -22.7071], [-45.0627, -22.70081], [-45.05792, -22.69713], [-45.05727, -22.6975], [-45.05552, -22.69767], [-45.05471, -22.69829], [-45.0545, -22.69887], [-45.05403, -22.69931], [-45.05599, -22.70288], [-45.05378, -22.70392]]]}}, 
{"type": "Feature", "properties": {"CD_SETOR": "350995705000013", "CD_SIT": "2", "NM_DIST": "Canas", "NM_SUBDIST": null}, "geometry": {"type": "Polygon", "coordinates": [[[-45.0571, -22.7071], [-45.05876, -22.70893], [-45.06231, -22.70704], [-45.06187, -22.70652], [-45.06387, -22.70406], [-45.06147, -22.7022], [-45.0571, -22.7071]]]}}, 
{"type": "Feature", "properties": {"CD_SETOR": "350995705000014", "CD_SIT": "2", "NM_DIST": "Canas", "NM_SUBDIST": null}, "geometry": {"type": "Polygon", "coordinates": [[[-45.06702, -22.69356], [-45.06715, -22.6944], [-45.06671, -22.69565], [-45.06584, -22.69652], [-45.06503, -22.69691], [-45.06361, -22.69698], [-45.06118, -22.69649], [-45.06039, -22.69648], [-45.05887, -22.69677], [-45.05792, -22.69713], [-45.0627, -22.70081], [-45.06147, -22.7022], [-45.06387, -22.70406], [-45.06187, -22.70652], [-45.06231, -22.70704], [-45.05876, -22.70893], [-45.05979, -22.71014], [-45.06303, -22.71613], [-45.06344, -22.71582], [-45.07199, -22.69714], [-45.06813, -22.69251], [-45.06702, -22.69356]]]}}, 
{"type": "Feature", "properties": {"CD_SETOR": "350995705000015", "CD_SIT": "1", "NM_DIST": "Canas", "NM_SUBDIST": null}, "geometry": {"type": "Polygon", "coordinates": [[[-45.05328, -22.70725], [-45.05332, -22.70661], [-45.0544, -22.70478], [-45.05296, -22.70292], [-45.05187, -22.70435], [-45.05078, -22.70542], [-45.05328, -22.70725]]]}}, 
{"type": "Feature", "properties": {"CD_SETOR": "350995705000016", "CD_SIT": "2", "NM_DIST": "Canas", "NM_SUBDIST": null}, "geometry": {"type": "Polygon", "coordinates": [[[-45.05328, -22.70725], [-45.05373, -22.71068], [-45.05195, -22.71284], [-45.0636, -22.72117], [-45.06379, -22.72091], [-45.06375, -22.7203], [-45.06416, -22.71967], [-45.06399, -22.71813], [-45.06409, -22.718], [-45.05966, -22.70994], [-45.0571, -22.7071], [-45.0562, -22.70558], [-45.05562, -22.70523], [-45.0544, -22.70478], [-45.05332, -22.70661], [-45.05328, -22.70725]]]}}, 
{"type": "Feature", "properties": {"CD_SETOR": "350995705000017", "CD_SIT": "8", "NM_DIST": "Canas", "NM_SUBDIST": null}, "geometry": {"type": "Polygon", "coordinates": [[[-45.0489, -22.71643], [-45.06044, -22.72467], [-45.0636, -22.72117], [-45.05195, -22.71284], [-45.0489, -22.71643]]]}}]}