{"type": "FeatureCollection", "features": [
{"type": "Feature", "properties": {"CD_SETOR": "351100305000002", "CD_SIT": "1", "NM_DIST": "Castilho", "NM_SUBDIST": null}, "geometry": {"type": "Polygon", "coordinates": [[[-51.49184, -20.86975], [-51.49216, -20.87329], [-51.49394, -20.87311], [-51.49565, -20.87093], [-51.49541, -20.86837], [-51.49356, -20.86856], [-51.49365, -20.86958], [-51.49184, -20.86975]]]}}, 
{"type": "Feature", "properties": {"CD_SETOR": "351100305000004", "CD_SIT": "1", "NM_DIST": "Castilho", "NM_SUBDIST": null}, "geometry": {"type": "Polygon", "coordinates": [[[-51.49002, -20.86495], [-51.48766, -20.86514], [-51.48784, -20.86697], [-51.48877, -20.8669], [-51.48908, -20.87001], [-51.49184, -20.86975], [-51.49135, -20.86484], [-51.49002, -20.86495]]]}}, 
{"type": "Feature", "properties": {"CD_SETOR": "351100305000005", "CD_SIT": "1", "NM_DIST": "Castilho", "NM_SUBDIST": null}, "geometry": {"type": "Polygon", "coordinates": [[[-51.48705, -20.8652], [-51.48577, -20.86532], [-51.48627, -20.87027], [-51.48908, -20.87001], [-51.48877, -20.8669], [-51.48784, -20.86697], [-51.48766, -20.86514], [-51.48705, -20.8652]]]}}, 
{"type": "Feature", "properties": {"CD_SETOR": "351100305000006", "CD_SIT": "1", "NM_DIST": "Castilho", "NM_SUBDIST": null}, "geometry": {"type": "Polygon", "coordinates": [[[-51.48356, -20.86552], [-51.4823, -20.87068], [-51.48627, -20.87027], [-51.48577, -20.86532], [-51.48356, -20.86552]]]}}, 
{"type": "Feature", "properties": {"CD_SETOR": "351100305000007", "CD_SIT": "1", "NM_DIST": "Castilho", "NM_SUBDIST": null}, "geometry": {"type": "Polygon", "coordinates": [[[-51.4823, -20.87068], [-51.48213, -20.8715], [-51.48227, -20.87256], [-51.48291, -20.87353], [-51.48341, -20.87394], [-51.48386, -20.87402], [-51.48387, -20.87429], [-51.48514, -20.87437], [-51.4851, -20.87395], [-51.48663, -20.8738], [-51.48627, -20.87027], [-51.4823, -20.87068]]]}}, 
{"type": "Feature", "properties": {"CD_SETOR": "351100305000010", "CD_SIT": "1", "NM_DIST": "Castilho", "NM_SUBDIST": null}, "geometry": {"type": "Polygon", "coordinates": [[[-51.49394, -20.87311], [-51.49315, -20.87361], [-51.49255, -20.87378], [-51.49011, -20.87402], [-51.49049, -20.87476], [-51.49231, -20.8746], [-51.49281, -20.87975], [-51.49466, -20.87959], [-51.49404, -20.87298], [-51.49394, -20.87311]]]}}, 
{"type": "Feature", "properties": {"CD_SETOR": "351100305000011", "CD_SIT": "1", "NM_DIST": "Castilho", "NM_SUBDIST": null}, "geometry": {"type": "Polygon", "coordinates": [[[-51.49404, -20.87298], [-51.49466, -20.87959], [-51.49639, -20.8794], [-51.49639, -20.87819], [-51.49565, -20.87093], [-51.49404, -20.87298]]]}}, 
{"type": "Feature", "properties": {"CD_SETOR": "351100305000014", "CD_SIT": "1", "NM_DIST": "Castilho", "NM_SUBDIST": null}, "geometry": {"type": "Polygon", "coordinates": [[[-51.48658, -20.86362], [-51.48705, -20.8652], [-51.49002, -20.86495], [-51.48967, -20.86067], [-51.48912, -20.86073], [-51.48798, -20.86156], [-51.48811, -20.86346], [-51.48658, -20.86362]]]}}, 
{"type": "Feature", "properties": {"CD_SETOR": "351100305000015", "CD_SIT": "1", "NM_DIST": "Castilho", "NM_SUBDIST": null}, "geometry": {"type": "Polygon", "coordinates": [[[-51.48612, -20.85925], [-51.48658, -20.86362], [-51.48811, -20.86346], [-51.48798, -20.86156], [-51.48912, -20.86073], [-51.48967, -20.86067], [-51.4895, -20.8589], [-51.48612, -20.85925]]]}}, 
{"type": "Feature", "properties": {"CD_SETOR": "351100305000017", "CD_SIT": "3", "NM_DIST": "Castilho", "NM_SUBDIST": null}, "geometry": {"type": "Polygon", "coordinates": [[[-51.59366, -20.77813], [-51.59612, -20.77734], [-51.59843, -20.77691], [-51.60369, -20.77672], [-51.60363, -20.77628], [-51.60388, -20.77591], [-51.60418, -20.77578], [-51.60335, -20.77523], [-51.60306, -20.77384], [-51.60181, -20.7705], [-51.59989, -20.7674], [-51.59866, -20.76631], [-51.59669, -20.76516], [-51.59652, -20.76519], [-51.59663, -20.76565], [-51.59641, -20.76575], [-51.59481, -20.76519], [-51.59268, -20.76518], [-51.59153, -20.7648], [-51.59087, -20.76398], [-51.59041, -20.76378], [-51.59034, -20.76301], [-51.58968, -20.7626], [-51.58955, -20.76207], [-51.58922, -20.76204], [-51.58981, -20.76725], [-51.59055, -20.77075], [-51.59177, -20.77428], [-51.5931, -20.7774], [-51.59366, -20.77813]]]}}, 
{"type": "Feature", "properties": {"CD_SETOR": "351100305000018", "CD_SIT": "3", "NM_DIST": "Castilho", "NM_SUBDIST": null}, "geometry": {"type": "Polygon", "coordinates": [[[-51.60232, -20.74026], [-51.60225, -20.73965], [-51.60246, -20.73938], [-51.60225, -20.73804], [-51.60248, -20.73725], [-51.60269, -20.73717], [-51.60282, -20.73674], [-51.60251, -20.73653], [-51.60253, -20.73443], [-51.60236, -20.73373], [-51.60086, -20.73197], [-51.60048, -20.73083], [-51.60045, -20.72919], [-51.60066, -20.72881], [-51.60088, -20.72762], [-51.60074, -20.7266], [-51.60025, -20.72607], [-51.59509, -20.72623], [-51.59501, -20.72743], [-51.59542, -20.74052], [-51.59824, -20.74068], [-51.5992, -20.74036], [-51.60232, -20.74026]]]}}, 
{"type": "Feature", "properties": {"CD_SETOR": "351100305000019", "CD_SIT": "3", "NM_DIST": "Castilho", "NM_SUBDIST": null}, "geometry": {"type": "Polygon", "coordinates": [[[-51.60903, -20.89473], [-51.60943, -20.89641], [-51.61188, -20.9031], [-51.61284, -20.90657], [-51.61361, -20.90717], [-51.61419, -20.90708], [-51.61518, -20.91071], [-51.61631, -20.91753], [-51.61697, -20.92314], [-51.61704, -20.92345], [-51.61811, -20.92503], [-51.61748, -20.91745], [-51.61667, -20.91241], [-51.6157, -20.90847], [-51.6129, -20.89906], [-51.61175, -20.89734], [-51.61113, -20.89519], [-51.61092, -20.89333], [-51.61444, -20.88345], [-51.61249, -20.88313], [-51.61085, -20.88693], [-51.61015, -20.88906], [-51.60955, -20.89139], [-51.60934, -20.89352], [-51.60944, -20.89468], [-51.60903, -20.89473]]]}}, 
{"type": "Feature", "properties": {"CD_SETOR": "351100305000020", "CD_SIT": "3", "NM_DIST": "Castilho", "NM_SUBDIST": null}, "geometry": {"type": "Polygon", "coordinates": [[[-51.68893, -20.97194], [-51.68881, -20.97411], [-51.70363, -20.9725], [-51.70495, -20.97045], [-51.70195, -20.97014], [-51.69644, -20.97048], [-51.69166, -20.97128], [-51.68893, -20.97194]]]}}, 
{"type": "Feature", "properties": {"CD_SETOR": "351100305000021", "CD_SIT": "8", "NM_DIST": "Castilho", "NM_SUBDIST": null}, "geometry": {"type": "Polygon", "coordinates": [[[-51.76729, -21.05016], [-51.76737, -21.04991], [-51.76689, -21.0482], [-51.76546, -21.04426], [-51.76462, -21.0414], [-51.76369, -21.03909], [-51.76044, -21.03418], [-51.75978, -21.0344], [-51.76234, -21.04507], [-51.76383, -21.04407], [-51.76534, -21.05067], [-51.76566, -21.05082], [-51.76729, -21.05016]]]}}, 
{"type": "Feature", "properties": {"CD_SETOR": "351100305000026", "CD_SIT": "8", "NM_DIST": "Castilho", "NM_SUBDIST": null}, "geometry": {"type": "Polygon", "coordinates": [[[-51.47689, -20.95613], [-51.47739, -20.95623], [-51.47824, -20.95699], [-51.47872, -20.95796], [-51.47832, -20.96126], [-51.47791, -20.96191], [-51.47757, -20.96409], [-51.47727, -20.96813], [-51.47649, -20.96917], [-51.47493, -20.9707], [-51.4728, -20.9723], [-51.46965, -20.97723], [-51.46949, -20.97862], [-51.46965, -20.97994], [-51.47155, -20.98524], [-51.47187, -20.98639], [-51.47181, -20.98748], [-51.4715, -20.98866], [-51.46947, -20.99144], [-51.46616, -20.9951], [-51.46559, -20.99622], [-51.46532, -20.99837], [-51.46532, -20.99943], [-51.46592, -21.0007], [-51.46829, -21.00281], [-51.46861, -21.01395], [-51.47091, -21.01746], [-51.47088, -21.01876], [-51.4712, -21.01926], [-51.47381, -21.01979], [-51.47444, -21.02026], [-51.47469, -21.02087], [-51.4742, -21.02724], [-51.48108, -21.02744], [-51.48742, -21.02737], [-51.50365, -21.02897], [-51.50757, -21.02769], [-51.51022, -21.02735], [-51.51044, -21.02941], [-51.52499, -21.02931], [-51.52514, -21.02909], [-51.52313, -21.01842], [-51.52428, -21.01677], [-51.52624, -21.0157], [-51.53211, -21.01299], [-51.5414, -21.01167], [-51.54108, -21.00826], [-51.54124, -21.00763], [-51.54848, -21.00243], [-51.5488, -21.00201], [-51.54803, -20.99245], [-51.54813, -20.99123], [-51.54791, -20.98771], [-51.54399, -20.93585], [-51.54247, -20.93642], [-51.54175, -20.9373], [-51.5416, -20.93779], [-51.5413, -20.93797], [-51.54063, -20.9375], [-51.5405, -20.93692], [-51.53945, -20.93644], [-51.53911, -20.93576], [-51.53872, -20.93539], [-51.5385, -20.9343], [-51.53697, -20.93208], [-51.53643, -20.93216], [-51.5358, -20.9334], [-51.53522, -20.93408], [-51.53385, -20.93392], [-51.53276, -20.93415], [-51.53123, -20.93406], [-51.53, -20.93374], [-51.52886, -20.93384], [-51.52794, -20.93309], [-51.52654, -20.93248], [-51.52528, -20.93076], [-51.52387, -20.9306], [-51.52301, -20.93109], [-51.5214, -20.93296], [-51.52041, -20.93338], [-51.51926, -20.93416], [-51.51766, -20.93613], [-51.51723, -20.93612], [-51.51531, -20.93693], [-51.51451, -20.93698], [-51.51368, -20.93743], [-51.51343, -20.93782], [-51.50879, -20.93798], [-51.5076, -20.93836], [-51.50655, -20.93932], [-51.50535, -20.94179], [-51.50517, -20.94231], [-51.50515, -20.9445], [-51.50474, -20.94519], [-51.50239, -20.9465], [-51.50139, -20.94674], [-51.50032, -20.94795], [-51.49963, -20.94822], [-51.49802, -20.94773], [-51.49565, -20.94841], [-51.49469, -20.94908], [-51.49365, -20.94956], [-51.49042, -20.9502], [-51.48771, -20.95127], [-51.48676, -20.95188], [-51.486, -20.95196], [-51.48557, -20.95255], [-51.48414, -20.95282], [-51.48154, -20.95463], [-51.47985, -20.95551], [-51.47714, -20.95596], [-51.47689, -20.95613]]]}}, 
{"type": "Feature", "properties": {"CD_SETOR": "351100305000027", "CD_SIT": "8", "NM_DIST": "Castilho", "NM_SUBDIST": null}, "geometry": {"type": "Polygon", "coordinates": [[[-51.54399, -20.93585], [-51.54791, -20.98771], [-51.54813, -20.99123], [-51.54807, -20.99301], [-51.54884, -21.00182], [-51.54848, -21.00243], [-51.54156, -21.00732], [-51.54108, -21.00805], [-51.5423, -21.02025], [-51.54414, -21.03482], [-51.54438, -21.03597], [-51.54478, -21.03656], [-51.5483, -21.03968], [-51.5593, -21.04872], [-51.55958, -21.04837], [-51.56016, -21.04591], [-51.56203, -21.04307], [-51.56369, -21.04255], [-51.5679, -21.03761], [-51.57133, -21.03501], [-51.57323, -21.03422], [-51.57412, -21.03336], [-51.57513, -21.03322], [-51.57664, -21.03232], [-51.5781, -21.03226], [-51.57911, -21.03298], [-51.58041, -21.0328], [-51.58214, -21.03304], [-51.58354, -21.03357], [-51.58561, -21.03328], [-51.59043, -21.03423], [-51.59197, -21.03403], [-51.5926, -21.03416], [-51.59465, -21.03554], [-51.59525, -21.03562], [-51.59652, -21.03545], [-51.59928, -21.03424], [-51.60136, -21.03447], [-51.60245, -21.03371], [-51.60424, -21.03421], [-51.60522, -21.0357], [-51.60773, -21.03709], [-51.60853, -21.03725], [-51.60909, -21.03702], [-51.61001, -21.03613], [-51.61024, -21.03554], [-51.61152, -21.03482], [-51.61326, -21.03281], [-51.61418, -21.03225], [-51.61535, -21.03058], [-51.61614, -21.03016], [-51.61778, -21.02644], [-51.61891, -21.02514], [-51.61904, -21.02472], [-51.61885, -21.02403], [-51.61957, -21.02276], [-51.62007, -21.01967], [-51.62109, -21.01736], [-51.6207, -21.01625], [-51.62152, -21.01339], [-51.62219, -21.01305], [-51.62324, -21.01206], [-51.62452, -21.01144], [-51.62501, -21.01054], [-51.62653, -21.00999], [-51.62674, -21.00986], [-51.62664, -21.00948], [-51.62712, -21.00952], [-51.62725, -21.00918], [-51.62786, -21.00904], [-51.62813, -21.00819], [-51.62845, -21.00804], [-51.62862, -21.00765], [-51.63048, -21.00794], [-51.63118, -21.00764], [-51.63138, -21.00773], [-51.63176, -21.00726], [-51.63226, -21.00799], [-51.63249, -21.00777], [-51.63301, -21.00789], [-51.63319, -21.00755], [-51.63377, -21.00772], [-51.63392, -21.00794], [-51.63418, -21.00777], [-51.63438, -21.00788], [-51.6346, -21.00772], [-51.6346, -21.00741], [-51.63505, -21.00743], [-51.63544, -21.007], [-51.63626, -21.00676], [-51.63752, -21.00572], [-51.63931, -21.00587], [-51.63973, -21.00608], [-51.64097, -21.00605], [-51.64156, -21.00663], [-51.6431, -21.00722], [-51.64459, -21.00682], [-51.64545, -21.00773], [-51.64624, -21.00796], [-51.6466, -21.0077], [-51.64806, -21.00795], [-51.65144, -21.00679], [-51.65259, -21.00695], [-51.65439, -21.00655], [-51.6554, -21.00673], [-51.65621, -21.00629], [-51.65699, -21.00494], [-51.65691, -21.00327], [-51.65701, -21.00262], [-51.65745, -21.00251], [-51.65729, -21.00206], [-51.65745, -21.00089], [-51.65822, -21.00036], [-51.65874, -20.99887], [-51.66008, -20.99834], [-51.65955, -20.99577], [-51.66007, -20.99394], [-51.6591, -20.99242], [-51.65979, -20.99005], [-51.66109, -20.988], [-51.66141, -20.98682], [-51.66126, -20.98522], [-51.66146, -20.98458], [-51.6625, -20.98344], [-51.66234, -20.98216], [-51.65994, -20.97473], [-51.65965, -20.9685], [-51.65489, -20.96526], [-51.6497, -20.9597], [-51.64428, -20.95552], [-51.63978, -20.95361], [-51.63631, -20.95296], [-51.63458, -20.95235], [-51.63308, -20.95246], [-51.63217, -20.95273], [-51.62991, -20.95262], [-51.62854, -20.95223], [-51.62617, -20.9509], [-51.62512, -20.94984], [-51.62352, -20.94751], [-51.62251, -20.94524], [-51.62222, -20.94496], [-51.62179, -20.94284], [-51.62135, -20.94129], [-51.6209, -20.94042], [-51.62069, -20.9392], [-51.61961, -20.93551], [-51.61801, -20.93206], [-51.61718, -20.93209], [-51.61629, -20.9325], [-51.61609, -20.93305], [-51.61625, -20.93325], [-51.6169, -20.9334], [-51.61695, -20.93373], [-51.61633, -20.9341], [-51.61629, -20.93426], [-51.61665, -20.93474], [-51.61654, -20.93496], [-51.61629, -20.93506], [-51.61597, -20.93483], [-51.61561, -20.93489], [-51.61574, -20.93547], [-51.61529, -20.93587], [-51.61531, -20.93961], [-51.61416, -20.94153], [-51.61466, -20.94227], [-51.61462, -20.94402], [-51.61452, -20.9443], [-51.61412, -20.94445], [-51.61367, -20.94402], [-51.61326, -20.94301], [-51.61238, -20.94201], [-51.61075, -20.94135], [-51.60953, -20.9404], [-51.60875, -20.94015], [-51.60665, -20.93859], [-51.60478, -20.93807], [-51.60209, -20.93815], [-51.60184, -20.93799], [-51.60184, -20.93722], [-51.60129, -20.93731], [-51.60094, -20.93693], [-51.59954, -20.9368], [-51.59935, -20.93645], [-51.59942, -20.93583], [-51.59861, -20.93382], [-51.5982, -20.93345], [-51.59747, -20.93322], [-51.59709, -20.93273], [-51.59648, -20.93278], [-51.59597, -20.93219], [-51.59537, -20.93239], [-51.59338, -20.93207], [-51.59391, -20.93118], [-51.59382, -20.93046], [-51.59347, -20.93032], [-51.5927, -20.93056], [-51.59253, -20.93044], [-51.59263, -20.92983], [-51.59162, -20.9295], [-51.59155, -20.92879], [-51.59208, -20.92834], [-51.59219, -20.92782], [-51.59315, -20.92774], [-51.59326, -20.92728], [-51.59313, -20.92704], [-51.59202, -20.92668], [-51.59142, -20.92606], [-51.59112, -20.92615], [-51.59043, -20.92705], [-51.58868, -20.9271], [-51.58831, -20.92738], [-51.5876, -20.9275], [-51.58709, -20.92899], [-51.58608, -20.93], [-51.5833, -20.92992], [-51.58312, -20.92927], [-51.58362, -20.92854], [-51.58332, -20.92792], [-51.58346, -20.92688], [-51.58311, -20.92671], [-51.58173, -20.92672], [-51.5814, -20.92679], [-51.58062, -20.92766], [-51.58005, -20.92747], [-51.57951, -20.92603], [-51.57846, -20.9257], [-51.57807, -20.92471], [-51.57732, -20.92432], [-51.57627, -20.92307], [-51.57677, -20.92245], [-51.57674, -20.92195], [-51.57605, -20.92181], [-51.57419, -20.92211], [-51.57204, -20.92209], [-51.57019, -20.92184], [-51.57019, -20.92204], [-51.5698, -20.92224], [-51.56821, -20.92179], [-51.56764, -20.92182], [-51.56768, -20.92208], [-51.568, -20.92221], [-51.56798, -20.92279], [-51.56705, -20.92296], [-51.56511, -20.92398], [-51.56493, -20.9246], [-51.56526, -20.92601], [-51.56462, -20.92734], [-51.56413, -20.92668], [-51.56306, -20.92686], [-51.5621, -20.92745], [-51.56117, -20.92751], [-51.56085, -20.92804], [-51.56085, -20.92875], [-51.56003, -20.93015], [-51.55831, -20.92979], [-51.558, -20.92929], [-51.55716, -20.92865], [-51.55667, -20.92693], [-51.55631, -20.92683], [-51.55333, -20.92856], [-51.55242, -20.93054], [-51.55126, -20.93065], [-51.5513, -20.92936], [-51.55051, -20.92891], [-51.5499, -20.92903], [-51.54932, -20.92939], [-51.54894, -20.92999], [-51.54867, -20.93229], [-51.54829, -20.93311], [-51.54735, -20.93415], [-51.54592, -20.93505], [-51.54399, -20.93585]]]}}, 
{"type": "Feature", "properties": {"CD_SETOR": "351100305000030", "CD_SIT": "8", "NM_DIST": "Castilho", "NM_SUBDIST": null}, "geometry": {"type": "Polygon", "coordinates": [[[-51.48145, -20.85536], [-51.48071, -20.84821], [-51.48479, -20.84787], [-51.48408, -20.84379], [-51.48278, -20.84039], [-51.46526, -20.84693], [-51.46622, -20.85452], [-51.47629, -20.85354], [-51.47667, -20.85581], [-51.48145, -20.85536]]]}}, 
{"type": "Feature", "properties": {"CD_SETOR": "351100305000034", "CD_SIT": "8", "NM_DIST": "Castilho", "NM_SUBDIST": null}, "geometry": {"type": "Polygon", "coordinates": [[[-51.49955, -20.86739], [-51.50041, -20.87936], [-51.52921, -20.8992], [-51.54164, -20.90809], [-51.54186, -20.90866], [-51.54199, -20.90994], [-51.54399, -20.93585], [-51.54592, -20.93505], [-51.54735, -20.93415], [-51.54829, -20.93311], [-51.54867, -20.93229], [-51.54894, -20.92999], [-51.54932, -20.92939], [-51.5499, -20.92903], [-51.55051, -20.92891], [-51.5513, -20.92936], [-51.55126, -20.93065], [-51.55242, -20.93054], [-51.55333, -20.92856], [-51.55631, -20.92683], [-51.55667, -20.92693], [-51.55716, -20.92865], [-51.558, -20.92929], [-51.55831, -20.92979], [-51.56003, -20.93015], [-51.56085, -20.92875], [-51.56085, -20.92804], [-51.56117, -20.92751], [-51.5621, -20.92745], [-51.56306, -20.92686], [-51.56413, -20.92668], [-51.56462, -20.92734], [-51.56526, -20.92601], [-51.56493, -20.9246], [-51.56511, -20.92398], [-51.56705, -20.92296], [-51.56798, -20.92279], [-51.568, -20.92221], [-51.56768, -20.92208], [-51.56764, -20.92182], [-51.56821, -20.92179], [-51.5698, -20.92224], [-51.57019, -20.92204], [-51.57019, -20.92184], [-51.57204, -20.92209], [-51.57419, -20.92211], [-51.57605, -20.92181], [-51.57674, -20.92195], [-51.57677, -20.92245], [-51.57627, -20.92307], [-51.57732, -20.92432], [-51.57807, -20.92471], [-51.57846, -20.9257], [-51.57951, -20.92603], [-51.58005, -20.92747], [-51.58062, -20.92766], [-51.5814, -20.92679], [-51.58173, -20.92672], [-51.58311, -20.92671], [-51.58346, -20.92688], [-51.58332, -20.92792], [-51.58362, -20.92854], [-51.58312, -20.92927], [-51.5833, -20.92992], [-51.58608, -20.93], [-51.58709, -20.92899], [-51.5876, -20.9275], [-51.58831, -20.92738], [-51.58868, -20.9271], [-51.59043, -20.92705], [-51.59112, -20.92615], [-51.59142, -20.92606], [-51.59202, -20.92668], [-51.59313, -20.92704], [-51.59326, -20.92728], [-51.59315, -20.92774], [-51.59219, -20.92782], [-51.59208, -20.92834], [-51.59155, -20.92879], [-51.59162, -20.9295], [-51.59263, -20.92983], [-51.59253, -20.93044], [-51.5927, -20.93056], [-51.59347, -20.93032], [-51.59382, -20.93046], [-51.59391, -20.93118], [-51.59338, -20.93207], [-51.59537, -20.93239], [-51.59597, -20.93219], [-51.59648, -20.93278], [-51.59709, -20.93273], [-51.59747, -20.93322], [-51.5982, -20.93345], [-51.59861, -20.93382], [-51.59942, -20.93583], [-51.59935, -20.93645], [-51.59954, -20.9368], [-51.60094, -20.93693], [-51.60129, -20.93731], [-51.60184, -20.93722], [-51.60184, -20.93799], [-51.60209, -20.93815], [-51.60478, -20.93807], [-51.60665, -20.93859], [-51.60875, -20.94015], [-51.60953, -20.9404], [-51.61075, -20.94135], [-51.61238, -20.94201], [-51.61326, -20.94301], [-51.61367, -20.94402], [-51.61412, -20.94445], [-51.61452, -20.9443], [-51.61466, -20.94227], [-51.61416, -20.94153], [-51.61531, -20.93961], [-51.61529, -20.93587], [-51.61574, -20.93547], [-51.61561, -20.93489], [-51.61597, -20.93483], [-51.61629, -20.93506], [-51.61665, -20.93474], [-51.61629, -20.93426], [-51.61695, -20.93373], [-51.6169, -20.9334], [-51.61625, -20.93325], [-51.61609, -20.93305], [-51.61629, -20.9325], [-51.61718, -20.93209], [-51.61801, -20.93206], [-51.61811, -20.92503], [-51.61704, -20.92345], [-51.61697, -20.92314], [-51.61631, -20.91753], [-51.61518, -20.91071], [-51.61419, -20.90708], [-51.61361, -20.90717], [-51.61284, -20.90657], [-51.61188, -20.9031], [-51.60943, -20.89641], [-51.60903, -20.89473], [-51.58949, -20.89762], [-51.58862, -20.89768], [-51.58574, -20.89697], [-51.58438, -20.897], [-51.54974, -20.90194], [-51.54877, -20.90227], [-51.54813, -20.90278], [-51.54771, -20.90342], [-51.54752, -20.90407], [-51.5466, -20.89921], [-51.54467, -20.886], [-51.53942, -20.84531], [-51.52197, -20.85922], [-51.51451, -20.86268], [-51.5007, -20.8669], [-51.49955, -20.86739]]]}}, 
{"type": "Feature", "properties": {"CD_SETOR": "351100305000035", "CD_SIT": "8", "NM_DIST": "Castilho", "NM_SUBDIST": null}, "geometry": {"type": "Polygon", "coordinates": [[[-51.60369, -20.77672], [-51.59949, -20.77681], [-51.59612, -20.77734], [-51.59432, -20.77784], [-51.58955, -20.78023], [-51.55787, -20.80182], [-51.5607, -20.81401], [-51.56226, -20.82193], [-51.56261, -20.82935], [-51.56377, -20.82998], [-51.56411, -20.82948], [-51.56429, -20.82877], [-51.5642, -20.8277], [-51.56342, -20.82571], [-51.56365, -20.82426], [-51.56421, -20.82345], [-51.56484, -20.823], [-51.56611, -20.82265], [-51.5676, -20.82294], [-51.56838, -20.82346], [-51.57046, -20.82541], [-51.57151, -20.82584], [-51.57249, -20.82587], [-51.57484, -20.82503], [-51.57614, -20.82494], [-51.57739, -20.82532], [-51.57961, -20.82719], [-51.58031, -20.82755], [-51.58163, -20.82774], [-51.58304, -20.82723], [-51.58699, -20.82362], [-51.58751, -20.82252], [-51.58756, -20.8218], [-51.58733, -20.82091], [-51.58686, -20.82022], [-51.5856, -20.81901], [-51.58517, -20.81812], [-51.58516, -20.81715], [-51.5854, -20.81637], [-51.58628, -20.81526], [-51.58781, -20.81472], [-51.59096, -20.8151], [-51.59165, -20.81495], [-51.59272, -20.81439], [-51.59351, -20.81354], [-51.595, -20.80902], [-51.59569, -20.80808], [-51.59859, -20.80644], [-51.60147, -20.80282], [-51.60314, -20.80136], [-51.61585, -20.79237], [-51.61742, -20.79176], [-51.62296, -20.79114], [-51.62272, -20.7907], [-51.62163, -20.78627], [-51.62107, -20.78546], [-51.62035, -20.7837], [-51.62032, -20.7811], [-51.6211, -20.77883], [-51.6211, -20.77562], [-51.62048, -20.7745], [-51.61776, -20.77577], [-51.61484, -20.77644], [-51.60369, -20.77672]]]}}, 
{"type": "Feature", "properties": {"CD_SETOR": "351100305000036", "CD_SIT": "8", "NM_DIST": "Castilho", "NM_SUBDIST": null}, "geometry": {"type": "Polygon", "coordinates": [[[-51.4742, -21.02724], [-51.47464, -21.02903], [-51.47663, -21.0299], [-51.47694, -21.03034], [-51.47701, -21.03105], [-51.47664, -21.03335], [-51.47689, -21.03373], [-51.47982, -21.03458], [-51.48107, -21.03537], [-51.48161, -21.0361], [-51.48155, -21.03649], [-51.48108, -21.03696], [-51.47826, -21.03939], [-51.47742, -21.04042], [-51.47692, -21.04131], [-51.47657, -21.04281], [-51.47672, -21.0475], [-51.4765, -21.04812], [-51.47562, -21.04897], [-51.47556, -21.04971], [-51.47689, -21.04971], [-51.47767, -21.05002], [-51.47946, -21.05148], [-51.48201, -21.05097], [-51.48323, -21.05115], [-51.48494, -21.0529], [-51.48503, -21.05428], [-51.48487, -21.05684], [-51.48622, -21.05643], [-51.48693, -21.05639], [-51.48768, -21.05662], [-51.48879, -21.05657], [-51.49072, -21.05686], [-51.4918, -21.05743], [-51.49342, -21.05739], [-51.49434, -21.05789], [-51.49582, -21.05789], [-51.49746, -21.05854], [-51.49755, -21.0592], [-51.49789, -21.06001], [-51.49829, -21.06007], [-51.49907, -21.05987], [-51.50201, -21.0612], [-51.50235, -21.06308], [-51.50258, -21.06344], [-51.50419, -21.06375], [-51.51071, -21.06739], [-51.51121, -21.06738], [-51.51182, -21.06681], [-51.51221, -21.06675], [-51.51232, -21.06722], [-51.51216, -21.06957], [-51.51228, -21.07046], [-51.51272, -21.07104], [-51.51334, -21.07145], [-51.51345, -21.07176], [-51.51129, -21.07551], [-51.51108, -21.07859], [-51.51053, -21.07954], [-51.51069, -21.07978], [-51.51731, -21.08164], [-51.51837, -21.0821], [-51.51898, -21.08262], [-51.51999, -21.0845], [-51.52222, -21.08643], [-51.52728, -21.08855], [-51.5612, -21.0766], [-51.57711, -21.07123], [-51.57779, -21.07084], [-51.57998, -21.06834], [-51.58114, -21.06733], [-51.58114, -21.0671], [-51.58047, -21.06639], [-51.57519, -21.06141], [-51.55413, -21.04451], [-51.5483, -21.03968], [-51.54458, -21.03635], [-51.5442, -21.03532], [-51.5432, -21.02784], [-51.5414, -21.01167], [-51.53211, -21.01299], [-51.52624, -21.0157], [-51.52428, -21.01677], [-51.52313, -21.01842], [-51.52514, -21.02909], [-51.52499, -21.02931], [-51.51044, -21.02941], [-51.51022, -21.02735], [-51.50757, -21.02769], [-51.50365, -21.02897], [-51.48742, -21.02737], [-51.48108, -21.02744], [-51.4742, -21.02724]]]}}, 
{"type": "Feature", "properties": {"CD_SETOR": "351100305000037", "CD_SIT": "1", "NM_DIST": "Castilho", "NM_SUBDIST": null}, "geometry": {"type": "Polygon", "coordinates": [[[-51.48908, -20.87001], [-51.48927, -20.87192], [-51.49018, -20.87183], [-51.49034, -20.8734], [-51.49006, -20.87345], [-51.49011, -20.87402], [-51.49255, -20.87378], [-51.49315, -20.87361], [-51.49394, -20.87311], [-51.49216, -20.87329], [-51.49184, -20.86975], [-51.48908, -20.87001]]]}}, 
{"type": "Feature", "properties": {"CD_SETOR": "351100305000038", "CD_SIT": "1", "NM_DIST": "Castilho", "NM_SUBDIST": null}, "geometry": {"type": "Polygon", "coordinates": [[[-51.48627, -20.87027], [-51.48663, -20.8738], [-51.4851, -20.87395], [-51.48514, -20.87437], [-51.49011, -20.87402], [-51.49006, -20.87345], [-51.49034, -20.8734], [-51.49018, -20.87183], [-51.48927, -20.87192], [-51.48908, -20.87001], [-51.48627, -20.87027]]]}}, 
{"type": "Feature", "properties": {"CD_SETOR": "351100305000039", "CD_SIT": "1", "NM_DIST": "Castilho", "NM_SUBDIST": null}, "geometry": {"type": "Polygon", "coordinates": [[[-51.4932, -20.86467], [-51.49135, -20.86484], [-51.49153, -20.86663], [-51.49519, -20.86629], [-51.49501, -20.86451], [-51.4932, -20.86467]]]}}, 
{"type": "Feature", "properties": {"CD_SETOR": "351100305000040", "CD_SIT": "1", "NM_DIST": "Castilho", "NM_SUBDIST": null}, "geometry": {"type": "Polygon", "coordinates": [[[-51.49153, -20.86663], [-51.49184, -20.86975], [-51.49365, -20.86958], [-51.49356, -20.86856], [-51.49541, -20.86837], [-51.49519, -20.86629], [-51.49153, -20.86663]]]}}, 
{"type": "Feature", "properties": {"CD_SETOR": "351100305000041", "CD_SIT": "1", "NM_DIST": "Castilho", "NM_SUBDIST": null}, "geometry": {"type": "Polygon", "coordinates": [[[-51.48312, -20.87738], [-51.48609, -20.87711], [-51.4862, -20.87815], [-51.48803, -20.87796], [-51.48769, -20.87477], [-51.48791, -20.87421], [-51.48436, -20.87438], [-51.48387, -20.87429], [-51.48386, -20.87402], [-51.48341, -20.87394], [-51.48291, -20.87353], [-51.4827, -20.87361], [-51.48312, -20.87738]]]}}, 
{"type": "Feature", "properties": {"CD_SETOR": "351100305000042", "CD_SIT": "1", "NM_DIST": "Castilho", "NM_SUBDIST": null}, "geometry": {"type": "Polygon", "coordinates": [[[-51.48312, -20.87738], [-51.48355, -20.88069], [-51.48829, -20.88022], [-51.48803, -20.87796], [-51.4862, -20.87815], [-51.48609, -20.87711], [-51.48312, -20.87738]]]}}, 
{"type": "Feature", "properties": {"CD_SETOR": "351100305000043", "CD_SIT": "1", "NM_DIST": "Castilho", "NM_SUBDIST": null}, "geometry": {"type": "Polygon", "coordinates": [[[-51.48791, -20.87421], [-51.48769, -20.87477], [-51.48792, -20.87693], [-51.49066, -20.87664], [-51.49075, -20.87769], [-51.4926, -20.87752], [-51.49231, -20.8746], [-51.49049, -20.87476], [-51.49011, -20.87402], [-51.48791, -20.87421]]]}}, 
{"type": "Feature", "properties": {"CD_SETOR": "351100305000044", "CD_SIT": "2", "NM_DIST": "Castilho", "NM_SUBDIST": null}, "geometry": {"type": "Polygon", "coordinates": [[[-51.48792, -20.87693], [-51.48829, -20.88022], [-51.49281, -20.87975], [-51.4926, -20.87752], [-51.49075, -20.87769], [-51.49066, -20.87664], [-51.48792, -20.87693]]]}}, 
{"type": "Feature", "properties": {"CD_SETOR": "351100305000045", "CD_SIT": "2", "NM_DIST": "Castilho", "NM_SUBDIST": null}, "geometry": {"type": "Polygon", "coordinates": [[[-51.49046, -20.85882], [-51.49068, -20.86158], [-51.49351, -20.86128], [-51.49474, -20.86178], [-51.4945, -20.8588], [-51.49426, -20.85859], [-51.49349, -20.85851], [-51.49046, -20.85882]]]}}, 
{"type": "Feature", "properties": {"CD_SETOR": "351100305000046", "CD_SIT": "1", "NM_DIST": "Castilho", "NM_SUBDIST": null}, "geometry": {"type": "Polygon", "coordinates": [[[-51.49145, -20.86151], [-51.49149, -20.86195], [-51.49131, -20.86212], [-51.49129, -20.86256], [-51.49216, -20.86333], [-51.4931, -20.86325], [-51.4932, -20.86467], [-51.49501, -20.86451], [-51.49474, -20.86178], [-51.49351, -20.86128], [-51.49145, -20.86151]]]}}, 
{"type": "Feature", "properties": {"CD_SETOR": "351100305000047", "CD_SIT": "1", "NM_DIST": "Castilho", "NM_SUBDIST": null}, "geometry": {"type": "Polygon", "coordinates": [[[-51.4895, -20.8589], [-51.48961, -20.85991], [-51.48987, -20.863], [-51.49071, -20.86245], [-51.49126, -20.86243], [-51.49149, -20.86195], [-51.49145, -20.86151], [-51.49068, -20.86158], [-51.49046, -20.85882], [-51.4895, -20.8589]]]}}, 
{"type": "Feature", "properties": {"CD_SETOR": "351100305000048", "CD_SIT": "1", "NM_DIST": "Castilho", "NM_SUBDIST": null}, "geometry": {"type": "Polygon", "coordinates": [[[-51.48987, -20.863], [-51.49002, -20.86495], [-51.4932, -20.86467], [-51.4931, -20.86325], [-51.49216, -20.86333], [-51.49148, -20.86282], [-51.49126, -20.86243], [-51.49071, -20.86245], [-51.48987, -20.863]]]}}, 
{"type": "Feature", "properties": {"CD_SETOR": "351100305000049", "CD_SIT": "1", "NM_DIST": "Castilho", "NM_SUBDIST": null}, "geometry": {"type": "Polygon", "coordinates": [[[-51.48145, -20.85536], [-51.48432, -20.85519], [-51.48436, -20.85555], [-51.48557, -20.85546], [-51.48538, -20.85352], [-51.4841, -20.85363], [-51.48407, -20.85305], [-51.48269, -20.85314], [-51.48239, -20.85026], [-51.48195, -20.85029], [-51.4819, -20.84968], [-51.48172, -20.84969], [-51.48159, -20.84814], [-51.48071, -20.84821], [-51.48145, -20.85536]]]}}, 
{"type": "Feature", "properties": {"CD_SETOR": "351100305000050", "CD_SIT": "1", "NM_DIST": "Castilho", "NM_SUBDIST": null}, "geometry": {"type": "Polygon", "coordinates": [[[-51.48159, -20.84814], [-51.48172, -20.84969], [-51.4819, -20.84968], [-51.48195, -20.85029], [-51.48239, -20.85026], [-51.48269, -20.85314], [-51.48407, -20.85305], [-51.4841, -20.85363], [-51.48538, -20.85352], [-51.48479, -20.84787], [-51.48159, -20.84814]]]}}, 
{"type": "Feature", "properties": {"CD_SETOR": "351100305000051", "CD_SIT": "8", "NM_DIST": "Castilho", "NM_SUBDIST": null}, "geometry": {"type": "Polygon", "coordinates": [[[-51.42004, -20.68395], [-51.42007, -20.68596], [-51.42033, -20.68796], [-51.42081, -20.68877], [-51.42139, -20.68928], [-51.42167, -20.69011], [-51.42163, -20.69133], [-51.42106, -20.693], [-51.42125, -20.69486], [-51.4216, -20.69569], [-51.42209, -20.69624], [-51.4227, -20.69889], [-51.42332, -20.69997], [-51.42468, -20.70174], [-51.42417, -20.70582], [-51.42484, -20.70824], [-51.42486, -20.70957], [-51.42432, -20.71189], [-51.42435, -20.71233], [-51.42569, -20.71345], [-51.42676, -20.71497], [-51.42754, -20.71553], [-51.42879, -20.71612], [-51.43014, -20.71742], [-51.43082, -20.71787], [-51.43182, -20.71962], [-51.43382, -20.72168], [-51.43591, -20.72313], [-51.43642, -20.72384], [-51.43686, -20.72498], [-51.43778, -20.72589], [-51.43923, -20.72792], [-51.43938, -20.72921], [-51.43933, -20.73051], [-51.43984, -20.73159], [-51.43992, -20.7341], [-51.44255, -20.73618], [-51.44309, -20.73705], [-51.44316, -20.73821], [-51.44287, -20.73922], [-51.44088, -20.74109], [-51.44027, -20.74198], [-51.4399, -20.74283], [-51.43987, -20.7436], [-51.44041, -20.74508], [-51.4424, -20.74787], [-51.44323, -20.7494], [-51.44318, -20.75084], [-51.44283, -20.7519], [-51.443, -20.75419], [-51.44278, -20.75628], [-51.44306, -20.75736], [-51.44351, -20.75826], [-51.44464, -20.75967], [-51.44739, -20.76249], [-51.44808, -20.76344], [-51.44933, -20.76429], [-51.45016, -20.76506], [-51.45101, -20.7666], [-51.45109, -20.76763], [-51.45081, -20.76857], [-51.4499, -20.76955], [-51.44818, -20.77067], [-51.44928, -20.79982], [-51.45366, -20.79884], [-51.45652, -20.79846], [-51.46013, -20.79828], [-51.46734, -20.79448], [-51.47051, -20.792], [-51.47231, -20.79007], [-51.47542, -20.78559], [-51.47791, -20.78413], [-51.47926, -20.78314], [-51.47772, -20.76624], [-51.48405, -20.76668], [-51.48796, -20.75911], [-51.49088, -20.7545], [-51.49359, -20.75068], [-51.49778, -20.74819], [-51.50173, -20.74742], [-51.50596, -20.74686], [-51.51295, -20.749], [-51.51746, -20.75003], [-51.52048, -20.75028], [-51.52328, -20.75109], [-51.52783, -20.75182], [-51.52934, -20.75133], [-51.53017, -20.75021], [-51.52382, -20.74406], [-51.52211, -20.74283], [-51.46658, -20.71163], [-51.46368, -20.70964], [-51.462, -20.70765], [-51.44568, -20.68012], [-51.44504, -20.67809], [-51.44479, -20.67628], [-51.44532, -20.67037], [-51.44419, -20.67064], [-51.44368, -20.67115], [-51.44403, -20.67146], [-51.44407, -20.67215], [-51.44373, -20.67335], [-51.444, -20.67406], [-51.44316, -20.67588], [-51.44128, -20.67688], [-51.43835, -20.67761], [-51.43783, -20.67805], [-51.43703, -20.67787], [-51.43484, -20.67784], [-51.43205, -20.67801], [-51.43135, -20.6787], [-51.43123, -20.67965], [-51.43083, -20.68032], [-51.42934, -20.68151], [-51.42654, -20.68267], [-51.42465, -20.68293], [-51.42267, -20.68355], [-51.42004, -20.68395]]]}}, 
{"type": "Feature", "properties": {"CD_SETOR": "351100305000052", "CD_SIT": "8", "NM_DIST": "Castilho", "NM_SUBDIST": null}, "geometry": {"type": "Polygon", "coordinates": [[[-51.44928, -20.79982], [-51.45128, -20.85262], [-51.45189, -20.86519], [-51.45402, -20.86599], [-51.45512, -20.8661], [-51.45635, -20.86569], [-51.45692, -20.86526], [-51.45858, -20.86306], [-51.45968, -20.86255], [-51.46045, -20.86247], [-51.46121, -20.86261], [-51.46228, -20.8631], [-51.46552, -20.86568], [-51.46705, -20.86657], [-51.46879, -20.86697], [-51.47076, -20.86652], [-51.47212, -20.86557], [-51.47285, -20.86459], [-51.47331, -20.86294], [-51.4732, -20.85954], [-51.47336, -20.8589], [-51.47412, -20.85788], [-51.4753, -20.85725], [-51.47646, -20.85718], [-51.47756, -20.8575], [-51.48205, -20.86078], [-51.48145, -20.85536], [-51.47667, -20.85581], [-51.47629, -20.85354], [-51.46622, -20.85452], [-51.46526, -20.84693], [-51.49179, -20.83706], [-51.49258, -20.84444], [-51.49293, -20.85035], [-51.49261, -20.85035], [-51.49253, -20.85299], [-51.493, -20.85538], [-51.49716, -20.85499], [-51.49764, -20.85798], [-51.49866, -20.85785], [-51.49955, -20.86739], [-51.5007, -20.8669], [-51.51451, -20.86268], [-51.52224, -20.85906], [-51.54023, -20.84467], [-51.54162, -20.84335], [-51.55193, -20.83508], [-51.5531, -20.83433], [-51.55959, -20.83401], [-51.56049, -20.83383], [-51.56129, -20.83337], [-51.56171, -20.83293], [-51.56377, -20.82998], [-51.56261, -20.82935], [-51.56226, -20.82193], [-51.5607, -20.81401], [-51.55787, -20.80182], [-51.55947, -20.80036], [-51.56021, -20.7989], [-51.5605, -20.79707], [-51.5604, -20.79613], [-51.55999, -20.79487], [-51.54345, -20.7637], [-51.54275, -20.76263], [-51.54167, -20.76139], [-51.53017, -20.75021], [-51.52934, -20.75133], [-51.52783, -20.75182], [-51.52328, -20.75109], [-51.52048, -20.75028], [-51.51746, -20.75003], [-51.51295, -20.749], [-51.50596, -20.74686], [-51.50173, -20.74742], [-51.49778, -20.74819], [-51.49359, -20.75068], [-51.49088, -20.7545], [-51.48796, -20.75911], [-51.48405, -20.76668], [-51.47772, -20.76624], [-51.47926, -20.78314], [-51.47791, -20.78413], [-51.47542, -20.78559], [-51.47231, -20.79007], [-51.47051, -20.792], [-51.46734, -20.79448], [-51.46013, -20.79828], [-51.45652, -20.79846], [-51.45366, -20.79884], [-51.44928, -20.79982]]]}}, 
{"type": "Feature", "properties": {"CD_SETOR": "351100305000053", "CD_SIT": "8", "NM_DIST": "Castilho", "NM_SUBDIST": null}, "geometry": {"type": "Polygon", "coordinates": [[[-51.44532, -20.67037], [-51.44479, -20.67628], [-51.44504, -20.67809], [-51.44568, -20.68012], [-51.462, -20.70765], [-51.46368, -20.70964], [-51.46658, -20.71163], [-51.523, -20.74341], [-51.52444, -20.74466], [-51.54199, -20.76173], [-51.54345, -20.7637], [-51.56023, -20.79545], [-51.5605, -20.79707], [-51.56021, -20.7989], [-51.55947, -20.80036], [-51.55787, -20.80182], [-51.58955, -20.78023], [-51.59366, -20.77813], [-51.5931, -20.7774], [-51.59177, -20.77428], [-51.59055, -20.77075], [-51.58981, -20.76725], [-51.58922, -20.76204], [-51.58942, -20.762], [-51.58949, -20.76154], [-51.58978, -20.7614], [-51.59066, -20.76168], [-51.59138, -20.76226], [-51.59228, -20.7635], [-51.59301, -20.7637], [-51.5948, -20.76337], [-51.59547, -20.76372], [-51.59627, -20.76363], [-51.59675, -20.76374], [-51.5972, -20.76363], [-51.59795, -20.76308], [-51.59961, -20.76101], [-51.60022, -20.75825], [-51.60183, -20.75522], [-51.60208, -20.75339], [-51.59608, -20.75311], [-51.59613, -20.75195], [-51.60232, -20.7522], [-51.60352, -20.74914], [-51.60414, -20.74557], [-51.59643, -20.74533], [-51.59652, -20.74428], [-51.60378, -20.74452], [-51.60337, -20.74353], [-51.60339, -20.74256], [-51.60237, -20.74192], [-51.60215, -20.7408], [-51.60236, -20.74047], [-51.60232, -20.74026], [-51.5992, -20.74036], [-51.59824, -20.74068], [-51.59542, -20.74052], [-51.595, -20.72647], [-51.59519, -20.72621], [-51.60025, -20.72607], [-51.60161, -20.72462], [-51.60206, -20.72376], [-51.6018, -20.72286], [-51.6018, -20.72219], [-51.60217, -20.72051], [-51.60281, -20.72015], [-51.6022, -20.71822], [-51.60234, -20.71741], [-51.60346, -20.71604], [-51.60427, -20.71432], [-51.60376, -20.71373], [-51.60309, -20.71373], [-51.60284, -20.71325], [-51.60334, -20.71283], [-51.60346, -20.71233], [-51.60318, -20.7118], [-51.60214, -20.71141], [-51.60214, -20.70976], [-51.60155, -20.70872], [-51.60186, -20.70788], [-51.60281, -20.70718], [-51.60295, -20.70617], [-51.60231, -20.70567], [-51.60144, -20.70464], [-51.59931, -20.70441], [-51.59803, -20.70271], [-51.59657, -20.70164], [-51.59576, -20.70066], [-51.5926, -20.69935], [-51.59117, -20.69642], [-51.59106, -20.6953], [-51.59022, -20.69393], [-51.5884, -20.69225], [-51.58729, -20.69068], [-51.58622, -20.68825], [-51.58597, -20.68635], [-51.5839, -20.68484], [-51.58312, -20.6832], [-51.58166, -20.6792], [-51.57682, -20.67019], [-51.57503, -20.66516], [-51.57512, -20.66365], [-51.57626, -20.66091], [-51.57531, -20.6582], [-51.574, -20.6566], [-51.57327, -20.65425], [-51.57193, -20.64724], [-51.57089, -20.63833], [-51.56924, -20.63512], [-51.56619, -20.63235], [-51.56423, -20.63179], [-51.56194, -20.63184], [-51.56015, -20.63271], [-51.55746, -20.63238], [-51.55564, -20.63333], [-51.55425, -20.63442], [-51.55357, -20.63442], [-51.5515, -20.63549], [-51.54974, -20.63661], [-51.5496, -20.63756], [-51.5491, -20.63795], [-51.54829, -20.63761], [-51.5475, -20.63677], [-51.54591, -20.63683], [-51.5435, -20.63781], [-51.54188, -20.63767], [-51.5402, -20.6384], [-51.53858, -20.63852], [-51.53738, -20.63933], [-51.53447, -20.64268], [-51.53349, -20.64338], [-51.53284, -20.64433], [-51.53145, -20.64498], [-51.53013, -20.6461], [-51.52854, -20.64675], [-51.5275, -20.64692], [-51.52607, -20.64789], [-51.5256, -20.6491], [-51.52358, -20.65058], [-51.5214, -20.65445], [-51.52079, -20.65484], [-51.51891, -20.65993], [-51.51785, -20.66046], [-51.51715, -20.66239], [-51.51707, -20.66372], [-51.51421, -20.66909], [-51.51091, -20.67139], [-51.50674, -20.6731], [-51.50288, -20.67419], [-51.50129, -20.67425], [-51.50036, -20.67523], [-51.49986, -20.67618], [-51.49922, -20.67595], [-51.49824, -20.67453], [-51.49642, -20.67369], [-51.49533, -20.674], [-51.49382, -20.67511], [-51.49116, -20.67651], [-51.48945, -20.67707], [-51.48626, -20.67724], [-51.48249, -20.6766], [-51.48036, -20.67693], [-51.47972, -20.67654], [-51.4758, -20.67573], [-51.47362, -20.67604], [-51.47093, -20.67581], [-51.46828, -20.67719], [-51.4666, -20.67746], [-51.45899, -20.67763], [-51.45709, -20.67791], [-51.45619, -20.67892], [-51.45502, -20.67965], [-51.45272, -20.67954], [-51.45205, -20.68015], [-51.45071, -20.68026], [-51.44953, -20.68009], [-51.4497, -20.67858], [-51.45149, -20.67696], [-51.45502, -20.67472], [-51.45597, -20.67355], [-51.45558, -20.67215], [-51.45401, -20.67125], [-51.45244, -20.67069], [-51.4506, -20.67064], [-51.44869, -20.67081], [-51.44532, -20.67037]]]}}, 
{"type": "Feature", "properties": {"CD_SETOR": "351100305000054", "CD_SIT": "9", "NM_DIST": "Castilho", "NM_SUBDIST": null}, "geometry": {"type": "Polygon", "coordinates": [[[-51.44547, -20.6691], [-51.44472, -20.66953], [-51.44296, -20.671], [-51.44146, -20.67279], [-51.43274, -20.67631], [-51.42506, -20.6786], [-51.4227, -20.67974], [-51.41936, -20.68108], [-51.42004, -20.68395], [-51.42267, -20.68355], [-51.42465, -20.68293], [-51.42654, -20.68267], [-51.42934, -20.68151], [-51.43083, -20.68032], [-51.43123, -20.67965], [-51.43135, -20.6787], [-51.43205, -20.67801], [-51.43484, -20.67784], [-51.43703, -20.67787], [-51.43783, -20.67805], [-51.43835, -20.67761], [-51.44128, -20.67688], [-51.44316, -20.67588], [-51.444, -20.67406], [-51.44373, -20.67335], [-51.44407, -20.67215], [-51.44403, -20.67146], [-51.44368, -20.67115], [-51.44419, -20.67064], [-51.44481, -20.67041], [-51.44555, -20.67036], [-51.44869, -20.67081], [-51.4506, -20.67064], [-51.45244, -20.67069], [-51.45401, -20.67125], [-51.45558, -20.67215], [-51.45597, -20.67355], [-51.45502, -20.67472], [-51.45149, -20.67696], [-51.4497, -20.67858], [-51.44953, -20.68009], [-51.45071, -20.68026], [-51.45205, -20.68015], [-51.45272, -20.67954], [-51.45502, -20.67965], [-51.45619, -20.67892], [-51.45709, -20.67791], [-51.45899, -20.67763], [-51.4666, -20.67746], [-51.46828, -20.67719], [-51.47093, -20.67581], [-51.47362, -20.67604], [-51.4758, -20.67573], [-51.47972, -20.67654], [-51.48036, -20.67693], [-51.48249, -20.6766], [-51.48626, -20.67724], [-51.48945, -20.67707], [-51.49116, -20.67651], [-51.49382, -20.67511], [-51.49533, -20.674], [-51.49642, -20.67369], [-51.49824, -20.67453], [-51.49922, -20.67595], [-51.49986, -20.67618], [-51.50036, -20.67523], [-51.50129, -20.67425], [-51.50288, -20.67419], [-51.50674, -20.6731], [-51.51091, -20.67139], [-51.51421, -20.66909], [-51.51707, -20.66372], [-51.51715, -20.66239], [-51.51785, -20.66046], [-51.51891, -20.65993], [-51.52079, -20.65484], [-51.5214, -20.65445], [-51.52358, -20.65058], [-51.5256, -20.6491], [-51.52607, -20.64789], [-51.5275, -20.64692], [-51.52854, -20.64675], [-51.53013, -20.6461], [-51.53145, -20.64498], [-51.53284, -20.64433], [-51.53349, -20.64338], [-51.53447, -20.64268], [-51.53738, -20.63933], [-51.53858, -20.63852], [-51.5402, -20.6384], [-51.54188, -20.63767], [-51.5435, -20.63781], [-51.54591, -20.63683], [-51.5475, -20.63677], [-51.54829, -20.63761], [-51.5491, -20.63795], [-51.5496, -20.63756], [-51.54974, -20.63661], [-51.5515, -20.63549], [-51.55357, -20.63442], [-51.55425, -20.63442], [-51.55564, -20.63333], [-51.55746, -20.63238], [-51.56015, -20.63271], [-51.56194, -20.63184], [-51.56423, -20.63179], [-51.56619, -20.63235], [-51.56924, -20.63512], [-51.57089, -20.63833], [-51.57193, -20.64724], [-51.57327, -20.65425], [-51.574, -20.6566], [-51.57531, -20.6582], [-51.57626, -20.66091], [-51.57512, -20.66365], [-51.57503, -20.66516], [-51.57682, -20.67019], [-51.58166, -20.6792], [-51.58312, -20.6832], [-51.5839, -20.68484], [-51.58597, -20.68635], [-51.58622, -20.68825], [-51.58729, -20.69068], [-51.5884, -20.69225], [-51.59022, -20.69393], [-51.59106, -20.6953], [-51.59117, -20.69642], [-51.5926, -20.69935], [-51.59576, -20.70066], [-51.59657, -20.70164], [-51.59803, -20.70271], [-51.59931, -20.70441], [-51.60144, -20.70464], [-51.60231, -20.70567], [-51.60295, -20.70617], [-51.60281, -20.70718], [-51.60186, -20.70788], [-51.60155, -20.70872], [-51.60214, -20.70976], [-51.60214, -20.71141], [-51.60318, -20.7118], [-51.60346, -20.71233], [-51.60334, -20.71283], [-51.60284, -20.71325], [-51.60309, -20.71373], [-51.60376, -20.71373], [-51.60427, -20.71432], [-51.60346, -20.71604], [-51.60234, -20.71741], [-51.6022, -20.71822], [-51.60281, -20.72015], [-51.60217, -20.72051], [-51.6018, -20.72219], [-51.6018, -20.72286], [-51.60206, -20.72376], [-51.60161, -20.72462], [-51.60025, -20.72607], [-51.60074, -20.7266], [-51.60089, -20.72717], [-51.60083, -20.72804], [-51.60044, -20.72933], [-51.60048, -20.73083], [-51.60066, -20.7316], [-51.60236, -20.73373], [-51.60253, -20.73443], [-51.60251, -20.73653], [-51.60282, -20.73674], [-51.60282, -20.73693], [-51.60248, -20.73725], [-51.60225, -20.73804], [-51.60246, -20.73938], [-51.60225, -20.73965], [-51.60236, -20.74047], [-51.60215, -20.7408], [-51.60237, -20.74192], [-51.60339, -20.74256], [-51.60337, -20.74353], [-51.60414, -20.74557], [-51.60352, -20.74914], [-51.60212, -20.75294], [-51.60183, -20.75522], [-51.60022, -20.75825], [-51.59961, -20.76101], [-51.59795, -20.76308], [-51.5972, -20.76363], [-51.59547, -20.76372], [-51.5948, -20.76337], [-51.59301, -20.7637], [-51.59228, -20.7635], [-51.59138, -20.76226], [-51.59066, -20.76168], [-51.58978, -20.7614], [-51.58949, -20.76154], [-51.5894, -20.76177], [-51.58962, -20.76226], [-51.58954, -20.7624], [-51.59034, -20.76301], [-51.59041, -20.76378], [-51.59087, -20.76398], [-51.59153, -20.7648], [-51.59268, -20.76518], [-51.59481, -20.76519], [-51.59641, -20.76575], [-51.59663, -20.76565], [-51.59652, -20.76519], [-51.59669, -20.76516], [-51.59866, -20.76631], [-51.59989, -20.7674], [-51.60181, -20.7705], [-51.60306, -20.77384], [-51.60335, -20.77523], [-51.60418, -20.77578], [-51.60388, -20.77591], [-51.60363, -20.77628], [-51.60369, -20.77672], [-51.61484, -20.77644], [-51.61776, -20.77577], [-51.62048, -20.7745], [-51.6211, -20.77562], [-51.6211, -20.77883], [-51.62032, -20.7811], [-51.62035, -20.7837], [-51.62107, -20.78546], [-51.62163, -20.78627], [-51.62345, -20.79307], [-51.623, -20.79504], [-51.6225, -20.79575], [-51.62261, -20.79792], [-51.62249, -20.80051], [-51.62289, -20.80262], [-51.62388, -20.806], [-51.62647, -20.81094], [-51.62861, -20.81777], [-51.62851, -20.8212], [-51.62865, -20.82205], [-51.62872, -20.83039], [-51.62779, -20.8375], [-51.62773, -20.84174], [-51.62723, -20.8493], [-51.62661, -20.85349], [-51.62533, -20.86026], [-51.62523, -20.86183], [-51.62358, -20.86837], [-51.62221, -20.87152], [-51.62012, -20.87508], [-51.61658, -20.87952], [-51.61444, -20.88345], [-51.61092, -20.89333], [-51.61113, -20.89519], [-51.61175, -20.89734], [-51.6129, -20.89906], [-51.6157, -20.90847], [-51.61667, -20.91241], [-51.61748, -20.91745], [-51.61811, -20.92503], [-51.61794, -20.93187], [-51.61961, -20.93551], [-51.62069, -20.9392], [-51.6209, -20.94042], [-51.62135, -20.94129], [-51.62179, -20.94284], [-51.62222, -20.94496], [-51.62251, -20.94524], [-51.62352, -20.94751], [-51.62512, -20.94984], [-51.6267, -20.95128], [-51.62854, -20.95223], [-51.63028, -20.9527], [-51.63217, -20.95273], [-51.63308, -20.95246], [-51.63458, -20.95235], [-51.63284, -20.95172], [-51.62817, -20.94903], [-51.62359, -20.94443], [-51.62093, -20.93937], [-51.619, -20.93259], [-51.61881, -20.9224], [-51.61801, -20.91323], [-51.61762, -20.91061], [-51.61368, -20.89632], [-51.61348, -20.89008], [-51.61401, -20.88794], [-51.61509, -20.88609], [-51.62257, -20.87837], [-51.62668, -20.8725], [-51.62845, -20.8687], [-51.6297, -20.86145], [-51.63018, -20.85414], [-51.63156, -20.84494], [-51.6318, -20.84119], [-51.63273, -20.8329], [-51.63298, -20.82156], [-51.63212, -20.81661], [-51.62775, -20.80381], [-51.62615, -20.79627], [-51.62689, -20.79066], [-51.62786, -20.78902], [-51.62748, -20.7847], [-51.6232, -20.77865], [-51.6224, -20.77687], [-51.62453, -20.7718], [-51.62726, -20.76873], [-51.63267, -20.76113], [-51.63357, -20.7593], [-51.6349, -20.75485], [-51.634, -20.74748], [-51.6315, -20.73684], [-51.6282, -20.72508], [-51.62429, -20.71252], [-51.62306, -20.7107], [-51.62241, -20.70905], [-51.62112, -20.70666], [-51.617, -20.69629], [-51.61147, -20.68562], [-51.61078, -20.68385], [-51.60827, -20.67552], [-51.60632, -20.67147], [-51.60559, -20.66892], [-51.60514, -20.66664], [-51.6033, -20.6617], [-51.59782, -20.65158], [-51.59415, -20.64385], [-51.58831, -20.63565], [-51.58374, -20.63074], [-51.58128, -20.62904], [-51.5775, -20.62517], [-51.57519, -20.62342], [-51.55639, -20.62866], [-51.54677, -20.6337], [-51.539, -20.63689], [-51.53589, -20.63732], [-51.53072, -20.63682], [-51.52901, -20.6373], [-51.52575, -20.63896], [-51.5229, -20.63977], [-51.52159, -20.64039], [-51.51984, -20.64228], [-51.5188, -20.64465], [-51.5177, -20.64664], [-51.51559, -20.64797], [-51.51294, -20.64925], [-51.51169, -20.6502], [-51.51104, -20.65139], [-51.51044, -20.6537], [-51.50964, -20.65541], [-51.50774, -20.65839], [-51.50615, -20.66028], [-51.49714, -20.66853], [-51.49438, -20.6701], [-51.48625, -20.67215], [-51.48068, -20.67217], [-51.47661, -20.67081], [-51.47354, -20.66945], [-51.46962, -20.66847], [-51.46686, -20.66871], [-51.45722, -20.66779], [-51.45109, -20.66771], [-51.44863, -20.66791], [-51.44672, -20.66839], [-51.44547, -20.6691]]]}}, 
{"type": "Feature", "properties": {"CD_SETOR": "351100305000055", "CD_SIT": "8", "NM_DIST": "Castilho", "NM_SUBDIST": null}, "geometry": {"type": "Polygon", "coordinates": [[[-51.5593, -21.04872], [-51.57519, -21.06141], [-51.58047, -21.06639], [-51.58114, -21.0671], [-51.58114, -21.06733], [-51.57998, -21.06834], [-51.57779, -21.07084], [-51.57711, -21.07123], [-51.5612, -21.0766], [-51.52728, -21.08855], [-51.52851, -21.08968], [-51.52885, -21.09026], [-51.52891, -21.09302], [-51.52903, -21.09381], [-51.52942, -21.09433], [-51.5312, -21.09532], [-51.53393, -21.09546], [-51.53482, -21.09536], [-51.53771, -21.09446], [-51.54096, -21.09372], [-51.54273, -21.09361], [-51.54952, -21.09239], [-51.55453, -21.09211], [-51.55886, -21.09168], [-51.55959, -21.09173], [-51.55998, -21.09193], [-51.56042, -21.09235], [-51.56188, -21.09449], [-51.5626, -21.09527], [-51.56333, -21.09563], [-51.57211, -21.09534], [-51.57267, -21.09508], [-51.57732, -21.08932], [-51.57765, -21.08905], [-51.57976, -21.08837], [-51.58154, -21.08821], [-51.58354, -21.08778], [-51.58555, -21.0883], [-51.58605, -21.08824], [-51.58777, -21.0875], [-51.58977, -21.08713], [-51.59127, -21.08718], [-51.59451, -21.08831], [-51.5954, -21.08884], [-51.60125, -21.09389], [-51.60428, -21.09711], [-51.60489, -21.09807], [-51.60568, -21.09964], [-51.60579, -21.10037], [-51.60526, -21.10554], [-51.60549, -21.1074], [-51.60594, -21.10819], [-51.60706, -21.10902], [-51.60755, -21.10917], [-51.60833, -21.10912], [-51.61022, -21.10838], [-51.61123, -21.10848], [-51.61232, -21.10922], [-51.61279, -21.10984], [-51.61413, -21.11239], [-51.61483, -21.11309], [-51.61598, -21.11364], [-51.61731, -21.11363], [-51.61909, -21.11404], [-51.6206, -21.11494], [-51.62204, -21.11653], [-51.62251, -21.11784], [-51.62251, -21.1191], [-51.62206, -21.1207], [-51.62102, -21.12286], [-51.61958, -21.12485], [-51.61931, -21.12585], [-51.61965, -21.12689], [-51.62525, -21.13439], [-51.62648, -21.13585], [-51.62949, -21.13881], [-51.63285, -21.14125], [-51.63536, -21.14234], [-51.63971, -21.1452], [-51.64189, -21.14702], [-51.6434, -21.14926], [-51.64425, -21.15218], [-51.6442, -21.15369], [-51.64128, -21.16201], [-51.64085, -21.16295], [-51.64, -21.1632], [-51.64058, -21.16372], [-51.64149, -21.16522], [-51.64188, -21.16555], [-51.64377, -21.16646], [-51.64481, -21.16672], [-51.64778, -21.16695], [-51.65104, -21.16762], [-51.65331, -21.16742], [-51.65436, -21.1676], [-51.65554, -21.16824], [-51.65678, -21.16936], [-51.65725, -21.16954], [-51.65876, -21.16955], [-51.65959, -21.16899], [-51.65991, -21.16834], [-51.66036, -21.16655], [-51.66085, -21.16613], [-51.66558, -21.16404], [-51.66738, -21.16233], [-51.66834, -21.16183], [-51.67173, -21.16092], [-51.67231, -21.1605], [-51.67231, -21.15956], [-51.67189, -21.1588], [-51.67122, -21.15849], [-51.66919, -21.15871], [-51.66816, -21.15845], [-51.66774, -21.15822], [-51.66749, -21.15775], [-51.66746, -21.15686], [-51.66782, -21.15624], [-51.6694, -21.15589], [-51.67073, -21.1545], [-51.6712, -21.15421], [-51.6719, -21.15398], [-51.67337, -21.15405], [-51.67406, -21.15381], [-51.6744, -21.15331], [-51.67423, -21.15261], [-51.67375, -21.15212], [-51.67314, -21.15207], [-51.6723, -21.1517], [-51.67142, -21.15073], [-51.67163, -21.1497], [-51.67215, -21.14917], [-51.6729, -21.14888], [-51.67396, -21.14911], [-51.67455, -21.14952], [-51.67519, -21.15063], [-51.67589, -21.15119], [-51.67678, -21.1514], [-51.67778, -21.15126], [-51.67845, -21.15077], [-51.67908, -21.14998], [-51.67989, -21.14948], [-51.68139, -21.14916], [-51.682, -21.14913], [-51.68456, -21.14975], [-51.68554, -21.1498], [-51.6862, -21.14925], [-51.68752, -21.14616], [-51.6881, -21.14582], [-51.69005, -21.1455], [-51.6906, -21.14469], [-51.69104, -21.14359], [-51.69063, -21.13947], [-51.69146, -21.13832], [-51.69182, -21.13748], [-51.69193, -21.13664], [-51.69039, -21.13522], [-51.69005, -21.13441], [-51.6905, -21.13357], [-51.69379, -21.13281], [-51.69489, -21.13186], [-51.69402, -21.1302], [-51.69253, -21.12936], [-51.6917, -21.12848], [-51.69119, -21.12738], [-51.69116, -21.12623], [-51.69149, -21.12553], [-51.69224, -21.12477], [-51.69284, -21.1238], [-51.69281, -21.12304], [-51.69192, -21.12226], [-51.6907, -21.12246], [-51.68991, -21.12291], [-51.68862, -21.12323], [-51.68792, -21.12253], [-51.68815, -21.12198], [-51.68985, -21.12094], [-51.69061, -21.12032], [-51.69131, -21.11945], [-51.69132, -21.11852], [-51.69075, -21.11703], [-51.69076, -21.11609], [-51.69154, -21.1154], [-51.69309, -21.11477], [-51.6964, -21.112], [-51.69731, -21.11098], [-51.69865, -21.11014], [-51.70008, -21.10961], [-51.7008, -21.10886], [-51.70145, -21.10782], [-51.70151, -21.10618], [-51.70068, -21.10524], [-51.69861, -21.10457], [-51.69785, -21.10356], [-51.69793, -21.10234], [-51.69857, -21.10154], [-51.69869, -21.10081], [-51.6976, -21.09824], [-51.69663, -21.09742], [-51.69446, -21.09631], [-51.69461, -21.09581], [-51.69519, -21.09545], [-51.69675, -21.09603], [-51.69735, -21.09595], [-51.69785, -21.09541], [-51.69802, -21.09431], [-51.69788, -21.09306], [-51.69798, -21.0917], [-51.69879, -21.08925], [-51.6995, -21.0882], [-51.70015, -21.08814], [-51.70067, -21.08839], [-51.70095, -21.09018], [-51.70134, -21.09075], [-51.70196, -21.09098], [-51.70253, -21.09056], [-51.70273, -21.08996], [-51.70284, -21.08768], [-51.70329, -21.08727], [-51.70397, -21.08723], [-51.70457, -21.08781], [-51.70508, -21.08913], [-51.70607, -21.08936], [-51.70785, -21.08829], [-51.70843, -21.08754], [-51.70822, -21.08712], [-51.70686, -21.08673], [-51.70643, -21.0863], [-51.70626, -21.08563], [-51.70684, -21.08354], [-51.7075, -21.08315], [-51.70823, -21.0832], [-51.70941, -21.08444], [-51.71024, -21.08464], [-51.71167, -21.08417], [-51.71293, -21.084], [-51.71371, -21.0833], [-51.71384, -21.08186], [-51.71364, -21.08073], [-51.71269, -21.07992], [-51.71214, -21.07981], [-51.71148, -21.08002], [-51.71104, -21.07986], [-51.71111, -21.07951], [-51.71158, -21.07922], [-51.71428, -21.07922], [-51.71471, -21.07895], [-51.71473, -21.07828], [-51.71427, -21.07733], [-51.71463, -21.0769], [-51.71674, -21.07589], [-51.718, -21.07588], [-51.71847, -21.07571], [-51.71843, -21.07516], [-51.71795, -21.07435], [-51.71738, -21.0737], [-51.71687, -21.07348], [-51.71679, -21.07302], [-51.71707, -21.0726], [-51.71816, -21.07165], [-51.71906, -21.06989], [-51.71946, -21.06962], [-51.72015, -21.06956], [-51.7207, -21.06983], [-51.72092, -21.07051], [-51.72067, -21.07126], [-51.72093, -21.07184], [-51.72121, -21.07212], [-51.72222, -21.07222], [-51.72418, -21.07114], [-51.72497, -21.07032], [-51.72542, -21.06886], [-51.72582, -21.06875], [-51.72621, -21.069], [-51.72639, -21.06946], [-51.7262, -21.07037], [-51.7273, -21.0719], [-51.72782, -21.07379], [-51.72815, -21.07409], [-51.72861, -21.07414], [-51.72913, -21.07395], [-51.72953, -21.07314], [-51.72932, -21.07194], [-51.72996, -21.07031], [-51.73054, -21.06989], [-51.73148, -21.06951], [-51.73314, -21.07034], [-51.73423, -21.07147], [-51.73494, -21.07169], [-51.73669, -21.07169], [-51.73689, -21.0722], [-51.73634, -21.07349], [-51.73654, -21.07394], [-51.73751, -21.07434], [-51.73795, -21.07404], [-51.73831, -21.07325], [-51.73833, -21.07141], [-51.73871, -21.07091], [-51.73926, -21.07078], [-51.74132, -21.07127], [-51.74144, -21.07083], [-51.74129, -21.07031], [-51.74008, -21.06978], [-51.73988, -21.06925], [-51.74089, -21.06881], [-51.742, -21.06854], [-51.74342, -21.06918], [-51.7437, -21.06797], [-51.74407, -21.06759], [-51.74458, -21.0676], [-51.74488, -21.06803], [-51.74462, -21.06908], [-51.74498, -21.06981], [-51.74583, -21.07035], [-51.74636, -21.07045], [-51.74703, -21.07048], [-51.74768, -21.07021], [-51.74796, -21.06949], [-51.74777, -21.06872], [-51.74724, -21.06799], [-51.74594, -21.0671], [-51.74569, -21.06648], [-51.74616, -21.06591], [-51.74669, -21.06576], [-51.7483, -21.06642], [-51.74903, -21.0664], [-51.75143, -21.0644], [-51.75238, -21.06416], [-51.75313, -21.0642], [-51.75371, -21.06353], [-51.75323, -21.06285], [-51.7522, -21.0626], [-51.75156, -21.06194], [-51.75161, -21.06119], [-51.75217, -21.06082], [-51.75306, -21.06076], [-51.75381, -21.06099], [-51.75459, -21.06188], [-51.75529, -21.06347], [-51.75515, -21.0651], [-51.75532, -21.06558], [-51.75567, -21.06592], [-51.75636, -21.06609], [-51.757, -21.06595], [-51.75925, -21.06431], [-51.7603, -21.0641], [-51.76186, -21.06427], [-51.7625, -21.06367], [-51.76222, -21.06242], [-51.76227, -21.06156], [-51.7617, -21.0595], [-51.76121, -21.05845], [-51.76083, -21.05812], [-51.76071, -21.05718], [-51.76082, -21.0564], [-51.76118, -21.0555], [-51.7622, -21.05495], [-51.76342, -21.05464], [-51.7644, -21.05468], [-51.76512, -21.05518], [-51.76554, -21.05593], [-51.76533, -21.0569], [-51.76425, -21.05803], [-51.76382, -21.0592], [-51.76401, -21.05983], [-51.76459, -21.06006], [-51.76542, -21.05972], [-51.76717, -21.05814], [-51.76773, -21.05692], [-51.76758, -21.05562], [-51.76678, -21.05355], [-51.76597, -21.05196], [-51.76599, -21.05136], [-51.76691, -21.05076], [-51.76729, -21.05016], [-51.76566, -21.05082], [-51.76534, -21.05067], [-51.76383, -21.04407], [-51.76234, -21.04507], [-51.75978, -21.0344], [-51.76044, -21.03418], [-51.75983, -21.03313], [-51.75643, -21.02871], [-51.75221, -21.02209], [-51.74831, -21.01657], [-51.74086, -21.01038], [-51.7379, -21.00656], [-51.73383, -21.0001], [-51.72854, -20.99113], [-51.72608, -20.98797], [-51.72359, -20.98414], [-51.71874, -20.97887], [-51.71536, -20.97574], [-51.71412, -20.97498], [-51.70556, -20.97081], [-51.7049, -20.97061], [-51.70495, -20.97045], [-51.70363, -20.9725], [-51.68881, -20.97411], [-51.68893, -20.97194], [-51.68562, -20.97302], [-51.67873, -20.97294], [-51.66669, -20.97079], [-51.65965, -20.9685], [-51.65994, -20.97473], [-51.66234, -20.98216], [-51.6625, -20.98344], [-51.66146, -20.98458], [-51.66126, -20.98522], [-51.66141, -20.98682], [-51.66109, -20.988], [-51.65979, -20.99005], [-51.6591, -20.99242], [-51.66007, -20.99394], [-51.65955, -20.99577], [-51.66008, -20.99834], [-51.65874, -20.99887], [-51.65822, -21.00036], [-51.65745, -21.00089], [-51.65729, -21.00206], [-51.65745, -21.00251], [-51.65701, -21.00262], [-51.65691, -21.00327], [-51.65699, -21.00494], [-51.65621, -21.00629], [-51.6554, -21.00673], [-51.65439, -21.00655], [-51.65259, -21.00695], [-51.65144, -21.00679], [-51.64806, -21.00795], [-51.6466, -21.0077], [-51.64624, -21.00796], [-51.64545, -21.00773], [-51.64459, -21.00682], [-51.6431, -21.00722], [-51.64156, -21.00663], [-51.64097, -21.00605], [-51.63973, -21.00608], [-51.63931, -21.00587], [-51.63752, -21.00572], [-51.63626, -21.00676], [-51.63544, -21.007], [-51.63505, -21.00743], [-51.6346, -21.00741], [-51.6346, -21.00772], [-51.63438, -21.00788], [-51.63418, -21.00777], [-51.63392, -21.00794], [-51.63377, -21.00772], [-51.63319, -21.00755], [-51.63301, -21.00789], [-51.63249, -21.00777], [-51.63226, -21.00799], [-51.63176, -21.00726], [-51.63138, -21.00773], [-51.63118, -21.00764], [-51.63048, -21.00794], [-51.62862, -21.00765], [-51.62845, -21.00804], [-51.62813, -21.00819], [-51.62786, -21.00904], [-51.62725, -21.00918], [-51.62712, -21.00952], [-51.62664, -21.00948], [-51.62674, -21.00986], [-51.62653, -21.00999], [-51.62501, -21.01054], [-51.62452, -21.01144], [-51.62324, -21.01206], [-51.62219, -21.01305], [-51.62152, -21.01339], [-51.6207, -21.01625], [-51.62109, -21.01736], [-51.62007, -21.01967], [-51.61957, -21.02276], [-51.61885, -21.02403], [-51.61904, -21.02472], [-51.61891, -21.02514], [-51.61778, -21.02644], [-51.61614, -21.03016], [-51.61535, -21.03058], [-51.61418, -21.03225], [-51.61326, -21.03281], [-51.61152, -21.03482], [-51.61024, -21.03554], [-51.61001, -21.03613], [-51.60909, -21.03702], [-51.60853, -21.03725], [-51.60773, -21.03709], [-51.60522, -21.0357], [-51.60424, -21.03421], [-51.60245, -21.03371], [-51.60136, -21.03447], [-51.59928, -21.03424], [-51.59652, -21.03545], [-51.59525, -21.03562], [-51.59465, -21.03554], [-51.5926, -21.03416], [-51.59197, -21.03403], [-51.59043, -21.03423], [-51.58561, -21.03328], [-51.58354, -21.03357], [-51.58214, -21.03304], [-51.58041, -21.0328], [-51.57911, -21.03298], [-51.5781, -21.03226], [-51.57664, -21.03232], [-51.57513, -21.03322], [-51.57412, -21.03336], [-51.57323, -21.03422], [-51.57133, -21.03501], [-51.5679, -21.03761], [-51.56369, -21.04255], [-51.56203, -21.04307], [-51.56016, -21.04591], [-51.55958, -21.04837], [-51.5593, -21.04872]]]}}, 
{"type": "Feature", "properties": {"CD_SETOR": "351100305000056", "CD_SIT": "9", "NM_DIST": "Castilho", "NM_SUBDIST": null}, "geometry": {"type": "Polygon", "coordinates": [[[-51.70495, -20.97045], [-51.7049, -20.97061], [-51.70556, -20.97081], [-51.71412, -20.97498], [-51.71536, -20.97574], [-51.71874, -20.97887], [-51.72359, -20.98414], [-51.72608, -20.98797], [-51.72854, -20.99113], [-51.73383, -21.0001], [-51.7379, -21.00656], [-51.74086, -21.01038], [-51.74831, -21.01657], [-51.75221, -21.02209], [-51.75643, -21.02871], [-51.75983, -21.03313], [-51.76259, -21.03734], [-51.76369, -21.03909], [-51.76462, -21.0414], [-51.76546, -21.04426], [-51.76689, -21.0482], [-51.76737, -21.04991], [-51.76737, -21.05014], [-51.76691, -21.05076], [-51.77248, -21.05112], [-51.77202, -21.04753], [-51.77198, -21.04593], [-51.77126, -21.04266], [-51.76848, -21.03652], [-51.76438, -21.02961], [-51.76057, -21.02416], [-51.75965, -21.0222], [-51.75535, -21.01709], [-51.7524, -21.01326], [-51.74886, -21.01134], [-51.74688, -21.00907], [-51.74388, -21.00529], [-51.74242, -21.00143], [-51.73792, -20.99525], [-51.73161, -20.98793], [-51.72842, -20.98354], [-51.72223, -20.97677], [-51.71823, -20.97411], [-51.7137, -20.97146], [-51.70568, -20.97036], [-51.70495, -20.97045]]]}}, 
{"type": "Feature", "properties": {"CD_SETOR": "351100305000057", "CD_SIT": "8", "NM_DIST": "Castilho", "NM_SUBDIST": null}, "geometry": {"type": "Polygon", "coordinates": [[[-51.48278, -20.84039], [-51.48383, -20.843], [-51.48438, -20.84516], [-51.48541, -20.85291], [-51.4859, -20.85878], [-51.48612, -20.85925], [-51.49349, -20.85851], [-51.49336, -20.85684], [-51.49684, -20.85651], [-51.49681, -20.85592], [-51.49729, -20.85596], [-51.49716, -20.85499], [-51.493, -20.85538], [-51.49253, -20.85299], [-51.49261, -20.85035], [-51.49293, -20.85035], [-51.49258, -20.84444], [-51.49179, -20.83706], [-51.48278, -20.84039]]]}}, 
{"type": "Feature", "properties": {"CD_SETOR": "351100305000058", "CD_SIT": "1", "NM_DIST": "Castilho", "NM_SUBDIST": null}, "geometry": {"type": "Polygon", "coordinates": [[[-51.49349, -20.85851], [-51.49409, -20.85855], [-51.4941, -20.8584], [-51.49496, -20.85825], [-51.49764, -20.85798], [-51.49728, -20.85593], [-51.49681, -20.85592], [-51.49684, -20.85651], [-51.49336, -20.85684], [-51.49349, -20.85851]]]}}, 
{"type": "Feature", "properties": {"CD_SETOR": "351100305000059", "CD_SIT": "2", "NM_DIST": "Castilho", "NM_SUBDIST": null}, "geometry": {"type": "Polygon", "coordinates": [[[-51.49565, -20.87093], [-51.49629, -20.87639], [-51.49685, -20.87697], [-51.50041, -20.87936], [-51.49955, -20.86739], [-51.49831, -20.86812], [-51.49741, -20.86887], [-51.49565, -20.87093]]]}}, 
{"type": "Feature", "properties": {"CD_SETOR": "351100305000060", "CD_SIT": "2", "NM_DIST": "Castilho", "NM_SUBDIST": null}, "geometry": {"type": "Polygon", "coordinates": [[[-51.49644, -20.87937], [-51.49682, -20.8823], [-51.50055, -20.88202], [-51.50041, -20.87936], [-51.49662, -20.87679], [-51.49618, -20.87612], [-51.49644, -20.87937]]]}}, 
{"type": "Feature", "properties": {"CD_SETOR": "351100305000061", "CD_SIT": "1", "NM_DIST": "Castilho", "NM_SUBDIST": null}, "geometry": {"type": "Polygon", "coordinates": [[[-51.49764, -20.85798], [-51.49496, -20.85825], [-51.49404, -20.85849], [-51.4945, -20.8588], [-51.49481, -20.86248], [-51.49908, -20.86208], [-51.49866, -20.85785], [-51.49764, -20.85798]]]}}, 
{"type": "Feature", "properties": {"CD_SETOR": "351100305000062", "CD_SIT": "2", "NM_DIST": "Castilho", "NM_SUBDIST": null}, "geometry": {"type": "Polygon", "coordinates": [[[-51.49481, -20.86248], [-51.49488, -20.86332], [-51.49565, -20.87093], [-51.49741, -20.86887], [-51.49831, -20.86812], [-51.49955, -20.86739], [-51.49908, -20.86208], [-51.49481, -20.86248]]]}}, 
{"type": "Feature", "properties": {"CD_SETOR": "351100305000064", "CD_SIT": "2", "NM_DIST": "Castilho", "NM_SUBDIST": null}, "geometry": {"type": "Polygon", "coordinates": [[[-51.48145, -20.85536], [-51.48205, -20.86078], [-51.48333, -20.86183], [-51.48383, -20.86274], [-51.48393, -20.86367], [-51.48356, -20.86552], [-51.48705, -20.8652], [-51.48658, -20.86362], [-51.48557, -20.85546], [-51.48436, -20.85555], [-51.48432, -20.85519], [-51.48145, -20.85536]]]}}, 
{"type": "Feature", "properties": {"CD_SETOR": "351100305000065", "CD_SIT": "3", "NM_DIST": "Castilho", "NM_SUBDIST": null}, "geometry": {"type": "Polygon", "coordinates": [[[-51.60208, -20.75339], [-51.60232, -20.7522], [-51.59613, -20.75195], [-51.59608, -20.75311], [-51.60208, -20.75339]]]}}, 
{"type": "Feature", "properties": {"CD_SETOR": "351100305000066", "CD_SIT": "3", "NM_DIST": "Castilho", "NM_SUBDIST": null}, "geometry": {"type": "Polygon", "coordinates": [[[-51.60414, -20.74557], [-51.60378, -20.74452], [-51.59648, -20.74429], [-51.59647, -20.74535], [-51.60414, -20.74557]]]}}, 
{"type": "Feature", "properties": {"CD_SETOR": "351100305000067", "CD_SIT": "8", "NM_DIST": "Castilho", "NM_SUBDIST": null}, "geometry": {"type": "Polygon", "coordinates": [[[-51.54974, -20.90194], [-51.5507, -20.89833], [-51.55034, -20.89807], [-51.55049, -20.8965], [-51.55072, -20.89584], [-51.55061, -20.89421], [-51.55196, -20.89409], [-51.55223, -20.89369], [-51.55486, -20.89176], [-51.56212, -20.86976], [-51.56311, -20.86868], [-51.564, -20.86722], [-51.56428, -20.86642], [-51.56422, -20.8655], [-51.56444, -20.86471], [-51.56482, -20.86372], [-51.56598, -20.86168], [-51.56629, -20.85945], [-51.56753, -20.85703], [-51.5689, -20.85385], [-51.56985, -20.85086], [-51.57179, -20.84758], [-51.57183, -20.84682], [-51.57218, -20.84618], [-51.57297, -20.84548], [-51.57357, -20.84451], [-51.57507, -20.84348], [-51.57682, -20.84268], [-51.57993, -20.84052], [-51.5829, -20.83973], [-51.58604, -20.83993], [-51.58731, -20.83976], [-51.59035, -20.83823], [-51.59392, -20.83688], [-51.59552, -20.8356], [-51.59706, -20.83364], [-51.59748, -20.83247], [-51.59913, -20.83037], [-51.6, -20.82895], [-51.60045, -20.8275], [-51.60044, -20.82504], [-51.60062, -20.82391], [-51.60038, -20.82326], [-51.60028, -20.82136], [-51.60074, -20.82042], [-51.60187, -20.81862], [-51.60393, -20.8166], [-51.60584, -20.81417], [-51.60703, -20.81297], [-51.60811, -20.81232], [-51.6089, -20.81136], [-51.60936, -20.81011], [-51.61167, -20.80617], [-51.61193, -20.80531], [-51.61205, -20.80377], [-51.61345, -20.80036], [-51.61333, -20.79933], [-51.61397, -20.79793], [-51.61498, -20.79656], [-51.61658, -20.79493], [-51.61683, -20.79424], [-51.6184, -20.7927], [-51.61996, -20.79243], [-51.62213, -20.79122], [-51.61742, -20.79176], [-51.616, -20.79228], [-51.60314, -20.80136], [-51.60147, -20.80282], [-51.59859, -20.80644], [-51.59619, -20.80775], [-51.59528, -20.80855], [-51.595, -20.80902], [-51.59351, -20.81354], [-51.59315, -20.81405], [-51.59237, -20.81466], [-51.59165, -20.81495], [-51.59054, -20.81513], [-51.58765, -20.81473], [-51.58628, -20.81526], [-51.5854, -20.81637], [-51.58516, -20.81715], [-51.58517, -20.81812], [-51.5856, -20.81901], [-51.58686, -20.82022], [-51.58733, -20.82091], [-51.58756, -20.8218], [-51.58751, -20.82252], [-51.58699, -20.82362], [-51.58304, -20.82723], [-51.58163, -20.82774], [-51.58031, -20.82755], [-51.57961, -20.82719], [-51.57739, -20.82532], [-51.57614, -20.82494], [-51.57484, -20.82503], [-51.57249, -20.82587], [-51.57151, -20.82584], [-51.57046, -20.82541], [-51.56838, -20.82346], [-51.5676, -20.82294], [-51.56611, -20.82265], [-51.56484, -20.823], [-51.56389, -20.82386], [-51.56348, -20.82467], [-51.56341, -20.82517], [-51.56348, -20.82607], [-51.5642, -20.8277], [-51.56429, -20.82877], [-51.56411, -20.82948], [-51.56247, -20.83192], [-51.56129, -20.83337], [-51.56049, -20.83383], [-51.55959, -20.83401], [-51.55384, -20.83425], [-51.55286, -20.83445], [-51.54162, -20.84335], [-51.53942, -20.84531], [-51.54467, -20.886], [-51.5466, -20.89921], [-51.54752, -20.90407], [-51.54771, -20.90342], [-51.54813, -20.90278], [-51.54877, -20.90227], [-51.54974, -20.90194]]]}}, 
{"type": "Feature", "properties": {"CD_SETOR": "351100305000068", "CD_SIT": "8", "NM_DIST": "Castilho", "NM_SUBDIST": null}, "geometry": {"type": "Polygon", "coordinates": [[[-51.62213, -20.79122], [-51.61996, -20.79243], [-51.6184, -20.7927], [-51.61683, -20.79424], [-51.61658, -20.79493], [-51.61498, -20.79656], [-51.61397, -20.79793], [-51.61333, -20.79933], [-51.61345, -20.80036], [-51.61205, -20.80377], [-51.61193, -20.80531], [-51.61167, -20.80617], [-51.60936, -20.81011], [-51.6089, -20.81136], [-51.60811, -20.81232], [-51.60703, -20.81297], [-51.60584, -20.81417], [-51.60393, -20.8166], [-51.60187, -20.81862], [-51.60074, -20.82042], [-51.60028, -20.82136], [-51.60038, -20.82326], [-51.60062, -20.82391], [-51.60044, -20.82504], [-51.60045, -20.8275], [-51.6, -20.82895], [-51.59913, -20.83037], [-51.59748, -20.83247], [-51.59706, -20.83364], [-51.59552, -20.8356], [-51.59392, -20.83688], [-51.59035, -20.83823], [-51.58731, -20.83976], [-51.58604, -20.83993], [-51.5829, -20.83973], [-51.57993, -20.84052], [-51.57682, -20.84268], [-51.57507, -20.84348], [-51.57357, -20.84451], [-51.57297, -20.84548], [-51.57218, -20.84618], [-51.57183, -20.84682], [-51.57179, -20.84758], [-51.56985, -20.85086], [-51.5689, -20.85385], [-51.56753, -20.85703], [-51.56629, -20.85945], [-51.56598, -20.86168], [-51.56482, -20.86372], [-51.56444, -20.86471], [-51.56422, -20.8655], [-51.56428, -20.86642], [-51.564, -20.86722], [-51.56311, -20.86868], [-51.56212, -20.86976], [-51.55486, -20.89176], [-51.55223, -20.89369], [-51.55196, -20.89409], [-51.55061, -20.89421], [-51.55072, -20.89584], [-51.55049, -20.8965], [-51.55034, -20.89807], [-51.5507, -20.89833], [-51.54974, -20.90194], [-51.58438, -20.897], [-51.58574, -20.89697], [-51.58862, -20.89768], [-51.58949, -20.89762], [-51.60944, -20.89468], [-51.60934, -20.89352], [-51.60955, -20.89139], [-51.61015, -20.88906], [-51.61085, -20.88693], [-51.61249, -20.88313], [-51.61444, -20.88345], [-51.61658, -20.87952], [-51.62012, -20.87508], [-51.62221, -20.87152], [-51.62358, -20.86837], [-51.62523, -20.86183], [-51.62533, -20.86026], [-51.62713, -20.85035], [-51.62773, -20.84174], [-51.62779, -20.8375], [-51.62872, -20.83039], [-51.62865, -20.82205], [-51.62851, -20.8212], [-51.62861, -20.81777], [-51.62647, -20.81094], [-51.62388, -20.806], [-51.62289, -20.80262], [-51.62249, -20.80051], [-51.62261, -20.79792], [-51.6225, -20.79575], [-51.623, -20.79504], [-51.62345, -20.79307], [-51.62295, -20.79114], [-51.62213, -20.79122]]]}}, 
{"type": "Feature", "properties": {"CD_SETOR": "351100305000069", "CD_SIT": "8", "NM_DIST": "Castilho", "NM_SUBDIST": null}, "geometry": {"type": "Polygon", "coordinates": [[[-51.49375, -20.87967], [-51.49395, -20.88267], [-51.49201, -20.8829], [-51.49186, -20.87986], [-51.4835, -20.88064], [-51.48283, -20.87545], [-51.4827, -20.87361], [-51.48291, -20.87353], [-51.48227, -20.87256], [-51.48213, -20.8715], [-51.48381, -20.8644], [-51.48393, -20.86367], [-51.48383, -20.86274], [-51.48361, -20.86221], [-51.48284, -20.86136], [-51.47725, -20.85735], [-51.47613, -20.85716], [-51.4753, -20.85725], [-51.47449, -20.85758], [-51.4736, -20.85844], [-51.4732, -20.85954], [-51.47331, -20.86294], [-51.47285, -20.86459], [-51.47158, -20.86605], [-51.47024, -20.86672], [-51.46835, -20.86694], [-51.46637, -20.86628], [-51.46228, -20.8631], [-51.46121, -20.86261], [-51.46045, -20.86247], [-51.45968, -20.86255], [-51.45858, -20.86306], [-51.45692, -20.86526], [-51.4558, -20.86592], [-51.45512, -20.8661], [-51.45434, -20.86605], [-51.45189, -20.86519], [-51.45221, -20.87191], [-51.45171, -20.87292], [-51.4514, -20.87412], [-51.45185, -20.87704], [-51.45136, -20.8789], [-51.45122, -20.88142], [-51.45181, -20.88378], [-51.4525, -20.88531], [-51.45321, -20.88857], [-51.45308, -20.88909], [-51.45282, -20.88926], [-51.4518, -20.89082], [-51.45171, -20.89125], [-51.45307, -20.89252], [-51.45642, -20.89648], [-51.45685, -20.89666], [-51.4585, -20.89675], [-51.45878, -20.89702], [-51.45941, -20.89837], [-51.45963, -20.90221], [-51.45971, -20.90271], [-51.46004, -20.90329], [-51.46107, -20.90387], [-51.46355, -20.90448], [-51.46467, -20.905], [-51.46541, -20.90508], [-51.4662, -20.90667], [-51.4679, -20.90867], [-51.46815, -20.90947], [-51.46822, -20.91246], [-51.46796, -20.91349], [-51.46714, -20.91448], [-51.4674, -20.91542], [-51.46724, -20.91611], [-51.46724, -20.91867], [-51.46701, -20.91954], [-51.46696, -20.92058], [-51.46689, -20.9209], [-51.46541, -20.92305], [-51.46528, -20.92384], [-51.46635, -20.9254], [-51.4665, -20.92589], [-51.46647, -20.92828], [-51.46741, -20.9305], [-51.46818, -20.93147], [-51.46876, -20.93435], [-51.46862, -20.9359], [-51.46834, -20.93698], [-51.46837, -20.93782], [-51.46884, -20.93961], [-51.47016, -20.94168], [-51.47053, -20.94312], [-51.47115, -20.94443], [-51.47153, -20.94656], [-51.47199, -20.94808], [-51.47227, -20.95088], [-51.47265, -20.95199], [-51.47431, -20.95497], [-51.47482, -20.95554], [-51.47603, -20.95608], [-51.47678, -20.95616], [-51.47714, -20.95596], [-51.47985, -20.95551], [-51.48154, -20.95463], [-51.48414, -20.95282], [-51.48557, -20.95255], [-51.486, -20.95196], [-51.48676, -20.95188], [-51.48771, -20.95127], [-51.49042, -20.9502], [-51.49365, -20.94956], [-51.49469, -20.94908], [-51.49565, -20.94841], [-51.49802, -20.94773], [-51.49963, -20.94822], [-51.50032, -20.94795], [-51.50139, -20.94674], [-51.50239, -20.9465], [-51.50474, -20.94519], [-51.50515, -20.9445], [-51.50517, -20.94231], [-51.50535, -20.94179], [-51.50655, -20.93932], [-51.5076, -20.93836], [-51.50879, -20.93798], [-51.51343, -20.93782], [-51.51368, -20.93743], [-51.51451, -20.93698], [-51.51531, -20.93693], [-51.51723, -20.93612], [-51.51766, -20.93613], [-51.51926, -20.93416], [-51.52041, -20.93338], [-51.5214, -20.93296], [-51.52301, -20.93109], [-51.52387, -20.9306], [-51.52528, -20.93076], [-51.52654, -20.93248], [-51.52794, -20.93309], [-51.52886, -20.93384], [-51.53, -20.93374], [-51.53123, -20.93406], [-51.53276, -20.93415], [-51.53385, -20.93392], [-51.53522, -20.93408], [-51.5358, -20.9334], [-51.53643, -20.93216], [-51.53697, -20.93208], [-51.5385, -20.9343], [-51.53872, -20.93539], [-51.53911, -20.93576], [-51.53945, -20.93644], [-51.5405, -20.93692], [-51.54063, -20.9375], [-51.5413, -20.93797], [-51.5416, -20.93779], [-51.54175, -20.9373], [-51.54247, -20.93642], [-51.54399, -20.93585], [-51.54199, -20.90994], [-51.54186, -20.90866], [-51.54164, -20.90809], [-51.52921, -20.8992], [-51.50041, -20.87936], [-51.50055, -20.88202], [-51.49682, -20.8823], [-51.49644, -20.87937], [-51.49375, -20.87967]]]}}, 
{"type": "Feature", "properties": {"CD_SETOR": "351100305000070", "CD_SIT": "1", "NM_DIST": "Castilho", "NM_SUBDIST": null}, "geometry": {"type": "Polygon", "coordinates": [[[-51.49186, -20.87986], [-51.49201, -20.8829], [-51.49395, -20.88267], [-51.49375, -20.87967], [-51.49186, -20.87986]]]}}]}