{"type": "FeatureCollection", "features": [
{"type": "Feature", "properties": {"CD_SETOR": "351200105000004", "CD_SIT": "1", "NM_DIST": "Colina", "NM_SUBDIST": null}, "geometry": {"type": "Polygon", "coordinates": [[[-48.52274, -20.71314], [-48.52418, -20.72053], [-48.5247, -20.72013], [-48.52526, -20.72012], [-48.5256, -20.71994], [-48.5266, -20.71918], [-48.52832, -20.72228], [-48.53022, -20.72129], [-48.52995, -20.72078], [-48.53175, -20.71988], [-48.53043, -20.7161], [-48.53046, -20.71547], [-48.53118, -20.71361], [-48.52867, -20.71272], [-48.5283, -20.71238], [-48.52821, -20.7119], [-48.52689, -20.71189], [-48.52686, -20.71301], [-48.52274, -20.71314]]]}}, 
{"type": "Feature", "properties": {"CD_SETOR": "351200105000006", "CD_SIT": "1", "NM_DIST": "Colina", "NM_SUBDIST": null}, "geometry": {"type": "Polygon", "coordinates": [[[-48.53116, -20.72294], [-48.52992, -20.72354], [-48.53108, -20.72402], [-48.53066, -20.72492], [-48.53229, -20.72557], [-48.53407, -20.72153], [-48.53116, -20.72294]]]}}, 
{"type": "Feature", "properties": {"CD_SETOR": "351200105000007", "CD_SIT": "1", "NM_DIST": "Colina", "NM_SUBDIST": null}, "geometry": {"type": "Polygon", "coordinates": [[[-48.53229, -20.72557], [-48.53524, -20.72678], [-48.53749, -20.72565], [-48.53773, -20.72511], [-48.53517, -20.72407], [-48.53552, -20.72327], [-48.53365, -20.72254], [-48.53229, -20.72557]]]}}, 
{"type": "Feature", "properties": {"CD_SETOR": "351200105000011", "CD_SIT": "1", "NM_DIST": "Colina", "NM_SUBDIST": null}, "geometry": {"type": "Polygon", "coordinates": [[[-48.54314, -20.70521], [-48.54114, -20.71275], [-48.54296, -20.71468], [-48.54322, -20.71523], [-48.54329, -20.71591], [-48.54097, -20.72128], [-48.54243, -20.72187], [-48.54302, -20.72053], [-48.54524, -20.72141], [-48.5457, -20.72178], [-48.54814, -20.72483], [-48.55133, -20.72247], [-48.54588, -20.71687], [-48.54809, -20.71419], [-48.55071, -20.70538], [-48.54356, -20.70352], [-48.54314, -20.70521]]]}}, 
{"type": "Feature", "properties": {"CD_SETOR": "351200105000014", "CD_SIT": "1", "NM_DIST": "Colina", "NM_SUBDIST": null}, "geometry": {"type": "Polygon", "coordinates": [[[-48.52154, -20.71318], [-48.52686, -20.71301], [-48.52689, -20.71189], [-48.52821, -20.7119], [-48.53001, -20.70709], [-48.52685, -20.70601], [-48.52629, -20.70758], [-48.52132, -20.70579], [-48.52034, -20.7132], [-48.52154, -20.71318]]]}}, 
{"type": "Feature", "properties": {"CD_SETOR": "351200105000015", "CD_SIT": "8", "NM_DIST": "Colina", "NM_SUBDIST": null}, "geometry": {"type": "Polygon", "coordinates": [[[-48.55071, -20.70538], [-48.54809, -20.71419], [-48.54588, -20.71687], [-48.56327, -20.7346], [-48.56365, -20.73491], [-48.56793, -20.7362], [-48.56674, -20.73756], [-48.56601, -20.7381], [-48.56359, -20.73858], [-48.56037, -20.73891], [-48.56273, -20.7407], [-48.56807, -20.74578], [-48.57667, -20.74965], [-48.59311, -20.75625], [-48.60527, -20.76032], [-48.60622, -20.76075], [-48.60657, -20.76114], [-48.60749, -20.7612], [-48.60842, -20.76149], [-48.62336, -20.76682], [-48.62451, -20.76696], [-48.63745, -20.76719], [-48.64616, -20.76873], [-48.66159, -20.76998], [-48.66189, -20.76761], [-48.6616, -20.76714], [-48.66222, -20.76585], [-48.66363, -20.76411], [-48.66467, -20.76332], [-48.66573, -20.76377], [-48.66692, -20.76379], [-48.67097, -20.76067], [-48.67157, -20.76003], [-48.67381, -20.75275], [-48.67393, -20.75191], [-48.67391, -20.74931], [-48.6718, -20.74423], [-48.67121, -20.74211], [-48.67062, -20.73651], [-48.66491, -20.73813], [-48.66562, -20.73404], [-48.66813, -20.7325], [-48.67238, -20.72521], [-48.67568, -20.72213], [-48.68377, -20.7229], [-48.6855, -20.72284], [-48.68678, -20.72227], [-48.68939, -20.71846], [-48.68974, -20.71818], [-48.6912, -20.71804], [-48.69316, -20.71754], [-48.69674, -20.71304], [-48.69788, -20.71242], [-48.69948, -20.71226], [-48.69846, -20.71162], [-48.69249, -20.70569], [-48.69033, -20.70387], [-48.68941, -20.7033], [-48.68757, -20.70255], [-48.68383, -20.70166], [-48.68325, -20.70122], [-48.68236, -20.69987], [-48.68092, -20.69911], [-48.67926, -20.69873], [-48.67715, -20.69781], [-48.67594, -20.69708], [-48.67492, -20.69561], [-48.67397, -20.69466], [-48.67364, -20.69398], [-48.67206, -20.69257], [-48.66887, -20.69096], [-48.66767, -20.69063], [-48.66563, -20.6905], [-48.66453, -20.69026], [-48.66235, -20.68894], [-48.66141, -20.68893], [-48.65946, -20.68959], [-48.65792, -20.68914], [-48.65422, -20.68939], [-48.65177, -20.69008], [-48.65119, -20.68979], [-48.64977, -20.68868], [-48.64919, -20.68856], [-48.64696, -20.68834], [-48.6447, -20.68925], [-48.6433, -20.6892], [-48.63862, -20.6883], [-48.6371, -20.68763], [-48.63566, -20.68677], [-48.63397, -20.68723], [-48.63216, -20.68665], [-48.63122, -20.68681], [-48.63024, -20.68816], [-48.6296, -20.68857], [-48.62972, -20.68914], [-48.63022, -20.68973], [-48.63055, -20.6907], [-48.63087, -20.69546], [-48.63077, -20.69739], [-48.63021, -20.69816], [-48.62923, -20.699], [-48.62792, -20.69968], [-48.62537, -20.70038], [-48.62264, -20.70033], [-48.61925, -20.70008], [-48.61319, -20.69876], [-48.61069, -20.69862], [-48.60939, -20.69921], [-48.60729, -20.70051], [-48.60611, -20.70093], [-48.60452, -20.70094], [-48.60186, -20.70033], [-48.59847, -20.69902], [-48.59522, -20.69724], [-48.58395, -20.6877], [-48.57809, -20.68532], [-48.57508, -20.68353], [-48.57115, -20.68022], [-48.56876, -20.67792], [-48.56842, -20.67679], [-48.5685, -20.67588], [-48.56932, -20.67248], [-48.56994, -20.66683], [-48.56996, -20.66236], [-48.56941, -20.65926], [-48.56846, -20.65673], [-48.56645, -20.6536], [-48.56543, -20.65296], [-48.56288, -20.65256], [-48.56264, -20.66538], [-48.55466, -20.69081], [-48.55071, -20.70538]], [[-48.62019, -20.70045], [-48.63022, -20.70063], [-48.63016, -20.70394], [-48.6206, -20.70436], [-48.62019, -20.70045]]]}}, 
{"type": "Feature", "properties": {"CD_SETOR": "351200105000016", "CD_SIT": "8", "NM_DIST": "Colina", "NM_SUBDIST": null}, "geometry": {"type": "Polygon", "coordinates": [[[-48.48998, -20.69679], [-48.49574, -20.69718], [-48.49905, -20.69788], [-48.52629, -20.70758], [-48.52685, -20.70601], [-48.53001, -20.70709], [-48.53499, -20.69407], [-48.53571, -20.69484], [-48.53774, -20.69873], [-48.53559, -20.70204], [-48.5352, -20.70289], [-48.53513, -20.70398], [-48.53577, -20.70682], [-48.53865, -20.70343], [-48.54158, -20.70482], [-48.54314, -20.70521], [-48.54356, -20.70352], [-48.55071, -20.70538], [-48.55466, -20.69081], [-48.56264, -20.66538], [-48.56288, -20.65256], [-48.55841, -20.65315], [-48.55336, -20.65313], [-48.54998, -20.65267], [-48.54638, -20.65114], [-48.54359, -20.64958], [-48.53914, -20.6462], [-48.53759, -20.64533], [-48.53254, -20.64118], [-48.52964, -20.63816], [-48.52788, -20.63659], [-48.52514, -20.63482], [-48.52363, -20.63356], [-48.52222, -20.6329], [-48.52126, -20.63264], [-48.51968, -20.63264], [-48.5188, -20.63299], [-48.51648, -20.6344], [-48.51584, -20.63454], [-48.5149, -20.63448], [-48.5134, -20.63411], [-48.51045, -20.63168], [-48.50817, -20.63039], [-48.50663, -20.63004], [-48.50243, -20.62975], [-48.50059, -20.62985], [-48.4948, -20.62913], [-48.49355, -20.62925], [-48.49234, -20.62965], [-48.49095, -20.63051], [-48.48986, -20.63165], [-48.48891, -20.6332], [-48.48818, -20.63529], [-48.48792, -20.63684], [-48.49162, -20.69455], [-48.49155, -20.69505], [-48.4911, -20.69573], [-48.48998, -20.69679]], [[-48.53774, -20.68963], [-48.53671, -20.68946], [-48.54543, -20.66642], [-48.54612, -20.66556], [-48.54709, -20.66546], [-48.55169, -20.66726], [-48.55198, -20.66771], [-48.55192, -20.66883], [-48.55081, -20.67419], [-48.54975, -20.67802], [-48.54962, -20.67932], [-48.54898, -20.68078], [-48.54844, -20.68486], [-48.54709, -20.68821], [-48.54644, -20.69046], [-48.54136, -20.68972], [-48.54011, -20.68991], [-48.53926, -20.6904], [-48.53833, -20.68979], [-48.53774, -20.68963]], [[-48.53093, -20.66538], [-48.53612, -20.65368], [-48.53784, -20.65491], [-48.54224, -20.65874], [-48.53537, -20.66861], [-48.53093, -20.66538]]]}}, 
{"type": "Feature", "properties": {"CD_SETOR": "351200105000017", "CD_SIT": "8", "NM_DIST": "Colina", "NM_SUBDIST": null}, "geometry": {"type": "Polygon", "coordinates": [[[-48.48996, -20.6968], [-48.48898, -20.69773], [-48.48792, -20.69832], [-48.48417, -20.69982], [-48.47686, -20.70315], [-48.47474, -20.70457], [-48.46694, -20.71591], [-48.46561, -20.71733], [-48.46534, -20.71918], [-48.46512, -20.71954], [-48.46429, -20.72026], [-48.4618, -20.72191], [-48.45843, -20.72555], [-48.45754, -20.72711], [-48.45728, -20.72789], [-48.45711, -20.7296], [-48.4575, -20.73142], [-48.45939, -20.73767], [-48.45557, -20.73842], [-48.45293, -20.73817], [-48.45202, -20.73825], [-48.45108, -20.73851], [-48.44958, -20.73924], [-48.44784, -20.73927], [-48.44697, -20.73957], [-48.44518, -20.73957], [-48.4444, -20.73987], [-48.44389, -20.74031], [-48.44332, -20.74018], [-48.44268, -20.74037], [-48.44179, -20.74104], [-48.4411, -20.74228], [-48.44074, -20.74397], [-48.43904, -20.74913], [-48.43843, -20.74983], [-48.43815, -20.75084], [-48.43772, -20.75128], [-48.43753, -20.75223], [-48.43708, -20.75274], [-48.43961, -20.75323], [-48.44132, -20.75234], [-48.44167, -20.75242], [-48.44178, -20.7528], [-48.44029, -20.75485], [-48.43924, -20.75551], [-48.43871, -20.75641], [-48.43775, -20.75711], [-48.4367, -20.75823], [-48.43599, -20.75823], [-48.43552, -20.75803], [-48.43464, -20.75748], [-48.43399, -20.7568], [-48.43353, -20.75662], [-48.43257, -20.75663], [-48.43173, -20.75711], [-48.43145, -20.75783], [-48.4316, -20.75861], [-48.43141, -20.75926], [-48.43171, -20.76151], [-48.4315, -20.7621], [-48.43097, -20.76214], [-48.429, -20.76073], [-48.42779, -20.76053], [-48.42593, -20.76162], [-48.42546, -20.76207], [-48.42548, -20.76283], [-48.42632, -20.76416], [-48.42789, -20.76483], [-48.42888, -20.76713], [-48.42956, -20.76797], [-48.43055, -20.76836], [-48.4305, -20.76878], [-48.43114, -20.76925], [-48.43117, -20.77], [-48.43173, -20.77112], [-48.43219, -20.7712], [-48.43292, -20.77106], [-48.43456, -20.7717], [-48.43552, -20.77233], [-48.43667, -20.77262], [-48.43718, -20.77337], [-48.43842, -20.77324], [-48.43919, -20.77346], [-48.43978, -20.7732], [-48.44026, -20.7725], [-48.44106, -20.77251], [-48.44152, -20.77234], [-48.4422, -20.77132], [-48.44337, -20.7713], [-48.44402, -20.77094], [-48.44457, -20.77125], [-48.44512, -20.77096], [-48.44539, -20.77147], [-48.44553, -20.77329], [-48.44511, -20.77443], [-48.44502, -20.77498], [-48.44513, -20.77538], [-48.44659, -20.77579], [-48.44811, -20.77564], [-48.44909, -20.77573], [-48.45076, -20.77652], [-48.45096, -20.77681], [-48.45087, -20.77728], [-48.44999, -20.77818], [-48.44844, -20.78064], [-48.44833, -20.78114], [-48.44857, -20.78218], [-48.44706, -20.7829], [-48.44616, -20.78353], [-48.44593, -20.78399], [-48.44604, -20.78483], [-48.44544, -20.78518], [-48.44544, -20.7856], [-48.44521, -20.78597], [-48.44527, -20.78621], [-48.44705, -20.7875], [-48.44797, -20.78784], [-48.44842, -20.78833], [-48.44891, -20.78849], [-48.44955, -20.78821], [-48.4504, -20.78851], [-48.45097, -20.78817], [-48.45167, -20.78743], [-48.45252, -20.78708], [-48.45318, -20.78629], [-48.45381, -20.78602], [-48.45526, -20.78642], [-48.45572, -20.78707], [-48.45594, -20.78716], [-48.45675, -20.78715], [-48.45726, -20.78734], [-48.45806, -20.78722], [-48.45936, -20.78868], [-48.46042, -20.78852], [-48.46081, -20.7888], [-48.46122, -20.78947], [-48.46111, -20.79129], [-48.46133, -20.7918], [-48.46157, -20.79386], [-48.46239, -20.79429], [-48.46316, -20.79432], [-48.46397, -20.79468], [-48.46482, -20.79465], [-48.46514, -20.79509], [-48.46572, -20.79499], [-48.46587, -20.79518], [-48.46628, -20.79513], [-48.46643, -20.79544], [-48.4669, -20.79539], [-48.4668, -20.79604], [-48.4671, -20.79619], [-48.46759, -20.79612], [-48.46768, -20.79678], [-48.46741, -20.79722], [-48.46749, -20.79754], [-48.4683, -20.79823], [-48.46797, -20.7992], [-48.46816, -20.79946], [-48.4684, -20.79947], [-48.46902, -20.79897], [-48.4694, -20.79914], [-48.4699, -20.79898], [-48.47019, -20.79919], [-48.47023, -20.79963], [-48.47051, -20.79975], [-48.4712, -20.79928], [-48.47174, -20.79938], [-48.47254, -20.79918], [-48.47275, -20.7992], [-48.47331, -20.79975], [-48.47406, -20.79944], [-48.47453, -20.79984], [-48.47513, -20.79959], [-48.4755, -20.80002], [-48.47609, -20.79961], [-48.47656, -20.79996], [-48.4775, -20.79989], [-48.4783, -20.79963], [-48.47922, -20.79983], [-48.47988, -20.79919], [-48.48062, -20.79899], [-48.48115, -20.79856], [-48.48244, -20.79868], [-48.48306, -20.79831], [-48.48366, -20.79869], [-48.484, -20.79864], [-48.48399, -20.7981], [-48.4842, -20.79794], [-48.48465, -20.7987], [-48.48533, -20.79864], [-48.48572, -20.79905], [-48.48639, -20.7989], [-48.48656, -20.7997], [-48.48801, -20.7997], [-48.48877, -20.80066], [-48.48974, -20.80087], [-48.49066, -20.8013], [-48.49208, -20.80124], [-48.49322, -20.8005], [-48.49362, -20.79936], [-48.49428, -20.79859], [-48.49532, -20.79824], [-48.4961, -20.79673], [-48.49652, -20.79636], [-48.49715, -20.79628], [-48.49753, -20.79551], [-48.49806, -20.79516], [-48.49845, -20.79436], [-48.49881, -20.79424], [-48.49977, -20.7944], [-48.50092, -20.79384], [-48.50153, -20.79378], [-48.50209, -20.79327], [-48.50282, -20.79363], [-48.5034, -20.79322], [-48.50424, -20.79382], [-48.50529, -20.79366], [-48.50599, -20.79399], [-48.50705, -20.79407], [-48.50857, -20.79364], [-48.50938, -20.79314], [-48.51084, -20.79281], [-48.51222, -20.7922], [-48.51344, -20.79235], [-48.51423, -20.79277], [-48.51576, -20.79202], [-48.51656, -20.79281], [-48.51738, -20.79304], [-48.51784, -20.79352], [-48.51828, -20.79343], [-48.51912, -20.7939], [-48.52051, -20.79415], [-48.52104, -20.79354], [-48.52218, -20.79358], [-48.52331, -20.79301], [-48.52263, -20.78964], [-48.52248, -20.78744], [-48.52232, -20.77962], [-48.52266, -20.77697], [-48.52232, -20.77607], [-48.52055, -20.77445], [-48.52358, -20.77075], [-48.52442, -20.76929], [-48.53798, -20.75283], [-48.53861, -20.75139], [-48.5391, -20.74131], [-48.53882, -20.74093], [-48.53951, -20.72629], [-48.53749, -20.72565], [-48.53542, -20.72669], [-48.53415, -20.73204], [-48.53136, -20.73249], [-48.53131, -20.73455], [-48.53087, -20.73471], [-48.53064, -20.73431], [-48.52883, -20.73525], [-48.5283, -20.73425], [-48.52646, -20.73514], [-48.52616, -20.73455], [-48.52433, -20.73448], [-48.52175, -20.72951], [-48.52108, -20.72921], [-48.51981, -20.7273], [-48.51895, -20.72641], [-48.51831, -20.72607], [-48.51691, -20.72579], [-48.51785, -20.72542], [-48.51866, -20.7253], [-48.5192, -20.72456], [-48.52008, -20.72387], [-48.52121, -20.72336], [-48.52172, -20.72281], [-48.52214, -20.72263], [-48.52154, -20.71318], [-48.52034, -20.7132], [-48.52132, -20.70579], [-48.49905, -20.69788], [-48.49574, -20.69718], [-48.48996, -20.6968]]]}}, 
{"type": "Feature", "properties": {"CD_SETOR": "351200105000018", "CD_SIT": "8", "NM_DIST": "Colina", "NM_SUBDIST": null}, "geometry": {"type": "Polygon", "coordinates": [[[-48.53951, -20.72629], [-48.53882, -20.74093], [-48.5391, -20.74131], [-48.53855, -20.75166], [-48.53798, -20.75283], [-48.52442, -20.76929], [-48.52358, -20.77075], [-48.52055, -20.77445], [-48.52232, -20.77607], [-48.52266, -20.77697], [-48.52232, -20.77962], [-48.52248, -20.78744], [-48.52263, -20.78964], [-48.52331, -20.79301], [-48.52428, -20.79251], [-48.52496, -20.79267], [-48.52708, -20.79374], [-48.52945, -20.79558], [-48.53107, -20.79663], [-48.53323, -20.79778], [-48.53507, -20.79818], [-48.5366, -20.79809], [-48.53814, -20.79824], [-48.54144, -20.79638], [-48.54309, -20.79598], [-48.54567, -20.79615], [-48.54926, -20.79724], [-48.55166, -20.79865], [-48.55566, -20.80187], [-48.55768, -20.80277], [-48.56004, -20.80501], [-48.56118, -20.80711], [-48.56262, -20.80843], [-48.56457, -20.80908], [-48.56789, -20.8097], [-48.57033, -20.8098], [-48.57297, -20.81018], [-48.57365, -20.8104], [-48.57556, -20.81187], [-48.57761, -20.81394], [-48.57906, -20.81489], [-48.58214, -20.81575], [-48.58343, -20.81646], [-48.58433, -20.81676], [-48.58854, -20.81795], [-48.59166, -20.81928], [-48.59297, -20.82038], [-48.59515, -20.82159], [-48.5972, -20.82308], [-48.59821, -20.82426], [-48.59897, -20.82591], [-48.5997, -20.82684], [-48.60266, -20.82931], [-48.60941, -20.83417], [-48.61074, -20.83454], [-48.61192, -20.83464], [-48.61275, -20.8344], [-48.61457, -20.83315], [-48.61525, -20.83237], [-48.61648, -20.83152], [-48.61719, -20.83054], [-48.61769, -20.82807], [-48.61811, -20.82748], [-48.62079, -20.82556], [-48.62191, -20.82541], [-48.62477, -20.82539], [-48.62559, -20.82471], [-48.62638, -20.82442], [-48.62752, -20.82358], [-48.63283, -20.82292], [-48.63416, -20.82207], [-48.63533, -20.81989], [-48.63601, -20.81899], [-48.64514, -20.81989], [-48.64472, -20.82287], [-48.6452, -20.82378], [-48.64525, -20.82778], [-48.64542, -20.82908], [-48.64631, -20.83088], [-48.64716, -20.83137], [-48.6477, -20.8319], [-48.64866, -20.83208], [-48.64953, -20.83315], [-48.65003, -20.83321], [-48.65075, -20.83366], [-48.65278, -20.83351], [-48.65283, -20.83323], [-48.65348, -20.83313], [-48.65471, -20.83354], [-48.65506, -20.8331], [-48.65576, -20.83309], [-48.65666, -20.83391], [-48.65721, -20.83377], [-48.65886, -20.83394], [-48.65985, -20.83351], [-48.66072, -20.83356], [-48.66177, -20.83326], [-48.66218, -20.83278], [-48.66282, -20.8326], [-48.66387, -20.83175], [-48.66512, -20.83133], [-48.66405, -20.83043], [-48.66367, -20.82984], [-48.66241, -20.82271], [-48.65735, -20.81586], [-48.65692, -20.81552], [-48.65408, -20.81438], [-48.65347, -20.814], [-48.65195, -20.81296], [-48.64988, -20.8112], [-48.6482, -20.81072], [-48.64677, -20.80877], [-48.653, -20.80515], [-48.65621, -20.80166], [-48.65955, -20.80069], [-48.66341, -20.79868], [-48.66598, -20.7989], [-48.66602, -20.79783], [-48.66533, -20.79656], [-48.66483, -20.79643], [-48.66441, -20.79538], [-48.66416, -20.79523], [-48.66427, -20.79444], [-48.66499, -20.79392], [-48.66502, -20.79341], [-48.66423, -20.79195], [-48.66339, -20.78909], [-48.66351, -20.7876], [-48.66469, -20.78387], [-48.66459, -20.78329], [-48.66481, -20.78254], [-48.66378, -20.78007], [-48.66444, -20.77329], [-48.66385, -20.77206], [-48.66379, -20.7716], [-48.6642, -20.77016], [-48.66521, -20.76778], [-48.66481, -20.76541], [-48.66457, -20.76502], [-48.66344, -20.76431], [-48.66203, -20.76613], [-48.6616, -20.76714], [-48.66189, -20.76761], [-48.66159, -20.76998], [-48.64616, -20.76873], [-48.63745, -20.76719], [-48.62451, -20.76696], [-48.62336, -20.76682], [-48.60842, -20.76149], [-48.60749, -20.7612], [-48.60657, -20.76114], [-48.60622, -20.76075], [-48.60527, -20.76032], [-48.59311, -20.75625], [-48.57667, -20.74965], [-48.56876, -20.74613], [-48.56767, -20.74548], [-48.56273, -20.7407], [-48.5583, -20.73734], [-48.55513, -20.73302], [-48.54827, -20.73793], [-48.54272, -20.72714], [-48.54184, -20.72678], [-48.54027, -20.7257], [-48.54034, -20.72554], [-48.53955, -20.7252], [-48.53951, -20.72629]]]}}, 
{"type": "Feature", "properties": {"CD_SETOR": "351200105000019", "CD_SIT": "8", "NM_DIST": "Colina", "NM_SUBDIST": null}, "geometry": {"type": "Polygon", "coordinates": [[[-48.66344, -20.76431], [-48.66476, -20.76524], [-48.66521, -20.76778], [-48.6642, -20.77016], [-48.66379, -20.7716], [-48.66385, -20.77206], [-48.66444, -20.77329], [-48.66378, -20.78007], [-48.66481, -20.78254], [-48.66459, -20.78329], [-48.66469, -20.78387], [-48.66351, -20.7876], [-48.66339, -20.78909], [-48.66423, -20.79195], [-48.66502, -20.79341], [-48.66499, -20.79392], [-48.66427, -20.79444], [-48.66416, -20.79523], [-48.66441, -20.79538], [-48.66483, -20.79643], [-48.66533, -20.79656], [-48.66602, -20.79783], [-48.66598, -20.7989], [-48.66341, -20.79868], [-48.65955, -20.80069], [-48.65621, -20.80166], [-48.653, -20.80515], [-48.64677, -20.80877], [-48.6482, -20.81072], [-48.64988, -20.8112], [-48.65195, -20.81296], [-48.65347, -20.814], [-48.65408, -20.81438], [-48.65692, -20.81552], [-48.65735, -20.81586], [-48.66241, -20.82271], [-48.66367, -20.82984], [-48.66405, -20.83043], [-48.66512, -20.83133], [-48.66682, -20.82982], [-48.66806, -20.82963], [-48.67007, -20.83039], [-48.67403, -20.83132], [-48.67608, -20.83206], [-48.67719, -20.83265], [-48.67861, -20.83286], [-48.67965, -20.83366], [-48.68078, -20.83394], [-48.68214, -20.83454], [-48.68486, -20.83605], [-48.68633, -20.83765], [-48.68684, -20.8387], [-48.68785, -20.8392], [-48.68844, -20.84021], [-48.68973, -20.84062], [-48.69061, -20.83983], [-48.69104, -20.83969], [-48.69126, -20.83931], [-48.69192, -20.83926], [-48.69279, -20.83892], [-48.69308, -20.8386], [-48.6943, -20.83873], [-48.69519, -20.83782], [-48.6962, -20.83766], [-48.69634, -20.83736], [-48.69746, -20.83691], [-48.69799, -20.83648], [-48.69831, -20.83597], [-48.69874, -20.83567], [-48.6988, -20.83526], [-48.69978, -20.8342], [-48.70042, -20.83375], [-48.70076, -20.83372], [-48.70091, -20.83345], [-48.70149, -20.83329], [-48.70209, -20.83274], [-48.70228, -20.83207], [-48.70286, -20.83162], [-48.70301, -20.83103], [-48.70288, -20.83009], [-48.70332, -20.83001], [-48.70319, -20.82968], [-48.70352, -20.82796], [-48.70408, -20.82784], [-48.70476, -20.82737], [-48.70539, -20.82641], [-48.70756, -20.82539], [-48.70904, -20.82535], [-48.70997, -20.82507], [-48.71199, -20.82381], [-48.71309, -20.8228], [-48.714, -20.82143], [-48.71439, -20.81957], [-48.71646, -20.81636], [-48.71695, -20.81571], [-48.71903, -20.8137], [-48.7194, -20.81296], [-48.7198, -20.81261], [-48.71974, -20.81215], [-48.72004, -20.8116], [-48.71992, -20.81106], [-48.72006, -20.81035], [-48.72092, -20.80979], [-48.72077, -20.80934], [-48.72111, -20.80876], [-48.72117, -20.80821], [-48.72105, -20.80767], [-48.72061, -20.80703], [-48.7204, -20.80623], [-48.72041, -20.80542], [-48.72008, -20.80441], [-48.72067, -20.80283], [-48.72003, -20.8026], [-48.71931, -20.80197], [-48.7188, -20.80128], [-48.71799, -20.80081], [-48.71761, -20.8001], [-48.71758, -20.79941], [-48.71794, -20.7981], [-48.71798, -20.79622], [-48.71761, -20.79349], [-48.71776, -20.79294], [-48.71825, -20.79221], [-48.71819, -20.79089], [-48.71843, -20.79009], [-48.71899, -20.78963], [-48.71972, -20.78941], [-48.72112, -20.78821], [-48.72245, -20.78736], [-48.7226, -20.78664], [-48.72302, -20.78594], [-48.72286, -20.78369], [-48.72347, -20.78265], [-48.72457, -20.78165], [-48.72488, -20.78078], [-48.72498, -20.77991], [-48.72555, -20.77918], [-48.7255, -20.77885], [-48.72431, -20.7777], [-48.72416, -20.77726], [-48.72445, -20.77606], [-48.72409, -20.77588], [-48.72395, -20.77509], [-48.72467, -20.77399], [-48.72486, -20.77304], [-48.72559, -20.77212], [-48.72671, -20.77114], [-48.72696, -20.77068], [-48.72688, -20.77026], [-48.72616, -20.76906], [-48.72605, -20.76819], [-48.72649, -20.76712], [-48.72646, -20.76615], [-48.72626, -20.76559], [-48.72665, -20.76448], [-48.72707, -20.76416], [-48.72712, -20.76346], [-48.72758, -20.76232], [-48.72771, -20.76127], [-48.72803, -20.76081], [-48.72857, -20.76059], [-48.73154, -20.76037], [-48.73168, -20.76006], [-48.73155, -20.75967], [-48.7312, -20.75929], [-48.73064, -20.75908], [-48.73047, -20.75876], [-48.73054, -20.75844], [-48.73148, -20.7571], [-48.73268, -20.75652], [-48.73315, -20.75613], [-48.73423, -20.75605], [-48.73447, -20.75561], [-48.73501, -20.75531], [-48.73605, -20.75418], [-48.73652, -20.75288], [-48.73684, -20.75241], [-48.73749, -20.75184], [-48.73805, -20.75162], [-48.73868, -20.7516], [-48.74061, -20.75188], [-48.74313, -20.75275], [-48.74392, -20.75272], [-48.74511, -20.75178], [-48.74554, -20.75185], [-48.74636, -20.75241], [-48.74709, -20.75255], [-48.74735, -20.75293], [-48.74777, -20.753], [-48.74806, -20.75264], [-48.74892, -20.75214], [-48.74973, -20.75189], [-48.75006, -20.7516], [-48.74987, -20.75098], [-48.74999, -20.75039], [-48.75112, -20.75063], [-48.75208, -20.74947], [-48.75204, -20.74895], [-48.75227, -20.74848], [-48.75228, -20.74536], [-48.75264, -20.74441], [-48.75367, -20.74286], [-48.75299, -20.74279], [-48.75176, -20.74115], [-48.75096, -20.74089], [-48.74993, -20.74017], [-48.74916, -20.74024], [-48.74831, -20.73949], [-48.74767, -20.73926], [-48.74672, -20.73932], [-48.74622, -20.73849], [-48.74559, -20.73788], [-48.74428, -20.73712], [-48.74396, -20.73608], [-48.74345, -20.73541], [-48.74221, -20.73475], [-48.74189, -20.73439], [-48.74104, -20.7314], [-48.74055, -20.73083], [-48.73879, -20.72915], [-48.7379, -20.72872], [-48.73695, -20.72802], [-48.73428, -20.72737], [-48.73357, -20.72747], [-48.73111, -20.72839], [-48.73027, -20.72834], [-48.7293, -20.72785], [-48.72843, -20.72763], [-48.72668, -20.72747], [-48.72514, -20.7259], [-48.72443, -20.7257], [-48.72434, -20.72517], [-48.724, -20.72495], [-48.72221, -20.72529], [-48.72159, -20.72499], [-48.72053, -20.7232], [-48.72056, -20.72242], [-48.7203, -20.72148], [-48.71978, -20.72075], [-48.7197, -20.72013], [-48.71928, -20.71975], [-48.71745, -20.71888], [-48.7168, -20.71827], [-48.71659, -20.71715], [-48.71605, -20.71684], [-48.71515, -20.71686], [-48.71343, -20.71724], [-48.71259, -20.71723], [-48.71217, -20.7171], [-48.71146, -20.71646], [-48.71054, -20.7162], [-48.70902, -20.71482], [-48.70796, -20.71419], [-48.70657, -20.71366], [-48.70541, -20.71358], [-48.70348, -20.71396], [-48.70203, -20.71354], [-48.69948, -20.71226], [-48.69788, -20.71242], [-48.69674, -20.71304], [-48.69316, -20.71754], [-48.6912, -20.71804], [-48.68974, -20.71818], [-48.68939, -20.71846], [-48.68678, -20.72227], [-48.6855, -20.72284], [-48.68377, -20.7229], [-48.67568, -20.72213], [-48.67238, -20.72521], [-48.66813, -20.7325], [-48.66562, -20.73404], [-48.66491, -20.73813], [-48.67062, -20.73651], [-48.67121, -20.74211], [-48.6718, -20.74423], [-48.67391, -20.74931], [-48.67393, -20.75191], [-48.67381, -20.75275], [-48.67178, -20.75966], [-48.67144, -20.76019], [-48.66692, -20.76379], [-48.66573, -20.76377], [-48.66467, -20.76332], [-48.66344, -20.76431]]]}}, 
{"type": "Feature", "properties": {"CD_SETOR": "351200105000020", "CD_SIT": "1", "NM_DIST": "Colina", "NM_SUBDIST": null}, "geometry": {"type": "Polygon", "coordinates": [[[-48.52523, -20.72011], [-48.52307, -20.72588], [-48.52321, -20.72594], [-48.52526, -20.72524], [-48.52644, -20.72508], [-48.52918, -20.72376], [-48.5266, -20.71918], [-48.52523, -20.72011]]]}}, 
{"type": "Feature", "properties": {"CD_SETOR": "351200105000021", "CD_SIT": "1", "NM_DIST": "Colina", "NM_SUBDIST": null}, "geometry": {"type": "Polygon", "coordinates": [[[-48.52832, -20.72228], [-48.52918, -20.72376], [-48.5287, -20.72399], [-48.52872, -20.72412], [-48.53066, -20.72492], [-48.53108, -20.72402], [-48.52992, -20.72354], [-48.53116, -20.72294], [-48.53022, -20.72129], [-48.52832, -20.72228]]]}}, 
{"type": "Feature", "properties": {"CD_SETOR": "351200105000022", "CD_SIT": "1", "NM_DIST": "Colina", "NM_SUBDIST": null}, "geometry": {"type": "Polygon", "coordinates": [[[-48.53457, -20.71887], [-48.53356, -20.71855], [-48.53294, -20.7186], [-48.5315, -20.71939], [-48.53175, -20.71988], [-48.52995, -20.72078], [-48.53116, -20.72294], [-48.53407, -20.72153], [-48.53365, -20.72254], [-48.53552, -20.72327], [-48.53684, -20.72037], [-48.53649, -20.72021], [-48.53688, -20.71926], [-48.53602, -20.71897], [-48.53576, -20.71843], [-48.53508, -20.7188], [-48.53457, -20.71887]]]}}, 
{"type": "Feature", "properties": {"CD_SETOR": "351200105000023", "CD_SIT": "1", "NM_DIST": "Colina", "NM_SUBDIST": null}, "geometry": {"type": "Polygon", "coordinates": [[[-48.53271, -20.70979], [-48.53402, -20.71027], [-48.53329, -20.7121], [-48.53692, -20.71342], [-48.53839, -20.70993], [-48.53629, -20.70778], [-48.53577, -20.70682], [-48.53409, -20.70633], [-48.53271, -20.70979]]]}}, 
{"type": "Feature", "properties": {"CD_SETOR": "351200105000024", "CD_SIT": "1", "NM_DIST": "Colina", "NM_SUBDIST": null}, "geometry": {"type": "Polygon", "coordinates": [[[-48.52875, -20.7105], [-48.53329, -20.7121], [-48.53402, -20.71027], [-48.52981, -20.70868], [-48.52943, -20.70867], [-48.52875, -20.7105]]]}}, 
{"type": "Feature", "properties": {"CD_SETOR": "351200105000025", "CD_SIT": "8", "NM_DIST": "Colina", "NM_SUBDIST": null}, "geometry": {"type": "Polygon", "coordinates": [[[-48.54814, -20.72483], [-48.55099, -20.72835], [-48.55513, -20.73302], [-48.55807, -20.73708], [-48.56037, -20.73891], [-48.56359, -20.73858], [-48.56601, -20.7381], [-48.56674, -20.73756], [-48.56793, -20.7362], [-48.56365, -20.73491], [-48.56327, -20.7346], [-48.55133, -20.72247], [-48.54814, -20.72483]]]}}, 
{"type": "Feature", "properties": {"CD_SETOR": "351200105000026", "CD_SIT": "8", "NM_DIST": "Colina", "NM_SUBDIST": null}, "geometry": {"type": "Polygon", "coordinates": [[[-48.53577, -20.70682], [-48.53641, -20.70791], [-48.54158, -20.70482], [-48.53865, -20.70343], [-48.53577, -20.70682]]]}}, 
{"type": "Feature", "properties": {"CD_SETOR": "351200105000027", "CD_SIT": "8", "NM_DIST": "Colina", "NM_SUBDIST": null}, "geometry": {"type": "Polygon", "coordinates": [[[-48.52418, -20.72053], [-48.52271, -20.72153], [-48.52259, -20.72215], [-48.52233, -20.72253], [-48.52172, -20.72281], [-48.52121, -20.72336], [-48.52008, -20.72387], [-48.5192, -20.72456], [-48.51866, -20.7253], [-48.51785, -20.72542], [-48.51691, -20.72579], [-48.51831, -20.72607], [-48.51895, -20.72641], [-48.51981, -20.7273], [-48.52083, -20.72893], [-48.52155, -20.72945], [-48.52171, -20.7295], [-48.52523, -20.72011], [-48.5247, -20.72013], [-48.52418, -20.72053]]]}}, 
{"type": "Feature", "properties": {"CD_SETOR": "351200105000028", "CD_SIT": "3", "NM_DIST": "Colina", "NM_SUBDIST": null}, "geometry": {"type": "Polygon", "coordinates": [[[-48.62019, -20.70045], [-48.6206, -20.70436], [-48.63016, -20.70394], [-48.63022, -20.70063], [-48.62019, -20.70045]]]}}, 
{"type": "Feature", "properties": {"CD_SETOR": "351200105000029", "CD_SIT": "3", "NM_DIST": "Colina", "NM_SUBDIST": null}, "geometry": {"type": "Polygon", "coordinates": [[[-48.53774, -20.68963], [-48.53833, -20.68979], [-48.53926, -20.6904], [-48.54011, -20.68991], [-48.54136, -20.68972], [-48.54644, -20.69046], [-48.54709, -20.68821], [-48.54844, -20.68486], [-48.54898, -20.68078], [-48.54962, -20.67932], [-48.54975, -20.67802], [-48.55081, -20.67419], [-48.55192, -20.66883], [-48.55198, -20.66771], [-48.55169, -20.66726], [-48.54709, -20.66546], [-48.54612, -20.66556], [-48.54543, -20.66642], [-48.53671, -20.68946], [-48.53774, -20.68963]]]}}, 
{"type": "Feature", "properties": {"CD_SETOR": "351200105000030", "CD_SIT": "3", "NM_DIST": "Colina", "NM_SUBDIST": null}, "geometry": {"type": "Polygon", "coordinates": [[[-48.53093, -20.66538], [-48.53537, -20.66861], [-48.54224, -20.65874], [-48.53784, -20.65491], [-48.53612, -20.65368], [-48.53093, -20.66538]]]}}, 
{"type": "Feature", "properties": {"CD_SETOR": "351200105000031", "CD_SIT": "1", "NM_DIST": "Colina", "NM_SUBDIST": null}, "geometry": {"type": "Polygon", "coordinates": [[[-48.52154, -20.71318], [-48.52155, -20.71322], [-48.52214, -20.72263], [-48.52259, -20.72215], [-48.52271, -20.72153], [-48.52418, -20.72053], [-48.52274, -20.71314], [-48.52154, -20.71318]]]}}, 
{"type": "Feature", "properties": {"CD_SETOR": "351200105000032", "CD_SIT": "1", "NM_DIST": "Colina", "NM_SUBDIST": null}, "geometry": {"type": "Polygon", "coordinates": [[[-48.54802, -20.73334], [-48.5476, -20.73408], [-48.54856, -20.73521], [-48.55157, -20.7329], [-48.55027, -20.7314], [-48.54824, -20.73292], [-48.54802, -20.73334]]]}}, 
{"type": "Feature", "properties": {"CD_SETOR": "351200105000033", "CD_SIT": "1", "NM_DIST": "Colina", "NM_SUBDIST": null}, "geometry": {"type": "Polygon", "coordinates": [[[-48.5506, -20.73178], [-48.55157, -20.7329], [-48.54856, -20.73521], [-48.5476, -20.73408], [-48.54636, -20.73439], [-48.54827, -20.73793], [-48.55513, -20.73302], [-48.55263, -20.73021], [-48.5506, -20.73178]]]}}, 
{"type": "Feature", "properties": {"CD_SETOR": "351200105000034", "CD_SIT": "1", "NM_DIST": "Colina", "NM_SUBDIST": null}, "geometry": {"type": "Polygon", "coordinates": [[[-48.54802, -20.73334], [-48.54824, -20.73292], [-48.55027, -20.7314], [-48.5506, -20.73178], [-48.55263, -20.73021], [-48.55024, -20.72743], [-48.5473, -20.73298], [-48.54802, -20.73334]]]}}, 
{"type": "Feature", "properties": {"CD_SETOR": "351200105000035", "CD_SIT": "1", "NM_DIST": "Colina", "NM_SUBDIST": null}, "geometry": {"type": "Polygon", "coordinates": [[[-48.54097, -20.72128], [-48.5398, -20.7241], [-48.53968, -20.72526], [-48.54034, -20.72554], [-48.54027, -20.7257], [-48.54184, -20.72678], [-48.54272, -20.72714], [-48.54636, -20.73439], [-48.5476, -20.73408], [-48.54802, -20.73334], [-48.5473, -20.73298], [-48.55024, -20.72743], [-48.54539, -20.72151], [-48.54302, -20.72053], [-48.54243, -20.72187], [-48.54097, -20.72128]]]}}, 
{"type": "Feature", "properties": {"CD_SETOR": "351200105000036", "CD_SIT": "1", "NM_DIST": "Colina", "NM_SUBDIST": null}, "geometry": {"type": "Polygon", "coordinates": [[[-48.5378, -20.70932], [-48.54114, -20.71275], [-48.54126, -20.71267], [-48.54314, -20.70521], [-48.54265, -20.7051], [-48.54236, -20.70636], [-48.54193, -20.70577], [-48.54103, -20.70632], [-48.54153, -20.70702], [-48.54062, -20.70759], [-48.54119, -20.70841], [-48.53938, -20.70951], [-48.53881, -20.70868], [-48.5378, -20.70932]]]}}, 
{"type": "Feature", "properties": {"CD_SETOR": "351200105000037", "CD_SIT": "1", "NM_DIST": "Colina", "NM_SUBDIST": null}, "geometry": {"type": "Polygon", "coordinates": [[[-48.53641, -20.70791], [-48.5378, -20.70932], [-48.53881, -20.70868], [-48.53938, -20.70951], [-48.54119, -20.70841], [-48.54062, -20.70759], [-48.54153, -20.70702], [-48.54103, -20.70632], [-48.54193, -20.70577], [-48.54236, -20.70636], [-48.54265, -20.7051], [-48.54158, -20.70482], [-48.53641, -20.70791]]]}}, 
{"type": "Feature", "properties": {"CD_SETOR": "351200105000038", "CD_SIT": "1", "NM_DIST": "Colina", "NM_SUBDIST": null}, "geometry": {"type": "Polygon", "coordinates": [[[-48.53122, -20.70387], [-48.53541, -20.70536], [-48.53509, -20.7036], [-48.5352, -20.70289], [-48.53559, -20.70204], [-48.53774, -20.69873], [-48.53589, -20.69515], [-48.53506, -20.6941], [-48.53122, -20.70387]]]}}, 
{"type": "Feature", "properties": {"CD_SETOR": "351200105000039", "CD_SIT": "1", "NM_DIST": "Colina", "NM_SUBDIST": null}, "geometry": {"type": "Polygon", "coordinates": [[[-48.53001, -20.70709], [-48.52943, -20.70867], [-48.52981, -20.70868], [-48.53271, -20.70979], [-48.53409, -20.70633], [-48.53577, -20.70682], [-48.53541, -20.70536], [-48.53122, -20.70387], [-48.53001, -20.70709]]]}}, 
{"type": "Feature", "properties": {"CD_SETOR": "351200105000040", "CD_SIT": "1", "NM_DIST": "Colina", "NM_SUBDIST": null}, "geometry": {"type": "Polygon", "coordinates": [[[-48.53688, -20.71926], [-48.53649, -20.72021], [-48.53684, -20.72037], [-48.53517, -20.72407], [-48.53689, -20.72477], [-48.53939, -20.71906], [-48.53834, -20.71865], [-48.53793, -20.71967], [-48.53688, -20.71926]]]}}, 
{"type": "Feature", "properties": {"CD_SETOR": "351200105000041", "CD_SIT": "1", "NM_DIST": "Colina", "NM_SUBDIST": null}, "geometry": {"type": "Polygon", "coordinates": [[[-48.53834, -20.71865], [-48.54025, -20.71939], [-48.54256, -20.71423], [-48.54114, -20.71275], [-48.54098, -20.71287], [-48.54074, -20.71278], [-48.53834, -20.71865]]]}}, 
{"type": "Feature", "properties": {"CD_SETOR": "351200105000042", "CD_SIT": "1", "NM_DIST": "Colina", "NM_SUBDIST": null}, "geometry": {"type": "Polygon", "coordinates": [[[-48.53692, -20.71342], [-48.53654, -20.71437], [-48.53961, -20.71557], [-48.54074, -20.71278], [-48.54098, -20.71287], [-48.54114, -20.71275], [-48.53839, -20.70993], [-48.53692, -20.71342]]]}}, 
{"type": "Feature", "properties": {"CD_SETOR": "351200105000043", "CD_SIT": "1", "NM_DIST": "Colina", "NM_SUBDIST": null}, "geometry": {"type": "Polygon", "coordinates": [[[-48.5392, -20.71657], [-48.53961, -20.71557], [-48.53654, -20.71437], [-48.53457, -20.71887], [-48.53508, -20.7188], [-48.53576, -20.71843], [-48.53602, -20.71897], [-48.53793, -20.71967], [-48.5392, -20.71657]]]}}, 
{"type": "Feature", "properties": {"CD_SETOR": "351200105000044", "CD_SIT": "1", "NM_DIST": "Colina", "NM_SUBDIST": null}, "geometry": {"type": "Polygon", "coordinates": [[[-48.52821, -20.7119], [-48.5283, -20.71238], [-48.52867, -20.71272], [-48.53445, -20.71479], [-48.53486, -20.71376], [-48.5355, -20.71399], [-48.53589, -20.71304], [-48.52875, -20.7105], [-48.52821, -20.7119]]]}}, 
{"type": "Feature", "properties": {"CD_SETOR": "351200105000045", "CD_SIT": "2", "NM_DIST": "Colina", "NM_SUBDIST": null}, "geometry": {"type": "Polygon", "coordinates": [[[-48.53589, -20.71304], [-48.5355, -20.71399], [-48.53486, -20.71376], [-48.53445, -20.71479], [-48.53118, -20.71361], [-48.53041, -20.71589], [-48.5315, -20.71939], [-48.53313, -20.71854], [-48.53457, -20.71887], [-48.53692, -20.71342], [-48.53589, -20.71304]]]}}, 
{"type": "Feature", "properties": {"CD_SETOR": "351200105000046", "CD_SIT": "2", "NM_DIST": "Colina", "NM_SUBDIST": null}, "geometry": {"type": "Polygon", "coordinates": [[[-48.52596, -20.72513], [-48.52562, -20.72526], [-48.52734, -20.72848], [-48.5294, -20.72748], [-48.53211, -20.73236], [-48.53415, -20.73204], [-48.53542, -20.72669], [-48.53524, -20.72678], [-48.52872, -20.72412], [-48.5287, -20.72399], [-48.52644, -20.72508], [-48.52596, -20.72513]]]}}, 
{"type": "Feature", "properties": {"CD_SETOR": "351200105000047", "CD_SIT": "2", "NM_DIST": "Colina", "NM_SUBDIST": null}, "geometry": {"type": "Polygon", "coordinates": [[[-48.53136, -20.73249], [-48.53211, -20.73236], [-48.5294, -20.72748], [-48.52734, -20.72848], [-48.52561, -20.72516], [-48.52346, -20.72592], [-48.52307, -20.72588], [-48.52171, -20.7295], [-48.52433, -20.73448], [-48.52616, -20.73455], [-48.52646, -20.73514], [-48.5283, -20.73425], [-48.52883, -20.73525], [-48.53064, -20.73431], [-48.53087, -20.73471], [-48.53131, -20.73455], [-48.53136, -20.73249]]]}}, 
{"type": "Feature", "properties": {"CD_SETOR": "351200105000048", "CD_SIT": "1", "NM_DIST": "Colina", "NM_SUBDIST": null}, "geometry": {"type": "Polygon", "coordinates": [[[-48.53852, -20.72104], [-48.53938, -20.72136], [-48.53895, -20.72234], [-48.54027, -20.72288], [-48.54322, -20.71623], [-48.54319, -20.71511], [-48.54256, -20.71423], [-48.54025, -20.71939], [-48.53939, -20.71906], [-48.53852, -20.72104]]]}}, 
{"type": "Feature", "properties": {"CD_SETOR": "351200105000049", "CD_SIT": "1", "NM_DIST": "Colina", "NM_SUBDIST": null}, "geometry": {"type": "Polygon", "coordinates": [[[-48.54027, -20.72288], [-48.53895, -20.72234], [-48.53938, -20.72136], [-48.53852, -20.72104], [-48.53689, -20.72477], [-48.53773, -20.72511], [-48.53749, -20.72565], [-48.53951, -20.72629], [-48.53955, -20.7252], [-48.53968, -20.72526], [-48.5398, -20.7241], [-48.54027, -20.72288]]]}}]}