{"type": "FeatureCollection", "features": [
{"type": "Feature", "properties": {"CD_SETOR": "351690305000003", "CD_SIT": "1", "NM_DIST": "General Salgado", "NM_SUBDIST": null}, "geometry": {"type": "Polygon", "coordinates": [[[-50.35906, -20.6515], [-50.35849, -20.6563], [-50.35846, -20.65685], [-50.35912, -20.65668], [-50.35952, -20.65676], [-50.35942, -20.65619], [-50.35991, -20.65236], [-50.36409, -20.65193], [-50.36399, -20.65146], [-50.36311, -20.6515], [-50.36326, -20.65019], [-50.35927, -20.64974], [-50.35938, -20.64884], [-50.35842, -20.64873], [-50.3582, -20.65056], [-50.35918, -20.65066], [-50.35906, -20.6515]]]}}, 
{"type": "Feature", "properties": {"CD_SETOR": "351690305000005", "CD_SIT": "1", "NM_DIST": "General Salgado", "NM_SUBDIST": null}, "geometry": {"type": "Polygon", "coordinates": [[[-50.36516, -20.64186], [-50.36486, -20.64207], [-50.36444, -20.64306], [-50.36569, -20.64342], [-50.36548, -20.64486], [-50.37185, -20.64555], [-50.37212, -20.64359], [-50.36906, -20.64312], [-50.36917, -20.64252], [-50.36839, -20.64226], [-50.36631, -20.6419], [-50.36516, -20.64186]]]}}, 
{"type": "Feature", "properties": {"CD_SETOR": "351690305000006", "CD_SIT": "1", "NM_DIST": "General Salgado", "NM_SUBDIST": null}, "geometry": {"type": "Polygon", "coordinates": [[[-50.36075, -20.64526], [-50.36346, -20.6455], [-50.3637, -20.64465], [-50.36548, -20.64486], [-50.36569, -20.64342], [-50.36444, -20.64306], [-50.36462, -20.64263], [-50.36111, -20.64228], [-50.36075, -20.64526]]]}}, 
{"type": "Feature", "properties": {"CD_SETOR": "351690305000011", "CD_SIT": "3", "NM_DIST": "General Salgado", "NM_SUBDIST": null}, "geometry": {"type": "Polygon", "coordinates": [[[-50.45517, -20.65989], [-50.45298, -20.66188], [-50.45421, -20.66364], [-50.4558, -20.66287], [-50.45631, -20.66331], [-50.45713, -20.66343], [-50.4581, -20.66157], [-50.45851, -20.65976], [-50.45845, -20.65922], [-50.45706, -20.65796], [-50.45517, -20.65989]]]}}, 
{"type": "Feature", "properties": {"CD_SETOR": "351690305000013", "CD_SIT": "8", "NM_DIST": "General Salgado", "NM_SUBDIST": null}, "geometry": {"type": "Polygon", "coordinates": [[[-50.29158, -20.63946], [-50.29082, -20.63967], [-50.28612, -20.64382], [-50.28564, -20.64444], [-50.28493, -20.64686], [-50.28445, -20.64955], [-50.28449, -20.65067], [-50.28474, -20.65142], [-50.28661, -20.65291], [-50.28697, -20.65446], [-50.28791, -20.6556], [-50.28782, -20.6591], [-50.28924, -20.66117], [-50.28944, -20.66166], [-50.28967, -20.66332], [-50.29002, -20.66423], [-50.29, -20.66591], [-50.2895, -20.66736], [-50.28917, -20.6701], [-50.28667, -20.67308], [-50.28495, -20.67603], [-50.28473, -20.67706], [-50.2848, -20.67922], [-50.28442, -20.68155], [-50.28449, -20.68226], [-50.28494, -20.68351], [-50.28634, -20.68557], [-50.28629, -20.68779], [-50.28681, -20.68872], [-50.28803, -20.68977], [-50.28822, -20.69015], [-50.28778, -20.69401], [-50.28792, -20.69446], [-50.28854, -20.69524], [-50.28908, -20.69716], [-50.29008, -20.69952], [-50.29007, -20.70033], [-50.2897, -20.70171], [-50.28968, -20.70243], [-50.2903, -20.70312], [-50.29297, -20.7036], [-50.29418, -20.70489], [-50.29596, -20.70489], [-50.29705, -20.70674], [-50.29724, -20.70727], [-50.2972, -20.70818], [-50.29641, -20.70954], [-50.29592, -20.71123], [-50.29586, -20.71171], [-50.29619, -20.71277], [-50.3031, -20.71046], [-50.30464, -20.71039], [-50.30599, -20.71001], [-50.30704, -20.71009], [-50.3101, -20.71238], [-50.3143, -20.71484], [-50.31493, -20.71662], [-50.3157, -20.71756], [-50.31816, -20.71831], [-50.32132, -20.72006], [-50.32187, -20.72012], [-50.32408, -20.71978], [-50.32458, -20.72016], [-50.3258, -20.72049], [-50.32686, -20.72104], [-50.32803, -20.7212], [-50.33133, -20.72251], [-50.33433, -20.7231], [-50.3349, -20.72288], [-50.33567, -20.72217], [-50.3379, -20.72174], [-50.34101, -20.72204], [-50.35961, -20.72287], [-50.36036, -20.72272], [-50.36427, -20.7234], [-50.36646, -20.72292], [-50.36845, -20.72208], [-50.36923, -20.72237], [-50.37119, -20.72351], [-50.37202, -20.72372], [-50.37273, -20.72322], [-50.37364, -20.72305], [-50.37468, -20.72256], [-50.37504, -20.72271], [-50.37616, -20.72253], [-50.37754, -20.72268], [-50.37902, -20.72216], [-50.38159, -20.72269], [-50.38337, -20.72343], [-50.38471, -20.72299], [-50.3853, -20.72309], [-50.38551, -20.72298], [-50.38595, -20.72324], [-50.38637, -20.72306], [-50.38686, -20.72324], [-50.38747, -20.72315], [-50.38819, -20.7234], [-50.38867, -20.72336], [-50.38969, -20.72385], [-50.39018, -20.72375], [-50.39137, -20.72266], [-50.39225, -20.72236], [-50.39298, -20.72237], [-50.3933, -20.7226], [-50.39403, -20.72268], [-50.39528, -20.72323], [-50.39628, -20.72315], [-50.39692, -20.72328], [-50.39733, -20.72404], [-50.39763, -20.7234], [-50.39814, -20.72291], [-50.39944, -20.72232], [-50.39976, -20.72265], [-50.39979, -20.72163], [-50.40007, -20.72122], [-50.4008, -20.72133], [-50.40326, -20.7199], [-50.40534, -20.71945], [-50.4069, -20.71874], [-50.40798, -20.7178], [-50.40878, -20.71531], [-50.41129, -20.71419], [-50.4128, -20.71333], [-50.41587, -20.71082], [-50.41867, -20.70913], [-50.41782, -20.70731], [-50.41745, -20.70687], [-50.41481, -20.70627], [-50.41369, -20.70467], [-50.41302, -20.70399], [-50.41151, -20.70286], [-50.41019, -20.70226], [-50.40943, -20.70172], [-50.40911, -20.7006], [-50.40914, -20.69808], [-50.40826, -20.69671], [-50.40725, -20.69585], [-50.40343, -20.69501], [-50.39471, -20.69537], [-50.39381, -20.69504], [-50.3933, -20.69466], [-50.39067, -20.6923], [-50.38924, -20.69079], [-50.38896, -20.69034], [-50.38884, -20.6897], [-50.38762, -20.66856], [-50.38669, -20.66546], [-50.38616, -20.66479], [-50.38413, -20.66407], [-50.37874, -20.66312], [-50.37835, -20.66261], [-50.37709, -20.65954], [-50.3765, -20.6589], [-50.37578, -20.65854], [-50.3748, -20.65854], [-50.37353, -20.65911], [-50.3717, -20.65949], [-50.36955, -20.66036], [-50.36865, -20.66051], [-50.36756, -20.66038], [-50.3663, -20.65997], [-50.36376, -20.65847], [-50.36349, -20.66003], [-50.35939, -20.65948], [-50.35793, -20.65803], [-50.35851, -20.6581], [-50.35862, -20.65766], [-50.35951, -20.65776], [-50.3596, -20.65685], [-50.35927, -20.65669], [-50.35295, -20.65864], [-50.3548, -20.64448], [-50.35264, -20.64404], [-50.3513, -20.64357], [-50.34974, -20.64241], [-50.34587, -20.64218], [-50.3459, -20.64093], [-50.30111, -20.6397], [-50.3004, -20.64168], [-50.2992, -20.64258], [-50.298, -20.64246], [-50.29728, -20.64201], [-50.29651, -20.64133], [-50.29513, -20.63963], [-50.29406, -20.63928], [-50.29226, -20.63928], [-50.29158, -20.63946]], [[-50.39535, -20.71262], [-50.3992, -20.71138], [-50.40028, -20.71689], [-50.39679, -20.71811], [-50.39535, -20.71262]]]}}, 
{"type": "Feature", "properties": {"CD_SETOR": "351690305000014", "CD_SIT": "8", "NM_DIST": "General Salgado", "NM_SUBDIST": null}, "geometry": {"type": "Polygon", "coordinates": [[[-50.40826, -20.69671], [-50.40914, -20.69808], [-50.40911, -20.7006], [-50.40943, -20.70172], [-50.41019, -20.70226], [-50.41151, -20.70286], [-50.41302, -20.70399], [-50.41369, -20.70467], [-50.41481, -20.70627], [-50.41745, -20.70687], [-50.41782, -20.70731], [-50.41862, -20.70899], [-50.41885, -20.7098], [-50.41875, -20.71056], [-50.41695, -20.71311], [-50.41651, -20.71431], [-50.41645, -20.7176], [-50.41617, -20.71891], [-50.41672, -20.72039], [-50.41666, -20.72134], [-50.41437, -20.72503], [-50.41297, -20.72674], [-50.41285, -20.72777], [-50.41298, -20.72929], [-50.41378, -20.73454], [-50.41331, -20.736], [-50.41324, -20.73751], [-50.4136, -20.73946], [-50.41505, -20.7413], [-50.41586, -20.7418], [-50.41692, -20.74191], [-50.41907, -20.74162], [-50.41972, -20.74181], [-50.41992, -20.74227], [-50.41984, -20.74292], [-50.41857, -20.7449], [-50.41829, -20.74904], [-50.41951, -20.75321], [-50.42143, -20.75626], [-50.42207, -20.75892], [-50.42228, -20.76065], [-50.42308, -20.76187], [-50.4228, -20.76434], [-50.4228, -20.76767], [-50.42302, -20.76854], [-50.42387, -20.77017], [-50.42386, -20.7708], [-50.42343, -20.7715], [-50.4228, -20.77203], [-50.42138, -20.77277], [-50.42094, -20.77317], [-50.42063, -20.77392], [-50.42089, -20.77479], [-50.42215, -20.7768], [-50.42263, -20.77832], [-50.42438, -20.79077], [-50.42482, -20.79135], [-50.42831, -20.79304], [-50.42965, -20.79385], [-50.43222, -20.79652], [-50.43232, -20.79697], [-50.43193, -20.79817], [-50.43197, -20.79902], [-50.43219, -20.79972], [-50.43259, -20.80012], [-50.43316, -20.80018], [-50.44021, -20.79827], [-50.44381, -20.80001], [-50.44588, -20.80066], [-50.44842, -20.80103], [-50.44948, -20.80102], [-50.44994, -20.80087], [-50.45236, -20.79903], [-50.45308, -20.79759], [-50.45376, -20.79418], [-50.45438, -20.79207], [-50.45467, -20.78579], [-50.45459, -20.78422], [-50.45528, -20.78121], [-50.4559, -20.77979], [-50.45675, -20.7786], [-50.45796, -20.77787], [-50.45861, -20.77775], [-50.46065, -20.77779], [-50.46173, -20.77689], [-50.50558, -20.76161], [-50.50557, -20.76036], [-50.50594, -20.75984], [-50.50592, -20.75913], [-50.50533, -20.7581], [-50.50491, -20.75682], [-50.50517, -20.75566], [-50.50585, -20.75466], [-50.50574, -20.75123], [-50.50519, -20.74988], [-50.50395, -20.74875], [-50.50292, -20.74724], [-50.50289, -20.74594], [-50.50213, -20.74431], [-50.50201, -20.74302], [-50.50283, -20.74137], [-50.50293, -20.74072], [-50.50241, -20.74009], [-50.50141, -20.73971], [-50.50087, -20.73913], [-50.50001, -20.73753], [-50.49976, -20.7365], [-50.49974, -20.73601], [-50.50005, -20.73522], [-50.50015, -20.73445], [-50.50041, -20.73396], [-50.50019, -20.73356], [-50.50102, -20.73298], [-50.50126, -20.73249], [-50.50126, -20.73153], [-50.50106, -20.73102], [-50.5001, -20.73006], [-50.50003, -20.72941], [-50.50025, -20.72908], [-50.50039, -20.72838], [-50.50118, -20.72758], [-50.50108, -20.72732], [-50.50214, -20.7262], [-50.50229, -20.72504], [-50.50212, -20.72437], [-50.50146, -20.72293], [-50.50065, -20.72191], [-50.49821, -20.71972], [-50.49776, -20.71843], [-50.49816, -20.7157], [-50.49807, -20.7146], [-50.49694, -20.71275], [-50.4966, -20.71035], [-50.49564, -20.70921], [-50.49527, -20.7081], [-50.49415, -20.70681], [-50.49444, -20.70551], [-50.49424, -20.70458], [-50.49333, -20.70437], [-50.49276, -20.7052], [-50.49232, -20.70528], [-50.49164, -20.70425], [-50.49016, -20.70318], [-50.48985, -20.70214], [-50.48927, -20.70154], [-50.48812, -20.70101], [-50.48604, -20.70076], [-50.48525, -20.70025], [-50.48469, -20.69949], [-50.48332, -20.69689], [-50.48213, -20.69698], [-50.48169, -20.69677], [-50.48104, -20.69676], [-50.48094, -20.69659], [-50.48104, -20.69695], [-50.48147, -20.697], [-50.48151, -20.69718], [-50.48093, -20.69769], [-50.48057, -20.69775], [-50.48019, -20.69734], [-50.47968, -20.69794], [-50.47892, -20.6978], [-50.47863, -20.69804], [-50.47766, -20.69772], [-50.47729, -20.69793], [-50.47707, -20.6978], [-50.47685, -20.69796], [-50.47661, -20.69783], [-50.4762, -20.69792], [-50.47603, -20.69784], [-50.47584, -20.69724], [-50.47514, -20.69698], [-50.47491, -20.69666], [-50.47379, -20.696], [-50.47363, -20.69606], [-50.47332, -20.69664], [-50.47267, -20.69689], [-50.47154, -20.69859], [-50.47122, -20.69865], [-50.47119, -20.69935], [-50.47002, -20.70041], [-50.46951, -20.70139], [-50.46971, -20.70193], [-50.46965, -20.70268], [-50.46906, -20.703], [-50.46907, -20.70331], [-50.46874, -20.70358], [-50.46875, -20.70415], [-50.46853, -20.70451], [-50.46709, -20.70518], [-50.46681, -20.70502], [-50.46644, -20.70527], [-50.46586, -20.70533], [-50.46504, -20.70584], [-50.46457, -20.70571], [-50.46342, -20.70595], [-50.46314, -20.70582], [-50.46277, -20.706], [-50.46259, -20.70573], [-50.46093, -20.70523], [-50.45959, -20.70558], [-50.45819, -20.70539], [-50.45792, -20.70522], [-50.45792, -20.70502], [-50.45768, -20.70479], [-50.45736, -20.70487], [-50.45698, -20.70439], [-50.45598, -20.70392], [-50.45537, -20.70327], [-50.45522, -20.70281], [-50.45478, -20.70272], [-50.4548, -20.70219], [-50.45442, -20.70148], [-50.45349, -20.70065], [-50.45331, -20.70001], [-50.45294, -20.69981], [-50.45263, -20.69935], [-50.45254, -20.69874], [-50.45183, -20.69803], [-50.45111, -20.69785], [-50.45047, -20.69805], [-50.44998, -20.69799], [-50.44958, -20.69763], [-50.44824, -20.6974], [-50.44745, -20.69772], [-50.44715, -20.6977], [-50.44656, -20.69742], [-50.44478, -20.69598], [-50.44333, -20.69549], [-50.4428, -20.69609], [-50.44267, -20.69652], [-50.44155, -20.69659], [-50.44136, -20.6969], [-50.44106, -20.69704], [-50.4405, -20.69704], [-50.43829, -20.69637], [-50.43667, -20.69662], [-50.43433, -20.69602], [-50.43348, -20.69603], [-50.43236, -20.6956], [-50.42971, -20.69656], [-50.42848, -20.69679], [-50.42774, -20.69668], [-50.42541, -20.69696], [-50.42288, -20.69704], [-50.42188, -20.69694], [-50.42098, -20.69628], [-50.41912, -20.6957], [-50.41647, -20.69524], [-50.409, -20.69586], [-50.40826, -20.69671]]]}}, 
{"type": "Feature", "properties": {"CD_SETOR": "351690305000015", "CD_SIT": "8", "NM_DIST": "General Salgado", "NM_SUBDIST": null}, "geometry": {"type": "Polygon", "coordinates": [[[-50.37683, -20.64693], [-50.37561, -20.64796], [-50.37559, -20.6482], [-50.3748, -20.64911], [-50.37315, -20.65064], [-50.37243, -20.6511], [-50.37158, -20.65147], [-50.3714, -20.65142], [-50.37032, -20.65201], [-50.36686, -20.65216], [-50.36547, -20.65258], [-50.36462, -20.659], [-50.36682, -20.66017], [-50.36884, -20.66051], [-50.3717, -20.65949], [-50.37353, -20.65911], [-50.3748, -20.65854], [-50.3759, -20.65856], [-50.37662, -20.65901], [-50.37731, -20.65988], [-50.37798, -20.6618], [-50.37874, -20.66312], [-50.38456, -20.66417], [-50.38578, -20.66457], [-50.38648, -20.66508], [-50.38762, -20.66856], [-50.3889, -20.69015], [-50.38924, -20.69079], [-50.39067, -20.6923], [-50.39381, -20.69504], [-50.39471, -20.69537], [-50.39542, -20.69537], [-50.40357, -20.69502], [-50.40698, -20.69574], [-50.40826, -20.69671], [-50.409, -20.69586], [-50.41647, -20.69524], [-50.41775, -20.6954], [-50.4205, -20.69609], [-50.42188, -20.69694], [-50.42356, -20.69707], [-50.42774, -20.69668], [-50.42848, -20.69679], [-50.42971, -20.69656], [-50.43236, -20.6956], [-50.43348, -20.69603], [-50.43433, -20.69602], [-50.43667, -20.69662], [-50.43829, -20.69637], [-50.4405, -20.69704], [-50.44106, -20.69704], [-50.44136, -20.6969], [-50.44155, -20.69659], [-50.44267, -20.69652], [-50.4428, -20.69609], [-50.44333, -20.69549], [-50.44478, -20.69598], [-50.44656, -20.69742], [-50.44715, -20.6977], [-50.44745, -20.69772], [-50.44824, -20.6974], [-50.44958, -20.69763], [-50.44998, -20.69799], [-50.45047, -20.69805], [-50.45111, -20.69785], [-50.45183, -20.69803], [-50.45254, -20.69874], [-50.45263, -20.69935], [-50.45294, -20.69981], [-50.45331, -20.70001], [-50.45349, -20.70065], [-50.45442, -20.70148], [-50.4548, -20.70219], [-50.45478, -20.70272], [-50.45522, -20.70281], [-50.45537, -20.70327], [-50.45598, -20.70392], [-50.45698, -20.70439], [-50.45736, -20.70487], [-50.45768, -20.70479], [-50.45792, -20.70502], [-50.45792, -20.70522], [-50.45819, -20.70539], [-50.45959, -20.70558], [-50.46093, -20.70523], [-50.46259, -20.70573], [-50.46277, -20.706], [-50.46314, -20.70582], [-50.46342, -20.70595], [-50.46457, -20.70571], [-50.46504, -20.70584], [-50.46586, -20.70533], [-50.46644, -20.70527], [-50.46681, -20.70502], [-50.46709, -20.70518], [-50.46853, -20.70451], [-50.46875, -20.70415], [-50.46874, -20.70358], [-50.46907, -20.70331], [-50.46906, -20.703], [-50.46965, -20.70268], [-50.46971, -20.70193], [-50.46951, -20.70139], [-50.47002, -20.70041], [-50.47119, -20.69935], [-50.47122, -20.69865], [-50.47154, -20.69859], [-50.47267, -20.69689], [-50.47332, -20.69664], [-50.47363, -20.69606], [-50.47379, -20.696], [-50.47491, -20.69666], [-50.47514, -20.69698], [-50.47584, -20.69724], [-50.47603, -20.69784], [-50.4762, -20.69792], [-50.47661, -20.69783], [-50.47685, -20.69796], [-50.47707, -20.6978], [-50.47729, -20.69793], [-50.47766, -20.69772], [-50.47863, -20.69804], [-50.47892, -20.6978], [-50.47968, -20.69794], [-50.4801, -20.69737], [-50.48027, -20.69735], [-50.48057, -20.69775], [-50.48103, -20.69765], [-50.48151, -20.69718], [-50.48147, -20.697], [-50.48104, -20.69695], [-50.48018, -20.69542], [-50.47987, -20.69451], [-50.47955, -20.69251], [-50.47846, -20.6901], [-50.47837, -20.68957], [-50.47856, -20.68868], [-50.47824, -20.68849], [-50.47699, -20.68824], [-50.47651, -20.68777], [-50.47662, -20.6856], [-50.47756, -20.68263], [-50.47763, -20.68046], [-50.47868, -20.67823], [-50.47958, -20.67574], [-50.48051, -20.67422], [-50.47983, -20.67109], [-50.47992, -20.6692], [-50.48025, -20.6671], [-50.48119, -20.66467], [-50.48325, -20.66029], [-50.48165, -20.6591], [-50.48106, -20.65838], [-50.48002, -20.65642], [-50.47981, -20.6556], [-50.47967, -20.65354], [-50.48021, -20.65259], [-50.47333, -20.65181], [-50.47064, -20.65166], [-50.43251, -20.6519], [-50.37966, -20.64393], [-50.37912, -20.64457], [-50.37876, -20.64467], [-50.37883, -20.64487], [-50.37779, -20.64557], [-50.37768, -20.64582], [-50.37686, -20.64645], [-50.37683, -20.64693]], [[-50.45298, -20.66188], [-50.45253, -20.66126], [-50.45458, -20.65933], [-50.45517, -20.65989], [-50.45706, -20.65796], [-50.45845, -20.65922], [-50.45851, -20.65976], [-50.4581, -20.66157], [-50.45713, -20.66343], [-50.45631, -20.66331], [-50.4558, -20.66287], [-50.45421, -20.66364], [-50.45298, -20.66188]]]}}, 
{"type": "Feature", "properties": {"CD_SETOR": "351690305000016", "CD_SIT": "8", "NM_DIST": "General Salgado", "NM_SUBDIST": null}, "geometry": {"type": "Polygon", "coordinates": [[[-50.38932, -20.56898], [-50.38953, -20.57071], [-50.38916, -20.57237], [-50.38497, -20.57953], [-50.38416, -20.58137], [-50.38348, -20.58482], [-50.3826, -20.59089], [-50.38155, -20.59573], [-50.38004, -20.60001], [-50.37932, -20.60363], [-50.37774, -20.60906], [-50.37543, -20.61868], [-50.37437, -20.62145], [-50.37223, -20.62574], [-50.37093, -20.62873], [-50.37385, -20.62804], [-50.36845, -20.63988], [-50.3739, -20.63799], [-50.37966, -20.64393], [-50.43203, -20.65185], [-50.43542, -20.65196], [-50.47064, -20.65166], [-50.47333, -20.65181], [-50.48021, -20.65259], [-50.48183, -20.65102], [-50.48196, -20.64672], [-50.48235, -20.6455], [-50.48266, -20.64511], [-50.48307, -20.64485], [-50.48413, -20.64483], [-50.48543, -20.64518], [-50.48683, -20.64604], [-50.48957, -20.64675], [-50.4904, -20.64663], [-50.49069, -20.64644], [-50.49116, -20.64591], [-50.49374, -20.64398], [-50.49591, -20.64162], [-50.49812, -20.63969], [-50.50154, -20.63554], [-50.50515, -20.63282], [-50.50586, -20.63186], [-50.50618, -20.63108], [-50.50861, -20.62761], [-50.51023, -20.62453], [-50.5115, -20.62333], [-50.51166, -20.62226], [-50.51158, -20.62175], [-50.51086, -20.62104], [-50.51071, -20.62058], [-50.51084, -20.61834], [-50.51061, -20.61711], [-50.5101, -20.61618], [-50.50928, -20.61515], [-50.50914, -20.61443], [-50.50905, -20.61288], [-50.50939, -20.61194], [-50.50975, -20.61132], [-50.51048, -20.61062], [-50.51062, -20.61012], [-50.51042, -20.60962], [-50.50953, -20.60874], [-50.50925, -20.60697], [-50.50871, -20.60615], [-50.50695, -20.60619], [-50.50507, -20.6057], [-50.50466, -20.60593], [-50.50439, -20.60646], [-50.50382, -20.60703], [-50.50317, -20.60721], [-50.50265, -20.60717], [-50.50205, -20.60689], [-50.50086, -20.60565], [-50.49981, -20.60491], [-50.49954, -20.60495], [-50.49845, -20.6058], [-50.49786, -20.60596], [-50.49601, -20.60595], [-50.49457, -20.60641], [-50.49087, -20.60682], [-50.48878, -20.60773], [-50.48773, -20.60745], [-50.48622, -20.60595], [-50.48569, -20.60595], [-50.48532, -20.60618], [-50.47967, -20.61305], [-50.47803, -20.61552], [-50.47548, -20.62044], [-50.47435, -20.62177], [-50.47384, -20.62188], [-50.4735, -20.62167], [-50.47331, -20.62135], [-50.47327, -20.61936], [-50.47441, -20.61703], [-50.47476, -20.61488], [-50.47368, -20.61344], [-50.47269, -20.61293], [-50.47247, -20.61177], [-50.47253, -20.61041], [-50.47233, -20.60998], [-50.47142, -20.60863], [-50.47026, -20.60842], [-50.47038, -20.60709], [-50.46978, -20.60634], [-50.46903, -20.60592], [-50.46878, -20.60323], [-50.46885, -20.60233], [-50.46852, -20.60188], [-50.46827, -20.60039], [-50.46841, -20.60012], [-50.46808, -20.59985], [-50.46818, -20.59964], [-50.46784, -20.59893], [-50.46782, -20.59847], [-50.46843, -20.59733], [-50.46882, -20.59707], [-50.46881, -20.5968], [-50.46998, -20.5964], [-50.47086, -20.59552], [-50.47096, -20.59489], [-50.47161, -20.5935], [-50.47173, -20.59268], [-50.47131, -20.59145], [-50.47131, -20.59027], [-50.47156, -20.58814], [-50.47186, -20.58771], [-50.47174, -20.58728], [-50.47183, -20.58629], [-50.47275, -20.58383], [-50.47303, -20.5836], [-50.47273, -20.58332], [-50.47255, -20.58257], [-50.47288, -20.58066], [-50.47314, -20.58023], [-50.47347, -20.58013], [-50.47395, -20.5793], [-50.47479, -20.57879], [-50.47498, -20.57813], [-50.47685, -20.5762], [-50.47748, -20.57532], [-50.47778, -20.5743], [-50.47758, -20.57426], [-50.4773, -20.57445], [-50.47648, -20.57404], [-50.47599, -20.57407], [-50.47525, -20.5743], [-50.47448, -20.5748], [-50.47402, -20.57477], [-50.47374, -20.57504], [-50.47338, -20.57505], [-50.47285, -20.57471], [-50.47281, -20.57428], [-50.472, -20.574], [-50.47077, -20.57433], [-50.47056, -20.57476], [-50.4697, -20.57529], [-50.46948, -20.5751], [-50.46859, -20.57505], [-50.46788, -20.57483], [-50.46709, -20.57489], [-50.46611, -20.57525], [-50.46566, -20.57581], [-50.46521, -20.57687], [-50.46469, -20.57748], [-50.46395, -20.578], [-50.46339, -20.57808], [-50.46254, -20.57852], [-50.46216, -20.57836], [-50.46092, -20.57871], [-50.46046, -20.57805], [-50.45955, -20.57765], [-50.45878, -20.57808], [-50.45777, -20.57827], [-50.45602, -20.57922], [-50.45582, -20.57856], [-50.45372, -20.57827], [-50.45303, -20.57877], [-50.45258, -20.57884], [-50.45218, -20.57949], [-50.4516, -20.57987], [-50.45122, -20.5799], [-50.45086, -20.5802], [-50.45048, -20.58025], [-50.45023, -20.5801], [-50.4498, -20.58031], [-50.44965, -20.58068], [-50.44971, -20.58118], [-50.44869, -20.58193], [-50.44756, -20.58252], [-50.44744, -20.58291], [-50.44703, -20.58337], [-50.4464, -20.58372], [-50.44614, -20.5836], [-50.44601, -20.5834], [-50.44622, -20.58316], [-50.44623, -20.58277], [-50.44608, -20.58266], [-50.44512, -20.58315], [-50.44493, -20.58342], [-50.44489, -20.58469], [-50.44504, -20.58533], [-50.44476, -20.58612], [-50.44407, -20.58602], [-50.4432, -20.58666], [-50.44232, -20.58695], [-50.44166, -20.58695], [-50.44022, -20.58768], [-50.43953, -20.5887], [-50.43934, -20.58847], [-50.43872, -20.58839], [-50.43795, -20.58788], [-50.43777, -20.58733], [-50.43688, -20.58628], [-50.43642, -20.58539], [-50.43606, -20.5852], [-50.43568, -20.58453], [-50.43495, -20.58384], [-50.43431, -20.58336], [-50.43141, -20.58187], [-50.43006, -20.58044], [-50.42799, -20.57886], [-50.4272, -20.57772], [-50.42721, -20.57634], [-50.42778, -20.5735], [-50.42771, -20.57208], [-50.42745, -20.57095], [-50.42559, -20.56732], [-50.42553, -20.56623], [-50.42556, -20.56576], [-50.426, -20.56474], [-50.42726, -20.56281], [-50.42766, -20.56088], [-50.4268, -20.55837], [-50.42673, -20.55668], [-50.4262, -20.55541], [-50.42434, -20.55257], [-50.42399, -20.55147], [-50.42351, -20.55097], [-50.42288, -20.54819], [-50.42184, -20.54769], [-50.4206, -20.54766], [-50.41942, -20.54856], [-50.41813, -20.54901], [-50.41777, -20.54989], [-50.41674, -20.55001], [-50.41565, -20.55041], [-50.41518, -20.55116], [-50.41478, -20.55187], [-50.41506, -20.55267], [-50.41458, -20.55307], [-50.4145, -20.5536], [-50.41398, -20.55455], [-50.41308, -20.55546], [-50.41266, -20.55619], [-50.41267, -20.55705], [-50.4129, -20.55757], [-50.41349, -20.55809], [-50.41434, -20.55931], [-50.41408, -20.56104], [-50.41286, -20.56108], [-50.412, -20.56163], [-50.4113, -20.56162], [-50.41017, -20.56344], [-50.40897, -20.56336], [-50.40688, -20.56452], [-50.40616, -20.5652], [-50.40569, -20.56611], [-50.40538, -20.56639], [-50.40387, -20.56661], [-50.40228, -20.56585], [-50.40107, -20.56568], [-50.39801, -20.56654], [-50.39772, -20.56733], [-50.39688, -20.56748], [-50.39591, -20.56827], [-50.39539, -20.56834], [-50.39444, -20.56797], [-50.39317, -20.56797], [-50.39265, -20.56854], [-50.39144, -20.56821], [-50.38932, -20.56898]]]}}, 
{"type": "Feature", "properties": {"CD_SETOR": "351690305000017", "CD_SIT": "8", "NM_DIST": "General Salgado", "NM_SUBDIST": null}, "geometry": {"type": "Polygon", "coordinates": [[[-50.28588, -20.58603], [-50.28434, -20.58725], [-50.28363, -20.58803], [-50.2826, -20.59078], [-50.28147, -20.59311], [-50.28109, -20.59362], [-50.2797, -20.59396], [-50.27955, -20.59426], [-50.27965, -20.5949], [-50.28016, -20.59566], [-50.28079, -20.59708], [-50.2835, -20.60083], [-50.28478, -20.60231], [-50.28801, -20.60526], [-50.29047, -20.60786], [-50.29153, -20.60845], [-50.29285, -20.60887], [-50.29326, -20.60919], [-50.29394, -20.61085], [-50.29488, -20.61239], [-50.29513, -20.61324], [-50.29535, -20.61528], [-50.29598, -20.61665], [-50.29683, -20.61955], [-50.29875, -20.62258], [-50.29947, -20.62471], [-50.30175, -20.62851], [-50.30203, -20.62938], [-50.3021, -20.63115], [-50.30274, -20.63382], [-50.30277, -20.63554], [-50.30198, -20.63825], [-50.30111, -20.6397], [-50.3459, -20.64093], [-50.34994, -20.63634], [-50.35232, -20.63627], [-50.35404, -20.63552], [-50.3556, -20.63463], [-50.35711, -20.63352], [-50.35995, -20.63228], [-50.36085, -20.6316], [-50.36144, -20.63078], [-50.36318, -20.62988], [-50.36746, -20.62911], [-50.37093, -20.62873], [-50.37223, -20.62574], [-50.37437, -20.62145], [-50.37554, -20.61833], [-50.37774, -20.60906], [-50.37932, -20.60363], [-50.38004, -20.60001], [-50.38155, -20.59573], [-50.3826, -20.59089], [-50.38348, -20.58482], [-50.38416, -20.58137], [-50.38497, -20.57953], [-50.38916, -20.57237], [-50.38949, -20.57127], [-50.38949, -20.5701], [-50.38926, -20.56898], [-50.38823, -20.56908], [-50.38653, -20.56778], [-50.38534, -20.56767], [-50.3828, -20.56686], [-50.3811, -20.56675], [-50.38037, -20.56722], [-50.37825, -20.56801], [-50.37444, -20.56866], [-50.3737, -20.56917], [-50.3719, -20.56899], [-50.37145, -20.56959], [-50.37027, -20.57047], [-50.36898, -20.57056], [-50.36588, -20.56906], [-50.36364, -20.56934], [-50.35964, -20.56892], [-50.35746, -20.56935], [-50.35247, -20.56934], [-50.3511, -20.5689], [-50.35044, -20.5685], [-50.34859, -20.568], [-50.34719, -20.56808], [-50.34667, -20.56897], [-50.34548, -20.56988], [-50.34385, -20.57037], [-50.34292, -20.57038], [-50.34125, -20.56984], [-50.33853, -20.56925], [-50.33835, -20.56888], [-50.33835, -20.56753], [-50.33696, -20.56664], [-50.33611, -20.56667], [-50.3349, -20.56584], [-50.33426, -20.56584], [-50.33339, -20.56628], [-50.33278, -20.5663], [-50.33211, -20.56599], [-50.33158, -20.56549], [-50.3297, -20.56427], [-50.3283, -20.5643], [-50.32761, -20.56497], [-50.32637, -20.56555], [-50.32578, -20.56752], [-50.32551, -20.56964], [-50.32464, -20.5706], [-50.31824, -20.57098], [-50.31518, -20.57137], [-50.31054, -20.57309], [-50.30911, -20.57347], [-50.30791, -20.57417], [-50.30772, -20.57552], [-50.30656, -20.57604], [-50.30533, -20.57695], [-50.30164, -20.57764], [-50.2999, -20.57833], [-50.29827, -20.57866], [-50.29789, -20.57899], [-50.29604, -20.58168], [-50.29528, -20.58235], [-50.29469, -20.58261], [-50.29289, -20.58258], [-50.2919, -20.58334], [-50.29084, -20.5839], [-50.28931, -20.58338], [-50.28804, -20.58393], [-50.28588, -20.58603]]]}}, 
{"type": "Feature", "properties": {"CD_SETOR": "351690305000019", "CD_SIT": "2", "NM_DIST": "General Salgado", "NM_SUBDIST": null}, "geometry": {"type": "Polygon", "coordinates": [[[-50.36376, -20.65847], [-50.36302, -20.65802], [-50.35992, -20.65707], [-50.3596, -20.65685], [-50.35951, -20.65776], [-50.35862, -20.65766], [-50.35851, -20.6581], [-50.35793, -20.65803], [-50.35939, -20.65948], [-50.36349, -20.66003], [-50.36376, -20.65847]]]}}, 
{"type": "Feature", "properties": {"CD_SETOR": "351690305000020", "CD_SIT": "3", "NM_DIST": "General Salgado", "NM_SUBDIST": null}, "geometry": {"type": "Polygon", "coordinates": [[[-50.45298, -20.66188], [-50.45517, -20.65989], [-50.45458, -20.65933], [-50.45253, -20.66126], [-50.45298, -20.66188]]]}}, 
{"type": "Feature", "properties": {"CD_SETOR": "351690305000021", "CD_SIT": "1", "NM_DIST": "General Salgado", "NM_SUBDIST": null}, "geometry": {"type": "Polygon", "coordinates": [[[-50.35603, -20.6512], [-50.35906, -20.6515], [-50.35918, -20.65066], [-50.3582, -20.65056], [-50.35842, -20.64873], [-50.35501, -20.64836], [-50.3549, -20.6493], [-50.35608, -20.6494], [-50.35592, -20.65079], [-50.35603, -20.6512]]]}}, 
{"type": "Feature", "properties": {"CD_SETOR": "351690305000022", "CD_SIT": "1", "NM_DIST": "General Salgado", "NM_SUBDIST": null}, "geometry": {"type": "Polygon", "coordinates": [[[-50.3574, -20.65719], [-50.35846, -20.65685], [-50.35906, -20.6515], [-50.35603, -20.6512], [-50.35603, -20.65279], [-50.35509, -20.65266], [-50.35534, -20.65352], [-50.35625, -20.65366], [-50.35613, -20.65327], [-50.35781, -20.65287], [-50.35779, -20.65369], [-50.35881, -20.65338], [-50.35873, -20.65401], [-50.35674, -20.65464], [-50.35659, -20.65429], [-50.35612, -20.65453], [-50.35676, -20.65602], [-50.35756, -20.65561], [-50.3574, -20.65719]]]}}, 
{"type": "Feature", "properties": {"CD_SETOR": "351690305000023", "CD_SIT": "8", "NM_DIST": "General Salgado", "NM_SUBDIST": null}, "geometry": {"type": "Polygon", "coordinates": [[[-50.3574, -20.65719], [-50.35756, -20.65561], [-50.35676, -20.65602], [-50.35612, -20.65453], [-50.35659, -20.65429], [-50.35674, -20.65464], [-50.35873, -20.65401], [-50.35881, -20.65338], [-50.35779, -20.65369], [-50.35781, -20.65287], [-50.35613, -20.65327], [-50.35625, -20.65366], [-50.35534, -20.65352], [-50.35509, -20.65266], [-50.35603, -20.65279], [-50.3561, -20.65159], [-50.35592, -20.65079], [-50.35608, -20.6494], [-50.3549, -20.6493], [-50.35501, -20.64836], [-50.35432, -20.64834], [-50.35295, -20.65864], [-50.3574, -20.65719]]]}}, 
{"type": "Feature", "properties": {"CD_SETOR": "351690305000024", "CD_SIT": "1", "NM_DIST": "General Salgado", "NM_SUBDIST": null}, "geometry": {"type": "Polygon", "coordinates": [[[-50.35954, -20.65531], [-50.35943, -20.6565], [-50.3598, -20.65702], [-50.36324, -20.65811], [-50.36405, -20.6573], [-50.3643, -20.65647], [-50.36146, -20.65561], [-50.36149, -20.65536], [-50.36105, -20.65524], [-50.35954, -20.65531]]]}}, 
{"type": "Feature", "properties": {"CD_SETOR": "351690305000025", "CD_SIT": "1", "NM_DIST": "General Salgado", "NM_SUBDIST": null}, "geometry": {"type": "Polygon", "coordinates": [[[-50.35981, -20.6532], [-50.36033, -20.65326], [-50.36035, -20.65297], [-50.36261, -20.65293], [-50.36426, -20.65255], [-50.36409, -20.65193], [-50.35991, -20.65236], [-50.35981, -20.6532]]]}}, 
{"type": "Feature", "properties": {"CD_SETOR": "351690305000026", "CD_SIT": "8", "NM_DIST": "General Salgado", "NM_SUBDIST": null}, "geometry": {"type": "Polygon", "coordinates": [[[-50.35981, -20.6532], [-50.35954, -20.65531], [-50.36105, -20.65524], [-50.36149, -20.65536], [-50.36146, -20.65561], [-50.3643, -20.65647], [-50.36405, -20.6573], [-50.36324, -20.65811], [-50.36462, -20.659], [-50.36547, -20.65258], [-50.36431, -20.65275], [-50.36426, -20.65255], [-50.36261, -20.65293], [-50.36035, -20.65297], [-50.36033, -20.65326], [-50.35981, -20.6532]]]}}, 
{"type": "Feature", "properties": {"CD_SETOR": "351690305000027", "CD_SIT": "1", "NM_DIST": "General Salgado", "NM_SUBDIST": null}, "geometry": {"type": "Polygon", "coordinates": [[[-50.36428, -20.64658], [-50.36388, -20.65023], [-50.36616, -20.65026], [-50.36635, -20.64806], [-50.36791, -20.64815], [-50.3677, -20.65002], [-50.36958, -20.65013], [-50.3696, -20.64989], [-50.37118, -20.65001], [-50.37173, -20.64642], [-50.36996, -20.6462], [-50.36984, -20.64719], [-50.36428, -20.64658]]]}}, 
{"type": "Feature", "properties": {"CD_SETOR": "351690305000028", "CD_SIT": "8", "NM_DIST": "General Salgado", "NM_SUBDIST": null}, "geometry": {"type": "Polygon", "coordinates": [[[-50.37173, -20.64642], [-50.37118, -20.65001], [-50.3696, -20.64989], [-50.36958, -20.65013], [-50.3677, -20.65002], [-50.36791, -20.64815], [-50.36635, -20.64806], [-50.36616, -20.65026], [-50.36326, -20.65019], [-50.36311, -20.6515], [-50.36399, -20.65146], [-50.36431, -20.65275], [-50.36488, -20.65275], [-50.36686, -20.65216], [-50.37032, -20.65201], [-50.37315, -20.65064], [-50.3748, -20.64911], [-50.37559, -20.6482], [-50.37561, -20.64796], [-50.37683, -20.64703], [-50.37173, -20.64642]]]}}, 
{"type": "Feature", "properties": {"CD_SETOR": "351690305000029", "CD_SIT": "1", "NM_DIST": "General Salgado", "NM_SUBDIST": null}, "geometry": {"type": "Polygon", "coordinates": [[[-50.36912, -20.64251], [-50.36906, -20.64312], [-50.37212, -20.64359], [-50.37225, -20.6428], [-50.37417, -20.64309], [-50.37439, -20.64181], [-50.3694, -20.641], [-50.3693, -20.6416], [-50.36891, -20.64153], [-50.36884, -20.64198], [-50.36922, -20.64202], [-50.36912, -20.64251]]]}}, 
{"type": "Feature", "properties": {"CD_SETOR": "351690305000030", "CD_SIT": "2", "NM_DIST": "General Salgado", "NM_SUBDIST": null}, "geometry": {"type": "Polygon", "coordinates": [[[-50.37093, -20.62873], [-50.3699, -20.63105], [-50.36541, -20.64089], [-50.36845, -20.63988], [-50.37385, -20.62804], [-50.37093, -20.62873]]]}}, 
{"type": "Feature", "properties": {"CD_SETOR": "351690305000031", "CD_SIT": "8", "NM_DIST": "General Salgado", "NM_SUBDIST": null}, "geometry": {"type": "Polygon", "coordinates": [[[-50.36845, -20.63988], [-50.36541, -20.64089], [-50.36516, -20.64186], [-50.36769, -20.64211], [-50.36912, -20.64251], [-50.36922, -20.64202], [-50.36884, -20.64198], [-50.36891, -20.64153], [-50.3693, -20.6416], [-50.3694, -20.641], [-50.37437, -20.64179], [-50.37417, -20.64309], [-50.37966, -20.64393], [-50.3739, -20.63799], [-50.36845, -20.63988]]]}}, 
{"type": "Feature", "properties": {"CD_SETOR": "351690305000032", "CD_SIT": "1", "NM_DIST": "General Salgado", "NM_SUBDIST": null}, "geometry": {"type": "Polygon", "coordinates": [[[-50.3573, -20.64384], [-50.35794, -20.64422], [-50.35874, -20.64503], [-50.36075, -20.64526], [-50.36111, -20.64228], [-50.36462, -20.64263], [-50.36486, -20.64207], [-50.36217, -20.6418], [-50.35839, -20.64172], [-50.3573, -20.64384]]]}}, 
{"type": "Feature", "properties": {"CD_SETOR": "351690305000033", "CD_SIT": "2", "NM_DIST": "General Salgado", "NM_SUBDIST": null}, "geometry": {"type": "Polygon", "coordinates": [[[-50.3477, -20.6389], [-50.3459, -20.64093], [-50.35121, -20.64108], [-50.35146, -20.6415], [-50.35274, -20.64254], [-50.35336, -20.64273], [-50.35514, -20.64287], [-50.3573, -20.64384], [-50.35839, -20.64172], [-50.36217, -20.6418], [-50.36486, -20.64207], [-50.36522, -20.64179], [-50.36528, -20.64115], [-50.36853, -20.63403], [-50.36725, -20.63353], [-50.36385, -20.63925], [-50.36289, -20.63881], [-50.36232, -20.63973], [-50.36118, -20.63931], [-50.3608, -20.63982], [-50.36201, -20.64022], [-50.36142, -20.64138], [-50.35853, -20.64129], [-50.35858, -20.64], [-50.35427, -20.63987], [-50.35427, -20.64025], [-50.35102, -20.64021], [-50.35034, -20.64089], [-50.34856, -20.64069], [-50.34949, -20.63952], [-50.3477, -20.6389]]]}}, 
{"type": "Feature", "properties": {"CD_SETOR": "351690305000034", "CD_SIT": "8", "NM_DIST": "General Salgado", "NM_SUBDIST": null}, "geometry": {"type": "Polygon", "coordinates": [[[-50.3477, -20.6389], [-50.34949, -20.63952], [-50.34856, -20.64069], [-50.35034, -20.64089], [-50.35102, -20.64021], [-50.35427, -20.64025], [-50.35427, -20.63987], [-50.35858, -20.64], [-50.35853, -20.64129], [-50.36142, -20.64138], [-50.36201, -20.64022], [-50.3608, -20.63982], [-50.36118, -20.63931], [-50.36232, -20.63973], [-50.36289, -20.63881], [-50.36385, -20.63925], [-50.36725, -20.63353], [-50.36853, -20.63403], [-50.37093, -20.62873], [-50.36746, -20.62911], [-50.36318, -20.62988], [-50.36144, -20.63078], [-50.36085, -20.6316], [-50.35995, -20.63228], [-50.35711, -20.63352], [-50.3556, -20.63463], [-50.35404, -20.63552], [-50.35232, -20.63627], [-50.34994, -20.63634], [-50.3477, -20.6389]]]}}, 
{"type": "Feature", "properties": {"CD_SETOR": "351690305000035", "CD_SIT": "1", "NM_DIST": "General Salgado", "NM_SUBDIST": null}, "geometry": {"type": "Polygon", "coordinates": [[[-50.35969, -20.64611], [-50.36164, -20.64631], [-50.36142, -20.64814], [-50.36406, -20.64842], [-50.36439, -20.6456], [-50.3598, -20.64516], [-50.35969, -20.64611]]]}}, 
{"type": "Feature", "properties": {"CD_SETOR": "351690305000036", "CD_SIT": "1", "NM_DIST": "General Salgado", "NM_SUBDIST": null}, "geometry": {"type": "Polygon", "coordinates": [[[-50.35938, -20.64884], [-50.35927, -20.64974], [-50.36388, -20.65023], [-50.36406, -20.64842], [-50.36142, -20.64814], [-50.36164, -20.64631], [-50.35969, -20.64611], [-50.35938, -20.64884]]]}}, 
{"type": "Feature", "properties": {"CD_SETOR": "351690305000037", "CD_SIT": "1", "NM_DIST": "General Salgado", "NM_SUBDIST": null}, "geometry": {"type": "Polygon", "coordinates": [[[-50.35537, -20.64836], [-50.35938, -20.64884], [-50.3598, -20.64516], [-50.35874, -20.64503], [-50.35769, -20.64404], [-50.35514, -20.64287], [-50.35336, -20.64273], [-50.35274, -20.64254], [-50.35146, -20.6415], [-50.35121, -20.64108], [-50.35064, -20.64106], [-50.34996, -20.6419], [-50.35146, -20.64302], [-50.35292, -20.6436], [-50.3543, -20.64374], [-50.35492, -20.64404], [-50.35473, -20.64426], [-50.35551, -20.6447], [-50.35541, -20.6451], [-50.35582, -20.6452], [-50.35537, -20.64836]]]}}, 
{"type": "Feature", "properties": {"CD_SETOR": "351690305000038", "CD_SIT": "8", "NM_DIST": "General Salgado", "NM_SUBDIST": null}, "geometry": {"type": "Polygon", "coordinates": [[[-50.35432, -20.64834], [-50.35537, -20.64836], [-50.35582, -20.6452], [-50.35541, -20.6451], [-50.35542, -20.64458], [-50.35473, -20.64426], [-50.35492, -20.64404], [-50.3543, -20.64374], [-50.35221, -20.6434], [-50.35146, -20.64302], [-50.34996, -20.6419], [-50.35064, -20.64106], [-50.3459, -20.64093], [-50.34587, -20.64218], [-50.34974, -20.64241], [-50.3513, -20.64357], [-50.35264, -20.64404], [-50.3548, -20.64448], [-50.35432, -20.64834]]]}}, 
{"type": "Feature", "properties": {"CD_SETOR": "351690305000039", "CD_SIT": "1", "NM_DIST": "General Salgado", "NM_SUBDIST": null}, "geometry": {"type": "Polygon", "coordinates": [[[-50.36346, -20.6455], [-50.36439, -20.6456], [-50.36428, -20.64658], [-50.36984, -20.64719], [-50.36996, -20.6462], [-50.37072, -20.6463], [-50.37081, -20.64544], [-50.3637, -20.64465], [-50.36346, -20.6455]]]}}, 
{"type": "Feature", "properties": {"CD_SETOR": "351690305000040", "CD_SIT": "1", "NM_DIST": "General Salgado", "NM_SUBDIST": null}, "geometry": {"type": "Polygon", "coordinates": [[[-50.37212, -20.64359], [-50.37185, -20.64555], [-50.37081, -20.64544], [-50.37072, -20.6463], [-50.37635, -20.64693], [-50.37683, -20.64693], [-50.37686, -20.64645], [-50.37768, -20.64582], [-50.37779, -20.64557], [-50.37883, -20.64487], [-50.37876, -20.64467], [-50.37912, -20.64457], [-50.37966, -20.64393], [-50.37225, -20.6428], [-50.37212, -20.64359]]]}}, 
{"type": "Feature", "properties": {"CD_SETOR": "351690305000041", "CD_SIT": "5", "NM_DIST": "General Salgado", "NM_SUBDIST": null}, "geometry": {"type": "Polygon", "coordinates": [[[-50.39641, -20.71462], [-50.39688, -20.71546], [-50.3966, -20.7156], [-50.39704, -20.71636], [-50.39692, -20.71641], [-50.39726, -20.71712], [-50.39889, -20.71613], [-50.39919, -20.71574], [-50.39995, -20.71528], [-50.39979, -20.71497], [-50.3995, -20.71511], [-50.39852, -20.71331], [-50.39698, -20.71413], [-50.39641, -20.71462]]]}}, 
{"type": "Feature", "properties": {"CD_SETOR": "351690305000042", "CD_SIT": "8", "NM_DIST": "General Salgado", "NM_SUBDIST": null}, "geometry": {"type": "Polygon", "coordinates": [[[-50.39535, -20.71262], [-50.39679, -20.71811], [-50.40028, -20.71689], [-50.3992, -20.71138], [-50.39535, -20.71262]], [[-50.39641, -20.71462], [-50.39698, -20.71413], [-50.39852, -20.71331], [-50.3995, -20.71511], [-50.39979, -20.71497], [-50.39995, -20.71528], [-50.39919, -20.71574], [-50.39889, -20.71613], [-50.39726, -20.71712], [-50.39692, -20.71641], [-50.39704, -20.71636], [-50.3966, -20.7156], [-50.39688, -20.71546], [-50.39641, -20.71462]]]}}, 
{"type": "Feature", "properties": {"CD_SETOR": "351690313000002", "CD_SIT": "8", "NM_DIST": "Prudêncio e Moraes", "NM_SUBDIST": null}, "geometry": {"type": "Polygon", "coordinates": [[[-50.44853, -20.48622], [-50.44824, -20.48692], [-50.4493, -20.49037], [-50.44934, -20.49191], [-50.4486, -20.49816], [-50.44859, -20.50098], [-50.45025, -20.50708], [-50.45156, -20.51387], [-50.45155, -20.51782], [-50.45092, -20.51976], [-50.45091, -20.52022], [-50.45192, -20.52243], [-50.45238, -20.5245], [-50.45353, -20.52678], [-50.45516, -20.52863], [-50.45721, -20.53004], [-50.45874, -20.53147], [-50.45854, -20.53269], [-50.45865, -20.53304], [-50.45796, -20.53357], [-50.45781, -20.53396], [-50.45787, -20.53431], [-50.45751, -20.53437], [-50.45712, -20.53418], [-50.45644, -20.53433], [-50.45527, -20.53385], [-50.45439, -20.53165], [-50.45257, -20.53145], [-50.45001, -20.53092], [-50.44937, -20.53136], [-50.44767, -20.53386], [-50.44662, -20.53683], [-50.44557, -20.53822], [-50.44521, -20.53834], [-50.44476, -20.53815], [-50.44412, -20.5375], [-50.44238, -20.53722], [-50.44182, -20.53764], [-50.44201, -20.53839], [-50.4407, -20.53881], [-50.43674, -20.53885], [-50.43621, -20.53863], [-50.4356, -20.53784], [-50.43534, -20.53672], [-50.43459, -20.53715], [-50.43277, -20.53662], [-50.43215, -20.53585], [-50.42908, -20.53769], [-50.42854, -20.53819], [-50.42762, -20.53983], [-50.42658, -20.54071], [-50.42611, -20.54168], [-50.42618, -20.54289], [-50.42601, -20.54461], [-50.42567, -20.54529], [-50.425, -20.5463], [-50.42454, -20.54641], [-50.4241, -20.54709], [-50.42285, -20.54739], [-50.42337, -20.55061], [-50.42399, -20.55147], [-50.42434, -20.55257], [-50.42594, -20.55495], [-50.4265, -20.5561], [-50.4268, -20.55705], [-50.4268, -20.55837], [-50.42766, -20.56088], [-50.42726, -20.56281], [-50.426, -20.56474], [-50.42556, -20.56576], [-50.42553, -20.56623], [-50.42559, -20.56732], [-50.42745, -20.57095], [-50.42771, -20.57208], [-50.42778, -20.5735], [-50.42721, -20.57634], [-50.4272, -20.57772], [-50.42799, -20.57886], [-50.43006, -20.58044], [-50.43141, -20.58187], [-50.43431, -20.58336], [-50.43495, -20.58384], [-50.43568, -20.58453], [-50.43606, -20.5852], [-50.43642, -20.58539], [-50.43688, -20.58628], [-50.43777, -20.58733], [-50.43795, -20.58788], [-50.43872, -20.58839], [-50.43934, -20.58847], [-50.43953, -20.5887], [-50.44022, -20.58768], [-50.44166, -20.58695], [-50.44232, -20.58695], [-50.4432, -20.58666], [-50.44407, -20.58602], [-50.44476, -20.58612], [-50.44504, -20.58533], [-50.44489, -20.58469], [-50.44493, -20.58342], [-50.44535, -20.58298], [-50.44577, -20.58272], [-50.44621, -20.5827], [-50.44622, -20.58316], [-50.44601, -20.5834], [-50.44634, -20.58371], [-50.44703, -20.58337], [-50.44744, -20.58291], [-50.44756, -20.58252], [-50.44869, -20.58193], [-50.44971, -20.58118], [-50.44965, -20.58068], [-50.4498, -20.58031], [-50.45023, -20.5801], [-50.45048, -20.58025], [-50.45086, -20.5802], [-50.45122, -20.5799], [-50.4516, -20.57987], [-50.45218, -20.57949], [-50.45258, -20.57884], [-50.45303, -20.57877], [-50.45372, -20.57827], [-50.45582, -20.57856], [-50.45602, -20.57922], [-50.45777, -20.57827], [-50.45878, -20.57808], [-50.45955, -20.57765], [-50.46046, -20.57805], [-50.46092, -20.57871], [-50.46216, -20.57836], [-50.46254, -20.57852], [-50.46339, -20.57808], [-50.46395, -20.578], [-50.46469, -20.57748], [-50.46521, -20.57687], [-50.46566, -20.57581], [-50.46611, -20.57525], [-50.46709, -20.57489], [-50.46788, -20.57483], [-50.46859, -20.57505], [-50.46948, -20.5751], [-50.4697, -20.57529], [-50.47056, -20.57476], [-50.47077, -20.57433], [-50.472, -20.574], [-50.47281, -20.57428], [-50.47285, -20.57471], [-50.47338, -20.57505], [-50.47374, -20.57504], [-50.47402, -20.57477], [-50.47448, -20.5748], [-50.47525, -20.5743], [-50.47599, -20.57407], [-50.47648, -20.57404], [-50.4773, -20.57445], [-50.47758, -20.57426], [-50.47778, -20.5743], [-50.47748, -20.57532], [-50.47685, -20.5762], [-50.47498, -20.57813], [-50.47479, -20.57879], [-50.47395, -20.5793], [-50.47347, -20.58013], [-50.47314, -20.58023], [-50.47288, -20.58066], [-50.47255, -20.58257], [-50.47273, -20.58332], [-50.47303, -20.5836], [-50.47275, -20.58383], [-50.47183, -20.58629], [-50.47174, -20.58728], [-50.47186, -20.58771], [-50.47156, -20.58814], [-50.47131, -20.59027], [-50.47131, -20.59145], [-50.47173, -20.59268], [-50.47161, -20.5935], [-50.47096, -20.59489], [-50.47086, -20.59552], [-50.46998, -20.5964], [-50.46881, -20.5968], [-50.46882, -20.59707], [-50.46843, -20.59733], [-50.46782, -20.59847], [-50.46784, -20.59893], [-50.46818, -20.59964], [-50.46808, -20.59985], [-50.46841, -20.60012], [-50.46827, -20.60039], [-50.46852, -20.60188], [-50.46885, -20.60233], [-50.46878, -20.60323], [-50.46903, -20.60592], [-50.46978, -20.60634], [-50.47038, -20.60709], [-50.47026, -20.60842], [-50.47142, -20.60863], [-50.47233, -20.60998], [-50.47253, -20.61041], [-50.47247, -20.61177], [-50.47269, -20.61293], [-50.47368, -20.61344], [-50.47476, -20.61488], [-50.47441, -20.61703], [-50.47327, -20.61936], [-50.47331, -20.62135], [-50.47384, -20.62188], [-50.47435, -20.62177], [-50.47548, -20.62044], [-50.47803, -20.61552], [-50.47967, -20.61305], [-50.48532, -20.60618], [-50.48569, -20.60595], [-50.48622, -20.60595], [-50.48773, -20.60745], [-50.48878, -20.60773], [-50.49087, -20.60682], [-50.49457, -20.60641], [-50.49601, -20.60595], [-50.49786, -20.60596], [-50.49845, -20.6058], [-50.49954, -20.60495], [-50.49981, -20.60491], [-50.50086, -20.60565], [-50.50205, -20.60689], [-50.50265, -20.60717], [-50.50317, -20.60721], [-50.50382, -20.60703], [-50.50439, -20.60646], [-50.50466, -20.60593], [-50.50507, -20.6057], [-50.50695, -20.60619], [-50.50871, -20.60615], [-50.50997, -20.60322], [-50.51014, -20.60198], [-50.51006, -20.60102], [-50.50901, -20.59841], [-50.50845, -20.5965], [-50.50832, -20.59447], [-50.50885, -20.59158], [-50.50867, -20.59113], [-50.50745, -20.59001], [-50.50689, -20.58877], [-50.50656, -20.58861], [-50.50658, -20.5879], [-50.50735, -20.58636], [-50.50824, -20.58511], [-50.50943, -20.58424], [-50.50979, -20.58317], [-50.51071, -20.58228], [-50.51215, -20.58149], [-50.51326, -20.57961], [-50.51314, -20.57916], [-50.51231, -20.57826], [-50.51197, -20.57738], [-50.51189, -20.57427], [-50.51238, -20.57378], [-50.51377, -20.57348], [-50.51494, -20.57253], [-50.5152, -20.57185], [-50.51528, -20.56987], [-50.51496, -20.56894], [-50.5149, -20.56775], [-50.51401, -20.5629], [-50.51328, -20.56118], [-50.51238, -20.55999], [-50.5117, -20.5576], [-50.51046, -20.55468], [-50.50962, -20.55339], [-50.50871, -20.55249], [-50.50828, -20.55127], [-50.5083, -20.55044], [-50.50884, -20.54936], [-50.50926, -20.54739], [-50.51025, -20.54555], [-50.51585, -20.54209], [-50.51725, -20.54102], [-50.51764, -20.5403], [-50.51736, -20.53814], [-50.51789, -20.53738], [-50.51845, -20.53699], [-50.5226, -20.5369], [-50.52427, -20.53752], [-50.52473, -20.53785], [-50.52509, -20.53787], [-50.52604, -20.53735], [-50.52741, -20.53744], [-50.52804, -20.5372], [-50.5314, -20.53424], [-50.53414, -20.53332], [-50.53787, -20.5331], [-50.5405, -20.53332], [-50.54151, -20.53255], [-50.54224, -20.53222], [-50.54399, -20.53228], [-50.54464, -20.53125], [-50.54526, -20.53079], [-50.54695, -20.52998], [-50.54838, -20.5295], [-50.54958, -20.52976], [-50.55037, -20.5309], [-50.55094, -20.53081], [-50.55181, -20.5304], [-50.55336, -20.52884], [-50.55415, -20.52834], [-50.55296, -20.52647], [-50.55414, -20.52461], [-50.55484, -20.524], [-50.55487, -20.52376], [-50.55449, -20.52345], [-50.55187, -20.5231], [-50.55149, -20.52285], [-50.55136, -20.52156], [-50.55148, -20.5211], [-50.55117, -20.52088], [-50.5504, -20.52084], [-50.5494, -20.52032], [-50.54921, -20.51998], [-50.54924, -20.51962], [-50.54897, -20.51937], [-50.54849, -20.51943], [-50.54792, -20.51993], [-50.54742, -20.51988], [-50.54733, -20.51956], [-50.5478, -20.51904], [-50.54854, -20.51757], [-50.54843, -20.51695], [-50.54781, -20.51646], [-50.54767, -20.51606], [-50.54829, -20.51553], [-50.54881, -20.51398], [-50.54905, -20.51289], [-50.54886, -20.51185], [-50.54924, -20.51001], [-50.54918, -20.50926], [-50.54769, -20.50609], [-50.5458, -20.50509], [-50.54477, -20.50362], [-50.54276, -20.50441], [-50.54227, -20.50438], [-50.54095, -20.50473], [-50.53975, -20.50438], [-50.5394, -20.50456], [-50.53914, -20.50502], [-50.53874, -20.5053], [-50.53695, -20.50504], [-50.53644, -20.50598], [-50.53448, -20.50653], [-50.53354, -20.507], [-50.5331, -20.50782], [-50.53241, -20.50833], [-50.53184, -20.50846], [-50.53133, -20.50794], [-50.52968, -20.50799], [-50.52837, -20.50823], [-50.52795, -20.50891], [-50.52767, -20.50896], [-50.52531, -20.50799], [-50.52397, -20.50772], [-50.52292, -20.50716], [-50.52181, -20.50716], [-50.5214, -20.50687], [-50.52136, -20.50611], [-50.52048, -20.50431], [-50.52008, -20.50274], [-50.51889, -20.50092], [-50.51788, -20.50093], [-50.51605, -20.50189], [-50.5136, -20.5027], [-50.51029, -20.50237], [-50.50942, -20.50187], [-50.50914, -20.50127], [-50.50825, -20.50056], [-50.5071, -20.50029], [-50.50532, -20.49682], [-50.50505, -20.49684], [-50.5009, -20.49986], [-50.49962, -20.4986], [-50.49853, -20.49689], [-50.49754, -20.49619], [-50.49648, -20.49613], [-50.49614, -20.49639], [-50.49558, -20.49749], [-50.49512, -20.49764], [-50.49422, -20.49758], [-50.49322, -20.49645], [-50.49293, -20.49648], [-50.49245, -20.49675], [-50.49222, -20.49722], [-50.49231, -20.49753], [-50.493, -20.49821], [-50.49377, -20.49839], [-50.49387, -20.49866], [-50.49306, -20.49946], [-50.49194, -20.49967], [-50.48917, -20.49816], [-50.4889, -20.49773], [-50.48788, -20.49725], [-50.48769, -20.49683], [-50.48785, -20.4963], [-50.48778, -20.49584], [-50.48685, -20.49459], [-50.48632, -20.49425], [-50.48556, -20.49343], [-50.48431, -20.49279], [-50.48299, -20.49283], [-50.48074, -20.49589], [-50.48009, -20.49597], [-50.47865, -20.49562], [-50.47618, -20.49413], [-50.47362, -20.49454], [-50.47219, -20.49414], [-50.47156, -20.49367], [-50.47171, -20.49248], [-50.46955, -20.49089], [-50.46857, -20.4899], [-50.4669, -20.48909], [-50.46636, -20.48978], [-50.46608, -20.48967], [-50.46546, -20.48894], [-50.46445, -20.48831], [-50.46338, -20.48874], [-50.46294, -20.48876], [-50.46258, -20.48868], [-50.46226, -20.48769], [-50.46195, -20.48755], [-50.45887, -20.48707], [-50.45774, -20.48727], [-50.45606, -20.48698], [-50.45392, -20.48623], [-50.4528, -20.48663], [-50.45142, -20.48597], [-50.44941, -20.48601], [-50.44853, -20.48622]], [[-50.49358, -20.52994], [-50.49806, -20.53334], [-50.49341, -20.53865], [-50.48854, -20.53532], [-50.49358, -20.52994]]]}}, 
{"type": "Feature", "properties": {"CD_SETOR": "351690313000003", "CD_SIT": "1", "NM_DIST": "Prudêncio e Moraes", "NM_SUBDIST": null}, "geometry": {"type": "Polygon", "coordinates": [[[-50.49374, -20.53144], [-50.49055, -20.53469], [-50.49117, -20.53536], [-50.49048, -20.53609], [-50.49179, -20.53601], [-50.49279, -20.53498], [-50.49383, -20.53587], [-50.49438, -20.53526], [-50.49493, -20.53568], [-50.49508, -20.53553], [-50.49523, -20.53565], [-50.49609, -20.53469], [-50.49571, -20.53439], [-50.4968, -20.53321], [-50.4951, -20.53277], [-50.49492, -20.53263], [-50.49532, -20.53212], [-50.49494, -20.53183], [-50.49456, -20.53205], [-50.49374, -20.53144]]]}}, 
{"type": "Feature", "properties": {"CD_SETOR": "351690313000004", "CD_SIT": "8", "NM_DIST": "Prudêncio e Moraes", "NM_SUBDIST": null}, "geometry": {"type": "Polygon", "coordinates": [[[-50.49358, -20.52994], [-50.48854, -20.53532], [-50.49341, -20.53865], [-50.49806, -20.53334], [-50.49358, -20.52994]], [[-50.49374, -20.53144], [-50.49456, -20.53205], [-50.49494, -20.53183], [-50.49532, -20.53212], [-50.49492, -20.53263], [-50.4951, -20.53277], [-50.4968, -20.53321], [-50.49571, -20.53439], [-50.49609, -20.53469], [-50.49523, -20.53565], [-50.49508, -20.53553], [-50.49493, -20.53568], [-50.49438, -20.53526], [-50.49383, -20.53587], [-50.49279, -20.53498], [-50.49179, -20.53601], [-50.49048, -20.53609], [-50.49117, -20.53536], [-50.49055, -20.53469], [-50.49374, -20.53144]]]}}]}