{"type": "FeatureCollection", "features": [
{"type": "Feature", "properties": {"CD_SETOR": "351890905000004", "CD_SIT": "1", "NM_DIST": "Guzolândia", "NM_SUBDIST": null}, "geometry": {"type": "Polygon", "coordinates": [[[-50.65006, -20.64338], [-50.65096, -20.64442], [-50.65164, -20.64473], [-50.65627, -20.64458], [-50.65881, -20.64514], [-50.65853, -20.64265], [-50.65962, -20.64242], [-50.65932, -20.6418], [-50.65819, -20.64161], [-50.65203, -20.64285], [-50.65006, -20.64338]]]}}, 
{"type": "Feature", "properties": {"CD_SETOR": "351890905000005", "CD_SIT": "8", "NM_DIST": "Guzolândia", "NM_SUBDIST": null}, "geometry": {"type": "Polygon", "coordinates": [[[-50.67931, -20.5301], [-50.67881, -20.53033], [-50.67826, -20.53087], [-50.67805, -20.53157], [-50.67763, -20.53222], [-50.6776, -20.53293], [-50.67816, -20.53469], [-50.67925, -20.53534], [-50.67959, -20.53579], [-50.67954, -20.53681], [-50.67923, -20.53808], [-50.67947, -20.53871], [-50.68, -20.54168], [-50.67998, -20.54232], [-50.6795, -20.54403], [-50.67943, -20.54609], [-50.67869, -20.549], [-50.67842, -20.54941], [-50.67843, -20.55202], [-50.6791, -20.55537], [-50.67956, -20.55644], [-50.67947, -20.55754], [-50.67902, -20.55826], [-50.67818, -20.56044], [-50.67813, -20.5617], [-50.67752, -20.56258], [-50.67719, -20.56355], [-50.67724, -20.56409], [-50.67781, -20.56475], [-50.67787, -20.5654], [-50.67756, -20.56635], [-50.67769, -20.56773], [-50.67718, -20.56962], [-50.67449, -20.57371], [-50.67281, -20.57449], [-50.67172, -20.57575], [-50.67141, -20.57642], [-50.67119, -20.57751], [-50.67131, -20.57817], [-50.67114, -20.57874], [-50.67078, -20.57918], [-50.67028, -20.57941], [-50.66902, -20.58045], [-50.66861, -20.58141], [-50.66871, -20.58271], [-50.66834, -20.58272], [-50.66832, -20.58325], [-50.66789, -20.58377], [-50.66483, -20.585], [-50.66427, -20.58574], [-50.6635, -20.58622], [-50.66308, -20.58702], [-50.66169, -20.58821], [-50.661, -20.5897], [-50.66089, -20.59031], [-50.66131, -20.59192], [-50.66122, -20.59299], [-50.66004, -20.59538], [-50.66021, -20.59719], [-50.66072, -20.59859], [-50.66017, -20.60009], [-50.65973, -20.60059], [-50.65921, -20.60101], [-50.6573, -20.60171], [-50.65642, -20.60247], [-50.65629, -20.60358], [-50.65578, -20.60527], [-50.65501, -20.60667], [-50.65485, -20.6073], [-50.65495, -20.60872], [-50.65194, -20.61143], [-50.64685, -20.61113], [-50.64624, -20.61174], [-50.64484, -20.61253], [-50.64447, -20.61286], [-50.6444, -20.61343], [-50.64177, -20.61517], [-50.64094, -20.61631], [-50.63971, -20.61832], [-50.63958, -20.61939], [-50.63881, -20.6211], [-50.63822, -20.62151], [-50.63708, -20.62167], [-50.63577, -20.62369], [-50.63451, -20.62505], [-50.63375, -20.62542], [-50.63057, -20.62597], [-50.63006, -20.62673], [-50.63492, -20.62719], [-50.63431, -20.62873], [-50.63247, -20.63098], [-50.63011, -20.63323], [-50.62809, -20.63473], [-50.62622, -20.63707], [-50.62606, -20.63756], [-50.62621, -20.63777], [-50.62647, -20.63798], [-50.62763, -20.6382], [-50.62767, -20.63866], [-50.62538, -20.64121], [-50.62355, -20.64449], [-50.62279, -20.64626], [-50.62237, -20.64792], [-50.62246, -20.64854], [-50.64805, -20.64358], [-50.64924, -20.64356], [-50.65203, -20.64285], [-50.65819, -20.64161], [-50.65932, -20.6418], [-50.66009, -20.64124], [-50.71506, -20.63057], [-50.71372, -20.62661], [-50.70609, -20.61815], [-50.70513, -20.61405], [-50.70561, -20.61147], [-50.69942, -20.61019], [-50.69936, -20.60897], [-50.6987, -20.60741], [-50.69784, -20.60587], [-50.69634, -20.60429], [-50.69728, -20.60098], [-50.69831, -20.60006], [-50.69893, -20.59895], [-50.69892, -20.59839], [-50.69846, -20.59768], [-50.69835, -20.59715], [-50.69853, -20.5942], [-50.69895, -20.59179], [-50.69777, -20.58984], [-50.69635, -20.58694], [-50.69615, -20.58572], [-50.69488, -20.58326], [-50.69546, -20.58174], [-50.69723, -20.58037], [-50.69787, -20.58023], [-50.69961, -20.57867], [-50.69956, -20.5771], [-50.69939, -20.57684], [-50.69912, -20.57514], [-50.69851, -20.57393], [-50.69683, -20.57185], [-50.69523, -20.57056], [-50.69487, -20.56908], [-50.69292, -20.56685], [-50.69247, -20.5658], [-50.69221, -20.56439], [-50.69237, -20.56337], [-50.69226, -20.56083], [-50.69316, -20.55765], [-50.69308, -20.55712], [-50.69277, -20.55651], [-50.6916, -20.55509], [-50.69174, -20.55303], [-50.69126, -20.55155], [-50.69083, -20.5491], [-50.69103, -20.54758], [-50.69207, -20.54532], [-50.69289, -20.54439], [-50.69312, -20.54364], [-50.69306, -20.54279], [-50.69218, -20.54162], [-50.69145, -20.54], [-50.69184, -20.53851], [-50.69063, -20.538], [-50.68906, -20.53697], [-50.68831, -20.53622], [-50.68795, -20.53528], [-50.68811, -20.53514], [-50.68909, -20.53522], [-50.68961, -20.53507], [-50.6901, -20.53396], [-50.6908, -20.53394], [-50.69101, -20.53357], [-50.69083, -20.53334], [-50.69048, -20.53325], [-50.68922, -20.53383], [-50.68889, -20.5338], [-50.68847, -20.53331], [-50.68857, -20.53209], [-50.68944, -20.53085], [-50.6897, -20.52995], [-50.69006, -20.52729], [-50.68999, -20.52688], [-50.68914, -20.52612], [-50.68917, -20.52594], [-50.6895, -20.52598], [-50.69, -20.52574], [-50.69011, -20.52465], [-50.6899, -20.5241], [-50.68912, -20.52355], [-50.68841, -20.52353], [-50.68681, -20.52391], [-50.68625, -20.52462], [-50.68578, -20.52477], [-50.68467, -20.52423], [-50.68347, -20.52428], [-50.68309, -20.52451], [-50.68293, -20.52486], [-50.68347, -20.52614], [-50.68369, -20.52714], [-50.68303, -20.52873], [-50.6826, -20.52928], [-50.68218, -20.52943], [-50.68065, -20.5295], [-50.67931, -20.5301]]]}}, 
{"type": "Feature", "properties": {"CD_SETOR": "351890905000006", "CD_SIT": "8", "NM_DIST": "Guzolândia", "NM_SUBDIST": null}, "geometry": {"type": "Polygon", "coordinates": [[[-50.62246, -20.64854], [-50.6226, -20.64955], [-50.62244, -20.65073], [-50.6209, -20.65387], [-50.61929, -20.6567], [-50.61835, -20.65791], [-50.61712, -20.65895], [-50.61927, -20.66533], [-50.62091, -20.66593], [-50.62544, -20.66649], [-50.62688, -20.66706], [-50.62957, -20.66846], [-50.631, -20.67022], [-50.63241, -20.67157], [-50.63257, -20.67221], [-50.6324, -20.67342], [-50.63249, -20.67445], [-50.63303, -20.6757], [-50.63661, -20.67904], [-50.63782, -20.67966], [-50.63965, -20.68012], [-50.64231, -20.683], [-50.64637, -20.68622], [-50.64867, -20.68878], [-50.64905, -20.68946], [-50.6491, -20.69143], [-50.65032, -20.69448], [-50.65495, -20.69838], [-50.65498, -20.69865], [-50.65594, -20.69981], [-50.65775, -20.70066], [-50.65822, -20.70166], [-50.65993, -20.70232], [-50.66138, -20.70328], [-50.66416, -20.7057], [-50.6673, -20.70554], [-50.66995, -20.70708], [-50.66982, -20.70724], [-50.67, -20.70741], [-50.6704, -20.7074], [-50.67065, -20.70705], [-50.67113, -20.70691], [-50.67189, -20.70701], [-50.67278, -20.70724], [-50.67487, -20.70819], [-50.67586, -20.70808], [-50.67607, -20.70837], [-50.6775, -20.70862], [-50.67801, -20.70849], [-50.67846, -20.70872], [-50.67929, -20.70854], [-50.68051, -20.70857], [-50.68057, -20.70874], [-50.68073, -20.70854], [-50.68124, -20.70855], [-50.6815, -20.70833], [-50.68313, -20.7079], [-50.68584, -20.70784], [-50.68656, -20.70763], [-50.68782, -20.70801], [-50.68921, -20.70884], [-50.69214, -20.70872], [-50.69334, -20.70847], [-50.69424, -20.70782], [-50.69664, -20.70676], [-50.69755, -20.70565], [-50.69856, -20.70483], [-50.7008, -20.70447], [-50.70221, -20.70384], [-50.70315, -20.70387], [-50.70455, -20.70453], [-50.70571, -20.70445], [-50.70729, -20.7048], [-50.70861, -20.70479], [-50.70968, -20.70581], [-50.7106, -20.70597], [-50.71126, -20.70005], [-50.71088, -20.6977], [-50.71015, -20.69481], [-50.70944, -20.69303], [-50.70479, -20.68508], [-50.70429, -20.684], [-50.70393, -20.68227], [-50.7031, -20.6796], [-50.70136, -20.67647], [-50.69819, -20.67318], [-50.69684, -20.67215], [-50.69366, -20.67017], [-50.69064, -20.66908], [-50.68709, -20.6693], [-50.68613, -20.66896], [-50.68429, -20.66757], [-50.6822, -20.66724], [-50.68079, -20.66614], [-50.68018, -20.66547], [-50.67726, -20.65958], [-50.67293, -20.65522], [-50.67066, -20.65431], [-50.66858, -20.6537], [-50.66768, -20.65281], [-50.6657, -20.65354], [-50.66538, -20.65203], [-50.66244, -20.65259], [-50.66275, -20.65416], [-50.66213, -20.65426], [-50.66203, -20.65356], [-50.65879, -20.65415], [-50.65875, -20.65392], [-50.65839, -20.65396], [-50.65817, -20.65226], [-50.658, -20.65226], [-50.66032, -20.64809], [-50.6595, -20.64818], [-50.66048, -20.64637], [-50.65999, -20.64589], [-50.65877, -20.64784], [-50.65641, -20.64769], [-50.65836, -20.645], [-50.65627, -20.64458], [-50.65318, -20.64465], [-50.65085, -20.64736], [-50.64893, -20.64533], [-50.65055, -20.64386], [-50.65006, -20.64338], [-50.64805, -20.64358], [-50.62246, -20.64854]]]}}, 
{"type": "Feature", "properties": {"CD_SETOR": "351890905000007", "CD_SIT": "8", "NM_DIST": "Guzolândia", "NM_SUBDIST": null}, "geometry": {"type": "Polygon", "coordinates": [[[-50.71506, -20.63057], [-50.66202, -20.64087], [-50.66207, -20.64114], [-50.66233, -20.64109], [-50.66234, -20.64132], [-50.6621, -20.64134], [-50.66235, -20.64268], [-50.66263, -20.64268], [-50.66283, -20.64339], [-50.66472, -20.64465], [-50.66576, -20.64929], [-50.66652, -20.6503], [-50.66808, -20.64985], [-50.66744, -20.65253], [-50.66858, -20.6537], [-50.67066, -20.65431], [-50.67293, -20.65522], [-50.67415, -20.65634], [-50.67736, -20.65971], [-50.67998, -20.66513], [-50.68079, -20.66614], [-50.6822, -20.66724], [-50.6846, -20.6677], [-50.6865, -20.66914], [-50.68759, -20.66935], [-50.69064, -20.66908], [-50.69366, -20.67017], [-50.69684, -20.67215], [-50.69819, -20.67318], [-50.70136, -20.67647], [-50.7031, -20.6796], [-50.70393, -20.68227], [-50.70429, -20.684], [-50.70479, -20.68508], [-50.70944, -20.69303], [-50.71015, -20.69481], [-50.71088, -20.6977], [-50.71126, -20.70005], [-50.7106, -20.70597], [-50.71216, -20.70512], [-50.71287, -20.70494], [-50.71541, -20.70615], [-50.71603, -20.70618], [-50.71725, -20.70694], [-50.7182, -20.70692], [-50.71879, -20.70712], [-50.72005, -20.70692], [-50.72094, -20.7065], [-50.72288, -20.70685], [-50.72347, -20.70758], [-50.72475, -20.70794], [-50.72669, -20.7092], [-50.72754, -20.70919], [-50.72863, -20.70967], [-50.7287, -20.71004], [-50.72938, -20.71001], [-50.72976, -20.71061], [-50.73028, -20.71101], [-50.73048, -20.711], [-50.73049, -20.71125], [-50.73155, -20.71131], [-50.73192, -20.71192], [-50.73541, -20.71301], [-50.73619, -20.7139], [-50.73713, -20.71444], [-50.73781, -20.71608], [-50.7387, -20.71677], [-50.73945, -20.71722], [-50.74197, -20.71779], [-50.74332, -20.72019], [-50.74371, -20.72171], [-50.74389, -20.72189], [-50.74494, -20.72117], [-50.74582, -20.72111], [-50.74654, -20.71941], [-50.74803, -20.71791], [-50.75002, -20.71642], [-50.75061, -20.71572], [-50.75029, -20.71291], [-50.75047, -20.71113], [-50.7508, -20.71027], [-50.75233, -20.70784], [-50.75306, -20.706], [-50.75307, -20.70472], [-50.75332, -20.70374], [-50.75272, -20.70232], [-50.75256, -20.70128], [-50.75296, -20.69975], [-50.7534, -20.69465], [-50.75304, -20.69149], [-50.75299, -20.68725], [-50.75216, -20.68425], [-50.7521, -20.68356], [-50.75097, -20.68156], [-50.74961, -20.68099], [-50.74853, -20.68015], [-50.74675, -20.67973], [-50.74617, -20.67907], [-50.74483, -20.67913], [-50.74388, -20.67852], [-50.74279, -20.67816], [-50.74158, -20.67702], [-50.74078, -20.6759], [-50.73861, -20.67176], [-50.73626, -20.66911], [-50.73575, -20.66815], [-50.7355, -20.66683], [-50.73505, -20.66604], [-50.7339, -20.66544], [-50.73301, -20.66466], [-50.73219, -20.66322], [-50.73066, -20.66225], [-50.72989, -20.66183], [-50.72906, -20.66213], [-50.72811, -20.66183], [-50.72639, -20.66074], [-50.72511, -20.65864], [-50.7241, -20.65756], [-50.72155, -20.65605], [-50.72098, -20.65545], [-50.72034, -20.65377], [-50.71875, -20.6522], [-50.71805, -20.65176], [-50.71792, -20.65122], [-50.71818, -20.64978], [-50.71901, -20.64666], [-50.71902, -20.64516], [-50.71845, -20.64444], [-50.71813, -20.64336], [-50.7181, -20.64152], [-50.71832, -20.6405], [-50.71777, -20.63797], [-50.71661, -20.63545], [-50.71658, -20.63425], [-50.7159, -20.63328], [-50.71615, -20.63237], [-50.71567, -20.63079], [-50.71617, -20.63035], [-50.71506, -20.63057]]]}}, 
{"type": "Feature", "properties": {"CD_SETOR": "351890905000008", "CD_SIT": "8", "NM_DIST": "Guzolândia", "NM_SUBDIST": null}, "geometry": {"type": "Polygon", "coordinates": [[[-50.76455, -20.62092], [-50.71617, -20.63035], [-50.71567, -20.63079], [-50.71615, -20.63237], [-50.7159, -20.63328], [-50.71658, -20.63425], [-50.71661, -20.63545], [-50.71777, -20.63797], [-50.71832, -20.6405], [-50.7181, -20.64152], [-50.71813, -20.64336], [-50.71845, -20.64444], [-50.71902, -20.64516], [-50.71901, -20.64666], [-50.71792, -20.65122], [-50.71805, -20.65176], [-50.71875, -20.6522], [-50.72034, -20.65377], [-50.72098, -20.65545], [-50.72155, -20.65605], [-50.7241, -20.65756], [-50.72511, -20.65864], [-50.72639, -20.66074], [-50.72811, -20.66183], [-50.72906, -20.66213], [-50.72989, -20.66183], [-50.73066, -20.66225], [-50.73219, -20.66322], [-50.73301, -20.66466], [-50.7339, -20.66544], [-50.73505, -20.66604], [-50.7355, -20.66683], [-50.73575, -20.66815], [-50.73626, -20.66911], [-50.73861, -20.67176], [-50.74078, -20.6759], [-50.74158, -20.67702], [-50.74279, -20.67816], [-50.74388, -20.67852], [-50.74483, -20.67913], [-50.74617, -20.67907], [-50.74675, -20.67973], [-50.74853, -20.68015], [-50.74961, -20.68099], [-50.75097, -20.68156], [-50.75098, -20.68141], [-50.75443, -20.68101], [-50.76025, -20.68078], [-50.76195, -20.68023], [-50.76394, -20.67897], [-50.76461, -20.67876], [-50.76702, -20.67871], [-50.76749, -20.67882], [-50.7683, -20.67932], [-50.77108, -20.68254], [-50.7715, -20.68285], [-50.77197, -20.68288], [-50.77225, -20.6827], [-50.77287, -20.68138], [-50.7736, -20.68033], [-50.77407, -20.67994], [-50.77678, -20.67923], [-50.77914, -20.67483], [-50.77917, -20.67306], [-50.77937, -20.67187], [-50.78011, -20.67162], [-50.78461, -20.67131], [-50.78619, -20.67078], [-50.78752, -20.67055], [-50.79097, -20.67062], [-50.79412, -20.67131], [-50.79559, -20.67094], [-50.79853, -20.67099], [-50.79977, -20.67138], [-50.80017, -20.67085], [-50.80114, -20.67034], [-50.80127, -20.66873], [-50.80118, -20.66608], [-50.80132, -20.66522], [-50.80189, -20.66359], [-50.80245, -20.66342], [-50.80281, -20.66309], [-50.80254, -20.66277], [-50.80268, -20.66257], [-50.80253, -20.66205], [-50.80292, -20.66175], [-50.80319, -20.66108], [-50.80357, -20.65681], [-50.80424, -20.65426], [-50.80404, -20.65181], [-50.80341, -20.64999], [-50.8038, -20.64705], [-50.80308, -20.64445], [-50.80272, -20.64147], [-50.80121, -20.6373], [-50.80214, -20.63431], [-50.80274, -20.63333], [-50.80333, -20.63133], [-50.8038, -20.63109], [-50.80418, -20.63007], [-50.80487, -20.62886], [-50.80554, -20.62808], [-50.8058, -20.62702], [-50.80482, -20.62483], [-50.80468, -20.62357], [-50.80493, -20.62135], [-50.80495, -20.61772], [-50.80348, -20.61331], [-50.80356, -20.61197], [-50.80395, -20.61076], [-50.80382, -20.60886], [-50.80309, -20.60767], [-50.80261, -20.60633], [-50.8022, -20.60256], [-50.80181, -20.6024], [-50.79191, -20.60767], [-50.79164, -20.60801], [-50.79158, -20.60846], [-50.79239, -20.6097], [-50.79255, -20.61023], [-50.79241, -20.6109], [-50.79202, -20.61154], [-50.79087, -20.61269], [-50.78836, -20.6144], [-50.78692, -20.61448], [-50.78438, -20.61192], [-50.78326, -20.61126], [-50.78211, -20.61102], [-50.78088, -20.61102], [-50.78002, -20.61141], [-50.77859, -20.61312], [-50.77809, -20.61332], [-50.7765, -20.61345], [-50.77572, -20.6139], [-50.77401, -20.61648], [-50.77197, -20.61777], [-50.7713, -20.61837], [-50.76984, -20.621], [-50.76932, -20.62278], [-50.76904, -20.62307], [-50.76786, -20.62344], [-50.76649, -20.62481], [-50.76618, -20.62478], [-50.76568, -20.62415], [-50.76452, -20.62139], [-50.76455, -20.62092]]]}}, 
{"type": "Feature", "properties": {"CD_SETOR": "351890905000009", "CD_SIT": "8", "NM_DIST": "Guzolândia", "NM_SUBDIST": null}, "geometry": {"type": "Polygon", "coordinates": [[[-50.69184, -20.53851], [-50.69145, -20.54], [-50.69218, -20.54162], [-50.69306, -20.54279], [-50.69312, -20.54364], [-50.69289, -20.54439], [-50.69207, -20.54532], [-50.69103, -20.54758], [-50.69083, -20.5491], [-50.69126, -20.55155], [-50.69174, -20.55303], [-50.6916, -20.55509], [-50.69277, -20.55651], [-50.69308, -20.55712], [-50.69316, -20.55765], [-50.69226, -20.56083], [-50.69237, -20.56337], [-50.69221, -20.56439], [-50.69247, -20.5658], [-50.69292, -20.56685], [-50.69342, -20.56755], [-50.69487, -20.56908], [-50.69523, -20.57056], [-50.69683, -20.57185], [-50.69851, -20.57393], [-50.69912, -20.57514], [-50.69939, -20.57684], [-50.69956, -20.5771], [-50.69961, -20.57867], [-50.69787, -20.58023], [-50.69723, -20.58037], [-50.69546, -20.58174], [-50.69488, -20.58326], [-50.69615, -20.58572], [-50.69635, -20.58694], [-50.69777, -20.58984], [-50.69895, -20.59179], [-50.69853, -20.5942], [-50.69835, -20.59715], [-50.69846, -20.59768], [-50.69892, -20.59839], [-50.69893, -20.59895], [-50.69831, -20.60006], [-50.69728, -20.60098], [-50.69634, -20.60429], [-50.69784, -20.60587], [-50.6987, -20.60741], [-50.69936, -20.60897], [-50.69942, -20.61019], [-50.70561, -20.61147], [-50.70513, -20.61405], [-50.70609, -20.61815], [-50.71372, -20.62661], [-50.71506, -20.63057], [-50.76455, -20.62092], [-50.7647, -20.61867], [-50.7643, -20.6165], [-50.7643, -20.61409], [-50.76361, -20.61031], [-50.76358, -20.6079], [-50.76405, -20.60663], [-50.76446, -20.60357], [-50.76533, -20.60006], [-50.76474, -20.599], [-50.76489, -20.597], [-50.76414, -20.59591], [-50.76286, -20.59266], [-50.76286, -20.59181], [-50.76343, -20.59028], [-50.76414, -20.58896], [-50.76425, -20.58661], [-50.76385, -20.58291], [-50.76181, -20.57747], [-50.76163, -20.57621], [-50.76189, -20.57514], [-50.76272, -20.57345], [-50.76354, -20.57225], [-50.76489, -20.56937], [-50.76739, -20.56772], [-50.76861, -20.56564], [-50.76945, -20.56472], [-50.76986, -20.56365], [-50.76983, -20.56322], [-50.76962, -20.56295], [-50.76969, -20.5625], [-50.76995, -20.56234], [-50.77091, -20.55942], [-50.77109, -20.55796], [-50.77085, -20.55772], [-50.77084, -20.55727], [-50.77141, -20.55608], [-50.77231, -20.55545], [-50.77285, -20.55444], [-50.77272, -20.55329], [-50.77198, -20.55217], [-50.77187, -20.55091], [-50.76982, -20.54965], [-50.76969, -20.54856], [-50.7691, -20.54769], [-50.76865, -20.54474], [-50.76837, -20.54815], [-50.76859, -20.54976], [-50.76945, -20.55143], [-50.77028, -20.55233], [-50.77006, -20.55266], [-50.76699, -20.55317], [-50.76483, -20.55298], [-50.76422, -20.55234], [-50.76294, -20.55256], [-50.76136, -20.55209], [-50.75912, -20.55079], [-50.75595, -20.54842], [-50.75554, -20.54779], [-50.75526, -20.54679], [-50.75581, -20.54168], [-50.75509, -20.54018], [-50.75494, -20.53939], [-50.75435, -20.53904], [-50.75345, -20.53908], [-50.75113, -20.54044], [-50.75058, -20.54127], [-50.74963, -20.54193], [-50.74776, -20.54263], [-50.74607, -20.543], [-50.74571, -20.54285], [-50.74493, -20.54295], [-50.74408, -20.54352], [-50.74279, -20.54343], [-50.74208, -20.54366], [-50.74159, -20.54411], [-50.74076, -20.54415], [-50.73993, -20.54478], [-50.73882, -20.54494], [-50.73839, -20.54458], [-50.73902, -20.54222], [-50.73848, -20.53869], [-50.73793, -20.53724], [-50.73725, -20.5361], [-50.73525, -20.534], [-50.73109, -20.5337], [-50.72935, -20.53314], [-50.72909, -20.5328], [-50.729, -20.5324], [-50.72912, -20.53214], [-50.73056, -20.53146], [-50.73045, -20.53113], [-50.72796, -20.52898], [-50.72499, -20.52685], [-50.72045, -20.52665], [-50.71944, -20.52759], [-50.71743, -20.52819], [-50.71688, -20.52808], [-50.716, -20.52733], [-50.71395, -20.52726], [-50.71276, -20.5275], [-50.71153, -20.52827], [-50.7107, -20.53069], [-50.70988, -20.53234], [-50.70642, -20.53423], [-50.7057, -20.53445], [-50.70497, -20.53431], [-50.70333, -20.5333], [-50.70224, -20.53217], [-50.70184, -20.53204], [-50.70036, -20.53215], [-50.69942, -20.53202], [-50.69852, -20.5311], [-50.69728, -20.5302], [-50.69612, -20.52898], [-50.69583, -20.52887], [-50.69549, -20.52901], [-50.69343, -20.5313], [-50.69333, -20.53213], [-50.69258, -20.5335], [-50.69243, -20.53501], [-50.69248, -20.53763], [-50.69215, -20.53833], [-50.69184, -20.53851]]]}}, 
{"type": "Feature", "properties": {"CD_SETOR": "351890905000010", "CD_SIT": "1", "NM_DIST": "Guzolândia", "NM_SUBDIST": null}, "geometry": {"type": "Polygon", "coordinates": [[[-50.66019, -20.64122], [-50.66068, -20.64218], [-50.66129, -20.64195], [-50.66158, -20.64305], [-50.6624, -20.6429], [-50.6621, -20.64134], [-50.66234, -20.64132], [-50.66233, -20.64109], [-50.66207, -20.64114], [-50.66202, -20.64087], [-50.66019, -20.64122]]]}}, 
{"type": "Feature", "properties": {"CD_SETOR": "351890905000011", "CD_SIT": "2", "NM_DIST": "Guzolândia", "NM_SUBDIST": null}, "geometry": {"type": "Polygon", "coordinates": [[[-50.65318, -20.64465], [-50.65164, -20.64473], [-50.65096, -20.64442], [-50.65055, -20.64386], [-50.64893, -20.64533], [-50.65085, -20.64736], [-50.65318, -20.64465]]]}}, 
{"type": "Feature", "properties": {"CD_SETOR": "351890905000012", "CD_SIT": "1", "NM_DIST": "Guzolândia", "NM_SUBDIST": null}, "geometry": {"type": "Polygon", "coordinates": [[[-50.66652, -20.6503], [-50.66557, -20.65058], [-50.66744, -20.65253], [-50.66808, -20.64985], [-50.66652, -20.6503]]]}}, 
{"type": "Feature", "properties": {"CD_SETOR": "351890905000013", "CD_SIT": "2", "NM_DIST": "Guzolândia", "NM_SUBDIST": null}, "geometry": {"type": "Polygon", "coordinates": [[[-50.66538, -20.65203], [-50.6657, -20.65354], [-50.66768, -20.65281], [-50.66673, -20.65178], [-50.66538, -20.65203]]]}}, 
{"type": "Feature", "properties": {"CD_SETOR": "351890905000014", "CD_SIT": "2", "NM_DIST": "Guzolândia", "NM_SUBDIST": null}, "geometry": {"type": "Polygon", "coordinates": [[[-50.65999, -20.64589], [-50.65942, -20.64537], [-50.65836, -20.645], [-50.65641, -20.64769], [-50.65877, -20.64784], [-50.65999, -20.64589]]]}}, 
{"type": "Feature", "properties": {"CD_SETOR": "351890905000015", "CD_SIT": "1", "NM_DIST": "Guzolândia", "NM_SUBDIST": null}, "geometry": {"type": "Polygon", "coordinates": [[[-50.66032, -20.64809], [-50.66062, -20.64807], [-50.6616, -20.65364], [-50.66203, -20.65356], [-50.66213, -20.65426], [-50.66275, -20.65416], [-50.66244, -20.65259], [-50.66441, -20.65221], [-50.66372, -20.64858], [-50.66318, -20.64813], [-50.66095, -20.64697], [-50.66048, -20.64637], [-50.6595, -20.64818], [-50.66032, -20.64809]]]}}, 
{"type": "Feature", "properties": {"CD_SETOR": "351890905000016", "CD_SIT": "1", "NM_DIST": "Guzolândia", "NM_SUBDIST": null}, "geometry": {"type": "Polygon", "coordinates": [[[-50.66032, -20.64809], [-50.658, -20.65226], [-50.65817, -20.65226], [-50.65839, -20.65396], [-50.65875, -20.65392], [-50.65879, -20.65415], [-50.6616, -20.65364], [-50.66062, -20.64807], [-50.66032, -20.64809]]]}}, 
{"type": "Feature", "properties": {"CD_SETOR": "351890905000017", "CD_SIT": "1", "NM_DIST": "Guzolândia", "NM_SUBDIST": null}, "geometry": {"type": "Polygon", "coordinates": [[[-50.66033, -20.64621], [-50.66095, -20.64697], [-50.66318, -20.64813], [-50.66372, -20.64858], [-50.66336, -20.64698], [-50.66514, -20.64665], [-50.66487, -20.6453], [-50.66033, -20.64621]]]}}, 
{"type": "Feature", "properties": {"CD_SETOR": "351890905000018", "CD_SIT": "1", "NM_DIST": "Guzolândia", "NM_SUBDIST": null}, "geometry": {"type": "Polygon", "coordinates": [[[-50.66372, -20.64858], [-50.66441, -20.65221], [-50.66673, -20.65178], [-50.66557, -20.65058], [-50.66652, -20.6503], [-50.66576, -20.64929], [-50.66514, -20.64665], [-50.66336, -20.64698], [-50.66372, -20.64858]]]}}, 
{"type": "Feature", "properties": {"CD_SETOR": "351890905000019", "CD_SIT": "1", "NM_DIST": "Guzolândia", "NM_SUBDIST": null}, "geometry": {"type": "Polygon", "coordinates": [[[-50.65932, -20.6418], [-50.65962, -20.64242], [-50.65853, -20.64265], [-50.6588, -20.64496], [-50.66376, -20.64401], [-50.66283, -20.64339], [-50.66263, -20.64268], [-50.66235, -20.64268], [-50.6624, -20.6429], [-50.66158, -20.64305], [-50.66129, -20.64195], [-50.66068, -20.64218], [-50.66019, -20.64122], [-50.65932, -20.6418]]]}}, 
{"type": "Feature", "properties": {"CD_SETOR": "351890905000020", "CD_SIT": "1", "NM_DIST": "Guzolândia", "NM_SUBDIST": null}, "geometry": {"type": "Polygon", "coordinates": [[[-50.6588, -20.64496], [-50.65881, -20.64514], [-50.65953, -20.64544], [-50.66033, -20.64621], [-50.66487, -20.6453], [-50.66472, -20.64465], [-50.66376, -20.64401], [-50.6588, -20.64496]]]}}]}