{"type": "FeatureCollection", "features": [
{"type": "Feature", "properties": {"CD_SETOR": "351885905000002", "CD_SIT": "1", "NM_DIST": "Guatapará", "NM_SUBDIST": null}, "geometry": {"type": "Polygon", "coordinates": [[[-48.03088, -21.49358], [-48.03124, -21.49449], [-48.03359, -21.49555], [-48.03491, -21.49607], [-48.03517, -21.49545], [-48.03583, -21.49572], [-48.03662, -21.49403], [-48.03529, -21.4935], [-48.03628, -21.49114], [-48.03576, -21.48945], [-48.03326, -21.48964], [-48.03325, -21.49073], [-48.03169, -21.49081], [-48.03236, -21.49247], [-48.0307, -21.49315], [-48.03088, -21.49358]]]}}, 
{"type": "Feature", "properties": {"CD_SETOR": "351885905000005", "CD_SIT": "1", "NM_DIST": "Guatapará", "NM_SUBDIST": null}, "geometry": {"type": "Polygon", "coordinates": [[[-48.03491, -21.49607], [-48.0341, -21.49787], [-48.03857, -21.49863], [-48.03883, -21.49888], [-48.03926, -21.50008], [-48.04116, -21.50334], [-48.04163, -21.50323], [-48.04103, -21.50162], [-48.04064, -21.4999], [-48.0406, -21.49761], [-48.03517, -21.49545], [-48.03491, -21.49607]]]}}, 
{"type": "Feature", "properties": {"CD_SETOR": "351885905000006", "CD_SIT": "1", "NM_DIST": "Guatapará", "NM_SUBDIST": null}, "geometry": {"type": "Polygon", "coordinates": [[[-48.03662, -21.49403], [-48.03583, -21.49572], [-48.0406, -21.49761], [-48.04066, -21.49128], [-48.03964, -21.49108], [-48.0396, -21.49343], [-48.03891, -21.49494], [-48.03725, -21.49427], [-48.0377, -21.49323], [-48.03707, -21.49299], [-48.03662, -21.49403]]]}}, 
{"type": "Feature", "properties": {"CD_SETOR": "351885905000011", "CD_SIT": "8", "NM_DIST": "Guatapará", "NM_SUBDIST": null}, "geometry": {"type": "Polygon", "coordinates": [[[-47.9922, -21.3907], [-47.99175, -21.39146], [-47.99176, -21.39228], [-47.99629, -21.39962], [-47.99682, -21.40104], [-47.99708, -21.40231], [-47.99718, -21.40483], [-47.99699, -21.40612], [-47.98829, -21.44175], [-47.98782, -21.4455], [-47.99053, -21.44736], [-47.99705, -21.45123], [-47.99843, -21.45232], [-47.99963, -21.45279], [-48.0003, -21.45542], [-48.0004, -21.45746], [-48.0013, -21.45935], [-48.0064, -21.46279], [-48.01023, -21.46323], [-48.0173, -21.46182], [-48.02168, -21.46226], [-48.02759, -21.4624], [-48.03025, -21.46195], [-48.03247, -21.46086], [-48.03927, -21.45976], [-48.04898, -21.4614], [-48.051, -21.45881], [-48.05668, -21.45901], [-48.05905, -21.46237], [-48.05939, -21.46584], [-48.06106, -21.4674], [-48.06304, -21.47056], [-48.07011, -21.47455], [-48.07104, -21.47403], [-48.07239, -21.47418], [-48.07297, -21.47485], [-48.07304, -21.47528], [-48.07296, -21.4758], [-48.0718, -21.47781], [-48.07176, -21.47849], [-48.07231, -21.47914], [-48.07296, -21.47945], [-48.07369, -21.4795], [-48.07427, -21.47924], [-48.0748, -21.47876], [-48.07611, -21.4769], [-48.07648, -21.47542], [-48.07671, -21.47222], [-48.0771, -21.47092], [-48.07742, -21.47045], [-48.07869, -21.46973], [-48.07978, -21.46943], [-48.08397, -21.46941], [-48.08449, -21.46925], [-48.08504, -21.46872], [-48.0851, -21.46778], [-48.0845, -21.46654], [-48.08396, -21.46595], [-48.08236, -21.4648], [-48.0816, -21.46375], [-48.0815, -21.46259], [-48.08208, -21.46157], [-48.08297, -21.46128], [-48.08471, -21.4615], [-48.08654, -21.45943], [-48.08732, -21.45901], [-48.08865, -21.45849], [-48.09112, -21.45788], [-48.09324, -21.45682], [-48.09608, -21.45574], [-48.10222, -21.45402], [-48.10302, -21.45348], [-48.1036, -21.45242], [-48.10364, -21.4518], [-48.10329, -21.44941], [-48.1037, -21.44854], [-48.10427, -21.448], [-48.10615, -21.44714], [-48.10796, -21.446], [-48.10863, -21.44528], [-48.10907, -21.44446], [-48.10939, -21.44332], [-48.10942, -21.44041], [-48.10876, -21.4351], [-48.10895, -21.42934], [-48.10779, -21.42935], [-48.10655, -21.43003], [-48.10588, -21.43018], [-48.10437, -21.43005], [-48.10372, -21.42958], [-48.1036, -21.4289], [-48.10329, -21.42856], [-48.10043, -21.4261], [-48.0982, -21.42474], [-48.09549, -21.42388], [-48.0916, -21.42173], [-48.08861, -21.41943], [-48.08492, -21.41606], [-48.08274, -21.41366], [-48.08219, -21.41238], [-48.07968, -21.40995], [-48.07842, -21.40901], [-48.07717, -21.40737], [-48.07467, -21.40555], [-48.07184, -21.40469], [-48.06812, -21.40228], [-48.06743, -21.40111], [-48.067, -21.39891], [-48.06327, -21.39674], [-48.06079, -21.39629], [-48.06051, -21.39637], [-48.06005, -21.3969], [-48.05919, -21.397], [-48.05767, -21.39644], [-48.05662, -21.39523], [-48.05469, -21.39397], [-48.05202, -21.39056], [-48.05104, -21.3895], [-48.05022, -21.3889], [-48.04516, -21.41828], [-48.04456, -21.41782], [-48.04343, -21.41512], [-48.04175, -21.412], [-48.04172, -21.41055], [-48.04157, -21.41026], [-48.04108, -21.41004], [-48.04078, -21.40944], [-48.04006, -21.40867], [-48.03954, -21.40757], [-48.03929, -21.40613], [-48.03657, -21.40033], [-48.03417, -21.39718], [-48.03368, -21.3969], [-48.03323, -21.39634], [-48.03271, -21.39631], [-48.03217, -21.39605], [-48.0311, -21.39607], [-48.02972, -21.39538], [-48.02761, -21.39263], [-48.02587, -21.39077], [-48.02535, -21.39032], [-48.02211, -21.38854], [-48.02053, -21.38708], [-48.01913, -21.38655], [-48.01794, -21.38504], [-48.01725, -21.3838], [-48.01577, -21.38286], [-48.01526, -21.38213], [-48.01536, -21.38095], [-48.02714, -21.38078], [-48.02885, -21.38057], [-48.02991, -21.3797], [-48.03037, -21.37687], [-48.03062, -21.37298], [-48.02569, -21.37332], [-48.02418, -21.37358], [-48.02154, -21.37441], [-47.9922, -21.3907]]]}}, 
{"type": "Feature", "properties": {"CD_SETOR": "351885905000012", "CD_SIT": "8", "NM_DIST": "Guatapará", "NM_SUBDIST": null}, "geometry": {"type": "Polygon", "coordinates": [[[-47.90599, -21.36806], [-47.90649, -21.3684], [-47.90631, -21.36906], [-47.90665, -21.36995], [-47.90705, -21.37031], [-47.90698, -21.37075], [-47.90622, -21.3712], [-47.90575, -21.37205], [-47.90526, -21.37257], [-47.90469, -21.37286], [-47.9035, -21.37308], [-47.90177, -21.37452], [-47.90018, -21.37524], [-47.89989, -21.376], [-47.8993, -21.37655], [-47.89953, -21.37706], [-47.89943, -21.37724], [-47.89773, -21.37782], [-47.89543, -21.3794], [-47.895, -21.37991], [-47.89495, -21.3804], [-47.89511, -21.38072], [-47.89565, -21.38121], [-47.89614, -21.38199], [-47.89737, -21.38321], [-47.89818, -21.38372], [-47.89912, -21.38483], [-47.89933, -21.38594], [-47.89921, -21.38674], [-47.8984, -21.38801], [-47.89825, -21.38881], [-47.89781, -21.38969], [-47.89771, -21.39077], [-47.89789, -21.39245], [-47.89704, -21.39344], [-47.89747, -21.39463], [-47.89751, -21.39531], [-47.89638, -21.40002], [-47.89644, -21.40149], [-47.89675, -21.40266], [-47.8978, -21.40484], [-47.8987, -21.40805], [-47.89929, -21.40907], [-47.8985, -21.41046], [-47.89786, -21.4122], [-47.89751, -21.41403], [-47.89648, -21.41704], [-47.89719, -21.42246], [-47.89789, -21.4255], [-47.89801, -21.42699], [-47.89688, -21.43124], [-47.89635, -21.43644], [-47.89458, -21.4396], [-47.8953, -21.44029], [-47.89628, -21.44088], [-47.92084, -21.43032], [-47.92749, -21.42674], [-47.92975, -21.44328], [-47.92698, -21.45775], [-47.95057, -21.4376], [-47.95153, -21.43793], [-47.96336, -21.44018], [-47.97655, -21.45333], [-47.9765, -21.45352], [-47.96958, -21.45938], [-47.96948, -21.45966], [-47.97169, -21.47352], [-47.97176, -21.47585], [-47.98437, -21.48821], [-47.98556, -21.48882], [-47.99772, -21.4911], [-47.9979, -21.4918], [-47.99721, -21.49506], [-47.99974, -21.49551], [-48.00206, -21.49612], [-48.00451, -21.49646], [-48.00671, -21.49707], [-48.01269, -21.49932], [-48.01568, -21.50095], [-48.01692, -21.50091], [-48.01828, -21.50108], [-48.01999, -21.50296], [-48.0219, -21.50357], [-48.02334, -21.50373], [-48.02454, -21.50428], [-48.03116, -21.50608], [-48.03517, -21.5074], [-48.03662, -21.50623], [-48.03886, -21.5058], [-48.03856, -21.50502], [-48.03866, -21.50462], [-48.0394, -21.50399], [-48.03838, -21.50271], [-48.03768, -21.50219], [-48.03763, -21.50277], [-48.03585, -21.502], [-48.02963, -21.50115], [-48.02963, -21.50093], [-48.02472, -21.50055], [-48.00692, -21.49603], [-48.00756, -21.49289], [-48.01234, -21.482], [-48.0358, -21.48485], [-48.03575, -21.48859], [-48.04071, -21.48832], [-48.04667, -21.48953], [-48.04838, -21.49002], [-48.04881, -21.49057], [-48.05344, -21.49036], [-48.05474, -21.48986], [-48.05535, -21.48923], [-48.05589, -21.48835], [-48.05615, -21.4872], [-48.05619, -21.48577], [-48.0558, -21.48468], [-48.05415, -21.48247], [-48.05421, -21.48136], [-48.05446, -21.48092], [-48.0553, -21.48031], [-48.05712, -21.48005], [-48.05812, -21.4794], [-48.05826, -21.47838], [-48.05722, -21.47619], [-48.0573, -21.47527], [-48.05819, -21.47505], [-48.06021, -21.4753], [-48.06355, -21.47663], [-48.06456, -21.47727], [-48.06631, -21.47889], [-48.06732, -21.47961], [-48.06873, -21.47986], [-48.0695, -21.47939], [-48.06982, -21.47892], [-48.07019, -21.47811], [-48.07021, -21.47726], [-48.06999, -21.47652], [-48.06986, -21.47507], [-48.07011, -21.47455], [-48.06304, -21.47056], [-48.06106, -21.4674], [-48.05939, -21.46584], [-48.05905, -21.46237], [-48.05668, -21.45901], [-48.051, -21.45881], [-48.04898, -21.4614], [-48.03927, -21.45976], [-48.03247, -21.46086], [-48.03025, -21.46195], [-48.02759, -21.4624], [-48.02168, -21.46226], [-48.0173, -21.46182], [-48.01023, -21.46323], [-48.0064, -21.46279], [-48.0013, -21.45935], [-48.0004, -21.45746], [-48.0003, -21.45542], [-47.99963, -21.45279], [-47.99843, -21.45232], [-47.99705, -21.45123], [-47.99053, -21.44736], [-47.98782, -21.4455], [-47.98829, -21.44175], [-47.99699, -21.40612], [-47.99718, -21.40483], [-47.99708, -21.40231], [-47.99682, -21.40104], [-47.99629, -21.39962], [-47.99176, -21.39228], [-47.99175, -21.39146], [-47.9922, -21.3907], [-47.96633, -21.4051], [-47.96218, -21.40282], [-47.96095, -21.40277], [-47.9576, -21.40126], [-47.95297, -21.39873], [-47.94873, -21.39605], [-47.94913, -21.39222], [-47.94742, -21.39075], [-47.942, -21.38289], [-47.93677, -21.37632], [-47.93294, -21.37244], [-47.9314, -21.3689], [-47.93148, -21.36644], [-47.93071, -21.36414], [-47.93094, -21.36171], [-47.93085, -21.35876], [-47.93031, -21.35691], [-47.93, -21.35673], [-47.93008, -21.35613], [-47.92988, -21.35613], [-47.92954, -21.35654], [-47.92881, -21.35646], [-47.92789, -21.35661], [-47.92713, -21.35697], [-47.92689, -21.35679], [-47.92673, -21.35634], [-47.92639, -21.35629], [-47.92571, -21.35683], [-47.92428, -21.35703], [-47.9238, -21.35747], [-47.92351, -21.35698], [-47.92307, -21.35735], [-47.9229, -21.35701], [-47.92234, -21.35675], [-47.92216, -21.35632], [-47.92192, -21.35617], [-47.92169, -21.35637], [-47.92195, -21.35665], [-47.92187, -21.35689], [-47.92127, -21.35656], [-47.92063, -21.35661], [-47.91999, -21.35637], [-47.91949, -21.35792], [-47.91883, -21.35811], [-47.91839, -21.35791], [-47.91834, -21.35823], [-47.9187, -21.3587], [-47.91834, -21.35922], [-47.91797, -21.35912], [-47.91789, -21.3585], [-47.91771, -21.3584], [-47.91713, -21.35872], [-47.91579, -21.35858], [-47.91609, -21.35917], [-47.91548, -21.35923], [-47.91516, -21.35968], [-47.91478, -21.35955], [-47.91423, -21.36011], [-47.91437, -21.35933], [-47.91408, -21.35923], [-47.91367, -21.36027], [-47.9135, -21.36031], [-47.91328, -21.35993], [-47.91307, -21.35994], [-47.91262, -21.36117], [-47.91194, -21.36182], [-47.91171, -21.36179], [-47.91155, -21.36143], [-47.91134, -21.36141], [-47.91097, -21.36196], [-47.91018, -21.36268], [-47.91005, -21.36294], [-47.91027, -21.36356], [-47.91, -21.36403], [-47.91056, -21.36422], [-47.9107, -21.36455], [-47.91024, -21.3647], [-47.90894, -21.36433], [-47.90802, -21.36489], [-47.9077, -21.36526], [-47.90772, -21.36594], [-47.90755, -21.36635], [-47.90734, -21.36654], [-47.90649, -21.36666], [-47.90567, -21.36733], [-47.90599, -21.36806]]]}}, 
{"type": "Feature", "properties": {"CD_SETOR": "351885905000014", "CD_SIT": "8", "NM_DIST": "Guatapará", "NM_SUBDIST": null}, "geometry": {"type": "Polygon", "coordinates": [[[-47.96399, -21.54445], [-47.93946, -21.57616], [-47.93718, -21.57936], [-47.9379, -21.57928], [-47.93842, -21.5795], [-47.93876, -21.58007], [-47.93869, -21.5807], [-47.93824, -21.5813], [-47.93665, -21.58202], [-47.93568, -21.58319], [-47.93458, -21.58502], [-47.93415, -21.58609], [-47.93415, -21.58695], [-47.93448, -21.58763], [-47.9354, -21.5882], [-47.93631, -21.5884], [-47.93722, -21.58829], [-47.93826, -21.58783], [-47.93922, -21.587], [-47.94029, -21.58666], [-47.94125, -21.58701], [-47.94157, -21.58751], [-47.94172, -21.5883], [-47.9416, -21.5891], [-47.94127, -21.5898], [-47.94007, -21.59059], [-47.93794, -21.59092], [-47.93694, -21.59127], [-47.93662, -21.59194], [-47.93672, -21.59244], [-47.93711, -21.59285], [-47.93773, -21.59317], [-47.93852, -21.59328], [-47.93928, -21.59318], [-47.94166, -21.59171], [-47.94343, -21.59094], [-47.94405, -21.59083], [-47.94482, -21.59093], [-47.94593, -21.59176], [-47.94617, -21.59292], [-47.94604, -21.59395], [-47.94558, -21.59441], [-47.94442, -21.59459], [-47.94198, -21.59564], [-47.94143, -21.59632], [-47.94121, -21.59715], [-47.94144, -21.5978], [-47.94227, -21.59811], [-47.94361, -21.59832], [-47.94551, -21.59781], [-47.94616, -21.59781], [-47.94696, -21.59796], [-47.94852, -21.59864], [-47.94952, -21.59876], [-47.95014, -21.5984], [-47.95068, -21.59655], [-47.95138, -21.5957], [-47.95314, -21.59464], [-47.95335, -21.59431], [-47.9528, -21.59174], [-47.95298, -21.59096], [-47.95518, -21.59055], [-47.9562, -21.59073], [-47.95731, -21.59158], [-47.95913, -21.59403], [-47.96207, -21.59647], [-47.96294, -21.59791], [-47.96349, -21.59827], [-47.96425, -21.59826], [-47.96559, -21.59685], [-47.96887, -21.59488], [-47.97008, -21.5944], [-47.97137, -21.59409], [-47.97272, -21.59422], [-47.9736, -21.59462], [-47.97427, -21.59459], [-47.97493, -21.59418], [-47.97699, -21.59163], [-47.97762, -21.59128], [-47.97881, -21.59114], [-47.98045, -21.59269], [-47.98103, -21.59293], [-47.98171, -21.59281], [-47.98233, -21.59239], [-47.98272, -21.59153], [-47.98237, -21.59025], [-47.98102, -21.58803], [-47.98136, -21.58731], [-47.98242, -21.58661], [-47.98315, -21.58664], [-47.98383, -21.58699], [-47.98448, -21.58756], [-47.98477, -21.58829], [-47.98468, -21.58913], [-47.98368, -21.59162], [-47.98342, -21.5937], [-47.98367, -21.59478], [-47.98418, -21.59545], [-47.98516, -21.59587], [-47.98862, -21.59618], [-47.98959, -21.59608], [-47.99075, -21.59559], [-47.99098, -21.5951], [-47.9908, -21.59407], [-47.98799, -21.59066], [-47.98782, -21.5899], [-47.9883, -21.58938], [-47.98926, -21.58926], [-47.99113, -21.58937], [-47.99219, -21.589], [-47.99239, -21.5884], [-47.99219, -21.58767], [-47.99172, -21.5871], [-47.99025, -21.58615], [-47.98978, -21.5856], [-47.98974, -21.58503], [-47.99014, -21.5845], [-47.99066, -21.58426], [-47.99127, -21.58425], [-47.99266, -21.58475], [-47.99329, -21.58482], [-47.99377, -21.58453], [-47.99409, -21.58322], [-47.9938, -21.5822], [-47.99289, -21.58046], [-47.99319, -21.57984], [-47.99368, -21.57947], [-47.99454, -21.57933], [-47.99523, -21.5795], [-47.99867, -21.5817], [-47.99933, -21.58173], [-47.99989, -21.58151], [-48.00032, -21.58085], [-48.00018, -21.58007], [-47.99937, -21.57922], [-47.99755, -21.57801], [-47.99507, -21.57695], [-47.99358, -21.57668], [-47.99247, -21.57687], [-47.99059, -21.57764], [-47.98955, -21.57769], [-47.9891, -21.5771], [-47.98897, -21.57638], [-47.98906, -21.57569], [-47.9906, -21.57389], [-47.99121, -21.57259], [-47.99161, -21.57047], [-47.99132, -21.56823], [-47.99094, -21.56722], [-47.99096, -21.56567], [-47.9915, -21.56503], [-47.99232, -21.56445], [-47.99308, -21.56428], [-47.99387, -21.56433], [-47.99474, -21.56463], [-47.99593, -21.56543], [-47.99699, -21.56745], [-47.99752, -21.56806], [-47.99811, -21.56847], [-47.99847, -21.56852], [-47.99912, -21.56821], [-47.99929, -21.56766], [-47.99913, -21.56694], [-47.99674, -21.56445], [-47.99601, -21.56345], [-47.99564, -21.56273], [-47.99566, -21.56149], [-47.99718, -21.56071], [-47.99951, -21.56059], [-48.00155, -21.56026], [-48.00367, -21.55915], [-48.00507, -21.55918], [-48.00676, -21.5601], [-48.00786, -21.56035], [-48.00881, -21.56015], [-48.00913, -21.55989], [-48.00986, -21.5582], [-48.01008, -21.55679], [-48.0099, -21.55562], [-48.00907, -21.55455], [-48.00718, -21.55326], [-48.00649, -21.55224], [-48.00647, -21.55115], [-48.00749, -21.54874], [-48.00726, -21.54791], [-48.00612, -21.54608], [-48.00581, -21.5453], [-48.00584, -21.54453], [-48.00635, -21.5438], [-48.00701, -21.54346], [-48.00847, -21.54314], [-48.01278, -21.54304], [-48.01369, -21.54279], [-48.01472, -21.54205], [-48.01522, -21.54058], [-48.0151, -21.53913], [-48.01381, -21.53668], [-48.01198, -21.53485], [-48.01182, -21.53442], [-48.01182, -21.53356], [-48.01203, -21.53317], [-48.01259, -21.53276], [-48.01339, -21.53244], [-48.01423, -21.53232], [-48.01513, -21.53239], [-48.01616, -21.53272], [-48.01729, -21.5335], [-48.01769, -21.53461], [-48.01771, -21.53523], [-48.01676, -21.53785], [-48.01667, -21.53849], [-48.01674, -21.53898], [-48.01728, -21.53962], [-48.01915, -21.53986], [-48.02035, -21.53976], [-48.0211, -21.53943], [-48.02293, -21.53787], [-48.02402, -21.53766], [-48.0255, -21.538], [-48.02727, -21.5389], [-48.02787, -21.53881], [-48.0282, -21.53807], [-48.02808, -21.5373], [-48.02724, -21.53614], [-48.02702, -21.53553], [-48.0268, -21.53319], [-48.02627, -21.53119], [-48.0264, -21.53004], [-48.02676, -21.52945], [-48.0277, -21.52875], [-48.02839, -21.52848], [-48.03237, -21.52766], [-48.03291, -21.52733], [-48.0331, -21.52661], [-48.03283, -21.52583], [-48.03171, -21.52447], [-48.03081, -21.52395], [-48.02875, -21.5235], [-48.02826, -21.52308], [-48.02803, -21.52264], [-48.02798, -21.522], [-48.02825, -21.52171], [-48.03109, -21.52036], [-48.03185, -21.51915], [-48.03184, -21.51857], [-48.03131, -21.51748], [-48.03021, -21.51644], [-48.02848, -21.5153], [-48.02817, -21.51483], [-48.0281, -21.51442], [-48.02831, -21.51354], [-48.02881, -21.51342], [-48.02928, -21.51356], [-48.03122, -21.51488], [-48.03183, -21.51501], [-48.03571, -21.51532], [-48.03795, -21.51567], [-48.04019, -21.51625], [-48.04131, -21.51622], [-48.04182, -21.51603], [-48.04223, -21.51565], [-48.04282, -21.5146], [-48.04324, -21.51236], [-48.04307, -21.51003], [-48.04237, -21.50882], [-48.04127, -21.5076], [-48.04035, -21.50678], [-48.03886, -21.5058], [-48.03662, -21.50623], [-48.03517, -21.5074], [-48.03391, -21.50708], [-48.03116, -21.50608], [-48.02454, -21.50428], [-48.02334, -21.50373], [-48.0219, -21.50357], [-48.01999, -21.50296], [-48.01828, -21.50108], [-48.01692, -21.50091], [-48.01568, -21.50095], [-48.01269, -21.49932], [-48.00671, -21.49707], [-48.00451, -21.49646], [-48.00206, -21.49612], [-47.99974, -21.49551], [-47.99721, -21.49506], [-47.99512, -21.50427], [-47.96399, -21.54445]]]}}, 
{"type": "Feature", "properties": {"CD_SETOR": "351885905000015", "CD_SIT": "8", "NM_DIST": "Guatapará", "NM_SUBDIST": null}, "geometry": {"type": "Polygon", "coordinates": [[[-47.98915, -21.30937], [-47.98838, -21.31004], [-47.98808, -21.31068], [-47.98793, -21.31239], [-47.98765, -21.31297], [-47.98747, -21.31302], [-47.98683, -21.31265], [-47.98653, -21.31274], [-47.98582, -21.31359], [-47.98488, -21.31434], [-47.98391, -21.31447], [-47.98309, -21.31488], [-47.9822, -21.31478], [-47.98165, -21.31492], [-47.98118, -21.31526], [-47.98099, -21.31595], [-47.98041, -21.3167], [-47.98041, -21.31702], [-47.98101, -21.31719], [-47.98108, -21.31746], [-47.98007, -21.31819], [-47.9799, -21.31848], [-47.98016, -21.31925], [-47.97991, -21.32001], [-47.97959, -21.32033], [-47.97978, -21.32167], [-47.97953, -21.32188], [-47.97944, -21.32232], [-47.97861, -21.32272], [-47.97849, -21.32381], [-47.97784, -21.32403], [-47.97697, -21.32485], [-47.97629, -21.32485], [-47.97611, -21.32502], [-47.97613, -21.32571], [-47.9757, -21.32553], [-47.97542, -21.32561], [-47.97537, -21.32618], [-47.97523, -21.32633], [-47.97451, -21.32636], [-47.97384, -21.32615], [-47.97361, -21.32586], [-47.97352, -21.32506], [-47.97301, -21.32496], [-47.97277, -21.32515], [-47.97253, -21.32598], [-47.97153, -21.3262], [-47.96848, -21.3256], [-47.96744, -21.32588], [-47.96715, -21.32501], [-47.96686, -21.32516], [-47.96668, -21.3258], [-47.96563, -21.3266], [-47.96547, -21.32807], [-47.96511, -21.32883], [-47.96503, -21.3294], [-47.96394, -21.33028], [-47.96414, -21.33116], [-47.96382, -21.3318], [-47.96423, -21.33226], [-47.96482, -21.33492], [-47.96454, -21.33525], [-47.96376, -21.33501], [-47.9638, -21.33563], [-47.96348, -21.33609], [-47.96405, -21.33657], [-47.96464, -21.33774], [-47.96466, -21.33807], [-47.96413, -21.33814], [-47.96404, -21.33833], [-47.96426, -21.33867], [-47.96438, -21.33963], [-47.96418, -21.33977], [-47.96392, -21.33957], [-47.96368, -21.33959], [-47.96372, -21.34043], [-47.96358, -21.34055], [-47.96313, -21.34047], [-47.9634, -21.34108], [-47.96255, -21.34121], [-47.96257, -21.34179], [-47.96225, -21.34217], [-47.96118, -21.34234], [-47.95963, -21.34204], [-47.95904, -21.34234], [-47.95841, -21.34223], [-47.95795, -21.34263], [-47.95735, -21.34223], [-47.95666, -21.34311], [-47.95645, -21.34317], [-47.95603, -21.34282], [-47.95577, -21.34282], [-47.95502, -21.34365], [-47.95452, -21.34345], [-47.95369, -21.34366], [-47.95289, -21.3432], [-47.95115, -21.34345], [-47.95045, -21.34307], [-47.94989, -21.34309], [-47.9484, -21.34432], [-47.94693, -21.34416], [-47.94593, -21.34457], [-47.94502, -21.34445], [-47.94475, -21.34457], [-47.94444, -21.34529], [-47.944, -21.34572], [-47.94397, -21.34634], [-47.94406, -21.34691], [-47.94476, -21.34759], [-47.94485, -21.34792], [-47.94469, -21.34812], [-47.94416, -21.34803], [-47.94388, -21.34847], [-47.94382, -21.34937], [-47.94336, -21.35081], [-47.94366, -21.35122], [-47.94365, -21.35143], [-47.94327, -21.35182], [-47.94321, -21.35209], [-47.94342, -21.35354], [-47.94283, -21.35417], [-47.94224, -21.3541], [-47.9421, -21.35515], [-47.94187, -21.35473], [-47.94172, -21.3548], [-47.94161, -21.35528], [-47.94129, -21.35503], [-47.94107, -21.35507], [-47.94101, -21.35534], [-47.94131, -21.35623], [-47.94193, -21.35612], [-47.94224, -21.35634], [-47.94221, -21.35652], [-47.94114, -21.35738], [-47.94002, -21.35767], [-47.93981, -21.35788], [-47.9401, -21.35851], [-47.93999, -21.35869], [-47.93919, -21.35859], [-47.93901, -21.35885], [-47.93873, -21.35892], [-47.9382, -21.35854], [-47.93728, -21.3585], [-47.93629, -21.35813], [-47.93587, -21.35857], [-47.93512, -21.35879], [-47.93358, -21.35836], [-47.93279, -21.35842], [-47.93096, -21.35698], [-47.93031, -21.35691], [-47.93085, -21.35876], [-47.93094, -21.36171], [-47.93071, -21.36414], [-47.93148, -21.36644], [-47.9314, -21.3689], [-47.93294, -21.37244], [-47.93677, -21.37632], [-47.942, -21.38289], [-47.94742, -21.39075], [-47.94913, -21.39222], [-47.94873, -21.39605], [-47.95297, -21.39873], [-47.9576, -21.40126], [-47.96095, -21.40277], [-47.96218, -21.40282], [-47.96633, -21.4051], [-48.02154, -21.37441], [-48.02418, -21.37358], [-48.02569, -21.37332], [-48.03062, -21.37298], [-48.03111, -21.37021], [-48.03229, -21.36614], [-48.03175, -21.36513], [-48.03219, -21.36285], [-48.0326, -21.36162], [-48.03286, -21.3595], [-48.03282, -21.35841], [-48.03232, -21.35743], [-48.0293, -21.35511], [-48.02842, -21.3538], [-48.02802, -21.35225], [-48.02786, -21.34703], [-48.02731, -21.3465], [-48.0271, -21.34559], [-48.02628, -21.34447], [-48.02519, -21.34216], [-48.02495, -21.34108], [-48.02506, -21.3401], [-48.02488, -21.33949], [-48.02424, -21.33799], [-48.02295, -21.33334], [-48.02177, -21.33094], [-48.01803, -21.32718], [-48.01755, -21.32642], [-48.01729, -21.32627], [-48.01566, -21.3262], [-48.01505, -21.326], [-48.01387, -21.32519], [-48.00912, -21.32128], [-48.00706, -21.31827], [-48.00641, -21.31642], [-48.00583, -21.31544], [-48.00546, -21.31303], [-48.00466, -21.31109], [-48.0039, -21.31055], [-48.00253, -21.3085], [-48.00201, -21.3081], [-47.99864, -21.30632], [-47.99716, -21.30567], [-47.99523, -21.30516], [-47.99466, -21.3047], [-47.99382, -21.30585], [-47.99378, -21.30651], [-47.99361, -21.30658], [-47.99328, -21.3063], [-47.99296, -21.30635], [-47.99235, -21.30699], [-47.99219, -21.30756], [-47.99231, -21.30895], [-47.99214, -21.3093], [-47.99183, -21.30927], [-47.99181, -21.30882], [-47.99143, -21.30881], [-47.99142, -21.30974], [-47.99109, -21.31009], [-47.99089, -21.30993], [-47.99096, -21.30934], [-47.99085, -21.30916], [-47.99055, -21.30915], [-47.99004, -21.30949], [-47.98915, -21.30937]]]}}, 
{"type": "Feature", "properties": {"CD_SETOR": "351885905000016", "CD_SIT": "1", "NM_DIST": "Guatapará", "NM_SUBDIST": null}, "geometry": {"type": "Polygon", "coordinates": [[[-48.03575, -21.48859], [-48.03574, -21.48935], [-48.03628, -21.49114], [-48.03621, -21.49144], [-48.03816, -21.4922], [-48.03882, -21.49076], [-48.04023, -21.4913], [-48.04066, -21.49128], [-48.04071, -21.48832], [-48.03575, -21.48859]]]}}, 
{"type": "Feature", "properties": {"CD_SETOR": "351885905000017", "CD_SIT": "1", "NM_DIST": "Guatapará", "NM_SUBDIST": null}, "geometry": {"type": "Polygon", "coordinates": [[[-48.03621, -21.49144], [-48.03529, -21.4935], [-48.03662, -21.49403], [-48.03707, -21.49299], [-48.0377, -21.49323], [-48.03725, -21.49427], [-48.03891, -21.49494], [-48.0396, -21.49343], [-48.03964, -21.49108], [-48.03882, -21.49076], [-48.03816, -21.4922], [-48.03621, -21.49144]]]}}, 
{"type": "Feature", "properties": {"CD_SETOR": "351885905000018", "CD_SIT": "1", "NM_DIST": "Guatapará", "NM_SUBDIST": null}, "geometry": {"type": "Polygon", "coordinates": [[[-48.03151, -21.49807], [-48.0312, -21.49937], [-48.03191, -21.49952], [-48.03157, -21.50082], [-48.03652, -21.50047], [-48.03806, -21.49856], [-48.03448, -21.49794], [-48.03432, -21.49861], [-48.03151, -21.49807]]]}}, 
{"type": "Feature", "properties": {"CD_SETOR": "351885905000019", "CD_SIT": "2", "NM_DIST": "Guatapará", "NM_SUBDIST": null}, "geometry": {"type": "Polygon", "coordinates": [[[-48.02802, -21.49672], [-48.0317, -21.49742], [-48.03151, -21.49807], [-48.03432, -21.49861], [-48.03448, -21.49794], [-48.0341, -21.49787], [-48.03491, -21.49607], [-48.03134, -21.49456], [-48.03088, -21.49358], [-48.02867, -21.49435], [-48.02802, -21.49672]]]}}, 
{"type": "Feature", "properties": {"CD_SETOR": "351885905000020", "CD_SIT": "1", "NM_DIST": "Guatapará", "NM_SUBDIST": null}, "geometry": {"type": "Polygon", "coordinates": [[[-48.03806, -21.49856], [-48.03652, -21.50047], [-48.02963, -21.50093], [-48.02963, -21.50115], [-48.03585, -21.502], [-48.03763, -21.50277], [-48.03768, -21.50219], [-48.03838, -21.50271], [-48.0394, -21.50399], [-48.04116, -21.50334], [-48.03926, -21.50008], [-48.03879, -21.49881], [-48.03806, -21.49856]]]}}, 
{"type": "Feature", "properties": {"CD_SETOR": "351885905000021", "CD_SIT": "1", "NM_DIST": "Guatapará", "NM_SUBDIST": null}, "geometry": {"type": "Polygon", "coordinates": [[[-48.02733, -21.50078], [-48.02908, -21.50095], [-48.03157, -21.50082], [-48.03191, -21.49952], [-48.0312, -21.49937], [-48.0317, -21.49742], [-48.02802, -21.49672], [-48.02798, -21.49874], [-48.02789, -21.49908], [-48.02772, -21.49905], [-48.02733, -21.50078]]]}}, 
{"type": "Feature", "properties": {"CD_SETOR": "351885905000022", "CD_SIT": "1", "NM_DIST": "Guatapará", "NM_SUBDIST": null}, "geometry": {"type": "Polygon", "coordinates": [[[-48.02472, -21.50055], [-48.02733, -21.50078], [-48.02772, -21.49905], [-48.02789, -21.49908], [-48.02798, -21.49874], [-48.02802, -21.49672], [-48.02559, -21.49627], [-48.02472, -21.50055]]]}}, 
{"type": "Feature", "properties": {"CD_SETOR": "351885905000023", "CD_SIT": "8", "NM_DIST": "Guatapará", "NM_SUBDIST": null}, "geometry": {"type": "Polygon", "coordinates": [[[-48.02472, -21.50055], [-48.02559, -21.49627], [-48.02802, -21.49672], [-48.02867, -21.49435], [-48.03088, -21.49358], [-48.0307, -21.49315], [-48.03236, -21.49247], [-48.03169, -21.49081], [-48.03325, -21.49073], [-48.03326, -21.48964], [-48.03576, -21.48945], [-48.0358, -21.48485], [-48.01234, -21.482], [-48.00756, -21.49289], [-48.00692, -21.49603], [-48.02472, -21.50055]]]}}, 
{"type": "Feature", "properties": {"CD_SETOR": "351885905000024", "CD_SIT": "3", "NM_DIST": "Guatapará", "NM_SUBDIST": null}, "geometry": {"type": "Polygon", "coordinates": [[[-47.95807, -21.5521], [-47.96399, -21.54445], [-47.9616, -21.5442], [-47.95618, -21.54207], [-47.95345, -21.54574], [-47.95389, -21.54605], [-47.95221, -21.54816], [-47.95807, -21.5521]]]}}, 
{"type": "Feature", "properties": {"CD_SETOR": "351885905000025", "CD_SIT": "8", "NM_DIST": "Guatapará", "NM_SUBDIST": null}, "geometry": {"type": "Polygon", "coordinates": [[[-47.88985, -21.49211], [-47.88807, -21.49538], [-47.88814, -21.49723], [-47.8884, -21.49831], [-47.88762, -21.50009], [-47.88743, -21.50103], [-47.88823, -21.50373], [-47.88878, -21.50437], [-47.88949, -21.50612], [-47.88987, -21.50871], [-47.8904, -21.50998], [-47.89068, -21.51292], [-47.89107, -21.5144], [-47.89314, -21.51751], [-47.89658, -21.52184], [-47.89929, -21.52576], [-47.9001, -21.52741], [-47.90048, -21.53073], [-47.90093, -21.53164], [-47.90486, -21.53651], [-47.90899, -21.53871], [-47.91193, -21.53963], [-47.91328, -21.54024], [-47.91762, -21.54323], [-47.91933, -21.54353], [-47.92033, -21.54402], [-47.92089, -21.54487], [-47.92118, -21.54581], [-47.92131, -21.54688], [-47.92122, -21.54964], [-47.92099, -21.55077], [-47.92034, -21.55255], [-47.91933, -21.55467], [-47.91916, -21.55585], [-47.91973, -21.5573], [-47.92053, -21.55781], [-47.92075, -21.55819], [-47.9211, -21.55969], [-47.92185, -21.56047], [-47.92235, -21.56131], [-47.92235, -21.56242], [-47.92294, -21.56311], [-47.92281, -21.56366], [-47.92306, -21.56442], [-47.92346, -21.56505], [-47.92482, -21.56506], [-47.92539, -21.56566], [-47.92576, -21.56639], [-47.92681, -21.56771], [-47.92749, -21.56911], [-47.92785, -21.57057], [-47.92781, -21.57118], [-47.92812, -21.57273], [-47.92807, -21.57324], [-47.92724, -21.57434], [-47.92719, -21.57455], [-47.92759, -21.57539], [-47.92718, -21.57597], [-47.92827, -21.57685], [-47.93136, -21.57843], [-47.93279, -21.57955], [-47.93414, -21.58028], [-47.93554, -21.58005], [-47.93718, -21.57936], [-47.94181, -21.57301], [-47.94597, -21.56782], [-47.95807, -21.5521], [-47.95221, -21.54816], [-47.95389, -21.54605], [-47.95345, -21.54574], [-47.95618, -21.54207], [-47.95283, -21.53784], [-47.95156, -21.533], [-47.95054, -21.52696], [-47.94956, -21.52454], [-47.94848, -21.52263], [-47.9411, -21.51761], [-47.93347, -21.50911], [-47.94767, -21.49083], [-47.89569, -21.4925], [-47.88985, -21.49211]]]}}, 
{"type": "Feature", "properties": {"CD_SETOR": "351885905000026", "CD_SIT": "1", "NM_DIST": "Guatapará", "NM_SUBDIST": null}, "geometry": {"type": "Polygon", "coordinates": [[[-48.04066, -21.49128], [-48.04065, -21.49212], [-48.04274, -21.49216], [-48.04319, -21.49123], [-48.04467, -21.48976], [-48.04499, -21.48913], [-48.04071, -21.48832], [-48.04066, -21.49128]]]}}, 
{"type": "Feature", "properties": {"CD_SETOR": "351885905000027", "CD_SIT": "8", "NM_DIST": "Guatapará", "NM_SUBDIST": null}, "geometry": {"type": "Polygon", "coordinates": [[[-48.04065, -21.49212], [-48.04056, -21.49936], [-48.04103, -21.50162], [-48.04163, -21.50323], [-48.04546, -21.50191], [-48.04718, -21.50163], [-48.05009, -21.50152], [-48.05079, -21.50115], [-48.05116, -21.50012], [-48.052, -21.49956], [-48.05226, -21.49856], [-48.05221, -21.49738], [-48.05161, -21.49605], [-48.05106, -21.49555], [-48.04957, -21.49493], [-48.04833, -21.49496], [-48.04539, -21.49575], [-48.04487, -21.49575], [-48.04444, -21.49472], [-48.04466, -21.49338], [-48.04507, -21.49272], [-48.0458, -21.49201], [-48.04689, -21.49132], [-48.0468, -21.49106], [-48.04734, -21.49079], [-48.04881, -21.49057], [-48.04838, -21.49002], [-48.04499, -21.48913], [-48.04467, -21.48976], [-48.04319, -21.49123], [-48.04274, -21.49216], [-48.04065, -21.49212]]]}}, 
{"type": "Feature", "properties": {"CD_SETOR": "351885905000028", "CD_SIT": "8", "NM_DIST": "Guatapará", "NM_SUBDIST": null}, "geometry": {"type": "Polygon", "coordinates": [[[-47.89628, -21.44088], [-47.89721, -21.44175], [-47.89812, -21.44353], [-47.89961, -21.4448], [-47.89979, -21.44521], [-47.90053, -21.451], [-47.9008, -21.45647], [-47.90126, -21.45789], [-47.90211, -21.4592], [-47.90238, -21.46011], [-47.90235, -21.46067], [-47.90143, -21.4633], [-47.8988, -21.46802], [-47.89556, -21.47296], [-47.89468, -21.47508], [-47.89366, -21.48176], [-47.89316, -21.48324], [-47.89221, -21.48443], [-47.89173, -21.48579], [-47.89053, -21.49086], [-47.88985, -21.49211], [-47.89569, -21.4925], [-47.94767, -21.49083], [-47.93347, -21.50911], [-47.9411, -21.51761], [-47.94848, -21.52263], [-47.94956, -21.52454], [-47.95054, -21.52696], [-47.95156, -21.533], [-47.95283, -21.53784], [-47.95618, -21.54207], [-47.9616, -21.5442], [-47.96399, -21.54445], [-47.99512, -21.50427], [-47.9979, -21.4918], [-47.99772, -21.4911], [-47.98556, -21.48882], [-47.98437, -21.48821], [-47.97176, -21.47585], [-47.97169, -21.47352], [-47.96948, -21.45966], [-47.96958, -21.45938], [-47.9765, -21.45352], [-47.97655, -21.45333], [-47.96336, -21.44018], [-47.95153, -21.43793], [-47.95057, -21.4376], [-47.92698, -21.45775], [-47.92975, -21.44328], [-47.92749, -21.42674], [-47.92084, -21.43032], [-47.89628, -21.44088]]]}}]}