{"type": "FeatureCollection", "features": [
{"type": "Feature", "properties": {"CD_SETOR": "352660505000002", "CD_SIT": "2", "NM_DIST": "Lavrinhas", "NM_SUBDIST": null}, "geometry": {"type": "MultiPolygon", "coordinates": [[[[-44.9256, -22.56901], [-44.92587, -22.56989], [-44.92581, -22.57017], [-44.92626, -22.57015], [-44.92675, -22.56938], [-44.92596, -22.56899], [-44.9256, -22.56901]]], [[[-44.92727, -22.57073], [-44.92694, -22.57084], [-44.92934, -22.57084], [-44.9299, -22.57], [-44.9299, -22.56896], [-44.92752, -22.56838], [-44.92728, -22.56846], [-44.92704, -22.56886], [-44.92716, -22.57019], [-44.92737, -22.57045], [-44.92727, -22.57073]]], [[[-44.92744, -22.5674], [-44.92722, -22.56777], [-44.9273, -22.56811], [-44.92979, -22.56869], [-44.93005, -22.56858], [-44.92993, -22.56832], [-44.92923, -22.56805], [-44.92861, -22.56757], [-44.92744, -22.5674]]]]}}, 
{"type": "Feature", "properties": {"CD_SETOR": "352660505000006", "CD_SIT": "2", "NM_DIST": "Lavrinhas", "NM_SUBDIST": null}, "geometry": {"type": "Polygon", "coordinates": [[[-44.92139, -22.54304], [-44.92244, -22.54419], [-44.92347, -22.5446], [-44.92383, -22.54512], [-44.92405, -22.54669], [-44.92432, -22.54719], [-44.92396, -22.54848], [-44.92417, -22.54906], [-44.92411, -22.55], [-44.92451, -22.5505], [-44.92464, -22.55118], [-44.92595, -22.5533], [-44.92686, -22.55374], [-44.92763, -22.55377], [-44.92638, -22.55314], [-44.92604, -22.55247], [-44.92585, -22.55091], [-44.92546, -22.54977], [-44.92543, -22.54941], [-44.92569, -22.54884], [-44.92503, -22.54787], [-44.92479, -22.54706], [-44.92498, -22.5437], [-44.92331, -22.54112], [-44.92283, -22.54113], [-44.92248, -22.5414], [-44.92231, -22.54206], [-44.92139, -22.54304]]]}}, 
{"type": "Feature", "properties": {"CD_SETOR": "352660505000008", "CD_SIT": "2", "NM_DIST": "Lavrinhas", "NM_SUBDIST": null}, "geometry": {"type": "Polygon", "coordinates": [[[-44.91241, -22.5419], [-44.91246, -22.54293], [-44.91224, -22.5436], [-44.91305, -22.54481], [-44.91269, -22.56291], [-44.91361, -22.56201], [-44.91594, -22.55905], [-44.91646, -22.55711], [-44.9165, -22.55595], [-44.917, -22.55496], [-44.91678, -22.55363], [-44.91685, -22.55117], [-44.91711, -22.54973], [-44.91698, -22.54927], [-44.91677, -22.5491], [-44.91581, -22.54884], [-44.91537, -22.54846], [-44.91458, -22.54587], [-44.91455, -22.54498], [-44.91298, -22.5429], [-44.91726, -22.54373], [-44.91654, -22.5431], [-44.91538, -22.54247], [-44.91484, -22.54179], [-44.91346, -22.54148], [-44.91241, -22.5419]]]}}, 
{"type": "Feature", "properties": {"CD_SETOR": "352660505000009", "CD_SIT": "2", "NM_DIST": "Lavrinhas", "NM_SUBDIST": null}, "geometry": {"type": "Polygon", "coordinates": [[[-44.88452, -22.58648], [-44.88724, -22.58693], [-44.89963, -22.57539], [-44.8984, -22.57455], [-44.88884, -22.58267], [-44.88745, -22.5837], [-44.88556, -22.58449], [-44.88542, -22.58569], [-44.88452, -22.58648]]]}}, 
{"type": "Feature", "properties": {"CD_SETOR": "352660505000011", "CD_SIT": "2", "NM_DIST": "Lavrinhas", "NM_SUBDIST": null}, "geometry": {"type": "Polygon", "coordinates": [[[-44.91268, -22.57086], [-44.91843, -22.57089], [-44.92417, -22.57084], [-44.92362, -22.57034], [-44.92098, -22.56935], [-44.92058, -22.56859], [-44.91775, -22.56686], [-44.91753, -22.56701], [-44.91697, -22.56664], [-44.9159, -22.56695], [-44.91495, -22.56681], [-44.91277, -22.56576], [-44.91268, -22.57086]]]}}, 
{"type": "Feature", "properties": {"CD_SETOR": "352660505000013", "CD_SIT": "2", "NM_DIST": "Lavrinhas", "NM_SUBDIST": null}, "geometry": {"type": "Polygon", "coordinates": [[[-44.87766, -22.58128], [-44.87808, -22.58152], [-44.87904, -22.5814], [-44.87935, -22.58169], [-44.88046, -22.58174], [-44.88072, -22.58186], [-44.88073, -22.58205], [-44.88125, -22.58186], [-44.88207, -22.5824], [-44.88289, -22.58266], [-44.88368, -22.58276], [-44.88421, -22.58263], [-44.88501, -22.5829], [-44.88622, -22.58271], [-44.88665, -22.582], [-44.88898, -22.58038], [-44.88966, -22.57912], [-44.8909, -22.57797], [-44.89124, -22.57665], [-44.89191, -22.575], [-44.89289, -22.57402], [-44.89422, -22.57358], [-44.89549, -22.57339], [-44.89603, -22.57358], [-44.89685, -22.5734], [-44.89705, -22.57329], [-44.89709, -22.57298], [-44.89738, -22.57264], [-44.89802, -22.57245], [-44.90051, -22.57282], [-44.90515, -22.56904], [-44.90636, -22.56781], [-44.9068, -22.56776], [-44.90736, -22.56637], [-44.90804, -22.56661], [-44.90807, -22.56648], [-44.90764, -22.56629], [-44.90824, -22.56617], [-44.90874, -22.56545], [-44.90922, -22.56526], [-44.91128, -22.56535], [-44.91219, -22.56353], [-44.91269, -22.56291], [-44.91271, -22.55895], [-44.91102, -22.55913], [-44.91005, -22.55948], [-44.90927, -22.55986], [-44.9085, -22.56053], [-44.90615, -22.56135], [-44.9046, -22.56214], [-44.9019, -22.56428], [-44.89948, -22.56671], [-44.89799, -22.5677], [-44.89561, -22.56835], [-44.89332, -22.5687], [-44.89009, -22.56992], [-44.88917, -22.57063], [-44.88829, -22.57159], [-44.88734, -22.57332], [-44.88577, -22.57513], [-44.88562, -22.5765], [-44.88508, -22.57733], [-44.88455, -22.57732], [-44.88316, -22.57667], [-44.87872, -22.57663], [-44.87424, -22.57682], [-44.87524, -22.57717], [-44.87616, -22.57772], [-44.87701, -22.57864], [-44.87748, -22.57965], [-44.87766, -22.58128]]]}}, 
{"type": "Feature", "properties": {"CD_SETOR": "352660505000014", "CD_SIT": "2", "NM_DIST": "Lavrinhas", "NM_SUBDIST": null}, "geometry": {"type": "Polygon", "coordinates": [[[-44.92563, -22.56409], [-44.9232, -22.5632], [-44.92151, -22.56281], [-44.91674, -22.56284], [-44.91508, -22.56249], [-44.91245, -22.56343], [-44.91253, -22.56306], [-44.91128, -22.56535], [-44.91184, -22.56534], [-44.9119, -22.5651], [-44.91231, -22.56536], [-44.91289, -22.56506], [-44.91393, -22.56575], [-44.91513, -22.56623], [-44.91669, -22.56586], [-44.91708, -22.56614], [-44.91753, -22.56607], [-44.91839, -22.56655], [-44.91928, -22.56679], [-44.92004, -22.56731], [-44.9204, -22.56776], [-44.92096, -22.56784], [-44.92149, -22.56825], [-44.92164, -22.56859], [-44.92207, -22.56879], [-44.92219, -22.5691], [-44.92351, -22.56986], [-44.92409, -22.56999], [-44.9242, -22.57019], [-44.92498, -22.57012], [-44.92533, -22.56991], [-44.92557, -22.56776], [-44.92663, -22.56697], [-44.9272, -22.56682], [-44.92843, -22.56695], [-44.92944, -22.56738], [-44.93052, -22.5682], [-44.93169, -22.5688], [-44.93178, -22.56776], [-44.93161, -22.56643], [-44.93201, -22.56543], [-44.932, -22.56474], [-44.93158, -22.56373], [-44.93146, -22.56272], [-44.93091, -22.56199], [-44.92988, -22.56111], [-44.92957, -22.56027], [-44.92949, -22.55842], [-44.93068, -22.55731], [-44.93037, -22.55637], [-44.93003, -22.55614], [-44.92928, -22.55598], [-44.92892, -22.55565], [-44.92877, -22.55606], [-44.92841, -22.55635], [-44.92843, -22.55857], [-44.92793, -22.56036], [-44.92799, -22.56087], [-44.92868, -22.56172], [-44.92839, -22.56258], [-44.92693, -22.56378], [-44.92699, -22.56471], [-44.92563, -22.56409]]]}}, 
{"type": "Feature", "properties": {"CD_SETOR": "352660505000015", "CD_SIT": "2", "NM_DIST": "Lavrinhas", "NM_SUBDIST": null}, "geometry": {"type": "Polygon", "coordinates": [[[-44.92388, -22.5545], [-44.9258, -22.55516], [-44.92561, -22.56171], [-44.92618, -22.56264], [-44.926, -22.56336], [-44.92564, -22.5637], [-44.92563, -22.56409], [-44.92699, -22.56471], [-44.92693, -22.56378], [-44.92828, -22.56274], [-44.92866, -22.56187], [-44.92868, -22.56172], [-44.92799, -22.56087], [-44.92793, -22.56036], [-44.92843, -22.55857], [-44.92841, -22.55635], [-44.92877, -22.55606], [-44.92892, -22.55565], [-44.92791, -22.55401], [-44.92763, -22.55377], [-44.92686, -22.55374], [-44.92595, -22.5533], [-44.92508, -22.5518], [-44.92403, -22.55278], [-44.92388, -22.5545]]]}}, 
{"type": "Feature", "properties": {"CD_SETOR": "352660505000016", "CD_SIT": "1", "NM_DIST": "Lavrinhas", "NM_SUBDIST": null}, "geometry": {"type": "Polygon", "coordinates": [[[-44.92304, -22.56073], [-44.92273, -22.56113], [-44.92228, -22.56114], [-44.92266, -22.56245], [-44.92248, -22.563], [-44.92563, -22.56409], [-44.92564, -22.5637], [-44.926, -22.56336], [-44.92618, -22.56264], [-44.92563, -22.56183], [-44.92569, -22.55953], [-44.92376, -22.55949], [-44.92374, -22.56076], [-44.92304, -22.56073]]]}}, 
{"type": "Feature", "properties": {"CD_SETOR": "352660505000017", "CD_SIT": "1", "NM_DIST": "Lavrinhas", "NM_SUBDIST": null}, "geometry": {"type": "Polygon", "coordinates": [[[-44.92388, -22.5545], [-44.92379, -22.55824], [-44.92246, -22.55825], [-44.92235, -22.55872], [-44.92247, -22.55962], [-44.92304, -22.56073], [-44.92374, -22.56076], [-44.92376, -22.55949], [-44.92569, -22.55953], [-44.9258, -22.55516], [-44.92388, -22.5545]]]}}, 
{"type": "Feature", "properties": {"CD_SETOR": "352660505000018", "CD_SIT": "2", "NM_DIST": "Lavrinhas", "NM_SUBDIST": null}, "geometry": {"type": "Polygon", "coordinates": [[[-44.91449, -22.56264], [-44.9152, -22.56249], [-44.91674, -22.56284], [-44.92112, -22.56279], [-44.92248, -22.563], [-44.92266, -22.56245], [-44.92228, -22.56114], [-44.92273, -22.56113], [-44.92304, -22.56073], [-44.92247, -22.55962], [-44.92235, -22.55872], [-44.92246, -22.55825], [-44.92379, -22.55824], [-44.92388, -22.5545], [-44.92208, -22.55577], [-44.92181, -22.55563], [-44.92136, -22.55468], [-44.9211, -22.55446], [-44.92029, -22.55433], [-44.91929, -22.55457], [-44.91868, -22.55587], [-44.91867, -22.55705], [-44.91734, -22.55909], [-44.91718, -22.55976], [-44.91624, -22.56094], [-44.91543, -22.56111], [-44.91461, -22.56219], [-44.91449, -22.56264]]]}}, 
{"type": "Feature", "properties": {"CD_SETOR": "352660505000019", "CD_SIT": "2", "NM_DIST": "Lavrinhas", "NM_SUBDIST": null}, "geometry": {"type": "Polygon", "coordinates": [[[-44.91726, -22.54373], [-44.91298, -22.5429], [-44.91455, -22.54498], [-44.91458, -22.54587], [-44.91537, -22.54846], [-44.91581, -22.54884], [-44.91677, -22.5491], [-44.91708, -22.5495], [-44.91685, -22.55117], [-44.91678, -22.55363], [-44.91701, -22.55481], [-44.9165, -22.55595], [-44.91646, -22.55711], [-44.91594, -22.55905], [-44.91361, -22.56201], [-44.91253, -22.56306], [-44.91245, -22.56343], [-44.91449, -22.56264], [-44.91461, -22.56219], [-44.91543, -22.56111], [-44.91639, -22.5608], [-44.91718, -22.55976], [-44.91734, -22.55909], [-44.91867, -22.55705], [-44.91868, -22.55587], [-44.91929, -22.55457], [-44.92029, -22.55433], [-44.9211, -22.55446], [-44.92136, -22.55468], [-44.92181, -22.55563], [-44.9223, -22.55573], [-44.92388, -22.5545], [-44.92403, -22.55278], [-44.92508, -22.5518], [-44.92464, -22.55118], [-44.92451, -22.5505], [-44.92411, -22.55], [-44.92417, -22.54906], [-44.92396, -22.54848], [-44.92432, -22.54719], [-44.92405, -22.54669], [-44.92383, -22.54512], [-44.92347, -22.5446], [-44.92267, -22.54436], [-44.92108, -22.54288], [-44.92075, -22.54295], [-44.91967, -22.54378], [-44.91838, -22.54363], [-44.91726, -22.54373]]]}}, 
{"type": "Feature", "properties": {"CD_SETOR": "352660505000020", "CD_SIT": "8", "NM_DIST": "Lavrinhas", "NM_SUBDIST": null}, "geometry": {"type": "Polygon", "coordinates": [[[-44.85457, -22.55831], [-44.85499, -22.55839], [-44.85625, -22.55923], [-44.85659, -22.55997], [-44.85708, -22.56013], [-44.85721, -22.5604], [-44.85864, -22.56076], [-44.85859, -22.56093], [-44.85915, -22.56133], [-44.85932, -22.56179], [-44.85988, -22.56213], [-44.86039, -22.56223], [-44.86041, -22.56242], [-44.86125, -22.56286], [-44.86376, -22.56359], [-44.86498, -22.56433], [-44.86513, -22.56492], [-44.86509, -22.56523], [-44.86485, -22.5654], [-44.86485, -22.56637], [-44.86464, -22.56646], [-44.86461, -22.56707], [-44.86468, -22.56804], [-44.86488, -22.5681], [-44.86486, -22.56844], [-44.86442, -22.5692], [-44.86439, -22.56957], [-44.86461, -22.56981], [-44.86455, -22.57089], [-44.86439, -22.571], [-44.86426, -22.57166], [-44.86491, -22.57346], [-44.86631, -22.57488], [-44.86628, -22.5752], [-44.86778, -22.57614], [-44.87006, -22.57614], [-44.8712, -22.57646], [-44.8723, -22.5774], [-44.87396, -22.57773], [-44.87458, -22.57837], [-44.87562, -22.57896], [-44.87643, -22.57974], [-44.87713, -22.58121], [-44.87766, -22.58128], [-44.87748, -22.57965], [-44.87701, -22.57864], [-44.87616, -22.57772], [-44.87524, -22.57717], [-44.87424, -22.57682], [-44.87872, -22.57663], [-44.88316, -22.57667], [-44.88455, -22.57732], [-44.88508, -22.57733], [-44.88562, -22.5765], [-44.88577, -22.57513], [-44.88734, -22.57332], [-44.88829, -22.57159], [-44.88917, -22.57063], [-44.89009, -22.56992], [-44.89332, -22.5687], [-44.89561, -22.56835], [-44.89799, -22.5677], [-44.89948, -22.56671], [-44.9019, -22.56428], [-44.9046, -22.56214], [-44.90615, -22.56135], [-44.9085, -22.56053], [-44.90927, -22.55986], [-44.91005, -22.55948], [-44.91102, -22.55913], [-44.91271, -22.55895], [-44.91305, -22.54481], [-44.91224, -22.5436], [-44.91246, -22.54293], [-44.91241, -22.5419], [-44.91023, -22.54247], [-44.90921, -22.54256], [-44.90712, -22.54447], [-44.90533, -22.54439], [-44.90344, -22.54378], [-44.90134, -22.54215], [-44.89927, -22.54191], [-44.89859, -22.54167], [-44.89655, -22.54046], [-44.89618, -22.54059], [-44.89596, -22.54125], [-44.89576, -22.5432], [-44.89538, -22.54438], [-44.89468, -22.54557], [-44.89391, -22.5462], [-44.89257, -22.54679], [-44.85457, -22.55831]]]}}, 
{"type": "Feature", "properties": {"CD_SETOR": "352660505000021", "CD_SIT": "8", "NM_DIST": "Lavrinhas", "NM_SUBDIST": null}, "geometry": {"type": "Polygon", "coordinates": [[[-44.85236, -22.55898], [-44.85246, -22.55961], [-44.85208, -22.56074], [-44.85277, -22.56177], [-44.85305, -22.56256], [-44.85389, -22.56374], [-44.85407, -22.56426], [-44.85401, -22.56604], [-44.85438, -22.56719], [-44.85431, -22.56757], [-44.85394, -22.56794], [-44.85342, -22.56817], [-44.8526, -22.56954], [-44.85082, -22.57004], [-44.85051, -22.57108], [-44.84984, -22.57152], [-44.84971, -22.57178], [-44.84972, -22.57268], [-44.84947, -22.57364], [-44.85033, -22.57622], [-44.85032, -22.57663], [-44.84948, -22.57758], [-44.84943, -22.57958], [-44.85001, -22.5803], [-44.85006, -22.58305], [-44.85062, -22.58422], [-44.8509, -22.58552], [-44.85094, -22.5877], [-44.85079, -22.58866], [-44.8504, -22.58934], [-44.84969, -22.58988], [-44.84862, -22.59143], [-44.84824, -22.59176], [-44.84677, -22.59223], [-44.84619, -22.5926], [-44.84584, -22.5931], [-44.84559, -22.5942], [-44.84621, -22.59678], [-44.84757, -22.59958], [-44.84951, -22.60179], [-44.84964, -22.6022], [-44.8496, -22.60338], [-44.84996, -22.60396], [-44.85453, -22.60511], [-44.85572, -22.60555], [-44.85659, -22.60613], [-44.85678, -22.60645], [-44.85679, -22.60704], [-44.85638, -22.60766], [-44.85613, -22.6087], [-44.85644, -22.60994], [-44.85692, -22.61041], [-44.85807, -22.61108], [-44.85912, -22.61295], [-44.85965, -22.61329], [-44.8617, -22.61357], [-44.86384, -22.61446], [-44.86473, -22.6144], [-44.86545, -22.61385], [-44.8656, -22.61388], [-44.86555, -22.61482], [-44.86568, -22.61518], [-44.86728, -22.61617], [-44.86812, -22.61745], [-44.86867, -22.618], [-44.8708, -22.61876], [-44.87131, -22.61908], [-44.87169, -22.61953], [-44.87224, -22.62113], [-44.87284, -22.62159], [-44.87361, -22.62183], [-44.87451, -22.62174], [-44.87581, -22.62111], [-44.87724, -22.62018], [-44.88028, -22.61766], [-44.88265, -22.61655], [-44.88332, -22.61673], [-44.88421, -22.61757], [-44.88498, -22.61765], [-44.88531, -22.61752], [-44.88561, -22.6173], [-44.88591, -22.6167], [-44.88601, -22.61392], [-44.88723, -22.61168], [-44.88834, -22.61095], [-44.89003, -22.61114], [-44.89186, -22.61042], [-44.89364, -22.60944], [-44.89577, -22.60924], [-44.89728, -22.60973], [-44.89992, -22.60983], [-44.90212, -22.61123], [-44.90366, -22.61198], [-44.90462, -22.61217], [-44.90549, -22.61191], [-44.90633, -22.61118], [-44.90672, -22.61037], [-44.90781, -22.60582], [-44.90818, -22.6053], [-44.9098, -22.60399], [-44.90968, -22.60317], [-44.90901, -22.60232], [-44.90902, -22.6014], [-44.90955, -22.60053], [-44.91071, -22.59947], [-44.91086, -22.59894], [-44.91088, -22.59724], [-44.91126, -22.59656], [-44.9116, -22.59619], [-44.91346, -22.59498], [-44.91687, -22.59353], [-44.91928, -22.59198], [-44.92292, -22.58833], [-44.92425, -22.58732], [-44.9255, -22.58671], [-44.92614, -22.58587], [-44.92646, -22.58492], [-44.92708, -22.58376], [-44.9271, -22.58321], [-44.92669, -22.58146], [-44.92681, -22.58097], [-44.92757, -22.57994], [-44.92757, -22.57941], [-44.92707, -22.57846], [-44.92705, -22.57743], [-44.92667, -22.57622], [-44.92723, -22.57514], [-44.92727, -22.57432], [-44.92776, -22.5736], [-44.92892, -22.57275], [-44.92922, -22.57231], [-44.92934, -22.57084], [-44.92694, -22.57084], [-44.92632, -22.57117], [-44.92441, -22.57084], [-44.91268, -22.57086], [-44.90803, -22.5742], [-44.90589, -22.57546], [-44.90416, -22.57598], [-44.90022, -22.57567], [-44.89963, -22.57539], [-44.88724, -22.58693], [-44.88452, -22.58648], [-44.88438, -22.58706], [-44.88372, -22.5876], [-44.88339, -22.58724], [-44.88301, -22.58713], [-44.88131, -22.58552], [-44.87916, -22.5849], [-44.87847, -22.58452], [-44.87787, -22.58367], [-44.87774, -22.58236], [-44.87688, -22.58201], [-44.87543, -22.58013], [-44.87322, -22.57828], [-44.87017, -22.57695], [-44.86975, -22.57714], [-44.86935, -22.57688], [-44.86716, -22.57713], [-44.86601, -22.57638], [-44.86483, -22.57517], [-44.86482, -22.57444], [-44.86438, -22.5743], [-44.86404, -22.57356], [-44.86226, -22.5683], [-44.86248, -22.56806], [-44.86351, -22.56803], [-44.86345, -22.56719], [-44.86298, -22.56702], [-44.86402, -22.565], [-44.86391, -22.56444], [-44.86329, -22.56412], [-44.86116, -22.56372], [-44.86058, -22.56343], [-44.85929, -22.56253], [-44.85834, -22.5614], [-44.85707, -22.56077], [-44.85649, -22.5607], [-44.85522, -22.55992], [-44.85439, -22.55972], [-44.85322, -22.5588], [-44.85236, -22.55898]]]}}, 
{"type": "Feature", "properties": {"CD_SETOR": "352660505000022", "CD_SIT": "9", "NM_DIST": "Lavrinhas", "NM_SUBDIST": null}, "geometry": {"type": "Polygon", "coordinates": [[[-44.8322, -22.56041], [-44.83263, -22.56099], [-44.834, -22.5597], [-44.83688, -22.5595], [-44.83893, -22.56028], [-44.84081, -22.56057], [-44.84286, -22.56048], [-44.84745, -22.55931], [-44.85322, -22.5588], [-44.85439, -22.55972], [-44.85522, -22.55992], [-44.85649, -22.5607], [-44.85707, -22.56077], [-44.85834, -22.5614], [-44.85929, -22.56253], [-44.86058, -22.56343], [-44.86116, -22.56372], [-44.86329, -22.56412], [-44.86391, -22.56444], [-44.86402, -22.565], [-44.86298, -22.56702], [-44.86345, -22.56719], [-44.86351, -22.56803], [-44.86248, -22.56806], [-44.86226, -22.5683], [-44.86438, -22.5743], [-44.86482, -22.57444], [-44.86483, -22.57517], [-44.86601, -22.57638], [-44.86716, -22.57713], [-44.86913, -22.57688], [-44.86975, -22.57714], [-44.87017, -22.57695], [-44.87072, -22.57713], [-44.87322, -22.57828], [-44.87543, -22.58013], [-44.87688, -22.58201], [-44.87814, -22.58267], [-44.87848, -22.58259], [-44.87959, -22.58318], [-44.87984, -22.5828], [-44.88202, -22.58362], [-44.88416, -22.58401], [-44.88629, -22.58359], [-44.88637, -22.58334], [-44.88774, -22.5825], [-44.88809, -22.582], [-44.88842, -22.58181], [-44.88839, -22.58169], [-44.88947, -22.58081], [-44.88994, -22.57995], [-44.8912, -22.57899], [-44.89204, -22.57763], [-44.89249, -22.57547], [-44.89294, -22.57489], [-44.89377, -22.57452], [-44.89579, -22.57467], [-44.89647, -22.57421], [-44.89707, -22.57428], [-44.89717, -22.57404], [-44.89868, -22.57289], [-44.8993, -22.57295], [-44.90078, -22.5737], [-44.90203, -22.57377], [-44.90238, -22.57339], [-44.90283, -22.57328], [-44.90361, -22.57262], [-44.90392, -22.57166], [-44.90414, -22.57145], [-44.90422, -22.57083], [-44.90494, -22.5709], [-44.90478, -22.57074], [-44.90511, -22.57051], [-44.90533, -22.57058], [-44.90544, -22.57024], [-44.90593, -22.56984], [-44.90633, -22.56981], [-44.90665, -22.56922], [-44.90744, -22.56922], [-44.90753, -22.56878], [-44.90799, -22.56818], [-44.90796, -22.5678], [-44.90821, -22.56753], [-44.90817, -22.56679], [-44.90868, -22.56595], [-44.90932, -22.56549], [-44.9106, -22.56555], [-44.91074, -22.56543], [-44.91241, -22.56583], [-44.9127, -22.56574], [-44.91495, -22.56681], [-44.9159, -22.56695], [-44.91697, -22.56664], [-44.91753, -22.56701], [-44.91775, -22.56686], [-44.92058, -22.56859], [-44.92098, -22.56935], [-44.92362, -22.57034], [-44.92417, -22.57084], [-44.92504, -22.57102], [-44.92551, -22.57096], [-44.92632, -22.57117], [-44.92727, -22.57073], [-44.92737, -22.57045], [-44.92716, -22.57019], [-44.92704, -22.56886], [-44.92708, -22.56865], [-44.92745, -22.5684], [-44.92958, -22.56893], [-44.9299, -22.56896], [-44.93039, -22.5686], [-44.9313, -22.56913], [-44.93168, -22.56897], [-44.93169, -22.5688], [-44.93052, -22.5682], [-44.92944, -22.56738], [-44.92843, -22.56695], [-44.9272, -22.56682], [-44.92663, -22.56697], [-44.92557, -22.56776], [-44.92533, -22.56991], [-44.92498, -22.57012], [-44.9242, -22.57019], [-44.92409, -22.56999], [-44.92351, -22.56986], [-44.92219, -22.5691], [-44.92207, -22.56879], [-44.92164, -22.56859], [-44.92149, -22.56825], [-44.92096, -22.56784], [-44.9204, -22.56776], [-44.92004, -22.56731], [-44.91928, -22.56679], [-44.91839, -22.56655], [-44.91753, -22.56607], [-44.91708, -22.56614], [-44.91669, -22.56586], [-44.91513, -22.56623], [-44.91393, -22.56575], [-44.91289, -22.56506], [-44.91231, -22.56536], [-44.9119, -22.5651], [-44.91179, -22.56515], [-44.91188, -22.56531], [-44.91166, -22.56536], [-44.90922, -22.56526], [-44.90874, -22.56545], [-44.90824, -22.56617], [-44.90764, -22.56629], [-44.90807, -22.56648], [-44.908, -22.56677], [-44.90764, -22.56706], [-44.90777, -22.5673], [-44.90738, -22.56734], [-44.90769, -22.56749], [-44.9078, -22.56774], [-44.90713, -22.56806], [-44.90697, -22.56863], [-44.9064, -22.56884], [-44.90604, -22.56938], [-44.90535, -22.56966], [-44.90326, -22.57117], [-44.90329, -22.57141], [-44.9024, -22.57272], [-44.90121, -22.57309], [-44.90002, -22.57269], [-44.89802, -22.57245], [-44.89738, -22.57264], [-44.89709, -22.57298], [-44.89705, -22.57329], [-44.89685, -22.5734], [-44.89603, -22.57358], [-44.89549, -22.57339], [-44.89422, -22.57358], [-44.89289, -22.57402], [-44.89249, -22.5743], [-44.89191, -22.575], [-44.89155, -22.57577], [-44.8909, -22.57797], [-44.88966, -22.57912], [-44.88908, -22.58027], [-44.88665, -22.582], [-44.88622, -22.58271], [-44.88501, -22.5829], [-44.88421, -22.58263], [-44.88368, -22.58276], [-44.88289, -22.58266], [-44.88207, -22.5824], [-44.88125, -22.58186], [-44.88073, -22.58205], [-44.88072, -22.58186], [-44.88046, -22.58174], [-44.87935, -22.58169], [-44.87904, -22.5814], [-44.87826, -22.58154], [-44.87713, -22.58121], [-44.87643, -22.57974], [-44.87562, -22.57896], [-44.87458, -22.57837], [-44.87396, -22.57773], [-44.8723, -22.5774], [-44.8712, -22.57646], [-44.86983, -22.5761], [-44.86802, -22.57621], [-44.86653, -22.57541], [-44.86628, -22.5752], [-44.86631, -22.57488], [-44.86491, -22.57346], [-44.86426, -22.57166], [-44.86439, -22.571], [-44.86455, -22.57089], [-44.86461, -22.56981], [-44.86439, -22.56957], [-44.86442, -22.5692], [-44.86486, -22.56844], [-44.86488, -22.5681], [-44.86468, -22.56804], [-44.86461, -22.56707], [-44.86464, -22.56646], [-44.86485, -22.56637], [-44.86485, -22.5654], [-44.86509, -22.56523], [-44.86513, -22.56492], [-44.86498, -22.56433], [-44.86376, -22.56359], [-44.86125, -22.56286], [-44.86041, -22.56242], [-44.86039, -22.56223], [-44.85988, -22.56213], [-44.85932, -22.56179], [-44.85915, -22.56133], [-44.85859, -22.56093], [-44.85864, -22.56076], [-44.85721, -22.5604], [-44.85708, -22.56013], [-44.85659, -22.55997], [-44.85625, -22.55923], [-44.85499, -22.55839], [-44.85237, -22.55772], [-44.85126, -22.55769], [-44.84903, -22.55849], [-44.84773, -22.5583], [-44.84493, -22.5589], [-44.84379, -22.55925], [-44.84304, -22.56011], [-44.84202, -22.56003], [-44.84117, -22.55972], [-44.83902, -22.55934], [-44.83798, -22.55867], [-44.83745, -22.55858], [-44.83711, -22.55834], [-44.836, -22.55819], [-44.83523, -22.55877], [-44.83512, -22.55867], [-44.83423, -22.55909], [-44.83366, -22.55909], [-44.83251, -22.55972], [-44.83228, -22.55941], [-44.83198, -22.55932], [-44.83113, -22.55947], [-44.83073, -22.55928], [-44.8309, -22.55884], [-44.8306, -22.55873], [-44.8305, -22.5585], [-44.8306, -22.55802], [-44.83048, -22.55742], [-44.831, -22.55632], [-44.83027, -22.55695], [-44.83018, -22.55727], [-44.83047, -22.55819], [-44.83044, -22.55932], [-44.8308, -22.55966], [-44.83169, -22.55973], [-44.8322, -22.56041]], [[-44.9256, -22.56901], [-44.92596, -22.56899], [-44.92675, -22.56938], [-44.92626, -22.57015], [-44.92581, -22.57017], [-44.92587, -22.56989], [-44.9256, -22.56901]], [[-44.92744, -22.5674], [-44.92861, -22.56757], [-44.92923, -22.56805], [-44.92993, -22.56832], [-44.93005, -22.56858], [-44.92979, -22.56869], [-44.9273, -22.56811], [-44.92722, -22.56777], [-44.92744, -22.5674]]]}}, 
{"type": "Feature", "properties": {"CD_SETOR": "352660505000023", "CD_SIT": "1", "NM_DIST": "Lavrinhas", "NM_SUBDIST": null}, "geometry": {"type": "Polygon", "coordinates": [[[-44.90033, -22.57275], [-44.90053, -22.57296], [-44.90121, -22.57309], [-44.9024, -22.57272], [-44.90329, -22.57141], [-44.90326, -22.57117], [-44.90535, -22.56966], [-44.90604, -22.56938], [-44.9064, -22.56884], [-44.90697, -22.56863], [-44.90713, -22.56806], [-44.9078, -22.56774], [-44.90769, -22.56749], [-44.90738, -22.56734], [-44.90777, -22.5673], [-44.90764, -22.56706], [-44.90804, -22.56661], [-44.90736, -22.56637], [-44.9068, -22.56776], [-44.90636, -22.56781], [-44.90515, -22.56904], [-44.90051, -22.57282], [-44.90033, -22.57275]]]}}, 
{"type": "Feature", "properties": {"CD_SETOR": "352660505000024", "CD_SIT": "2", "NM_DIST": "Lavrinhas", "NM_SUBDIST": null}, "geometry": {"type": "Polygon", "coordinates": [[[-44.87774, -22.58236], [-44.87787, -22.58367], [-44.87847, -22.58452], [-44.87916, -22.5849], [-44.88116, -22.58543], [-44.88301, -22.58713], [-44.88386, -22.58758], [-44.88438, -22.58706], [-44.88457, -22.58637], [-44.88542, -22.58569], [-44.88556, -22.58449], [-44.88745, -22.5837], [-44.88884, -22.58267], [-44.8984, -22.57455], [-44.90022, -22.57567], [-44.90416, -22.57598], [-44.90666, -22.5751], [-44.91268, -22.57086], [-44.91277, -22.56576], [-44.91241, -22.56583], [-44.91074, -22.56543], [-44.91064, -22.56554], [-44.90949, -22.56548], [-44.90909, -22.56561], [-44.90868, -22.56595], [-44.90817, -22.56679], [-44.90821, -22.56753], [-44.90796, -22.5678], [-44.90799, -22.56818], [-44.90753, -22.56878], [-44.90744, -22.56922], [-44.90665, -22.56922], [-44.90633, -22.56981], [-44.90593, -22.56984], [-44.90544, -22.57024], [-44.90533, -22.57058], [-44.90511, -22.57051], [-44.90478, -22.57074], [-44.90494, -22.5709], [-44.90422, -22.57083], [-44.90414, -22.57145], [-44.90392, -22.57166], [-44.90361, -22.57262], [-44.90283, -22.57328], [-44.90238, -22.57339], [-44.90203, -22.57377], [-44.90078, -22.5737], [-44.8993, -22.57295], [-44.89868, -22.57289], [-44.89717, -22.57404], [-44.89707, -22.57428], [-44.89647, -22.57421], [-44.89579, -22.57467], [-44.89377, -22.57452], [-44.89294, -22.57489], [-44.89249, -22.57547], [-44.89204, -22.57763], [-44.8912, -22.57899], [-44.88994, -22.57995], [-44.88947, -22.58081], [-44.88839, -22.58169], [-44.88842, -22.58181], [-44.88809, -22.582], [-44.88774, -22.5825], [-44.8868, -22.58297], [-44.88635, -22.58336], [-44.88629, -22.58359], [-44.88416, -22.58401], [-44.88334, -22.58391], [-44.8817, -22.58352], [-44.88105, -22.58316], [-44.87984, -22.5828], [-44.87959, -22.58318], [-44.87927, -22.58312], [-44.87925, -22.58291], [-44.87848, -22.58259], [-44.87815, -22.58267], [-44.87774, -22.58236]]]}}, 
{"type": "Feature", "properties": {"CD_SETOR": "352660510000001", "CD_SIT": "1", "NM_DIST": "Pinheiros", "NM_SUBDIST": null}, "geometry": {"type": "Polygon", "coordinates": [[[-44.89468, -22.53872], [-44.8941, -22.53721], [-44.89426, -22.53244], [-44.89124, -22.5324], [-44.89131, -22.5305], [-44.88699, -22.5305], [-44.88699, -22.53374], [-44.88433, -22.53374], [-44.88432, -22.53885], [-44.88853, -22.53885], [-44.89107, -22.53801], [-44.8927, -22.53777], [-44.89295, -22.53777], [-44.89468, -22.53872]]]}}, 
{"type": "Feature", "properties": {"CD_SETOR": "352660510000004", "CD_SIT": "8", "NM_DIST": "Pinheiros", "NM_SUBDIST": null}, "geometry": {"type": "Polygon", "coordinates": [[[-44.84395, -22.4278], [-44.84489, -22.42856], [-44.84783, -22.43023], [-44.84845, -22.43039], [-44.85083, -22.42993], [-44.85166, -22.43003], [-44.85321, -22.43109], [-44.85486, -22.43187], [-44.85515, -22.43217], [-44.85521, -22.43263], [-44.85471, -22.43299], [-44.8529, -22.43355], [-44.85223, -22.43414], [-44.85161, -22.43542], [-44.85107, -22.43723], [-44.84957, -22.43958], [-44.84926, -22.44076], [-44.84926, -22.44263], [-44.85138, -22.44744], [-44.85149, -22.44802], [-44.85143, -22.44909], [-44.85122, -22.44979], [-44.84994, -22.45165], [-44.8496, -22.45271], [-44.84997, -22.45407], [-44.85077, -22.45559], [-44.85223, -22.45745], [-44.85228, -22.459], [-44.85166, -22.46027], [-44.85153, -22.46099], [-44.85174, -22.46235], [-44.85259, -22.46357], [-44.85304, -22.46571], [-44.85253, -22.46702], [-44.85244, -22.46793], [-44.85192, -22.46949], [-44.85175, -22.47165], [-44.85131, -22.47243], [-44.84958, -22.47371], [-44.84899, -22.47443], [-44.84825, -22.47635], [-44.8482, -22.47851], [-44.84843, -22.47935], [-44.84909, -22.48016], [-44.84899, -22.48236], [-44.85006, -22.48372], [-44.85045, -22.4848], [-44.85084, -22.48508], [-44.85133, -22.48514], [-44.85234, -22.486], [-44.85256, -22.48654], [-44.85246, -22.48751], [-44.85173, -22.48911], [-44.85177, -22.4899], [-44.85142, -22.49081], [-44.85115, -22.49238], [-44.85095, -22.49274], [-44.8501, -22.49336], [-44.84959, -22.49409], [-44.84856, -22.49484], [-44.84739, -22.49692], [-44.84795, -22.49757], [-44.84896, -22.49793], [-44.84978, -22.4985], [-44.85053, -22.49852], [-44.85153, -22.49829], [-44.85189, -22.499], [-44.85232, -22.49917], [-44.85345, -22.49895], [-44.85453, -22.49944], [-44.85564, -22.4992], [-44.85583, -22.4995], [-44.85586, -22.5004], [-44.8555, -22.50102], [-44.85187, -22.50113], [-44.85047, -22.50193], [-44.85055, -22.50271], [-44.85081, -22.50287], [-44.85203, -22.50301], [-44.85314, -22.5035], [-44.85343, -22.50375], [-44.85344, -22.50397], [-44.8528, -22.50425], [-44.85244, -22.50473], [-44.85178, -22.50509], [-44.8498, -22.50575], [-44.84879, -22.50682], [-44.84838, -22.5067], [-44.84751, -22.50599], [-44.84725, -22.50596], [-44.84676, -22.50622], [-44.84655, -22.50684], [-44.84696, -22.5076], [-44.84649, -22.50844], [-44.8464, -22.50894], [-44.84669, -22.50921], [-44.84742, -22.50903], [-44.84814, -22.50922], [-44.84889, -22.50914], [-44.84934, -22.51009], [-44.85035, -22.51032], [-44.85085, -22.51111], [-44.85103, -22.51167], [-44.85106, -22.51315], [-44.8513, -22.51321], [-44.85201, -22.51293], [-44.8531, -22.5123], [-44.85331, -22.51248], [-44.85378, -22.5138], [-44.85509, -22.51459], [-44.8551, -22.51485], [-44.85389, -22.51566], [-44.85352, -22.5163], [-44.85389, -22.51751], [-44.85388, -22.518], [-44.85416, -22.51835], [-44.8557, -22.51825], [-44.85652, -22.51907], [-44.85714, -22.51921], [-44.85792, -22.5192], [-44.8591, -22.51877], [-44.85984, -22.51951], [-44.86098, -22.51954], [-44.86221, -22.51932], [-44.86255, -22.51909], [-44.86268, -22.51878], [-44.86251, -22.51696], [-44.86289, -22.51645], [-44.86295, -22.51575], [-44.86327, -22.51564], [-44.86384, -22.51631], [-44.86385, -22.51701], [-44.86425, -22.51809], [-44.86447, -22.52023], [-44.86587, -22.5212], [-44.86635, -22.52196], [-44.86703, -22.52252], [-44.8672, -22.52318], [-44.86716, -22.52444], [-44.86764, -22.52506], [-44.86994, -22.52473], [-44.87153, -22.52482], [-44.87202, -22.52451], [-44.87166, -22.52286], [-44.87035, -22.52089], [-44.87041, -22.52066], [-44.87167, -22.5206], [-44.87387, -22.52097], [-44.87449, -22.5208], [-44.87473, -22.52052], [-44.87484, -22.52017], [-44.87474, -22.51908], [-44.87391, -22.51793], [-44.87496, -22.51777], [-44.87541, -22.51745], [-44.87614, -22.51744], [-44.87639, -22.51726], [-44.87641, -22.51689], [-44.87595, -22.51632], [-44.87594, -22.51608], [-44.87642, -22.51552], [-44.87641, -22.51533], [-44.876, -22.51496], [-44.87446, -22.51422], [-44.87454, -22.51392], [-44.87552, -22.51388], [-44.87676, -22.51427], [-44.87913, -22.5174], [-44.88014, -22.5182], [-44.88049, -22.51801], [-44.88051, -22.51764], [-44.87949, -22.51493], [-44.87956, -22.51394], [-44.87909, -22.51308], [-44.87915, -22.51289], [-44.87961, -22.51284], [-44.88082, -22.51334], [-44.88155, -22.51327], [-44.88205, -22.51346], [-44.88229, -22.51376], [-44.88246, -22.51486], [-44.88339, -22.51593], [-44.88378, -22.51661], [-44.88428, -22.51666], [-44.88492, -22.51631], [-44.88502, -22.51571], [-44.88411, -22.51494], [-44.88405, -22.51461], [-44.88429, -22.51438], [-44.88537, -22.51409], [-44.8859, -22.51323], [-44.88645, -22.51277], [-44.88644, -22.5124], [-44.88627, -22.51208], [-44.8857, -22.51172], [-44.88404, -22.51135], [-44.88323, -22.51083], [-44.88311, -22.51044], [-44.88378, -22.51032], [-44.88406, -22.51009], [-44.88345, -22.50965], [-44.88357, -22.50941], [-44.88516, -22.50917], [-44.88578, -22.50862], [-44.88587, -22.50806], [-44.88534, -22.5066], [-44.88585, -22.50632], [-44.88582, -22.50309], [-44.88659, -22.50231], [-44.89226, -22.50227], [-44.89303, -22.50317], [-44.89357, -22.50227], [-44.89359, -22.50268], [-44.89313, -22.50413], [-44.89304, -22.50551], [-44.8943, -22.50794], [-44.89498, -22.50813], [-44.89659, -22.50755], [-44.89736, -22.5068], [-44.89824, -22.50632], [-44.89838, -22.50579], [-44.89795, -22.50461], [-44.8989, -22.50425], [-44.89917, -22.50399], [-44.8996, -22.50242], [-44.89978, -22.50238], [-44.90033, -22.50269], [-44.90076, -22.50263], [-44.90107, -22.50231], [-44.90106, -22.50151], [-44.90161, -22.50156], [-44.90281, -22.50229], [-44.90336, -22.50214], [-44.90344, -22.50185], [-44.90321, -22.50122], [-44.9035, -22.50024], [-44.90256, -22.499], [-44.9008, -22.49827], [-44.90091, -22.49802], [-44.90169, -22.49755], [-44.90055, -22.49657], [-44.90038, -22.49526], [-44.9009, -22.49524], [-44.90259, -22.49685], [-44.90305, -22.49685], [-44.90315, -22.49647], [-44.90265, -22.49554], [-44.90269, -22.49461], [-44.9025, -22.49437], [-44.90177, -22.49403], [-44.90207, -22.49376], [-44.90277, -22.49372], [-44.90355, -22.49337], [-44.90373, -22.49354], [-44.90399, -22.49522], [-44.90467, -22.4964], [-44.90475, -22.4978], [-44.90582, -22.49986], [-44.90588, -22.5002], [-44.90563, -22.50084], [-44.90593, -22.50133], [-44.90632, -22.5012], [-44.90654, -22.5005], [-44.90688, -22.50035], [-44.90825, -22.49887], [-44.90875, -22.49874], [-44.90947, -22.49911], [-44.9105, -22.49801], [-44.91083, -22.49842], [-44.91106, -22.49941], [-44.91125, -22.49947], [-44.91146, -22.49917], [-44.91165, -22.49808], [-44.91196, -22.49741], [-44.91258, -22.49691], [-44.91391, -22.49639], [-44.91412, -22.49743], [-44.91398, -22.49803], [-44.91325, -22.49921], [-44.91329, -22.49968], [-44.91369, -22.49964], [-44.91421, -22.49899], [-44.91493, -22.49844], [-44.91546, -22.49834], [-44.9156, -22.49859], [-44.91408, -22.50122], [-44.91335, -22.50213], [-44.91336, -22.5025], [-44.91359, -22.50268], [-44.91458, -22.50294], [-44.91493, -22.50289], [-44.91519, -22.50208], [-44.91562, -22.50156], [-44.91643, -22.50139], [-44.91751, -22.50159], [-44.91811, -22.5015], [-44.92011, -22.50013], [-44.92062, -22.49998], [-44.9211, -22.50006], [-44.92108, -22.5004], [-44.92063, -22.50097], [-44.92057, -22.50188], [-44.91996, -22.50273], [-44.91996, -22.50293], [-44.92017, -22.50308], [-44.92101, -22.50296], [-44.92119, -22.50314], [-44.92124, -22.50411], [-44.92158, -22.50502], [-44.92073, -22.50511], [-44.92109, -22.5056], [-44.92102, -22.50591], [-44.9192, -22.50601], [-44.91836, -22.50477], [-44.91805, -22.50448], [-44.91765, -22.50443], [-44.91745, -22.50463], [-44.91744, -22.50502], [-44.91825, -22.50649], [-44.91811, -22.50693], [-44.91732, -22.50705], [-44.91614, -22.50693], [-44.91558, -22.50673], [-44.91482, -22.50605], [-44.91437, -22.50598], [-44.91343, -22.50643], [-44.91182, -22.50762], [-44.91129, -22.50817], [-44.91114, -22.50878], [-44.91164, -22.50918], [-44.91244, -22.50917], [-44.91387, -22.50849], [-44.91493, -22.50849], [-44.91607, -22.50802], [-44.91792, -22.50813], [-44.91816, -22.50854], [-44.91783, -22.5095], [-44.91765, -22.51075], [-44.91781, -22.51139], [-44.91814, -22.51178], [-44.91872, -22.51197], [-44.91902, -22.51178], [-44.9191, -22.51018], [-44.91955, -22.50974], [-44.92035, -22.50953], [-44.92051, -22.50959], [-44.92071, -22.5104], [-44.92106, -22.51084], [-44.92205, -22.51117], [-44.92281, -22.51199], [-44.92362, -22.51211], [-44.92413, -22.51364], [-44.92456, -22.5138], [-44.92563, -22.51376], [-44.92604, -22.514], [-44.92649, -22.5154], [-44.92637, -22.51613], [-44.92527, -22.51701], [-44.92477, -22.51794], [-44.92375, -22.51883], [-44.92322, -22.52019], [-44.92344, -22.52085], [-44.92393, -22.52128], [-44.92433, -22.52139], [-44.92444, -22.51991], [-44.92518, -22.51863], [-44.92571, -22.51819], [-44.92699, -22.5176], [-44.92736, -22.51707], [-44.92651, -22.51345], [-44.92488, -22.5098], [-44.92486, -22.50887], [-44.92514, -22.50827], [-44.92661, -22.50685], [-44.92724, -22.50518], [-44.92861, -22.50401], [-44.92939, -22.50283], [-44.93009, -22.50135], [-44.93093, -22.50065], [-44.93127, -22.49989], [-44.93197, -22.49902], [-44.93221, -22.49733], [-44.93255, -22.49627], [-44.93326, -22.49496], [-44.93483, -22.49262], [-44.93538, -22.49205], [-44.93569, -22.49141], [-44.93624, -22.49115], [-44.93848, -22.49113], [-44.94067, -22.49004], [-44.94223, -22.48858], [-44.94301, -22.48693], [-44.94341, -22.48653], [-44.94446, -22.48602], [-44.94509, -22.48606], [-44.946, -22.48659], [-44.94682, -22.48675], [-44.94806, -22.48658], [-44.94974, -22.48601], [-44.951, -22.48591], [-44.95436, -22.48607], [-44.95629, -22.48597], [-44.96137, -22.48637], [-44.9635, -22.48581], [-44.96599, -22.48399], [-44.96664, -22.48308], [-44.96698, -22.48106], [-44.96683, -22.48034], [-44.96558, -22.47763], [-44.96549, -22.47618], [-44.96586, -22.47519], [-44.96543, -22.47496], [-44.96493, -22.47389], [-44.96312, -22.47117], [-44.9618, -22.46973], [-44.96089, -22.46791], [-44.95993, -22.46666], [-44.95819, -22.46539], [-44.95651, -22.46518], [-44.95429, -22.46409], [-44.95165, -22.46308], [-44.94977, -22.46101], [-44.94729, -22.45886], [-44.9449, -22.45776], [-44.94232, -22.45607], [-44.94193, -22.45551], [-44.94162, -22.45403], [-44.94093, -22.45319], [-44.94007, -22.45267], [-44.9396, -22.45262], [-44.93699, -22.45311], [-44.93556, -22.45309], [-44.93409, -22.45279], [-44.93235, -22.452], [-44.9313, -22.45179], [-44.92859, -22.45315], [-44.9275, -22.45333], [-44.9251, -22.45318], [-44.92277, -22.45382], [-44.92057, -22.454], [-44.91765, -22.45492], [-44.9159, -22.45481], [-44.91409, -22.45506], [-44.91299, -22.45479], [-44.91229, -22.45368], [-44.9111, -22.45291], [-44.90826, -22.45216], [-44.90496, -22.45326], [-44.90416, -22.454], [-44.90362, -22.45423], [-44.90193, -22.45356], [-44.90134, -22.45354], [-44.90038, -22.45382], [-44.89939, -22.45374], [-44.89784, -22.45291], [-44.89754, -22.45248], [-44.89787, -22.44971], [-44.89768, -22.44911], [-44.89538, -22.44686], [-44.89509, -22.44573], [-44.89496, -22.44397], [-44.89457, -22.44286], [-44.89293, -22.44078], [-44.88971, -22.43585], [-44.88968, -22.43454], [-44.8901, -22.4335], [-44.89006, -22.43252], [-44.88973, -22.43212], [-44.88807, -22.43209], [-44.88674, -22.43106], [-44.88496, -22.43084], [-44.88407, -22.4303], [-44.88335, -22.4293], [-44.88293, -22.42907], [-44.88159, -22.42949], [-44.87964, -22.42965], [-44.87846, -22.42875], [-44.87638, -22.42886], [-44.87529, -22.42857], [-44.87387, -22.42726], [-44.87215, -22.42433], [-44.87151, -22.42409], [-44.87041, -22.42398], [-44.86772, -22.42436], [-44.86596, -22.42439], [-44.86306, -22.42388], [-44.86265, -22.42365], [-44.86123, -22.42343], [-44.86021, -22.42306], [-44.8596, -22.42304], [-44.8592, -22.42336], [-44.85785, -22.4253], [-44.85451, -22.428], [-44.85339, -22.42785], [-44.85143, -22.42679], [-44.84982, -22.42653], [-44.84852, -22.42657], [-44.84465, -22.42778], [-44.84395, -22.4278]]]}}, 
{"type": "Feature", "properties": {"CD_SETOR": "352660510000005", "CD_SIT": "3", "NM_DIST": "Pinheiros", "NM_SUBDIST": null}, "geometry": {"type": "Polygon", "coordinates": [[[-44.89303, -22.50317], [-44.89274, -22.50375], [-44.89244, -22.50518], [-44.89236, -22.50589], [-44.8925, -22.50674], [-44.89226, -22.50699], [-44.89184, -22.50673], [-44.89136, -22.50799], [-44.89087, -22.50812], [-44.89024, -22.50802], [-44.8904, -22.50909], [-44.89216, -22.50928], [-44.89215, -22.51393], [-44.89096, -22.51396], [-44.89098, -22.51656], [-44.88916, -22.51661], [-44.88921, -22.51806], [-44.88777, -22.51806], [-44.88719, -22.51862], [-44.88716, -22.51983], [-44.88771, -22.52029], [-44.88779, -22.52089], [-44.88802, -22.5212], [-44.88861, -22.52163], [-44.89457, -22.52157], [-44.89468, -22.51658], [-44.89547, -22.51652], [-44.89546, -22.51527], [-44.90112, -22.51428], [-44.903, -22.51426], [-44.90302, -22.51655], [-44.90927, -22.51657], [-44.90931, -22.51198], [-44.90947, -22.51124], [-44.90875, -22.51107], [-44.90842, -22.51056], [-44.90799, -22.51047], [-44.90713, -22.50958], [-44.903, -22.50961], [-44.90301, -22.50755], [-44.9002, -22.5074], [-44.89659, -22.50755], [-44.89522, -22.5081], [-44.8945, -22.50806], [-44.89417, -22.50775], [-44.89304, -22.50551], [-44.89313, -22.50413], [-44.89359, -22.50268], [-44.89357, -22.50227], [-44.89303, -22.50317]], [[-44.90128, -22.51335], [-44.89629, -22.51423], [-44.89451, -22.51329], [-44.89416, -22.51292], [-44.89381, -22.51141], [-44.89428, -22.50958], [-44.89562, -22.50953], [-44.89708, -22.51003], [-44.89806, -22.50942], [-44.89808, -22.50996], [-44.89982, -22.5102], [-44.9007, -22.50994], [-44.90116, -22.50928], [-44.90145, -22.50919], [-44.90204, -22.50955], [-44.90172, -22.51012], [-44.90206, -22.51067], [-44.90289, -22.51016], [-44.90405, -22.5106], [-44.9046, -22.5101], [-44.9048, -22.51008], [-44.90497, -22.51056], [-44.90537, -22.51092], [-44.9059, -22.51088], [-44.90646, -22.51055], [-44.90659, -22.51164], [-44.90517, -22.51217], [-44.90506, -22.51311], [-44.90128, -22.51335]]]}}, 
{"type": "Feature", "properties": {"CD_SETOR": "352660510000006", "CD_SIT": "3", "NM_DIST": "Pinheiros", "NM_SUBDIST": null}, "geometry": {"type": "Polygon", "coordinates": [[[-44.88585, -22.50632], [-44.887, -22.5064], [-44.88848, -22.50692], [-44.89024, -22.50802], [-44.89122, -22.50806], [-44.89151, -22.50775], [-44.89184, -22.50673], [-44.89226, -22.50699], [-44.8925, -22.50674], [-44.89236, -22.50589], [-44.89244, -22.50518], [-44.89274, -22.50375], [-44.89303, -22.50317], [-44.89226, -22.50227], [-44.88659, -22.50231], [-44.88582, -22.50309], [-44.88585, -22.50632]]]}}, 
{"type": "Feature", "properties": {"CD_SETOR": "352660510000007", "CD_SIT": "8", "NM_DIST": "Pinheiros", "NM_SUBDIST": null}, "geometry": {"type": "Polygon", "coordinates": [[[-44.89468, -22.53872], [-44.89649, -22.53977], [-44.8971, -22.53988], [-44.89847, -22.53973], [-44.89846, -22.53602], [-44.89682, -22.5361], [-44.89418, -22.53428], [-44.8941, -22.53721], [-44.89468, -22.53872]]]}}, 
{"type": "Feature", "properties": {"CD_SETOR": "352660510000008", "CD_SIT": "8", "NM_DIST": "Pinheiros", "NM_SUBDIST": null}, "geometry": {"type": "Polygon", "coordinates": [[[-44.88699, -22.5305], [-44.8882, -22.5305], [-44.89131, -22.5305], [-44.8907, -22.52905], [-44.8895, -22.52794], [-44.88698, -22.52906], [-44.88699, -22.5305]]]}}, 
{"type": "Feature", "properties": {"CD_SETOR": "352660510000009", "CD_SIT": "3", "NM_DIST": "Pinheiros", "NM_SUBDIST": null}, "geometry": {"type": "Polygon", "coordinates": [[[-44.89416, -22.51292], [-44.89451, -22.51329], [-44.89629, -22.51423], [-44.90128, -22.51335], [-44.90182, -22.51199], [-44.9002, -22.5114], [-44.89839, -22.51144], [-44.89826, -22.51082], [-44.89575, -22.51161], [-44.89416, -22.51292]]]}}, 
{"type": "Feature", "properties": {"CD_SETOR": "352660510000010", "CD_SIT": "3", "NM_DIST": "Pinheiros", "NM_SUBDIST": null}, "geometry": {"type": "Polygon", "coordinates": [[[-44.89416, -22.51292], [-44.89575, -22.51161], [-44.89826, -22.51082], [-44.89839, -22.51144], [-44.9002, -22.5114], [-44.90182, -22.51199], [-44.90128, -22.51335], [-44.90506, -22.51311], [-44.90517, -22.51217], [-44.90659, -22.51164], [-44.90646, -22.51055], [-44.9059, -22.51088], [-44.90537, -22.51092], [-44.90497, -22.51056], [-44.9048, -22.51008], [-44.9046, -22.5101], [-44.90405, -22.5106], [-44.90289, -22.51016], [-44.90206, -22.51067], [-44.90172, -22.51012], [-44.90204, -22.50955], [-44.90145, -22.50919], [-44.90116, -22.50928], [-44.9007, -22.50994], [-44.89982, -22.5102], [-44.89808, -22.50996], [-44.89806, -22.50942], [-44.89708, -22.51003], [-44.89562, -22.50953], [-44.89428, -22.50958], [-44.89381, -22.51141], [-44.89416, -22.51292]]]}}, 
{"type": "Feature", "properties": {"CD_SETOR": "352660510000011", "CD_SIT": "8", "NM_DIST": "Pinheiros", "NM_SUBDIST": null}, "geometry": {"type": "Polygon", "coordinates": [[[-44.89659, -22.50755], [-44.9002, -22.5074], [-44.90301, -22.50755], [-44.903, -22.50961], [-44.90713, -22.50958], [-44.90799, -22.51047], [-44.90842, -22.51056], [-44.90875, -22.51107], [-44.90953, -22.51135], [-44.90931, -22.51198], [-44.90927, -22.51657], [-44.90302, -22.51655], [-44.903, -22.51426], [-44.90112, -22.51428], [-44.89546, -22.51527], [-44.89547, -22.51652], [-44.89468, -22.51658], [-44.89457, -22.52157], [-44.88861, -22.52163], [-44.88978, -22.52191], [-44.89025, -22.52259], [-44.89017, -22.52431], [-44.89062, -22.52606], [-44.89103, -22.5265], [-44.8922, -22.52692], [-44.8926, -22.52721], [-44.89253, -22.52736], [-44.89137, -22.52785], [-44.89041, -22.52878], [-44.8907, -22.52905], [-44.89131, -22.5305], [-44.89124, -22.5324], [-44.89426, -22.53244], [-44.89418, -22.53428], [-44.89682, -22.5361], [-44.89846, -22.53602], [-44.89847, -22.53973], [-44.8971, -22.53988], [-44.89649, -22.53977], [-44.89662, -22.54059], [-44.89709, -22.54068], [-44.89859, -22.54167], [-44.89927, -22.54191], [-44.90134, -22.54215], [-44.90344, -22.54378], [-44.90533, -22.54439], [-44.90712, -22.54447], [-44.90921, -22.54256], [-44.91023, -22.54247], [-44.91273, -22.54183], [-44.91346, -22.54148], [-44.91484, -22.54179], [-44.91538, -22.54247], [-44.91654, -22.5431], [-44.91726, -22.54373], [-44.91838, -22.54363], [-44.91967, -22.54378], [-44.92075, -22.54295], [-44.92108, -22.54288], [-44.92139, -22.54304], [-44.92231, -22.54206], [-44.92248, -22.5414], [-44.92283, -22.54113], [-44.92331, -22.54112], [-44.92191, -22.53895], [-44.92167, -22.53834], [-44.92175, -22.53598], [-44.92111, -22.53421], [-44.9211, -22.53351], [-44.92179, -22.53216], [-44.92225, -22.52965], [-44.92358, -22.52748], [-44.92367, -22.52519], [-44.9243, -22.52253], [-44.92433, -22.52139], [-44.92393, -22.52128], [-44.92344, -22.52085], [-44.92322, -22.52019], [-44.92375, -22.51883], [-44.92477, -22.51794], [-44.92527, -22.51701], [-44.92637, -22.51613], [-44.92649, -22.5154], [-44.92624, -22.51432], [-44.92563, -22.51376], [-44.92456, -22.5138], [-44.92413, -22.51364], [-44.92362, -22.51211], [-44.92281, -22.51199], [-44.92205, -22.51117], [-44.92106, -22.51084], [-44.92071, -22.5104], [-44.92051, -22.50959], [-44.92035, -22.50953], [-44.91955, -22.50974], [-44.9191, -22.51018], [-44.91902, -22.51178], [-44.91872, -22.51197], [-44.91814, -22.51178], [-44.91781, -22.51139], [-44.91765, -22.51075], [-44.91783, -22.5095], [-44.91816, -22.50854], [-44.91792, -22.50813], [-44.91607, -22.50802], [-44.91493, -22.50849], [-44.91387, -22.50849], [-44.91244, -22.50917], [-44.91164, -22.50918], [-44.91114, -22.50878], [-44.91129, -22.50817], [-44.91182, -22.50762], [-44.91343, -22.50643], [-44.91437, -22.50598], [-44.91482, -22.50605], [-44.91558, -22.50673], [-44.91614, -22.50693], [-44.91732, -22.50705], [-44.91811, -22.50693], [-44.91825, -22.50649], [-44.91744, -22.50502], [-44.91745, -22.50463], [-44.91765, -22.50443], [-44.91805, -22.50448], [-44.91836, -22.50477], [-44.9192, -22.50601], [-44.92102, -22.50591], [-44.92109, -22.5056], [-44.92073, -22.50511], [-44.92158, -22.50502], [-44.92124, -22.50411], [-44.92119, -22.50314], [-44.92101, -22.50296], [-44.92017, -22.50308], [-44.91996, -22.50293], [-44.91996, -22.50273], [-44.92057, -22.50188], [-44.92063, -22.50097], [-44.92108, -22.5004], [-44.9211, -22.50006], [-44.92062, -22.49998], [-44.92011, -22.50013], [-44.91811, -22.5015], [-44.91751, -22.50159], [-44.91643, -22.50139], [-44.91562, -22.50156], [-44.91519, -22.50208], [-44.91493, -22.50289], [-44.91458, -22.50294], [-44.91359, -22.50268], [-44.91336, -22.5025], [-44.91335, -22.50213], [-44.91408, -22.50122], [-44.9156, -22.49859], [-44.91546, -22.49834], [-44.91493, -22.49844], [-44.91421, -22.49899], [-44.91369, -22.49964], [-44.91329, -22.49968], [-44.91325, -22.49921], [-44.91398, -22.49803], [-44.91412, -22.49743], [-44.91391, -22.49639], [-44.91258, -22.49691], [-44.91196, -22.49741], [-44.91165, -22.49808], [-44.91146, -22.49917], [-44.91125, -22.49947], [-44.91106, -22.49941], [-44.91083, -22.49842], [-44.9105, -22.49801], [-44.90947, -22.49911], [-44.90875, -22.49874], [-44.90825, -22.49887], [-44.90688, -22.50035], [-44.90654, -22.5005], [-44.90632, -22.5012], [-44.90593, -22.50133], [-44.90563, -22.50084], [-44.90588, -22.5002], [-44.90582, -22.49986], [-44.9047, -22.49765], [-44.90467, -22.4964], [-44.90382, -22.49473], [-44.90366, -22.49339], [-44.90277, -22.49372], [-44.90207, -22.49376], [-44.90177, -22.49403], [-44.90264, -22.4945], [-44.90265, -22.49554], [-44.90315, -22.49647], [-44.90315, -22.49674], [-44.90273, -22.49694], [-44.90108, -22.49535], [-44.9007, -22.49517], [-44.90038, -22.49526], [-44.90048, -22.49642], [-44.90082, -22.49687], [-44.90168, -22.49746], [-44.90166, -22.49764], [-44.90081, -22.49811], [-44.90085, -22.49833], [-44.90256, -22.499], [-44.9035, -22.50024], [-44.90321, -22.50122], [-44.90343, -22.50203], [-44.90323, -22.50223], [-44.90281, -22.50229], [-44.90161, -22.50156], [-44.90106, -22.50151], [-44.90107, -22.50231], [-44.90076, -22.50263], [-44.90033, -22.50269], [-44.89978, -22.50238], [-44.8996, -22.50242], [-44.89917, -22.50399], [-44.8989, -22.50425], [-44.89795, -22.50461], [-44.89838, -22.50579], [-44.89832, -22.50618], [-44.89736, -22.5068], [-44.89659, -22.50755]]]}}, 
{"type": "Feature", "properties": {"CD_SETOR": "352660510000012", "CD_SIT": "8", "NM_DIST": "Pinheiros", "NM_SUBDIST": null}, "geometry": {"type": "Polygon", "coordinates": [[[-44.831, -22.55632], [-44.83048, -22.55742], [-44.8306, -22.55802], [-44.8305, -22.5585], [-44.8306, -22.55873], [-44.8309, -22.55884], [-44.83073, -22.55928], [-44.83113, -22.55947], [-44.83198, -22.55932], [-44.83228, -22.55941], [-44.83251, -22.55972], [-44.83366, -22.55909], [-44.83423, -22.55909], [-44.83512, -22.55867], [-44.83523, -22.55877], [-44.836, -22.55819], [-44.83711, -22.55834], [-44.83745, -22.55858], [-44.83798, -22.55867], [-44.83902, -22.55934], [-44.84117, -22.55972], [-44.84202, -22.56003], [-44.84304, -22.56011], [-44.84379, -22.55925], [-44.84493, -22.5589], [-44.84773, -22.5583], [-44.84903, -22.55849], [-44.85126, -22.55769], [-44.85237, -22.55772], [-44.85466, -22.55825], [-44.85457, -22.55831], [-44.89257, -22.54679], [-44.89391, -22.5462], [-44.89468, -22.54557], [-44.89538, -22.54438], [-44.89576, -22.5432], [-44.89596, -22.54125], [-44.89618, -22.54059], [-44.89655, -22.54046], [-44.89649, -22.53977], [-44.89295, -22.53777], [-44.89107, -22.53801], [-44.88853, -22.53885], [-44.88432, -22.53885], [-44.88433, -22.53374], [-44.88699, -22.53374], [-44.88698, -22.52906], [-44.8895, -22.52794], [-44.89041, -22.52878], [-44.89137, -22.52785], [-44.89259, -22.52729], [-44.89238, -22.527], [-44.89103, -22.5265], [-44.89062, -22.52606], [-44.89017, -22.52431], [-44.89025, -22.52259], [-44.88978, -22.52191], [-44.88861, -22.52163], [-44.88802, -22.5212], [-44.88779, -22.52089], [-44.88771, -22.52029], [-44.88716, -22.51983], [-44.88713, -22.51899], [-44.88738, -22.5183], [-44.88777, -22.51806], [-44.88921, -22.51806], [-44.88916, -22.51661], [-44.89098, -22.51656], [-44.89096, -22.51396], [-44.89215, -22.51393], [-44.89216, -22.50928], [-44.8904, -22.50909], [-44.89024, -22.50802], [-44.88848, -22.50692], [-44.887, -22.5064], [-44.88585, -22.50632], [-44.88538, -22.50646], [-44.88534, -22.50684], [-44.88587, -22.50806], [-44.88569, -22.50879], [-44.88489, -22.50925], [-44.88357, -22.50941], [-44.88345, -22.50965], [-44.88406, -22.51009], [-44.88378, -22.51032], [-44.88321, -22.51037], [-44.8831, -22.51056], [-44.88323, -22.51083], [-44.88404, -22.51135], [-44.8857, -22.51172], [-44.88627, -22.51208], [-44.88644, -22.5124], [-44.88645, -22.51277], [-44.8859, -22.51323], [-44.88537, -22.51409], [-44.88429, -22.51438], [-44.88405, -22.51461], [-44.88411, -22.51494], [-44.88502, -22.51571], [-44.88492, -22.51631], [-44.88428, -22.51666], [-44.88378, -22.51661], [-44.88339, -22.51593], [-44.88246, -22.51486], [-44.88229, -22.51376], [-44.88205, -22.51346], [-44.88155, -22.51327], [-44.88082, -22.51334], [-44.87961, -22.51284], [-44.87915, -22.51289], [-44.87909, -22.51308], [-44.87956, -22.51394], [-44.87949, -22.51493], [-44.88051, -22.51764], [-44.88049, -22.51801], [-44.88014, -22.5182], [-44.87913, -22.5174], [-44.87676, -22.51427], [-44.87552, -22.51388], [-44.87454, -22.51392], [-44.87446, -22.51422], [-44.876, -22.51496], [-44.87641, -22.51533], [-44.87642, -22.51552], [-44.87594, -22.51608], [-44.87595, -22.51632], [-44.87641, -22.51689], [-44.87639, -22.51726], [-44.87614, -22.51744], [-44.87541, -22.51745], [-44.87496, -22.51777], [-44.87391, -22.51793], [-44.87474, -22.51908], [-44.87484, -22.52017], [-44.87473, -22.52052], [-44.87449, -22.5208], [-44.87387, -22.52097], [-44.87167, -22.5206], [-44.87041, -22.52066], [-44.87035, -22.52089], [-44.87166, -22.52286], [-44.87202, -22.52451], [-44.87153, -22.52482], [-44.86994, -22.52473], [-44.86764, -22.52506], [-44.86716, -22.52444], [-44.8672, -22.52318], [-44.86703, -22.52252], [-44.86635, -22.52196], [-44.86587, -22.5212], [-44.86447, -22.52023], [-44.86425, -22.51809], [-44.86385, -22.51701], [-44.86384, -22.51631], [-44.86327, -22.51564], [-44.86295, -22.51575], [-44.86289, -22.51645], [-44.86251, -22.51696], [-44.86268, -22.51878], [-44.86255, -22.51909], [-44.86221, -22.51932], [-44.86098, -22.51954], [-44.85984, -22.51951], [-44.8591, -22.51877], [-44.85792, -22.5192], [-44.85714, -22.51921], [-44.85652, -22.51907], [-44.8557, -22.51825], [-44.85416, -22.51835], [-44.85388, -22.518], [-44.85389, -22.51751], [-44.85352, -22.5163], [-44.85389, -22.51566], [-44.8551, -22.51485], [-44.85509, -22.51459], [-44.85378, -22.5138], [-44.85331, -22.51248], [-44.8531, -22.5123], [-44.85201, -22.51293], [-44.8513, -22.51321], [-44.85106, -22.51315], [-44.85103, -22.51167], [-44.85085, -22.51111], [-44.85035, -22.51032], [-44.84934, -22.51009], [-44.84889, -22.50914], [-44.84814, -22.50922], [-44.84742, -22.50903], [-44.84669, -22.50921], [-44.84647, -22.50909], [-44.84649, -22.50844], [-44.84696, -22.5076], [-44.84655, -22.50684], [-44.84676, -22.50622], [-44.84725, -22.50596], [-44.84751, -22.50599], [-44.84838, -22.5067], [-44.84879, -22.50682], [-44.8498, -22.50575], [-44.85178, -22.50509], [-44.85244, -22.50473], [-44.8528, -22.50425], [-44.85344, -22.50397], [-44.85343, -22.50375], [-44.85314, -22.5035], [-44.85203, -22.50301], [-44.85081, -22.50287], [-44.85055, -22.50271], [-44.85047, -22.50193], [-44.85187, -22.50113], [-44.8555, -22.50102], [-44.85586, -22.5004], [-44.85583, -22.4995], [-44.85564, -22.4992], [-44.85453, -22.49944], [-44.85345, -22.49895], [-44.85232, -22.49917], [-44.85189, -22.499], [-44.85153, -22.49829], [-44.85053, -22.49852], [-44.84978, -22.4985], [-44.84896, -22.49793], [-44.84795, -22.49757], [-44.84739, -22.49692], [-44.84712, -22.4972], [-44.84754, -22.49978], [-44.84719, -22.50012], [-44.84719, -22.50059], [-44.84665, -22.50129], [-44.84648, -22.50242], [-44.84669, -22.50281], [-44.84675, -22.50344], [-44.84713, -22.50384], [-44.84729, -22.50446], [-44.8468, -22.50483], [-44.84652, -22.50535], [-44.84611, -22.50571], [-44.84496, -22.50569], [-44.84439, -22.50606], [-44.8435, -22.50632], [-44.84282, -22.50637], [-44.84212, -22.50605], [-44.84162, -22.50607], [-44.84054, -22.50725], [-44.84059, -22.50756], [-44.84102, -22.50796], [-44.84101, -22.50819], [-44.84056, -22.50877], [-44.84045, -22.50934], [-44.84093, -22.51056], [-44.84109, -22.51145], [-44.84134, -22.51182], [-44.84228, -22.51264], [-44.84375, -22.51308], [-44.84426, -22.51405], [-44.84555, -22.51457], [-44.84594, -22.51509], [-44.84646, -22.51536], [-44.847, -22.51594], [-44.84727, -22.51633], [-44.84756, -22.51757], [-44.84835, -22.51859], [-44.84829, -22.51992], [-44.84843, -22.5204], [-44.84924, -22.52114], [-44.85003, -22.52247], [-44.85056, -22.52271], [-44.85059, -22.52304], [-44.85046, -22.52327], [-44.84932, -22.52364], [-44.84901, -22.52409], [-44.84898, -22.52448], [-44.8495, -22.52574], [-44.84859, -22.52593], [-44.84791, -22.52643], [-44.84786, -22.5267], [-44.84822, -22.52708], [-44.84774, -22.52745], [-44.84747, -22.52888], [-44.84726, -22.52918], [-44.84665, -22.52935], [-44.84673, -22.5299], [-44.84768, -22.53138], [-44.84763, -22.53202], [-44.84714, -22.53231], [-44.84699, -22.53267], [-44.84753, -22.53358], [-44.84743, -22.53379], [-44.84702, -22.53387], [-44.84626, -22.53317], [-44.84574, -22.53327], [-44.84548, -22.53451], [-44.84553, -22.5355], [-44.8451, -22.53654], [-44.84442, -22.53684], [-44.84275, -22.53632], [-44.84198, -22.53643], [-44.8414, -22.53737], [-44.83978, -22.53806], [-44.83899, -22.5396], [-44.83841, -22.54012], [-44.83743, -22.54044], [-44.83721, -22.54085], [-44.8368, -22.54105], [-44.83383, -22.54074], [-44.83351, -22.54097], [-44.83329, -22.54206], [-44.83252, -22.54238], [-44.83186, -22.54349], [-44.83184, -22.54432], [-44.8326, -22.54579], [-44.83183, -22.54674], [-44.83177, -22.54751], [-44.83147, -22.54781], [-44.82995, -22.54856], [-44.82848, -22.54852], [-44.82785, -22.5489], [-44.82789, -22.54952], [-44.82824, -22.54974], [-44.82963, -22.54964], [-44.83034, -22.55024], [-44.83054, -22.5517], [-44.83025, -22.5523], [-44.82957, -22.55289], [-44.82927, -22.5544], [-44.82952, -22.55491], [-44.83022, -22.55459], [-44.83116, -22.55498], [-44.83141, -22.55531], [-44.83138, -22.556], [-44.831, -22.55632]]]}}]}