{"type": "FeatureCollection", "features": [
{"type": "Feature", "properties": {"CD_SETOR": "353160505000001", "CD_SIT": "1", "NM_DIST": "Monte Castelo", "NM_SUBDIST": null}, "geometry": {"type": "Polygon", "coordinates": [[[-51.56485, -21.3016], [-51.56657, -21.30219], [-51.56758, -21.29978], [-51.5667, -21.29945], [-51.56738, -21.29782], [-51.5656, -21.29717], [-51.56591, -21.29639], [-51.56505, -21.29609], [-51.56343, -21.30013], [-51.5652, -21.30075], [-51.56485, -21.3016]]]}}, 
{"type": "Feature", "properties": {"CD_SETOR": "353160505000002", "CD_SIT": "1", "NM_DIST": "Monte Castelo", "NM_SUBDIST": null}, "geometry": {"type": "Polygon", "coordinates": [[[-51.56485, -21.3016], [-51.56404, -21.3036], [-51.56377, -21.3035], [-51.56311, -21.30494], [-51.56608, -21.30607], [-51.56655, -21.30486], [-51.56827, -21.30554], [-51.5699, -21.30154], [-51.56904, -21.30121], [-51.56937, -21.30038], [-51.56758, -21.29978], [-51.56657, -21.30219], [-51.56485, -21.3016]]]}}, 
{"type": "Feature", "properties": {"CD_SETOR": "353160505000003", "CD_SIT": "1", "NM_DIST": "Monte Castelo", "NM_SUBDIST": null}, "geometry": {"type": "Polygon", "coordinates": [[[-51.56827, -21.30554], [-51.57089, -21.30661], [-51.57127, -21.30563], [-51.57045, -21.30537], [-51.57144, -21.30447], [-51.57247, -21.30314], [-51.57306, -21.3027], [-51.57341, -21.30188], [-51.56937, -21.30038], [-51.56904, -21.30121], [-51.5699, -21.30154], [-51.56827, -21.30554]]]}}, 
{"type": "Feature", "properties": {"CD_SETOR": "353160505000005", "CD_SIT": "8", "NM_DIST": "Monte Castelo", "NM_SUBDIST": null}, "geometry": {"type": "Polygon", "coordinates": [[[-51.50238, -21.23202], [-51.50733, -21.2412], [-51.50843, -21.24264], [-51.50909, -21.24276], [-51.50994, -21.24238], [-51.51056, -21.24228], [-51.51136, -21.24258], [-51.56954, -21.29609], [-51.57057, -21.29513], [-51.57195, -21.29645], [-51.57669, -21.28443], [-51.58121, -21.28037], [-51.5819, -21.27917], [-51.5815, -21.27852], [-51.58193, -21.27728], [-51.58303, -21.2755], [-51.58334, -21.27389], [-51.58435, -21.27204], [-51.58452, -21.26924], [-51.58419, -21.26771], [-51.58372, -21.26704], [-51.58322, -21.2667], [-51.58274, -21.26594], [-51.58275, -21.26457], [-51.58305, -21.26325], [-51.58427, -21.26128], [-51.58482, -21.25996], [-51.58487, -21.25704], [-51.58512, -21.25608], [-51.58695, -21.25388], [-51.58717, -21.25297], [-51.58706, -21.25179], [-51.58635, -21.25083], [-51.58577, -21.24827], [-51.58549, -21.24413], [-51.58525, -21.24284], [-51.58532, -21.24028], [-51.58579, -21.23871], [-51.58653, -21.23741], [-51.58724, -21.23652], [-51.58919, -21.23258], [-51.5896, -21.23224], [-51.58984, -21.2317], [-51.59052, -21.22855], [-51.59162, -21.22507], [-51.593, -21.22311], [-51.59286, -21.22015], [-51.59321, -21.21735], [-51.59244, -21.21545], [-51.58989, -21.21027], [-51.58789, -21.20697], [-51.58714, -21.20621], [-51.58471, -21.20549], [-51.58428, -21.20506], [-51.584, -21.20419], [-51.58381, -21.20216], [-51.58275, -21.20032], [-51.58059, -21.19919], [-51.57872, -21.19865], [-51.57794, -21.19714], [-51.50238, -21.23202]]]}}, 
{"type": "Feature", "properties": {"CD_SETOR": "353160505000006", "CD_SIT": "8", "NM_DIST": "Monte Castelo", "NM_SUBDIST": null}, "geometry": {"type": "Polygon", "coordinates": [[[-51.49772, -21.3124], [-51.49839, -21.31381], [-51.49851, -21.31507], [-51.49911, -21.31669], [-51.49993, -21.3177], [-51.49971, -21.31866], [-51.50029, -21.32], [-51.49998, -21.32094], [-51.50012, -21.32196], [-51.5004, -21.32226], [-51.50079, -21.32238], [-51.50241, -21.32552], [-51.50347, -21.32685], [-51.5033, -21.3271], [-51.50409, -21.32781], [-51.50429, -21.32856], [-51.50731, -21.33227], [-51.51133, -21.33397], [-51.5127, -21.33407], [-51.51625, -21.33503], [-51.51987, -21.33562], [-51.52314, -21.33648], [-51.52536, -21.3368], [-51.52734, -21.335], [-51.52859, -21.33442], [-51.5305, -21.33401], [-51.53214, -21.33392], [-51.53343, -21.33276], [-51.53417, -21.33167], [-51.53606, -21.33023], [-51.53783, -21.32951], [-51.5411, -21.32776], [-51.54209, -21.32663], [-51.5464, -21.32781], [-51.5487, -21.32768], [-51.54995, -21.32791], [-51.55026, -21.32814], [-51.552, -21.32311], [-51.52713, -21.27751], [-51.52721, -21.25781], [-51.52735, -21.2573], [-51.51136, -21.24258], [-51.51056, -21.24228], [-51.50994, -21.24238], [-51.50909, -21.24276], [-51.50861, -21.24275], [-51.50832, -21.24254], [-51.50733, -21.2412], [-51.50246, -21.23227], [-51.50273, -21.23302], [-51.50178, -21.23424], [-51.50125, -21.23533], [-51.49989, -21.23655], [-51.49859, -21.23726], [-51.49545, -21.23778], [-51.49414, -21.23741], [-51.49298, -21.2384], [-51.49167, -21.23915], [-51.49103, -21.24073], [-51.48956, -21.24339], [-51.48995, -21.24456], [-51.49109, -21.2453], [-51.49206, -21.24652], [-51.49223, -21.24806], [-51.49295, -21.24946], [-51.4946, -21.2512], [-51.4947, -21.25265], [-51.4965, -21.25299], [-51.49717, -21.25408], [-51.49653, -21.25583], [-51.49739, -21.25841], [-51.49825, -21.2594], [-51.49801, -21.26319], [-51.49809, -21.26464], [-51.49851, -21.26582], [-51.49793, -21.26797], [-51.4972, -21.26922], [-51.49773, -21.27216], [-51.49859, -21.27356], [-51.49807, -21.27808], [-51.49831, -21.27951], [-51.4994, -21.28065], [-51.50009, -21.28192], [-51.50012, -21.28431], [-51.49945, -21.28574], [-51.50081, -21.28779], [-51.50026, -21.29003], [-51.50052, -21.29189], [-51.49967, -21.29476], [-51.49984, -21.29606], [-51.49948, -21.29768], [-51.49879, -21.29907], [-51.49892, -21.3007], [-51.49823, -21.30328], [-51.49723, -21.30464], [-51.49798, -21.306], [-51.49908, -21.3065], [-51.49916, -21.30767], [-51.49904, -21.30885], [-51.49834, -21.31132], [-51.49772, -21.3124]]]}}, 
{"type": "Feature", "properties": {"CD_SETOR": "353160505000007", "CD_SIT": "8", "NM_DIST": "Monte Castelo", "NM_SUBDIST": null}, "geometry": {"type": "Polygon", "coordinates": [[[-51.552, -21.32311], [-51.55836, -21.30463], [-51.55838, -21.3043], [-51.55814, -21.30414], [-51.55946, -21.30099], [-51.56038, -21.3001], [-51.56132, -21.29767], [-51.55896, -21.29679], [-51.56002, -21.29551], [-51.56118, -21.29449], [-51.56327, -21.29539], [-51.56445, -21.29254], [-51.56464, -21.29272], [-51.56525, -21.29216], [-51.52735, -21.2573], [-51.52721, -21.25781], [-51.52713, -21.27751], [-51.552, -21.32311]]]}}, 
{"type": "Feature", "properties": {"CD_SETOR": "353160505000009", "CD_SIT": "8", "NM_DIST": "Monte Castelo", "NM_SUBDIST": null}, "geometry": {"type": "Polygon", "coordinates": [[[-51.57794, -21.19714], [-51.57872, -21.19865], [-51.58059, -21.19919], [-51.58275, -21.20032], [-51.58381, -21.20216], [-51.584, -21.20419], [-51.58428, -21.20506], [-51.58471, -21.20549], [-51.58714, -21.20621], [-51.58789, -21.20697], [-51.58989, -21.21027], [-51.5912, -21.21281], [-51.59321, -21.21735], [-51.59286, -21.22015], [-51.593, -21.22311], [-51.59162, -21.22507], [-51.59052, -21.22855], [-51.58984, -21.2317], [-51.5896, -21.23224], [-51.58919, -21.23258], [-51.58724, -21.23652], [-51.58653, -21.23741], [-51.58579, -21.23871], [-51.58532, -21.24028], [-51.58525, -21.24284], [-51.58549, -21.24413], [-51.58577, -21.24827], [-51.58635, -21.25083], [-51.58706, -21.25179], [-51.58717, -21.25297], [-51.58695, -21.25388], [-51.58512, -21.25608], [-51.58487, -21.25704], [-51.58482, -21.25996], [-51.58427, -21.26128], [-51.58305, -21.26325], [-51.58275, -21.26457], [-51.58274, -21.26594], [-51.58322, -21.2667], [-51.58372, -21.26704], [-51.58419, -21.26771], [-51.58452, -21.26924], [-51.58435, -21.27204], [-51.58334, -21.27389], [-51.58303, -21.2755], [-51.58193, -21.27728], [-51.5815, -21.27852], [-51.58209, -21.27958], [-51.58224, -21.28013], [-51.58342, -21.28205], [-51.58393, -21.28368], [-51.58372, -21.28487], [-51.58277, -21.28702], [-51.5831, -21.28776], [-51.58302, -21.28876], [-51.58342, -21.29047], [-51.58387, -21.29133], [-51.585, -21.2916], [-51.58694, -21.29319], [-51.58713, -21.29358], [-51.58753, -21.29366], [-51.58833, -21.29427], [-51.58883, -21.29429], [-51.58874, -21.29465], [-51.58894, -21.29497], [-51.58809, -21.29554], [-51.58823, -21.29608], [-51.588, -21.29649], [-51.58823, -21.29725], [-51.58811, -21.2981], [-51.5876, -21.29928], [-51.58794, -21.29974], [-51.58766, -21.30022], [-51.58776, -21.30085], [-51.58702, -21.30151], [-51.58706, -21.30323], [-51.58646, -21.30511], [-51.58656, -21.30548], [-51.58695, -21.30527], [-51.58772, -21.30584], [-51.58863, -21.30626], [-51.58876, -21.30619], [-51.58951, -21.30735], [-51.59038, -21.30813], [-51.59084, -21.30809], [-51.5924, -21.31043], [-51.59252, -21.311], [-51.59335, -21.31197], [-51.59367, -21.31209], [-51.59419, -21.31297], [-51.59434, -21.31324], [-51.59412, -21.31366], [-51.59432, -21.31384], [-51.59488, -21.31364], [-51.59634, -21.3148], [-51.59666, -21.31564], [-51.59757, -21.31665], [-51.59806, -21.31684], [-51.59921, -21.31657], [-51.59969, -21.31681], [-51.60059, -21.31807], [-51.60073, -21.31878], [-51.60104, -21.31892], [-51.60256, -21.31897], [-51.6034, -21.31854], [-51.60497, -21.31876], [-51.60648, -21.31832], [-51.60694, -21.31841], [-51.60794, -21.31893], [-51.60943, -21.32005], [-51.6106, -21.32176], [-51.61136, -21.3224], [-51.61183, -21.32228], [-51.61244, -21.32236], [-51.61333, -21.32282], [-51.61428, -21.32306], [-51.61525, -21.3237], [-51.61591, -21.3244], [-51.61607, -21.32703], [-51.61665, -21.32422], [-51.61729, -21.32278], [-51.61935, -21.32062], [-51.62059, -21.32003], [-51.62504, -21.31683], [-51.62476, -21.31552], [-51.62325, -21.3134], [-51.62067, -21.31172], [-51.61762, -21.31063], [-51.61562, -21.30838], [-51.61498, -21.30521], [-51.6157, -21.30295], [-51.61639, -21.30174], [-51.61793, -21.30052], [-51.61903, -21.29926], [-51.62195, -21.29827], [-51.62309, -21.29701], [-51.62425, -21.29669], [-51.62579, -21.29656], [-51.62867, -21.29503], [-51.63187, -21.29399], [-51.6354, -21.29323], [-51.63723, -21.29178], [-51.63837, -21.29053], [-51.63934, -21.28904], [-51.64176, -21.28634], [-51.64354, -21.2858], [-51.64537, -21.28552], [-51.64759, -21.28462], [-51.64926, -21.28435], [-51.6524, -21.28454], [-51.65312, -21.28287], [-51.65187, -21.28218], [-51.65076, -21.28101], [-51.64862, -21.27689], [-51.64723, -21.27583], [-51.64621, -21.27459], [-51.64571, -21.27348], [-51.64625, -21.27108], [-51.64548, -21.26944], [-51.64467, -21.26904], [-51.64418, -21.26799], [-51.64459, -21.26623], [-51.64452, -21.26557], [-51.6439, -21.26533], [-51.64309, -21.26371], [-51.64307, -21.26304], [-51.64282, -21.26249], [-51.64209, -21.26204], [-51.6409, -21.26238], [-51.64021, -21.26204], [-51.63967, -21.26068], [-51.63937, -21.25901], [-51.63895, -21.25795], [-51.63977, -21.25631], [-51.63835, -21.25525], [-51.63744, -21.25507], [-51.63701, -21.25095], [-51.63726, -21.24929], [-51.63687, -21.2473], [-51.63573, -21.2455], [-51.63473, -21.24433], [-51.63417, -21.24298], [-51.63384, -21.24136], [-51.63379, -21.23969], [-51.63276, -21.23563], [-51.63265, -21.23233], [-51.63598, -21.22721], [-51.63617, -21.2255], [-51.63568, -21.22283], [-51.63476, -21.22198], [-51.63454, -21.22022], [-51.63357, -21.21756], [-51.63351, -21.21503], [-51.63265, -21.2135], [-51.63154, -21.21296], [-51.63051, -21.2118], [-51.62987, -21.21031], [-51.62931, -21.20751], [-51.62918, -21.20574], [-51.62796, -21.20445], [-51.62662, -21.20368], [-51.62454, -21.20144], [-51.62365, -21.19972], [-51.62312, -21.19801], [-51.62301, -21.19639], [-51.62256, -21.19498], [-51.62164, -21.19377], [-51.62115, -21.19233], [-51.6207, -21.19003], [-51.62084, -21.18858], [-51.62162, -21.18695], [-51.62195, -21.1856], [-51.62235, -21.18063], [-51.62542, -21.17984], [-51.62695, -21.17871], [-51.62762, -21.17731], [-51.62756, -21.17609], [-51.62709, -21.17468], [-51.62698, -21.17333], [-51.62778, -21.17049], [-51.62879, -21.16786], [-51.62907, -21.1661], [-51.6289, -21.1647], [-51.62973, -21.16347], [-51.63121, -21.16279], [-51.60801, -21.15224], [-51.59327, -21.18518], [-51.57794, -21.19714]]]}}, 
{"type": "Feature", "properties": {"CD_SETOR": "353160505000010", "CD_SIT": "8", "NM_DIST": "Monte Castelo", "NM_SUBDIST": null}, "geometry": {"type": "Polygon", "coordinates": [[[-51.50184, -21.22107], [-51.5027, -21.22223], [-51.5027, -21.22372], [-51.50298, -21.22507], [-51.49995, -21.22873], [-51.50064, -21.22973], [-51.50186, -21.23054], [-51.50238, -21.23202], [-51.57794, -21.19714], [-51.59327, -21.18518], [-51.60801, -21.15224], [-51.63121, -21.16279], [-51.63961, -21.16279], [-51.63818, -21.1607], [-51.638, -21.16005], [-51.63881, -21.15665], [-51.63782, -21.15377], [-51.63823, -21.15225], [-51.63814, -21.1517], [-51.63767, -21.15136], [-51.63718, -21.15124], [-51.63648, -21.15134], [-51.63518, -21.15247], [-51.63438, -21.15263], [-51.63346, -21.15231], [-51.63211, -21.1506], [-51.63118, -21.15023], [-51.63002, -21.15002], [-51.62923, -21.14941], [-51.62888, -21.14875], [-51.62896, -21.14783], [-51.62874, -21.14701], [-51.62752, -21.14616], [-51.62683, -21.14598], [-51.62392, -21.14673], [-51.62267, -21.14669], [-51.62044, -21.14758], [-51.61943, -21.14771], [-51.61921, -21.14722], [-51.61951, -21.1457], [-51.61917, -21.14505], [-51.61683, -21.14477], [-51.61614, -21.14402], [-51.61596, -21.143], [-51.61552, -21.14206], [-51.61479, -21.14157], [-51.61368, -21.14165], [-51.61196, -21.14315], [-51.61104, -21.14354], [-51.60777, -21.14551], [-51.60566, -21.14643], [-51.60194, -21.149], [-51.60163, -21.149], [-51.60143, -21.14871], [-51.60196, -21.14811], [-51.60321, -21.14745], [-51.60321, -21.14647], [-51.60343, -21.14591], [-51.60432, -21.14482], [-51.60416, -21.14422], [-51.60355, -21.1437], [-51.60084, -21.14426], [-51.59949, -21.14511], [-51.59894, -21.14566], [-51.59772, -21.14624], [-51.59648, -21.14633], [-51.59571, -21.14673], [-51.59512, -21.14736], [-51.59438, -21.14772], [-51.5923, -21.14822], [-51.59145, -21.14864], [-51.59031, -21.15184], [-51.59013, -21.15261], [-51.59019, -21.15339], [-51.59048, -21.15399], [-51.59174, -21.15436], [-51.59227, -21.15479], [-51.59314, -21.15609], [-51.59526, -21.158], [-51.59596, -21.15902], [-51.59535, -21.1604], [-51.59499, -21.16064], [-51.59355, -21.16237], [-51.5935, -21.16267], [-51.59375, -21.16346], [-51.59487, -21.1648], [-51.59513, -21.16607], [-51.59499, -21.16651], [-51.59364, -21.16819], [-51.59358, -21.17067], [-51.59345, -21.171], [-51.59278, -21.17155], [-51.59127, -21.17211], [-51.59071, -21.17273], [-51.58954, -21.17471], [-51.58667, -21.17544], [-51.58546, -21.17645], [-51.58498, -21.17733], [-51.58439, -21.17772], [-51.58323, -21.1781], [-51.5819, -21.17816], [-51.58065, -21.17849], [-51.57894, -21.17974], [-51.57807, -21.18004], [-51.5769, -21.18003], [-51.57616, -21.1804], [-51.5757, -21.18084], [-51.57575, -21.18129], [-51.57659, -21.18233], [-51.5771, -21.18265], [-51.57779, -21.18406], [-51.57748, -21.18493], [-51.577, -21.1852], [-51.57628, -21.1852], [-51.57585, -21.18585], [-51.57592, -21.18674], [-51.57655, -21.18752], [-51.57662, -21.18808], [-51.57618, -21.18919], [-51.575, -21.18963], [-51.57389, -21.18919], [-51.57375, -21.18728], [-51.57304, -21.18679], [-51.57108, -21.18699], [-51.57087, -21.18638], [-51.57096, -21.18524], [-51.57046, -21.18493], [-51.56988, -21.18509], [-51.5696, -21.1859], [-51.5697, -21.18659], [-51.5695, -21.18701], [-51.56908, -21.18727], [-51.56854, -21.18733], [-51.56809, -21.18725], [-51.56644, -21.18559], [-51.56554, -21.1852], [-51.56476, -21.18526], [-51.56331, -21.18608], [-51.56295, -21.18664], [-51.56303, -21.18719], [-51.5647, -21.18905], [-51.56491, -21.18954], [-51.56461, -21.19015], [-51.56375, -21.1904], [-51.56308, -21.19025], [-51.56183, -21.19034], [-51.56069, -21.19089], [-51.55955, -21.19081], [-51.55879, -21.19022], [-51.55742, -21.19021], [-51.5556, -21.19087], [-51.55476, -21.19075], [-51.55281, -21.19001], [-51.5522, -21.19006], [-51.55014, -21.19079], [-51.54613, -21.19087], [-51.54302, -21.19168], [-51.54266, -21.19212], [-51.54299, -21.19304], [-51.54428, -21.19423], [-51.54416, -21.19485], [-51.54244, -21.1957], [-51.54136, -21.19679], [-51.54067, -21.19655], [-51.54066, -21.19569], [-51.54092, -21.19495], [-51.54054, -21.19409], [-51.5388, -21.19349], [-51.53796, -21.19381], [-51.53749, -21.19481], [-51.53773, -21.19579], [-51.53846, -21.19656], [-51.53873, -21.19747], [-51.53851, -21.19827], [-51.53688, -21.19941], [-51.5356, -21.20078], [-51.53462, -21.20081], [-51.53362, -21.19993], [-51.53391, -21.19952], [-51.5357, -21.19932], [-51.53625, -21.19846], [-51.53579, -21.19739], [-51.53441, -21.19647], [-51.53363, -21.19558], [-51.53228, -21.19542], [-51.53111, -21.1957], [-51.5309, -21.19628], [-51.53095, -21.19684], [-51.53055, -21.19749], [-51.52988, -21.19764], [-51.52775, -21.19751], [-51.52665, -21.19795], [-51.525, -21.19892], [-51.52401, -21.19919], [-51.52339, -21.19956], [-51.52304, -21.20016], [-51.52301, -21.201], [-51.52335, -21.20202], [-51.52301, -21.20287], [-51.52234, -21.2034], [-51.51959, -21.2036], [-51.51912, -21.20382], [-51.51866, -21.20446], [-51.51851, -21.20811], [-51.51811, -21.20902], [-51.51737, -21.20964], [-51.51661, -21.20983], [-51.51385, -21.20979], [-51.51256, -21.21022], [-51.5115, -21.21128], [-51.51082, -21.21471], [-51.50974, -21.2168], [-51.50864, -21.21751], [-51.50781, -21.2177], [-51.50513, -21.21681], [-51.50449, -21.21693], [-51.50373, -21.21755], [-51.50353, -21.21956], [-51.5033, -21.22023], [-51.50285, -21.22065], [-51.50184, -21.22107]]]}}, 
{"type": "Feature", "properties": {"CD_SETOR": "353160505000011", "CD_SIT": "1", "NM_DIST": "Monte Castelo", "NM_SUBDIST": null}, "geometry": {"type": "Polygon", "coordinates": [[[-51.55879, -21.30258], [-51.56342, -21.30422], [-51.56377, -21.3035], [-51.56404, -21.3036], [-51.5652, -21.30075], [-51.56343, -21.30013], [-51.56555, -21.29481], [-51.56576, -21.29489], [-51.566, -21.29448], [-51.56526, -21.29413], [-51.56611, -21.29295], [-51.56525, -21.29216], [-51.56464, -21.29272], [-51.56445, -21.29254], [-51.56327, -21.29539], [-51.56118, -21.29449], [-51.56002, -21.29551], [-51.55896, -21.29679], [-51.56132, -21.29767], [-51.56038, -21.3001], [-51.55946, -21.30099], [-51.55879, -21.30258]]]}}, 
{"type": "Feature", "properties": {"CD_SETOR": "353160505000012", "CD_SIT": "1", "NM_DIST": "Monte Castelo", "NM_SUBDIST": null}, "geometry": {"type": "Polygon", "coordinates": [[[-51.566, -21.29448], [-51.56643, -21.29463], [-51.5668, -21.29383], [-51.56711, -21.29414], [-51.56676, -21.29494], [-51.56759, -21.29526], [-51.56811, -21.29478], [-51.56611, -21.29295], [-51.56526, -21.29413], [-51.566, -21.29448]]]}}, 
{"type": "Feature", "properties": {"CD_SETOR": "353160505000013", "CD_SIT": "2", "NM_DIST": "Monte Castelo", "NM_SUBDIST": null}, "geometry": {"type": "Polygon", "coordinates": [[[-51.56608, -21.30607], [-51.56311, -21.30494], [-51.5626, -21.30626], [-51.56547, -21.30765], [-51.56608, -21.30607]]]}}, 
{"type": "Feature", "properties": {"CD_SETOR": "353160505000014", "CD_SIT": "8", "NM_DIST": "Monte Castelo", "NM_SUBDIST": null}, "geometry": {"type": "Polygon", "coordinates": [[[-51.57195, -21.29645], [-51.5728, -21.29707], [-51.57278, -21.29762], [-51.57395, -21.29913], [-51.57392, -21.29949], [-51.57365, -21.3001], [-51.57357, -21.30123], [-51.57323, -21.30246], [-51.57045, -21.30537], [-51.57127, -21.30563], [-51.57089, -21.30661], [-51.56655, -21.30486], [-51.56547, -21.30765], [-51.5626, -21.30626], [-51.56342, -21.30422], [-51.55879, -21.30258], [-51.55814, -21.30414], [-51.55838, -21.3043], [-51.55836, -21.30463], [-51.55026, -21.32814], [-51.55264, -21.32984], [-51.5537, -21.3308], [-51.5547, -21.33234], [-51.55495, -21.33361], [-51.55354, -21.33865], [-51.55378, -21.33988], [-51.55531, -21.34123], [-51.55668, -21.34048], [-51.55909, -21.33822], [-51.56106, -21.33786], [-51.5642, -21.33764], [-51.56715, -21.33679], [-51.56959, -21.33652], [-51.57325, -21.33553], [-51.57915, -21.33424], [-51.58092, -21.33415], [-51.58245, -21.33442], [-51.5837, -21.33519], [-51.58569, -21.33573], [-51.58723, -21.33573], [-51.59229, -21.33647], [-51.59484, -21.3371], [-51.5997, -21.33927], [-51.605, -21.3396], [-51.60823, -21.34195], [-51.60972, -21.3415], [-51.6104, -21.33961], [-51.61046, -21.33798], [-51.61109, -21.33618], [-51.61123, -21.33455], [-51.61026, -21.33383], [-51.60971, -21.33261], [-51.61011, -21.33103], [-51.61272, -21.3295], [-51.61398, -21.32828], [-51.61599, -21.32682], [-51.61607, -21.32567], [-51.61591, -21.3244], [-51.61525, -21.3237], [-51.61428, -21.32306], [-51.61333, -21.32282], [-51.61244, -21.32236], [-51.61183, -21.32228], [-51.61136, -21.3224], [-51.6106, -21.32176], [-51.60943, -21.32005], [-51.60877, -21.31944], [-51.60694, -21.31841], [-51.60648, -21.31832], [-51.60497, -21.31876], [-51.6034, -21.31854], [-51.60256, -21.31897], [-51.60154, -21.31901], [-51.60073, -21.31878], [-51.60059, -21.31807], [-51.59969, -21.31681], [-51.59921, -21.31657], [-51.59806, -21.31684], [-51.59757, -21.31665], [-51.59666, -21.31564], [-51.59634, -21.3148], [-51.59488, -21.31364], [-51.59432, -21.31384], [-51.59412, -21.31366], [-51.59434, -21.31324], [-51.59419, -21.31297], [-51.59367, -21.31209], [-51.59335, -21.31197], [-51.59252, -21.311], [-51.5924, -21.31043], [-51.59084, -21.30809], [-51.59038, -21.30813], [-51.58951, -21.30735], [-51.58876, -21.30619], [-51.58863, -21.30626], [-51.58772, -21.30584], [-51.58695, -21.30527], [-51.58656, -21.30548], [-51.58646, -21.30511], [-51.58706, -21.30323], [-51.58702, -21.30151], [-51.58776, -21.30085], [-51.58766, -21.30022], [-51.58794, -21.29974], [-51.5876, -21.29928], [-51.58811, -21.2981], [-51.58823, -21.29725], [-51.588, -21.29649], [-51.58823, -21.29608], [-51.58809, -21.29554], [-51.58894, -21.29497], [-51.58874, -21.29465], [-51.58883, -21.29429], [-51.58833, -21.29427], [-51.58753, -21.29366], [-51.58713, -21.29358], [-51.58694, -21.29319], [-51.585, -21.2916], [-51.58387, -21.29133], [-51.58342, -21.29047], [-51.58302, -21.28876], [-51.5831, -21.28776], [-51.58277, -21.28702], [-51.58372, -21.28487], [-51.58393, -21.28368], [-51.58342, -21.28205], [-51.58224, -21.28013], [-51.5819, -21.27917], [-51.58121, -21.28037], [-51.57669, -21.28443], [-51.57195, -21.29645]]]}}, 
{"type": "Feature", "properties": {"CD_SETOR": "353160505000015", "CD_SIT": "1", "NM_DIST": "Monte Castelo", "NM_SUBDIST": null}, "geometry": {"type": "Polygon", "coordinates": [[[-51.5691, -21.29569], [-51.56915, -21.29591], [-51.56758, -21.29978], [-51.57341, -21.30188], [-51.57365, -21.3001], [-51.57395, -21.29913], [-51.57278, -21.29762], [-51.5728, -21.29707], [-51.57057, -21.29513], [-51.56954, -21.29609], [-51.5691, -21.29569]]]}}, 
{"type": "Feature", "properties": {"CD_SETOR": "353160505000016", "CD_SIT": "1", "NM_DIST": "Monte Castelo", "NM_SUBDIST": null}, "geometry": {"type": "Polygon", "coordinates": [[[-51.566, -21.29448], [-51.56576, -21.29489], [-51.56555, -21.29481], [-51.56505, -21.29609], [-51.56591, -21.29639], [-51.5656, -21.29717], [-51.56738, -21.29782], [-51.5667, -21.29945], [-51.56758, -21.29978], [-51.56915, -21.2958], [-51.56811, -21.29478], [-51.56759, -21.29526], [-51.56676, -21.29494], [-51.56711, -21.29414], [-51.5668, -21.29383], [-51.56643, -21.29463], [-51.566, -21.29448]]]}}]}