{"type": "FeatureCollection", "features": [
{"type": "Feature", "properties": {"CD_SETOR": "353120905000001", "CD_SIT": "1", "NM_DIST": "Monte Alegre do Sul", "NM_SUBDIST": null}, "geometry": {"type": "Polygon", "coordinates": [[[-46.67548, -22.67671], [-46.67671, -22.67739], [-46.67868, -22.6789], [-46.67972, -22.68011], [-46.68072, -22.68418], [-46.68109, -22.68451], [-46.68161, -22.68577], [-46.68297, -22.68692], [-46.6836, -22.68831], [-46.68382, -22.68849], [-46.68419, -22.68806], [-46.68352, -22.68691], [-46.68235, -22.68555], [-46.68241, -22.67478], [-46.68128, -22.67509], [-46.68007, -22.67446], [-46.67668, -22.67518], [-46.67622, -22.67611], [-46.67548, -22.67671]]]}}, 
{"type": "Feature", "properties": {"CD_SETOR": "353120905000003", "CD_SIT": "2", "NM_DIST": "Monte Alegre do Sul", "NM_SUBDIST": null}, "geometry": {"type": "Polygon", "coordinates": [[[-46.67917, -22.68697], [-46.67859, -22.68723], [-46.67857, -22.68768], [-46.6795, -22.68834], [-46.67975, -22.69005], [-46.68001, -22.69082], [-46.67831, -22.6918], [-46.67776, -22.69312], [-46.67723, -22.6933], [-46.67714, -22.69406], [-46.67678, -22.69462], [-46.67798, -22.69499], [-46.68009, -22.69628], [-46.68123, -22.69639], [-46.68298, -22.69801], [-46.68502, -22.69786], [-46.68574, -22.69799], [-46.68714, -22.69631], [-46.68951, -22.69593], [-46.68972, -22.69596], [-46.69023, -22.69669], [-46.69069, -22.69641], [-46.69019, -22.69454], [-46.68968, -22.69442], [-46.68931, -22.69396], [-46.6895, -22.69346], [-46.69002, -22.69291], [-46.6901, -22.69226], [-46.68985, -22.69135], [-46.68863, -22.68907], [-46.68868, -22.6889], [-46.68912, -22.6888], [-46.68913, -22.68816], [-46.68928, -22.68796], [-46.6898, -22.68765], [-46.68981, -22.68719], [-46.6894, -22.68653], [-46.68908, -22.68647], [-46.68819, -22.68724], [-46.68504, -22.68892], [-46.68473, -22.68862], [-46.68405, -22.68859], [-46.6836, -22.68831], [-46.68297, -22.68692], [-46.68161, -22.68577], [-46.68097, -22.68431], [-46.68058, -22.68418], [-46.68022, -22.68463], [-46.67973, -22.68605], [-46.67917, -22.68697]]]}}, 
{"type": "Feature", "properties": {"CD_SETOR": "353120905000005", "CD_SIT": "3", "NM_DIST": "Monte Alegre do Sul", "NM_SUBDIST": null}, "geometry": {"type": "Polygon", "coordinates": [[[-46.71726, -22.69585], [-46.71687, -22.69645], [-46.71832, -22.69755], [-46.71843, -22.69803], [-46.71997, -22.69729], [-46.72015, -22.69669], [-46.72083, -22.69593], [-46.72084, -22.69514], [-46.71985, -22.69376], [-46.71994, -22.69393], [-46.718, -22.69495], [-46.71726, -22.69585]]]}}, 
{"type": "Feature", "properties": {"CD_SETOR": "353120905000008", "CD_SIT": "8", "NM_DIST": "Monte Alegre do Sul", "NM_SUBDIST": null}, "geometry": {"type": "Polygon", "coordinates": [[[-46.62903, -22.65357], [-46.62927, -22.65434], [-46.62982, -22.65497], [-46.62943, -22.65571], [-46.62868, -22.65672], [-46.62744, -22.65752], [-46.62593, -22.65889], [-46.62649, -22.6621], [-46.62652, -22.66443], [-46.62667, -22.66493], [-46.62798, -22.66632], [-46.62938, -22.66718], [-46.63007, -22.66778], [-46.63015, -22.66857], [-46.62997, -22.66898], [-46.62934, -22.66958], [-46.6291, -22.67025], [-46.62913, -22.67067], [-46.62933, -22.67116], [-46.6302, -22.67192], [-46.63205, -22.67452], [-46.63212, -22.67512], [-46.63184, -22.67587], [-46.63096, -22.67658], [-46.62959, -22.67731], [-46.6277, -22.67791], [-46.62607, -22.67809], [-46.62499, -22.67875], [-46.62547, -22.67939], [-46.62728, -22.68066], [-46.62858, -22.68065], [-46.62902, -22.68092], [-46.62955, -22.68162], [-46.62954, -22.68257], [-46.63, -22.68322], [-46.63009, -22.68512], [-46.631, -22.68655], [-46.63111, -22.68813], [-46.63263, -22.68906], [-46.63356, -22.69274], [-46.63385, -22.69323], [-46.63453, -22.69397], [-46.6366, -22.69532], [-46.63695, -22.69627], [-46.63789, -22.69694], [-46.63769, -22.69779], [-46.63775, -22.6982], [-46.63828, -22.69872], [-46.63855, -22.6997], [-46.64024, -22.70081], [-46.64062, -22.70085], [-46.64083, -22.70359], [-46.64116, -22.70389], [-46.64146, -22.70375], [-46.64139, -22.7033], [-46.64155, -22.70311], [-46.64203, -22.70324], [-46.64342, -22.70284], [-46.64389, -22.70178], [-46.64403, -22.70069], [-46.64429, -22.70029], [-46.64534, -22.7005], [-46.64556, -22.70041], [-46.64516, -22.69943], [-46.64531, -22.69909], [-46.64581, -22.69895], [-46.64615, -22.69935], [-46.64626, -22.69983], [-46.64681, -22.70014], [-46.64713, -22.70013], [-46.64811, -22.69958], [-46.64793, -22.69904], [-46.64813, -22.69856], [-46.65149, -22.69893], [-46.65297, -22.6988], [-46.65367, -22.69855], [-46.65559, -22.69915], [-46.65627, -22.70104], [-46.65716, -22.70246], [-46.65793, -22.70241], [-46.65882, -22.70148], [-46.65913, -22.70148], [-46.65934, -22.70168], [-46.65953, -22.70407], [-46.65975, -22.70461], [-46.66009, -22.70476], [-46.66041, -22.70466], [-46.66084, -22.70375], [-46.66144, -22.70332], [-46.66195, -22.70253], [-46.66257, -22.70198], [-46.6629, -22.70233], [-46.66309, -22.70228], [-46.66386, -22.70126], [-46.6646, -22.70098], [-46.66483, -22.70064], [-46.66513, -22.70052], [-46.66577, -22.70069], [-46.66614, -22.70053], [-46.66646, -22.70007], [-46.66696, -22.70005], [-46.66802, -22.70079], [-46.66843, -22.70094], [-46.66887, -22.70076], [-46.66933, -22.69899], [-46.66949, -22.69883], [-46.67119, -22.69918], [-46.67203, -22.69884], [-46.6726, -22.69943], [-46.67326, -22.69919], [-46.67379, -22.69952], [-46.67402, -22.69949], [-46.67396, -22.69802], [-46.67431, -22.69788], [-46.6744, -22.69767], [-46.67427, -22.69723], [-46.6744, -22.69687], [-46.67431, -22.69638], [-46.6745, -22.69623], [-46.67543, -22.69645], [-46.67572, -22.69638], [-46.6761, -22.69601], [-46.67589, -22.69588], [-46.676, -22.69556], [-46.67583, -22.69518], [-46.67591, -22.69503], [-46.67658, -22.69515], [-46.67714, -22.69406], [-46.67723, -22.6933], [-46.67776, -22.69312], [-46.67831, -22.6918], [-46.67709, -22.69081], [-46.67663, -22.69168], [-46.67535, -22.69214], [-46.67311, -22.69223], [-46.6742, -22.68306], [-46.67417, -22.68212], [-46.675, -22.6779], [-46.67439, -22.67752], [-46.67454, -22.67731], [-46.67423, -22.6769], [-46.67339, -22.67639], [-46.6721, -22.67418], [-46.6716, -22.67367], [-46.67006, -22.67291], [-46.66936, -22.67178], [-46.66893, -22.67165], [-46.66835, -22.67107], [-46.6676, -22.67131], [-46.66702, -22.67113], [-46.66693, -22.67096], [-46.66718, -22.67041], [-46.6671, -22.66981], [-46.66663, -22.66952], [-46.66578, -22.66959], [-46.66553, -22.66916], [-46.66557, -22.66859], [-46.66524, -22.66831], [-46.66453, -22.66814], [-46.66423, -22.6678], [-46.66408, -22.66721], [-46.66478, -22.66729], [-46.66496, -22.66705], [-46.66504, -22.66668], [-46.66489, -22.66606], [-46.66459, -22.66569], [-46.66338, -22.66538], [-46.6629, -22.66498], [-46.66261, -22.66442], [-46.66212, -22.66395], [-46.66218, -22.66341], [-46.66252, -22.66308], [-46.66261, -22.66264], [-46.66243, -22.66231], [-46.66142, -22.66145], [-46.66113, -22.66088], [-46.6612, -22.66053], [-46.661, -22.66008], [-46.66171, -22.65987], [-46.66186, -22.65941], [-46.66176, -22.65848], [-46.66132, -22.65784], [-46.66047, -22.65737], [-46.65926, -22.65955], [-46.65848, -22.66255], [-46.65782, -22.66419], [-46.6568, -22.66531], [-46.65628, -22.66562], [-46.65411, -22.66602], [-46.65344, -22.6659], [-46.65278, -22.66556], [-46.65166, -22.66464], [-46.65011, -22.66228], [-46.64895, -22.65849], [-46.64826, -22.65693], [-46.64611, -22.65413], [-46.64302, -22.65163], [-46.64261, -22.65158], [-46.63975, -22.65244], [-46.63844, -22.65261], [-46.63502, -22.65226], [-46.6332, -22.6539], [-46.63236, -22.65526], [-46.63197, -22.65551], [-46.63099, -22.65542], [-46.6303, -22.65489], [-46.62964, -22.65395], [-46.62903, -22.65357]]]}}, 
{"type": "Feature", "properties": {"CD_SETOR": "353120905000009", "CD_SIT": "3", "NM_DIST": "Monte Alegre do Sul", "NM_SUBDIST": null}, "geometry": {"type": "Polygon", "coordinates": [[[-46.69395, -22.70368], [-46.69453, -22.70632], [-46.69576, -22.70767], [-46.69807, -22.70566], [-46.69811, -22.70287], [-46.69643, -22.70046], [-46.69597, -22.70055], [-46.69292, -22.69967], [-46.69271, -22.69973], [-46.69315, -22.70091], [-46.69395, -22.70208], [-46.69288, -22.70245], [-46.69395, -22.70368]]]}}, 
{"type": "Feature", "properties": {"CD_SETOR": "353120905000011", "CD_SIT": "1", "NM_DIST": "Monte Alegre do Sul", "NM_SUBDIST": null}, "geometry": {"type": "Polygon", "coordinates": [[[-46.68368, -22.6872], [-46.68419, -22.68806], [-46.68382, -22.68849], [-46.68473, -22.68862], [-46.68517, -22.68893], [-46.68522, -22.68872], [-46.68682, -22.68763], [-46.68794, -22.68712], [-46.68907, -22.6862], [-46.68975, -22.68639], [-46.68962, -22.68572], [-46.68914, -22.68557], [-46.68895, -22.68559], [-46.68711, -22.68737], [-46.68693, -22.68718], [-46.68629, -22.68768], [-46.68454, -22.68778], [-46.68381, -22.68712], [-46.68368, -22.6872]]]}}, 
{"type": "Feature", "properties": {"CD_SETOR": "353120905000012", "CD_SIT": "2", "NM_DIST": "Monte Alegre do Sul", "NM_SUBDIST": null}, "geometry": {"type": "Polygon", "coordinates": [[[-46.675, -22.6779], [-46.67505, -22.67761], [-46.67454, -22.67731], [-46.67439, -22.67752], [-46.675, -22.6779]]]}}, 
{"type": "Feature", "properties": {"CD_SETOR": "353120905000013", "CD_SIT": "3", "NM_DIST": "Monte Alegre do Sul", "NM_SUBDIST": null}, "geometry": {"type": "Polygon", "coordinates": [[[-46.66891, -22.70114], [-46.667, -22.70082], [-46.66434, -22.70171], [-46.66318, -22.70249], [-46.66346, -22.7034], [-46.66445, -22.70206], [-46.66673, -22.70119], [-46.66706, -22.70113], [-46.66891, -22.70144], [-46.66946, -22.70129], [-46.6709, -22.70037], [-46.67434, -22.70019], [-46.67522, -22.69999], [-46.67592, -22.69955], [-46.67615, -22.6992], [-46.67632, -22.69832], [-46.67601, -22.69833], [-46.67589, -22.69905], [-46.67566, -22.69941], [-46.67517, -22.6997], [-46.67108, -22.69999], [-46.67035, -22.70025], [-46.66935, -22.70101], [-46.66891, -22.70114]]]}}, 
{"type": "Feature", "properties": {"CD_SETOR": "353120905000014", "CD_SIT": "3", "NM_DIST": "Monte Alegre do Sul", "NM_SUBDIST": null}, "geometry": {"type": "Polygon", "coordinates": [[[-46.68859, -22.70471], [-46.68885, -22.70481], [-46.68864, -22.70444], [-46.68837, -22.70436], [-46.68829, -22.70442], [-46.68859, -22.70471]]]}}, 
{"type": "Feature", "properties": {"CD_SETOR": "353120905000015", "CD_SIT": "3", "NM_DIST": "Monte Alegre do Sul", "NM_SUBDIST": null}, "geometry": {"type": "Polygon", "coordinates": [[[-46.71202, -22.69272], [-46.71726, -22.69585], [-46.718, -22.69495], [-46.71994, -22.69393], [-46.71978, -22.6935], [-46.72004, -22.69318], [-46.72074, -22.69302], [-46.72093, -22.69276], [-46.7209, -22.69225], [-46.72069, -22.69208], [-46.72022, -22.69191], [-46.71905, -22.69186], [-46.71819, -22.69132], [-46.71718, -22.69145], [-46.71674, -22.69126], [-46.7167, -22.69054], [-46.71742, -22.68928], [-46.71496, -22.68941], [-46.71277, -22.69065], [-46.71204, -22.69127], [-46.71202, -22.69272]]]}}, 
{"type": "Feature", "properties": {"CD_SETOR": "353120905000018", "CD_SIT": "3", "NM_DIST": "Monte Alegre do Sul", "NM_SUBDIST": null}, "geometry": {"type": "Polygon", "coordinates": [[[-46.69601, -22.69871], [-46.69606, -22.69887], [-46.69623, -22.69855], [-46.69614, -22.69851], [-46.69601, -22.69871]]]}}, 
{"type": "Feature", "properties": {"CD_SETOR": "353120905000019", "CD_SIT": "8", "NM_DIST": "Monte Alegre do Sul", "NM_SUBDIST": null}, "geometry": {"type": "Polygon", "coordinates": [[[-46.66821, -22.63972], [-46.66871, -22.64129], [-46.66779, -22.64374], [-46.66726, -22.64425], [-46.66615, -22.64462], [-46.66531, -22.64571], [-46.66384, -22.64673], [-46.66332, -22.6473], [-46.66323, -22.64812], [-46.66244, -22.64976], [-46.66214, -22.65243], [-46.66073, -22.65483], [-46.6605, -22.6557], [-46.66059, -22.65701], [-46.66047, -22.65737], [-46.66132, -22.65784], [-46.66181, -22.65872], [-46.66176, -22.65982], [-46.661, -22.66008], [-46.6612, -22.66053], [-46.66113, -22.66088], [-46.66142, -22.66145], [-46.66243, -22.66231], [-46.66261, -22.66264], [-46.66252, -22.66308], [-46.66218, -22.66341], [-46.66212, -22.66395], [-46.66261, -22.66442], [-46.6629, -22.66498], [-46.66338, -22.66538], [-46.66478, -22.66584], [-46.665, -22.66647], [-46.66496, -22.66705], [-46.66478, -22.66729], [-46.66408, -22.66721], [-46.66411, -22.66753], [-46.66453, -22.66814], [-46.66524, -22.66831], [-46.66557, -22.66859], [-46.66553, -22.66916], [-46.66578, -22.66959], [-46.66663, -22.66952], [-46.6671, -22.66981], [-46.66718, -22.67041], [-46.66693, -22.67096], [-46.66702, -22.67113], [-46.6676, -22.67131], [-46.66835, -22.67107], [-46.66893, -22.67165], [-46.6693, -22.67172], [-46.67006, -22.67291], [-46.67132, -22.67348], [-46.6721, -22.67418], [-46.67339, -22.67639], [-46.67407, -22.67676], [-46.67451, -22.67729], [-46.67505, -22.67761], [-46.67511, -22.67711], [-46.67622, -22.67611], [-46.67668, -22.67518], [-46.68007, -22.67446], [-46.68128, -22.67509], [-46.68241, -22.67478], [-46.68241, -22.67555], [-46.68347, -22.67532], [-46.68396, -22.67497], [-46.68404, -22.67472], [-46.68416, -22.67323], [-46.68457, -22.67222], [-46.68457, -22.67139], [-46.68498, -22.67038], [-46.68529, -22.66886], [-46.68558, -22.66844], [-46.68566, -22.66628], [-46.68604, -22.66608], [-46.68668, -22.66638], [-46.6872, -22.66637], [-46.68774, -22.66594], [-46.68863, -22.66599], [-46.68886, -22.66584], [-46.68904, -22.66418], [-46.68877, -22.66338], [-46.68958, -22.66249], [-46.68929, -22.66183], [-46.68955, -22.66138], [-46.6903, -22.66077], [-46.69013, -22.65986], [-46.69039, -22.65943], [-46.69026, -22.65916], [-46.68979, -22.65899], [-46.68861, -22.65915], [-46.68838, -22.65879], [-46.68842, -22.65833], [-46.68944, -22.65682], [-46.69028, -22.65643], [-46.69019, -22.65619], [-46.68986, -22.65605], [-46.68952, -22.655], [-46.69027, -22.65396], [-46.69011, -22.65327], [-46.6902, -22.65287], [-46.69053, -22.65265], [-46.69179, -22.65248], [-46.69344, -22.65154], [-46.69364, -22.65118], [-46.69364, -22.65035], [-46.69402, -22.64969], [-46.69476, -22.64901], [-46.69596, -22.64841], [-46.69432, -22.64811], [-46.69235, -22.64862], [-46.69107, -22.6492], [-46.69008, -22.64907], [-46.68763, -22.64934], [-46.68554, -22.64812], [-46.68236, -22.64777], [-46.68139, -22.64752], [-46.67994, -22.64675], [-46.67865, -22.64537], [-46.67797, -22.64319], [-46.67791, -22.64155], [-46.67759, -22.64069], [-46.67655, -22.63948], [-46.67574, -22.63882], [-46.67315, -22.63708], [-46.67258, -22.63633], [-46.67221, -22.63505], [-46.67204, -22.63488], [-46.67159, -22.63487], [-46.67131, -22.63507], [-46.66965, -22.63747], [-46.66933, -22.6381], [-46.66907, -22.63957], [-46.6689, -22.63971], [-46.66821, -22.63972]]]}}, 
{"type": "Feature", "properties": {"CD_SETOR": "353120905000020", "CD_SIT": "1", "NM_DIST": "Monte Alegre do Sul", "NM_SUBDIST": null}, "geometry": {"type": "Polygon", "coordinates": [[[-46.67505, -22.67761], [-46.67417, -22.68212], [-46.6742, -22.68306], [-46.67387, -22.68585], [-46.67444, -22.68626], [-46.6768, -22.68658], [-46.67685, -22.68606], [-46.67628, -22.68514], [-46.67634, -22.68475], [-46.67749, -22.68509], [-46.67873, -22.68628], [-46.67914, -22.68606], [-46.67917, -22.68697], [-46.67973, -22.68605], [-46.68038, -22.68431], [-46.68072, -22.68418], [-46.67978, -22.6802], [-46.67868, -22.6789], [-46.67671, -22.67739], [-46.67548, -22.67671], [-46.67511, -22.67711], [-46.67505, -22.67761]]]}}, 
{"type": "Feature", "properties": {"CD_SETOR": "353120905000021", "CD_SIT": "3", "NM_DIST": "Monte Alegre do Sul", "NM_SUBDIST": null}, "geometry": {"type": "Polygon", "coordinates": [[[-46.69478, -22.69988], [-46.7003, -22.70169], [-46.70218, -22.69842], [-46.70278, -22.69808], [-46.7026, -22.69661], [-46.70295, -22.69498], [-46.70169, -22.6949], [-46.70078, -22.69462], [-46.69917, -22.69548], [-46.69843, -22.69562], [-46.69762, -22.69645], [-46.69549, -22.69699], [-46.69536, -22.69727], [-46.69539, -22.69869], [-46.69494, -22.6993], [-46.69478, -22.69988]], [[-46.69601, -22.69871], [-46.69614, -22.69851], [-46.69623, -22.69855], [-46.69606, -22.69887], [-46.69601, -22.69871]]]}}, 
{"type": "Feature", "properties": {"CD_SETOR": "353120905000022", "CD_SIT": "8", "NM_DIST": "Monte Alegre do Sul", "NM_SUBDIST": null}, "geometry": {"type": "Polygon", "coordinates": [[[-46.68241, -22.67555], [-46.68235, -22.68555], [-46.68368, -22.6872], [-46.68381, -22.68712], [-46.68454, -22.68778], [-46.68629, -22.68768], [-46.68693, -22.68718], [-46.68711, -22.68737], [-46.68895, -22.68559], [-46.68962, -22.68572], [-46.68975, -22.68639], [-46.68907, -22.6862], [-46.68794, -22.68712], [-46.68682, -22.68763], [-46.68522, -22.68872], [-46.68524, -22.68891], [-46.68695, -22.68781], [-46.68819, -22.68724], [-46.68908, -22.68647], [-46.68959, -22.68671], [-46.68981, -22.68719], [-46.6898, -22.68765], [-46.68928, -22.68796], [-46.68913, -22.68816], [-46.68912, -22.6888], [-46.68868, -22.6889], [-46.68863, -22.68907], [-46.68985, -22.69135], [-46.6901, -22.69226], [-46.69002, -22.69291], [-46.6895, -22.69346], [-46.68931, -22.69396], [-46.68968, -22.69442], [-46.69019, -22.69454], [-46.69069, -22.69641], [-46.69026, -22.69668], [-46.69044, -22.69771], [-46.69067, -22.69816], [-46.69159, -22.69888], [-46.69478, -22.69988], [-46.69494, -22.6993], [-46.69539, -22.69869], [-46.69536, -22.69727], [-46.69549, -22.69699], [-46.69762, -22.69645], [-46.69843, -22.69562], [-46.69917, -22.69548], [-46.70078, -22.69462], [-46.70169, -22.6949], [-46.70295, -22.69498], [-46.70389, -22.69159], [-46.70884, -22.69305], [-46.71052, -22.69179], [-46.71202, -22.69272], [-46.71204, -22.69127], [-46.71277, -22.69065], [-46.71496, -22.68941], [-46.71742, -22.68928], [-46.71829, -22.68775], [-46.71894, -22.68596], [-46.7199, -22.68556], [-46.72076, -22.68542], [-46.72143, -22.68555], [-46.7218, -22.68528], [-46.72255, -22.68519], [-46.72325, -22.68476], [-46.724, -22.68474], [-46.72556, -22.68423], [-46.72681, -22.68294], [-46.72768, -22.6826], [-46.72833, -22.68164], [-46.7282, -22.68071], [-46.72724, -22.67988], [-46.72625, -22.678], [-46.7259, -22.6766], [-46.72429, -22.67509], [-46.72393, -22.67349], [-46.72642, -22.67233], [-46.72712, -22.67186], [-46.72746, -22.67143], [-46.72793, -22.67021], [-46.72781, -22.66952], [-46.72712, -22.66796], [-46.72686, -22.66668], [-46.72687, -22.66448], [-46.72718, -22.66326], [-46.72718, -22.66235], [-46.7264, -22.66195], [-46.7262, -22.66152], [-46.72665, -22.6602], [-46.72654, -22.65648], [-46.72673, -22.65593], [-46.72768, -22.65494], [-46.72363, -22.65499], [-46.72161, -22.6546], [-46.71881, -22.65498], [-46.71711, -22.65464], [-46.71571, -22.65404], [-46.71474, -22.65395], [-46.71381, -22.65439], [-46.71335, -22.65489], [-46.71235, -22.65786], [-46.71209, -22.65827], [-46.7118, -22.65848], [-46.71054, -22.65825], [-46.71016, -22.65803], [-46.70966, -22.65726], [-46.70935, -22.65632], [-46.70907, -22.65601], [-46.7079, -22.65523], [-46.70694, -22.65483], [-46.70614, -22.65375], [-46.7053, -22.65326], [-46.70315, -22.65368], [-46.7011, -22.65148], [-46.69997, -22.6509], [-46.69745, -22.65031], [-46.69709, -22.64992], [-46.69684, -22.64911], [-46.69634, -22.64858], [-46.69596, -22.64841], [-46.69476, -22.64901], [-46.69402, -22.64969], [-46.69364, -22.65035], [-46.69364, -22.65118], [-46.69344, -22.65154], [-46.69179, -22.65248], [-46.69053, -22.65265], [-46.6902, -22.65287], [-46.69011, -22.65327], [-46.69027, -22.65396], [-46.68952, -22.655], [-46.68986, -22.65605], [-46.69019, -22.65619], [-46.69028, -22.65643], [-46.68944, -22.65682], [-46.68842, -22.65833], [-46.68838, -22.65879], [-46.68861, -22.65915], [-46.68979, -22.65899], [-46.69026, -22.65916], [-46.69039, -22.65943], [-46.69013, -22.65986], [-46.6903, -22.66077], [-46.68955, -22.66138], [-46.68929, -22.66183], [-46.68958, -22.66249], [-46.68877, -22.66338], [-46.68904, -22.66418], [-46.68886, -22.66584], [-46.68863, -22.66599], [-46.68774, -22.66594], [-46.6872, -22.66637], [-46.68668, -22.66638], [-46.68604, -22.66608], [-46.68566, -22.66628], [-46.68558, -22.66844], [-46.68529, -22.66886], [-46.68498, -22.67038], [-46.68457, -22.67139], [-46.68457, -22.67222], [-46.68416, -22.67323], [-46.68396, -22.67497], [-46.68347, -22.67532], [-46.68241, -22.67555]], [[-46.69179, -22.69061], [-46.69235, -22.69029], [-46.69457, -22.69213], [-46.69511, -22.69215], [-46.69453, -22.69393], [-46.69371, -22.69464], [-46.69362, -22.69399], [-46.69387, -22.69382], [-46.6938, -22.69306], [-46.69283, -22.69174], [-46.69278, -22.69069], [-46.69193, -22.69121], [-46.69242, -22.69182], [-46.69283, -22.69391], [-46.69313, -22.69389], [-46.69334, -22.69507], [-46.69281, -22.69579], [-46.6925, -22.69566], [-46.69227, -22.69587], [-46.69239, -22.69649], [-46.69207, -22.69701], [-46.69124, -22.69766], [-46.69106, -22.69722], [-46.69161, -22.6964], [-46.69166, -22.69578], [-46.69111, -22.69432], [-46.69143, -22.69295], [-46.69078, -22.69182], [-46.69096, -22.69128], [-46.69179, -22.69061]]]}}, 
{"type": "Feature", "properties": {"CD_SETOR": "353120905000023", "CD_SIT": "8", "NM_DIST": "Monte Alegre do Sul", "NM_SUBDIST": null}, "geometry": {"type": "Polygon", "coordinates": [[[-46.68009, -22.69628], [-46.68213, -22.69828], [-46.68354, -22.70046], [-46.68504, -22.70197], [-46.68858, -22.70476], [-46.6897, -22.70551], [-46.69081, -22.70521], [-46.69141, -22.7044], [-46.69137, -22.7038], [-46.69154, -22.70351], [-46.69333, -22.70377], [-46.69395, -22.70368], [-46.69288, -22.70245], [-46.69395, -22.70208], [-46.69315, -22.70091], [-46.69271, -22.69973], [-46.69304, -22.69966], [-46.69597, -22.70055], [-46.69643, -22.70046], [-46.69811, -22.70287], [-46.69807, -22.70566], [-46.69635, -22.70707], [-46.69719, -22.7078], [-46.6989, -22.71039], [-46.69957, -22.71074], [-46.70018, -22.71155], [-46.70031, -22.71295], [-46.70062, -22.71333], [-46.70103, -22.71432], [-46.70058, -22.71511], [-46.70088, -22.71515], [-46.70129, -22.71549], [-46.70176, -22.7155], [-46.70187, -22.71525], [-46.7016, -22.71487], [-46.70186, -22.7144], [-46.70175, -22.71414], [-46.70194, -22.71399], [-46.7033, -22.71424], [-46.70377, -22.71474], [-46.70414, -22.71483], [-46.70523, -22.71444], [-46.70604, -22.71485], [-46.70677, -22.7144], [-46.70838, -22.71442], [-46.70908, -22.71404], [-46.70998, -22.71395], [-46.71042, -22.71348], [-46.71036, -22.71323], [-46.70963, -22.71346], [-46.70912, -22.7131], [-46.70912, -22.71224], [-46.70939, -22.71142], [-46.70948, -22.71029], [-46.71022, -22.70836], [-46.71188, -22.70677], [-46.71214, -22.70589], [-46.7119, -22.70527], [-46.71104, -22.70492], [-46.71104, -22.70381], [-46.71042, -22.70346], [-46.70972, -22.70247], [-46.70996, -22.70202], [-46.71075, -22.70161], [-46.71091, -22.70053], [-46.70936, -22.70114], [-46.70854, -22.70115], [-46.70789, -22.70211], [-46.70725, -22.70231], [-46.70577, -22.70193], [-46.7024, -22.70221], [-46.70112, -22.70204], [-46.69965, -22.70141], [-46.69159, -22.69888], [-46.69067, -22.69816], [-46.69026, -22.69668], [-46.68995, -22.69644], [-46.68972, -22.69596], [-46.68714, -22.69631], [-46.68574, -22.69799], [-46.68502, -22.69786], [-46.68298, -22.69801], [-46.68123, -22.69639], [-46.68009, -22.69628]], [[-46.68859, -22.70471], [-46.68829, -22.70442], [-46.68837, -22.70436], [-46.68864, -22.70444], [-46.68885, -22.70481], [-46.68859, -22.70471]]]}}, 
{"type": "Feature", "properties": {"CD_SETOR": "353120905000024", "CD_SIT": "8", "NM_DIST": "Monte Alegre do Sul", "NM_SUBDIST": null}, "geometry": {"type": "Polygon", "coordinates": [[[-46.65149, -22.69893], [-46.65117, -22.69935], [-46.65123, -22.70012], [-46.65229, -22.70176], [-46.65225, -22.70281], [-46.65269, -22.70313], [-46.65266, -22.7036], [-46.65296, -22.70423], [-46.65332, -22.70797], [-46.65441, -22.71063], [-46.65529, -22.71171], [-46.65757, -22.71243], [-46.65825, -22.71353], [-46.65933, -22.71743], [-46.65906, -22.71841], [-46.65819, -22.71919], [-46.65744, -22.71955], [-46.65695, -22.72039], [-46.65627, -22.72111], [-46.65611, -22.72152], [-46.65614, -22.72258], [-46.65485, -22.72354], [-46.65471, -22.72461], [-46.65546, -22.72509], [-46.65577, -22.72581], [-46.65654, -22.7269], [-46.6568, -22.72711], [-46.65819, -22.72746], [-46.65858, -22.72805], [-46.65944, -22.7287], [-46.65979, -22.7294], [-46.66068, -22.72984], [-46.66126, -22.73148], [-46.66163, -22.73178], [-46.66175, -22.73257], [-46.66254, -22.73363], [-46.66322, -22.73399], [-46.66365, -22.73448], [-46.66408, -22.73453], [-46.66442, -22.73427], [-46.66497, -22.73424], [-46.66527, -22.73474], [-46.66581, -22.73505], [-46.66635, -22.73499], [-46.66719, -22.73522], [-46.66828, -22.73604], [-46.66838, -22.73677], [-46.66872, -22.73712], [-46.66957, -22.73722], [-46.67107, -22.73576], [-46.67182, -22.73569], [-46.67247, -22.73543], [-46.67302, -22.73599], [-46.67372, -22.73624], [-46.67453, -22.73693], [-46.67494, -22.73687], [-46.67619, -22.73602], [-46.67679, -22.73587], [-46.6772, -22.73558], [-46.67839, -22.73585], [-46.67879, -22.73693], [-46.67872, -22.73765], [-46.67897, -22.73795], [-46.67936, -22.73802], [-46.68051, -22.73779], [-46.68083, -22.73796], [-46.68105, -22.73774], [-46.68154, -22.7378], [-46.68229, -22.73725], [-46.68303, -22.73701], [-46.68325, -22.7366], [-46.68322, -22.73624], [-46.68353, -22.73611], [-46.68363, -22.73575], [-46.68458, -22.73515], [-46.68516, -22.73439], [-46.68559, -22.73428], [-46.68579, -22.73345], [-46.68649, -22.73306], [-46.68705, -22.73248], [-46.68714, -22.73216], [-46.68664, -22.73015], [-46.68701, -22.72955], [-46.68839, -22.72964], [-46.6892, -22.72906], [-46.69004, -22.72907], [-46.69115, -22.72808], [-46.6913, -22.72775], [-46.6913, -22.72694], [-46.6921, -22.72608], [-46.69219, -22.72578], [-46.69211, -22.7247], [-46.69273, -22.7244], [-46.6931, -22.72402], [-46.69358, -22.72389], [-46.6944, -22.72317], [-46.69509, -22.72306], [-46.6954, -22.72279], [-46.69577, -22.72321], [-46.69594, -22.72311], [-46.69596, -22.72269], [-46.69612, -22.72264], [-46.69627, -22.72328], [-46.69655, -22.72344], [-46.69777, -22.723], [-46.6979, -22.72315], [-46.69777, -22.72378], [-46.69789, -22.72401], [-46.69828, -22.72419], [-46.69884, -22.72409], [-46.70005, -22.7243], [-46.70042, -22.72424], [-46.70056, -22.72403], [-46.70049, -22.72356], [-46.70029, -22.72335], [-46.6997, -22.72344], [-46.6994, -22.72269], [-46.69888, -22.72243], [-46.69875, -22.722], [-46.69884, -22.72088], [-46.69815, -22.71995], [-46.69805, -22.71896], [-46.6981, -22.71866], [-46.69836, -22.71845], [-46.69838, -22.71792], [-46.69896, -22.71768], [-46.69926, -22.71719], [-46.69878, -22.71678], [-46.69875, -22.71641], [-46.7003, -22.71508], [-46.70058, -22.71511], [-46.70104, -22.71442], [-46.70071, -22.71351], [-46.70031, -22.71295], [-46.70027, -22.71185], [-46.69984, -22.71102], [-46.6989, -22.71039], [-46.69827, -22.70929], [-46.69685, -22.70741], [-46.69635, -22.70707], [-46.69576, -22.70767], [-46.69453, -22.70632], [-46.69395, -22.70368], [-46.69333, -22.70377], [-46.69154, -22.70351], [-46.69137, -22.7038], [-46.69141, -22.7044], [-46.69075, -22.70528], [-46.68985, -22.70553], [-46.68944, -22.70539], [-46.68504, -22.70197], [-46.68354, -22.70046], [-46.68213, -22.69828], [-46.68035, -22.69651], [-46.67915, -22.69559], [-46.67798, -22.69499], [-46.67678, -22.69462], [-46.67658, -22.69515], [-46.67591, -22.69503], [-46.67583, -22.69518], [-46.676, -22.69556], [-46.67589, -22.69588], [-46.6761, -22.69601], [-46.67572, -22.69638], [-46.6745, -22.69623], [-46.67431, -22.69638], [-46.6744, -22.69687], [-46.67427, -22.69723], [-46.6744, -22.69767], [-46.67431, -22.69788], [-46.67396, -22.69802], [-46.67402, -22.69949], [-46.67379, -22.69952], [-46.67326, -22.69919], [-46.6726, -22.69943], [-46.67203, -22.69884], [-46.67119, -22.69918], [-46.66949, -22.69883], [-46.66933, -22.69899], [-46.66887, -22.70076], [-46.66843, -22.70094], [-46.66802, -22.70079], [-46.66696, -22.70005], [-46.66646, -22.70007], [-46.66614, -22.70053], [-46.66577, -22.70069], [-46.66513, -22.70052], [-46.66483, -22.70064], [-46.6646, -22.70098], [-46.66386, -22.70126], [-46.66309, -22.70228], [-46.6629, -22.70233], [-46.66257, -22.70198], [-46.66195, -22.70253], [-46.66144, -22.70332], [-46.66084, -22.70375], [-46.66041, -22.70466], [-46.66009, -22.70476], [-46.65975, -22.70461], [-46.65953, -22.70407], [-46.65934, -22.70168], [-46.65913, -22.70148], [-46.65882, -22.70148], [-46.65793, -22.70241], [-46.65716, -22.70246], [-46.65627, -22.70104], [-46.65559, -22.69915], [-46.65367, -22.69855], [-46.65297, -22.6988], [-46.65149, -22.69893]], [[-46.66891, -22.70114], [-46.66935, -22.70101], [-46.67035, -22.70025], [-46.67108, -22.69999], [-46.67517, -22.6997], [-46.67566, -22.69941], [-46.67589, -22.69905], [-46.67601, -22.69833], [-46.67632, -22.69832], [-46.67615, -22.6992], [-46.67592, -22.69955], [-46.67522, -22.69999], [-46.67434, -22.70019], [-46.6709, -22.70037], [-46.66946, -22.70129], [-46.66891, -22.70144], [-46.66706, -22.70113], [-46.66673, -22.70119], [-46.66445, -22.70206], [-46.66346, -22.7034], [-46.66318, -22.70249], [-46.66434, -22.70171], [-46.667, -22.70082], [-46.66891, -22.70114]]]}}, 
{"type": "Feature", "properties": {"CD_SETOR": "353120905000025", "CD_SIT": "8", "NM_DIST": "Monte Alegre do Sul", "NM_SUBDIST": null}, "geometry": {"type": "Polygon", "coordinates": [[[-46.69179, -22.69061], [-46.69096, -22.69128], [-46.69078, -22.69182], [-46.69143, -22.69295], [-46.69111, -22.69432], [-46.69166, -22.69578], [-46.69161, -22.6964], [-46.69106, -22.69722], [-46.69124, -22.69766], [-46.69207, -22.69701], [-46.69239, -22.69649], [-46.69227, -22.69587], [-46.6925, -22.69566], [-46.69281, -22.69579], [-46.69334, -22.69507], [-46.69313, -22.69389], [-46.69283, -22.69391], [-46.69242, -22.69182], [-46.69193, -22.69121], [-46.69278, -22.69069], [-46.69283, -22.69174], [-46.6938, -22.69306], [-46.69387, -22.69382], [-46.69362, -22.69399], [-46.69371, -22.69464], [-46.69453, -22.69393], [-46.69511, -22.69215], [-46.69457, -22.69213], [-46.69235, -22.69029], [-46.69179, -22.69061]]]}}, 
{"type": "Feature", "properties": {"CD_SETOR": "353120905000026", "CD_SIT": "1", "NM_DIST": "Monte Alegre do Sul", "NM_SUBDIST": null}, "geometry": {"type": "Polygon", "coordinates": [[[-46.67387, -22.68585], [-46.67311, -22.69223], [-46.67535, -22.69214], [-46.67663, -22.69168], [-46.67709, -22.69081], [-46.67831, -22.6918], [-46.6799, -22.69098], [-46.68001, -22.69082], [-46.67975, -22.69005], [-46.6795, -22.68834], [-46.67857, -22.68768], [-46.67859, -22.68723], [-46.67917, -22.68697], [-46.67914, -22.68606], [-46.67873, -22.68628], [-46.67749, -22.68509], [-46.67634, -22.68475], [-46.67628, -22.68514], [-46.67685, -22.68606], [-46.6768, -22.68658], [-46.67444, -22.68626], [-46.67387, -22.68585]]]}}, 
{"type": "Feature", "properties": {"CD_SETOR": "353120905000027", "CD_SIT": "3", "NM_DIST": "Monte Alegre do Sul", "NM_SUBDIST": null}, "geometry": {"type": "Polygon", "coordinates": [[[-46.70295, -22.69498], [-46.7026, -22.69661], [-46.70278, -22.69808], [-46.70218, -22.69842], [-46.7003, -22.70169], [-46.70112, -22.70204], [-46.70306, -22.70216], [-46.70644, -22.70146], [-46.70682, -22.70115], [-46.70797, -22.69875], [-46.70885, -22.69804], [-46.71208, -22.69725], [-46.71329, -22.69729], [-46.71467, -22.69763], [-46.71573, -22.69751], [-46.71639, -22.69716], [-46.71726, -22.69585], [-46.71052, -22.69179], [-46.70884, -22.69305], [-46.70389, -22.69159], [-46.70295, -22.69498]]]}}, 
{"type": "Feature", "properties": {"CD_SETOR": "353120905000028", "CD_SIT": "3", "NM_DIST": "Monte Alegre do Sul", "NM_SUBDIST": null}, "geometry": {"type": "Polygon", "coordinates": [[[-46.70306, -22.70216], [-46.70577, -22.70193], [-46.70725, -22.70231], [-46.70758, -22.70224], [-46.70814, -22.70188], [-46.70854, -22.70115], [-46.70936, -22.70114], [-46.71091, -22.70053], [-46.71091, -22.70066], [-46.71102, -22.69886], [-46.7123, -22.6994], [-46.71329, -22.69958], [-46.71423, -22.69866], [-46.71567, -22.69938], [-46.71631, -22.70031], [-46.71679, -22.70036], [-46.71736, -22.70015], [-46.71829, -22.69904], [-46.71842, -22.6978], [-46.71832, -22.69755], [-46.71687, -22.69645], [-46.71639, -22.69716], [-46.71573, -22.69751], [-46.71467, -22.69763], [-46.71329, -22.69729], [-46.71208, -22.69725], [-46.70923, -22.6979], [-46.70885, -22.69804], [-46.70797, -22.69875], [-46.70682, -22.70115], [-46.70644, -22.70146], [-46.70306, -22.70216]]]}}, 
{"type": "Feature", "properties": {"CD_SETOR": "353120910000004", "CD_SIT": "3", "NM_DIST": "Mostardas", "NM_SUBDIST": null}, "geometry": {"type": "Polygon", "coordinates": [[[-46.64177, -22.70494], [-46.64114, -22.70514], [-46.63979, -22.70483], [-46.6384, -22.70711], [-46.63771, -22.7076], [-46.63741, -22.70821], [-46.63775, -22.70849], [-46.6366, -22.70959], [-46.6362, -22.71022], [-46.63616, -22.71063], [-46.63689, -22.71158], [-46.63856, -22.71255], [-46.63855, -22.71286], [-46.63831, -22.71312], [-46.63843, -22.71334], [-46.63874, -22.71338], [-46.64358, -22.70961], [-46.64419, -22.71059], [-46.645, -22.71112], [-46.6454, -22.71046], [-46.64642, -22.70945], [-46.6463, -22.70927], [-46.6454, -22.70897], [-46.64705, -22.70726], [-46.64207, -22.70389], [-46.64177, -22.70494]]]}}, 
{"type": "Feature", "properties": {"CD_SETOR": "353120910000005", "CD_SIT": "1", "NM_DIST": "Mostardas", "NM_SUBDIST": null}, "geometry": {"type": "Polygon", "coordinates": [[[-46.63351, -22.71771], [-46.63395, -22.71756], [-46.63396, -22.7165], [-46.63354, -22.71681], [-46.63351, -22.71771]]]}}, 
{"type": "Feature", "properties": {"CD_SETOR": "353120910000008", "CD_SIT": "3", "NM_DIST": "Mostardas", "NM_SUBDIST": null}, "geometry": {"type": "Polygon", "coordinates": [[[-46.62179, -22.73576], [-46.6236, -22.73621], [-46.62429, -22.73582], [-46.62482, -22.73609], [-46.62495, -22.73601], [-46.62466, -22.73543], [-46.62516, -22.73484], [-46.62394, -22.734], [-46.6237, -22.73443], [-46.62219, -22.73512], [-46.62179, -22.73576]]]}}, 
{"type": "Feature", "properties": {"CD_SETOR": "353120910000009", "CD_SIT": "2", "NM_DIST": "Mostardas", "NM_SUBDIST": null}, "geometry": {"type": "Polygon", "coordinates": [[[-46.63351, -22.71771], [-46.62575, -22.72033], [-46.62299, -22.72165], [-46.62183, -22.72314], [-46.62117, -22.72453], [-46.62332, -22.72709], [-46.62462, -22.72792], [-46.6251, -22.72708], [-46.62563, -22.72556], [-46.62709, -22.72473], [-46.63071, -22.72413], [-46.63178, -22.72424], [-46.63438, -22.72329], [-46.63455, -22.72301], [-46.63448, -22.72232], [-46.63333, -22.72115], [-46.63355, -22.72023], [-46.63409, -22.71909], [-46.63388, -22.71758], [-46.63351, -22.71771]]]}}, 
{"type": "Feature", "properties": {"CD_SETOR": "353120910000010", "CD_SIT": "2", "NM_DIST": "Mostardas", "NM_SUBDIST": null}, "geometry": {"type": "Polygon", "coordinates": [[[-46.63395, -22.71756], [-46.63389, -22.71813], [-46.63409, -22.71909], [-46.63355, -22.72023], [-46.63333, -22.72115], [-46.63448, -22.72232], [-46.63449, -22.72317], [-46.63353, -22.72366], [-46.63178, -22.72424], [-46.63071, -22.72413], [-46.62969, -22.72438], [-46.62769, -22.72455], [-46.62643, -22.72505], [-46.62563, -22.72556], [-46.6251, -22.72708], [-46.62462, -22.72792], [-46.6267, -22.72924], [-46.63481, -22.72699], [-46.64083, -22.721], [-46.639, -22.71775], [-46.6354, -22.71707], [-46.63395, -22.71756]]]}}, 
{"type": "Feature", "properties": {"CD_SETOR": "353120910000011", "CD_SIT": "8", "NM_DIST": "Mostardas", "NM_SUBDIST": null}, "geometry": {"type": "Polygon", "coordinates": [[[-46.61882, -22.69642], [-46.61806, -22.69851], [-46.61796, -22.70002], [-46.61837, -22.70166], [-46.61913, -22.70261], [-46.61978, -22.70381], [-46.62096, -22.70501], [-46.62174, -22.70663], [-46.62245, -22.70742], [-46.62403, -22.70875], [-46.62598, -22.71106], [-46.62678, -22.71269], [-46.62741, -22.71487], [-46.62747, -22.71648], [-46.62712, -22.71799], [-46.62601, -22.71921], [-46.62299, -22.72165], [-46.62575, -22.72033], [-46.63351, -22.71771], [-46.63354, -22.71681], [-46.63396, -22.7165], [-46.63395, -22.71756], [-46.6354, -22.71707], [-46.639, -22.71775], [-46.64083, -22.721], [-46.63481, -22.72699], [-46.6313, -22.72796], [-46.63207, -22.72953], [-46.63213, -22.72997], [-46.63193, -22.73071], [-46.6322, -22.73144], [-46.63308, -22.73253], [-46.63388, -22.73296], [-46.6359, -22.73364], [-46.63784, -22.73512], [-46.63852, -22.73631], [-46.64013, -22.73797], [-46.64077, -22.73936], [-46.64084, -22.74022], [-46.64099, -22.74045], [-46.64176, -22.74048], [-46.64258, -22.74155], [-46.64513, -22.74131], [-46.64593, -22.74174], [-46.64654, -22.74175], [-46.64749, -22.74153], [-46.64822, -22.7411], [-46.65001, -22.74196], [-46.65099, -22.74076], [-46.65267, -22.73988], [-46.65333, -22.73911], [-46.65406, -22.73872], [-46.6553, -22.73857], [-46.65621, -22.73825], [-46.65809, -22.73811], [-46.65971, -22.73756], [-46.66087, -22.73741], [-46.66131, -22.73699], [-46.66268, -22.73633], [-46.66405, -22.73614], [-46.66369, -22.73562], [-46.66472, -22.73425], [-46.66386, -22.73455], [-46.66254, -22.73363], [-46.66175, -22.73257], [-46.66163, -22.73178], [-46.66126, -22.73148], [-46.66068, -22.72984], [-46.65979, -22.7294], [-46.65944, -22.7287], [-46.65858, -22.72805], [-46.65819, -22.72746], [-46.6568, -22.72711], [-46.65654, -22.7269], [-46.65577, -22.72581], [-46.65546, -22.72509], [-46.65471, -22.72461], [-46.65485, -22.72354], [-46.65614, -22.72258], [-46.65611, -22.72152], [-46.65627, -22.72111], [-46.65695, -22.72039], [-46.65744, -22.71955], [-46.65819, -22.71919], [-46.65906, -22.71841], [-46.65933, -22.71743], [-46.65825, -22.71353], [-46.65757, -22.71243], [-46.65529, -22.71171], [-46.65441, -22.71063], [-46.65332, -22.70797], [-46.65296, -22.70423], [-46.65266, -22.7036], [-46.65269, -22.70313], [-46.65225, -22.70281], [-46.65229, -22.70176], [-46.65123, -22.70012], [-46.65117, -22.69935], [-46.65149, -22.69893], [-46.64813, -22.69856], [-46.64793, -22.69904], [-46.64811, -22.69958], [-46.64713, -22.70013], [-46.64681, -22.70014], [-46.64626, -22.69983], [-46.64615, -22.69935], [-46.64581, -22.69895], [-46.64531, -22.69909], [-46.64516, -22.69943], [-46.64556, -22.70041], [-46.64534, -22.7005], [-46.64429, -22.70029], [-46.64403, -22.70069], [-46.64389, -22.70178], [-46.64342, -22.70284], [-46.64203, -22.70324], [-46.64155, -22.70311], [-46.64139, -22.7033], [-46.64146, -22.70375], [-46.64116, -22.70389], [-46.64083, -22.70359], [-46.64062, -22.70085], [-46.64024, -22.70081], [-46.63855, -22.6997], [-46.63828, -22.69872], [-46.63775, -22.6982], [-46.63769, -22.69779], [-46.63789, -22.69694], [-46.63695, -22.69627], [-46.6366, -22.69532], [-46.63453, -22.69397], [-46.63385, -22.69323], [-46.63356, -22.69274], [-46.63263, -22.68906], [-46.63111, -22.68813], [-46.631, -22.68655], [-46.63009, -22.68512], [-46.63, -22.68322], [-46.62954, -22.68257], [-46.62955, -22.68162], [-46.62902, -22.68092], [-46.62858, -22.68065], [-46.62728, -22.68066], [-46.62547, -22.67939], [-46.62499, -22.67875], [-46.62356, -22.67971], [-46.62084, -22.68203], [-46.61942, -22.68181], [-46.61914, -22.68189], [-46.61895, -22.68233], [-46.61979, -22.68288], [-46.62036, -22.68348], [-46.62116, -22.6856], [-46.62155, -22.68619], [-46.62363, -22.68822], [-46.624, -22.68907], [-46.62394, -22.68979], [-46.62325, -22.69107], [-46.62232, -22.69202], [-46.61999, -22.69335], [-46.61967, -22.69383], [-46.61882, -22.69642]], [[-46.64177, -22.70494], [-46.64207, -22.70389], [-46.64705, -22.70726], [-46.6454, -22.70897], [-46.6463, -22.70927], [-46.64642, -22.70945], [-46.6454, -22.71046], [-46.645, -22.71112], [-46.64419, -22.71059], [-46.64358, -22.70961], [-46.63874, -22.71338], [-46.63843, -22.71334], [-46.63831, -22.71312], [-46.63855, -22.71286], [-46.63856, -22.71255], [-46.63689, -22.71158], [-46.63616, -22.71063], [-46.6362, -22.71022], [-46.6366, -22.70959], [-46.63775, -22.70849], [-46.63741, -22.70821], [-46.63771, -22.7076], [-46.6384, -22.70711], [-46.63979, -22.70483], [-46.64114, -22.70514], [-46.64177, -22.70494]]]}}, 
{"type": "Feature", "properties": {"CD_SETOR": "353120910000012", "CD_SIT": "8", "NM_DIST": "Mostardas", "NM_SUBDIST": null}, "geometry": {"type": "Polygon", "coordinates": [[[-46.61272, -22.7505], [-46.61256, -22.75183], [-46.61282, -22.75291], [-46.61469, -22.75488], [-46.61496, -22.75556], [-46.61507, -22.75736], [-46.61533, -22.75775], [-46.61603, -22.75821], [-46.61893, -22.75831], [-46.62042, -22.75935], [-46.6214, -22.75938], [-46.62355, -22.75804], [-46.62421, -22.7578], [-46.62489, -22.75784], [-46.6255, -22.75859], [-46.6262, -22.7586], [-46.62694, -22.75795], [-46.62724, -22.75739], [-46.62741, -22.75593], [-46.62784, -22.75542], [-46.62977, -22.75449], [-46.63116, -22.75441], [-46.63236, -22.7539], [-46.63438, -22.754], [-46.63474, -22.75417], [-46.63529, -22.75483], [-46.63565, -22.75495], [-46.63649, -22.75469], [-46.63675, -22.75443], [-46.637, -22.75373], [-46.63754, -22.75341], [-46.63928, -22.75333], [-46.63977, -22.75356], [-46.63991, -22.75395], [-46.6408, -22.75475], [-46.64079, -22.75498], [-46.64128, -22.7555], [-46.64336, -22.75542], [-46.64426, -22.75599], [-46.64416, -22.75407], [-46.64435, -22.75303], [-46.64471, -22.75257], [-46.64593, -22.75202], [-46.64552, -22.75168], [-46.64569, -22.75125], [-46.64571, -22.75044], [-46.64505, -22.74891], [-46.64395, -22.74813], [-46.64248, -22.74665], [-46.64269, -22.74466], [-46.64354, -22.7437], [-46.64467, -22.74283], [-46.64459, -22.74244], [-46.64391, -22.74228], [-46.64321, -22.74247], [-46.64187, -22.74056], [-46.64091, -22.74037], [-46.64077, -22.73936], [-46.64001, -22.73778], [-46.63852, -22.73631], [-46.63808, -22.73542], [-46.63756, -22.73488], [-46.6359, -22.73364], [-46.63388, -22.73296], [-46.63298, -22.73244], [-46.63197, -22.73108], [-46.63207, -22.72953], [-46.6313, -22.72796], [-46.6267, -22.72924], [-46.62332, -22.72709], [-46.62117, -22.72453], [-46.62094, -22.72846], [-46.62053, -22.72961], [-46.61912, -22.73092], [-46.61682, -22.73167], [-46.6163, -22.73214], [-46.61639, -22.73494], [-46.61728, -22.73621], [-46.61732, -22.73691], [-46.61684, -22.73815], [-46.61638, -22.74016], [-46.61522, -22.74211], [-46.61499, -22.74509], [-46.61451, -22.7471], [-46.6128, -22.7501], [-46.61272, -22.7505]], [[-46.62179, -22.73576], [-46.62219, -22.73512], [-46.6237, -22.73443], [-46.62394, -22.734], [-46.62516, -22.73484], [-46.62466, -22.73543], [-46.62495, -22.73601], [-46.62482, -22.73609], [-46.62429, -22.73582], [-46.6236, -22.73621], [-46.62179, -22.73576]]]}}, 
{"type": "Feature", "properties": {"CD_SETOR": "353120910000013", "CD_SIT": "8", "NM_DIST": "Mostardas", "NM_SUBDIST": null}, "geometry": {"type": "Polygon", "coordinates": [[[-46.67179, -22.76781], [-46.67495, -22.76762], [-46.67631, -22.7682], [-46.67776, -22.76908], [-46.67906, -22.76952], [-46.68037, -22.76968], [-46.68195, -22.76962], [-46.68448, -22.76908], [-46.6857, -22.76865], [-46.68864, -22.76895], [-46.68987, -22.76882], [-46.69148, -22.76923], [-46.69398, -22.77051], [-46.69498, -22.77119], [-46.69643, -22.77078], [-46.69853, -22.76851], [-46.69995, -22.76931], [-46.7024, -22.76994], [-46.7035, -22.77082], [-46.70418, -22.77202], [-46.70693, -22.77543], [-46.70806, -22.7795], [-46.70931, -22.77731], [-46.70931, -22.77649], [-46.70899, -22.7757], [-46.70913, -22.77505], [-46.71026, -22.77421], [-46.71054, -22.77357], [-46.71037, -22.77296], [-46.70956, -22.77226], [-46.70906, -22.77157], [-46.709, -22.77042], [-46.70852, -22.76988], [-46.70845, -22.7695], [-46.70789, -22.76915], [-46.70796, -22.76861], [-46.70885, -22.76831], [-46.70887, -22.76803], [-46.7074, -22.76669], [-46.70553, -22.76531], [-46.70518, -22.76487], [-46.70481, -22.76373], [-46.70317, -22.76235], [-46.70255, -22.76122], [-46.7018, -22.76099], [-46.70113, -22.76043], [-46.69958, -22.76034], [-46.69902, -22.76], [-46.69903, -22.75892], [-46.69835, -22.75853], [-46.6976, -22.75882], [-46.6968, -22.7596], [-46.69593, -22.75968], [-46.69523, -22.75923], [-46.69356, -22.75734], [-46.69347, -22.7563], [-46.6926, -22.75584], [-46.69217, -22.75493], [-46.69179, -22.75471], [-46.69079, -22.75477], [-46.69053, -22.75393], [-46.68992, -22.7534], [-46.68963, -22.7527], [-46.68905, -22.75232], [-46.68853, -22.75123], [-46.68787, -22.75103], [-46.68564, -22.75107], [-46.68485, -22.75025], [-46.68395, -22.75001], [-46.68357, -22.74952], [-46.68287, -22.74907], [-46.68282, -22.74811], [-46.6838, -22.74759], [-46.684, -22.74713], [-46.68303, -22.7456], [-46.68311, -22.74505], [-46.68345, -22.7448], [-46.68405, -22.74482], [-46.68462, -22.74547], [-46.68511, -22.74559], [-46.68624, -22.74646], [-46.68771, -22.7472], [-46.68824, -22.74685], [-46.68877, -22.74584], [-46.68863, -22.74492], [-46.68837, -22.74485], [-46.68803, -22.74516], [-46.68768, -22.74518], [-46.68744, -22.74463], [-46.68746, -22.74409], [-46.68731, -22.74393], [-46.68643, -22.74406], [-46.68538, -22.74296], [-46.68484, -22.74278], [-46.68439, -22.74238], [-46.68407, -22.74151], [-46.68322, -22.74111], [-46.6828, -22.74057], [-46.6826, -22.73993], [-46.68176, -22.73969], [-46.68127, -22.73932], [-46.6813, -22.73897], [-46.68156, -22.73864], [-46.68102, -22.73857], [-46.68083, -22.73796], [-46.68051, -22.73779], [-46.67936, -22.73802], [-46.67881, -22.73784], [-46.67879, -22.73693], [-46.67844, -22.73599], [-46.67705, -22.73756], [-46.67578, -22.73857], [-46.67443, -22.73909], [-46.67436, -22.73954], [-46.67479, -22.7409], [-46.67473, -22.74109], [-46.67405, -22.74124], [-46.67459, -22.74219], [-46.67394, -22.74242], [-46.67377, -22.74319], [-46.67304, -22.74372], [-46.67301, -22.74526], [-46.67374, -22.74595], [-46.67438, -22.74733], [-46.67507, -22.74781], [-46.67548, -22.74839], [-46.67545, -22.74947], [-46.67435, -22.75258], [-46.67448, -22.75343], [-46.67497, -22.75425], [-46.67457, -22.75591], [-46.67501, -22.75673], [-46.676, -22.7577], [-46.67571, -22.75984], [-46.67613, -22.76219], [-46.67592, -22.76254], [-46.67538, -22.7629], [-46.67452, -22.76312], [-46.67267, -22.76498], [-46.67179, -22.76781]]]}}, 
{"type": "Feature", "properties": {"CD_SETOR": "353120910000014", "CD_SIT": "8", "NM_DIST": "Mostardas", "NM_SUBDIST": null}, "geometry": {"type": "Polygon", "coordinates": [[[-46.66472, -22.73425], [-46.66369, -22.73562], [-46.66407, -22.73606], [-46.66398, -22.73619], [-46.66268, -22.73633], [-46.66131, -22.73699], [-46.66087, -22.73741], [-46.65971, -22.73756], [-46.65809, -22.73811], [-46.65621, -22.73825], [-46.6553, -22.73857], [-46.65406, -22.73872], [-46.65333, -22.73911], [-46.65267, -22.73988], [-46.65099, -22.74076], [-46.65001, -22.74196], [-46.64822, -22.7411], [-46.64749, -22.74153], [-46.64654, -22.74175], [-46.64593, -22.74174], [-46.64513, -22.74131], [-46.64258, -22.74155], [-46.64321, -22.74247], [-46.64391, -22.74228], [-46.64436, -22.74236], [-46.64465, -22.74251], [-46.6447, -22.74276], [-46.64354, -22.7437], [-46.64269, -22.74466], [-46.64248, -22.74593], [-46.64252, -22.74678], [-46.64395, -22.74813], [-46.64493, -22.74875], [-46.64638, -22.75082], [-46.64715, -22.75143], [-46.64727, -22.75188], [-46.6472, -22.75236], [-46.64685, -22.75251], [-46.64641, -22.7525], [-46.64593, -22.75202], [-46.64471, -22.75257], [-46.64435, -22.75303], [-46.64419, -22.75371], [-46.64426, -22.75599], [-46.64412, -22.75588], [-46.64512, -22.75685], [-46.64565, -22.75775], [-46.64583, -22.75837], [-46.64594, -22.76045], [-46.64783, -22.7617], [-46.64949, -22.76405], [-46.65119, -22.7648], [-46.65259, -22.76642], [-46.65431, -22.76699], [-46.65534, -22.76711], [-46.65595, -22.7671], [-46.65724, -22.76672], [-46.65839, -22.76672], [-46.65943, -22.76737], [-46.66031, -22.76768], [-46.66089, -22.76842], [-46.66093, -22.76879], [-46.66272, -22.76855], [-46.6655, -22.76854], [-46.66975, -22.76785], [-46.67179, -22.76781], [-46.67267, -22.76498], [-46.67452, -22.76312], [-46.67538, -22.7629], [-46.67592, -22.76254], [-46.67613, -22.76219], [-46.67571, -22.75984], [-46.676, -22.7577], [-46.67501, -22.75673], [-46.67457, -22.75591], [-46.67497, -22.75425], [-46.67448, -22.75343], [-46.67435, -22.75258], [-46.67545, -22.74947], [-46.67548, -22.74839], [-46.67507, -22.74781], [-46.67438, -22.74733], [-46.67374, -22.74595], [-46.67301, -22.74526], [-46.67296, -22.74453], [-46.67304, -22.74372], [-46.67377, -22.74319], [-46.67394, -22.74242], [-46.67459, -22.74219], [-46.67405, -22.74124], [-46.67473, -22.74109], [-46.67479, -22.7409], [-46.67436, -22.73954], [-46.67443, -22.73909], [-46.67568, -22.73865], [-46.67705, -22.73756], [-46.67844, -22.73599], [-46.67839, -22.73585], [-46.6772, -22.73558], [-46.67679, -22.73587], [-46.67619, -22.73602], [-46.67494, -22.73687], [-46.67453, -22.73693], [-46.67372, -22.73624], [-46.67302, -22.73599], [-46.67247, -22.73543], [-46.67182, -22.73569], [-46.67107, -22.73576], [-46.66993, -22.737], [-46.66957, -22.73722], [-46.66913, -22.73723], [-46.6685, -22.73694], [-46.66828, -22.73604], [-46.66719, -22.73522], [-46.66635, -22.73499], [-46.66581, -22.73505], [-46.66527, -22.73474], [-46.66497, -22.73424], [-46.66472, -22.73425]]]}}, 
{"type": "Feature", "properties": {"CD_SETOR": "353120910000015", "CD_SIT": "8", "NM_DIST": "Mostardas", "NM_SUBDIST": null}, "geometry": {"type": "Polygon", "coordinates": [[[-46.64593, -22.75202], [-46.64641, -22.7525], [-46.64713, -22.7524], [-46.64729, -22.75211], [-46.64715, -22.75143], [-46.64638, -22.75082], [-46.64541, -22.74952], [-46.64574, -22.75065], [-46.64552, -22.75168], [-46.64593, -22.75202]]]}}]}