{"type": "FeatureCollection", "features": [
{"type": "Feature", "properties": {"CD_SETOR": "410080605000002", "CD_SIT": "1", "NM_DIST": "Alvorada do Sul", "NM_SUBDIST": null}, "geometry": {"type": "Polygon", "coordinates": [[[-51.22388, -22.77797], [-51.22517, -22.77939], [-51.22893, -22.77693], [-51.22754, -22.7756], [-51.22388, -22.77797]]]}}, 
{"type": "Feature", "properties": {"CD_SETOR": "410080605000004", "CD_SIT": "8", "NM_DIST": "Alvorada do Sul", "NM_SUBDIST": null}, "geometry": {"type": "Polygon", "coordinates": [[[-51.22665, -22.78618], [-51.22629, -22.78649], [-51.2253, -22.78946], [-51.22797, -22.79004], [-51.22749, -22.79103], [-51.2273, -22.79255], [-51.23123, -22.79247], [-51.23125, -22.78721], [-51.22874, -22.78451], [-51.22665, -22.78618]]]}}, 
{"type": "Feature", "properties": {"CD_SETOR": "410080605000005", "CD_SIT": "1", "NM_DIST": "Alvorada do Sul", "NM_SUBDIST": null}, "geometry": {"type": "Polygon", "coordinates": [[[-51.22944, -22.78396], [-51.22874, -22.78451], [-51.23125, -22.78721], [-51.23134, -22.78789], [-51.23189, -22.78774], [-51.23284, -22.78665], [-51.23328, -22.7843], [-51.2343, -22.78257], [-51.23298, -22.78115], [-51.22944, -22.78396]]]}}, 
{"type": "Feature", "properties": {"CD_SETOR": "410080605000006", "CD_SIT": "1", "NM_DIST": "Alvorada do Sul", "NM_SUBDIST": null}, "geometry": {"type": "Polygon", "coordinates": [[[-51.23901, -22.77353], [-51.23792, -22.77476], [-51.23797, -22.77525], [-51.23826, -22.7755], [-51.2386, -22.77642], [-51.23849, -22.777], [-51.23902, -22.77713], [-51.24019, -22.77804], [-51.23997, -22.77856], [-51.23959, -22.77884], [-51.23825, -22.77916], [-51.2366, -22.78097], [-51.23556, -22.78285], [-51.23481, -22.78293], [-51.23429, -22.78237], [-51.2353, -22.77942], [-51.23549, -22.77839], [-51.23542, -22.77749], [-51.23496, -22.77675], [-51.23536, -22.77611], [-51.23542, -22.77517], [-51.23272, -22.77704], [-51.23067, -22.77868], [-51.23584, -22.78425], [-51.23766, -22.78572], [-51.23925, -22.78442], [-51.23672, -22.7826], [-51.2389, -22.78008], [-51.2397, -22.77961], [-51.24055, -22.77799], [-51.24314, -22.77518], [-51.23961, -22.77298], [-51.23901, -22.77353]]]}}, 
{"type": "Feature", "properties": {"CD_SETOR": "410080605000007", "CD_SIT": "1", "NM_DIST": "Alvorada do Sul", "NM_SUBDIST": null}, "geometry": {"type": "Polygon", "coordinates": [[[-51.22741, -22.77548], [-51.23067, -22.77868], [-51.23272, -22.77704], [-51.23542, -22.77517], [-51.23538, -22.77295], [-51.23482, -22.77062], [-51.22741, -22.77548]]]}}, 
{"type": "Feature", "properties": {"CD_SETOR": "410080605000009", "CD_SIT": "8", "NM_DIST": "Alvorada do Sul", "NM_SUBDIST": null}, "geometry": {"type": "Polygon", "coordinates": [[[-51.16209, -22.8592], [-51.16238, -22.85964], [-51.16333, -22.8625], [-51.16236, -22.86286], [-51.15895, -22.86739], [-51.16137, -22.87127], [-51.15839, -22.87446], [-51.15948, -22.87644], [-51.1621, -22.87843], [-51.16424, -22.88223], [-51.16657, -22.88337], [-51.16677, -22.8856], [-51.16831, -22.88773], [-51.16791, -22.88865], [-51.16706, -22.88872], [-51.16674, -22.88916], [-51.16802, -22.89394], [-51.16978, -22.89522], [-51.17121, -22.89544], [-51.17302, -22.89792], [-51.17403, -22.89874], [-51.17536, -22.89904], [-51.17637, -22.90025], [-51.17938, -22.89953], [-51.1787, -22.89901], [-51.18063, -22.89875], [-51.18135, -22.89977], [-51.18232, -22.90015], [-51.18428, -22.90014], [-51.18486, -22.90207], [-51.18627, -22.9027], [-51.18534, -22.90374], [-51.18639, -22.90689], [-51.18873, -22.9076], [-51.18986, -22.91026], [-51.19429, -22.91387], [-51.19715, -22.91561], [-51.19624, -22.91783], [-51.19719, -22.91954], [-51.19663, -22.91984], [-51.19679, -22.92032], [-51.19595, -22.92063], [-51.19615, -22.92196], [-51.19527, -22.92301], [-51.19744, -22.92534], [-51.19837, -22.92846], [-51.19902, -22.92964], [-51.20047, -22.93076], [-51.20075, -22.93285], [-51.20188, -22.93454], [-51.202, -22.93551], [-51.20084, -22.937], [-51.20052, -22.93846], [-51.20321, -22.94478], [-51.20451, -22.94629], [-51.20717, -22.94736], [-51.20951, -22.95051], [-51.21064, -22.95409], [-51.21041, -22.95862], [-51.20805, -22.96488], [-51.20797, -22.96677], [-51.21569, -22.96178], [-51.21615, -22.96024], [-51.21621, -22.95771], [-51.21449, -22.95235], [-51.21429, -22.95061], [-51.21454, -22.94935], [-51.21562, -22.94729], [-51.21752, -22.94448], [-51.22099, -22.93541], [-51.22295, -22.92904], [-51.22466, -22.92676], [-51.24003, -22.90908], [-51.22427, -22.90099], [-51.22968, -22.89714], [-51.22669, -22.89243], [-51.2251, -22.89161], [-51.22263, -22.88802], [-51.22211, -22.88393], [-51.21976, -22.88005], [-51.21696, -22.87358], [-51.21709, -22.87229], [-51.21652, -22.87223], [-51.21404, -22.86546], [-51.21106, -22.86541], [-51.21086, -22.85612], [-51.19879, -22.85591], [-51.19613, -22.85485], [-51.19524, -22.85414], [-51.19511, -22.85297], [-51.19441, -22.85097], [-51.19282, -22.85079], [-51.19137, -22.85191], [-51.18826, -22.85345], [-51.1804, -22.85328], [-51.17666, -22.85381], [-51.16679, -22.85688], [-51.16209, -22.8592]]]}}, 
{"type": "Feature", "properties": {"CD_SETOR": "410080605000010", "CD_SIT": "8", "NM_DIST": "Alvorada do Sul", "NM_SUBDIST": null}, "geometry": {"type": "Polygon", "coordinates": [[[-51.21086, -22.85612], [-51.21106, -22.86541], [-51.21404, -22.86546], [-51.21652, -22.87223], [-51.21709, -22.87229], [-51.21696, -22.87358], [-51.21976, -22.88005], [-51.22211, -22.88393], [-51.22263, -22.88802], [-51.2251, -22.89161], [-51.22669, -22.89243], [-51.22968, -22.89714], [-51.22427, -22.90099], [-51.24003, -22.90908], [-51.24169, -22.90812], [-51.2483, -22.90661], [-51.25038, -22.90501], [-51.25178, -22.90342], [-51.25266, -22.90119], [-51.25138, -22.86081], [-51.25055, -22.85787], [-51.24909, -22.85487], [-51.24933, -22.85069], [-51.25266, -22.83316], [-51.25219, -22.82122], [-51.2502, -22.81636], [-51.23703, -22.81645], [-51.23772, -22.8117], [-51.23812, -22.81043], [-51.23793, -22.81006], [-51.23675, -22.81015], [-51.23624, -22.81038], [-51.23528, -22.81024], [-51.23501, -22.81004], [-51.23431, -22.80782], [-51.23254, -22.80747], [-51.22469, -22.80741], [-51.22432, -22.8274], [-51.22477, -22.83935], [-51.2246, -22.84668], [-51.22349, -22.84891], [-51.218, -22.85512], [-51.21635, -22.85588], [-51.21232, -22.85631], [-51.21086, -22.85612]]]}}, 
{"type": "Feature", "properties": {"CD_SETOR": "410080605000011", "CD_SIT": "8", "NM_DIST": "Alvorada do Sul", "NM_SUBDIST": null}, "geometry": {"type": "Polygon", "coordinates": [[[-51.25159, -22.86638], [-51.25266, -22.90119], [-51.25178, -22.90342], [-51.25038, -22.90501], [-51.2483, -22.90661], [-51.24169, -22.90812], [-51.24003, -22.90908], [-51.22466, -22.92676], [-51.22295, -22.92904], [-51.22099, -22.93541], [-51.21752, -22.94448], [-51.21562, -22.94729], [-51.21454, -22.94935], [-51.21429, -22.95061], [-51.21449, -22.95235], [-51.21621, -22.95771], [-51.21615, -22.96024], [-51.21569, -22.96178], [-51.22361, -22.95666], [-51.22634, -22.95093], [-51.23128, -22.94819], [-51.23196, -22.94692], [-51.23469, -22.94527], [-51.23626, -22.94365], [-51.23626, -22.94298], [-51.23706, -22.94201], [-51.23875, -22.94115], [-51.23951, -22.94016], [-51.24269, -22.93948], [-51.24321, -22.93982], [-51.24366, -22.93929], [-51.24571, -22.93938], [-51.24856, -22.9383], [-51.25247, -22.93809], [-51.25403, -22.93656], [-51.25379, -22.93585], [-51.25552, -22.93299], [-51.25737, -22.93302], [-51.25813, -22.93138], [-51.25929, -22.93105], [-51.2597, -22.9314], [-51.26138, -22.93017], [-51.26323, -22.92972], [-51.26452, -22.92882], [-51.26855, -22.92779], [-51.27192, -22.92485], [-51.27618, -22.92541], [-51.27675, -22.92595], [-51.27899, -22.92401], [-51.28249, -22.92286], [-51.2864, -22.92416], [-51.28728, -22.92324], [-51.28869, -22.92328], [-51.29521, -22.92183], [-51.30003, -22.91912], [-51.30083, -22.91919], [-51.30095, -22.91878], [-51.30288, -22.91818], [-51.30465, -22.91816], [-51.30739, -22.91715], [-51.31032, -22.91705], [-51.31084, -22.91645], [-51.31522, -22.91631], [-51.31579, -22.91568], [-51.31536, -22.91505], [-51.31604, -22.91429], [-51.3157, -22.91337], [-51.316, -22.91242], [-51.32199, -22.91164], [-51.32596, -22.91184], [-51.32599, -22.91234], [-51.32551, -22.91427], [-51.32442, -22.91532], [-51.32452, -22.91635], [-51.32378, -22.91702], [-51.32313, -22.91689], [-51.32355, -22.91943], [-51.32481, -22.92054], [-51.3262, -22.92044], [-51.32814, -22.9195], [-51.33144, -22.91684], [-51.33552, -22.9153], [-51.33524, -22.91376], [-51.33265, -22.91003], [-51.3289, -22.90839], [-51.32907, -22.90755], [-51.33015, -22.90667], [-51.33396, -22.90534], [-51.33396, -22.90453], [-51.33123, -22.90289], [-51.32848, -22.90299], [-51.32785, -22.90251], [-51.32664, -22.9024], [-51.32655, -22.90222], [-51.32691, -22.90165], [-51.32887, -22.89976], [-51.32887, -22.89839], [-51.3305, -22.89706], [-51.3318, -22.89731], [-51.33494, -22.89987], [-51.3363, -22.90003], [-51.33922, -22.90116], [-51.341, -22.90108], [-51.34042, -22.90007], [-51.3426, -22.89984], [-51.34297, -22.89943], [-51.3414, -22.89781], [-51.34021, -22.8978], [-51.34109, -22.89401], [-51.34289, -22.8928], [-51.34244, -22.89181], [-51.34088, -22.89293], [-51.34033, -22.89273], [-51.34071, -22.8915], [-51.33985, -22.89052], [-51.34002, -22.88897], [-51.33784, -22.88871], [-51.33301, -22.89124], [-51.33043, -22.89137], [-51.32831, -22.88954], [-51.3284, -22.88838], [-51.32859, -22.88807], [-51.33197, -22.88595], [-51.33333, -22.88396], [-51.33701, -22.88275], [-51.33823, -22.88193], [-51.33822, -22.88042], [-51.33461, -22.87768], [-51.33283, -22.87374], [-51.3309, -22.87183], [-51.32946, -22.87292], [-51.32871, -22.87289], [-51.32757, -22.87379], [-51.32738, -22.87441], [-51.32704, -22.87479], [-51.32694, -22.87579], [-51.32637, -22.87659], [-51.32545, -22.87662], [-51.3252, -22.87724], [-51.32432, -22.87789], [-51.32384, -22.87865], [-51.32099, -22.88013], [-51.31989, -22.88099], [-51.31897, -22.88102], [-51.31865, -22.88152], [-51.31763, -22.88167], [-51.31726, -22.88229], [-51.31592, -22.8822], [-51.31453, -22.88294], [-51.31329, -22.88306], [-51.31304, -22.8828], [-51.31256, -22.88277], [-51.31177, -22.88242], [-51.30995, -22.88244], [-51.31, -22.87484], [-51.30277, -22.87444], [-51.30264, -22.87026], [-51.30561, -22.87025], [-51.30573, -22.86624], [-51.30643, -22.86477], [-51.30122, -22.86343], [-51.29938, -22.86201], [-51.29837, -22.86213], [-51.29437, -22.8612], [-51.2919, -22.86109], [-51.29006, -22.86138], [-51.2862, -22.8611], [-51.28184, -22.86112], [-51.28083, -22.86183], [-51.2781, -22.86242], [-51.27627, -22.86372], [-51.27411, -22.86384], [-51.27095, -22.86661], [-51.27108, -22.8682], [-51.2693, -22.86832], [-51.26848, -22.86862], [-51.25859, -22.86846], [-51.25726, -22.86758], [-51.2558, -22.86623], [-51.25159, -22.86638]]]}}, 
{"type": "Feature", "properties": {"CD_SETOR": "410080605000014", "CD_SIT": "1", "NM_DIST": "Alvorada do Sul", "NM_SUBDIST": null}, "geometry": {"type": "Polygon", "coordinates": [[[-51.22273, -22.7768], [-51.22388, -22.77797], [-51.22754, -22.7756], [-51.22638, -22.77449], [-51.22273, -22.7768]]]}}, 
{"type": "Feature", "properties": {"CD_SETOR": "410080605000015", "CD_SIT": "2", "NM_DIST": "Alvorada do Sul", "NM_SUBDIST": null}, "geometry": {"type": "Polygon", "coordinates": [[[-51.19709, -22.74134], [-51.19491, -22.74156], [-51.19498, -22.74649], [-51.1971, -22.74826], [-51.19781, -22.74873], [-51.19775, -22.74532], [-51.1979, -22.74469], [-51.19825, -22.74451], [-51.19972, -22.7443], [-51.20216, -22.74276], [-51.20277, -22.74269], [-51.2034, -22.74305], [-51.20454, -22.74507], [-51.20746, -22.74938], [-51.21044, -22.75105], [-51.21051, -22.75178], [-51.20941, -22.75394], [-51.20864, -22.75816], [-51.21041, -22.76344], [-51.21753, -22.7687], [-51.22179, -22.77036], [-51.22741, -22.77548], [-51.23482, -22.77062], [-51.23261, -22.76667], [-51.23102, -22.76537], [-51.22996, -22.76497], [-51.22747, -22.7651], [-51.22572, -22.76579], [-51.22321, -22.76777], [-51.22181, -22.76852], [-51.22009, -22.76856], [-51.21889, -22.7682], [-51.21705, -22.76624], [-51.21422, -22.76448], [-51.21244, -22.76306], [-51.21158, -22.7619], [-51.21063, -22.75993], [-51.21045, -22.75852], [-51.21128, -22.75405], [-51.21125, -22.75346], [-51.2122, -22.75292], [-51.21237, -22.7519], [-51.21224, -22.75107], [-51.21039, -22.74916], [-51.20967, -22.74814], [-51.20866, -22.74762], [-51.20852, -22.74726], [-51.20792, -22.74674], [-51.20735, -22.7443], [-51.20669, -22.74271], [-51.20505, -22.74161], [-51.20462, -22.74027], [-51.20357, -22.73969], [-51.19991, -22.74227], [-51.19886, -22.74265], [-51.1976, -22.74186], [-51.19709, -22.74134]]]}}, 
{"type": "Feature", "properties": {"CD_SETOR": "410080605000016", "CD_SIT": "1", "NM_DIST": "Alvorada do Sul", "NM_SUBDIST": null}, "geometry": {"type": "Polygon", "coordinates": [[[-51.21904, -22.7834], [-51.22203, -22.78137], [-51.21986, -22.77865], [-51.21689, -22.78055], [-51.21904, -22.7834]]]}}, 
{"type": "Feature", "properties": {"CD_SETOR": "410080605000017", "CD_SIT": "1", "NM_DIST": "Alvorada do Sul", "NM_SUBDIST": null}, "geometry": {"type": "Polygon", "coordinates": [[[-51.21904, -22.7834], [-51.22317, -22.78895], [-51.22527, -22.78954], [-51.22629, -22.78649], [-51.22665, -22.78618], [-51.22356, -22.78285], [-51.22332, -22.78301], [-51.22203, -22.78137], [-51.21904, -22.7834]]]}}, 
{"type": "Feature", "properties": {"CD_SETOR": "410080605000018", "CD_SIT": "1", "NM_DIST": "Alvorada do Sul", "NM_SUBDIST": null}, "geometry": {"type": "Polygon", "coordinates": [[[-51.21986, -22.77865], [-51.22064, -22.77963], [-51.22106, -22.77935], [-51.2215, -22.7799], [-51.22306, -22.7789], [-51.22397, -22.78008], [-51.2251, -22.77931], [-51.22273, -22.7768], [-51.21986, -22.77865]]]}}, 
{"type": "Feature", "properties": {"CD_SETOR": "410080605000019", "CD_SIT": "1", "NM_DIST": "Alvorada do Sul", "NM_SUBDIST": null}, "geometry": {"type": "Polygon", "coordinates": [[[-51.22064, -22.77963], [-51.22332, -22.78301], [-51.22356, -22.78285], [-51.22665, -22.78618], [-51.22944, -22.78396], [-51.2251, -22.77931], [-51.22397, -22.78008], [-51.22306, -22.7789], [-51.2215, -22.7799], [-51.22106, -22.77935], [-51.22064, -22.77963]]]}}, 
{"type": "Feature", "properties": {"CD_SETOR": "410080605000020", "CD_SIT": "1", "NM_DIST": "Alvorada do Sul", "NM_SUBDIST": null}, "geometry": {"type": "Polygon", "coordinates": [[[-51.22517, -22.77939], [-51.22716, -22.78152], [-51.22994, -22.77927], [-51.23072, -22.78012], [-51.23146, -22.77953], [-51.22893, -22.77693], [-51.22517, -22.77939]]]}}, 
{"type": "Feature", "properties": {"CD_SETOR": "410080605000021", "CD_SIT": "1", "NM_DIST": "Alvorada do Sul", "NM_SUBDIST": null}, "geometry": {"type": "Polygon", "coordinates": [[[-51.22716, -22.78152], [-51.22944, -22.78396], [-51.23298, -22.78115], [-51.23146, -22.77953], [-51.23072, -22.78012], [-51.22994, -22.77927], [-51.22716, -22.78152]]]}}, 
{"type": "Feature", "properties": {"CD_SETOR": "410080605000022", "CD_SIT": "8", "NM_DIST": "Alvorada do Sul", "NM_SUBDIST": null}, "geometry": {"type": "Polygon", "coordinates": [[[-51.15475, -22.85461], [-51.15459, -22.85498], [-51.15484, -22.85627], [-51.15701, -22.85712], [-51.15838, -22.85708], [-51.16003, -22.8579], [-51.16127, -22.85796], [-51.16209, -22.8592], [-51.16679, -22.85688], [-51.17666, -22.85381], [-51.1804, -22.85328], [-51.18826, -22.85345], [-51.19137, -22.85191], [-51.19282, -22.85079], [-51.19441, -22.85097], [-51.19511, -22.85297], [-51.19524, -22.85414], [-51.19613, -22.85485], [-51.19879, -22.85591], [-51.21086, -22.85612], [-51.21232, -22.85631], [-51.21635, -22.85588], [-51.218, -22.85512], [-51.22349, -22.84891], [-51.2246, -22.84668], [-51.22477, -22.83935], [-51.22432, -22.8274], [-51.22469, -22.80741], [-51.22481, -22.7909], [-51.22527, -22.78954], [-51.22317, -22.78895], [-51.21689, -22.78055], [-51.22638, -22.77449], [-51.22179, -22.77036], [-51.21753, -22.7687], [-51.21041, -22.76344], [-51.20864, -22.75816], [-51.20941, -22.75394], [-51.21051, -22.75178], [-51.21044, -22.75105], [-51.20746, -22.74938], [-51.20454, -22.74507], [-51.2034, -22.74305], [-51.20277, -22.74269], [-51.20216, -22.74276], [-51.19972, -22.7443], [-51.19825, -22.74451], [-51.1979, -22.74469], [-51.19775, -22.74532], [-51.19781, -22.74873], [-51.19498, -22.74649], [-51.19491, -22.74156], [-51.19709, -22.74134], [-51.19639, -22.73914], [-51.19538, -22.73802], [-51.19452, -22.73858], [-51.19385, -22.73949], [-51.19166, -22.74099], [-51.18984, -22.74264], [-51.18848, -22.74323], [-51.18573, -22.74299], [-51.18447, -22.74251], [-51.183, -22.74248], [-51.18257, -22.74342], [-51.18207, -22.74556], [-51.18228, -22.74719], [-51.1839, -22.74862], [-51.19168, -22.75268], [-51.19256, -22.75383], [-51.19296, -22.7558], [-51.19224, -22.75802], [-51.19069, -22.75956], [-51.19034, -22.76204], [-51.1908, -22.76472], [-51.19296, -22.76536], [-51.19507, -22.76728], [-51.19777, -22.76835], [-51.19871, -22.76942], [-51.19817, -22.77085], [-51.19719, -22.77237], [-51.19705, -22.77382], [-51.2013, -22.7774], [-51.20464, -22.7798], [-51.2071, -22.78074], [-51.20753, -22.78146], [-51.20718, -22.78324], [-51.20633, -22.78495], [-51.20582, -22.78711], [-51.20713, -22.79115], [-51.2067, -22.79281], [-51.20686, -22.79378], [-51.20921, -22.79784], [-51.20718, -22.79734], [-51.20579, -22.79763], [-51.20216, -22.79955], [-51.20136, -22.80065], [-51.20087, -22.80303], [-51.20136, -22.80495], [-51.20288, -22.80637], [-51.20317, -22.80733], [-51.20456, -22.80872], [-51.20555, -22.80926], [-51.20665, -22.81102], [-51.20627, -22.81167], [-51.20611, -22.81314], [-51.20558, -22.81453], [-51.20566, -22.81578], [-51.20643, -22.81709], [-51.20761, -22.81806], [-51.21127, -22.81851], [-51.20865, -22.8195], [-51.20675, -22.81982], [-51.20499, -22.8199], [-51.20344, -22.81904], [-51.20237, -22.81907], [-51.20109, -22.82089], [-51.20013, -22.82299], [-51.20103, -22.82446], [-51.20266, -22.82526], [-51.20438, -22.82547], [-51.20571, -22.82539], [-51.20774, -22.82689], [-51.20641, -22.82643], [-51.20269, -22.8274], [-51.20069, -22.82967], [-51.20005, -22.83215], [-51.20068, -22.83454], [-51.20148, -22.83615], [-51.20474, -22.83842], [-51.20541, -22.83962], [-51.20589, -22.83981], [-51.20691, -22.84072], [-51.20774, -22.842], [-51.20701, -22.8423], [-51.20528, -22.84058], [-51.20434, -22.84069], [-51.20373, -22.84021], [-51.2025, -22.84034], [-51.20119, -22.83984], [-51.20087, -22.84056], [-51.19929, -22.8424], [-51.1987, -22.84449], [-51.19878, -22.84548], [-51.19841, -22.84596], [-51.19777, -22.84804], [-51.19777, -22.84994], [-51.1975, -22.85117], [-51.19718, -22.85047], [-51.19664, -22.84716], [-51.19707, -22.84625], [-51.19697, -22.84582], [-51.1955, -22.84558], [-51.19904, -22.83892], [-51.19922, -22.83812], [-51.19856, -22.83665], [-51.1973, -22.83502], [-51.1962, -22.83483], [-51.19521, -22.83489], [-51.19511, -22.83446], [-51.19594, -22.83406], [-51.19663, -22.83326], [-51.1965, -22.83248], [-51.19596, -22.83109], [-51.19602, -22.82919], [-51.19497, -22.82831], [-51.19278, -22.82842], [-51.19332, -22.82755], [-51.19489, -22.82603], [-51.19519, -22.82466], [-51.19516, -22.82266], [-51.1954, -22.82156], [-51.19604, -22.82063], [-51.19575, -22.81937], [-51.19449, -22.81857], [-51.19268, -22.81817], [-51.19366, -22.81723], [-51.19513, -22.81683], [-51.19687, -22.81571], [-51.19815, -22.81379], [-51.1987, -22.8118], [-51.19822, -22.8107], [-51.19544, -22.80893], [-51.195, -22.80839], [-51.19405, -22.8063], [-51.193, -22.80473], [-51.19412, -22.80396], [-51.19435, -22.8032], [-51.1946, -22.80066], [-51.19403, -22.79991], [-51.19298, -22.79924], [-51.19285, -22.79871], [-51.19368, -22.79757], [-51.19543, -22.79697], [-51.1967, -22.79606], [-51.1977, -22.79483], [-51.19793, -22.79386], [-51.19793, -22.79281], [-51.19729, -22.79206], [-51.19602, -22.79137], [-51.19488, -22.79106], [-51.19309, -22.791], [-51.19256, -22.79007], [-51.19231, -22.78799], [-51.19186, -22.78661], [-51.19126, -22.78546], [-51.18954, -22.78377], [-51.18779, -22.78161], [-51.18674, -22.78109], [-51.18577, -22.78109], [-51.18493, -22.78172], [-51.18444, -22.78274], [-51.18401, -22.78419], [-51.18251, -22.78653], [-51.1825, -22.78784], [-51.18282, -22.78934], [-51.18277, -22.79002], [-51.18189, -22.7912], [-51.18104, -22.79275], [-51.18075, -22.79454], [-51.1813, -22.79634], [-51.18122, -22.79766], [-51.18042, -22.79962], [-51.18011, -22.80122], [-51.17909, -22.80241], [-51.17744, -22.80607], [-51.17725, -22.80696], [-51.17665, -22.80787], [-51.17529, -22.80922], [-51.17505, -22.80995], [-51.17439, -22.81095], [-51.17425, -22.81232], [-51.17483, -22.81403], [-51.17563, -22.81534], [-51.1758, -22.81652], [-51.17534, -22.81711], [-51.17483, -22.81687], [-51.17204, -22.81704], [-51.17046, -22.81776], [-51.16994, -22.81844], [-51.16981, -22.81979], [-51.16914, -22.82089], [-51.16879, -22.82187], [-51.16891, -22.82235], [-51.16871, -22.82298], [-51.16934, -22.82358], [-51.17, -22.82459], [-51.17054, -22.82511], [-51.17119, -22.8251], [-51.17201, -22.82617], [-51.17303, -22.82645], [-51.17327, -22.82705], [-51.17304, -22.82803], [-51.174, -22.8291], [-51.17445, -22.83093], [-51.17431, -22.83159], [-51.17454, -22.83222], [-51.17495, -22.83247], [-51.17509, -22.83321], [-51.17466, -22.83349], [-51.17382, -22.83582], [-51.17405, -22.83671], [-51.17501, -22.83734], [-51.17585, -22.8383], [-51.1743, -22.83825], [-51.17248, -22.83894], [-51.1722, -22.83939], [-51.17176, -22.83956], [-51.17088, -22.84029], [-51.17058, -22.84133], [-51.1707, -22.84245], [-51.16986, -22.84327], [-51.1697, -22.84412], [-51.169, -22.84436], [-51.16784, -22.84375], [-51.16649, -22.84447], [-51.16476, -22.84491], [-51.16378, -22.84574], [-51.16224, -22.84647], [-51.16102, -22.84663], [-51.15876, -22.84785], [-51.15866, -22.84853], [-51.1593, -22.84924], [-51.15923, -22.84953], [-51.15863, -22.84969], [-51.15779, -22.85079], [-51.15736, -22.85164], [-51.15772, -22.85274], [-51.15843, -22.85319], [-51.15779, -22.8547], [-51.15651, -22.85318], [-51.1557, -22.85366], [-51.15475, -22.85461]]]}}, 
{"type": "Feature", "properties": {"CD_SETOR": "410080605000023", "CD_SIT": "8", "NM_DIST": "Alvorada do Sul", "NM_SUBDIST": null}, "geometry": {"type": "Polygon", "coordinates": [[[-51.28987, -22.81477], [-51.2582, -22.81516], [-51.2582, -22.8163], [-51.2502, -22.81636], [-51.25219, -22.82122], [-51.25266, -22.83316], [-51.24933, -22.85069], [-51.24909, -22.85487], [-51.25055, -22.85787], [-51.25138, -22.86081], [-51.25159, -22.86638], [-51.2558, -22.86623], [-51.25726, -22.86758], [-51.25859, -22.86846], [-51.26848, -22.86862], [-51.2693, -22.86832], [-51.27108, -22.8682], [-51.27095, -22.86661], [-51.27411, -22.86384], [-51.27627, -22.86372], [-51.2781, -22.86242], [-51.28083, -22.86183], [-51.28184, -22.86112], [-51.2862, -22.8611], [-51.29006, -22.86138], [-51.2919, -22.86109], [-51.29437, -22.8612], [-51.29837, -22.86213], [-51.29938, -22.86201], [-51.30122, -22.86343], [-51.30643, -22.86477], [-51.30573, -22.86624], [-51.30561, -22.87025], [-51.30264, -22.87026], [-51.30277, -22.87444], [-51.31, -22.87484], [-51.30995, -22.88244], [-51.31177, -22.88242], [-51.31256, -22.88277], [-51.31304, -22.8828], [-51.31329, -22.88306], [-51.31453, -22.88294], [-51.31592, -22.8822], [-51.31726, -22.88229], [-51.31763, -22.88167], [-51.31865, -22.88152], [-51.31897, -22.88102], [-51.31989, -22.88099], [-51.32099, -22.88013], [-51.32384, -22.87865], [-51.32432, -22.87789], [-51.3252, -22.87724], [-51.32545, -22.87662], [-51.32637, -22.87659], [-51.32694, -22.87579], [-51.32704, -22.87479], [-51.32738, -22.87441], [-51.32757, -22.87379], [-51.32871, -22.87289], [-51.32946, -22.87292], [-51.3309, -22.87183], [-51.32897, -22.86984], [-51.32794, -22.86982], [-51.32634, -22.86923], [-51.32618, -22.86889], [-51.3281, -22.86723], [-51.33061, -22.86716], [-51.33192, -22.86639], [-51.3323, -22.86465], [-51.33125, -22.86299], [-51.32944, -22.86166], [-51.32813, -22.8612], [-51.32746, -22.85947], [-51.32786, -22.85768], [-51.3297, -22.8563], [-51.33123, -22.85582], [-51.33155, -22.85483], [-51.33024, -22.85424], [-51.32604, -22.85301], [-51.32604, -22.85232], [-51.32757, -22.85119], [-51.32885, -22.84989], [-51.33075, -22.84751], [-51.33254, -22.8458], [-51.33505, -22.84449], [-51.33647, -22.84262], [-51.33604, -22.84107], [-51.33355, -22.83839], [-51.33144, -22.83813], [-51.32858, -22.83981], [-51.32797, -22.83722], [-51.32605, -22.83554], [-51.32316, -22.83506], [-51.31924, -22.83509], [-51.31672, -22.83407], [-51.31619, -22.83252], [-51.31448, -22.83193], [-51.31304, -22.83289], [-51.31235, -22.83527], [-51.3109, -22.83816], [-51.31037, -22.84102], [-51.31058, -22.84385], [-51.30783, -22.84543], [-51.30588, -22.84583], [-51.30633, -22.84479], [-51.30754, -22.8433], [-51.30823, -22.84153], [-51.30802, -22.83948], [-51.30663, -22.83799], [-51.3074, -22.8371], [-51.30684, -22.83579], [-51.30762, -22.8339], [-51.30842, -22.83045], [-51.3085, -22.82812], [-51.3081, -22.82504], [-51.30754, -22.82413], [-51.3077, -22.82287], [-51.30863, -22.82194], [-51.30852, -22.82055], [-51.30802, -22.81929], [-51.30687, -22.81812], [-51.30537, -22.81755], [-51.30553, -22.81678], [-51.30532, -22.81571], [-51.30446, -22.81507], [-51.30243, -22.81427], [-51.30345, -22.81357], [-51.30508, -22.8128], [-51.30647, -22.81069], [-51.30895, -22.80946], [-51.3096, -22.80806], [-51.30806, -22.8068], [-51.30628, -22.80794], [-51.30448, -22.81027], [-51.30309, -22.81063], [-51.29877, -22.8124], [-51.2965, -22.81306], [-51.29128, -22.81563], [-51.28933, -22.81865], [-51.28716, -22.82023], [-51.28914, -22.81675], [-51.28987, -22.81477]]]}}, 
{"type": "Feature", "properties": {"CD_SETOR": "410080605000024", "CD_SIT": "8", "NM_DIST": "Alvorada do Sul", "NM_SUBDIST": null}, "geometry": {"type": "Polygon", "coordinates": [[[-51.27129, -22.77107], [-51.25129, -22.77083], [-51.24786, -22.77369], [-51.24607, -22.77441], [-51.24403, -22.77383], [-51.24277, -22.77378], [-51.24212, -22.77455], [-51.24314, -22.77518], [-51.24055, -22.77799], [-51.2397, -22.77961], [-51.2389, -22.78008], [-51.23672, -22.7826], [-51.23925, -22.78442], [-51.23766, -22.78572], [-51.23607, -22.78448], [-51.2343, -22.78257], [-51.23357, -22.78373], [-51.23328, -22.7843], [-51.23284, -22.78665], [-51.23189, -22.78774], [-51.23134, -22.78789], [-51.23123, -22.79247], [-51.2273, -22.79255], [-51.22749, -22.79103], [-51.22797, -22.79004], [-51.2253, -22.78946], [-51.22481, -22.7909], [-51.22469, -22.80741], [-51.23254, -22.80747], [-51.23431, -22.80782], [-51.23501, -22.81004], [-51.23528, -22.81024], [-51.23624, -22.81038], [-51.23675, -22.81015], [-51.23793, -22.81006], [-51.23812, -22.81043], [-51.23772, -22.8117], [-51.23703, -22.81645], [-51.2582, -22.8163], [-51.2582, -22.81516], [-51.28987, -22.81477], [-51.29038, -22.814], [-51.29311, -22.81179], [-51.29987, -22.80765], [-51.30158, -22.80626], [-51.30342, -22.80257], [-51.30358, -22.80047], [-51.30206, -22.79927], [-51.30069, -22.79742], [-51.30067, -22.79673], [-51.30192, -22.79587], [-51.30246, -22.7948], [-51.30361, -22.7944], [-51.30866, -22.79414], [-51.30927, -22.79328], [-51.30799, -22.79218], [-51.30478, -22.79197], [-51.30396, -22.79283], [-51.3019, -22.79424], [-51.29864, -22.79529], [-51.29568, -22.79561], [-51.29196, -22.79649], [-51.29006, -22.79641], [-51.28493, -22.79756], [-51.28146, -22.79732], [-51.28579, -22.79609], [-51.28932, -22.79457], [-51.29231, -22.79299], [-51.29348, -22.79137], [-51.2942, -22.78993], [-51.29369, -22.78768], [-51.29177, -22.78586], [-51.29334, -22.78592], [-51.2953, -22.78704], [-51.29856, -22.78814], [-51.30032, -22.7876], [-51.30235, -22.78635], [-51.30534, -22.78517], [-51.30751, -22.78047], [-51.30951, -22.77918], [-51.30975, -22.77779], [-51.30799, -22.77707], [-51.30687, -22.77726], [-51.30481, -22.77659], [-51.30248, -22.77691], [-51.29987, -22.77608], [-51.2987, -22.77469], [-51.2958, -22.77375], [-51.29457, -22.77277], [-51.29153, -22.7714], [-51.29119, -22.7707], [-51.28891, -22.77128], [-51.27129, -22.77107]]]}}, 
{"type": "Feature", "properties": {"CD_SETOR": "410080605000025", "CD_SIT": "9", "NM_DIST": "Alvorada do Sul", "NM_SUBDIST": null}, "geometry": {"type": "Polygon", "coordinates": [[[-51.21374, -22.72367], [-51.20545, -22.72745], [-51.2027, -22.72817], [-51.19467, -22.72933], [-51.19198, -22.72868], [-51.18702, -22.72989], [-51.18253, -22.73226], [-51.17596, -22.73881], [-51.17729, -22.74081], [-51.17673, -22.74241], [-51.17709, -22.74394], [-51.17569, -22.74489], [-51.17533, -22.74668], [-51.17605, -22.74735], [-51.17614, -22.74972], [-51.17485, -22.75102], [-51.18093, -22.75944], [-51.18254, -22.76281], [-51.18407, -22.76855], [-51.18408, -22.77153], [-51.18223, -22.77416], [-51.17946, -22.77617], [-51.1771, -22.78096], [-51.1765, -22.7841], [-51.17675, -22.79232], [-51.17635, -22.7953], [-51.17527, -22.79847], [-51.17278, -22.80251], [-51.17194, -22.80609], [-51.16857, -22.81115], [-51.16592, -22.81395], [-51.16508, -22.81583], [-51.16489, -22.8221], [-51.16562, -22.82547], [-51.16872, -22.83175], [-51.16921, -22.83582], [-51.16716, -22.83966], [-51.16346, -22.84069], [-51.15965, -22.84315], [-51.158, -22.84534], [-51.1578, -22.84754], [-51.15599, -22.84892], [-51.15636, -22.85073], [-51.15475, -22.85461], [-51.1557, -22.85366], [-51.15651, -22.85318], [-51.15779, -22.8547], [-51.15843, -22.85319], [-51.15772, -22.85274], [-51.15736, -22.85164], [-51.15779, -22.85079], [-51.15863, -22.84969], [-51.15923, -22.84953], [-51.1593, -22.84924], [-51.15866, -22.84853], [-51.15876, -22.84785], [-51.16102, -22.84663], [-51.16224, -22.84647], [-51.16378, -22.84574], [-51.16476, -22.84491], [-51.16649, -22.84447], [-51.16784, -22.84375], [-51.169, -22.84436], [-51.1697, -22.84412], [-51.16986, -22.84327], [-51.1707, -22.84245], [-51.17058, -22.84133], [-51.17088, -22.84029], [-51.17176, -22.83956], [-51.1722, -22.83939], [-51.17248, -22.83894], [-51.1743, -22.83825], [-51.17585, -22.8383], [-51.17501, -22.83734], [-51.17405, -22.83671], [-51.17382, -22.83582], [-51.17466, -22.83349], [-51.17509, -22.83321], [-51.17495, -22.83247], [-51.17454, -22.83222], [-51.17431, -22.83159], [-51.17445, -22.83093], [-51.174, -22.8291], [-51.17304, -22.82803], [-51.17327, -22.82705], [-51.17303, -22.82645], [-51.17201, -22.82617], [-51.17119, -22.8251], [-51.17054, -22.82511], [-51.17, -22.82459], [-51.16934, -22.82358], [-51.16871, -22.82298], [-51.16891, -22.82235], [-51.16879, -22.82187], [-51.16914, -22.82089], [-51.16981, -22.81979], [-51.16994, -22.81844], [-51.17046, -22.81776], [-51.17204, -22.81704], [-51.17483, -22.81687], [-51.17534, -22.81711], [-51.1758, -22.81652], [-51.17563, -22.81534], [-51.17483, -22.81403], [-51.17425, -22.81232], [-51.17439, -22.81095], [-51.17505, -22.80995], [-51.17529, -22.80922], [-51.17665, -22.80787], [-51.17725, -22.80696], [-51.17744, -22.80607], [-51.17909, -22.80241], [-51.18011, -22.80122], [-51.18042, -22.79962], [-51.18122, -22.79766], [-51.1813, -22.79634], [-51.18075, -22.79454], [-51.18104, -22.79275], [-51.18189, -22.7912], [-51.18277, -22.79002], [-51.18282, -22.78934], [-51.1825, -22.78784], [-51.18251, -22.78653], [-51.18401, -22.78419], [-51.18444, -22.78274], [-51.18493, -22.78172], [-51.18577, -22.78109], [-51.18674, -22.78109], [-51.18779, -22.78161], [-51.18954, -22.78377], [-51.19126, -22.78546], [-51.19186, -22.78661], [-51.19231, -22.78799], [-51.19256, -22.79007], [-51.19309, -22.791], [-51.19488, -22.79106], [-51.19602, -22.79137], [-51.19729, -22.79206], [-51.19793, -22.79281], [-51.19793, -22.79386], [-51.1977, -22.79483], [-51.1967, -22.79606], [-51.19543, -22.79697], [-51.19368, -22.79757], [-51.19285, -22.79871], [-51.19298, -22.79924], [-51.19403, -22.79991], [-51.1946, -22.80066], [-51.19435, -22.8032], [-51.19412, -22.80396], [-51.193, -22.80473], [-51.19405, -22.8063], [-51.195, -22.80839], [-51.19544, -22.80893], [-51.19822, -22.8107], [-51.1987, -22.8118], [-51.19815, -22.81379], [-51.19687, -22.81571], [-51.19513, -22.81683], [-51.19366, -22.81723], [-51.19268, -22.81817], [-51.19449, -22.81857], [-51.19575, -22.81937], [-51.19604, -22.82063], [-51.1954, -22.82156], [-51.19516, -22.82266], [-51.19519, -22.82466], [-51.19489, -22.82603], [-51.19332, -22.82755], [-51.19278, -22.82842], [-51.19497, -22.82831], [-51.19602, -22.82919], [-51.19596, -22.83109], [-51.1965, -22.83248], [-51.19663, -22.83326], [-51.19594, -22.83406], [-51.19511, -22.83446], [-51.19521, -22.83489], [-51.1962, -22.83483], [-51.1973, -22.83502], [-51.19856, -22.83665], [-51.19922, -22.83812], [-51.19904, -22.83892], [-51.1955, -22.84558], [-51.19697, -22.84582], [-51.19707, -22.84625], [-51.19664, -22.84716], [-51.19718, -22.85047], [-51.1975, -22.85117], [-51.19777, -22.84994], [-51.19777, -22.84804], [-51.19841, -22.84596], [-51.19878, -22.84548], [-51.1987, -22.84449], [-51.19929, -22.8424], [-51.20087, -22.84056], [-51.20119, -22.83984], [-51.2025, -22.84034], [-51.20373, -22.84021], [-51.20434, -22.84069], [-51.20528, -22.84058], [-51.20701, -22.8423], [-51.20774, -22.842], [-51.20691, -22.84072], [-51.20589, -22.83981], [-51.20541, -22.83962], [-51.20474, -22.83842], [-51.20148, -22.83615], [-51.20068, -22.83454], [-51.20005, -22.83215], [-51.20069, -22.82967], [-51.20269, -22.8274], [-51.20641, -22.82643], [-51.20774, -22.82689], [-51.20571, -22.82539], [-51.20438, -22.82547], [-51.20266, -22.82526], [-51.20103, -22.82446], [-51.20013, -22.82299], [-51.20109, -22.82089], [-51.20237, -22.81907], [-51.20344, -22.81904], [-51.20499, -22.8199], [-51.20675, -22.81982], [-51.20865, -22.8195], [-51.21127, -22.81851], [-51.20761, -22.81806], [-51.20643, -22.81709], [-51.20566, -22.81578], [-51.20558, -22.81453], [-51.20611, -22.81314], [-51.20627, -22.81167], [-51.20665, -22.81102], [-51.20555, -22.80926], [-51.20456, -22.80872], [-51.20317, -22.80733], [-51.20288, -22.80637], [-51.20136, -22.80495], [-51.20087, -22.80303], [-51.20136, -22.80065], [-51.20216, -22.79955], [-51.20579, -22.79763], [-51.20718, -22.79734], [-51.20921, -22.79784], [-51.20686, -22.79378], [-51.2067, -22.79281], [-51.20713, -22.79115], [-51.20582, -22.78711], [-51.20633, -22.78495], [-51.20718, -22.78324], [-51.20753, -22.78146], [-51.2071, -22.78074], [-51.20464, -22.7798], [-51.2013, -22.7774], [-51.19705, -22.77382], [-51.19719, -22.77237], [-51.19817, -22.77085], [-51.19871, -22.76942], [-51.19777, -22.76835], [-51.19507, -22.76728], [-51.19296, -22.76536], [-51.1908, -22.76472], [-51.19034, -22.76204], [-51.19069, -22.75956], [-51.19224, -22.75802], [-51.19296, -22.7558], [-51.19256, -22.75383], [-51.19168, -22.75268], [-51.1839, -22.74862], [-51.18228, -22.74719], [-51.18207, -22.74556], [-51.18257, -22.74342], [-51.183, -22.74248], [-51.18447, -22.74251], [-51.18573, -22.74299], [-51.18848, -22.74323], [-51.18984, -22.74264], [-51.19166, -22.74099], [-51.19385, -22.73949], [-51.19452, -22.73858], [-51.19538, -22.73802], [-51.19639, -22.73914], [-51.19709, -22.74134], [-51.1976, -22.74186], [-51.19886, -22.74265], [-51.19991, -22.74227], [-51.20357, -22.73969], [-51.20462, -22.74027], [-51.20505, -22.74161], [-51.20669, -22.74271], [-51.20735, -22.7443], [-51.20792, -22.74674], [-51.20852, -22.74726], [-51.20866, -22.74762], [-51.20967, -22.74814], [-51.21039, -22.74916], [-51.21224, -22.75107], [-51.21237, -22.7519], [-51.2122, -22.75292], [-51.21125, -22.75346], [-51.21128, -22.75405], [-51.21045, -22.75852], [-51.21063, -22.75993], [-51.21158, -22.7619], [-51.21244, -22.76306], [-51.21422, -22.76448], [-51.21705, -22.76624], [-51.21889, -22.7682], [-51.22009, -22.76856], [-51.22181, -22.76852], [-51.22321, -22.76777], [-51.22572, -22.76579], [-51.22747, -22.7651], [-51.22996, -22.76497], [-51.23102, -22.76537], [-51.23261, -22.76667], [-51.23482, -22.77062], [-51.2353, -22.77234], [-51.23545, -22.77551], [-51.23536, -22.77611], [-51.23496, -22.77675], [-51.23542, -22.77749], [-51.23549, -22.77839], [-51.2353, -22.77942], [-51.23429, -22.78237], [-51.23481, -22.78293], [-51.23556, -22.78285], [-51.2366, -22.78097], [-51.23825, -22.77916], [-51.23959, -22.77884], [-51.23997, -22.77856], [-51.24019, -22.77804], [-51.23902, -22.77713], [-51.23849, -22.777], [-51.2386, -22.77642], [-51.23826, -22.7755], [-51.23797, -22.77525], [-51.23792, -22.77476], [-51.23901, -22.77353], [-51.23821, -22.77149], [-51.2388, -22.77096], [-51.2388, -22.77075], [-51.23845, -22.77033], [-51.23696, -22.77072], [-51.23652, -22.77044], [-51.23575, -22.76859], [-51.23546, -22.76712], [-51.23563, -22.76669], [-51.23669, -22.76607], [-51.23659, -22.76578], [-51.23577, -22.76524], [-51.23583, -22.76495], [-51.2353, -22.76429], [-51.23517, -22.76381], [-51.23531, -22.76317], [-51.2346, -22.762], [-51.23283, -22.76179], [-51.23056, -22.7609], [-51.22841, -22.76029], [-51.2263, -22.7599], [-51.22341, -22.75962], [-51.22271, -22.7593], [-51.22238, -22.76011], [-51.22109, -22.76038], [-51.22033, -22.75977], [-51.22046, -22.75894], [-51.22139, -22.75821], [-51.2218, -22.75767], [-51.22192, -22.75626], [-51.22293, -22.75443], [-51.2239, -22.75141], [-51.22415, -22.74783], [-51.22358, -22.74455], [-51.22356, -22.74101], [-51.22331, -22.73933], [-51.22338, -22.73714], [-51.22479, -22.7352], [-51.22555, -22.73287], [-51.22638, -22.73147], [-51.21592, -22.72262], [-51.21374, -22.72367]]]}}, 
{"type": "Feature", "properties": {"CD_SETOR": "410080605000026", "CD_SIT": "9", "NM_DIST": "Alvorada do Sul", "NM_SUBDIST": null}, "geometry": {"type": "Polygon", "coordinates": [[[-51.3096, -22.80806], [-51.30895, -22.80946], [-51.30647, -22.81069], [-51.30508, -22.8128], [-51.30345, -22.81357], [-51.30243, -22.81427], [-51.30446, -22.81507], [-51.30532, -22.81571], [-51.30553, -22.81678], [-51.30537, -22.81755], [-51.30687, -22.81812], [-51.30802, -22.81929], [-51.30852, -22.82055], [-51.30863, -22.82194], [-51.3077, -22.82287], [-51.30754, -22.82413], [-51.3081, -22.82504], [-51.3085, -22.82812], [-51.30842, -22.83045], [-51.30762, -22.8339], [-51.30684, -22.83579], [-51.3074, -22.8371], [-51.30663, -22.83799], [-51.30802, -22.83948], [-51.30823, -22.84153], [-51.30754, -22.8433], [-51.30633, -22.84479], [-51.30588, -22.84583], [-51.30783, -22.84543], [-51.31058, -22.84385], [-51.31037, -22.84102], [-51.3109, -22.83816], [-51.31235, -22.83527], [-51.31304, -22.83289], [-51.31448, -22.83193], [-51.31619, -22.83252], [-51.31672, -22.83407], [-51.31924, -22.83509], [-51.32316, -22.83506], [-51.32605, -22.83554], [-51.32797, -22.83722], [-51.32858, -22.83981], [-51.33144, -22.83813], [-51.33355, -22.83839], [-51.33604, -22.84107], [-51.33647, -22.84262], [-51.33505, -22.84449], [-51.33254, -22.8458], [-51.33075, -22.84751], [-51.32885, -22.84989], [-51.32757, -22.85119], [-51.32604, -22.85232], [-51.32604, -22.85301], [-51.33024, -22.85424], [-51.33155, -22.85483], [-51.33123, -22.85582], [-51.3297, -22.8563], [-51.32786, -22.85768], [-51.32746, -22.85947], [-51.32813, -22.8612], [-51.32944, -22.86166], [-51.33125, -22.86299], [-51.3323, -22.86465], [-51.33192, -22.86639], [-51.33061, -22.86716], [-51.3281, -22.86723], [-51.32618, -22.86889], [-51.32634, -22.86923], [-51.32794, -22.86982], [-51.32897, -22.86984], [-51.32765, -22.86848], [-51.3288, -22.86797], [-51.33418, -22.86821], [-51.33513, -22.86739], [-51.33499, -22.86553], [-51.33253, -22.86143], [-51.33035, -22.85919], [-51.33041, -22.85837], [-51.33116, -22.85749], [-51.3336, -22.85553], [-51.33367, -22.85454], [-51.33019, -22.85203], [-51.32999, -22.85133], [-51.33161, -22.84903], [-51.33386, -22.84738], [-51.3376, -22.84586], [-51.3395, -22.84444], [-51.3399, -22.84311], [-51.33942, -22.84059], [-51.33737, -22.83759], [-51.33491, -22.83589], [-51.32028, -22.83195], [-51.31518, -22.82823], [-51.31251, -22.82696], [-51.3109, -22.82353], [-51.31346, -22.82079], [-51.31298, -22.81937], [-51.31198, -22.8189], [-51.31106, -22.81775], [-51.30853, -22.81258], [-51.30743, -22.81177], [-51.30754, -22.81054], [-51.3114, -22.80983], [-51.31343, -22.80877], [-51.31268, -22.80729], [-51.3096, -22.80806]]]}}, 
{"type": "Feature", "properties": {"CD_SETOR": "410080605000027", "CD_SIT": "9", "NM_DIST": "Alvorada do Sul", "NM_SUBDIST": null}, "geometry": {"type": "Polygon", "coordinates": [[[-51.29947, -22.77478], [-51.2987, -22.77469], [-51.29987, -22.77608], [-51.30248, -22.77691], [-51.30481, -22.77659], [-51.30687, -22.77726], [-51.30799, -22.77707], [-51.30975, -22.77779], [-51.30951, -22.77918], [-51.30751, -22.78047], [-51.30534, -22.78517], [-51.30235, -22.78635], [-51.30032, -22.7876], [-51.29856, -22.78814], [-51.2953, -22.78704], [-51.29334, -22.78592], [-51.29177, -22.78586], [-51.29369, -22.78768], [-51.2942, -22.78993], [-51.29348, -22.79137], [-51.29231, -22.79299], [-51.28932, -22.79457], [-51.28579, -22.79609], [-51.28146, -22.79732], [-51.28493, -22.79756], [-51.29006, -22.79641], [-51.29196, -22.79649], [-51.29568, -22.79561], [-51.29864, -22.79529], [-51.3019, -22.79424], [-51.30396, -22.79283], [-51.30478, -22.79197], [-51.30799, -22.79218], [-51.30927, -22.79328], [-51.30866, -22.79414], [-51.30361, -22.7944], [-51.30246, -22.7948], [-51.30192, -22.79587], [-51.30067, -22.79673], [-51.30069, -22.79742], [-51.30206, -22.79927], [-51.30358, -22.80047], [-51.30342, -22.80257], [-51.30158, -22.80626], [-51.29987, -22.80765], [-51.29311, -22.81179], [-51.29038, -22.814], [-51.28987, -22.81477], [-51.28914, -22.81675], [-51.28716, -22.82023], [-51.28933, -22.81865], [-51.29128, -22.81563], [-51.2965, -22.81306], [-51.29877, -22.8124], [-51.30309, -22.81063], [-51.30448, -22.81027], [-51.30628, -22.80794], [-51.30806, -22.8068], [-51.3096, -22.80806], [-51.31268, -22.80729], [-51.31343, -22.80877], [-51.31387, -22.80854], [-51.31459, -22.80727], [-51.31416, -22.80454], [-51.31465, -22.80323], [-51.31459, -22.80037], [-51.31345, -22.80012], [-51.30898, -22.80072], [-51.30801, -22.79851], [-51.30742, -22.79509], [-51.3089, -22.79469], [-51.3127, -22.79531], [-51.31376, -22.79432], [-51.31328, -22.79289], [-51.31379, -22.79173], [-51.31179, -22.78698], [-51.31257, -22.78619], [-51.31185, -22.78514], [-51.31256, -22.78391], [-51.31376, -22.78304], [-51.31407, -22.78154], [-51.31501, -22.78085], [-51.31762, -22.78064], [-51.32048, -22.77959], [-51.32023, -22.77818], [-51.31782, -22.7756], [-51.31678, -22.77473], [-51.31554, -22.7746], [-51.31537, -22.77353], [-51.31601, -22.77227], [-51.31534, -22.77139], [-51.31629, -22.77064], [-51.31578, -22.76968], [-51.31431, -22.76978], [-51.31312, -22.76908], [-51.30802, -22.77264], [-51.30297, -22.77517], [-51.29947, -22.77478]]]}}, 
{"type": "Feature", "properties": {"CD_SETOR": "410080610000001", "CD_SIT": "1", "NM_DIST": "Esperança do Norte", "NM_SUBDIST": null}, "geometry": {"type": "Polygon", "coordinates": [[[-51.28403, -22.71976], [-51.28402, -22.72056], [-51.28467, -22.72057], [-51.28462, -22.72163], [-51.28587, -22.72159], [-51.28586, -22.7214], [-51.28602, -22.72139], [-51.286, -22.72066], [-51.28726, -22.72064], [-51.28725, -22.71965], [-51.28744, -22.71925], [-51.28945, -22.71927], [-51.28947, -22.71809], [-51.28481, -22.71818], [-51.28477, -22.71837], [-51.28406, -22.71839], [-51.28403, -22.71976]]]}}, 
{"type": "Feature", "properties": {"CD_SETOR": "410080610000002", "CD_SIT": "3", "NM_DIST": "Esperança do Norte", "NM_SUBDIST": null}, "geometry": {"type": "Polygon", "coordinates": [[[-51.23901, -22.77353], [-51.24104, -22.77154], [-51.24044, -22.77033], [-51.23966, -22.77052], [-51.23915, -22.76982], [-51.23932, -22.76302], [-51.23899, -22.76082], [-51.23448, -22.75536], [-51.23268, -22.75291], [-51.23255, -22.75241], [-51.23291, -22.74558], [-51.23224, -22.73818], [-51.23216, -22.7351], [-51.23072, -22.73361], [-51.22638, -22.73147], [-51.22555, -22.73287], [-51.22479, -22.7352], [-51.22338, -22.73714], [-51.22331, -22.73933], [-51.22356, -22.74101], [-51.22358, -22.74455], [-51.22415, -22.74783], [-51.2239, -22.75141], [-51.22293, -22.75443], [-51.22192, -22.75626], [-51.2218, -22.75767], [-51.22139, -22.75821], [-51.22046, -22.75894], [-51.22033, -22.75977], [-51.22109, -22.76038], [-51.22238, -22.76011], [-51.22271, -22.7593], [-51.22341, -22.75962], [-51.2263, -22.7599], [-51.22841, -22.76029], [-51.23056, -22.7609], [-51.23283, -22.76179], [-51.2346, -22.762], [-51.23531, -22.76317], [-51.23517, -22.76381], [-51.2353, -22.76429], [-51.23583, -22.76495], [-51.23577, -22.76524], [-51.23659, -22.76578], [-51.23669, -22.76607], [-51.23563, -22.76669], [-51.23546, -22.76712], [-51.23575, -22.76859], [-51.23652, -22.77044], [-51.23696, -22.77072], [-51.23845, -22.77033], [-51.23863, -22.77048], [-51.2388, -22.77096], [-51.23821, -22.77149], [-51.23901, -22.77353]]]}}, 
{"type": "Feature", "properties": {"CD_SETOR": "410080610000006", "CD_SIT": "8", "NM_DIST": "Esperança do Norte", "NM_SUBDIST": null}, "geometry": {"type": "Polygon", "coordinates": [[[-51.28973, -22.71927], [-51.2879, -22.72085], [-51.28638, -22.7226], [-51.28517, -22.7243], [-51.28338, -22.72808], [-51.28284, -22.73016], [-51.28079, -22.74397], [-51.27952, -22.7508], [-51.27946, -22.7521], [-51.27771, -22.7604], [-51.27607, -22.76409], [-51.27129, -22.77107], [-51.28891, -22.77128], [-51.29119, -22.7707], [-51.29153, -22.7714], [-51.29457, -22.77277], [-51.2958, -22.77375], [-51.29849, -22.77467], [-51.29947, -22.77478], [-51.30019, -22.77368], [-51.2988, -22.77218], [-51.29794, -22.76967], [-51.29896, -22.7701], [-51.30211, -22.77084], [-51.30436, -22.77111], [-51.3043, -22.76871], [-51.30639, -22.76753], [-51.30569, -22.76587], [-51.30564, -22.76357], [-51.30815, -22.76097], [-51.31093, -22.7614], [-51.31435, -22.76076], [-51.3174, -22.76054], [-51.3206, -22.7615], [-51.32285, -22.76006], [-51.32424, -22.75685], [-51.32397, -22.75472], [-51.32397, -22.75162], [-51.32739, -22.74958], [-51.32766, -22.74847], [-51.32531, -22.74725], [-51.32253, -22.74634], [-51.32162, -22.74313], [-51.3206, -22.73843], [-51.319, -22.7357], [-51.31608, -22.73452], [-51.31383, -22.73585], [-51.31214, -22.7374], [-51.31171, -22.73871], [-51.31112, -22.73904], [-51.31081, -22.73876], [-51.30966, -22.73637], [-51.30884, -22.73556], [-51.30729, -22.73626], [-51.30704, -22.73564], [-51.30758, -22.73447], [-51.30782, -22.73336], [-51.30729, -22.73291], [-51.30636, -22.73302], [-51.306, -22.73283], [-51.30575, -22.73191], [-51.30501, -22.73127], [-51.30381, -22.7293], [-51.30464, -22.72888], [-51.30614, -22.72851], [-51.30741, -22.72849], [-51.30905, -22.72823], [-51.31051, -22.72778], [-51.31244, -22.72689], [-51.31408, -22.72581], [-51.31599, -22.72402], [-51.31742, -22.72191], [-51.31913, -22.71897], [-51.32044, -22.71579], [-51.3202, -22.71489], [-51.31957, -22.71424], [-51.31727, -22.71328], [-51.3199, -22.71281], [-51.32104, -22.71218], [-51.32323, -22.71296], [-51.32442, -22.71356], [-51.32854, -22.71431], [-51.33031, -22.71416], [-51.33121, -22.71379], [-51.33181, -22.71308], [-51.33281, -22.71283], [-51.33395, -22.71209], [-51.3347, -22.71101], [-51.33484, -22.71013], [-51.3346, -22.70938], [-51.32989, -22.70371], [-51.32887, -22.70259], [-51.3285, -22.70238], [-51.32836, -22.70204], [-51.32972, -22.70236], [-51.33122, -22.7025], [-51.33224, -22.70187], [-51.33324, -22.70075], [-51.33392, -22.69962], [-51.33444, -22.69835], [-51.33408, -22.69544], [-51.33351, -22.69505], [-51.33182, -22.69535], [-51.33089, -22.69469], [-51.33093, -22.69344], [-51.33161, -22.69361], [-51.33295, -22.69298], [-51.33361, -22.69178], [-51.33455, -22.69076], [-51.33491, -22.68957], [-51.33471, -22.68883], [-51.32917, -22.69047], [-51.32689, -22.69142], [-51.324, -22.69313], [-51.28973, -22.71927]]]}}, 
{"type": "Feature", "properties": {"CD_SETOR": "410080610000007", "CD_SIT": "8", "NM_DIST": "Esperança do Norte", "NM_SUBDIST": null}, "geometry": {"type": "Polygon", "coordinates": [[[-51.24082, -22.72111], [-51.24403, -22.7269], [-51.25023, -22.72452], [-51.25799, -22.72235], [-51.26286, -22.72059], [-51.28403, -22.71976], [-51.28406, -22.71839], [-51.28477, -22.71837], [-51.28481, -22.71818], [-51.28947, -22.71809], [-51.28945, -22.71927], [-51.28973, -22.71927], [-51.324, -22.69313], [-51.32689, -22.69142], [-51.32917, -22.69047], [-51.33467, -22.68882], [-51.33419, -22.68817], [-51.33229, -22.6878], [-51.33148, -22.68736], [-51.33015, -22.68722], [-51.32939, -22.68685], [-51.32879, -22.68607], [-51.32787, -22.6854], [-51.32939, -22.68508], [-51.33065, -22.68457], [-51.33142, -22.68372], [-51.33276, -22.68294], [-51.33308, -22.68174], [-51.33212, -22.67995], [-51.33273, -22.67776], [-51.33273, -22.67656], [-51.33113, -22.67447], [-51.33075, -22.6733], [-51.33017, -22.67268], [-51.32878, -22.67354], [-51.32728, -22.67388], [-51.32685, -22.67426], [-51.32634, -22.67322], [-51.32501, -22.67306], [-51.32332, -22.67388], [-51.3229, -22.67461], [-51.32141, -22.67423], [-51.31983, -22.6741], [-51.31847, -22.67482], [-51.31758, -22.67466], [-51.31646, -22.67498], [-51.31558, -22.67493], [-51.31376, -22.6761], [-51.31235, -22.67661], [-51.31112, -22.67802], [-51.31192, -22.67882], [-51.31248, -22.67997], [-51.314, -22.68171], [-51.31587, -22.68262], [-51.31633, -22.68414], [-51.31558, -22.68612], [-51.31448, -22.68451], [-51.31339, -22.68422], [-51.31192, -22.68326], [-51.31005, -22.68254], [-51.30852, -22.68147], [-51.30671, -22.68048], [-51.30479, -22.68139], [-51.30345, -22.68245], [-51.30206, -22.68499], [-51.30206, -22.68819], [-51.3026, -22.68952], [-51.30295, -22.69166], [-51.29912, -22.68846], [-51.29766, -22.68803], [-51.29616, -22.68846], [-51.29515, -22.6884], [-51.29349, -22.68955], [-51.29133, -22.69156], [-51.29028, -22.69369], [-51.29034, -22.69581], [-51.28954, -22.69613], [-51.28876, -22.69671], [-51.28831, -22.69818], [-51.28809, -22.69979], [-51.28767, -22.69893], [-51.28732, -22.69567], [-51.2866, -22.69423], [-51.28502, -22.69369], [-51.28283, -22.69407], [-51.28157, -22.69522], [-51.28026, -22.69597], [-51.27831, -22.69794], [-51.27802, -22.69949], [-51.27724, -22.69949], [-51.27572, -22.70067], [-51.27353, -22.70203], [-51.27275, -22.70382], [-51.27305, -22.70537], [-51.272, -22.70433], [-51.27061, -22.70473], [-51.26832, -22.70479], [-51.26874, -22.70436], [-51.27102, -22.70305], [-51.27182, -22.70172], [-51.27267, -22.70084], [-51.27369, -22.69929], [-51.27494, -22.69835], [-51.277, -22.69627], [-51.27925, -22.69244], [-51.28048, -22.69158], [-51.28267, -22.69043], [-51.28507, -22.68965], [-51.28542, -22.68834], [-51.2867, -22.68799], [-51.28809, -22.68661], [-51.28967, -22.6854], [-51.29082, -22.68492], [-51.29125, -22.68391], [-51.29111, -22.68294], [-51.29135, -22.68177], [-51.2924, -22.68113], [-51.29346, -22.68091], [-51.29437, -22.68206], [-51.29518, -22.68195], [-51.29619, -22.68102], [-51.29635, -22.67923], [-51.2955, -22.6791], [-51.29312, -22.67955], [-51.29077, -22.67851], [-51.2894, -22.67912], [-51.28927, -22.68081], [-51.28775, -22.68161], [-51.28646, -22.68353], [-51.28511, -22.68518], [-51.28225, -22.68553], [-51.27968, -22.68612], [-51.28142, -22.68475], [-51.28246, -22.68302], [-51.28243, -22.68085], [-51.28195, -22.67909], [-51.27952, -22.67893], [-51.27794, -22.67992], [-51.27621, -22.68136], [-51.27532, -22.68093], [-51.2718, -22.6808], [-51.26899, -22.68144], [-51.26715, -22.68291], [-51.2661, -22.68331], [-51.26584, -22.68203], [-51.26506, -22.68072], [-51.2637, -22.68013], [-51.26188, -22.68077], [-51.26039, -22.68464], [-51.25897, -22.68504], [-51.25779, -22.68603], [-51.25616, -22.68632], [-51.25483, -22.68785], [-51.25595, -22.68862], [-51.25678, -22.68972], [-51.25849, -22.69036], [-51.26036, -22.69049], [-51.26108, -22.69172], [-51.25958, -22.6925], [-51.25885, -22.69382], [-51.25936, -22.69588], [-51.25936, -22.69727], [-51.25906, -22.69818], [-51.25575, -22.69711], [-51.25516, -22.6978], [-51.25495, -22.69927], [-51.25385, -22.70042], [-51.25361, -22.70171], [-51.2527, -22.70384], [-51.25035, -22.70197], [-51.24928, -22.70152], [-51.24851, -22.70243], [-51.2492, -22.70358], [-51.2503, -22.7046], [-51.2504, -22.70535], [-51.25112, -22.70722], [-51.25086, -22.70832], [-51.24928, -22.70848], [-51.2488, -22.70909], [-51.24848, -22.71051], [-51.24802, -22.71067], [-51.24639, -22.71038], [-51.24492, -22.71048], [-51.24517, -22.71233], [-51.24452, -22.71329], [-51.24439, -22.71476], [-51.24514, -22.71674], [-51.24428, -22.71802], [-51.24303, -22.71781], [-51.24252, -22.7196], [-51.24082, -22.72111]]]}}, 
{"type": "Feature", "properties": {"CD_SETOR": "410080610000008", "CD_SIT": "8", "NM_DIST": "Esperança do Norte", "NM_SUBDIST": null}, "geometry": {"type": "Polygon", "coordinates": [[[-51.28403, -22.71976], [-51.26286, -22.72059], [-51.25799, -22.72235], [-51.25023, -22.72452], [-51.24403, -22.7269], [-51.24093, -22.72131], [-51.23982, -22.72319], [-51.23977, -22.72519], [-51.23811, -22.72717], [-51.23921, -22.72952], [-51.24092, -22.73088], [-51.24172, -22.73126], [-51.24185, -22.73299], [-51.24239, -22.73488], [-51.24209, -22.7374], [-51.24084, -22.73571], [-51.23977, -22.73505], [-51.23824, -22.73558], [-51.2357, -22.73563], [-51.23517, -22.7374], [-51.23498, -22.73887], [-51.23279, -22.73571], [-51.23216, -22.73521], [-51.23224, -22.73818], [-51.23291, -22.74558], [-51.23255, -22.75241], [-51.23268, -22.75291], [-51.23448, -22.75536], [-51.23899, -22.76082], [-51.23932, -22.76302], [-51.23915, -22.76982], [-51.23966, -22.77052], [-51.24044, -22.77033], [-51.24104, -22.77154], [-51.23961, -22.77298], [-51.24212, -22.77455], [-51.24277, -22.77378], [-51.24403, -22.77383], [-51.24607, -22.77441], [-51.24786, -22.77369], [-51.25129, -22.77083], [-51.27129, -22.77107], [-51.27607, -22.76409], [-51.27771, -22.7604], [-51.27946, -22.7521], [-51.27952, -22.7508], [-51.28079, -22.74397], [-51.28284, -22.73016], [-51.28338, -22.72808], [-51.28517, -22.7243], [-51.28638, -22.7226], [-51.2879, -22.72085], [-51.28973, -22.71927], [-51.28744, -22.71925], [-51.28725, -22.71965], [-51.28726, -22.72064], [-51.286, -22.72066], [-51.28602, -22.72139], [-51.28586, -22.7214], [-51.28587, -22.72159], [-51.28462, -22.72163], [-51.28467, -22.72057], [-51.28402, -22.72056], [-51.28403, -22.71976]]]}}, 
{"type": "Feature", "properties": {"CD_SETOR": "410080610000009", "CD_SIT": "9", "NM_DIST": "Esperança do Norte", "NM_SUBDIST": null}, "geometry": {"type": "Polygon", "coordinates": [[[-51.33471, -22.68883], [-51.33491, -22.68957], [-51.33455, -22.69076], [-51.33361, -22.69178], [-51.33295, -22.69298], [-51.33161, -22.69361], [-51.33093, -22.69344], [-51.33089, -22.69469], [-51.33182, -22.69535], [-51.33351, -22.69505], [-51.33408, -22.69544], [-51.33444, -22.69835], [-51.33392, -22.69962], [-51.33324, -22.70075], [-51.33224, -22.70187], [-51.33122, -22.7025], [-51.32972, -22.70236], [-51.32836, -22.70204], [-51.3285, -22.70238], [-51.32887, -22.70259], [-51.32989, -22.70371], [-51.3346, -22.70938], [-51.33484, -22.71013], [-51.3347, -22.71101], [-51.33395, -22.71209], [-51.33281, -22.71283], [-51.33181, -22.71308], [-51.33121, -22.71379], [-51.33031, -22.71416], [-51.32854, -22.71431], [-51.32442, -22.71356], [-51.32323, -22.71296], [-51.32104, -22.71218], [-51.3199, -22.71281], [-51.31727, -22.71328], [-51.31957, -22.71424], [-51.3202, -22.71489], [-51.32044, -22.71579], [-51.31913, -22.71897], [-51.31742, -22.72191], [-51.31599, -22.72402], [-51.31408, -22.72581], [-51.31244, -22.72689], [-51.31051, -22.72778], [-51.30905, -22.72823], [-51.30741, -22.72849], [-51.30614, -22.72851], [-51.30464, -22.72888], [-51.30381, -22.7293], [-51.30501, -22.73127], [-51.30575, -22.73191], [-51.306, -22.73283], [-51.30636, -22.73302], [-51.30729, -22.73291], [-51.30782, -22.73336], [-51.30758, -22.73447], [-51.30704, -22.73564], [-51.30729, -22.73626], [-51.30884, -22.73556], [-51.30966, -22.73637], [-51.31081, -22.73876], [-51.31112, -22.73904], [-51.31171, -22.73871], [-51.31214, -22.7374], [-51.31383, -22.73585], [-51.31608, -22.73452], [-51.319, -22.7357], [-51.3206, -22.73843], [-51.32162, -22.74313], [-51.32253, -22.74634], [-51.32531, -22.74725], [-51.32766, -22.74847], [-51.32739, -22.74958], [-51.32397, -22.75162], [-51.32397, -22.75472], [-51.32424, -22.75685], [-51.32285, -22.76006], [-51.3206, -22.7615], [-51.3174, -22.76054], [-51.31435, -22.76076], [-51.31093, -22.7614], [-51.30815, -22.76097], [-51.30564, -22.76357], [-51.30569, -22.76587], [-51.30639, -22.76753], [-51.3043, -22.76871], [-51.30436, -22.77111], [-51.30211, -22.77084], [-51.29896, -22.7701], [-51.29794, -22.76967], [-51.2988, -22.77218], [-51.30019, -22.77368], [-51.29947, -22.77478], [-51.30297, -22.77517], [-51.30802, -22.77264], [-51.31312, -22.76908], [-51.31418, -22.76806], [-51.31479, -22.76514], [-51.31589, -22.76543], [-51.31693, -22.76431], [-51.31798, -22.76453], [-51.31918, -22.76552], [-51.32065, -22.76548], [-51.32079, -22.76677], [-51.32143, -22.76769], [-51.32518, -22.76783], [-51.3259, -22.76874], [-51.32684, -22.76823], [-51.32837, -22.76832], [-51.32815, -22.76577], [-51.32978, -22.7659], [-51.33084, -22.76476], [-51.3299, -22.76382], [-51.33006, -22.76267], [-51.33126, -22.76232], [-51.33229, -22.76282], [-51.33257, -22.76143], [-51.33254, -22.75998], [-51.33076, -22.75856], [-51.33101, -22.75518], [-51.33248, -22.75292], [-51.33259, -22.75163], [-51.3316, -22.74924], [-51.33548, -22.74854], [-51.33484, -22.74613], [-51.33504, -22.74479], [-51.33203, -22.74326], [-51.33248, -22.74219], [-51.33014, -22.74077], [-51.33046, -22.73911], [-51.33009, -22.73792], [-51.33104, -22.73726], [-51.33009, -22.7362], [-51.33264, -22.73548], [-51.33334, -22.73722], [-51.33651, -22.73745], [-51.33943, -22.73851], [-51.33934, -22.74004], [-51.3405, -22.7393], [-51.34148, -22.74], [-51.34068, -22.74134], [-51.34168, -22.74204], [-51.34293, -22.7408], [-51.34354, -22.73949], [-51.34348, -22.73836], [-51.34448, -22.73702], [-51.34395, -22.73361], [-51.3399, -22.72768], [-51.34009, -22.72293], [-51.34265, -22.72307], [-51.34287, -22.72167], [-51.34448, -22.72188], [-51.34495, -22.7204], [-51.34479, -22.71862], [-51.34554, -22.71764], [-51.34506, -22.7166], [-51.34598, -22.71566], [-51.34542, -22.71442], [-51.34867, -22.7147], [-51.35037, -22.71552], [-51.35235, -22.71537], [-51.35457, -22.71632], [-51.3559, -22.71544], [-51.35562, -22.71334], [-51.35448, -22.71119], [-51.3532, -22.71181], [-51.35262, -22.7108], [-51.35117, -22.71018], [-51.35028, -22.70894], [-51.34929, -22.70942], [-51.34811, -22.70918], [-51.34478, -22.70725], [-51.34515, -22.70609], [-51.34479, -22.7049], [-51.34589, -22.70423], [-51.34523, -22.70286], [-51.34301, -22.70183], [-51.34298, -22.70038], [-51.33921, -22.70216], [-51.33803, -22.70141], [-51.33684, -22.70226], [-51.33647, -22.70093], [-51.33689, -22.69994], [-51.33962, -22.69872], [-51.34131, -22.69649], [-51.34245, -22.69575], [-51.34168, -22.69328], [-51.33798, -22.69217], [-51.33596, -22.69199], [-51.338, -22.68895], [-51.33809, -22.68547], [-51.33929, -22.68486], [-51.33581, -22.68489], [-51.33471, -22.68883]]]}}, 
{"type": "Feature", "properties": {"CD_SETOR": "410080610000010", "CD_SIT": "9", "NM_DIST": "Esperança do Norte", "NM_SUBDIST": null}, "geometry": {"type": "Polygon", "coordinates": [[[-51.23453, -22.70975], [-51.24082, -22.72111], [-51.24252, -22.7196], [-51.24303, -22.71781], [-51.24428, -22.71802], [-51.24514, -22.71674], [-51.24439, -22.71476], [-51.24452, -22.71329], [-51.24517, -22.71233], [-51.24492, -22.71048], [-51.24639, -22.71038], [-51.24802, -22.71067], [-51.24848, -22.71051], [-51.2488, -22.70909], [-51.24928, -22.70848], [-51.25086, -22.70832], [-51.25112, -22.70722], [-51.2504, -22.70535], [-51.2503, -22.7046], [-51.2492, -22.70358], [-51.24851, -22.70243], [-51.24928, -22.70152], [-51.25035, -22.70197], [-51.2527, -22.70384], [-51.25361, -22.70171], [-51.25385, -22.70042], [-51.25495, -22.69927], [-51.25516, -22.6978], [-51.25575, -22.69711], [-51.25906, -22.69818], [-51.25936, -22.69727], [-51.25936, -22.69588], [-51.25885, -22.69382], [-51.25958, -22.6925], [-51.26108, -22.69172], [-51.26036, -22.69049], [-51.25849, -22.69036], [-51.25678, -22.68972], [-51.25595, -22.68862], [-51.25483, -22.68785], [-51.25616, -22.68632], [-51.25779, -22.68603], [-51.25897, -22.68504], [-51.26039, -22.68464], [-51.26188, -22.68077], [-51.2637, -22.68013], [-51.26506, -22.68072], [-51.26584, -22.68203], [-51.2661, -22.68331], [-51.26715, -22.68291], [-51.26899, -22.68144], [-51.2718, -22.6808], [-51.27532, -22.68093], [-51.27621, -22.68136], [-51.27794, -22.67992], [-51.27952, -22.67893], [-51.28195, -22.67909], [-51.28243, -22.68085], [-51.28246, -22.68302], [-51.28142, -22.68475], [-51.27968, -22.68612], [-51.28225, -22.68553], [-51.28511, -22.68518], [-51.28646, -22.68353], [-51.28775, -22.68161], [-51.28927, -22.68081], [-51.2894, -22.67912], [-51.29077, -22.67851], [-51.29312, -22.67955], [-51.2955, -22.6791], [-51.29635, -22.67923], [-51.29619, -22.68102], [-51.29518, -22.68195], [-51.29437, -22.68206], [-51.29346, -22.68091], [-51.2924, -22.68113], [-51.29135, -22.68177], [-51.29111, -22.68294], [-51.29125, -22.68391], [-51.29082, -22.68492], [-51.28967, -22.6854], [-51.28809, -22.68661], [-51.2867, -22.68799], [-51.28542, -22.68834], [-51.28507, -22.68965], [-51.28267, -22.69043], [-51.28048, -22.69158], [-51.27925, -22.69244], [-51.277, -22.69627], [-51.27494, -22.69835], [-51.27369, -22.69929], [-51.27267, -22.70084], [-51.27182, -22.70172], [-51.27102, -22.70305], [-51.26874, -22.70436], [-51.26832, -22.70479], [-51.27061, -22.70473], [-51.272, -22.70433], [-51.27305, -22.70537], [-51.27275, -22.70382], [-51.27353, -22.70203], [-51.27572, -22.70067], [-51.27724, -22.69949], [-51.27802, -22.69949], [-51.27831, -22.69794], [-51.28026, -22.69597], [-51.28157, -22.69522], [-51.28283, -22.69407], [-51.28502, -22.69369], [-51.2866, -22.69423], [-51.28732, -22.69567], [-51.28767, -22.69893], [-51.28809, -22.69979], [-51.28831, -22.69818], [-51.28876, -22.69671], [-51.28954, -22.69613], [-51.29034, -22.69581], [-51.29028, -22.69369], [-51.29133, -22.69156], [-51.29349, -22.68955], [-51.29515, -22.6884], [-51.29616, -22.68846], [-51.29766, -22.68803], [-51.29912, -22.68846], [-51.30295, -22.69166], [-51.3026, -22.68952], [-51.30206, -22.68819], [-51.30206, -22.68499], [-51.30345, -22.68245], [-51.30479, -22.68139], [-51.30671, -22.68048], [-51.30852, -22.68147], [-51.31005, -22.68254], [-51.31192, -22.68326], [-51.31339, -22.68422], [-51.31448, -22.68451], [-51.31558, -22.68612], [-51.31633, -22.68414], [-51.31587, -22.68262], [-51.314, -22.68171], [-51.31248, -22.67997], [-51.31192, -22.67882], [-51.31112, -22.67802], [-51.31235, -22.67661], [-51.31376, -22.6761], [-51.31558, -22.67493], [-51.31646, -22.67498], [-51.31758, -22.67466], [-51.31847, -22.67482], [-51.31983, -22.6741], [-51.32141, -22.67423], [-51.3229, -22.67461], [-51.32332, -22.67388], [-51.32501, -22.67306], [-51.32634, -22.67322], [-51.32685, -22.67426], [-51.32728, -22.67388], [-51.32878, -22.67354], [-51.33017, -22.67268], [-51.33075, -22.6733], [-51.33113, -22.67447], [-51.33273, -22.67656], [-51.33273, -22.67776], [-51.33212, -22.67995], [-51.33308, -22.68174], [-51.33276, -22.68294], [-51.33142, -22.68372], [-51.33065, -22.68457], [-51.32939, -22.68508], [-51.32787, -22.6854], [-51.32879, -22.68607], [-51.32939, -22.68685], [-51.33015, -22.68722], [-51.33148, -22.68736], [-51.33229, -22.6878], [-51.33419, -22.68817], [-51.33471, -22.68883], [-51.33581, -22.68489], [-51.33929, -22.68486], [-51.33854, -22.68126], [-51.33699, -22.67869], [-51.33448, -22.67868], [-51.33387, -22.6775], [-51.33423, -22.67646], [-51.33659, -22.67447], [-51.33657, -22.67306], [-51.33501, -22.67054], [-51.3349, -22.66904], [-51.33304, -22.66708], [-51.3207, -22.67057], [-51.31184, -22.67354], [-51.30649, -22.67449], [-51.29981, -22.67399], [-51.29719, -22.67321], [-51.28671, -22.6684], [-51.28143, -22.66648], [-51.27752, -22.66621], [-51.27279, -22.66621], [-51.2652, -22.6677], [-51.2587, -22.67188], [-51.25519, -22.67552], [-51.2524, -22.67944], [-51.24288, -22.68958], [-51.24012, -22.69641], [-51.23945, -22.70063], [-51.23776, -22.70576], [-51.23453, -22.70975]]]}}, 
{"type": "Feature", "properties": {"CD_SETOR": "410080610000011", "CD_SIT": "9", "NM_DIST": "Esperança do Norte", "NM_SUBDIST": null}, "geometry": {"type": "Polygon", "coordinates": [[[-51.21592, -22.72262], [-51.22638, -22.73147], [-51.23072, -22.73361], [-51.23279, -22.73571], [-51.23498, -22.73887], [-51.23517, -22.7374], [-51.2357, -22.73563], [-51.23824, -22.73558], [-51.23977, -22.73505], [-51.24084, -22.73571], [-51.24209, -22.7374], [-51.24239, -22.73488], [-51.24185, -22.73299], [-51.24172, -22.73126], [-51.24092, -22.73088], [-51.23921, -22.72952], [-51.23811, -22.72717], [-51.23977, -22.72519], [-51.23982, -22.72319], [-51.24093, -22.72131], [-51.23453, -22.70975], [-51.22834, -22.71602], [-51.22055, -22.72042], [-51.21592, -22.72262]]]}}]}