{"type": "FeatureCollection", "features": [
{"type": "Feature", "properties": {"CD_SETOR": "410302405000001", "CD_SIT": "1", "NM_DIST": "Boa Esperança do Iguaçu", "NM_SUBDIST": null}, "geometry": {"type": "Polygon", "coordinates": [[[-53.21677, -25.63648], [-53.22118, -25.63627], [-53.22108, -25.63565], [-53.22082, -25.6355], [-53.2204, -25.63485], [-53.21996, -25.63298], [-53.2164, -25.6328], [-53.214, -25.63197], [-53.21363, -25.63281], [-53.21405, -25.63297], [-53.21093, -25.63894], [-53.21208, -25.63946], [-53.21186, -25.63991], [-53.21281, -25.64016], [-53.21421, -25.63732], [-53.21499, -25.63735], [-53.21595, -25.63787], [-53.21637, -25.63786], [-53.21651, -25.63765], [-53.21649, -25.63649], [-53.21677, -25.63648]]]}}, 
{"type": "Feature", "properties": {"CD_SETOR": "410302405000002", "CD_SIT": "1", "NM_DIST": "Boa Esperança do Iguaçu", "NM_SUBDIST": null}, "geometry": {"type": "Polygon", "coordinates": [[[-53.21187, -25.63936], [-53.21093, -25.63894], [-53.21405, -25.63297], [-53.21363, -25.63281], [-53.214, -25.63197], [-53.2164, -25.6328], [-53.21996, -25.63298], [-53.22013, -25.63272], [-53.22001, -25.63243], [-53.21906, -25.63193], [-53.21784, -25.63165], [-53.21734, -25.63129], [-53.2173, -25.63098], [-53.21638, -25.63034], [-53.21575, -25.63026], [-53.21458, -25.63053], [-53.21262, -25.62976], [-53.21197, -25.63103], [-53.21311, -25.63162], [-53.2089, -25.64037], [-53.20947, -25.64054], [-53.21187, -25.63936]]]}}, 
{"type": "Feature", "properties": {"CD_SETOR": "410302405000003", "CD_SIT": "1", "NM_DIST": "Boa Esperança do Iguaçu", "NM_SUBDIST": null}, "geometry": {"type": "Polygon", "coordinates": [[[-53.21208, -25.63946], [-53.21187, -25.63936], [-53.20942, -25.64058], [-53.21097, -25.64175], [-53.21075, -25.64221], [-53.21118, -25.64251], [-53.21146, -25.64229], [-53.21174, -25.64248], [-53.21362, -25.64206], [-53.21428, -25.64147], [-53.21509, -25.64035], [-53.21473, -25.63741], [-53.21421, -25.63732], [-53.21281, -25.64016], [-53.21186, -25.63991], [-53.21208, -25.63946]]]}}, 
{"type": "Feature", "properties": {"CD_SETOR": "410302405000004", "CD_SIT": "8", "NM_DIST": "Boa Esperança do Iguaçu", "NM_SUBDIST": null}, "geometry": {"type": "Polygon", "coordinates": [[[-53.1742, -25.60309], [-53.17411, -25.60471], [-53.17394, -25.60491], [-53.17271, -25.605], [-53.17097, -25.60597], [-53.17038, -25.60661], [-53.16974, -25.60801], [-53.1688, -25.60866], [-53.16818, -25.60889], [-53.16656, -25.6091], [-53.16582, -25.60902], [-53.1652, -25.60882], [-53.16372, -25.60779], [-53.16104, -25.60713], [-53.15988, -25.60746], [-53.15961, -25.60779], [-53.15981, -25.60871], [-53.15992, -25.61087], [-53.16076, -25.61194], [-53.16178, -25.61269], [-53.16272, -25.61296], [-53.16489, -25.61286], [-53.16654, -25.61257], [-53.16714, -25.61299], [-53.1674, -25.6134], [-53.16768, -25.61413], [-53.16783, -25.61523], [-53.1673, -25.61637], [-53.16605, -25.61636], [-53.16447, -25.61672], [-53.16356, -25.61656], [-53.16144, -25.61542], [-53.15996, -25.61532], [-53.15901, -25.61583], [-53.15874, -25.6162], [-53.1588, -25.61674], [-53.15924, -25.61709], [-53.16144, -25.61724], [-53.162, -25.61757], [-53.16305, -25.6187], [-53.16307, -25.61922], [-53.16259, -25.61966], [-53.16168, -25.61994], [-53.15972, -25.61985], [-53.15944, -25.62049], [-53.15861, -25.62129], [-53.15867, -25.62172], [-53.15924, -25.6225], [-53.15897, -25.62293], [-53.15813, -25.62294], [-53.15688, -25.622], [-53.1562, -25.62196], [-53.15604, -25.62214], [-53.1561, -25.62234], [-53.15656, -25.62284], [-53.15654, -25.62322], [-53.15455, -25.62562], [-53.15453, -25.62584], [-53.15476, -25.62602], [-53.15621, -25.62612], [-53.15692, -25.62637], [-53.15749, -25.62746], [-53.15829, -25.62799], [-53.15931, -25.62819], [-53.1614, -25.62782], [-53.16229, -25.62801], [-53.16274, -25.6284], [-53.16281, -25.62859], [-53.16263, -25.62885], [-53.16106, -25.62939], [-53.16051, -25.62973], [-53.16038, -25.63008], [-53.16069, -25.63091], [-53.16067, -25.63147], [-53.15972, -25.63244], [-53.15959, -25.63269], [-53.15976, -25.63299], [-53.16039, -25.63302], [-53.16263, -25.63194], [-53.16403, -25.63211], [-53.16476, -25.63204], [-53.16501, -25.63181], [-53.16526, -25.63111], [-53.16582, -25.63081], [-53.16655, -25.63117], [-53.16716, -25.63243], [-53.16868, -25.63318], [-53.16873, -25.63349], [-53.16845, -25.63397], [-53.16924, -25.63458], [-53.17083, -25.63651], [-53.17122, -25.63669], [-53.17152, -25.63659], [-53.17121, -25.63559], [-53.17148, -25.63523], [-53.17267, -25.63544], [-53.17432, -25.63496], [-53.17467, -25.63537], [-53.1742, -25.63665], [-53.17376, -25.63931], [-53.17328, -25.64013], [-53.1735, -25.64223], [-53.17283, -25.64277], [-53.17225, -25.64368], [-53.17167, -25.64427], [-53.1715, -25.645], [-53.17044, -25.64574], [-53.1701, -25.6463], [-53.16983, -25.6481], [-53.16996, -25.64907], [-53.16947, -25.65023], [-53.16897, -25.65088], [-53.16846, -25.65123], [-53.16821, -25.65167], [-53.16827, -25.65217], [-53.16846, -25.65243], [-53.16954, -25.6529], [-53.16967, -25.65333], [-53.16967, -25.65389], [-53.16899, -25.65564], [-53.16917, -25.65602], [-53.16995, -25.65548], [-53.16996, -25.655], [-53.17093, -25.65421], [-53.17113, -25.65287], [-53.17204, -25.65215], [-53.17228, -25.6517], [-53.17268, -25.64946], [-53.1733, -25.64884], [-53.18008, -25.64816], [-53.1847, -25.64948], [-53.18697, -25.65036], [-53.18795, -25.65045], [-53.1887, -25.65033], [-53.19353, -25.64749], [-53.19656, -25.64641], [-53.19733, -25.64574], [-53.19833, -25.64434], [-53.20074, -25.64318], [-53.20136, -25.64303], [-53.20363, -25.64307], [-53.20685, -25.64103], [-53.20942, -25.64058], [-53.2089, -25.64037], [-53.21311, -25.63162], [-53.21186, -25.63093], [-53.20397, -25.62914], [-53.20319, -25.62869], [-53.20174, -25.6289], [-53.20062, -25.62879], [-53.19944, -25.62724], [-53.19855, -25.6264], [-53.19853, -25.62548], [-53.19975, -25.62548], [-53.20049, -25.62529], [-53.20195, -25.62466], [-53.20285, -25.62393], [-53.2039, -25.62416], [-53.20568, -25.62397], [-53.20837, -25.62421], [-53.20768, -25.62366], [-53.20508, -25.62072], [-53.20346, -25.61958], [-53.19844, -25.61788], [-53.19765, -25.61802], [-53.19698, -25.61753], [-53.19513, -25.617], [-53.19475, -25.61669], [-53.19346, -25.61662], [-53.19275, -25.61693], [-53.19229, -25.61738], [-53.19163, -25.61663], [-53.19175, -25.61622], [-53.19156, -25.616], [-53.18915, -25.61553], [-53.18657, -25.61392], [-53.1867, -25.61224], [-53.18573, -25.61036], [-53.1856, -25.60968], [-53.1856, -25.6076], [-53.18601, -25.60574], [-53.18533, -25.60478], [-53.18366, -25.60364], [-53.18283, -25.60244], [-53.18192, -25.60344], [-53.18116, -25.60394], [-53.18006, -25.60303], [-53.17864, -25.60331], [-53.17809, -25.60319], [-53.17772, -25.60333], [-53.17717, -25.60329], [-53.17594, -25.6029], [-53.17464, -25.60214], [-53.17414, -25.60225], [-53.17404, -25.60242], [-53.1742, -25.60309]]]}}, 
{"type": "Feature", "properties": {"CD_SETOR": "410302405000005", "CD_SIT": "8", "NM_DIST": "Boa Esperança do Iguaçu", "NM_SUBDIST": null}, "geometry": {"type": "Polygon", "coordinates": [[[-53.19646, -25.64646], [-53.19353, -25.64749], [-53.18899, -25.65021], [-53.18795, -25.65045], [-53.18679, -25.65031], [-53.1847, -25.64948], [-53.18008, -25.64816], [-53.17358, -25.64875], [-53.17312, -25.64893], [-53.17268, -25.64946], [-53.17228, -25.6517], [-53.17204, -25.65215], [-53.17113, -25.65287], [-53.17093, -25.65421], [-53.16996, -25.655], [-53.16995, -25.65548], [-53.16917, -25.65602], [-53.17054, -25.65581], [-53.17131, -25.65655], [-53.17135, -25.65752], [-53.17217, -25.65781], [-53.17293, -25.6586], [-53.17256, -25.659], [-53.17252, -25.65933], [-53.17373, -25.66273], [-53.17364, -25.66336], [-53.17334, -25.66381], [-53.17276, -25.66411], [-53.17102, -25.66416], [-53.17022, -25.66446], [-53.16949, -25.66588], [-53.16876, -25.66629], [-53.16739, -25.66658], [-53.16627, -25.66718], [-53.16556, -25.66718], [-53.16399, -25.66682], [-53.16228, -25.66797], [-53.1598, -25.66864], [-53.15871, -25.67034], [-53.15848, -25.67147], [-53.1585, -25.67251], [-53.16079, -25.67235], [-53.16167, -25.67257], [-53.16244, -25.67319], [-53.16457, -25.67567], [-53.1679, -25.6787], [-53.16843, -25.68001], [-53.16906, -25.68355], [-53.16971, -25.68439], [-53.17105, -25.68563], [-53.1727, -25.68601], [-53.17456, -25.68786], [-53.17513, -25.68763], [-53.17576, -25.68779], [-53.1759, -25.68842], [-53.1756, -25.68911], [-53.17772, -25.69148], [-53.1839, -25.69138], [-53.18657, -25.68905], [-53.1929, -25.69388], [-53.19361, -25.6926], [-53.19402, -25.69227], [-53.19514, -25.69219], [-53.19662, -25.69078], [-53.19739, -25.68952], [-53.19753, -25.68812], [-53.19908, -25.68721], [-53.19938, -25.6868], [-53.19953, -25.68655], [-53.19955, -25.68571], [-53.20036, -25.68499], [-53.20081, -25.6843], [-53.20091, -25.68315], [-53.20344, -25.68213], [-53.20414, -25.6823], [-53.2046, -25.682], [-53.20544, -25.68231], [-53.20617, -25.68236], [-53.20745, -25.6812], [-53.20764, -25.68082], [-53.20758, -25.68065], [-53.20931, -25.67863], [-53.21036, -25.67817], [-53.21052, -25.6774], [-53.21032, -25.67595], [-53.20936, -25.67409], [-53.20904, -25.67295], [-53.20912, -25.67137], [-53.21025, -25.66949], [-53.21088, -25.66907], [-53.21174, -25.66762], [-53.21203, -25.66739], [-53.21358, -25.66451], [-53.21404, -25.66406], [-53.21413, -25.6636], [-53.21406, -25.66269], [-53.21365, -25.66228], [-53.2125, -25.65812], [-53.21035, -25.65237], [-53.20973, -25.65131], [-53.20927, -25.65096], [-53.20636, -25.65025], [-53.20342, -25.64878], [-53.20114, -25.64852], [-53.19778, -25.64787], [-53.19729, -25.64754], [-53.19701, -25.64674], [-53.19646, -25.64646]]]}}, 
{"type": "Feature", "properties": {"CD_SETOR": "410302405000006", "CD_SIT": "8", "NM_DIST": "Boa Esperança do Iguaçu", "NM_SUBDIST": null}, "geometry": {"type": "Polygon", "coordinates": [[[-53.19753, -25.68812], [-53.19739, -25.68952], [-53.19662, -25.69078], [-53.19514, -25.69219], [-53.1951, -25.69261], [-53.19536, -25.69351], [-53.19807, -25.69933], [-53.19891, -25.70061], [-53.19933, -25.70095], [-53.20156, -25.7019], [-53.20688, -25.70595], [-53.20709, -25.70531], [-53.20758, -25.70471], [-53.20806, -25.70444], [-53.20901, -25.70434], [-53.21106, -25.7046], [-53.21493, -25.70297], [-53.21729, -25.70129], [-53.21824, -25.70088], [-53.22074, -25.7003], [-53.22282, -25.7001], [-53.22497, -25.70053], [-53.22618, -25.7004], [-53.22719, -25.70062], [-53.22858, -25.70143], [-53.22964, -25.70137], [-53.23014, -25.70175], [-53.23132, -25.70159], [-53.23233, -25.70179], [-53.23407, -25.70244], [-53.23665, -25.70376], [-53.23713, -25.70441], [-53.23739, -25.70516], [-53.23764, -25.70534], [-53.23931, -25.70431], [-53.24196, -25.70436], [-53.24385, -25.70388], [-53.2445, -25.70347], [-53.24596, -25.7019], [-53.24676, -25.70158], [-53.24858, -25.70122], [-53.2494, -25.7005], [-53.25044, -25.70002], [-53.25163, -25.69981], [-53.25365, -25.69883], [-53.25543, -25.69877], [-53.25624, -25.69897], [-53.25789, -25.69993], [-53.25862, -25.70004], [-53.25975, -25.69982], [-53.25993, -25.69955], [-53.26001, -25.69661], [-53.26047, -25.69636], [-53.26086, -25.69645], [-53.2632, -25.69895], [-53.26449, -25.69956], [-53.26594, -25.69884], [-53.26858, -25.69793], [-53.2721, -25.69849], [-53.27255, -25.69784], [-53.27232, -25.69712], [-53.26971, -25.69408], [-53.26972, -25.69308], [-53.27174, -25.68994], [-53.27352, -25.6881], [-53.27476, -25.68858], [-53.27621, -25.68858], [-53.28034, -25.691], [-53.2826, -25.69132], [-53.28879, -25.69139], [-53.29099, -25.6919], [-53.29328, -25.69296], [-53.29576, -25.69375], [-53.29696, -25.69355], [-53.29725, -25.69283], [-53.29712, -25.69151], [-53.29637, -25.68961], [-53.29527, -25.68815], [-53.29386, -25.68715], [-53.29171, -25.68681], [-53.28711, -25.68648], [-53.28404, -25.6872], [-53.28303, -25.68615], [-53.28284, -25.68486], [-53.2833, -25.68306], [-53.28467, -25.68013], [-53.28401, -25.67884], [-53.28149, -25.67713], [-53.27818, -25.67582], [-53.27562, -25.67556], [-53.27427, -25.67478], [-53.27436, -25.67381], [-53.27571, -25.67302], [-53.26948, -25.67119], [-53.26714, -25.6701], [-53.26469, -25.6683], [-53.26174, -25.66849], [-53.26067, -25.66879], [-53.25699, -25.66922], [-53.25639, -25.6691], [-53.25566, -25.66864], [-53.25201, -25.66831], [-53.2506, -25.66881], [-53.24939, -25.66883], [-53.24895, -25.66899], [-53.24851, -25.66938], [-53.24712, -25.66862], [-53.2461, -25.66849], [-53.24258, -25.67024], [-53.24205, -25.67027], [-53.24096, -25.66995], [-53.23897, -25.66969], [-53.23721, -25.67006], [-53.23576, -25.67014], [-53.23462, -25.67044], [-53.2313, -25.67175], [-53.23105, -25.67203], [-53.23061, -25.6734], [-53.23004, -25.67355], [-53.22662, -25.67255], [-53.22682, -25.67221], [-53.22675, -25.67189], [-53.22539, -25.6705], [-53.22468, -25.67004], [-53.21889, -25.66756], [-53.21664, -25.66639], [-53.21621, -25.666], [-53.21441, -25.663], [-53.21406, -25.66269], [-53.21404, -25.66406], [-53.21358, -25.66451], [-53.21203, -25.66739], [-53.21174, -25.66762], [-53.21088, -25.66907], [-53.21025, -25.66949], [-53.20912, -25.67137], [-53.20904, -25.67295], [-53.20936, -25.67409], [-53.21032, -25.67595], [-53.21052, -25.6774], [-53.21036, -25.67817], [-53.20931, -25.67863], [-53.20758, -25.68065], [-53.20764, -25.68082], [-53.20745, -25.6812], [-53.20617, -25.68236], [-53.20544, -25.68231], [-53.2046, -25.682], [-53.20414, -25.6823], [-53.20344, -25.68213], [-53.20091, -25.68315], [-53.20081, -25.6843], [-53.20036, -25.68499], [-53.19955, -25.68571], [-53.19953, -25.68655], [-53.19938, -25.6868], [-53.19908, -25.68721], [-53.19753, -25.68812]]]}}, 
{"type": "Feature", "properties": {"CD_SETOR": "410302405000010", "CD_SIT": "2", "NM_DIST": "Boa Esperança do Iguaçu", "NM_SUBDIST": null}, "geometry": {"type": "Polygon", "coordinates": [[[-53.22118, -25.63627], [-53.22176, -25.63914], [-53.22588, -25.64036], [-53.22689, -25.63868], [-53.22676, -25.63767], [-53.22528, -25.63681], [-53.22303, -25.63607], [-53.22108, -25.63565], [-53.22118, -25.63627]]]}}, 
{"type": "Feature", "properties": {"CD_SETOR": "410302405000011", "CD_SIT": "8", "NM_DIST": "Boa Esperança do Iguaçu", "NM_SUBDIST": null}, "geometry": {"type": "Polygon", "coordinates": [[[-53.22676, -25.63766], [-53.22689, -25.63868], [-53.22588, -25.64036], [-53.22176, -25.63914], [-53.22118, -25.63627], [-53.21649, -25.63649], [-53.21651, -25.63765], [-53.21637, -25.63786], [-53.21595, -25.63787], [-53.21499, -25.63735], [-53.21473, -25.63741], [-53.21509, -25.64035], [-53.21428, -25.64147], [-53.21362, -25.64206], [-53.21174, -25.64248], [-53.21146, -25.64229], [-53.21118, -25.64251], [-53.21075, -25.64221], [-53.21097, -25.64175], [-53.20942, -25.64058], [-53.20685, -25.64103], [-53.20541, -25.64186], [-53.2039, -25.64299], [-53.2033, -25.64313], [-53.20113, -25.64304], [-53.19852, -25.64424], [-53.19699, -25.64612], [-53.19656, -25.64641], [-53.19701, -25.64674], [-53.19729, -25.64754], [-53.19778, -25.64787], [-53.20114, -25.64852], [-53.20342, -25.64878], [-53.20636, -25.65025], [-53.20927, -25.65096], [-53.20962, -25.65117], [-53.21042, -25.65255], [-53.21219, -25.6572], [-53.21325, -25.66048], [-53.21369, -25.66238], [-53.21441, -25.663], [-53.21621, -25.666], [-53.21664, -25.66639], [-53.21889, -25.66756], [-53.22468, -25.67004], [-53.22539, -25.6705], [-53.22675, -25.67189], [-53.22682, -25.67221], [-53.22662, -25.67255], [-53.22758, -25.67292], [-53.22979, -25.67352], [-53.23046, -25.67354], [-53.23079, -25.67301], [-53.23105, -25.67203], [-53.2313, -25.67175], [-53.23462, -25.67044], [-53.23576, -25.67014], [-53.23721, -25.67006], [-53.23897, -25.66969], [-53.24096, -25.66995], [-53.24205, -25.67027], [-53.24258, -25.67024], [-53.24567, -25.66862], [-53.24636, -25.66847], [-53.24712, -25.66862], [-53.24851, -25.66938], [-53.24895, -25.66899], [-53.24939, -25.66883], [-53.2506, -25.66881], [-53.25201, -25.66831], [-53.25566, -25.66864], [-53.25639, -25.6691], [-53.25699, -25.66922], [-53.26067, -25.66879], [-53.26174, -25.66849], [-53.26469, -25.6683], [-53.26714, -25.6701], [-53.26948, -25.67119], [-53.27571, -25.67302], [-53.2779, -25.67269], [-53.28301, -25.67231], [-53.28559, -25.67175], [-53.29102, -25.66808], [-53.29222, -25.66779], [-53.29526, -25.66819], [-53.29862, -25.66979], [-53.30235, -25.67064], [-53.30385, -25.67042], [-53.30469, -25.669], [-53.30535, -25.66607], [-53.3066, -25.66405], [-53.30684, -25.6626], [-53.30557, -25.66259], [-53.30185, -25.66479], [-53.30077, -25.66452], [-53.29887, -25.66368], [-53.2956, -25.6614], [-53.29424, -25.6608], [-53.29216, -25.6605], [-53.28995, -25.6605], [-53.28849, -25.65947], [-53.29007, -25.6558], [-53.28899, -25.65397], [-53.28829, -25.65219], [-53.28787, -25.65018], [-53.28787, -25.64854], [-53.28971, -25.63958], [-53.28924, -25.6381], [-53.2856, -25.63778], [-53.28154, -25.63818], [-53.28135, -25.63688], [-53.28259, -25.63538], [-53.28488, -25.63481], [-53.28676, -25.63488], [-53.29132, -25.6358], [-53.29392, -25.63571], [-53.29655, -25.63512], [-53.29911, -25.63505], [-53.29978, -25.63439], [-53.29975, -25.63375], [-53.29947, -25.63348], [-53.29661, -25.63295], [-53.29338, -25.63263], [-53.29007, -25.63295], [-53.2883, -25.63265], [-53.28579, -25.63265], [-53.28258, -25.63319], [-53.28008, -25.63435], [-53.27534, -25.63796], [-53.2735, -25.63958], [-53.27165, -25.64046], [-53.27014, -25.64196], [-53.26941, -25.64247], [-53.26851, -25.64275], [-53.26615, -25.64271], [-53.2642, -25.64313], [-53.26269, -25.64274], [-53.26202, -25.64202], [-53.2606, -25.63863], [-53.25978, -25.63752], [-53.25716, -25.63581], [-53.25585, -25.63527], [-53.25453, -25.63496], [-53.25052, -25.63462], [-53.24892, -25.63483], [-53.24752, -25.63528], [-53.2453, -25.6364], [-53.24391, -25.63691], [-53.24219, -25.63679], [-53.24125, -25.63611], [-53.24075, -25.63599], [-53.2393, -25.63611], [-53.23825, -25.63648], [-53.23599, -25.63807], [-53.23353, -25.63909], [-53.23275, -25.63893], [-53.23176, -25.63786], [-53.23137, -25.63765], [-53.23041, -25.63759], [-53.22842, -25.63784], [-53.22676, -25.63766]]]}}, 
{"type": "Feature", "properties": {"CD_SETOR": "410302405000012", "CD_SIT": "8", "NM_DIST": "Boa Esperança do Iguaçu", "NM_SUBDIST": null}, "geometry": {"type": "Polygon", "coordinates": [[[-53.24066, -25.58831], [-53.24061, -25.58884], [-53.24152, -25.59033], [-53.24177, -25.59128], [-53.24165, -25.59193], [-53.24104, -25.59234], [-53.23841, -25.59513], [-53.23558, -25.59865], [-53.23403, -25.60013], [-53.23379, -25.60052], [-53.23353, -25.6018], [-53.23312, -25.60235], [-53.23231, -25.60303], [-53.23073, -25.60343], [-53.23039, -25.60368], [-53.23042, -25.60474], [-53.22997, -25.60649], [-53.23016, -25.6073], [-53.23097, -25.60892], [-53.22972, -25.61073], [-53.22604, -25.61378], [-53.22085, -25.61646], [-53.21864, -25.61792], [-53.21609, -25.61988], [-53.21195, -25.62341], [-53.21169, -25.62744], [-53.21058, -25.62816], [-53.21004, -25.62906], [-53.21019, -25.62949], [-53.21197, -25.63103], [-53.21262, -25.62976], [-53.21458, -25.63053], [-53.21575, -25.63026], [-53.21638, -25.63034], [-53.2173, -25.63098], [-53.21734, -25.63129], [-53.21784, -25.63165], [-53.21906, -25.63193], [-53.22001, -25.63243], [-53.22013, -25.63272], [-53.21996, -25.63298], [-53.22002, -25.63329], [-53.2204, -25.63485], [-53.22082, -25.6355], [-53.22108, -25.63565], [-53.22467, -25.63657], [-53.22716, -25.63779], [-53.23137, -25.63765], [-53.23176, -25.63786], [-53.23255, -25.63879], [-53.23318, -25.63907], [-53.23389, -25.63901], [-53.23599, -25.63807], [-53.23825, -25.63648], [-53.2393, -25.63611], [-53.24075, -25.63599], [-53.24125, -25.63611], [-53.24219, -25.63679], [-53.24391, -25.63691], [-53.24813, -25.63504], [-53.2496, -25.63472], [-53.25177, -25.63466], [-53.25524, -25.63512], [-53.25716, -25.63581], [-53.25978, -25.63752], [-53.2606, -25.63863], [-53.26202, -25.64202], [-53.26269, -25.64274], [-53.2642, -25.64313], [-53.26615, -25.64271], [-53.26851, -25.64275], [-53.26941, -25.64247], [-53.27014, -25.64196], [-53.27165, -25.64046], [-53.2735, -25.63958], [-53.27534, -25.63796], [-53.28008, -25.63435], [-53.28285, -25.63312], [-53.28579, -25.63265], [-53.2883, -25.63265], [-53.29007, -25.63295], [-53.29379, -25.63264], [-53.29661, -25.63295], [-53.29947, -25.63348], [-53.29975, -25.63375], [-53.29978, -25.63439], [-53.30113, -25.63444], [-53.30173, -25.63384], [-53.30058, -25.63294], [-53.29813, -25.63174], [-53.29688, -25.63074], [-53.29258, -25.63054], [-53.29008, -25.63079], [-53.28633, -25.63079], [-53.28133, -25.63164], [-53.27883, -25.63234], [-53.27768, -25.63284], [-53.27713, -25.63254], [-53.27428, -25.63224], [-53.27283, -25.63394], [-53.27288, -25.63224], [-53.27263, -25.63164], [-53.27193, -25.63114], [-53.27108, -25.63094], [-53.27268, -25.63084], [-53.27603, -25.62759], [-53.27723, -25.62679], [-53.28003, -25.62559], [-53.28108, -25.62534], [-53.28218, -25.62344], [-53.28068, -25.62254], [-53.27923, -25.62214], [-53.27748, -25.62214], [-53.27683, -25.62229], [-53.27438, -25.62109], [-53.27303, -25.62094], [-53.27118, -25.62229], [-53.27198, -25.62054], [-53.27203, -25.6197], [-53.27058, -25.61775], [-53.27063, -25.61635], [-53.27133, -25.6151], [-53.27293, -25.6138], [-53.27483, -25.6135], [-53.27838, -25.61165], [-53.27933, -25.61065], [-53.27968, -25.61005], [-53.28113, -25.6106], [-53.28298, -25.6098], [-53.28268, -25.60915], [-53.28163, -25.60925], [-53.28128, -25.6084], [-53.27888, -25.6066], [-53.27888, -25.6058], [-53.27943, -25.60505], [-53.28003, -25.6038], [-53.28168, -25.60335], [-53.28468, -25.6029], [-53.28633, -25.6029], [-53.28733, -25.60225], [-53.28893, -25.6026], [-53.29143, -25.60215], [-53.29233, -25.60175], [-53.29028, -25.60005], [-53.28823, -25.5993], [-53.28753, -25.59875], [-53.28493, -25.5978], [-53.28448, -25.5971], [-53.28328, -25.59675], [-53.28238, -25.59675], [-53.28183, -25.59635], [-53.28088, -25.5962], [-53.28058, -25.5963], [-53.28048, -25.59675], [-53.27998, -25.59725], [-53.27943, -25.599], [-53.27943, -25.5998], [-53.27873, -25.60055], [-53.27823, -25.60145], [-53.27623, -25.6028], [-53.27373, -25.6037], [-53.27138, -25.60355], [-53.27023, -25.603], [-53.26923, -25.6018], [-53.26883, -25.60155], [-53.26838, -25.6018], [-53.26848, -25.60245], [-53.26883, -25.6029], [-53.26888, -25.60335], [-53.26783, -25.60285], [-53.26703, -25.60315], [-53.26603, -25.60305], [-53.26403, -25.6042], [-53.26428, -25.6051], [-53.26498, -25.6053], [-53.26543, -25.60585], [-53.26648, -25.60615], [-53.26668, -25.60695], [-53.26498, -25.60635], [-53.26378, -25.6068], [-53.26308, -25.60645], [-53.26133, -25.6077], [-53.26108, -25.6086], [-53.25943, -25.60955], [-53.25883, -25.6095], [-53.25808, -25.609], [-53.25533, -25.6082], [-53.25413, -25.60765], [-53.25323, -25.60685], [-53.25308, -25.60545], [-53.25298, -25.60365], [-53.25363, -25.6022], [-53.25328, -25.60135], [-53.25383, -25.6011], [-53.25433, -25.60055], [-53.25448, -25.59935], [-53.25393, -25.5987], [-53.25453, -25.59785], [-53.25413, -25.5971], [-53.25478, -25.5967], [-53.25698, -25.5945], [-53.25753, -25.5936], [-53.25728, -25.59305], [-53.25668, -25.59315], [-53.25408, -25.5916], [-53.25313, -25.59135], [-53.25243, -25.592], [-53.25198, -25.5915], [-53.25183, -25.591], [-53.25213, -25.59045], [-53.25123, -25.5892], [-53.25108, -25.5886], [-53.24998, -25.5877], [-53.24973, -25.58725], [-53.24868, -25.5876], [-53.24763, -25.58845], [-53.24743, -25.58885], [-53.24853, -25.58965], [-53.24898, -25.5906], [-53.24913, -25.59175], [-53.24893, -25.5926], [-53.24863, -25.59335], [-53.24803, -25.59395], [-53.24773, -25.5947], [-53.24648, -25.5959], [-53.24473, -25.59705], [-53.24438, -25.598], [-53.24673, -25.5992], [-53.24913, -25.59965], [-53.25043, -25.6008], [-53.25078, -25.60195], [-53.25108, -25.60435], [-53.25028, -25.605], [-53.24958, -25.6051], [-53.24933, -25.60465], [-53.24948, -25.6033], [-53.24903, -25.602], [-53.24838, -25.60095], [-53.24728, -25.60075], [-53.24513, -25.6013], [-53.24398, -25.60105], [-53.24218, -25.5994], [-53.24158, -25.5984], [-53.24033, -25.59775], [-53.24083, -25.59725], [-53.24148, -25.5972], [-53.24363, -25.59495], [-53.24523, -25.5941], [-53.24613, -25.5933], [-53.24608, -25.59175], [-53.24488, -25.59125], [-53.24353, -25.5911], [-53.24288, -25.5908], [-53.24343, -25.58925], [-53.24443, -25.58765], [-53.24348, -25.5869], [-53.24066, -25.58831]]]}}, 
{"type": "Feature", "properties": {"CD_SETOR": "410302405000013", "CD_SIT": "9", "NM_DIST": "Boa Esperança do Iguaçu", "NM_SUBDIST": null}, "geometry": {"type": "Polygon", "coordinates": [[[-53.24066, -25.58831], [-53.24348, -25.5869], [-53.24443, -25.58765], [-53.24343, -25.58925], [-53.24288, -25.5908], [-53.24353, -25.5911], [-53.24488, -25.59125], [-53.24608, -25.59175], [-53.24613, -25.5933], [-53.24523, -25.5941], [-53.24363, -25.59495], [-53.24148, -25.5972], [-53.24083, -25.59725], [-53.24033, -25.59775], [-53.24158, -25.5984], [-53.24218, -25.5994], [-53.24398, -25.60105], [-53.24513, -25.6013], [-53.24728, -25.60075], [-53.24838, -25.60095], [-53.24903, -25.602], [-53.24948, -25.6033], [-53.24933, -25.60465], [-53.24958, -25.6051], [-53.25028, -25.605], [-53.25108, -25.60435], [-53.25078, -25.60195], [-53.25043, -25.6008], [-53.24913, -25.59965], [-53.24673, -25.5992], [-53.24438, -25.598], [-53.24473, -25.59705], [-53.24648, -25.5959], [-53.24773, -25.5947], [-53.24803, -25.59395], [-53.24863, -25.59335], [-53.24893, -25.5926], [-53.24913, -25.59175], [-53.24898, -25.5906], [-53.24853, -25.58965], [-53.24743, -25.58885], [-53.24763, -25.58845], [-53.24868, -25.5876], [-53.24973, -25.58725], [-53.24998, -25.5877], [-53.25108, -25.5886], [-53.25123, -25.5892], [-53.25213, -25.59045], [-53.25183, -25.591], [-53.25198, -25.5915], [-53.25243, -25.592], [-53.25313, -25.59135], [-53.25408, -25.5916], [-53.25668, -25.59315], [-53.25728, -25.59305], [-53.25753, -25.5936], [-53.25698, -25.5945], [-53.25478, -25.5967], [-53.25413, -25.5971], [-53.25453, -25.59785], [-53.25393, -25.5987], [-53.25448, -25.59935], [-53.25433, -25.60055], [-53.25383, -25.6011], [-53.25328, -25.60135], [-53.25363, -25.6022], [-53.25298, -25.60365], [-53.25308, -25.60545], [-53.25323, -25.60685], [-53.25413, -25.60765], [-53.25533, -25.6082], [-53.25808, -25.609], [-53.25883, -25.6095], [-53.25943, -25.60955], [-53.26108, -25.6086], [-53.26133, -25.6077], [-53.26308, -25.60645], [-53.26378, -25.6068], [-53.26498, -25.60635], [-53.26668, -25.60695], [-53.26648, -25.60615], [-53.26543, -25.60585], [-53.26498, -25.6053], [-53.26428, -25.6051], [-53.26403, -25.6042], [-53.26603, -25.60305], [-53.26703, -25.60315], [-53.26783, -25.60285], [-53.26888, -25.60335], [-53.26883, -25.6029], [-53.26848, -25.60245], [-53.26838, -25.6018], [-53.26883, -25.60155], [-53.26923, -25.6018], [-53.27023, -25.603], [-53.27138, -25.60355], [-53.27373, -25.6037], [-53.27623, -25.6028], [-53.27823, -25.60145], [-53.27873, -25.60055], [-53.27943, -25.5998], [-53.27943, -25.599], [-53.27998, -25.59725], [-53.28048, -25.59675], [-53.28058, -25.5963], [-53.28088, -25.5962], [-53.28183, -25.59635], [-53.28238, -25.59675], [-53.28328, -25.59675], [-53.28448, -25.5971], [-53.28493, -25.5978], [-53.28753, -25.59875], [-53.28823, -25.5993], [-53.29028, -25.60005], [-53.29233, -25.60175], [-53.29143, -25.60215], [-53.28893, -25.6026], [-53.28733, -25.60225], [-53.28633, -25.6029], [-53.28468, -25.6029], [-53.28168, -25.60335], [-53.28003, -25.6038], [-53.27943, -25.60505], [-53.27888, -25.6058], [-53.27888, -25.6066], [-53.28128, -25.6084], [-53.28163, -25.60925], [-53.28268, -25.60915], [-53.28298, -25.6098], [-53.28113, -25.6106], [-53.27968, -25.61005], [-53.27933, -25.61065], [-53.27838, -25.61165], [-53.27483, -25.6135], [-53.27293, -25.6138], [-53.27133, -25.6151], [-53.27063, -25.61635], [-53.27058, -25.61775], [-53.27203, -25.6197], [-53.27198, -25.62054], [-53.27118, -25.62229], [-53.27303, -25.62094], [-53.27438, -25.62109], [-53.27683, -25.62229], [-53.27748, -25.62214], [-53.27923, -25.62214], [-53.28068, -25.62254], [-53.28218, -25.62344], [-53.28108, -25.62534], [-53.28003, -25.62559], [-53.27723, -25.62679], [-53.27603, -25.62759], [-53.27268, -25.63084], [-53.27108, -25.63094], [-53.27193, -25.63114], [-53.27263, -25.63164], [-53.27288, -25.63224], [-53.27283, -25.63394], [-53.27428, -25.63224], [-53.27713, -25.63254], [-53.27768, -25.63284], [-53.27883, -25.63234], [-53.28133, -25.63164], [-53.28633, -25.63079], [-53.29008, -25.63079], [-53.29258, -25.63054], [-53.29688, -25.63074], [-53.29813, -25.63174], [-53.30058, -25.63294], [-53.30173, -25.63384], [-53.30113, -25.63444], [-53.29978, -25.63439], [-53.29911, -25.63505], [-53.30277, -25.63589], [-53.30393, -25.63562], [-53.30374, -25.63325], [-53.29981, -25.63147], [-53.29787, -25.63015], [-53.29629, -25.62942], [-53.28918, -25.62979], [-53.28241, -25.63055], [-53.27676, -25.63194], [-53.27504, -25.631], [-53.27543, -25.62987], [-53.27626, -25.62853], [-53.28127, -25.62728], [-53.28249, -25.6267], [-53.2836, -25.62513], [-53.28379, -25.62375], [-53.28299, -25.62249], [-53.28148, -25.62169], [-53.27857, -25.62128], [-53.27666, -25.62131], [-53.27443, -25.62037], [-53.27143, -25.6176], [-53.27171, -25.61617], [-53.27568, -25.61505], [-53.27768, -25.61378], [-53.28082, -25.61236], [-53.28382, -25.61133], [-53.28558, -25.6098], [-53.28459, -25.60874], [-53.28158, -25.60652], [-53.28107, -25.60509], [-53.28698, -25.60428], [-53.29199, -25.60423], [-53.29479, -25.60349], [-53.29576, -25.6022], [-53.29537, -25.60111], [-53.29374, -25.60005], [-53.28907, -25.59847], [-53.28649, -25.59672], [-53.28401, -25.5955], [-53.28229, -25.59475], [-53.27831, -25.59366], [-53.27729, -25.59459], [-53.27815, -25.59791], [-53.27818, -25.60045], [-53.27726, -25.60133], [-53.27554, -25.60215], [-53.27241, -25.60298], [-53.27065, -25.60181], [-53.26852, -25.5991], [-53.26684, -25.59943], [-53.26341, -25.60155], [-53.25743, -25.60581], [-53.25429, -25.60721], [-53.25443, -25.6045], [-53.25495, -25.60294], [-53.25662, -25.60002], [-53.25887, -25.59458], [-53.25954, -25.59332], [-53.26193, -25.59188], [-53.25956, -25.59172], [-53.25632, -25.59013], [-53.2551, -25.58895], [-53.25335, -25.58675], [-53.25174, -25.5832], [-53.25065, -25.5797], [-53.2479, -25.57785], [-53.2474, -25.58106], [-53.24697, -25.58275], [-53.24647, -25.58371], [-53.24484, -25.58506], [-53.24326, -25.58572], [-53.24207, -25.5869], [-53.24146, -25.58698], [-53.24095, -25.5873], [-53.24066, -25.58831]]]}}, 
{"type": "Feature", "properties": {"CD_SETOR": "410302405000014", "CD_SIT": "8", "NM_DIST": "Boa Esperança do Iguaçu", "NM_SUBDIST": null}, "geometry": {"type": "Polygon", "coordinates": [[[-53.21188, -25.62478], [-53.21195, -25.62341], [-53.21609, -25.61988], [-53.21864, -25.61792], [-53.22085, -25.61646], [-53.22604, -25.61378], [-53.22947, -25.611], [-53.23039, -25.60986], [-53.23097, -25.60892], [-53.23016, -25.6073], [-53.22997, -25.60649], [-53.23042, -25.60474], [-53.23046, -25.60354], [-53.23231, -25.60303], [-53.23312, -25.60235], [-53.23353, -25.6018], [-53.23379, -25.60052], [-53.23403, -25.60013], [-53.23558, -25.59865], [-53.23841, -25.59513], [-53.24104, -25.59234], [-53.24165, -25.59193], [-53.24128, -25.59165], [-53.24053, -25.59165], [-53.24038, -25.59095], [-53.23793, -25.58945], [-53.23708, -25.58835], [-53.23858, -25.58755], [-53.23943, -25.5864], [-53.23883, -25.5843], [-53.24253, -25.5845], [-53.24403, -25.5844], [-53.24528, -25.583], [-53.24603, -25.5825], [-53.24613, -25.5818], [-53.24573, -25.5803], [-53.24448, -25.58025], [-53.24403, -25.57995], [-53.24398, -25.57905], [-53.24273, -25.5785], [-53.24203, -25.57875], [-53.24048, -25.57795], [-53.23873, -25.5777], [-53.23738, -25.5777], [-53.23698, -25.5781], [-53.23638, -25.5776], [-53.23583, -25.5776], [-53.23548, -25.578], [-53.23398, -25.57785], [-53.23018, -25.57825], [-53.22948, -25.57875], [-53.22723, -25.5785], [-53.22508, -25.57855], [-53.22418, -25.57905], [-53.22263, -25.5823], [-53.22098, -25.5832], [-53.21968, -25.5843], [-53.21893, -25.58545], [-53.21948, -25.58675], [-53.21833, -25.58595], [-53.21698, -25.5857], [-53.21548, -25.58615], [-53.21433, -25.5874], [-53.21468, -25.5882], [-53.21423, -25.58975], [-53.21403, -25.5882], [-53.21353, -25.5875], [-53.21378, -25.58685], [-53.21353, -25.586], [-53.21218, -25.586], [-53.21178, -25.58555], [-53.21638, -25.5838], [-53.21753, -25.58405], [-53.21928, -25.5817], [-53.21998, -25.5814], [-53.22043, -25.58], [-53.22028, -25.57925], [-53.21973, -25.5787], [-53.21593, -25.5786], [-53.21363, -25.57795], [-53.21183, -25.57825], [-53.21093, -25.5778], [-53.20923, -25.5779], [-53.20843, -25.57735], [-53.20373, -25.5757], [-53.19823, -25.57275], [-53.19578, -25.57075], [-53.19468, -25.57075], [-53.19343, -25.5735], [-53.19298, -25.5738], [-53.19323, -25.57455], [-53.19273, -25.5759], [-53.19263, -25.57665], [-53.19333, -25.5777], [-53.19853, -25.57935], [-53.19508, -25.5796], [-53.19308, -25.57945], [-53.18998, -25.5796], [-53.18978, -25.5806], [-53.18923, -25.58015], [-53.18793, -25.57995], [-53.18663, -25.58135], [-53.18613, -25.5825], [-53.18553, -25.5809], [-53.18468, -25.5812], [-53.18368, -25.5819], [-53.18291, -25.58207], [-53.18195, -25.58362], [-53.18143, -25.58419], [-53.18002, -25.58493], [-53.17849, -25.58539], [-53.17608, -25.58666], [-53.17523, -25.58649], [-53.17438, -25.58586], [-53.17368, -25.58565], [-53.1727, -25.58577], [-53.17194, -25.58626], [-53.1718, -25.58676], [-53.17187, -25.58738], [-53.1725, -25.58789], [-53.174, -25.5874], [-53.1751, -25.58744], [-53.1755, -25.58794], [-53.17524, -25.58962], [-53.17657, -25.59137], [-53.17665, -25.59205], [-53.17624, -25.5928], [-53.17356, -25.59524], [-53.17339, -25.59609], [-53.17359, -25.59884], [-53.17417, -25.59986], [-53.17448, -25.60005], [-53.17581, -25.59978], [-53.17745, -25.60028], [-53.17852, -25.60101], [-53.1794, -25.60228], [-53.17943, -25.60256], [-53.17809, -25.60319], [-53.17864, -25.60331], [-53.18006, -25.60303], [-53.18116, -25.60394], [-53.18192, -25.60344], [-53.18283, -25.60244], [-53.18366, -25.60364], [-53.18556, -25.60502], [-53.18601, -25.60574], [-53.1856, -25.6076], [-53.18562, -25.60998], [-53.1867, -25.61224], [-53.18657, -25.61392], [-53.18915, -25.61553], [-53.19156, -25.616], [-53.19175, -25.61622], [-53.19163, -25.61663], [-53.19229, -25.61738], [-53.19275, -25.61693], [-53.19346, -25.61662], [-53.19475, -25.61669], [-53.19513, -25.617], [-53.19698, -25.61753], [-53.19765, -25.61802], [-53.19844, -25.61788], [-53.20346, -25.61958], [-53.20508, -25.62072], [-53.20768, -25.62366], [-53.20837, -25.62421], [-53.20568, -25.62397], [-53.2039, -25.62416], [-53.20285, -25.62393], [-53.20195, -25.62466], [-53.20049, -25.62529], [-53.19975, -25.62548], [-53.19853, -25.62548], [-53.19855, -25.6264], [-53.19944, -25.62724], [-53.20062, -25.62879], [-53.20174, -25.6289], [-53.20319, -25.62869], [-53.20397, -25.62914], [-53.21186, -25.63093], [-53.21019, -25.62949], [-53.21004, -25.62906], [-53.21058, -25.62816], [-53.21169, -25.62744], [-53.21188, -25.62478]]]}}, 
{"type": "Feature", "properties": {"CD_SETOR": "410302405000015", "CD_SIT": "9", "NM_DIST": "Boa Esperança do Iguaçu", "NM_SUBDIST": null}, "geometry": {"type": "Polygon", "coordinates": [[[-53.18291, -25.58207], [-53.18368, -25.5819], [-53.18468, -25.5812], [-53.18553, -25.5809], [-53.18613, -25.5825], [-53.18663, -25.58135], [-53.18793, -25.57995], [-53.18923, -25.58015], [-53.18978, -25.5806], [-53.18998, -25.5796], [-53.19308, -25.57945], [-53.19508, -25.5796], [-53.19853, -25.57935], [-53.19333, -25.5777], [-53.19263, -25.57665], [-53.19273, -25.5759], [-53.19323, -25.57455], [-53.19298, -25.5738], [-53.19343, -25.5735], [-53.19468, -25.57075], [-53.19578, -25.57075], [-53.19823, -25.57275], [-53.20373, -25.5757], [-53.20843, -25.57735], [-53.20923, -25.5779], [-53.21093, -25.5778], [-53.21183, -25.57825], [-53.21363, -25.57795], [-53.21593, -25.5786], [-53.21973, -25.5787], [-53.22028, -25.57925], [-53.22043, -25.58], [-53.21998, -25.5814], [-53.21928, -25.5817], [-53.21753, -25.58405], [-53.21638, -25.5838], [-53.21178, -25.58555], [-53.21218, -25.586], [-53.21353, -25.586], [-53.21378, -25.58685], [-53.21353, -25.5875], [-53.21403, -25.5882], [-53.21423, -25.58975], [-53.21468, -25.5882], [-53.21433, -25.5874], [-53.21548, -25.58615], [-53.21698, -25.5857], [-53.21833, -25.58595], [-53.21948, -25.58675], [-53.21893, -25.58545], [-53.21968, -25.5843], [-53.22098, -25.5832], [-53.22263, -25.5823], [-53.22418, -25.57905], [-53.22508, -25.57855], [-53.22723, -25.5785], [-53.22948, -25.57875], [-53.23018, -25.57825], [-53.23398, -25.57785], [-53.23548, -25.578], [-53.23583, -25.5776], [-53.23638, -25.5776], [-53.23698, -25.5781], [-53.23738, -25.5777], [-53.23873, -25.5777], [-53.24048, -25.57795], [-53.24203, -25.57875], [-53.24273, -25.5785], [-53.24398, -25.57905], [-53.24403, -25.57995], [-53.24448, -25.58025], [-53.24573, -25.5803], [-53.24613, -25.5818], [-53.24603, -25.5825], [-53.24528, -25.583], [-53.24403, -25.5844], [-53.24253, -25.5845], [-53.23883, -25.5843], [-53.23943, -25.5864], [-53.23858, -25.58755], [-53.23708, -25.58835], [-53.23793, -25.58945], [-53.24038, -25.59095], [-53.24053, -25.59165], [-53.24128, -25.59165], [-53.24167, -25.59182], [-53.24177, -25.59128], [-53.24152, -25.59033], [-53.24061, -25.58884], [-53.2407, -25.58781], [-53.24095, -25.5873], [-53.24146, -25.58698], [-53.24207, -25.5869], [-53.24326, -25.58572], [-53.24484, -25.58506], [-53.24647, -25.58371], [-53.24697, -25.58275], [-53.2474, -25.58106], [-53.2479, -25.57785], [-53.24576, -25.57641], [-53.24307, -25.57534], [-53.2406, -25.57473], [-53.23787, -25.57448], [-53.22748, -25.57601], [-53.22146, -25.57599], [-53.21201, -25.57492], [-53.2079, -25.57393], [-53.20424, -25.57243], [-53.20009, -25.57011], [-53.19801, -25.56876], [-53.195, -25.56346], [-53.19016, -25.56497], [-53.18945, -25.56554], [-53.18907, -25.56608], [-53.18892, -25.56663], [-53.18901, -25.5671], [-53.18934, -25.56743], [-53.19159, -25.5682], [-53.19262, -25.56874], [-53.19343, -25.56959], [-53.19347, -25.57013], [-53.19332, -25.57052], [-53.19176, -25.57149], [-53.19157, -25.57177], [-53.1915, -25.57205], [-53.19214, -25.5743], [-53.19205, -25.57476], [-53.19067, -25.57474], [-53.1895, -25.57511], [-53.18766, -25.57513], [-53.18706, -25.57536], [-53.18577, -25.57768], [-53.18569, -25.57837], [-53.1838, -25.58063], [-53.18291, -25.58207]]]}}]}