{"type": "FeatureCollection", "features": [
{"type": "Feature", "properties": {"CD_SETOR": "410990605000002", "CD_SIT": "1", "NM_DIST": "Icaraíma", "NM_SUBDIST": null}, "geometry": {"type": "Polygon", "coordinates": [[[-53.62156, -23.39203], [-53.62205, -23.39538], [-53.62546, -23.39494], [-53.62534, -23.39405], [-53.62863, -23.39362], [-53.62827, -23.39151], [-53.62753, -23.39036], [-53.62483, -23.39071], [-53.62497, -23.39157], [-53.62156, -23.39203]]]}}, 
{"type": "Feature", "properties": {"CD_SETOR": "410990605000003", "CD_SIT": "1", "NM_DIST": "Icaraíma", "NM_SUBDIST": null}, "geometry": {"type": "Polygon", "coordinates": [[[-53.62114, -23.38933], [-53.62069, -23.38919], [-53.62031, -23.38881], [-53.61927, -23.38896], [-53.61984, -23.39227], [-53.62497, -23.39157], [-53.62483, -23.39071], [-53.62753, -23.39036], [-53.62477, -23.38641], [-53.62316, -23.3866], [-53.62345, -23.38843], [-53.6217, -23.38868], [-53.62114, -23.38933]]]}}, 
{"type": "Feature", "properties": {"CD_SETOR": "410990605000005", "CD_SIT": "1", "NM_DIST": "Icaraíma", "NM_SUBDIST": null}, "geometry": {"type": "Polygon", "coordinates": [[[-53.61235, -23.39848], [-53.61563, -23.39807], [-53.61534, -23.39623], [-53.62205, -23.39538], [-53.62191, -23.39451], [-53.62022, -23.39472], [-53.62009, -23.39391], [-53.61508, -23.39457], [-53.61458, -23.39097], [-53.61204, -23.39653], [-53.61235, -23.39848]]]}}, 
{"type": "Feature", "properties": {"CD_SETOR": "410990605000006", "CD_SIT": "1", "NM_DIST": "Icaraíma", "NM_SUBDIST": null}, "geometry": {"type": "Polygon", "coordinates": [[[-53.61563, -23.39807], [-53.61603, -23.40074], [-53.62267, -23.39993], [-53.62255, -23.39907], [-53.6218, -23.39916], [-53.6213, -23.39547], [-53.61534, -23.39623], [-53.61563, -23.39807]]]}}, 
{"type": "Feature", "properties": {"CD_SETOR": "410990605000008", "CD_SIT": "8", "NM_DIST": "Icaraíma", "NM_SUBDIST": null}, "geometry": {"type": "Polygon", "coordinates": [[[-53.57953, -23.4068], [-53.583, -23.40277], [-53.58476, -23.40206], [-53.60245, -23.39975], [-53.60301, -23.40907], [-53.61409, -23.41235], [-53.61665, -23.40529], [-53.61603, -23.40072], [-53.61271, -23.40116], [-53.61204, -23.39653], [-53.61458, -23.39097], [-53.61457, -23.39063], [-53.61663, -23.38582], [-53.61811, -23.38564], [-53.61863, -23.38904], [-53.62031, -23.38881], [-53.62069, -23.38919], [-53.62114, -23.38933], [-53.61961, -23.37956], [-53.61932, -23.37906], [-53.60674, -23.36801], [-53.6052, -23.36611], [-53.60318, -23.36761], [-53.60221, -23.36946], [-53.60177, -23.37098], [-53.5994, -23.37373], [-53.59942, -23.37433], [-53.60001, -23.37593], [-53.59955, -23.37627], [-53.59803, -23.37592], [-53.59737, -23.37627], [-53.59624, -23.37735], [-53.59585, -23.3781], [-53.59528, -23.37859], [-53.59496, -23.37874], [-53.59319, -23.37866], [-53.59187, -23.37998], [-53.59167, -23.38166], [-53.5896, -23.38327], [-53.58943, -23.38386], [-53.58882, -23.38441], [-53.58774, -23.38501], [-53.5861, -23.38716], [-53.58591, -23.3888], [-53.58599, -23.39058], [-53.58529, -23.39158], [-53.58402, -23.39272], [-53.58285, -23.39347], [-53.58187, -23.39572], [-53.58192, -23.39671], [-53.58095, -23.39933], [-53.58002, -23.40059], [-53.57981, -23.40332], [-53.57924, -23.40414], [-53.57908, -23.40471], [-53.57953, -23.4068]]]}}, 
{"type": "Feature", "properties": {"CD_SETOR": "410990605000009", "CD_SIT": "8", "NM_DIST": "Icaraíma", "NM_SUBDIST": null}, "geometry": {"type": "Polygon", "coordinates": [[[-53.57755, -23.40913], [-53.57953, -23.4068], [-53.57908, -23.40471], [-53.57924, -23.40414], [-53.57981, -23.40332], [-53.58002, -23.40059], [-53.58095, -23.39933], [-53.58192, -23.39671], [-53.58187, -23.39572], [-53.58285, -23.39347], [-53.58402, -23.39272], [-53.58529, -23.39158], [-53.58599, -23.39058], [-53.58591, -23.3888], [-53.5861, -23.38716], [-53.58774, -23.38501], [-53.58882, -23.38441], [-53.58943, -23.38386], [-53.5896, -23.38327], [-53.59167, -23.38166], [-53.59187, -23.37998], [-53.59319, -23.37866], [-53.59496, -23.37874], [-53.59528, -23.37859], [-53.59585, -23.3781], [-53.59624, -23.37735], [-53.59737, -23.37627], [-53.59803, -23.37592], [-53.59955, -23.37627], [-53.60001, -23.37593], [-53.59942, -23.37433], [-53.5994, -23.37373], [-53.60177, -23.37098], [-53.60221, -23.36946], [-53.60318, -23.36761], [-53.60742, -23.36446], [-53.60753, -23.36379], [-53.60892, -23.36265], [-53.60956, -23.36175], [-53.61012, -23.36144], [-53.61073, -23.36152], [-53.61184, -23.36228], [-53.61244, -23.36227], [-53.61318, -23.36196], [-53.6144, -23.36104], [-53.61421, -23.3597], [-53.61467, -23.35848], [-53.61515, -23.35829], [-53.61537, -23.35789], [-53.61513, -23.35542], [-53.6156, -23.35471], [-53.6157, -23.35371], [-53.61619, -23.35281], [-53.61611, -23.35163], [-53.6164, -23.35048], [-53.6157, -23.34992], [-53.6157, -23.34885], [-53.61529, -23.3485], [-53.61519, -23.34806], [-53.61466, -23.34789], [-53.61478, -23.34735], [-53.61456, -23.34683], [-53.61491, -23.34585], [-53.61481, -23.34478], [-53.61564, -23.34417], [-53.61597, -23.3435], [-53.61641, -23.34326], [-53.61656, -23.34277], [-53.61698, -23.34244], [-53.61721, -23.34158], [-53.61789, -23.34153], [-53.61806, -23.34124], [-53.61885, -23.34091], [-53.61923, -23.34003], [-53.62005, -23.33941], [-53.62053, -23.33939], [-53.62157, -23.33861], [-53.62325, -23.33634], [-53.62412, -23.33605], [-53.62468, -23.335], [-53.6263, -23.33304], [-53.62704, -23.33301], [-53.62715, -23.33333], [-53.62747, -23.33345], [-53.62782, -23.33333], [-53.62871, -23.33247], [-53.62838, -23.33167], [-53.62844, -23.33109], [-53.6287, -23.33081], [-53.62942, -23.3308], [-53.62959, -23.33038], [-53.63009, -23.33052], [-53.63156, -23.33035], [-53.63179, -23.33012], [-53.63236, -23.33007], [-53.63276, -23.33007], [-53.63305, -23.33029], [-53.63385, -23.33], [-53.63465, -23.32931], [-53.6345, -23.32804], [-53.63601, -23.32755], [-53.63646, -23.3261], [-53.63781, -23.32563], [-53.6403, -23.32301], [-53.64121, -23.32246], [-53.5682, -23.32013], [-53.55186, -23.31981], [-53.54769, -23.33297], [-53.54798, -23.33395], [-53.5665, -23.35723], [-53.55134, -23.38067], [-53.54716, -23.3874], [-53.56606, -23.40236], [-53.57414, -23.40906], [-53.57616, -23.40972], [-53.57755, -23.40913]]]}}, 
{"type": "Feature", "properties": {"CD_SETOR": "410990605000010", "CD_SIT": "8", "NM_DIST": "Icaraíma", "NM_SUBDIST": null}, "geometry": {"type": "Polygon", "coordinates": [[[-53.45528, -23.36239], [-53.45465, -23.36303], [-53.45529, -23.3643], [-53.45463, -23.36436], [-53.45449, -23.36592], [-53.45398, -23.36667], [-53.45414, -23.36727], [-53.45356, -23.36757], [-53.45304, -23.3692], [-53.45227, -23.36942], [-53.45233, -23.37146], [-53.4533, -23.37214], [-53.45253, -23.37294], [-53.45142, -23.37257], [-53.45013, -23.37338], [-53.44994, -23.37417], [-53.4505, -23.37556], [-53.44825, -23.37837], [-53.4485, -23.37979], [-53.44601, -23.38066], [-53.4446, -23.38279], [-53.4445, -23.38567], [-53.44578, -23.38763], [-53.44595, -23.38958], [-53.44571, -23.39107], [-53.44461, -23.39178], [-53.44305, -23.39415], [-53.44272, -23.3963], [-53.44312, -23.39659], [-53.44222, -23.40109], [-53.44298, -23.40197], [-53.44367, -23.40504], [-53.44438, -23.40536], [-53.44441, -23.40599], [-53.44591, -23.40681], [-53.44597, -23.40948], [-53.44748, -23.4127], [-53.44764, -23.41412], [-53.44857, -23.41459], [-53.4488, -23.41751], [-53.44986, -23.41836], [-53.45033, -23.42094], [-53.45138, -23.42186], [-53.4505, -23.42322], [-53.45143, -23.42491], [-53.45151, -23.42557], [-53.45187, -23.4252], [-53.45182, -23.42427], [-53.45303, -23.42423], [-53.45316, -23.42638], [-53.45388, -23.42582], [-53.45452, -23.42702], [-53.45425, -23.42765], [-53.4547, -23.42901], [-53.45565, -23.43066], [-53.45558, -23.43153], [-53.45682, -23.43296], [-53.45617, -23.43346], [-53.45586, -23.43462], [-53.45623, -23.43619], [-53.45575, -23.43641], [-53.45551, -23.43812], [-53.45553, -23.44275], [-53.45504, -23.44461], [-53.4554, -23.44736], [-53.45614, -23.44887], [-53.45588, -23.45028], [-53.45658, -23.45154], [-53.45601, -23.45253], [-53.45684, -23.45423], [-53.45606, -23.45601], [-53.45676, -23.45708], [-53.45671, -23.45806], [-53.45756, -23.46016], [-53.45693, -23.46078], [-53.45684, -23.4617], [-53.45782, -23.46299], [-53.45739, -23.46505], [-53.45776, -23.46565], [-53.45756, -23.46777], [-53.4563, -23.46899], [-53.45473, -23.47228], [-53.45524, -23.47349], [-53.45701, -23.47486], [-53.46097, -23.47673], [-53.46464, -23.48047], [-53.46574, -23.48099], [-53.47284, -23.48205], [-53.48805, -23.48309], [-53.49861, -23.48331], [-53.49812, -23.48393], [-53.54022, -23.44377], [-53.55806, -23.42719], [-53.57514, -23.41176], [-53.57755, -23.40913], [-53.57616, -23.40972], [-53.57414, -23.40906], [-53.56606, -23.40236], [-53.54716, -23.3874], [-53.55134, -23.38067], [-53.5665, -23.35723], [-53.54798, -23.33395], [-53.54769, -23.33297], [-53.55186, -23.31981], [-53.52353, -23.31871], [-53.52341, -23.31607], [-53.52227, -23.31467], [-53.52185, -23.31166], [-53.52233, -23.30963], [-53.52196, -23.30717], [-53.52214, -23.30407], [-53.5208, -23.30167], [-53.51854, -23.29986], [-53.51769, -23.29807], [-53.51665, -23.29695], [-53.51519, -23.29593], [-53.51562, -23.29419], [-53.5166, -23.29374], [-53.51667, -23.29328], [-53.51573, -23.29209], [-53.51489, -23.29152], [-53.51257, -23.28909], [-53.51203, -23.28786], [-53.51136, -23.28854], [-53.51057, -23.29095], [-53.50762, -23.29471], [-53.50573, -23.29646], [-53.50495, -23.29795], [-53.50513, -23.29839], [-53.50405, -23.2991], [-53.50389, -23.30012], [-53.50145, -23.30114], [-53.50055, -23.30228], [-53.50004, -23.30237], [-53.50018, -23.3031], [-53.49961, -23.30351], [-53.49973, -23.30408], [-53.49842, -23.30488], [-53.49835, -23.30548], [-53.49706, -23.30525], [-53.4964, -23.30558], [-53.49581, -23.30689], [-53.49592, -23.30811], [-53.49428, -23.31004], [-53.49397, -23.31128], [-53.49331, -23.31133], [-53.4937, -23.31188], [-53.49235, -23.31186], [-53.49199, -23.31287], [-53.49051, -23.31352], [-53.48962, -23.31486], [-53.49002, -23.31527], [-53.48773, -23.31674], [-53.48782, -23.31717], [-53.4874, -23.31712], [-53.48769, -23.31766], [-53.48555, -23.31952], [-53.48448, -23.32181], [-53.48241, -23.32271], [-53.48183, -23.32237], [-53.48093, -23.32497], [-53.47849, -23.32597], [-53.47853, -23.32557], [-53.4773, -23.3257], [-53.47555, -23.32635], [-53.47358, -23.32803], [-53.47163, -23.32888], [-53.47063, -23.33032], [-53.47114, -23.33062], [-53.46906, -23.33306], [-53.46957, -23.33342], [-53.469, -23.33365], [-53.46861, -23.33467], [-53.46697, -23.33564], [-53.46706, -23.33627], [-53.46601, -23.33688], [-53.46566, -23.33781], [-53.46492, -23.33807], [-53.46571, -23.33967], [-53.46362, -23.34168], [-53.4639, -23.34267], [-53.46198, -23.34417], [-53.46255, -23.3442], [-53.46349, -23.34604], [-53.46272, -23.34609], [-53.46236, -23.34697], [-53.46309, -23.34757], [-53.4629, -23.34813], [-53.46336, -23.34822], [-53.46263, -23.34882], [-53.46228, -23.35056], [-53.46063, -23.35092], [-53.46045, -23.35201], [-53.4596, -23.35223], [-53.45985, -23.35399], [-53.45877, -23.35376], [-53.45806, -23.35515], [-53.45886, -23.35561], [-53.45894, -23.35656], [-53.4597, -23.3566], [-53.45953, -23.35707], [-53.46007, -23.3575], [-53.45825, -23.35765], [-53.45777, -23.35823], [-53.45813, -23.35922], [-53.45798, -23.36029], [-53.45705, -23.36112], [-53.45564, -23.36116], [-53.45491, -23.36184], [-53.45528, -23.36239]]]}}, 
{"type": "Feature", "properties": {"CD_SETOR": "410990605000011", "CD_SIT": "8", "NM_DIST": "Icaraíma", "NM_SUBDIST": null}, "geometry": {"type": "Polygon", "coordinates": [[[-53.57953, -23.4068], [-53.57514, -23.41176], [-53.55806, -23.42719], [-53.54022, -23.44377], [-53.49812, -23.48393], [-53.50338, -23.48686], [-53.50984, -23.51099], [-53.51102, -23.51393], [-53.51177, -23.51881], [-53.51466, -23.52012], [-53.5153, -23.52082], [-53.5166, -23.52099], [-53.51704, -23.52253], [-53.51867, -23.52347], [-53.51926, -23.52507], [-53.52097, -23.52498], [-53.52205, -23.52689], [-53.52383, -23.52873], [-53.52378, -23.52964], [-53.52741, -23.53138], [-53.52854, -23.53252], [-53.52952, -23.5327], [-53.53192, -23.53582], [-53.53238, -23.53591], [-53.53284, -23.53545], [-53.53359, -23.53547], [-53.5381, -23.53185], [-53.5386, -23.53229], [-53.53915, -23.53216], [-53.53928, -23.53151], [-53.54218, -23.53024], [-53.5429, -23.52932], [-53.54289, -23.52849], [-53.54392, -23.5277], [-53.54469, -23.52781], [-53.54523, -23.52716], [-53.54819, -23.52647], [-53.54865, -23.52573], [-53.55025, -23.52495], [-53.55264, -23.52543], [-53.55333, -23.52509], [-53.55678, -23.52504], [-53.55699, -23.52407], [-53.55774, -23.52399], [-53.55981, -23.52447], [-53.56133, -23.52387], [-53.56441, -23.52427], [-53.56741, -23.52229], [-53.57132, -23.52196], [-53.57089, -23.52145], [-53.57209, -23.52053], [-53.57431, -23.51998], [-53.57571, -23.52009], [-53.57661, -23.51956], [-53.57718, -23.51839], [-53.57761, -23.51883], [-53.57879, -23.51855], [-53.57957, -23.51906], [-53.57948, -23.51803], [-53.58024, -23.51776], [-53.58105, -23.51458], [-53.58154, -23.51452], [-53.58198, -23.51547], [-53.58238, -23.51495], [-53.58372, -23.51004], [-53.58523, -23.50878], [-53.58566, -23.50768], [-53.58685, -23.50798], [-53.58734, -23.50772], [-53.58777, -23.50494], [-53.59181, -23.50236], [-53.59282, -23.50086], [-53.59476, -23.50043], [-53.59543, -23.4993], [-53.59828, -23.49922], [-53.59898, -23.4977], [-53.60008, -23.49711], [-53.6007, -23.49427], [-53.60402, -23.49312], [-53.6053, -23.49332], [-53.60791, -23.49255], [-53.60946, -23.49104], [-53.6104, -23.48807], [-53.61246, -23.48863], [-53.61444, -23.4864], [-53.6158, -23.48615], [-53.61658, -23.48534], [-53.61867, -23.48497], [-53.62276, -23.48292], [-53.62405, -23.48156], [-53.62269, -23.4802], [-53.62612, -23.47891], [-53.62813, -23.47687], [-53.62853, -23.47552], [-53.6304, -23.47539], [-53.63295, -23.47592], [-53.63464, -23.4755], [-53.63496, -23.47433], [-53.63561, -23.47441], [-53.63593, -23.47356], [-53.63838, -23.47185], [-53.64098, -23.46736], [-53.64315, -23.46649], [-53.64177, -23.46495], [-53.64107, -23.46457], [-53.64104, -23.46374], [-53.63958, -23.46181], [-53.63846, -23.4613], [-53.63765, -23.46048], [-53.63631, -23.46033], [-53.63539, -23.45974], [-53.6344, -23.45727], [-53.63324, -23.45618], [-53.63114, -23.45485], [-53.62397, -23.44724], [-53.62267, -23.44595], [-53.6214, -23.44509], [-53.62085, -23.44426], [-53.61815, -23.44142], [-53.61772, -23.44104], [-53.61619, -23.44038], [-53.61441, -23.44024], [-53.61375, -23.43951], [-53.61337, -23.43871], [-53.61287, -23.4384], [-53.61161, -23.43678], [-53.60918, -23.43143], [-53.60846, -23.43032], [-53.60541, -23.42788], [-53.60911, -23.41816], [-53.61164, -23.41903], [-53.61409, -23.41235], [-53.60301, -23.40907], [-53.60245, -23.39975], [-53.58476, -23.40206], [-53.583, -23.40277], [-53.57953, -23.4068]]]}}, 
{"type": "Feature", "properties": {"CD_SETOR": "410990605000012", "CD_SIT": "8", "NM_DIST": "Icaraíma", "NM_SUBDIST": null}, "geometry": {"type": "Polygon", "coordinates": [[[-53.63017, -23.39433], [-53.62937, -23.39539], [-53.6307, -23.3952], [-53.63136, -23.39604], [-53.63067, -23.39614], [-53.63109, -23.39879], [-53.62946, -23.399], [-53.62974, -23.40088], [-53.62634, -23.40136], [-53.62606, -23.39944], [-53.61603, -23.40074], [-53.61665, -23.40529], [-53.61164, -23.41903], [-53.60911, -23.41816], [-53.60541, -23.42788], [-53.60846, -23.43032], [-53.60918, -23.43143], [-53.61161, -23.43678], [-53.61287, -23.4384], [-53.61337, -23.43871], [-53.61375, -23.43951], [-53.61441, -23.44024], [-53.61619, -23.44038], [-53.61772, -23.44104], [-53.61815, -23.44142], [-53.62085, -23.44426], [-53.6214, -23.44509], [-53.62267, -23.44595], [-53.62397, -23.44724], [-53.63114, -23.45485], [-53.63324, -23.45618], [-53.6344, -23.45727], [-53.63539, -23.45974], [-53.63631, -23.46033], [-53.63765, -23.46048], [-53.63846, -23.4613], [-53.63958, -23.46181], [-53.64104, -23.46374], [-53.64107, -23.46457], [-53.64177, -23.46495], [-53.64315, -23.46649], [-53.64617, -23.46528], [-53.6483, -23.46364], [-53.64884, -23.46218], [-53.6502, -23.4608], [-53.6537, -23.46011], [-53.65621, -23.45806], [-53.66089, -23.45695], [-53.66561, -23.45485], [-53.67144, -23.4505], [-53.67174, -23.4491], [-53.67285, -23.44859], [-53.67304, -23.44637], [-53.67379, -23.44529], [-53.67464, -23.44568], [-53.67496, -23.44491], [-53.67625, -23.44487], [-53.67783, -23.44338], [-53.67897, -23.44396], [-53.67969, -23.44381], [-53.68128, -23.44285], [-53.68237, -23.4413], [-53.68343, -23.44064], [-53.68551, -23.44029], [-53.68561, -23.43948], [-53.68966, -23.43659], [-53.69236, -23.4362], [-53.69422, -23.43512], [-53.695, -23.43383], [-53.69802, -23.43273], [-53.69886, -23.4317], [-53.69905, -23.42991], [-53.69784, -23.42837], [-53.69876, -23.42718], [-53.69897, -23.42598], [-53.70004, -23.42486], [-53.70051, -23.42255], [-53.70199, -23.4231], [-53.70286, -23.42212], [-53.70259, -23.42153], [-53.70269, -23.42113], [-53.70182, -23.42064], [-53.7003, -23.42013], [-53.69758, -23.42], [-53.69455, -23.42021], [-53.69345, -23.41965], [-53.69158, -23.41817], [-53.6909, -23.4181], [-53.69, -23.41727], [-53.68875, -23.41702], [-53.68729, -23.41613], [-53.68712, -23.41488], [-53.68566, -23.41448], [-53.6848, -23.41402], [-53.68329, -23.41434], [-53.68268, -23.41428], [-53.6816, -23.41341], [-53.68052, -23.40958], [-53.68022, -23.40938], [-53.67921, -23.40961], [-53.67879, -23.40938], [-53.67804, -23.40778], [-53.67656, -23.40621], [-53.67654, -23.40546], [-53.67615, -23.40495], [-53.67619, -23.40436], [-53.6768, -23.40367], [-53.67679, -23.40302], [-53.67631, -23.40247], [-53.67606, -23.40141], [-53.67547, -23.40064], [-53.67515, -23.39981], [-53.67469, -23.39657], [-53.67425, -23.39581], [-53.67288, -23.39556], [-53.67099, -23.39578], [-53.66994, -23.39546], [-53.66853, -23.39488], [-53.66675, -23.39381], [-53.66514, -23.39215], [-53.66386, -23.38775], [-53.66471, -23.37738], [-53.66441, -23.37725], [-53.64499, -23.37586], [-53.6439, -23.3761], [-53.64276, -23.37673], [-53.63017, -23.39433]]]}}, 
{"type": "Feature", "properties": {"CD_SETOR": "410990605000013", "CD_SIT": "1", "NM_DIST": "Icaraíma", "NM_SUBDIST": null}, "geometry": {"type": "Polygon", "coordinates": [[[-53.62698, -23.38962], [-53.62805, -23.3911], [-53.62872, -23.39018], [-53.6273, -23.3893], [-53.62698, -23.38962]]]}}, 
{"type": "Feature", "properties": {"CD_SETOR": "410990605000014", "CD_SIT": "1", "NM_DIST": "Icaraíma", "NM_SUBDIST": null}, "geometry": {"type": "Polygon", "coordinates": [[[-53.61504, -23.38952], [-53.61863, -23.38904], [-53.61811, -23.38564], [-53.61663, -23.38582], [-53.61504, -23.38952]]]}}, 
{"type": "Feature", "properties": {"CD_SETOR": "410990605000015", "CD_SIT": "1", "NM_DIST": "Icaraíma", "NM_SUBDIST": null}, "geometry": {"type": "Polygon", "coordinates": [[[-53.61235, -23.39848], [-53.61271, -23.40116], [-53.61603, -23.40072], [-53.61563, -23.39807], [-53.61235, -23.39848]]]}}, 
{"type": "Feature", "properties": {"CD_SETOR": "410990605000016", "CD_SIT": "1", "NM_DIST": "Icaraíma", "NM_SUBDIST": null}, "geometry": {"type": "Polygon", "coordinates": [[[-53.62612, -23.39943], [-53.62634, -23.40136], [-53.62974, -23.40088], [-53.62946, -23.399], [-53.62612, -23.39943]]]}}, 
{"type": "Feature", "properties": {"CD_SETOR": "410990605000017", "CD_SIT": "1", "NM_DIST": "Icaraíma", "NM_SUBDIST": null}, "geometry": {"type": "Polygon", "coordinates": [[[-53.62546, -23.39494], [-53.62612, -23.39943], [-53.63109, -23.39879], [-53.63067, -23.39614], [-53.63136, -23.39604], [-53.6307, -23.3952], [-53.62937, -23.39539], [-53.63017, -23.39433], [-53.62876, -23.39451], [-53.62863, -23.39362], [-53.62534, -23.39405], [-53.62546, -23.39494]]]}}, 
{"type": "Feature", "properties": {"CD_SETOR": "410990605000018", "CD_SIT": "1", "NM_DIST": "Icaraíma", "NM_SUBDIST": null}, "geometry": {"type": "Polygon", "coordinates": [[[-53.62205, -23.39538], [-53.6213, -23.39547], [-53.6218, -23.39916], [-53.62255, -23.39907], [-53.62267, -23.39993], [-53.62612, -23.39943], [-53.62546, -23.39494], [-53.62205, -23.39538]]]}}, 
{"type": "Feature", "properties": {"CD_SETOR": "410990605000019", "CD_SIT": "1", "NM_DIST": "Icaraíma", "NM_SUBDIST": null}, "geometry": {"type": "Polygon", "coordinates": [[[-53.61863, -23.38904], [-53.61504, -23.38952], [-53.61457, -23.39063], [-53.61482, -23.39289], [-53.61984, -23.39227], [-53.61927, -23.38896], [-53.61863, -23.38904]]]}}, 
{"type": "Feature", "properties": {"CD_SETOR": "410990605000020", "CD_SIT": "1", "NM_DIST": "Icaraíma", "NM_SUBDIST": null}, "geometry": {"type": "Polygon", "coordinates": [[[-53.61984, -23.39227], [-53.61482, -23.39289], [-53.61508, -23.39457], [-53.62009, -23.39391], [-53.62022, -23.39472], [-53.62191, -23.39451], [-53.62156, -23.39203], [-53.61984, -23.39227]]]}}, 
{"type": "Feature", "properties": {"CD_SETOR": "410990605000021", "CD_SIT": "3", "NM_DIST": "Icaraíma", "NM_SUBDIST": null}, "geometry": {"type": "Polygon", "coordinates": [[[-53.61977, -23.37949], [-53.62025, -23.38023], [-53.6214, -23.37957], [-53.62268, -23.38035], [-53.62309, -23.37976], [-53.61997, -23.3779], [-53.61967, -23.37819], [-53.62035, -23.37916], [-53.61977, -23.37949]]]}}, 
{"type": "Feature", "properties": {"CD_SETOR": "410990605000022", "CD_SIT": "8", "NM_DIST": "Icaraíma", "NM_SUBDIST": null}, "geometry": {"type": "Polygon", "coordinates": [[[-53.6052, -23.36611], [-53.60674, -23.36801], [-53.61932, -23.37906], [-53.61961, -23.37956], [-53.62114, -23.38933], [-53.6217, -23.38868], [-53.62345, -23.38843], [-53.62316, -23.3866], [-53.62477, -23.38641], [-53.62698, -23.38962], [-53.6273, -23.3893], [-53.62872, -23.39018], [-53.62805, -23.3911], [-53.62827, -23.39151], [-53.62876, -23.39451], [-53.63017, -23.39433], [-53.64276, -23.37673], [-53.6439, -23.3761], [-53.64499, -23.37586], [-53.66441, -23.37725], [-53.66038, -23.36825], [-53.6605, -23.36795], [-53.65845, -23.36493], [-53.65818, -23.3632], [-53.65749, -23.36184], [-53.65686, -23.36114], [-53.65477, -23.35992], [-53.65404, -23.35928], [-53.65359, -23.35851], [-53.65333, -23.35554], [-53.65299, -23.35495], [-53.65156, -23.35371], [-53.65054, -23.35203], [-53.65057, -23.351], [-53.65118, -23.34978], [-53.65112, -23.34816], [-53.65073, -23.34709], [-53.65068, -23.34603], [-53.64975, -23.34486], [-53.64889, -23.34056], [-53.64831, -23.33961], [-53.64777, -23.33793], [-53.64772, -23.33625], [-53.64743, -23.33503], [-53.64635, -23.33269], [-53.64545, -23.32901], [-53.64477, -23.32802], [-53.64476, -23.32686], [-53.64337, -23.32494], [-53.64313, -23.32395], [-53.64342, -23.32301], [-53.64121, -23.32246], [-53.6403, -23.32301], [-53.63781, -23.32563], [-53.63646, -23.3261], [-53.63601, -23.32755], [-53.6345, -23.32804], [-53.63465, -23.32931], [-53.63385, -23.33], [-53.63305, -23.33029], [-53.63276, -23.33007], [-53.63236, -23.33007], [-53.63179, -23.33012], [-53.63156, -23.33035], [-53.63009, -23.33052], [-53.62959, -23.33038], [-53.62942, -23.3308], [-53.6287, -23.33081], [-53.62844, -23.33109], [-53.62838, -23.33167], [-53.62871, -23.33247], [-53.62782, -23.33333], [-53.62747, -23.33345], [-53.62715, -23.33333], [-53.62704, -23.33301], [-53.6263, -23.33304], [-53.62468, -23.335], [-53.62412, -23.33605], [-53.62325, -23.33634], [-53.62157, -23.33861], [-53.62053, -23.33939], [-53.62005, -23.33941], [-53.61923, -23.34003], [-53.61885, -23.34091], [-53.61806, -23.34124], [-53.61789, -23.34153], [-53.61721, -23.34158], [-53.61698, -23.34244], [-53.61656, -23.34277], [-53.61641, -23.34326], [-53.61597, -23.3435], [-53.61564, -23.34417], [-53.61481, -23.34478], [-53.61491, -23.34585], [-53.61456, -23.34683], [-53.61478, -23.34735], [-53.61466, -23.34789], [-53.61519, -23.34806], [-53.61529, -23.3485], [-53.6157, -23.34885], [-53.6157, -23.34992], [-53.6164, -23.35048], [-53.61611, -23.35163], [-53.61619, -23.35281], [-53.6157, -23.35371], [-53.6156, -23.35471], [-53.61513, -23.35542], [-53.61537, -23.35789], [-53.61515, -23.35829], [-53.61467, -23.35848], [-53.61421, -23.3597], [-53.6144, -23.36104], [-53.61318, -23.36196], [-53.61244, -23.36227], [-53.61184, -23.36228], [-53.61073, -23.36152], [-53.61012, -23.36144], [-53.60956, -23.36175], [-53.60892, -23.36265], [-53.60753, -23.36379], [-53.60742, -23.36446], [-53.6052, -23.36611]], [[-53.61977, -23.37949], [-53.62035, -23.37916], [-53.61967, -23.37819], [-53.61997, -23.3779], [-53.62309, -23.37976], [-53.62268, -23.38035], [-53.6214, -23.37957], [-53.62025, -23.38023], [-53.61977, -23.37949]]]}}, 
{"type": "Feature", "properties": {"CD_SETOR": "410990610000002", "CD_SIT": "8", "NM_DIST": "Porto Camargo", "NM_SUBDIST": null}, "geometry": {"type": "Polygon", "coordinates": [[[-53.66441, -23.37725], [-53.66471, -23.37738], [-53.66386, -23.38775], [-53.66514, -23.39215], [-53.66675, -23.39381], [-53.66853, -23.39488], [-53.66994, -23.39546], [-53.67099, -23.39578], [-53.67288, -23.39556], [-53.67425, -23.39581], [-53.67469, -23.39657], [-53.67515, -23.39981], [-53.67547, -23.40064], [-53.67606, -23.40141], [-53.67631, -23.40247], [-53.67679, -23.40302], [-53.6768, -23.40367], [-53.67619, -23.40436], [-53.67615, -23.40495], [-53.67654, -23.40546], [-53.67656, -23.40621], [-53.67804, -23.40778], [-53.67879, -23.40938], [-53.67921, -23.40961], [-53.68022, -23.40938], [-53.68052, -23.40958], [-53.6816, -23.41341], [-53.68268, -23.41428], [-53.68329, -23.41434], [-53.6848, -23.41402], [-53.68566, -23.41448], [-53.68712, -23.41488], [-53.68729, -23.41613], [-53.68875, -23.41702], [-53.69, -23.41727], [-53.6909, -23.4181], [-53.69158, -23.41817], [-53.69345, -23.41965], [-53.69455, -23.42021], [-53.69758, -23.42], [-53.7003, -23.42013], [-53.70182, -23.42064], [-53.70269, -23.42113], [-53.70454, -23.41972], [-53.70498, -23.41979], [-53.70485, -23.42041], [-53.70618, -23.41997], [-53.70672, -23.4186], [-53.70622, -23.41643], [-53.70667, -23.41559], [-53.70781, -23.41594], [-53.70966, -23.41532], [-53.71028, -23.41565], [-53.71091, -23.41277], [-53.71198, -23.41207], [-53.71335, -23.41216], [-53.71323, -23.41068], [-53.71419, -23.4104], [-53.71445, -23.40943], [-53.71593, -23.40856], [-53.71596, -23.40701], [-53.71686, -23.40667], [-53.71667, -23.40551], [-53.71862, -23.40426], [-53.72295, -23.40338], [-53.72517, -23.40191], [-53.72547, -23.40124], [-53.72519, -23.39987], [-53.72574, -23.39842], [-53.72518, -23.39734], [-53.72619, -23.39657], [-53.72832, -23.39061], [-53.72932, -23.38952], [-53.73201, -23.39048], [-53.73237, -23.39145], [-53.73464, -23.39182], [-53.7365, -23.39097], [-53.73669, -23.38909], [-53.73615, -23.38741], [-53.73485, -23.38623], [-53.73742, -23.38369], [-53.73835, -23.38051], [-53.74082, -23.37969], [-53.74186, -23.37798], [-53.7445, -23.37549], [-53.74057, -23.37279], [-53.74081, -23.37256], [-53.74376, -23.37152], [-53.74433, -23.36591], [-53.73833, -23.36186], [-53.7378, -23.36174], [-53.73676, -23.36203], [-53.73324, -23.3661], [-53.73203, -23.36676], [-53.71464, -23.35488], [-53.71061, -23.35233], [-53.70958, -23.35233], [-53.70875, -23.35259], [-53.68999, -23.37169], [-53.67585, -23.3727], [-53.66642, -23.37733], [-53.66441, -23.37725]]]}}, 
{"type": "Feature", "properties": {"CD_SETOR": "410990610000005", "CD_SIT": "1", "NM_DIST": "Porto Camargo", "NM_SUBDIST": null}, "geometry": {"type": "Polygon", "coordinates": [[[-53.74116, -23.36382], [-53.74432, -23.36593], [-53.74716, -23.36618], [-53.74712, -23.36702], [-53.74999, -23.36718], [-53.75005, -23.36637], [-53.75354, -23.36667], [-53.75488, -23.36728], [-53.75539, -23.36696], [-53.7535, -23.36441], [-53.75262, -23.36346], [-53.75098, -23.36249], [-53.75017, -23.36371], [-53.74584, -23.3626], [-53.74476, -23.36188], [-53.74455, -23.36382], [-53.74239, -23.36231], [-53.74116, -23.36382]]]}}, 
{"type": "Feature", "properties": {"CD_SETOR": "410990610000006", "CD_SIT": "1", "NM_DIST": "Porto Camargo", "NM_SUBDIST": null}, "geometry": {"type": "Polygon", "coordinates": [[[-53.7445, -23.37549], [-53.74475, -23.37525], [-53.74888, -23.37402], [-53.75103, -23.37421], [-53.75199, -23.37324], [-53.75378, -23.37246], [-53.75286, -23.37067], [-53.7557, -23.36724], [-53.75539, -23.36696], [-53.75488, -23.36728], [-53.75324, -23.36661], [-53.75005, -23.36637], [-53.74999, -23.36718], [-53.74712, -23.36702], [-53.74716, -23.36618], [-53.74432, -23.36593], [-53.74376, -23.37152], [-53.74081, -23.37256], [-53.74057, -23.37279], [-53.7445, -23.37549]]]}}, 
{"type": "Feature", "properties": {"CD_SETOR": "410990610000007", "CD_SIT": "3", "NM_DIST": "Porto Camargo", "NM_SUBDIST": null}, "geometry": {"type": "Polygon", "coordinates": [[[-53.71492, -23.35507], [-53.71791, -23.3571], [-53.72217, -23.35156], [-53.71888, -23.3501], [-53.71492, -23.35507]]]}}, 
{"type": "Feature", "properties": {"CD_SETOR": "410990610000008", "CD_SIT": "8", "NM_DIST": "Porto Camargo", "NM_SUBDIST": null}, "geometry": {"type": "Polygon", "coordinates": [[[-53.64342, -23.32301], [-53.64313, -23.32395], [-53.64337, -23.32494], [-53.64476, -23.32686], [-53.64477, -23.32802], [-53.64545, -23.32901], [-53.64635, -23.33269], [-53.64743, -23.33503], [-53.64772, -23.33625], [-53.64777, -23.33793], [-53.64831, -23.33961], [-53.64889, -23.34056], [-53.64975, -23.34486], [-53.65068, -23.34603], [-53.65073, -23.34709], [-53.65112, -23.34816], [-53.65118, -23.34978], [-53.65057, -23.351], [-53.65054, -23.35203], [-53.65156, -23.35371], [-53.65299, -23.35495], [-53.65333, -23.35554], [-53.65359, -23.35851], [-53.65404, -23.35928], [-53.65477, -23.35992], [-53.65686, -23.36114], [-53.65749, -23.36184], [-53.65818, -23.3632], [-53.65845, -23.36493], [-53.6605, -23.36795], [-53.66038, -23.36825], [-53.66441, -23.37725], [-53.66642, -23.37733], [-53.67585, -23.3727], [-53.68999, -23.37169], [-53.70875, -23.35259], [-53.70958, -23.35233], [-53.71061, -23.35233], [-53.71492, -23.35507], [-53.71888, -23.3501], [-53.72217, -23.35156], [-53.71791, -23.3571], [-53.73203, -23.36676], [-53.73324, -23.3661], [-53.73676, -23.36203], [-53.73733, -23.36182], [-53.73787, -23.36174], [-53.73833, -23.36186], [-53.74116, -23.36382], [-53.74239, -23.36231], [-53.74455, -23.36382], [-53.74476, -23.36188], [-53.74584, -23.3626], [-53.75017, -23.36371], [-53.75098, -23.36249], [-53.75027, -23.36208], [-53.74865, -23.36169], [-53.7471, -23.36088], [-53.74414, -23.35898], [-53.74326, -23.3582], [-53.74206, -23.35765], [-53.74024, -23.35643], [-53.73782, -23.35416], [-53.73402, -23.35197], [-53.7316, -23.3514], [-53.73034, -23.35132], [-53.72935, -23.35163], [-53.72768, -23.35125], [-53.72397, -23.34989], [-53.72243, -23.34912], [-53.72017, -23.34873], [-53.71723, -23.34724], [-53.71543, -23.34585], [-53.71476, -23.34351], [-53.71503, -23.33999], [-53.71582, -23.33629], [-53.71623, -23.33299], [-53.71581, -23.33006], [-53.71489, -23.32618], [-53.71304, -23.322], [-53.71195, -23.32041], [-53.7109, -23.31925], [-53.70907, -23.3177], [-53.7069, -23.3154], [-53.70413, -23.31345], [-53.69775, -23.30742], [-53.69875, -23.30579], [-53.69815, -23.30595], [-53.69251, -23.30229], [-53.6865, -23.29717], [-53.67573, -23.2898], [-53.67349, -23.289], [-53.66687, -23.28777], [-53.66353, -23.28751], [-53.65601, -23.28807], [-53.65151, -23.28743], [-53.6513, -23.28883], [-53.65202, -23.28954], [-53.65196, -23.29007], [-53.65169, -23.29008], [-53.6514, -23.28941], [-53.65096, -23.28937], [-53.65052, -23.28956], [-53.6502, -23.29021], [-53.65021, -23.291], [-53.65002, -23.29137], [-53.64764, -23.29403], [-53.64783, -23.2975], [-53.64745, -23.2996], [-53.64811, -23.30252], [-53.6471, -23.30369], [-53.64591, -23.3062], [-53.64538, -23.30969], [-53.64563, -23.31211], [-53.64523, -23.31724], [-53.64557, -23.31753], [-53.64555, -23.31804], [-53.64518, -23.31823], [-53.64394, -23.31804], [-53.64384, -23.31931], [-53.64418, -23.31954], [-53.64379, -23.3226], [-53.64342, -23.32301]]]}}, 
{"type": "Feature", "properties": {"CD_SETOR": "410990610000009", "CD_SIT": "9", "NM_DIST": "Porto Camargo", "NM_SUBDIST": null}, "geometry": {"type": "Polygon", "coordinates": [[[-53.69875, -23.30579], [-53.69775, -23.30742], [-53.70413, -23.31345], [-53.7069, -23.3154], [-53.70907, -23.3177], [-53.7109, -23.31925], [-53.71195, -23.32041], [-53.71304, -23.322], [-53.71489, -23.32618], [-53.71581, -23.33006], [-53.71623, -23.33299], [-53.71582, -23.33629], [-53.71503, -23.33999], [-53.71476, -23.34351], [-53.71543, -23.34585], [-53.71723, -23.34724], [-53.72017, -23.34873], [-53.72243, -23.34912], [-53.72397, -23.34989], [-53.72768, -23.35125], [-53.72935, -23.35163], [-53.73034, -23.35132], [-53.7316, -23.3514], [-53.73402, -23.35197], [-53.73782, -23.35416], [-53.74024, -23.35643], [-53.74206, -23.35765], [-53.74326, -23.3582], [-53.74414, -23.35898], [-53.7471, -23.36088], [-53.74865, -23.36169], [-53.75027, -23.36208], [-53.75177, -23.36284], [-53.75262, -23.36346], [-53.7535, -23.36441], [-53.7557, -23.36724], [-53.7592, -23.36302], [-53.75618, -23.35893], [-53.75546, -23.35746], [-53.75497, -23.35584], [-53.75509, -23.3549], [-53.75665, -23.35506], [-53.75761, -23.35553], [-53.7584, -23.35655], [-53.76077, -23.36112], [-53.76224, -23.35934], [-53.76136, -23.35747], [-53.75927, -23.35402], [-53.74848, -23.34228], [-53.74132, -23.33564], [-53.73412, -23.32534], [-53.72522, -23.31043], [-53.71967, -23.29761], [-53.71491, -23.28338], [-53.70953, -23.28858], [-53.70159, -23.29406], [-53.70042, -23.29527], [-53.69952, -23.2971], [-53.69875, -23.30579]], [[-53.73145, -23.34892], [-53.72919, -23.3485], [-53.72634, -23.34823], [-53.72051, -23.34689], [-53.71928, -23.34626], [-53.71847, -23.34549], [-53.71808, -23.3447], [-53.71783, -23.34372], [-53.71789, -23.34026], [-53.71848, -23.33758], [-53.71984, -23.33276], [-53.71988, -23.3318], [-53.71962, -23.32941], [-53.71935, -23.32834], [-53.71741, -23.32437], [-53.71678, -23.32226], [-53.71557, -23.31913], [-53.71419, -23.3171], [-53.71236, -23.31551], [-53.7084, -23.3126], [-53.7053, -23.30948], [-53.70253, -23.30736], [-53.70106, -23.30526], [-53.70103, -23.30395], [-53.70068, -23.30319], [-53.70098, -23.30188], [-53.70106, -23.30038], [-53.70068, -23.29881], [-53.70061, -23.29774], [-53.70097, -23.297], [-53.70217, -23.29579], [-53.70652, -23.29297], [-53.70745, -23.29267], [-53.70813, -23.2929], [-53.70865, -23.29419], [-53.70976, -23.29612], [-53.71168, -23.30258], [-53.71302, -23.30476], [-53.7148, -23.3094], [-53.71762, -23.31422], [-53.71841, -23.31604], [-53.71947, -23.31721], [-53.72034, -23.31867], [-53.72511, -23.3249], [-53.7271, -23.32915], [-53.72859, -23.33163], [-53.72869, -23.33257], [-53.72926, -23.33389], [-53.73008, -23.33724], [-53.73149, -23.34014], [-53.73178, -23.34144], [-53.73166, -23.34655], [-53.73174, -23.34814], [-53.732, -23.34907], [-53.73145, -23.34892]], [[-53.75267, -23.35948], [-53.74697, -23.35677], [-53.74443, -23.35509], [-53.73904, -23.35196], [-53.73599, -23.34914], [-53.73535, -23.34823], [-53.73499, -23.34664], [-53.73544, -23.346], [-53.73578, -23.34489], [-53.73617, -23.34461], [-53.73789, -23.34261], [-53.73859, -23.3425], [-53.73992, -23.34359], [-53.74252, -23.34696], [-53.74454, -23.34904], [-53.74712, -23.35155], [-53.74994, -23.3535], [-53.7513, -23.35473], [-53.75245, -23.35611], [-53.75309, -23.35855], [-53.75362, -23.35988], [-53.75267, -23.35948]]]}}, 
{"type": "Feature", "properties": {"CD_SETOR": "410990610000010", "CD_SIT": "8", "NM_DIST": "Porto Camargo", "NM_SUBDIST": null}, "geometry": {"type": "MultiPolygon", "coordinates": [[[[-53.75867, -23.36229], [-53.7592, -23.36302], [-53.76077, -23.36112], [-53.7584, -23.35655], [-53.75761, -23.35553], [-53.75665, -23.35506], [-53.75509, -23.3549], [-53.75497, -23.35584], [-53.75546, -23.35746], [-53.75665, -23.35966], [-53.75867, -23.36229]]], [[[-53.75267, -23.35948], [-53.75362, -23.35988], [-53.75309, -23.35855], [-53.75245, -23.35611], [-53.7513, -23.35473], [-53.74994, -23.3535], [-53.74712, -23.35155], [-53.74454, -23.34904], [-53.74252, -23.34696], [-53.73992, -23.34359], [-53.73859, -23.3425], [-53.73789, -23.34261], [-53.73617, -23.34461], [-53.73578, -23.34489], [-53.73544, -23.346], [-53.73499, -23.34664], [-53.73535, -23.34823], [-53.73599, -23.34914], [-53.73904, -23.35196], [-53.74443, -23.35509], [-53.74697, -23.35677], [-53.75267, -23.35948]]], [[[-53.73145, -23.34892], [-53.732, -23.34907], [-53.73174, -23.34814], [-53.73166, -23.34655], [-53.73178, -23.34144], [-53.73149, -23.34014], [-53.73008, -23.33724], [-53.72926, -23.33389], [-53.72869, -23.33257], [-53.72859, -23.33163], [-53.7271, -23.32915], [-53.72511, -23.3249], [-53.72034, -23.31867], [-53.71947, -23.31721], [-53.71841, -23.31604], [-53.71762, -23.31422], [-53.7148, -23.3094], [-53.71302, -23.30476], [-53.71168, -23.30258], [-53.70976, -23.29612], [-53.70865, -23.29419], [-53.70813, -23.2929], [-53.70745, -23.29267], [-53.70652, -23.29297], [-53.70217, -23.29579], [-53.70097, -23.297], [-53.70061, -23.29774], [-53.70068, -23.29881], [-53.70106, -23.30038], [-53.70098, -23.30188], [-53.70068, -23.30319], [-53.70103, -23.30395], [-53.70106, -23.30526], [-53.70253, -23.30736], [-53.7053, -23.30948], [-53.7084, -23.3126], [-53.71236, -23.31551], [-53.71419, -23.3171], [-53.71557, -23.31913], [-53.71678, -23.32226], [-53.71741, -23.32437], [-53.71935, -23.32834], [-53.71962, -23.32941], [-53.71988, -23.3318], [-53.71984, -23.33276], [-53.71848, -23.33758], [-53.71789, -23.34026], [-53.71783, -23.34372], [-53.71808, -23.3447], [-53.71847, -23.34549], [-53.71928, -23.34626], [-53.72051, -23.34689], [-53.72634, -23.34823], [-53.72919, -23.3485], [-53.73145, -23.34892]]]]}}, 
{"type": "Feature", "properties": {"CD_SETOR": "410990615000001", "CD_SIT": "1", "NM_DIST": "Vila Rica do Ivaí", "NM_SUBDIST": null}, "geometry": {"type": "Polygon", "coordinates": [[[-53.55097, -23.29031], [-53.55018, -23.29083], [-53.55389, -23.29581], [-53.55652, -23.29409], [-53.55356, -23.29039], [-53.55272, -23.29097], [-53.55178, -23.28978], [-53.55097, -23.29031]]]}}, 
{"type": "Feature", "properties": {"CD_SETOR": "410990615000002", "CD_SIT": "8", "NM_DIST": "Vila Rica do Ivaí", "NM_SUBDIST": null}, "geometry": {"type": "Polygon", "coordinates": [[[-53.55736, -23.21601], [-53.55586, -23.21662], [-53.55561, -23.21752], [-53.55504, -23.21752], [-53.55503, -23.21688], [-53.5543, -23.21662], [-53.55305, -23.21757], [-53.55222, -23.21743], [-53.55157, -23.21634], [-53.55096, -23.21656], [-53.55034, -23.21777], [-53.54796, -23.21731], [-53.54573, -23.21751], [-53.54469, -23.21704], [-53.5444, -23.218], [-53.54335, -23.21826], [-53.54114, -23.22025], [-53.53761, -23.22041], [-53.53529, -23.22102], [-53.53169, -23.21996], [-53.52862, -23.22017], [-53.52706, -23.22105], [-53.52724, -23.22161], [-53.52668, -23.22211], [-53.52586, -23.22195], [-53.52571, -23.22287], [-53.52458, -23.22362], [-53.52522, -23.22546], [-53.52444, -23.22686], [-53.52463, -23.22759], [-53.52558, -23.22899], [-53.52718, -23.23325], [-53.52715, -23.23415], [-53.52612, -23.23542], [-53.52735, -23.23904], [-53.52805, -23.24345], [-53.52719, -23.24581], [-53.52594, -23.2475], [-53.52573, -23.24988], [-53.52409, -23.25135], [-53.5238, -23.25452], [-53.52279, -23.25706], [-53.52335, -23.26012], [-53.52276, -23.26118], [-53.52215, -23.26494], [-53.52262, -23.26689], [-53.52233, -23.26751], [-53.52106, -23.26801], [-53.52073, -23.27019], [-53.51861, -23.2721], [-53.51853, -23.27602], [-53.51742, -23.27754], [-53.51536, -23.27877], [-53.51413, -23.28358], [-53.51162, -23.2869], [-53.51137, -23.28771], [-53.51203, -23.28786], [-53.51257, -23.28909], [-53.51489, -23.29152], [-53.51573, -23.29209], [-53.51667, -23.29328], [-53.5166, -23.29374], [-53.51562, -23.29419], [-53.51519, -23.29593], [-53.51665, -23.29695], [-53.51769, -23.29807], [-53.51854, -23.29986], [-53.5208, -23.30167], [-53.52214, -23.30407], [-53.52196, -23.30717], [-53.52233, -23.30963], [-53.52185, -23.31166], [-53.52227, -23.31467], [-53.52341, -23.31607], [-53.52353, -23.31871], [-53.55186, -23.31981], [-53.55776, -23.29968], [-53.55763, -23.2989], [-53.55487, -23.29518], [-53.55389, -23.29581], [-53.55018, -23.29083], [-53.55097, -23.29031], [-53.54815, -23.28661], [-53.55602, -23.28128], [-53.56081, -23.22932], [-53.56049, -23.22205], [-53.56246, -23.22051], [-53.56184, -23.22013], [-53.55753, -23.21594], [-53.55736, -23.21601]]]}}, 
{"type": "Feature", "properties": {"CD_SETOR": "410990615000003", "CD_SIT": "8", "NM_DIST": "Vila Rica do Ivaí", "NM_SUBDIST": null}, "geometry": {"type": "Polygon", "coordinates": [[[-53.56246, -23.22051], [-53.56049, -23.22205], [-53.56081, -23.22932], [-53.55602, -23.28128], [-53.54815, -23.28661], [-53.55097, -23.29031], [-53.55178, -23.28978], [-53.55272, -23.29097], [-53.55356, -23.29039], [-53.55652, -23.29409], [-53.55487, -23.29518], [-53.55763, -23.2989], [-53.55776, -23.29968], [-53.55186, -23.31981], [-53.5682, -23.32013], [-53.57009, -23.31667], [-53.57117, -23.31557], [-53.57207, -23.31413], [-53.57354, -23.31246], [-53.57455, -23.31179], [-53.57473, -23.31087], [-53.57539, -23.31014], [-53.5755, -23.30858], [-53.57625, -23.30786], [-53.57679, -23.30688], [-53.57713, -23.30518], [-53.57764, -23.30458], [-53.57767, -23.30396], [-53.57728, -23.30327], [-53.57708, -23.3023], [-53.57714, -23.30117], [-53.58006, -23.29996], [-53.58052, -23.29935], [-53.58144, -23.2967], [-53.58161, -23.29538], [-53.58123, -23.29449], [-53.58149, -23.29367], [-53.58214, -23.29222], [-53.58363, -23.29004], [-53.58425, -23.28881], [-53.58435, -23.2881], [-53.58476, -23.28757], [-53.58525, -23.28304], [-53.58592, -23.28073], [-53.58577, -23.27965], [-53.58534, -23.2786], [-53.58538, -23.27797], [-53.58667, -23.27608], [-53.58869, -23.27001], [-53.58971, -23.26834], [-53.59002, -23.26536], [-53.59141, -23.26169], [-53.59141, -23.26031], [-53.59169, -23.25879], [-53.59228, -23.25727], [-53.59224, -23.25672], [-53.59517, -23.25434], [-53.5973, -23.25053], [-53.60023, -23.25069], [-53.60212, -23.24802], [-53.60346, -23.24544], [-53.60514, -23.24099], [-53.60502, -23.23697], [-53.60544, -23.23495], [-53.60629, -23.23332], [-53.6077, -23.23233], [-53.60891, -23.23025], [-53.60894, -23.22871], [-53.60862, -23.22706], [-53.60469, -23.21497], [-53.60412, -23.21449], [-53.60169, -23.21639], [-53.59692, -23.22178], [-53.59208, -23.22403], [-53.58202, -23.22618], [-53.56793, -23.22308], [-53.56526, -23.22226], [-53.56246, -23.22051]]]}}, 
{"type": "Feature", "properties": {"CD_SETOR": "410990615000004", "CD_SIT": "8", "NM_DIST": "Vila Rica do Ivaí", "NM_SUBDIST": null}, "geometry": {"type": "Polygon", "coordinates": [[[-53.60412, -23.21449], [-53.60469, -23.21497], [-53.60862, -23.22706], [-53.60894, -23.22871], [-53.60891, -23.23025], [-53.6077, -23.23233], [-53.60629, -23.23332], [-53.60544, -23.23495], [-53.60502, -23.23697], [-53.60514, -23.24099], [-53.60346, -23.24544], [-53.60212, -23.24802], [-53.60023, -23.25069], [-53.5973, -23.25053], [-53.59517, -23.25434], [-53.59224, -23.25672], [-53.59228, -23.25727], [-53.59169, -23.25879], [-53.59141, -23.26031], [-53.59141, -23.26169], [-53.59002, -23.26536], [-53.58971, -23.26834], [-53.58869, -23.27001], [-53.58667, -23.27608], [-53.58538, -23.27797], [-53.58534, -23.2786], [-53.58577, -23.27965], [-53.58592, -23.28073], [-53.58525, -23.28304], [-53.58476, -23.28757], [-53.58435, -23.2881], [-53.58425, -23.28881], [-53.58363, -23.29004], [-53.58214, -23.29222], [-53.58149, -23.29367], [-53.58123, -23.29449], [-53.58161, -23.29538], [-53.58144, -23.2967], [-53.58052, -23.29935], [-53.58006, -23.29996], [-53.57714, -23.30117], [-53.57708, -23.3023], [-53.57728, -23.30327], [-53.57767, -23.30396], [-53.57764, -23.30458], [-53.57713, -23.30518], [-53.57679, -23.30688], [-53.57625, -23.30786], [-53.5755, -23.30858], [-53.57539, -23.31014], [-53.57473, -23.31087], [-53.57455, -23.31179], [-53.57354, -23.31246], [-53.57207, -23.31413], [-53.57117, -23.31557], [-53.57009, -23.31667], [-53.5682, -23.32013], [-53.64121, -23.32246], [-53.64342, -23.32301], [-53.64379, -23.3226], [-53.64418, -23.31954], [-53.64384, -23.31931], [-53.64394, -23.31804], [-53.64518, -23.31823], [-53.64555, -23.31804], [-53.64557, -23.31753], [-53.64523, -23.31724], [-53.64563, -23.31211], [-53.64538, -23.30969], [-53.64591, -23.3062], [-53.6471, -23.30369], [-53.64811, -23.30252], [-53.64745, -23.2996], [-53.64783, -23.2975], [-53.64764, -23.29403], [-53.65002, -23.29137], [-53.65021, -23.291], [-53.6502, -23.29021], [-53.65052, -23.28956], [-53.65096, -23.28937], [-53.6514, -23.28941], [-53.65169, -23.29008], [-53.65196, -23.29007], [-53.65202, -23.28954], [-53.6513, -23.28883], [-53.65151, -23.28743], [-53.64817, -23.28579], [-53.64015, -23.2786], [-53.63743, -23.27564], [-53.63465, -23.27347], [-53.63129, -23.27246], [-53.62964, -23.27114], [-53.62901, -23.26988], [-53.62921, -23.26652], [-53.63297, -23.25759], [-53.633, -23.2547], [-53.63144, -23.24958], [-53.63141, -23.24796], [-53.63174, -23.24708], [-53.63384, -23.24546], [-53.63484, -23.24386], [-53.63539, -23.2414], [-53.63415, -23.23932], [-53.62817, -23.2357], [-53.62608, -23.23348], [-53.62508, -23.23089], [-53.62496, -23.22915], [-53.62652, -23.22132], [-53.6263, -23.21879], [-53.62497, -23.2164], [-53.62226, -23.21352], [-53.61923, -23.21159], [-53.61545, -23.21098], [-53.60875, -23.21253], [-53.60412, -23.21449]]]}}]}