{"type": "FeatureCollection", "features": [
{"type": "Feature", "properties": {"CD_SETOR": "420245305000005", "CD_SIT": "1", "NM_DIST": "Bombinhas", "NM_SUBDIST": null}, "geometry": {"type": "Polygon", "coordinates": [[[-48.49074, -27.14906], [-48.4913, -27.14991], [-48.49087, -27.15015], [-48.49447, -27.15558], [-48.49539, -27.15618], [-48.49726, -27.15939], [-48.49808, -27.15771], [-48.49824, -27.15659], [-48.49833, -27.15563], [-48.4981, -27.15451], [-48.49778, -27.154], [-48.4937, -27.14801], [-48.49167, -27.14851], [-48.49074, -27.14906]]]}}, 
{"type": "Feature", "properties": {"CD_SETOR": "420245305000006", "CD_SIT": "2", "NM_DIST": "Bombinhas", "NM_SUBDIST": null}, "geometry": {"type": "Polygon", "coordinates": [[[-48.49723, -27.16742], [-48.49791, -27.1669], [-48.49933, -27.16337], [-48.49618, -27.16052], [-48.49452, -27.16164], [-48.49281, -27.16163], [-48.49234, -27.16145], [-48.49151, -27.16065], [-48.4906, -27.15938], [-48.48777, -27.15715], [-48.4867, -27.15585], [-48.4845, -27.15245], [-48.48404, -27.15288], [-48.48321, -27.15204], [-48.47973, -27.15049], [-48.47839, -27.14963], [-48.47754, -27.14879], [-48.47597, -27.14779], [-48.4756, -27.14733], [-48.47546, -27.14678], [-48.47551, -27.14593], [-48.47511, -27.14605], [-48.47443, -27.14596], [-48.47312, -27.14526], [-48.47135, -27.14469], [-48.46989, -27.14454], [-48.46873, -27.14376], [-48.46767, -27.14364], [-48.46734, -27.14387], [-48.46573, -27.14319], [-48.46543, -27.14332], [-48.46571, -27.1435], [-48.46524, -27.14359], [-48.46529, -27.14379], [-48.46493, -27.14386], [-48.46523, -27.14475], [-48.46595, -27.14567], [-48.46652, -27.1457], [-48.46704, -27.14598], [-48.46794, -27.14603], [-48.46875, -27.14644], [-48.46925, -27.14702], [-48.47078, -27.14761], [-48.47126, -27.14755], [-48.47159, -27.14827], [-48.47248, -27.14862], [-48.47361, -27.15016], [-48.47337, -27.15055], [-48.47355, -27.15107], [-48.47435, -27.15196], [-48.47428, -27.15222], [-48.47477, -27.15328], [-48.47522, -27.15397], [-48.47562, -27.15429], [-48.47675, -27.1542], [-48.47734, -27.15457], [-48.47797, -27.15429], [-48.47852, -27.15429], [-48.47898, -27.15401], [-48.47976, -27.15396], [-48.48058, -27.153], [-48.48137, -27.1531], [-48.48243, -27.15376], [-48.48422, -27.15598], [-48.48482, -27.15716], [-48.48527, -27.15883], [-48.48521, -27.1598], [-48.48492, -27.16038], [-48.48465, -27.16055], [-48.48384, -27.16036], [-48.48375, -27.16047], [-48.48396, -27.16075], [-48.48377, -27.16122], [-48.48466, -27.16216], [-48.48486, -27.16216], [-48.48485, -27.16243], [-48.48553, -27.16258], [-48.48543, -27.16274], [-48.48568, -27.16321], [-48.48564, -27.16346], [-48.486, -27.16387], [-48.48773, -27.16451], [-48.4881, -27.16366], [-48.4888, -27.1639], [-48.48916, -27.16349], [-48.49093, -27.16424], [-48.49154, -27.16391], [-48.49157, -27.16375], [-48.49194, -27.16375], [-48.4925, -27.164], [-48.49274, -27.16432], [-48.49292, -27.16421], [-48.49315, -27.16459], [-48.49346, -27.1647], [-48.49368, -27.16455], [-48.49387, -27.16466], [-48.49454, -27.16447], [-48.49512, -27.16477], [-48.4955, -27.16533], [-48.496, -27.16571], [-48.49646, -27.16567], [-48.49723, -27.16742]]]}}, 
{"type": "Feature", "properties": {"CD_SETOR": "420245305000011", "CD_SIT": "2", "NM_DIST": "Bombinhas", "NM_SUBDIST": null}, "geometry": {"type": "Polygon", "coordinates": [[[-48.53163, -27.17477], [-48.53226, -27.17509], [-48.53255, -27.17543], [-48.53161, -27.17866], [-48.53343, -27.17866], [-48.53448, -27.17842], [-48.53546, -27.17938], [-48.53556, -27.17903], [-48.53587, -27.17905], [-48.53611, -27.17991], [-48.53643, -27.17998], [-48.53637, -27.18023], [-48.53695, -27.18032], [-48.5368, -27.18102], [-48.54227, -27.18263], [-48.54329, -27.1837], [-48.5438, -27.18395], [-48.54416, -27.18503], [-48.54448, -27.18538], [-48.54527, -27.18549], [-48.54784, -27.18679], [-48.54799, -27.18737], [-48.54863, -27.18846], [-48.54895, -27.18849], [-48.54918, -27.18883], [-48.55126, -27.19003], [-48.55218, -27.19075], [-48.55241, -27.19141], [-48.55231, -27.19194], [-48.55205, -27.19208], [-48.5521, -27.19242], [-48.55243, -27.19258], [-48.55233, -27.19331], [-48.55263, -27.19367], [-48.55289, -27.19444], [-48.55368, -27.19529], [-48.55407, -27.1955], [-48.55448, -27.19616], [-48.55534, -27.19652], [-48.55595, -27.19699], [-48.55646, -27.19707], [-48.55765, -27.198], [-48.55791, -27.19796], [-48.558, -27.19755], [-48.55846, -27.19744], [-48.55851, -27.1968], [-48.55925, -27.19663], [-48.55999, -27.1968], [-48.56077, -27.19735], [-48.56217, -27.19892], [-48.56282, -27.19928], [-48.56333, -27.19982], [-48.564, -27.19953], [-48.56532, -27.2002], [-48.5654, -27.19979], [-48.56578, -27.19975], [-48.56897, -27.20178], [-48.56997, -27.20216], [-48.5707, -27.20219], [-48.57164, -27.20297], [-48.57512, -27.20842], [-48.57575, -27.20859], [-48.57664, -27.20921], [-48.57729, -27.21006], [-48.57724, -27.21066], [-48.57759, -27.21117], [-48.57797, -27.21144], [-48.57835, -27.21146], [-48.5779, -27.21041], [-48.57774, -27.20947], [-48.57654, -27.20736], [-48.57706, -27.20584], [-48.57871, -27.20459], [-48.57891, -27.20359], [-48.57942, -27.20294], [-48.58086, -27.20277], [-48.5817, -27.2025], [-48.583, -27.20149], [-48.58415, -27.19917], [-48.58466, -27.1985], [-48.5852, -27.19815], [-48.58462, -27.19771], [-48.5846, -27.197], [-48.58414, -27.19651], [-48.58401, -27.19601], [-48.58419, -27.19528], [-48.5841, -27.19487], [-48.58341, -27.19408], [-48.58309, -27.19326], [-48.58258, -27.19254], [-48.58143, -27.19159], [-48.58042, -27.19048], [-48.57916, -27.18978], [-48.57892, -27.18911], [-48.57856, -27.18874], [-48.5768, -27.18761], [-48.57564, -27.18615], [-48.57418, -27.18615], [-48.5702, -27.18569], [-48.56846, -27.18521], [-48.56773, -27.18518], [-48.56678, -27.18482], [-48.56635, -27.18436], [-48.56479, -27.18385], [-48.5632, -27.18404], [-48.56266, -27.18394], [-48.56216, -27.18329], [-48.5621, -27.18248], [-48.56127, -27.18179], [-48.56089, -27.18121], [-48.56062, -27.18052], [-48.56044, -27.1789], [-48.55927, -27.17853], [-48.55859, -27.17763], [-48.55761, -27.17727], [-48.55632, -27.17712], [-48.55588, -27.1769], [-48.55569, -27.17602], [-48.5551, -27.17526], [-48.5544, -27.1738], [-48.55417, -27.1725], [-48.55236, -27.17133], [-48.55166, -27.17111], [-48.5508, -27.17152], [-48.54907, -27.17148], [-48.54813, -27.17215], [-48.54744, -27.17224], [-48.54677, -27.17291], [-48.54594, -27.17332], [-48.54456, -27.17345], [-48.5437, -27.17288], [-48.54206, -27.1732], [-48.54103, -27.1729], [-48.54064, -27.17191], [-48.53872, -27.17116], [-48.5382, -27.16915], [-48.53746, -27.16896], [-48.53691, -27.16858], [-48.53643, -27.16689], [-48.53569, -27.16594], [-48.53485, -27.16529], [-48.53296, -27.17099], [-48.53262, -27.17121], [-48.53244, -27.17172], [-48.53259, -27.17206], [-48.53163, -27.17477]]]}}, 
{"type": "Feature", "properties": {"CD_SETOR": "420245305000013", "CD_SIT": "2", "NM_DIST": "Bombinhas", "NM_SUBDIST": null}, "geometry": {"type": "Polygon", "coordinates": [[[-48.50949, -27.11985], [-48.50956, -27.11964], [-48.51019, -27.11966], [-48.51053, -27.1193], [-48.51083, -27.11859], [-48.51061, -27.11772], [-48.51096, -27.11769], [-48.51041, -27.11655], [-48.50817, -27.11482], [-48.50833, -27.11222], [-48.50803, -27.11048], [-48.50766, -27.11033], [-48.5075, -27.11042], [-48.50789, -27.11091], [-48.50767, -27.1111], [-48.50765, -27.1119], [-48.50741, -27.11215], [-48.50762, -27.11245], [-48.50733, -27.11295], [-48.50745, -27.1132], [-48.50736, -27.11369], [-48.50673, -27.11403], [-48.50615, -27.11359], [-48.50598, -27.11381], [-48.50538, -27.11337], [-48.50524, -27.11348], [-48.50492, -27.1134], [-48.50478, -27.11408], [-48.50566, -27.11478], [-48.50596, -27.11514], [-48.50574, -27.11527], [-48.50628, -27.11554], [-48.50682, -27.11632], [-48.50665, -27.11641], [-48.50686, -27.11678], [-48.50637, -27.11689], [-48.50631, -27.11727], [-48.50608, -27.11722], [-48.50678, -27.11766], [-48.50652, -27.11774], [-48.50684, -27.1179], [-48.50622, -27.11782], [-48.50635, -27.11799], [-48.50598, -27.1182], [-48.50615, -27.11854], [-48.50704, -27.11866], [-48.50723, -27.11851], [-48.50744, -27.1186], [-48.50762, -27.11839], [-48.50876, -27.11864], [-48.50912, -27.11917], [-48.50884, -27.1196], [-48.50899, -27.11986], [-48.50882, -27.1199], [-48.50933, -27.12009], [-48.50949, -27.11985]]]}}, 
{"type": "Feature", "properties": {"CD_SETOR": "420245305000014", "CD_SIT": "1", "NM_DIST": "Bombinhas", "NM_SUBDIST": null}, "geometry": {"type": "Polygon", "coordinates": [[[-48.50943, -27.13855], [-48.50992, -27.13928], [-48.51025, -27.13888], [-48.51136, -27.1405], [-48.51307, -27.13956], [-48.51149, -27.13721], [-48.51285, -27.13562], [-48.51191, -27.13543], [-48.51169, -27.1356], [-48.50991, -27.13809], [-48.50943, -27.13855]]]}}, 
{"type": "Feature", "properties": {"CD_SETOR": "420245305000018", "CD_SIT": "1", "NM_DIST": "Bombinhas", "NM_SUBDIST": null}, "geometry": {"type": "Polygon", "coordinates": [[[-48.5065, -27.14166], [-48.51088, -27.14802], [-48.51181, -27.14755], [-48.51081, -27.14608], [-48.51128, -27.14583], [-48.50872, -27.14189], [-48.50856, -27.14188], [-48.50768, -27.14054], [-48.5065, -27.14166]]]}}, 
{"type": "Feature", "properties": {"CD_SETOR": "420245305000024", "CD_SIT": "1", "NM_DIST": "Bombinhas", "NM_SUBDIST": null}, "geometry": {"type": "Polygon", "coordinates": [[[-48.48998, -27.14827], [-48.4905, -27.14917], [-48.49167, -27.14851], [-48.49544, -27.14754], [-48.49761, -27.14926], [-48.498, -27.14974], [-48.49887, -27.15008], [-48.49905, -27.14899], [-48.49902, -27.14771], [-48.49919, -27.14742], [-48.49975, -27.14728], [-48.49984, -27.14614], [-48.49964, -27.14611], [-48.49967, -27.14563], [-48.49914, -27.14503], [-48.49891, -27.14502], [-48.49883, -27.14522], [-48.49843, -27.14496], [-48.49858, -27.14573], [-48.49841, -27.14564], [-48.49834, -27.14621], [-48.4979, -27.14642], [-48.4974, -27.14624], [-48.49609, -27.14535], [-48.49522, -27.14507], [-48.4952, -27.14567], [-48.49545, -27.14604], [-48.49444, -27.14676], [-48.49255, -27.14757], [-48.48998, -27.14827]]]}}, 
{"type": "Feature", "properties": {"CD_SETOR": "420245305000025", "CD_SIT": "2", "NM_DIST": "Bombinhas", "NM_SUBDIST": null}, "geometry": {"type": "Polygon", "coordinates": [[[-48.4937, -27.14801], [-48.49693, -27.15283], [-48.50037, -27.15128], [-48.49963, -27.14981], [-48.49887, -27.15008], [-48.4984, -27.15], [-48.49544, -27.14754], [-48.4937, -27.14801]]]}}, 
{"type": "Feature", "properties": {"CD_SETOR": "420245305000027", "CD_SIT": "2", "NM_DIST": "Bombinhas", "NM_SUBDIST": null}, "geometry": {"type": "Polygon", "coordinates": [[[-48.48757, -27.14851], [-48.48806, -27.1495], [-48.48984, -27.14945], [-48.49102, -27.15124], [-48.49076, -27.15139], [-48.49146, -27.15247], [-48.49105, -27.15269], [-48.49204, -27.15424], [-48.49216, -27.15475], [-48.49618, -27.16052], [-48.49726, -27.15939], [-48.49539, -27.15618], [-48.49447, -27.15558], [-48.49087, -27.15015], [-48.4913, -27.14991], [-48.49074, -27.14906], [-48.4905, -27.14917], [-48.48998, -27.14827], [-48.48757, -27.14851]]]}}, 
{"type": "Feature", "properties": {"CD_SETOR": "420245305000029", "CD_SIT": "1", "NM_DIST": "Bombinhas", "NM_SUBDIST": null}, "geometry": {"type": "Polygon", "coordinates": [[[-48.48656, -27.14851], [-48.48744, -27.15008], [-48.49107, -27.15558], [-48.4917, -27.15528], [-48.48757, -27.14851], [-48.48656, -27.14851]]]}}, 
{"type": "Feature", "properties": {"CD_SETOR": "420245305000032", "CD_SIT": "2", "NM_DIST": "Bombinhas", "NM_SUBDIST": null}, "geometry": {"type": "Polygon", "coordinates": [[[-48.47551, -27.14593], [-48.47546, -27.14678], [-48.4756, -27.14733], [-48.47597, -27.14779], [-48.47754, -27.14879], [-48.47839, -27.14963], [-48.47973, -27.15049], [-48.48321, -27.15204], [-48.48404, -27.15288], [-48.48475, -27.15228], [-48.48585, -27.15172], [-48.4856, -27.15132], [-48.48518, -27.15151], [-48.48496, -27.15118], [-48.48424, -27.15118], [-48.48328, -27.15049], [-48.48296, -27.14991], [-48.48277, -27.14908], [-48.48287, -27.14865], [-48.48219, -27.14843], [-48.48195, -27.14778], [-48.48192, -27.14763], [-48.4823, -27.14721], [-48.48223, -27.14704], [-48.48195, -27.14709], [-48.48121, -27.14659], [-48.4809, -27.14552], [-48.4807, -27.1453], [-48.4806, -27.14538], [-48.48071, -27.14556], [-48.48044, -27.14568], [-48.47962, -27.14437], [-48.47855, -27.14337], [-48.47783, -27.14204], [-48.47796, -27.14135], [-48.47842, -27.14122], [-48.47848, -27.14082], [-48.47864, -27.14083], [-48.47844, -27.14062], [-48.47865, -27.14008], [-48.47948, -27.1394], [-48.47991, -27.13948], [-48.48035, -27.13907], [-48.48065, -27.13919], [-48.48044, -27.13881], [-48.48067, -27.13836], [-48.48096, -27.13826], [-48.48082, -27.13815], [-48.4809, -27.13794], [-48.48118, -27.13774], [-48.48074, -27.13743], [-48.48054, -27.13679], [-48.4798, -27.1359], [-48.47957, -27.13511], [-48.47944, -27.13521], [-48.47866, -27.1343], [-48.47869, -27.13454], [-48.47849, -27.13469], [-48.47851, -27.13541], [-48.47873, -27.13597], [-48.47866, -27.13697], [-48.47836, -27.13713], [-48.47838, -27.13734], [-48.47788, -27.13727], [-48.47791, -27.13745], [-48.47768, -27.13738], [-48.47757, -27.13756], [-48.47774, -27.13808], [-48.47762, -27.13807], [-48.47756, -27.13858], [-48.47774, -27.13896], [-48.47738, -27.13929], [-48.4775, -27.13947], [-48.47744, -27.14009], [-48.47731, -27.14011], [-48.47748, -27.14025], [-48.47731, -27.1404], [-48.47742, -27.14072], [-48.47704, -27.1408], [-48.47637, -27.14063], [-48.47586, -27.14093], [-48.47503, -27.14042], [-48.47468, -27.14052], [-48.4751, -27.1407], [-48.47489, -27.14086], [-48.47531, -27.14116], [-48.47528, -27.14149], [-48.47557, -27.14159], [-48.47595, -27.14269], [-48.47676, -27.14327], [-48.47709, -27.14382], [-48.47703, -27.14449], [-48.47668, -27.14475], [-48.47657, -27.14515], [-48.47617, -27.14546], [-48.47599, -27.14542], [-48.47591, -27.14571], [-48.47551, -27.14593]]]}}, 
{"type": "Feature", "properties": {"CD_SETOR": "420245305000033", "CD_SIT": "1", "NM_DIST": "Bombinhas", "NM_SUBDIST": null}, "geometry": {"type": "Polygon", "coordinates": [[[-48.4845, -27.15245], [-48.4867, -27.15585], [-48.48777, -27.15715], [-48.4906, -27.15938], [-48.49151, -27.16065], [-48.49234, -27.16145], [-48.49378, -27.1617], [-48.49356, -27.16084], [-48.49258, -27.15951], [-48.49189, -27.15906], [-48.49072, -27.15768], [-48.49037, -27.15654], [-48.48974, -27.15558], [-48.48933, -27.15539], [-48.48883, -27.15547], [-48.48755, -27.15348], [-48.48671, -27.15393], [-48.48544, -27.15194], [-48.4845, -27.15245]]]}}, 
{"type": "Feature", "properties": {"CD_SETOR": "420245305000034", "CD_SIT": "2", "NM_DIST": "Bombinhas", "NM_SUBDIST": null}, "geometry": {"type": "Polygon", "coordinates": [[[-48.49723, -27.16742], [-48.49789, -27.16872], [-48.49797, -27.17004], [-48.50166, -27.16932], [-48.51101, -27.18238], [-48.51272, -27.17625], [-48.51451, -27.17063], [-48.51377, -27.16907], [-48.51284, -27.16792], [-48.51005, -27.16567], [-48.50732, -27.16606], [-48.50282, -27.16738], [-48.49933, -27.16337], [-48.49791, -27.1669], [-48.49723, -27.16742]]]}}, 
{"type": "Feature", "properties": {"CD_SETOR": "420245305000036", "CD_SIT": "1", "NM_DIST": "Bombinhas", "NM_SUBDIST": null}, "geometry": {"type": "Polygon", "coordinates": [[[-48.51109, -27.1821], [-48.50966, -27.18721], [-48.50995, -27.18701], [-48.51021, -27.18728], [-48.51233, -27.18569], [-48.51341, -27.18467], [-48.51599, -27.18335], [-48.51833, -27.18255], [-48.52151, -27.18179], [-48.52155, -27.1814], [-48.52176, -27.18126], [-48.5241, -27.18088], [-48.52361, -27.18024], [-48.52294, -27.18066], [-48.51991, -27.18176], [-48.52041, -27.1802], [-48.51979, -27.18003], [-48.51917, -27.18194], [-48.51657, -27.18281], [-48.51734, -27.17977], [-48.51675, -27.17965], [-48.51575, -27.18313], [-48.51288, -27.18454], [-48.51276, -27.18436], [-48.51328, -27.18258], [-48.51109, -27.1821]]]}}, 
{"type": "Feature", "properties": {"CD_SETOR": "420245305000038", "CD_SIT": "1", "NM_DIST": "Bombinhas", "NM_SUBDIST": null}, "geometry": {"type": "Polygon", "coordinates": [[[-48.49902, -27.16981], [-48.49932, -27.17124], [-48.49967, -27.17128], [-48.5003, -27.17364], [-48.50128, -27.17302], [-48.50241, -27.17457], [-48.50292, -27.17429], [-48.50181, -27.1727], [-48.5034, -27.17179], [-48.50166, -27.16932], [-48.49902, -27.16981]]]}}, 
{"type": "Feature", "properties": {"CD_SETOR": "420245305000040", "CD_SIT": "1", "NM_DIST": "Bombinhas", "NM_SUBDIST": null}, "geometry": {"type": "Polygon", "coordinates": [[[-48.50409, -27.18067], [-48.50335, -27.1862], [-48.50122, -27.18596], [-48.50382, -27.18785], [-48.50451, -27.18704], [-48.50723, -27.18903], [-48.50966, -27.18721], [-48.50978, -27.18675], [-48.50936, -27.18665], [-48.50901, -27.18623], [-48.50622, -27.18224], [-48.50555, -27.18214], [-48.50561, -27.18146], [-48.50416, -27.1794], [-48.50409, -27.18067]]]}}, 
{"type": "Feature", "properties": {"CD_SETOR": "420245305000041", "CD_SIT": "1", "NM_DIST": "Bombinhas", "NM_SUBDIST": null}, "geometry": {"type": "Polygon", "coordinates": [[[-48.50212, -27.19026], [-48.49845, -27.1971], [-48.49962, -27.19778], [-48.49806, -27.20028], [-48.49865, -27.20052], [-48.49887, -27.20048], [-48.50057, -27.19731], [-48.50248, -27.19464], [-48.5047, -27.19206], [-48.50677, -27.19005], [-48.50633, -27.18972], [-48.5054, -27.1905], [-48.50426, -27.19178], [-48.50212, -27.19026]]]}}, 
{"type": "Feature", "properties": {"CD_SETOR": "420245305000043", "CD_SIT": "1", "NM_DIST": "Bombinhas", "NM_SUBDIST": null}, "geometry": {"type": "Polygon", "coordinates": [[[-48.49457, -27.19905], [-48.49806, -27.20028], [-48.49913, -27.1986], [-48.4961, -27.19708], [-48.49526, -27.19846], [-48.49457, -27.19905]]]}}, 
{"type": "Feature", "properties": {"CD_SETOR": "420245305000044", "CD_SIT": "2", "NM_DIST": "Bombinhas", "NM_SUBDIST": null}, "geometry": {"type": "MultiPolygon", "coordinates": [[[[-48.46936, -27.20582], [-48.46912, -27.20606], [-48.46842, -27.2056], [-48.46767, -27.20562], [-48.46714, -27.20525], [-48.46625, -27.20502], [-48.46536, -27.20422], [-48.46523, -27.20382], [-48.46409, -27.20329], [-48.46329, -27.20351], [-48.46332, -27.20381], [-48.464, -27.2043], [-48.46429, -27.20483], [-48.4641, -27.20545], [-48.46428, -27.20585], [-48.4648, -27.20631], [-48.46502, -27.20715], [-48.46666, -27.20888], [-48.4668, -27.20962], [-48.46826, -27.21071], [-48.469, -27.21046], [-48.46933, -27.20887], [-48.47007, -27.2084], [-48.47018, -27.20822], [-48.47002, -27.20766], [-48.4704, -27.20753], [-48.47145, -27.20753], [-48.47266, -27.20815], [-48.47313, -27.20864], [-48.47379, -27.20899], [-48.47418, -27.20913], [-48.4745, -27.20905], [-48.47447, -27.20861], [-48.47482, -27.20821], [-48.47443, -27.20767], [-48.47445, -27.20707], [-48.47374, -27.20509], [-48.47306, -27.20473], [-48.47224, -27.20391], [-48.47097, -27.20353], [-48.4701, -27.20307], [-48.46962, -27.20262], [-48.46945, -27.20283], [-48.46925, -27.20387], [-48.46948, -27.20485], [-48.46936, -27.20582]]], [[[-48.48298, -27.1986], [-48.48303, -27.19897], [-48.48286, -27.19915], [-48.48089, -27.19925], [-48.48018, -27.19945], [-48.47903, -27.19917], [-48.47792, -27.19975], [-48.47759, -27.19961], [-48.47722, -27.19968], [-48.47695, -27.19995], [-48.47664, -27.19999], [-48.47633, -27.19974], [-48.47586, -27.1997], [-48.47549, -27.19985], [-48.47549, -27.20037], [-48.47533, -27.20062], [-48.4755, -27.20141], [-48.4754, -27.20164], [-48.4758, -27.20205], [-48.4763, -27.20301], [-48.47616, -27.2035], [-48.47668, -27.20384], [-48.47682, -27.20487], [-48.47668, -27.20523], [-48.47735, -27.20589], [-48.47773, -27.20674], [-48.47793, -27.20682], [-48.47797, -27.20661], [-48.47947, -27.2081], [-48.4802, -27.20819], [-48.48076, -27.2085], [-48.48206, -27.2083], [-48.48271, -27.20869], [-48.48284, -27.20887], [-48.48245, -27.20886], [-48.48365, -27.20978], [-48.48367, -27.21018], [-48.48399, -27.2106], [-48.48457, -27.21091], [-48.48486, -27.21093], [-48.48531, -27.21068], [-48.48532, -27.2104], [-48.48566, -27.21004], [-48.4856, -27.20936], [-48.48601, -27.20945], [-48.48626, -27.20927], [-48.48685, -27.20925], [-48.48735, -27.20895], [-48.48772, -27.20957], [-48.48773, -27.20994], [-48.488, -27.20985], [-48.48819, -27.20996], [-48.48853, -27.2105], [-48.48857, -27.21088], [-48.48915, -27.21127], [-48.48984, -27.21123], [-48.49102, -27.2096], [-48.49144, -27.20862], [-48.4923, -27.20758], [-48.49246, -27.20673], [-48.49238, -27.20626], [-48.49139, -27.20511], [-48.49017, -27.20425], [-48.4896, -27.2035], [-48.4891, -27.20336], [-48.48826, -27.20358], [-48.48765, -27.20243], [-48.48697, -27.20222], [-48.48617, -27.20151], [-48.48546, -27.20014], [-48.48455, -27.19967], [-48.48378, -27.19888], [-48.48349, -27.19892], [-48.48325, -27.19862], [-48.48298, -27.1986]]], [[[-48.39806, -27.182], [-48.3988, -27.182], [-48.39904, -27.18143], [-48.39969, -27.18095], [-48.40023, -27.18025], [-48.39983, -27.17937], [-48.39895, -27.17858], [-48.3984, -27.17871], [-48.39737, -27.18051], [-48.39742, -27.18143], [-48.39806, -27.182]]], [[[-48.40413, -27.1792], [-48.40368, -27.18016], [-48.4026, -27.18003], [-48.4021, -27.1802], [-48.40156, -27.18069], [-48.40156, -27.18113], [-48.4022, -27.18165], [-48.40368, -27.18192], [-48.40545, -27.18253], [-48.40708, -27.18358], [-48.40748, -27.18477], [-48.40762, -27.18714], [-48.40831, -27.1881], [-48.40945, -27.18828], [-48.41058, -27.18802], [-48.41098, -27.1871], [-48.41088, -27.18547], [-48.40935, -27.18187], [-48.4093, -27.18034], [-48.40851, -27.17968], [-48.40684, -27.17902], [-48.40634, -27.1785], [-48.406, -27.17678], [-48.406, -27.17573], [-48.40531, -27.17529], [-48.40472, -27.1756], [-48.40378, -27.17661], [-48.40373, -27.1774], [-48.40413, -27.1792]]]]}}, 
{"type": "Feature", "properties": {"CD_SETOR": "420245305000045", "CD_SIT": "1", "NM_DIST": "Bombinhas", "NM_SUBDIST": null}, "geometry": {"type": "Polygon", "coordinates": [[[-48.52288, -27.17867], [-48.52369, -27.17832], [-48.52396, -27.17776], [-48.52433, -27.17786], [-48.5247, -27.17652], [-48.53047, -27.1779], [-48.53143, -27.17474], [-48.52661, -27.1744], [-48.52383, -27.17286], [-48.52363, -27.17387], [-48.52331, -27.17446], [-48.52332, -27.17495], [-48.52314, -27.17517], [-48.52279, -27.17516], [-48.52246, -27.17575], [-48.52241, -27.175], [-48.5222, -27.17498], [-48.52203, -27.1753], [-48.52212, -27.17578], [-48.52175, -27.17613], [-48.52221, -27.17635], [-48.52226, -27.17731], [-48.5228, -27.17766], [-48.52357, -27.17757], [-48.52381, -27.17767], [-48.52363, -27.17817], [-48.5229, -27.1784], [-48.52288, -27.17867]]]}}, 
{"type": "Feature", "properties": {"CD_SETOR": "420245305000046", "CD_SIT": "1", "NM_DIST": "Bombinhas", "NM_SUBDIST": null}, "geometry": {"type": "Polygon", "coordinates": [[[-48.52288, -27.17867], [-48.52452, -27.1805], [-48.52494, -27.18055], [-48.52496, -27.18072], [-48.52602, -27.1807], [-48.52765, -27.18041], [-48.5298, -27.18028], [-48.53047, -27.1779], [-48.5247, -27.17652], [-48.52433, -27.17786], [-48.52396, -27.17776], [-48.52369, -27.17832], [-48.52288, -27.17867]]]}}, 
{"type": "Feature", "properties": {"CD_SETOR": "420245305000047", "CD_SIT": "1", "NM_DIST": "Bombinhas", "NM_SUBDIST": null}, "geometry": {"type": "Polygon", "coordinates": [[[-48.52276, -27.1787], [-48.5241, -27.18088], [-48.52496, -27.18072], [-48.52494, -27.18055], [-48.52429, -27.18032], [-48.52286, -27.17866], [-48.5229, -27.1784], [-48.52363, -27.17817], [-48.52378, -27.17762], [-48.52265, -27.1776], [-48.52219, -27.17722], [-48.52221, -27.17635], [-48.52175, -27.17616], [-48.52212, -27.17578], [-48.52203, -27.1753], [-48.5222, -27.17498], [-48.52241, -27.175], [-48.52246, -27.17575], [-48.52279, -27.17516], [-48.52317, -27.17516], [-48.52337, -27.17486], [-48.52331, -27.17446], [-48.52363, -27.17387], [-48.52377, -27.17293], [-48.52399, -27.17278], [-48.52389, -27.17199], [-48.52408, -27.17143], [-48.52381, -27.1712], [-48.52218, -27.1727], [-48.52138, -27.17555], [-48.52168, -27.17725], [-48.52276, -27.1787]]]}}, 
{"type": "Feature", "properties": {"CD_SETOR": "420245305000048", "CD_SIT": "1", "NM_DIST": "Bombinhas", "NM_SUBDIST": null}, "geometry": {"type": "Polygon", "coordinates": [[[-48.53047, -27.1779], [-48.5298, -27.18028], [-48.53303, -27.18044], [-48.5368, -27.18102], [-48.53695, -27.18032], [-48.53637, -27.18023], [-48.53643, -27.17998], [-48.53611, -27.17991], [-48.53587, -27.17905], [-48.53556, -27.17903], [-48.53546, -27.17938], [-48.53448, -27.17842], [-48.53343, -27.17866], [-48.53161, -27.17866], [-48.53255, -27.17543], [-48.53193, -27.17487], [-48.53143, -27.17474], [-48.53047, -27.1779]]]}}, 
{"type": "Feature", "properties": {"CD_SETOR": "420245305000049", "CD_SIT": "2", "NM_DIST": "Bombinhas", "NM_SUBDIST": null}, "geometry": {"type": "Polygon", "coordinates": [[[-48.50949, -27.11985], [-48.50973, -27.11985], [-48.5097, -27.12026], [-48.50995, -27.1208], [-48.51035, -27.12101], [-48.51021, -27.12107], [-48.51032, -27.12127], [-48.51021, -27.12163], [-48.51068, -27.12192], [-48.51038, -27.1219], [-48.51076, -27.12214], [-48.51102, -27.12291], [-48.5117, -27.12394], [-48.51151, -27.12412], [-48.51214, -27.12474], [-48.51208, -27.12497], [-48.51276, -27.12543], [-48.51291, -27.12592], [-48.51282, -27.12616], [-48.51295, -27.12626], [-48.51286, -27.12648], [-48.51266, -27.12661], [-48.51221, -27.12648], [-48.51201, -27.1267], [-48.51229, -27.12735], [-48.51231, -27.12819], [-48.51247, -27.12834], [-48.51227, -27.1285], [-48.5125, -27.1286], [-48.51237, -27.12878], [-48.51247, -27.12939], [-48.51224, -27.1295], [-48.51243, -27.12954], [-48.51315, -27.13113], [-48.51358, -27.13118], [-48.51396, -27.13148], [-48.51352, -27.1327], [-48.51556, -27.1358], [-48.51599, -27.13597], [-48.51641, -27.13641], [-48.52129, -27.13711], [-48.523, -27.13813], [-48.52401, -27.13676], [-48.52405, -27.13637], [-48.52348, -27.1356], [-48.52153, -27.13415], [-48.52105, -27.13218], [-48.52063, -27.13132], [-48.51994, -27.13061], [-48.51826, -27.12952], [-48.51818, -27.12915], [-48.51863, -27.12719], [-48.51851, -27.12678], [-48.51661, -27.12609], [-48.51545, -27.1246], [-48.51406, -27.12388], [-48.5125, -27.12109], [-48.51191, -27.11863], [-48.51096, -27.11769], [-48.51061, -27.11772], [-48.51083, -27.11859], [-48.51053, -27.1193], [-48.51019, -27.11966], [-48.50956, -27.11964], [-48.50949, -27.11985]]]}}, 
{"type": "Feature", "properties": {"CD_SETOR": "420245305000050", "CD_SIT": "2", "NM_DIST": "Bombinhas", "NM_SUBDIST": null}, "geometry": {"type": "Polygon", "coordinates": [[[-48.51191, -27.13543], [-48.51515, -27.13607], [-48.51651, -27.13707], [-48.5205, -27.13754], [-48.52152, -27.1381], [-48.52281, -27.13846], [-48.523, -27.13813], [-48.52129, -27.13711], [-48.51641, -27.13641], [-48.51599, -27.13597], [-48.51556, -27.1358], [-48.51352, -27.1327], [-48.51191, -27.13543]]]}}, 
{"type": "Feature", "properties": {"CD_SETOR": "420245305000051", "CD_SIT": "2", "NM_DIST": "Bombinhas", "NM_SUBDIST": null}, "geometry": {"type": "Polygon", "coordinates": [[[-48.51285, -27.13562], [-48.51223, -27.13626], [-48.51419, -27.13912], [-48.51384, -27.13932], [-48.51483, -27.14076], [-48.51593, -27.14119], [-48.52381, -27.153], [-48.52409, -27.15278], [-48.52738, -27.15194], [-48.5287, -27.15123], [-48.52722, -27.14999], [-48.52658, -27.14968], [-48.52616, -27.14863], [-48.52577, -27.14818], [-48.52583, -27.14711], [-48.52551, -27.14635], [-48.52573, -27.14552], [-48.52474, -27.14417], [-48.52388, -27.14356], [-48.52302, -27.14199], [-48.52286, -27.14111], [-48.52242, -27.14066], [-48.52262, -27.13895], [-48.52281, -27.13846], [-48.52152, -27.1381], [-48.5205, -27.13754], [-48.51651, -27.13707], [-48.51515, -27.13607], [-48.51285, -27.13562]]]}}, 
{"type": "Feature", "properties": {"CD_SETOR": "420245305000052", "CD_SIT": "1", "NM_DIST": "Bombinhas", "NM_SUBDIST": null}, "geometry": {"type": "Polygon", "coordinates": [[[-48.51307, -27.13956], [-48.51402, -27.14097], [-48.51451, -27.14072], [-48.51483, -27.14076], [-48.51384, -27.13932], [-48.51419, -27.13912], [-48.51223, -27.13626], [-48.51149, -27.13721], [-48.51307, -27.13956]]]}}, 
{"type": "Feature", "properties": {"CD_SETOR": "420245305000053", "CD_SIT": "1", "NM_DIST": "Bombinhas", "NM_SUBDIST": null}, "geometry": {"type": "Polygon", "coordinates": [[[-48.51136, -27.1405], [-48.51306, -27.14299], [-48.51356, -27.14328], [-48.51434, -27.14435], [-48.51699, -27.14825], [-48.51962, -27.14682], [-48.51575, -27.14106], [-48.51467, -27.14072], [-48.51402, -27.14097], [-48.51307, -27.13956], [-48.51136, -27.1405]]]}}, 
{"type": "Feature", "properties": {"CD_SETOR": "420245305000054", "CD_SIT": "2", "NM_DIST": "Bombinhas", "NM_SUBDIST": null}, "geometry": {"type": "Polygon", "coordinates": [[[-48.5134, -27.14445], [-48.51211, -27.14458], [-48.51602, -27.15055], [-48.5157, -27.15071], [-48.51807, -27.15495], [-48.51909, -27.15501], [-48.51949, -27.15522], [-48.52381, -27.153], [-48.51962, -27.14682], [-48.51699, -27.14825], [-48.51434, -27.14435], [-48.5134, -27.14445]]]}}, 
{"type": "Feature", "properties": {"CD_SETOR": "420245305000055", "CD_SIT": "1", "NM_DIST": "Bombinhas", "NM_SUBDIST": null}, "geometry": {"type": "Polygon", "coordinates": [[[-48.50894, -27.13915], [-48.50942, -27.13988], [-48.50919, -27.14013], [-48.50995, -27.14126], [-48.51092, -27.14076], [-48.5134, -27.14445], [-48.51434, -27.14435], [-48.51356, -27.14328], [-48.51306, -27.14299], [-48.51025, -27.13888], [-48.50992, -27.13928], [-48.50943, -27.13855], [-48.50894, -27.13915]]]}}, 
{"type": "Feature", "properties": {"CD_SETOR": "420245305000056", "CD_SIT": "1", "NM_DIST": "Bombinhas", "NM_SUBDIST": null}, "geometry": {"type": "Polygon", "coordinates": [[[-48.50995, -27.14126], [-48.51211, -27.14458], [-48.5134, -27.14445], [-48.51092, -27.14076], [-48.50995, -27.14126]]]}}, 
{"type": "Feature", "properties": {"CD_SETOR": "420245305000057", "CD_SIT": "1", "NM_DIST": "Bombinhas", "NM_SUBDIST": null}, "geometry": {"type": "Polygon", "coordinates": [[[-48.50768, -27.14054], [-48.50821, -27.14137], [-48.50888, -27.14052], [-48.51205, -27.14543], [-48.51251, -27.14519], [-48.50919, -27.14013], [-48.50942, -27.13988], [-48.50894, -27.13915], [-48.50768, -27.14054]]]}}, 
{"type": "Feature", "properties": {"CD_SETOR": "420245305000058", "CD_SIT": "1", "NM_DIST": "Bombinhas", "NM_SUBDIST": null}, "geometry": {"type": "Polygon", "coordinates": [[[-48.50821, -27.14137], [-48.50856, -27.14188], [-48.50872, -27.14189], [-48.51128, -27.14583], [-48.51205, -27.14543], [-48.50888, -27.14052], [-48.50821, -27.14137]]]}}, 
{"type": "Feature", "properties": {"CD_SETOR": "420245305000059", "CD_SIT": "1", "NM_DIST": "Bombinhas", "NM_SUBDIST": null}, "geometry": {"type": "Polygon", "coordinates": [[[-48.51205, -27.14543], [-48.51128, -27.14583], [-48.51827, -27.15645], [-48.51949, -27.15522], [-48.51909, -27.15501], [-48.51822, -27.15502], [-48.51801, -27.15489], [-48.5157, -27.15071], [-48.51602, -27.15055], [-48.51571, -27.15006], [-48.51251, -27.14519], [-48.51205, -27.14543]]]}}, 
{"type": "Feature", "properties": {"CD_SETOR": "420245305000060", "CD_SIT": "1", "NM_DIST": "Bombinhas", "NM_SUBDIST": null}, "geometry": {"type": "Polygon", "coordinates": [[[-48.51088, -27.14802], [-48.51706, -27.15765], [-48.5185, -27.15678], [-48.51128, -27.14583], [-48.51081, -27.14608], [-48.51181, -27.14755], [-48.51088, -27.14802]]]}}, 
{"type": "Feature", "properties": {"CD_SETOR": "420245305000061", "CD_SIT": "1", "NM_DIST": "Bombinhas", "NM_SUBDIST": null}, "geometry": {"type": "Polygon", "coordinates": [[[-48.50567, -27.14247], [-48.50613, -27.14312], [-48.50627, -27.14301], [-48.50774, -27.1452], [-48.50868, -27.14499], [-48.5065, -27.14166], [-48.50567, -27.14247]]]}}, 
{"type": "Feature", "properties": {"CD_SETOR": "420245305000062", "CD_SIT": "1", "NM_DIST": "Bombinhas", "NM_SUBDIST": null}, "geometry": {"type": "Polygon", "coordinates": [[[-48.50469, -27.14323], [-48.50648, -27.14591], [-48.50774, -27.1452], [-48.50627, -27.14301], [-48.50613, -27.14312], [-48.50567, -27.14247], [-48.50469, -27.14323]]]}}, 
{"type": "Feature", "properties": {"CD_SETOR": "420245305000063", "CD_SIT": "1", "NM_DIST": "Bombinhas", "NM_SUBDIST": null}, "geometry": {"type": "Polygon", "coordinates": [[[-48.50393, -27.14381], [-48.50533, -27.14595], [-48.50547, -27.14648], [-48.50648, -27.14591], [-48.50469, -27.14323], [-48.50393, -27.14381]]]}}, 
{"type": "Feature", "properties": {"CD_SETOR": "420245305000064", "CD_SIT": "1", "NM_DIST": "Bombinhas", "NM_SUBDIST": null}, "geometry": {"type": "Polygon", "coordinates": [[[-48.50774, -27.1452], [-48.50547, -27.14648], [-48.50613, -27.14842], [-48.50891, -27.1469], [-48.50994, -27.14654], [-48.50868, -27.14499], [-48.50774, -27.1452]]]}}, 
{"type": "Feature", "properties": {"CD_SETOR": "420245305000065", "CD_SIT": "2", "NM_DIST": "Bombinhas", "NM_SUBDIST": null}, "geometry": {"type": "Polygon", "coordinates": [[[-48.50763, -27.14769], [-48.51166, -27.15407], [-48.51451, -27.15576], [-48.51486, -27.15654], [-48.51479, -27.15743], [-48.51536, -27.15835], [-48.51706, -27.15765], [-48.50994, -27.14654], [-48.50891, -27.1469], [-48.50763, -27.14769]]]}}, 
{"type": "Feature", "properties": {"CD_SETOR": "420245305000066", "CD_SIT": "2", "NM_DIST": "Bombinhas", "NM_SUBDIST": null}, "geometry": {"type": "Polygon", "coordinates": [[[-48.50613, -27.14842], [-48.50678, -27.15037], [-48.50803, -27.15207], [-48.51166, -27.15407], [-48.50763, -27.14769], [-48.50613, -27.14842]]]}}, 
{"type": "Feature", "properties": {"CD_SETOR": "420245305000067", "CD_SIT": "1", "NM_DIST": "Bombinhas", "NM_SUBDIST": null}, "geometry": {"type": "Polygon", "coordinates": [[[-48.50401, -27.14732], [-48.50155, -27.14881], [-48.5018, -27.14965], [-48.50203, -27.1496], [-48.50189, -27.1492], [-48.502, -27.14897], [-48.50271, -27.14882], [-48.5029, -27.14893], [-48.50295, -27.14952], [-48.50326, -27.14944], [-48.50341, -27.14903], [-48.50361, -27.14899], [-48.50389, -27.14961], [-48.50413, -27.14959], [-48.50429, -27.14929], [-48.50455, -27.14932], [-48.5051, -27.14961], [-48.50549, -27.1503], [-48.50587, -27.15054], [-48.50671, -27.15013], [-48.50547, -27.14648], [-48.50401, -27.14732]]]}}, 
{"type": "Feature", "properties": {"CD_SETOR": "420245305000068", "CD_SIT": "1", "NM_DIST": "Bombinhas", "NM_SUBDIST": null}, "geometry": {"type": "Polygon", "coordinates": [[[-48.50237, -27.14484], [-48.50401, -27.14732], [-48.50547, -27.14648], [-48.50533, -27.14595], [-48.50393, -27.14381], [-48.50237, -27.14484]]]}}, 
{"type": "Feature", "properties": {"CD_SETOR": "420245305000069", "CD_SIT": "1", "NM_DIST": "Bombinhas", "NM_SUBDIST": null}, "geometry": {"type": "Polygon", "coordinates": [[[-48.49984, -27.14614], [-48.49981, -27.14741], [-48.50137, -27.14823], [-48.50155, -27.14881], [-48.50304, -27.14789], [-48.50138, -27.14544], [-48.49984, -27.14614]]]}}, 
{"type": "Feature", "properties": {"CD_SETOR": "420245305000070", "CD_SIT": "1", "NM_DIST": "Bombinhas", "NM_SUBDIST": null}, "geometry": {"type": "Polygon", "coordinates": [[[-48.50138, -27.14544], [-48.50304, -27.14789], [-48.50401, -27.14732], [-48.50237, -27.14484], [-48.50138, -27.14544]]]}}, 
{"type": "Feature", "properties": {"CD_SETOR": "420245305000071", "CD_SIT": "2", "NM_DIST": "Bombinhas", "NM_SUBDIST": null}, "geometry": {"type": "Polygon", "coordinates": [[[-48.51284, -27.16792], [-48.51377, -27.16907], [-48.51519, -27.17185], [-48.51642, -27.17377], [-48.51736, -27.17448], [-48.51802, -27.17521], [-48.51925, -27.17708], [-48.52136, -27.17884], [-48.52181, -27.17894], [-48.52276, -27.1787], [-48.52168, -27.17725], [-48.52138, -27.17555], [-48.52218, -27.1727], [-48.52315, -27.17172], [-48.52364, -27.17143], [-48.52427, -27.17037], [-48.52543, -27.16657], [-48.52538, -27.1663], [-48.52415, -27.16514], [-48.52391, -27.16443], [-48.52345, -27.16386], [-48.52296, -27.16373], [-48.52165, -27.16818], [-48.52048, -27.16789], [-48.51983, -27.17016], [-48.51889, -27.16852], [-48.51862, -27.16749], [-48.51948, -27.16411], [-48.51957, -27.16321], [-48.51806, -27.16089], [-48.51627, -27.15958], [-48.51536, -27.15835], [-48.51396, -27.1589], [-48.51317, -27.1599], [-48.51283, -27.16172], [-48.51284, -27.16371], [-48.51329, -27.16495], [-48.51344, -27.16646], [-48.51284, -27.16792]]]}}, 
{"type": "Feature", "properties": {"CD_SETOR": "420245305000072", "CD_SIT": "2", "NM_DIST": "Bombinhas", "NM_SUBDIST": null}, "geometry": {"type": "Polygon", "coordinates": [[[-48.52381, -27.153], [-48.51945, -27.15523], [-48.51827, -27.15645], [-48.5185, -27.15678], [-48.51696, -27.1577], [-48.51536, -27.15835], [-48.51627, -27.15958], [-48.51806, -27.16089], [-48.51957, -27.16321], [-48.51948, -27.16411], [-48.51862, -27.16749], [-48.51889, -27.16852], [-48.51983, -27.17016], [-48.52048, -27.16789], [-48.52165, -27.16818], [-48.52296, -27.16373], [-48.52345, -27.16386], [-48.52391, -27.16443], [-48.52415, -27.16514], [-48.52538, -27.1663], [-48.52543, -27.16657], [-48.52554, -27.16622], [-48.52637, -27.16545], [-48.5266, -27.16545], [-48.52692, -27.16596], [-48.52709, -27.1659], [-48.52703, -27.16551], [-48.52714, -27.16541], [-48.52742, -27.16573], [-48.52761, -27.16572], [-48.52864, -27.16417], [-48.52889, -27.16491], [-48.52953, -27.16527], [-48.52952, -27.16452], [-48.53032, -27.16308], [-48.52913, -27.16168], [-48.52843, -27.16126], [-48.52796, -27.16074], [-48.52682, -27.15828], [-48.52693, -27.15792], [-48.52801, -27.15703], [-48.52821, -27.15645], [-48.52828, -27.15505], [-48.52946, -27.15355], [-48.52909, -27.15235], [-48.52905, -27.15154], [-48.5287, -27.15123], [-48.52738, -27.15194], [-48.52409, -27.15278], [-48.52381, -27.153]]]}}, 
{"type": "Feature", "properties": {"CD_SETOR": "420245305000073", "CD_SIT": "1", "NM_DIST": "Bombinhas", "NM_SUBDIST": null}, "geometry": {"type": "Polygon", "coordinates": [[[-48.49887, -27.15008], [-48.49963, -27.14981], [-48.50021, -27.15109], [-48.50097, -27.15195], [-48.50136, -27.15267], [-48.50587, -27.15054], [-48.50549, -27.1503], [-48.5051, -27.14961], [-48.50455, -27.14932], [-48.50429, -27.14929], [-48.50413, -27.14959], [-48.50389, -27.14961], [-48.50361, -27.14899], [-48.50341, -27.14903], [-48.50326, -27.14944], [-48.50298, -27.14953], [-48.50285, -27.14886], [-48.50215, -27.14889], [-48.50189, -27.14914], [-48.50203, -27.1496], [-48.50183, -27.14968], [-48.50161, -27.1493], [-48.50142, -27.14827], [-48.49994, -27.14754], [-48.49975, -27.14728], [-48.49919, -27.14742], [-48.49902, -27.14771], [-48.49905, -27.14899], [-48.49887, -27.15008]]]}}, 
{"type": "Feature", "properties": {"CD_SETOR": "420245305000074", "CD_SIT": "1", "NM_DIST": "Bombinhas", "NM_SUBDIST": null}, "geometry": {"type": "Polygon", "coordinates": [[[-48.50587, -27.15054], [-48.50471, -27.15109], [-48.50674, -27.15452], [-48.50771, -27.15406], [-48.50872, -27.15575], [-48.51192, -27.15421], [-48.50803, -27.15207], [-48.50671, -27.15013], [-48.50587, -27.15054]]]}}, 
{"type": "Feature", "properties": {"CD_SETOR": "420245305000075", "CD_SIT": "2", "NM_DIST": "Bombinhas", "NM_SUBDIST": null}, "geometry": {"type": "Polygon", "coordinates": [[[-48.50674, -27.15452], [-48.50371, -27.15595], [-48.50552, -27.15898], [-48.51005, -27.16567], [-48.51284, -27.16792], [-48.51344, -27.16646], [-48.51329, -27.16495], [-48.51284, -27.16371], [-48.51283, -27.16172], [-48.51317, -27.1599], [-48.51396, -27.1589], [-48.51536, -27.15835], [-48.51479, -27.15743], [-48.51486, -27.15654], [-48.51469, -27.15607], [-48.51396, -27.15532], [-48.51192, -27.15421], [-48.50872, -27.15575], [-48.50771, -27.15406], [-48.50674, -27.15452]]]}}, 
{"type": "Feature", "properties": {"CD_SETOR": "420245305000076", "CD_SIT": "2", "NM_DIST": "Bombinhas", "NM_SUBDIST": null}, "geometry": {"type": "Polygon", "coordinates": [[[-48.50136, -27.15267], [-48.50169, -27.15322], [-48.50269, -27.15423], [-48.50371, -27.15595], [-48.50674, -27.15452], [-48.50471, -27.15109], [-48.50136, -27.15267]]]}}, 
{"type": "Feature", "properties": {"CD_SETOR": "420245305000077", "CD_SIT": "1", "NM_DIST": "Bombinhas", "NM_SUBDIST": null}, "geometry": {"type": "Polygon", "coordinates": [[[-48.50656, -27.16051], [-48.50371, -27.15595], [-48.50182, -27.15685], [-48.50455, -27.16149], [-48.50656, -27.16051]]]}}, 
{"type": "Feature", "properties": {"CD_SETOR": "420245305000078", "CD_SIT": "2", "NM_DIST": "Bombinhas", "NM_SUBDIST": null}, "geometry": {"type": "Polygon", "coordinates": [[[-48.49693, -27.15283], [-48.4981, -27.15451], [-48.49833, -27.15563], [-48.49824, -27.15659], [-48.4978, -27.1585], [-48.49726, -27.15939], [-48.49618, -27.16052], [-48.49933, -27.16337], [-48.50282, -27.16738], [-48.50732, -27.16606], [-48.51005, -27.16567], [-48.50656, -27.16051], [-48.50455, -27.16149], [-48.50182, -27.15685], [-48.50371, -27.15595], [-48.50269, -27.15423], [-48.50169, -27.15322], [-48.50097, -27.15195], [-48.50037, -27.15128], [-48.49693, -27.15283]]]}}, 
{"type": "Feature", "properties": {"CD_SETOR": "420245305000079", "CD_SIT": "2", "NM_DIST": "Bombinhas", "NM_SUBDIST": null}, "geometry": {"type": "Polygon", "coordinates": [[[-48.48806, -27.1495], [-48.48932, -27.15142], [-48.49173, -27.1552], [-48.49212, -27.15488], [-48.49213, -27.15455], [-48.49105, -27.15269], [-48.49146, -27.15247], [-48.49076, -27.15139], [-48.49102, -27.15124], [-48.48984, -27.14945], [-48.48806, -27.1495]]]}}, 
{"type": "Feature", "properties": {"CD_SETOR": "420245305000080", "CD_SIT": "2", "NM_DIST": "Bombinhas", "NM_SUBDIST": null}, "geometry": {"type": "Polygon", "coordinates": [[[-48.49173, -27.1552], [-48.49008, -27.15606], [-48.49037, -27.15654], [-48.49059, -27.15744], [-48.4917, -27.15887], [-48.49258, -27.15951], [-48.49356, -27.16084], [-48.49378, -27.1617], [-48.49452, -27.16164], [-48.49618, -27.16052], [-48.49222, -27.15481], [-48.49173, -27.1552]]]}}, 
{"type": "Feature", "properties": {"CD_SETOR": "420245305000081", "CD_SIT": "1", "NM_DIST": "Bombinhas", "NM_SUBDIST": null}, "geometry": {"type": "Polygon", "coordinates": [[[-48.49053, -27.15584], [-48.49107, -27.15558], [-48.48764, -27.15022], [-48.48705, -27.14946], [-48.48608, -27.1494], [-48.48908, -27.15411], [-48.48935, -27.15398], [-48.49053, -27.15584]]]}}, 
{"type": "Feature", "properties": {"CD_SETOR": "420245305000082", "CD_SIT": "1", "NM_DIST": "Bombinhas", "NM_SUBDIST": null}, "geometry": {"type": "Polygon", "coordinates": [[[-48.48589, -27.15086], [-48.48883, -27.15547], [-48.48955, -27.15545], [-48.49008, -27.15606], [-48.49053, -27.15584], [-48.48935, -27.15398], [-48.48908, -27.15411], [-48.48608, -27.1494], [-48.48705, -27.14946], [-48.48656, -27.14851], [-48.48462, -27.14834], [-48.48507, -27.14936], [-48.48526, -27.14936], [-48.48589, -27.15086]]]}}, 
{"type": "Feature", "properties": {"CD_SETOR": "420245305000083", "CD_SIT": "1", "NM_DIST": "Bombinhas", "NM_SUBDIST": null}, "geometry": {"type": "Polygon", "coordinates": [[[-48.4856, -27.15132], [-48.48589, -27.15086], [-48.48526, -27.14936], [-48.48507, -27.14936], [-48.48462, -27.14834], [-48.48355, -27.14808], [-48.48331, -27.14774], [-48.48267, -27.14742], [-48.48239, -27.14758], [-48.48209, -27.14745], [-48.48192, -27.14763], [-48.48219, -27.14843], [-48.48287, -27.14865], [-48.48277, -27.14908], [-48.48296, -27.14991], [-48.48352, -27.15077], [-48.48438, -27.15123], [-48.48496, -27.15118], [-48.48518, -27.15151], [-48.4856, -27.15132]]]}}, 
{"type": "Feature", "properties": {"CD_SETOR": "420245305000084", "CD_SIT": "1", "NM_DIST": "Bombinhas", "NM_SUBDIST": null}, "geometry": {"type": "Polygon", "coordinates": [[[-48.4856, -27.15132], [-48.48585, -27.15172], [-48.48544, -27.15194], [-48.48671, -27.15393], [-48.48755, -27.15348], [-48.48589, -27.15086], [-48.4856, -27.15132]]]}}, 
{"type": "Feature", "properties": {"CD_SETOR": "420245305000085", "CD_SIT": "1", "NM_DIST": "Bombinhas", "NM_SUBDIST": null}, "geometry": {"type": "Polygon", "coordinates": [[[-48.5003, -27.17364], [-48.50462, -27.18], [-48.50793, -27.17808], [-48.5034, -27.17179], [-48.50181, -27.1727], [-48.50292, -27.17429], [-48.50241, -27.17457], [-48.50128, -27.17302], [-48.5003, -27.17364]]]}}, 
{"type": "Feature", "properties": {"CD_SETOR": "420245305000086", "CD_SIT": "1", "NM_DIST": "Bombinhas", "NM_SUBDIST": null}, "geometry": {"type": "Polygon", "coordinates": [[[-48.50462, -27.18], [-48.50561, -27.18146], [-48.50555, -27.18214], [-48.50622, -27.18224], [-48.50901, -27.18623], [-48.50936, -27.18665], [-48.50978, -27.18675], [-48.51101, -27.18238], [-48.50793, -27.17808], [-48.50462, -27.18]]]}}, 
{"type": "Feature", "properties": {"CD_SETOR": "420245305000087", "CD_SIT": "1", "NM_DIST": "Bombinhas", "NM_SUBDIST": null}, "geometry": {"type": "Polygon", "coordinates": [[[-48.49797, -27.17004], [-48.49905, -27.17295], [-48.49922, -27.17476], [-48.49983, -27.1777], [-48.49989, -27.18067], [-48.50409, -27.18067], [-48.50416, -27.1794], [-48.50405, -27.17913], [-48.5003, -27.17364], [-48.49967, -27.17128], [-48.49932, -27.17124], [-48.49902, -27.16981], [-48.49797, -27.17004]]]}}, 
{"type": "Feature", "properties": {"CD_SETOR": "420245305000088", "CD_SIT": "1", "NM_DIST": "Bombinhas", "NM_SUBDIST": null}, "geometry": {"type": "Polygon", "coordinates": [[[-48.49989, -27.18067], [-48.49964, -27.18467], [-48.50122, -27.18596], [-48.50335, -27.1862], [-48.50409, -27.18067], [-48.49989, -27.18067]]]}}, 
{"type": "Feature", "properties": {"CD_SETOR": "420245305000089", "CD_SIT": "1", "NM_DIST": "Bombinhas", "NM_SUBDIST": null}, "geometry": {"type": "Polygon", "coordinates": [[[-48.4992, -27.18831], [-48.50212, -27.19026], [-48.50294, -27.18839], [-48.50355, -27.18767], [-48.49964, -27.18467], [-48.4992, -27.18831]]]}}, 
{"type": "Feature", "properties": {"CD_SETOR": "420245305000090", "CD_SIT": "1", "NM_DIST": "Bombinhas", "NM_SUBDIST": null}, "geometry": {"type": "Polygon", "coordinates": [[[-48.50966, -27.18721], [-48.50723, -27.18903], [-48.50451, -27.18704], [-48.50382, -27.18785], [-48.50355, -27.18767], [-48.50294, -27.18839], [-48.50212, -27.19026], [-48.50426, -27.19178], [-48.50586, -27.19005], [-48.50633, -27.18972], [-48.50677, -27.19005], [-48.51021, -27.18728], [-48.50995, -27.18701], [-48.50966, -27.18721]]]}}, 
{"type": "Feature", "properties": {"CD_SETOR": "420245305000091", "CD_SIT": "1", "NM_DIST": "Bombinhas", "NM_SUBDIST": null}, "geometry": {"type": "Polygon", "coordinates": [[[-48.49771, -27.19334], [-48.49983, -27.1946], [-48.50212, -27.19026], [-48.4992, -27.18831], [-48.49898, -27.18965], [-48.49845, -27.19069], [-48.49771, -27.19334]]]}}, 
{"type": "Feature", "properties": {"CD_SETOR": "420245305000092", "CD_SIT": "1", "NM_DIST": "Bombinhas", "NM_SUBDIST": null}, "geometry": {"type": "Polygon", "coordinates": [[[-48.4961, -27.19708], [-48.49913, -27.1986], [-48.49962, -27.19778], [-48.49845, -27.1971], [-48.49983, -27.1946], [-48.49771, -27.19334], [-48.4961, -27.19708]]]}}, 
{"type": "Feature", "properties": {"CD_SETOR": "420245305000093", "CD_SIT": "2", "NM_DIST": "Bombinhas", "NM_SUBDIST": null}, "geometry": {"type": "Polygon", "coordinates": [[[-48.51109, -27.1821], [-48.51328, -27.18258], [-48.51276, -27.18436], [-48.51288, -27.18454], [-48.51575, -27.18313], [-48.51675, -27.17965], [-48.51734, -27.17977], [-48.5175, -27.17925], [-48.51844, -27.17586], [-48.51736, -27.17448], [-48.51642, -27.17377], [-48.51451, -27.17063], [-48.51272, -27.17625], [-48.51109, -27.1821]]]}}, 
{"type": "Feature", "properties": {"CD_SETOR": "420245305000094", "CD_SIT": "2", "NM_DIST": "Bombinhas", "NM_SUBDIST": null}, "geometry": {"type": "Polygon", "coordinates": [[[-48.51734, -27.17977], [-48.51657, -27.18281], [-48.51917, -27.18194], [-48.51979, -27.18003], [-48.52041, -27.1802], [-48.51991, -27.18176], [-48.52116, -27.18139], [-48.52361, -27.18031], [-48.52276, -27.1787], [-48.52181, -27.17894], [-48.5211, -27.1787], [-48.51925, -27.17708], [-48.51844, -27.17586], [-48.51734, -27.17977]]]}}, 
{"type": "Feature", "properties": {"CD_SETOR": "420245305000095", "CD_SIT": "2", "NM_DIST": "Bombinhas", "NM_SUBDIST": null}, "geometry": {"type": "Polygon", "coordinates": [[[-48.52543, -27.16657], [-48.52445, -27.16982], [-48.52954, -27.17106], [-48.53016, -27.16878], [-48.53067, -27.16811], [-48.53056, -27.16666], [-48.5307, -27.1656], [-48.53146, -27.16388], [-48.53088, -27.1638], [-48.53032, -27.16308], [-48.52952, -27.16452], [-48.52953, -27.16527], [-48.52889, -27.16491], [-48.52864, -27.16417], [-48.52761, -27.16572], [-48.52742, -27.16573], [-48.52714, -27.16541], [-48.52703, -27.16551], [-48.52709, -27.1659], [-48.52692, -27.16596], [-48.5266, -27.16545], [-48.52637, -27.16545], [-48.52554, -27.16622], [-48.52543, -27.16657]]]}}, 
{"type": "Feature", "properties": {"CD_SETOR": "420245305000096", "CD_SIT": "2", "NM_DIST": "Bombinhas", "NM_SUBDIST": null}, "geometry": {"type": "Polygon", "coordinates": [[[-48.53146, -27.16388], [-48.5307, -27.1656], [-48.53056, -27.16666], [-48.53067, -27.16811], [-48.53016, -27.16878], [-48.52954, -27.17106], [-48.52445, -27.16982], [-48.52381, -27.1712], [-48.52408, -27.17147], [-48.52389, -27.17199], [-48.52392, -27.1729], [-48.52661, -27.1744], [-48.53163, -27.17477], [-48.53259, -27.17206], [-48.53244, -27.17172], [-48.53262, -27.17121], [-48.53296, -27.17099], [-48.53485, -27.16529], [-48.53422, -27.16423], [-48.5342, -27.16319], [-48.53393, -27.16302], [-48.53325, -27.16311], [-48.53146, -27.16388]]]}}, 
{"type": "Feature", "properties": {"CD_SETOR": "420245305000097", "CD_SIT": "2", "NM_DIST": "Bombinhas", "NM_SUBDIST": null}, "geometry": {"type": "Polygon", "coordinates": [[[-48.48765, -27.20243], [-48.48826, -27.20358], [-48.4891, -27.20336], [-48.4896, -27.2035], [-48.49017, -27.20425], [-48.49139, -27.20511], [-48.49238, -27.20626], [-48.49246, -27.20673], [-48.4923, -27.20758], [-48.49144, -27.20862], [-48.49102, -27.2096], [-48.48984, -27.21123], [-48.49072, -27.21179], [-48.49099, -27.21167], [-48.49115, -27.21189], [-48.49149, -27.21165], [-48.49205, -27.21169], [-48.49356, -27.21307], [-48.49368, -27.21373], [-48.49419, -27.2144], [-48.49449, -27.21519], [-48.49565, -27.21657], [-48.4963, -27.21693], [-48.49796, -27.21712], [-48.49799, -27.21662], [-48.4984, -27.21656], [-48.49849, -27.21627], [-48.49873, -27.21623], [-48.49859, -27.21572], [-48.4988, -27.2151], [-48.49903, -27.2149], [-48.49859, -27.2138], [-48.498, -27.21302], [-48.49835, -27.2125], [-48.49933, -27.21193], [-48.49958, -27.2116], [-48.50084, -27.20706], [-48.50139, -27.20666], [-48.50097, -27.20588], [-48.50103, -27.20559], [-48.50084, -27.20537], [-48.50053, -27.20387], [-48.49974, -27.20262], [-48.49981, -27.2023], [-48.49934, -27.20188], [-48.49926, -27.20153], [-48.49887, -27.20105], [-48.49887, -27.20048], [-48.49865, -27.20052], [-48.49457, -27.19905], [-48.49389, -27.19979], [-48.49307, -27.20027], [-48.49285, -27.20027], [-48.49282, -27.19998], [-48.49248, -27.19975], [-48.4921, -27.19976], [-48.49197, -27.20017], [-48.49252, -27.20057], [-48.4925, -27.201], [-48.49148, -27.20197], [-48.49055, -27.20247], [-48.48931, -27.20288], [-48.48765, -27.20243]]]}}, 
{"type": "Feature", "properties": {"CD_SETOR": "420245305000098", "CD_SIT": "2", "NM_DIST": "Bombinhas", "NM_SUBDIST": null}, "geometry": {"type": "Polygon", "coordinates": [[[-48.49903, -27.2149], [-48.50189, -27.21471], [-48.50268, -27.21591], [-48.50311, -27.21602], [-48.50322, -27.21573], [-48.5035, -27.21566], [-48.50384, -27.21578], [-48.50436, -27.21666], [-48.50427, -27.21692], [-48.50445, -27.2171], [-48.50484, -27.21715], [-48.50534, -27.21685], [-48.50687, -27.21782], [-48.50718, -27.21777], [-48.50765, -27.21703], [-48.50788, -27.21725], [-48.50863, -27.21601], [-48.50951, -27.21595], [-48.51049, -27.21612], [-48.5113, -27.2168], [-48.51195, -27.21825], [-48.51224, -27.21848], [-48.5121, -27.21903], [-48.51178, -27.21893], [-48.51154, -27.21934], [-48.51174, -27.21998], [-48.51202, -27.22025], [-48.51207, -27.2209], [-48.51241, -27.22114], [-48.51243, -27.22133], [-48.513, -27.22151], [-48.51325, -27.22143], [-48.51357, -27.22023], [-48.5149, -27.2206], [-48.51515, -27.22046], [-48.51502, -27.21971], [-48.51511, -27.21877], [-48.51493, -27.21849], [-48.51506, -27.21833], [-48.51531, -27.21838], [-48.51544, -27.21817], [-48.51574, -27.21662], [-48.51451, -27.21583], [-48.51448, -27.21558], [-48.51414, -27.21554], [-48.51365, -27.21434], [-48.51331, -27.21432], [-48.51249, -27.21383], [-48.5116, -27.21355], [-48.51112, -27.21366], [-48.51074, -27.21352], [-48.51017, -27.21306], [-48.50922, -27.21166], [-48.50878, -27.21152], [-48.50788, -27.21162], [-48.50718, -27.21129], [-48.50675, -27.21094], [-48.50618, -27.20996], [-48.5057, -27.20948], [-48.50407, -27.20836], [-48.50334, -27.20823], [-48.50205, -27.20694], [-48.50139, -27.20666], [-48.50084, -27.20706], [-48.49958, -27.2116], [-48.49933, -27.21193], [-48.49835, -27.2125], [-48.498, -27.21302], [-48.49859, -27.2138], [-48.49903, -27.2149]]]}}]}