{"type": "FeatureCollection", "features": [
{"type": "Feature", "properties": {"CD_SETOR": "421160305000001", "CD_SIT": "1", "NM_DIST": "Nova Veneza", "NM_SUBDIST": null}, "geometry": {"type": "Polygon", "coordinates": [[[-49.50107, -28.63491], [-49.50109, -28.63571], [-49.50241, -28.63569], [-49.50259, -28.642], [-49.50381, -28.64194], [-49.50382, -28.63709], [-49.50566, -28.63706], [-49.50499, -28.63473], [-49.50149, -28.63477], [-49.50107, -28.63491]]]}}, 
{"type": "Feature", "properties": {"CD_SETOR": "421160305000003", "CD_SIT": "2", "NM_DIST": "Nova Veneza", "NM_SUBDIST": null}, "geometry": {"type": "Polygon", "coordinates": [[[-49.49429, -28.64778], [-49.49463, -28.64787], [-49.49458, -28.64808], [-49.4955, -28.64821], [-49.496, -28.64706], [-49.49661, -28.64642], [-49.49684, -28.64638], [-49.49737, -28.64695], [-49.49892, -28.64811], [-49.49947, -28.64878], [-49.49989, -28.64837], [-49.50057, -28.649], [-49.50185, -28.64945], [-49.50196, -28.64963], [-49.5019, -28.65051], [-49.50212, -28.65056], [-49.50238, -28.64999], [-49.50258, -28.64993], [-49.50263, -28.64927], [-49.50259, -28.642], [-49.49816, -28.64198], [-49.49708, -28.6427], [-49.49635, -28.64359], [-49.49611, -28.64471], [-49.4952, -28.64646], [-49.49429, -28.64778]]]}}, 
{"type": "Feature", "properties": {"CD_SETOR": "421160305000004", "CD_SIT": "1", "NM_DIST": "Nova Veneza", "NM_SUBDIST": null}, "geometry": {"type": "Polygon", "coordinates": [[[-49.50259, -28.642], [-49.50263, -28.64379], [-49.50385, -28.64377], [-49.50381, -28.64194], [-49.50259, -28.642]]]}}, 
{"type": "Feature", "properties": {"CD_SETOR": "421160305000005", "CD_SIT": "1", "NM_DIST": "Nova Veneza", "NM_SUBDIST": null}, "geometry": {"type": "Polygon", "coordinates": [[[-49.50381, -28.64194], [-49.50385, -28.64377], [-49.50263, -28.64379], [-49.50265, -28.64559], [-49.50441, -28.64557], [-49.50441, -28.6447], [-49.50674, -28.64465], [-49.50674, -28.6455], [-49.50974, -28.64547], [-49.50981, -28.64368], [-49.51038, -28.64365], [-49.51031, -28.64186], [-49.50381, -28.64194]]]}}, 
{"type": "Feature", "properties": {"CD_SETOR": "421160305000008", "CD_SIT": "1", "NM_DIST": "Nova Veneza", "NM_SUBDIST": null}, "geometry": {"type": "Polygon", "coordinates": [[[-49.50566, -28.63706], [-49.50825, -28.63609], [-49.51025, -28.63586], [-49.51026, -28.63522], [-49.50512, -28.63518], [-49.50566, -28.63706]]]}}, 
{"type": "Feature", "properties": {"CD_SETOR": "421160305000009", "CD_SIT": "1", "NM_DIST": "Nova Veneza", "NM_SUBDIST": null}, "geometry": {"type": "Polygon", "coordinates": [[[-49.50068, -28.63085], [-49.50079, -28.63322], [-49.50107, -28.63491], [-49.50149, -28.63477], [-49.50499, -28.63473], [-49.50512, -28.63518], [-49.51026, -28.63522], [-49.51022, -28.6322], [-49.51091, -28.63136], [-49.51101, -28.63025], [-49.50068, -28.63085]]]}}, 
{"type": "Feature", "properties": {"CD_SETOR": "421160305000011", "CD_SIT": "3", "NM_DIST": "Nova Veneza", "NM_SUBDIST": null}, "geometry": {"type": "Polygon", "coordinates": [[[-49.54108, -28.66293], [-49.55148, -28.66307], [-49.55149, -28.66264], [-49.55663, -28.66269], [-49.55674, -28.65773], [-49.5491, -28.6575], [-49.54937, -28.65832], [-49.54817, -28.66027], [-49.54729, -28.66103], [-49.54604, -28.66157], [-49.54445, -28.66148], [-49.54108, -28.66293]]]}}, 
{"type": "Feature", "properties": {"CD_SETOR": "421160305000013", "CD_SIT": "8", "NM_DIST": "Nova Veneza", "NM_SUBDIST": null}, "geometry": {"type": "Polygon", "coordinates": [[[-49.64733, -28.62295], [-49.55091, -28.62804], [-49.5509, -28.6284], [-49.55135, -28.62925], [-49.55081, -28.63168], [-49.55095, -28.63259], [-49.55094, -28.63527], [-49.55212, -28.63774], [-49.55229, -28.63889], [-49.55211, -28.63944], [-49.551, -28.64008], [-49.55106, -28.64197], [-49.55053, -28.64411], [-49.55117, -28.64638], [-49.55166, -28.64731], [-49.55245, -28.64814], [-49.55249, -28.6489], [-49.55231, -28.64937], [-49.55145, -28.6504], [-49.55127, -28.65096], [-49.55136, -28.6522], [-49.5512, -28.65306], [-49.55019, -28.65414], [-49.55017, -28.65453], [-49.54909, -28.65647], [-49.5491, -28.6575], [-49.55674, -28.65773], [-49.55663, -28.66269], [-49.55149, -28.66264], [-49.55148, -28.66307], [-49.54108, -28.66293], [-49.54083, -28.66307], [-49.5404, -28.66363], [-49.5404, -28.66547], [-49.5402, -28.66593], [-49.53847, -28.66619], [-49.53657, -28.66802], [-49.53525, -28.67008], [-49.53452, -28.67203], [-49.53309, -28.67367], [-49.53174, -28.67475], [-49.53077, -28.67482], [-49.52973, -28.67519], [-49.52857, -28.67506], [-49.52902, -28.67651], [-49.52891, -28.67683], [-49.52839, -28.67716], [-49.52764, -28.67736], [-49.52695, -28.6769], [-49.52623, -28.67685], [-49.52575, -28.67699], [-49.52527, -28.67772], [-49.52468, -28.67918], [-49.52315, -28.68096], [-49.52294, -28.68146], [-49.52301, -28.68231], [-49.52252, -28.68267], [-49.52622, -28.68269], [-49.52742, -28.68196], [-49.53041, -28.68183], [-49.53304, -28.68242], [-49.53569, -28.68337], [-49.53708, -28.68356], [-49.53865, -28.68345], [-49.53949, -28.68311], [-49.55402, -28.68326], [-49.55428, -28.68349], [-49.55394, -28.68432], [-49.55347, -28.68474], [-49.55326, -28.68521], [-49.55396, -28.68599], [-49.55454, -28.68823], [-49.55405, -28.6886], [-49.55297, -28.68876], [-49.55262, -28.68916], [-49.5528, -28.68956], [-49.55274, -28.69021], [-49.55294, -28.69112], [-49.55459, -28.69407], [-49.62213, -28.69348], [-49.65821, -28.63697], [-49.65689, -28.63648], [-49.65383, -28.63677], [-49.65173, -28.63746], [-49.64962, -28.63835], [-49.64593, -28.64134], [-49.64514, -28.64024], [-49.64586, -28.63869], [-49.64755, -28.63638], [-49.65341, -28.63151], [-49.65435, -28.62929], [-49.65368, -28.62715], [-49.65172, -28.62566], [-49.64976, -28.62282], [-49.64733, -28.62295]]]}}, 
{"type": "Feature", "properties": {"CD_SETOR": "421160305000014", "CD_SIT": "8", "NM_DIST": "Nova Veneza", "NM_SUBDIST": null}, "geometry": {"type": "Polygon", "coordinates": [[[-49.64976, -28.62282], [-49.65172, -28.62566], [-49.65368, -28.62715], [-49.65435, -28.62929], [-49.65341, -28.63151], [-49.64755, -28.63638], [-49.64586, -28.63869], [-49.64514, -28.64024], [-49.64593, -28.64134], [-49.64962, -28.63835], [-49.65173, -28.63746], [-49.65383, -28.63677], [-49.65689, -28.63648], [-49.65821, -28.63697], [-49.66758, -28.62188], [-49.64976, -28.62282]]]}}, 
{"type": "Feature", "properties": {"CD_SETOR": "421160305000015", "CD_SIT": "1", "NM_DIST": "Nova Veneza", "NM_SUBDIST": null}, "geometry": {"type": "Polygon", "coordinates": [[[-49.50265, -28.64559], [-49.50258, -28.64993], [-49.50296, -28.6505], [-49.50408, -28.65112], [-49.50646, -28.65281], [-49.50696, -28.65261], [-49.50678, -28.65215], [-49.50689, -28.65202], [-49.50759, -28.65176], [-49.5083, -28.65188], [-49.50847, -28.65049], [-49.50873, -28.65016], [-49.50968, -28.64974], [-49.50978, -28.6493], [-49.51015, -28.64921], [-49.51029, -28.64972], [-49.51065, -28.64952], [-49.51084, -28.64904], [-49.51064, -28.64847], [-49.5112, -28.64819], [-49.51116, -28.64754], [-49.51198, -28.64767], [-49.51311, -28.64738], [-49.51229, -28.64677], [-49.51247, -28.6464], [-49.51233, -28.64607], [-49.5124, -28.64585], [-49.5129, -28.64576], [-49.51211, -28.6449], [-49.51038, -28.64365], [-49.50981, -28.64368], [-49.50974, -28.64547], [-49.50674, -28.6455], [-49.50674, -28.64465], [-49.50441, -28.6447], [-49.50441, -28.64557], [-49.50265, -28.64559]]]}}, 
{"type": "Feature", "properties": {"CD_SETOR": "421160305000016", "CD_SIT": "7", "NM_DIST": "Nova Veneza", "NM_SUBDIST": null}, "geometry": {"type": "Polygon", "coordinates": [[[-49.50996, -28.66222], [-49.5119, -28.66329], [-49.51262, -28.66392], [-49.51259, -28.65998], [-49.50996, -28.66002], [-49.50996, -28.66222]]]}}, 
{"type": "Feature", "properties": {"CD_SETOR": "421160305000022", "CD_SIT": "2", "NM_DIST": "Nova Veneza", "NM_SUBDIST": null}, "geometry": {"type": "Polygon", "coordinates": [[[-49.50452, -28.65745], [-49.51435, -28.65747], [-49.51431, -28.65497], [-49.50546, -28.65505], [-49.50544, -28.65364], [-49.50597, -28.65361], [-49.50601, -28.65257], [-49.50408, -28.65112], [-49.50296, -28.6505], [-49.50264, -28.64995], [-49.50238, -28.64999], [-49.50212, -28.65056], [-49.50191, -28.65054], [-49.50191, -28.64951], [-49.50057, -28.649], [-49.50041, -28.65387], [-49.50074, -28.65504], [-49.50249, -28.65811], [-49.50452, -28.65745]]]}}, 
{"type": "Feature", "properties": {"CD_SETOR": "421160305000023", "CD_SIT": "8", "NM_DIST": "Nova Veneza", "NM_SUBDIST": null}, "geometry": {"type": "Polygon", "coordinates": [[[-49.49429, -28.64778], [-49.4938, -28.64832], [-49.49342, -28.64838], [-49.49164, -28.6479], [-49.49077, -28.64734], [-49.48997, -28.64747], [-49.48893, -28.64867], [-49.48841, -28.64965], [-49.48843, -28.65011], [-49.48922, -28.65125], [-49.47625, -28.65126], [-49.47677, -28.65209], [-49.47691, -28.65311], [-49.47709, -28.65334], [-49.47739, -28.65318], [-49.47884, -28.65149], [-49.47937, -28.65134], [-49.47986, -28.65156], [-49.48001, -28.6534], [-49.4792, -28.65384], [-49.47937, -28.65477], [-49.47969, -28.65501], [-49.4806, -28.65475], [-49.48032, -28.65564], [-49.48054, -28.65593], [-49.48138, -28.6562], [-49.48193, -28.65597], [-49.48237, -28.65608], [-49.48218, -28.65712], [-49.48325, -28.65802], [-49.48357, -28.65853], [-49.48349, -28.65909], [-49.48298, -28.66008], [-49.48309, -28.66051], [-49.48361, -28.66074], [-49.48597, -28.6612], [-49.48595, -28.66178], [-49.48523, -28.66376], [-49.48519, -28.66509], [-49.48555, -28.66754], [-49.48278, -28.66928], [-49.482, -28.67001], [-49.48187, -28.67068], [-49.48196, -28.67138], [-49.48169, -28.6726], [-49.48186, -28.67342], [-49.48336, -28.67436], [-49.48366, -28.67478], [-49.48394, -28.67561], [-49.484, -28.67668], [-49.48302, -28.67814], [-49.48475, -28.68159], [-49.4861, -28.68272], [-49.48625, -28.68329], [-49.48557, -28.68474], [-49.48517, -28.6852], [-49.48362, -28.68605], [-49.48319, -28.68663], [-49.48301, -28.68705], [-49.48302, -28.68794], [-49.48287, -28.68841], [-49.47829, -28.69068], [-49.47823, -28.69176], [-49.47846, -28.69225], [-49.47901, -28.69296], [-49.4801, -28.6932], [-49.48065, -28.6935], [-49.48083, -28.6938], [-49.48068, -28.69469], [-49.48868, -28.69185], [-49.50695, -28.68644], [-49.50692, -28.68503], [-49.50717, -28.68448], [-49.50761, -28.68413], [-49.50881, -28.68363], [-49.51004, -28.68359], [-49.51242, -28.68248], [-49.51412, -28.68256], [-49.51484, -28.68226], [-49.51522, -28.68167], [-49.51501, -28.68097], [-49.5155, -28.68061], [-49.51587, -28.68055], [-49.51654, -28.67845], [-49.51662, -28.67762], [-49.51618, -28.67624], [-49.51614, -28.66965], [-49.516, -28.66906], [-49.51427, -28.66536], [-49.5119, -28.66329], [-49.51085, -28.66265], [-49.50756, -28.66109], [-49.50609, -28.66007], [-49.50452, -28.65745], [-49.50249, -28.65811], [-49.5005, -28.65443], [-49.50057, -28.649], [-49.49995, -28.64839], [-49.49974, -28.64839], [-49.49961, -28.64877], [-49.49947, -28.64878], [-49.49823, -28.64749], [-49.49737, -28.64695], [-49.49681, -28.64637], [-49.496, -28.64706], [-49.4955, -28.64821], [-49.49458, -28.64808], [-49.49463, -28.64787], [-49.49429, -28.64778]]]}}, 
{"type": "Feature", "properties": {"CD_SETOR": "421160305000024", "CD_SIT": "1", "NM_DIST": "Nova Veneza", "NM_SUBDIST": null}, "geometry": {"type": "Polygon", "coordinates": [[[-49.495, -28.63118], [-49.49489, -28.63355], [-49.49429, -28.64778], [-49.4952, -28.64646], [-49.49611, -28.64471], [-49.49635, -28.64359], [-49.49708, -28.6427], [-49.49816, -28.64198], [-49.50259, -28.642], [-49.50241, -28.63569], [-49.50109, -28.63571], [-49.50068, -28.63085], [-49.495, -28.63118]]]}}, 
{"type": "Feature", "properties": {"CD_SETOR": "421160305000025", "CD_SIT": "2", "NM_DIST": "Nova Veneza", "NM_SUBDIST": null}, "geometry": {"type": "Polygon", "coordinates": [[[-49.50566, -28.63706], [-49.50382, -28.63709], [-49.50381, -28.64194], [-49.51031, -28.64186], [-49.51025, -28.63586], [-49.50825, -28.63609], [-49.50566, -28.63706]]]}}, 
{"type": "Feature", "properties": {"CD_SETOR": "421160305000026", "CD_SIT": "8", "NM_DIST": "Nova Veneza", "NM_SUBDIST": null}, "geometry": {"type": "Polygon", "coordinates": [[[-49.51101, -28.63025], [-49.51091, -28.63136], [-49.51022, -28.6322], [-49.51036, -28.64349], [-49.51046, -28.64372], [-49.51211, -28.6449], [-49.5129, -28.64576], [-49.5124, -28.64585], [-49.51233, -28.64607], [-49.51247, -28.6464], [-49.51229, -28.64677], [-49.51311, -28.64738], [-49.51198, -28.64767], [-49.51116, -28.64754], [-49.5112, -28.64819], [-49.51064, -28.64847], [-49.51084, -28.64904], [-49.51076, -28.64939], [-49.51031, -28.64972], [-49.51015, -28.64921], [-49.50986, -28.64925], [-49.50968, -28.64974], [-49.50862, -28.65026], [-49.5084, -28.65078], [-49.5083, -28.65188], [-49.50759, -28.65176], [-49.50689, -28.65202], [-49.50678, -28.65215], [-49.50696, -28.65261], [-49.50662, -28.65279], [-49.50601, -28.65257], [-49.50597, -28.65361], [-49.50544, -28.65364], [-49.50546, -28.65505], [-49.51431, -28.65497], [-49.51435, -28.65747], [-49.50452, -28.65745], [-49.50609, -28.66007], [-49.50756, -28.66109], [-49.50996, -28.66222], [-49.50996, -28.66002], [-49.51259, -28.65998], [-49.51262, -28.66392], [-49.51427, -28.66536], [-49.516, -28.66906], [-49.51614, -28.66965], [-49.51618, -28.67624], [-49.51663, -28.67791], [-49.51587, -28.68055], [-49.51664, -28.68074], [-49.51812, -28.67997], [-49.51946, -28.67988], [-49.52214, -28.67901], [-49.52285, -28.67855], [-49.52336, -28.67792], [-49.52441, -28.67734], [-49.52713, -28.67516], [-49.52857, -28.67506], [-49.52973, -28.67519], [-49.53077, -28.67482], [-49.532, -28.67463], [-49.53444, -28.67216], [-49.53525, -28.67008], [-49.53669, -28.66789], [-49.53847, -28.66619], [-49.5402, -28.66593], [-49.5404, -28.66547], [-49.5404, -28.66363], [-49.54067, -28.66319], [-49.54445, -28.66148], [-49.54589, -28.66159], [-49.54673, -28.66134], [-49.54808, -28.66035], [-49.54855, -28.65972], [-49.54938, -28.65829], [-49.5491, -28.6575], [-49.54909, -28.65647], [-49.55017, -28.65453], [-49.55019, -28.65414], [-49.5512, -28.65306], [-49.55136, -28.6522], [-49.55127, -28.65096], [-49.55149, -28.65031], [-49.552, -28.64982], [-49.55249, -28.6489], [-49.55245, -28.64814], [-49.55166, -28.64731], [-49.55117, -28.64638], [-49.55053, -28.64411], [-49.55106, -28.64197], [-49.551, -28.64008], [-49.55211, -28.63944], [-49.55229, -28.63889], [-49.55212, -28.63774], [-49.55094, -28.63527], [-49.55095, -28.63259], [-49.55081, -28.63168], [-49.55134, -28.6291], [-49.5509, -28.6284], [-49.55091, -28.62804], [-49.51101, -28.63025]]]}}, 
{"type": "Feature", "properties": {"CD_SETOR": "421160305000027", "CD_SIT": "8", "NM_DIST": "Nova Veneza", "NM_SUBDIST": null}, "geometry": {"type": "Polygon", "coordinates": [[[-49.48853, -28.63156], [-49.45377, -28.63375], [-49.45244, -28.63383], [-49.45264, -28.63443], [-49.45407, -28.63591], [-49.45481, -28.63717], [-49.45531, -28.63954], [-49.45787, -28.64234], [-49.46051, -28.64403], [-49.46238, -28.64481], [-49.46291, -28.64525], [-49.46239, -28.64706], [-49.46331, -28.64732], [-49.46422, -28.64863], [-49.46689, -28.6474], [-49.46741, -28.64826], [-49.46802, -28.64844], [-49.46869, -28.64922], [-49.46989, -28.64904], [-49.4709, -28.64856], [-49.47179, -28.6486], [-49.47208, -28.64884], [-49.47302, -28.64911], [-49.47283, -28.65004], [-49.47292, -28.65025], [-49.47334, -28.65035], [-49.47325, -28.65172], [-49.47351, -28.65183], [-49.47524, -28.65054], [-49.47567, -28.65066], [-49.47625, -28.65126], [-49.48922, -28.65125], [-49.48843, -28.65011], [-49.48841, -28.64965], [-49.48893, -28.64867], [-49.48997, -28.64747], [-49.49077, -28.64734], [-49.49164, -28.6479], [-49.49342, -28.64838], [-49.4938, -28.64832], [-49.49429, -28.64778], [-49.495, -28.63118], [-49.48853, -28.63156]]]}}, 
{"type": "Feature", "properties": {"CD_SETOR": "421160307000001", "CD_SIT": "1", "NM_DIST": "Nossa Senhora do Caravagio", "NM_SUBDIST": null}, "geometry": {"type": "Polygon", "coordinates": [[[-49.46414, -28.65726], [-49.46692, -28.65727], [-49.46676, -28.6601], [-49.46917, -28.66017], [-49.46916, -28.65278], [-49.46412, -28.65284], [-49.46414, -28.65726]]]}}, 
{"type": "Feature", "properties": {"CD_SETOR": "421160307000003", "CD_SIT": "1", "NM_DIST": "Nossa Senhora do Caravagio", "NM_SUBDIST": null}, "geometry": {"type": "Polygon", "coordinates": [[[-49.46916, -28.65278], [-49.46922, -28.65905], [-49.46883, -28.66531], [-49.47663, -28.66525], [-49.47683, -28.66275], [-49.47189, -28.66264], [-49.47187, -28.65967], [-49.47221, -28.65203], [-49.47085, -28.65178], [-49.46957, -28.65205], [-49.46916, -28.65231], [-49.46916, -28.65278]]]}}, 
{"type": "Feature", "properties": {"CD_SETOR": "421160307000004", "CD_SIT": "8", "NM_DIST": "Nossa Senhora do Caravagio", "NM_SUBDIST": null}, "geometry": {"type": "Polygon", "coordinates": [[[-49.47073, -28.67425], [-49.47073, -28.67753], [-49.46855, -28.67751], [-49.4684, -28.68367], [-49.46124, -28.68357], [-49.46149, -28.68393], [-49.46173, -28.68487], [-49.4623, -28.68487], [-49.46249, -28.68514], [-49.46254, -28.68608], [-49.46463, -28.68755], [-49.46473, -28.68799], [-49.4658, -28.68911], [-49.46682, -28.68938], [-49.46649, -28.68985], [-49.46687, -28.69016], [-49.46689, -28.69132], [-49.46815, -28.69223], [-49.46929, -28.69237], [-49.47035, -28.69218], [-49.47108, -28.69247], [-49.47053, -28.69332], [-49.47047, -28.69405], [-49.47008, -28.69491], [-49.47032, -28.69606], [-49.47077, -28.69664], [-49.47068, -28.69711], [-49.47118, -28.69721], [-49.47204, -28.69696], [-49.47243, -28.69703], [-49.47268, -28.69717], [-49.4728, -28.69758], [-49.47378, -28.69723], [-49.47403, -28.69853], [-49.47452, -28.6988], [-49.47404, -28.699], [-49.47437, -28.6994], [-49.4742, -28.69983], [-49.47444, -28.70089], [-49.47423, -28.70146], [-49.4744, -28.70225], [-49.47465, -28.70276], [-49.47517, -28.7032], [-49.4748, -28.70355], [-49.47464, -28.70406], [-49.47499, -28.70436], [-49.47548, -28.70439], [-49.47571, -28.70457], [-49.47727, -28.70216], [-49.47717, -28.70175], [-49.47659, -28.70108], [-49.47653, -28.70013], [-49.47686, -28.6989], [-49.47732, -28.69815], [-49.47765, -28.69708], [-49.47968, -28.69613], [-49.48064, -28.69476], [-49.4808, -28.69425], [-49.48083, -28.6938], [-49.48052, -28.69338], [-49.47901, -28.69296], [-49.4787, -28.69263], [-49.47823, -28.69176], [-49.47829, -28.69068], [-49.48287, -28.68841], [-49.48306, -28.68682], [-49.48362, -28.68605], [-49.48517, -28.6852], [-49.48557, -28.68474], [-49.48625, -28.68329], [-49.48624, -28.68299], [-49.48572, -28.68229], [-49.48475, -28.68159], [-49.48307, -28.67827], [-49.48303, -28.67795], [-49.484, -28.67668], [-49.48394, -28.67561], [-49.48336, -28.67436], [-49.48186, -28.67342], [-49.4817, -28.67255], [-49.47601, -28.67248], [-49.47597, -28.67437], [-49.47073, -28.67425]]]}}, 
{"type": "Feature", "properties": {"CD_SETOR": "421160307000005", "CD_SIT": "1", "NM_DIST": "Nossa Senhora do Caravagio", "NM_SUBDIST": null}, "geometry": {"type": "Polygon", "coordinates": [[[-49.45545, -28.6607], [-49.45837, -28.6617], [-49.46003, -28.66203], [-49.46727, -28.66226], [-49.4683, -28.66198], [-49.46874, -28.66211], [-49.46904, -28.66251], [-49.46917, -28.66017], [-49.46676, -28.6601], [-49.46692, -28.65727], [-49.46354, -28.65725], [-49.46341, -28.65944], [-49.45769, -28.65937], [-49.45765, -28.65713], [-49.45525, -28.657], [-49.45532, -28.65806], [-49.45564, -28.65863], [-49.45546, -28.6593], [-49.45556, -28.66038], [-49.45545, -28.6607]]]}}, 
{"type": "Feature", "properties": {"CD_SETOR": "421160307000006", "CD_SIT": "2", "NM_DIST": "Nossa Senhora do Caravagio", "NM_SUBDIST": null}, "geometry": {"type": "Polygon", "coordinates": [[[-49.46859, -28.67508], [-49.46421, -28.675], [-49.4636, -28.67575], [-49.46337, -28.67646], [-49.462, -28.67748], [-49.46208, -28.67791], [-49.46196, -28.67814], [-49.4611, -28.67835], [-49.46101, -28.67864], [-49.46074, -28.6787], [-49.46073, -28.67906], [-49.4603, -28.67956], [-49.46007, -28.68043], [-49.45954, -28.6811], [-49.46039, -28.68245], [-49.46083, -28.68244], [-49.46134, -28.68213], [-49.46107, -28.68301], [-49.46124, -28.68357], [-49.4684, -28.68367], [-49.46855, -28.67751], [-49.47073, -28.67753], [-49.47073, -28.67425], [-49.46861, -28.67423], [-49.46859, -28.67508]]]}}, 
{"type": "Feature", "properties": {"CD_SETOR": "421160307000007", "CD_SIT": "2", "NM_DIST": "Nossa Senhora do Caravagio", "NM_SUBDIST": null}, "geometry": {"type": "Polygon", "coordinates": [[[-49.46998, -28.6653], [-49.46987, -28.67092], [-49.47079, -28.67093], [-49.47073, -28.67425], [-49.47597, -28.67437], [-49.47601, -28.67248], [-49.4817, -28.67255], [-49.48194, -28.67151], [-49.48048, -28.6715], [-49.48045, -28.66451], [-49.48166, -28.66465], [-49.48347, -28.66448], [-49.48377, -28.66432], [-49.48413, -28.66375], [-49.48459, -28.66255], [-49.47809, -28.66273], [-49.47813, -28.65971], [-49.47187, -28.65967], [-49.47189, -28.66264], [-49.47683, -28.66275], [-49.47663, -28.66525], [-49.46998, -28.6653]]]}}, 
{"type": "Feature", "properties": {"CD_SETOR": "421160307000008", "CD_SIT": "8", "NM_DIST": "Nossa Senhora do Caravagio", "NM_SUBDIST": null}, "geometry": {"type": "Polygon", "coordinates": [[[-49.45165, -28.63388], [-49.45416, -28.65103], [-49.46729, -28.65114], [-49.47221, -28.65203], [-49.47187, -28.65967], [-49.47813, -28.65971], [-49.47809, -28.66273], [-49.48459, -28.66255], [-49.48413, -28.66375], [-49.48377, -28.66432], [-49.48347, -28.66448], [-49.48166, -28.66465], [-49.48045, -28.66451], [-49.48048, -28.6715], [-49.48194, -28.67151], [-49.482, -28.67001], [-49.48278, -28.66928], [-49.48555, -28.66754], [-49.48519, -28.66509], [-49.48523, -28.66376], [-49.48595, -28.66178], [-49.48597, -28.6612], [-49.48361, -28.66074], [-49.48309, -28.66051], [-49.48298, -28.66008], [-49.48349, -28.65909], [-49.48357, -28.65853], [-49.48325, -28.65802], [-49.48218, -28.65712], [-49.48237, -28.65608], [-49.48193, -28.65597], [-49.48138, -28.6562], [-49.48054, -28.65593], [-49.48032, -28.65564], [-49.4806, -28.65475], [-49.47969, -28.65501], [-49.47937, -28.65477], [-49.4792, -28.65384], [-49.48001, -28.6534], [-49.47986, -28.65156], [-49.47937, -28.65134], [-49.47884, -28.65149], [-49.47739, -28.65318], [-49.47709, -28.65334], [-49.47691, -28.65311], [-49.47677, -28.65209], [-49.47656, -28.65165], [-49.47553, -28.65059], [-49.475, -28.65063], [-49.47387, -28.65166], [-49.47362, -28.65181], [-49.47329, -28.65178], [-49.47334, -28.65035], [-49.47292, -28.65025], [-49.47283, -28.65004], [-49.47302, -28.64911], [-49.47208, -28.64884], [-49.47179, -28.6486], [-49.4709, -28.64856], [-49.46989, -28.64904], [-49.46869, -28.64922], [-49.46802, -28.64844], [-49.46741, -28.64826], [-49.46689, -28.6474], [-49.46422, -28.64863], [-49.46331, -28.64732], [-49.46239, -28.64706], [-49.46291, -28.64525], [-49.46238, -28.64481], [-49.46051, -28.64403], [-49.45787, -28.64234], [-49.45531, -28.63954], [-49.45481, -28.63717], [-49.45407, -28.63591], [-49.45264, -28.63443], [-49.45244, -28.63383], [-49.45165, -28.63388]]]}}, 
{"type": "Feature", "properties": {"CD_SETOR": "421160307000009", "CD_SIT": "2", "NM_DIST": "Nossa Senhora do Caravagio", "NM_SUBDIST": null}, "geometry": {"type": "Polygon", "coordinates": [[[-49.45416, -28.65103], [-49.45498, -28.65665], [-49.45525, -28.657], [-49.45765, -28.65713], [-49.45769, -28.65937], [-49.46341, -28.65944], [-49.46354, -28.65725], [-49.46414, -28.65726], [-49.46412, -28.65284], [-49.46916, -28.65278], [-49.46916, -28.65231], [-49.4693, -28.65216], [-49.47085, -28.65178], [-49.46729, -28.65114], [-49.45416, -28.65103]]]}}, 
{"type": "Feature", "properties": {"CD_SETOR": "421160307000010", "CD_SIT": "1", "NM_DIST": "Nossa Senhora do Caravagio", "NM_SUBDIST": null}, "geometry": {"type": "Polygon", "coordinates": [[[-49.46161, -28.66914], [-49.4651, -28.66908], [-49.46991, -28.6693], [-49.46998, -28.6653], [-49.46883, -28.66531], [-49.469, -28.66238], [-49.46864, -28.66205], [-49.4683, -28.66198], [-49.46727, -28.66226], [-49.46003, -28.66203], [-49.45837, -28.6617], [-49.45545, -28.6607], [-49.45497, -28.66195], [-49.45488, -28.66251], [-49.45499, -28.66284], [-49.45587, -28.66357], [-49.45669, -28.66375], [-49.45698, -28.66366], [-49.45884, -28.66434], [-49.45773, -28.6646], [-49.4575, -28.66531], [-49.45825, -28.66608], [-49.45987, -28.66716], [-49.45999, -28.66773], [-49.46071, -28.6679], [-49.46101, -28.66848], [-49.46161, -28.66914]]]}}, 
{"type": "Feature", "properties": {"CD_SETOR": "421160307000011", "CD_SIT": "1", "NM_DIST": "Nossa Senhora do Caravagio", "NM_SUBDIST": null}, "geometry": {"type": "Polygon", "coordinates": [[[-49.46421, -28.675], [-49.46859, -28.67508], [-49.46861, -28.67423], [-49.47073, -28.67425], [-49.47079, -28.67093], [-49.46987, -28.67092], [-49.46991, -28.6693], [-49.4651, -28.66908], [-49.46161, -28.66914], [-49.46268, -28.67012], [-49.46371, -28.67061], [-49.46336, -28.671], [-49.46365, -28.6714], [-49.46314, -28.6715], [-49.46311, -28.67213], [-49.46373, -28.67313], [-49.46362, -28.67396], [-49.46402, -28.67419], [-49.46445, -28.67482], [-49.46421, -28.675]]]}}, 
{"type": "Feature", "properties": {"CD_SETOR": "421160310000001", "CD_SIT": "1", "NM_DIST": "São Bento Baixo", "NM_SUBDIST": null}, "geometry": {"type": "Polygon", "coordinates": [[[-49.50994, -28.70579], [-49.50875, -28.70637], [-49.50881, -28.70667], [-49.50943, -28.70706], [-49.50956, -28.70733], [-49.50523, -28.70723], [-49.50503, -28.70914], [-49.50571, -28.70921], [-49.5056, -28.7103], [-49.51106, -28.71063], [-49.51106, -28.7086], [-49.51152, -28.70781], [-49.51247, -28.70689], [-49.51267, -28.70607], [-49.51177, -28.70578], [-49.50994, -28.70579]]]}}, 
{"type": "Feature", "properties": {"CD_SETOR": "421160310000002", "CD_SIT": "1", "NM_DIST": "São Bento Baixo", "NM_SUBDIST": null}, "geometry": {"type": "Polygon", "coordinates": [[[-49.47375, -28.70885], [-49.48611, -28.70937], [-49.4862, -28.70739], [-49.48301, -28.70715], [-49.48165, -28.70745], [-49.48114, -28.70777], [-49.47926, -28.70754], [-49.47605, -28.70701], [-49.47542, -28.7067], [-49.47508, -28.70589], [-49.47482, -28.70575], [-49.47439, -28.70633], [-49.47375, -28.70885]]]}}, 
{"type": "Feature", "properties": {"CD_SETOR": "421160310000003", "CD_SIT": "3", "NM_DIST": "São Bento Baixo", "NM_SUBDIST": null}, "geometry": {"type": "Polygon", "coordinates": [[[-49.56423, -28.71244], [-49.56522, -28.71245], [-49.56581, -28.71156], [-49.56594, -28.71084], [-49.56562, -28.71072], [-49.5638, -28.71085], [-49.56303, -28.71057], [-49.56295, -28.71032], [-49.56568, -28.70871], [-49.5658, -28.70843], [-49.56551, -28.70791], [-49.56491, -28.70778], [-49.5577, -28.70777], [-49.55768, -28.71062], [-49.55784, -28.71063], [-49.55787, -28.71243], [-49.56423, -28.71244]]]}}, 
{"type": "Feature", "properties": {"CD_SETOR": "421160310000004", "CD_SIT": "3", "NM_DIST": "São Bento Baixo", "NM_SUBDIST": null}, "geometry": {"type": "Polygon", "coordinates": [[[-49.60188, -28.7239], [-49.60328, -28.72384], [-49.60178, -28.72266], [-49.60047, -28.7208], [-49.59965, -28.72021], [-49.60059, -28.71675], [-49.59253, -28.71678], [-49.59249, -28.72401], [-49.60188, -28.7239]]]}}, 
{"type": "Feature", "properties": {"CD_SETOR": "421160310000005", "CD_SIT": "3", "NM_DIST": "São Bento Baixo", "NM_SUBDIST": null}, "geometry": {"type": "Polygon", "coordinates": [[[-49.63956, -28.7199], [-49.64403, -28.72209], [-49.6438, -28.7229], [-49.6466, -28.72296], [-49.64661, -28.72257], [-49.64687, -28.72223], [-49.64681, -28.7218], [-49.6475, -28.72144], [-49.64778, -28.72102], [-49.64767, -28.7205], [-49.6481, -28.7204], [-49.64845, -28.72072], [-49.64868, -28.72059], [-49.64854, -28.71991], [-49.64913, -28.71913], [-49.64867, -28.71776], [-49.64879, -28.71752], [-49.64908, -28.71739], [-49.64935, -28.71605], [-49.64984, -28.71515], [-49.65068, -28.71495], [-49.65123, -28.71355], [-49.65183, -28.71279], [-49.642, -28.71279], [-49.64162, -28.7144], [-49.64, -28.71694], [-49.63967, -28.71782], [-49.63956, -28.7199]]]}}, 
{"type": "Feature", "properties": {"CD_SETOR": "421160310000006", "CD_SIT": "3", "NM_DIST": "São Bento Baixo", "NM_SUBDIST": null}, "geometry": {"type": "Polygon", "coordinates": [[[-49.66009, -28.69757], [-49.6601, -28.69947], [-49.66702, -28.69944], [-49.66687, -28.69887], [-49.66816, -28.69884], [-49.66797, -28.69403], [-49.66007, -28.69422], [-49.66009, -28.69757]]]}}, 
{"type": "Feature", "properties": {"CD_SETOR": "421160310000007", "CD_SIT": "1", "NM_DIST": "São Bento Baixo", "NM_SUBDIST": null}, "geometry": {"type": "Polygon", "coordinates": [[[-49.4862, -28.70739], [-49.48611, -28.70937], [-49.48808, -28.70947], [-49.48796, -28.71181], [-49.49436, -28.71208], [-49.49449, -28.70982], [-49.49881, -28.71002], [-49.49898, -28.70725], [-49.49599, -28.70739], [-49.49435, -28.70716], [-49.49195, -28.70785], [-49.49116, -28.70776], [-49.48847, -28.70675], [-49.48623, -28.70652], [-49.4862, -28.70739]]]}}, 
{"type": "Feature", "properties": {"CD_SETOR": "421160310000010", "CD_SIT": "8", "NM_DIST": "São Bento Baixo", "NM_SUBDIST": null}, "geometry": {"type": "Polygon", "coordinates": [[[-49.60328, -28.72384], [-49.59249, -28.72401], [-49.59251, -28.71785], [-49.59059, -28.71503], [-49.58852, -28.71346], [-49.58779, -28.71316], [-49.58593, -28.71269], [-49.58363, -28.71261], [-49.58103, -28.71315], [-49.5752, -28.71217], [-49.57449, -28.71229], [-49.57283, -28.71295], [-49.57176, -28.71308], [-49.56581, -28.71156], [-49.56525, -28.71234], [-49.56524, -28.71271], [-49.56563, -28.71292], [-49.56759, -28.71283], [-49.56768, -28.71341], [-49.56799, -28.71366], [-49.56852, -28.71365], [-49.56916, -28.71338], [-49.57077, -28.71372], [-49.57555, -28.71357], [-49.57566, -28.7139], [-49.57515, -28.7141], [-49.57471, -28.71464], [-49.5743, -28.7159], [-49.57438, -28.71643], [-49.57479, -28.71669], [-49.57547, -28.71671], [-49.57587, -28.71637], [-49.57638, -28.71635], [-49.57801, -28.71531], [-49.57945, -28.71527], [-49.58097, -28.7147], [-49.58237, -28.71488], [-49.58248, -28.71468], [-49.58219, -28.71443], [-49.5824, -28.71411], [-49.58282, -28.71432], [-49.5835, -28.71426], [-49.58423, -28.71463], [-49.58416, -28.71511], [-49.5836, -28.71575], [-49.58359, -28.71679], [-49.58215, -28.71771], [-49.58183, -28.71811], [-49.58187, -28.71856], [-49.58164, -28.71936], [-49.58259, -28.72022], [-49.58271, -28.72074], [-49.58242, -28.72124], [-49.58157, -28.72173], [-49.58143, -28.72199], [-49.58144, -28.72248], [-49.58206, -28.72335], [-49.58193, -28.72433], [-49.58169, -28.72451], [-49.58109, -28.72433], [-49.58024, -28.72505], [-49.58001, -28.72584], [-49.58028, -28.72669], [-49.58021, -28.72724], [-49.5787, -28.72927], [-49.57871, -28.72952], [-49.57933, -28.73043], [-49.57948, -28.7312], [-49.57938, -28.73164], [-49.57911, -28.73202], [-49.57866, -28.73335], [-49.5783, -28.73376], [-49.57769, -28.73395], [-49.57646, -28.73398], [-49.57627, -28.73413], [-49.57627, -28.73475], [-49.57687, -28.73539], [-49.57719, -28.73604], [-49.5767, -28.73693], [-49.57715, -28.73759], [-49.57719, -28.73801], [-49.57628, -28.73985], [-49.57529, -28.7402], [-49.57556, -28.74133], [-49.57507, -28.74283], [-49.57495, -28.74416], [-49.57455, -28.74458], [-49.57357, -28.74471], [-49.57304, -28.74512], [-49.57262, -28.74667], [-49.57197, -28.74796], [-49.57179, -28.74896], [-49.571, -28.75], [-49.57077, -28.75062], [-49.57059, -28.75278], [-49.56931, -28.75338], [-49.56908, -28.7543], [-49.56918, -28.75473], [-49.56991, -28.75597], [-49.57041, -28.75601], [-49.57125, -28.75577], [-49.5716, -28.75606], [-49.5714, -28.75679], [-49.5707, -28.75764], [-49.57073, -28.75825], [-49.57107, -28.75934], [-49.57028, -28.75994], [-49.56998, -28.76078], [-49.57022, -28.76122], [-49.57107, -28.76179], [-49.57136, -28.76218], [-49.57175, -28.76359], [-49.58561, -28.76371], [-49.58618, -28.77573], [-49.59551, -28.77577], [-49.59556, -28.7669], [-49.5961, -28.76559], [-49.59689, -28.7648], [-49.60543, -28.75989], [-49.60673, -28.75879], [-49.60681, -28.75819], [-49.60661, -28.75702], [-49.60477, -28.75236], [-49.62806, -28.75093], [-49.62883, -28.75158], [-49.62942, -28.75185], [-49.63, -28.75276], [-49.6308, -28.75347], [-49.6316, -28.75477], [-49.63239, -28.75507], [-49.63305, -28.7559], [-49.63364, -28.75623], [-49.63466, -28.75844], [-49.63486, -28.75998], [-49.63502, -28.76031], [-49.63525, -28.76038], [-49.63827, -28.75781], [-49.63888, -28.75703], [-49.63982, -28.75648], [-49.64012, -28.75613], [-49.64074, -28.75633], [-49.64217, -28.75592], [-49.64392, -28.75419], [-49.64492, -28.75353], [-49.64559, -28.7533], [-49.64616, -28.75242], [-49.64702, -28.75195], [-49.64759, -28.75099], [-49.64759, -28.75038], [-49.64786, -28.75002], [-49.6483, -28.74992], [-49.64934, -28.75013], [-49.64962, -28.74971], [-49.64954, -28.74906], [-49.64815, -28.74738], [-49.65791, -28.74981], [-49.67001, -28.75385], [-49.67007, -28.75364], [-49.67081, -28.75335], [-49.66963, -28.75222], [-49.66972, -28.75195], [-49.67047, -28.7519], [-49.67064, -28.75175], [-49.67059, -28.75155], [-49.67012, -28.75132], [-49.67008, -28.75111], [-49.67088, -28.75038], [-49.67105, -28.74965], [-49.6722, -28.74901], [-49.67249, -28.74828], [-49.67312, -28.74751], [-49.67313, -28.74687], [-49.67276, -28.74683], [-49.67206, -28.74719], [-49.67175, -28.74703], [-49.67173, -28.74681], [-49.67261, -28.7459], [-49.67383, -28.74394], [-49.67507, -28.74322], [-49.67593, -28.74314], [-49.67617, -28.74221], [-49.6757, -28.74157], [-49.67606, -28.74082], [-49.67692, -28.74026], [-49.67798, -28.74014], [-49.67935, -28.74037], [-49.67953, -28.73972], [-49.67999, -28.73929], [-49.68042, -28.73853], [-49.68062, -28.7384], [-49.68124, -28.73844], [-49.68141, -28.73781], [-49.68196, -28.73778], [-49.6821, -28.7375], [-49.6816, -28.73634], [-49.68143, -28.73548], [-49.68026, -28.73501], [-49.68011, -28.73481], [-49.68022, -28.73445], [-49.68011, -28.73425], [-49.67851, -28.73308], [-49.67742, -28.73296], [-49.67653, -28.73263], [-49.67621, -28.73187], [-49.67625, -28.73152], [-49.65899, -28.73116], [-49.65825, -28.72898], [-49.65586, -28.72735], [-49.65385, -28.72514], [-49.65164, -28.72212], [-49.64969, -28.71991], [-49.64917, -28.71867], [-49.64901, -28.71867], [-49.64911, -28.71924], [-49.64854, -28.71991], [-49.64866, -28.72062], [-49.64845, -28.72072], [-49.6481, -28.7204], [-49.64767, -28.7205], [-49.64778, -28.72102], [-49.6475, -28.72144], [-49.64681, -28.7218], [-49.64687, -28.72223], [-49.64661, -28.72257], [-49.6466, -28.72296], [-49.6438, -28.7229], [-49.64403, -28.72209], [-49.63956, -28.7199], [-49.63849, -28.72038], [-49.63719, -28.72191], [-49.63724, -28.72274], [-49.63701, -28.72316], [-49.63627, -28.72329], [-49.63394, -28.72442], [-49.63326, -28.72544], [-49.63361, -28.72602], [-49.63342, -28.72648], [-49.63289, -28.72692], [-49.62466, -28.72922], [-49.62288, -28.72936], [-49.61045, -28.72935], [-49.60446, -28.7257], [-49.60328, -28.72384]]]}}, 
{"type": "Feature", "properties": {"CD_SETOR": "421160310000011", "CD_SIT": "8", "NM_DIST": "São Bento Baixo", "NM_SUBDIST": null}, "geometry": {"type": "Polygon", "coordinates": [[[-49.56019, -28.70771], [-49.56527, -28.70779], [-49.56551, -28.70791], [-49.56581, -28.70859], [-49.56454, -28.70948], [-49.56302, -28.71022], [-49.56303, -28.71057], [-49.56417, -28.71089], [-49.5658, -28.71074], [-49.56597, -28.71093], [-49.56581, -28.71156], [-49.57176, -28.71308], [-49.57283, -28.71295], [-49.57449, -28.71229], [-49.5752, -28.71217], [-49.58103, -28.71315], [-49.58363, -28.71261], [-49.58593, -28.71269], [-49.58779, -28.71316], [-49.58852, -28.71346], [-49.59059, -28.71503], [-49.59251, -28.71785], [-49.59253, -28.71678], [-49.60059, -28.71675], [-49.59965, -28.72021], [-49.60047, -28.7208], [-49.60178, -28.72266], [-49.60321, -28.72369], [-49.60446, -28.7257], [-49.61029, -28.72928], [-49.61079, -28.72939], [-49.62288, -28.72936], [-49.62466, -28.72922], [-49.63289, -28.72692], [-49.63342, -28.72648], [-49.63361, -28.72602], [-49.63326, -28.72544], [-49.63394, -28.72442], [-49.63627, -28.72329], [-49.63701, -28.72316], [-49.63724, -28.72274], [-49.63719, -28.72191], [-49.63849, -28.72038], [-49.63956, -28.7199], [-49.63967, -28.71782], [-49.64, -28.71694], [-49.64162, -28.7144], [-49.642, -28.71279], [-49.65183, -28.71279], [-49.65123, -28.71355], [-49.65068, -28.71495], [-49.64981, -28.71517], [-49.64932, -28.71612], [-49.64908, -28.71739], [-49.64871, -28.71763], [-49.64873, -28.71818], [-49.64901, -28.71867], [-49.64917, -28.71867], [-49.64969, -28.71991], [-49.65164, -28.72212], [-49.65385, -28.72514], [-49.65586, -28.72735], [-49.65825, -28.72898], [-49.65899, -28.73116], [-49.67625, -28.73152], [-49.67619, -28.73123], [-49.6753, -28.73084], [-49.67514, -28.72998], [-49.67449, -28.72958], [-49.67402, -28.72903], [-49.6734, -28.72877], [-49.6735, -28.72795], [-49.6744, -28.72605], [-49.6744, -28.725], [-49.67394, -28.7242], [-49.6733, -28.72376], [-49.67262, -28.72355], [-49.67233, -28.72307], [-49.67297, -28.72142], [-49.67398, -28.72063], [-49.67434, -28.72008], [-49.67422, -28.71983], [-49.67432, -28.71947], [-49.67496, -28.7188], [-49.67489, -28.71792], [-49.67463, -28.71721], [-49.67518, -28.71693], [-49.67444, -28.7166], [-49.67426, -28.71633], [-49.67472, -28.71533], [-49.67478, -28.71464], [-49.67459, -28.71408], [-49.67499, -28.7135], [-49.67474, -28.71192], [-49.67523, -28.71048], [-49.67504, -28.70897], [-49.67484, -28.70861], [-49.67608, -28.70856], [-49.67619, -28.70834], [-49.67611, -28.70773], [-49.6756, -28.70724], [-49.67561, -28.70612], [-49.67456, -28.70553], [-49.67406, -28.70558], [-49.67385, -28.70545], [-49.6748, -28.70482], [-49.67487, -28.7044], [-49.67433, -28.70449], [-49.67395, -28.70379], [-49.67372, -28.70281], [-49.67406, -28.70187], [-49.67393, -28.70092], [-49.67435, -28.70058], [-49.67448, -28.70001], [-49.67527, -28.69829], [-49.67577, -28.69755], [-49.67598, -28.69686], [-49.67659, -28.69643], [-49.67697, -28.69564], [-49.67831, -28.69525], [-49.6793, -28.69438], [-49.68011, -28.69341], [-49.68012, -28.6924], [-49.68057, -28.6925], [-49.68147, -28.69217], [-49.6816, -28.69132], [-49.68215, -28.69122], [-49.68291, -28.69039], [-49.68351, -28.69026], [-49.6837, -28.68955], [-49.68361, -28.689], [-49.6845, -28.68829], [-49.6854, -28.68825], [-49.687, -28.6868], [-49.68763, -28.68653], [-49.68816, -28.68646], [-49.6899, -28.68681], [-49.69063, -28.68639], [-49.69151, -28.68615], [-49.69185, -28.68547], [-49.69251, -28.68531], [-49.69282, -28.68499], [-49.69333, -28.68501], [-49.69401, -28.68445], [-49.6946, -28.68452], [-49.69704, -28.68385], [-49.69831, -28.68264], [-49.69897, -28.68225], [-49.69917, -28.68126], [-49.70045, -28.6792], [-49.70095, -28.67892], [-49.70112, -28.6784], [-49.70226, -28.67794], [-49.70264, -28.67679], [-49.70321, -28.67635], [-49.70342, -28.67573], [-49.70383, -28.67552], [-49.70389, -28.67418], [-49.70459, -28.67383], [-49.70473, -28.67336], [-49.70511, -28.67306], [-49.70507, -28.67281], [-49.70541, -28.67211], [-49.70616, -28.6718], [-49.70645, -28.67111], [-49.70704, -28.67066], [-49.70736, -28.67006], [-49.70883, -28.66934], [-49.70887, -28.66901], [-49.70867, -28.66855], [-49.70906, -28.66843], [-49.70918, -28.66793], [-49.70969, -28.66747], [-49.69991, -28.66798], [-49.69751, -28.66677], [-49.69545, -28.66395], [-49.69526, -28.65793], [-49.69622, -28.65343], [-49.69553, -28.64478], [-49.69571, -28.64321], [-49.69502, -28.64211], [-49.69084, -28.64122], [-49.68877, -28.64034], [-49.68549, -28.64054], [-49.68203, -28.64183], [-49.68057, -28.63831], [-49.68173, -28.6361], [-49.68438, -28.63428], [-49.68619, -28.63177], [-49.68617, -28.62908], [-49.68365, -28.62805], [-49.68049, -28.62807], [-49.67807, -28.62847], [-49.67713, -28.63031], [-49.67739, -28.63487], [-49.67401, -28.63891], [-49.67148, -28.64007], [-49.66885, -28.63924], [-49.66655, -28.63926], [-49.66616, -28.64035], [-49.66727, -28.64164], [-49.6677, -28.64549], [-49.66911, -28.64877], [-49.67519, -28.65205], [-49.67953, -28.653], [-49.685, -28.65381], [-49.68548, -28.65444], [-49.68359, -28.65484], [-49.67913, -28.65466], [-49.6749, -28.654], [-49.67548, -28.65491], [-49.67638, -28.65562], [-49.676, -28.65614], [-49.66768, -28.65583], [-49.66634, -28.65558], [-49.66521, -28.65589], [-49.66463, -28.65508], [-49.66491, -28.6539], [-49.66422, -28.65308], [-49.6632, -28.65284], [-49.66174, -28.65373], [-49.66051, -28.65367], [-49.66003, -28.65323], [-49.66064, -28.65206], [-49.66222, -28.65013], [-49.66337, -28.64819], [-49.66457, -28.64504], [-49.66412, -28.6429], [-49.66258, -28.64123], [-49.66157, -28.64032], [-49.66033, -28.64083], [-49.65954, -28.63982], [-49.66089, -28.63913], [-49.66084, -28.6385], [-49.65909, -28.6373], [-49.65821, -28.63697], [-49.62213, -28.69348], [-49.55459, -28.69407], [-49.55374, -28.69492], [-49.5525, -28.69538], [-49.55231, -28.69562], [-49.5532, -28.6975], [-49.55409, -28.69831], [-49.55435, -28.69874], [-49.5546, -28.69959], [-49.55512, -28.69984], [-49.55642, -28.69996], [-49.55809, -28.70215], [-49.56052, -28.70442], [-49.56019, -28.70771]], [[-49.66009, -28.69757], [-49.66007, -28.69422], [-49.66797, -28.69403], [-49.66816, -28.69884], [-49.66687, -28.69887], [-49.66702, -28.69944], [-49.6601, -28.69947], [-49.66009, -28.69757]]]}}, 
{"type": "Feature", "properties": {"CD_SETOR": "421160310000012", "CD_SIT": "8", "NM_DIST": "São Bento Baixo", "NM_SUBDIST": null}, "geometry": {"type": "Polygon", "coordinates": [[[-49.68538, -28.62094], [-49.66758, -28.62188], [-49.65821, -28.63697], [-49.65909, -28.6373], [-49.66084, -28.6385], [-49.66089, -28.63913], [-49.65954, -28.63982], [-49.66033, -28.64083], [-49.66157, -28.64032], [-49.66258, -28.64123], [-49.66412, -28.6429], [-49.66457, -28.64504], [-49.66337, -28.64819], [-49.66222, -28.65013], [-49.66064, -28.65206], [-49.66003, -28.65323], [-49.66051, -28.65367], [-49.66174, -28.65373], [-49.6632, -28.65284], [-49.66422, -28.65308], [-49.66491, -28.6539], [-49.66463, -28.65508], [-49.66521, -28.65589], [-49.66634, -28.65558], [-49.66768, -28.65583], [-49.676, -28.65614], [-49.67638, -28.65562], [-49.67548, -28.65491], [-49.6749, -28.654], [-49.67913, -28.65466], [-49.68359, -28.65484], [-49.68548, -28.65444], [-49.685, -28.65381], [-49.67953, -28.653], [-49.67519, -28.65205], [-49.66911, -28.64877], [-49.6677, -28.64549], [-49.66727, -28.64164], [-49.66616, -28.64035], [-49.66655, -28.63926], [-49.66885, -28.63924], [-49.67148, -28.64007], [-49.67401, -28.63891], [-49.67739, -28.63487], [-49.67713, -28.63031], [-49.67807, -28.62847], [-49.68049, -28.62807], [-49.68365, -28.62805], [-49.68617, -28.62908], [-49.68619, -28.63177], [-49.68438, -28.63428], [-49.68173, -28.6361], [-49.68057, -28.63831], [-49.68203, -28.64183], [-49.68549, -28.64054], [-49.68877, -28.64034], [-49.69084, -28.64122], [-49.69502, -28.64211], [-49.69571, -28.64321], [-49.69553, -28.64478], [-49.69622, -28.65343], [-49.69526, -28.65793], [-49.69545, -28.66395], [-49.69751, -28.66677], [-49.69991, -28.66798], [-49.70969, -28.66747], [-49.71003, -28.66729], [-49.71012, -28.66685], [-49.71096, -28.6663], [-49.71104, -28.66599], [-49.71192, -28.66557], [-49.71233, -28.66449], [-49.71201, -28.66359], [-49.71206, -28.66326], [-49.71165, -28.66232], [-49.71179, -28.66098], [-49.71156, -28.65921], [-49.71174, -28.65785], [-49.70947, -28.6534], [-49.70943, -28.65158], [-49.70762, -28.64847], [-49.70785, -28.64803], [-49.70774, -28.64689], [-49.70801, -28.64497], [-49.70866, -28.64361], [-49.70904, -28.64238], [-49.7096, -28.64184], [-49.70998, -28.64121], [-49.71014, -28.64025], [-49.70913, -28.63918], [-49.7085, -28.63783], [-49.70792, -28.63723], [-49.70617, -28.63647], [-49.70582, -28.63588], [-49.70534, -28.63582], [-49.70502, -28.63559], [-49.70489, -28.63528], [-49.70493, -28.6343], [-49.70462, -28.63358], [-49.70455, -28.63291], [-49.70457, -28.63267], [-49.70495, -28.63226], [-49.70496, -28.63196], [-49.70414, -28.63003], [-49.7034, -28.62961], [-49.70311, -28.62922], [-49.70313, -28.62892], [-49.70278, -28.629], [-49.7047, -28.63163], [-49.70324, -28.63081], [-49.70336, -28.63004], [-49.70226, -28.63027], [-49.70139, -28.62901], [-49.70068, -28.62846], [-49.69936, -28.62822], [-49.69861, -28.62831], [-49.69793, -28.62793], [-49.69707, -28.62776], [-49.69656, -28.62741], [-49.69564, -28.62722], [-49.69452, -28.6263], [-49.69387, -28.62649], [-49.69267, -28.62645], [-49.69212, -28.62682], [-49.69122, -28.6261], [-49.69116, -28.62569], [-49.69089, -28.62541], [-49.69088, -28.62481], [-49.69006, -28.62404], [-49.68995, -28.62375], [-49.68756, -28.62364], [-49.68687, -28.62385], [-49.68651, -28.62363], [-49.68533, -28.62342], [-49.68522, -28.6229], [-49.68474, -28.62238], [-49.68417, -28.62209], [-49.68553, -28.62186], [-49.68541, -28.62146], [-49.6858, -28.62096], [-49.68538, -28.62094]]]}}, 
{"type": "Feature", "properties": {"CD_SETOR": "421160310000013", "CD_SIT": "1", "NM_DIST": "São Bento Baixo", "NM_SUBDIST": null}, "geometry": {"type": "Polygon", "coordinates": [[[-49.49898, -28.70725], [-49.49895, -28.70815], [-49.50503, -28.70914], [-49.50523, -28.70723], [-49.50956, -28.70733], [-49.50943, -28.70706], [-49.50881, -28.70667], [-49.50875, -28.70637], [-49.50994, -28.70579], [-49.49909, -28.70541], [-49.49898, -28.70725]]]}}, 
{"type": "Feature", "properties": {"CD_SETOR": "421160310000014", "CD_SIT": "1", "NM_DIST": "São Bento Baixo", "NM_SUBDIST": null}, "geometry": {"type": "Polygon", "coordinates": [[[-49.49881, -28.71002], [-49.4987, -28.71195], [-49.50967, -28.71269], [-49.5097, -28.71215], [-49.51381, -28.71233], [-49.51462, -28.71205], [-49.51478, -28.71138], [-49.51459, -28.7105], [-49.51333, -28.70947], [-49.51155, -28.70948], [-49.5111, -28.70912], [-49.51106, -28.71063], [-49.50858, -28.71056], [-49.50858, -28.71044], [-49.5056, -28.7103], [-49.50571, -28.70921], [-49.49895, -28.70815], [-49.49881, -28.71002]]]}}, 
{"type": "Feature", "properties": {"CD_SETOR": "421160310000018", "CD_SIT": "2", "NM_DIST": "São Bento Baixo", "NM_SUBDIST": null}, "geometry": {"type": "Polygon", "coordinates": [[[-49.5111, -28.70912], [-49.51155, -28.70948], [-49.51331, -28.70946], [-49.51451, -28.71041], [-49.51477, -28.71122], [-49.51467, -28.71198], [-49.51381, -28.71233], [-49.52371, -28.71277], [-49.52389, -28.70922], [-49.51898, -28.70998], [-49.5145, -28.70918], [-49.51149, -28.70901], [-49.5111, -28.70912]]]}}, 
{"type": "Feature", "properties": {"CD_SETOR": "421160310000020", "CD_SIT": "8", "NM_DIST": "São Bento Baixo", "NM_SUBDIST": null}, "geometry": {"type": "Polygon", "coordinates": [[[-49.51587, -28.68055], [-49.51506, -28.68089], [-49.51518, -28.68178], [-49.51484, -28.68226], [-49.5145, -28.68245], [-49.51412, -28.68256], [-49.51242, -28.68248], [-49.51004, -28.68359], [-49.50881, -28.68363], [-49.50753, -28.68417], [-49.5071, -28.68457], [-49.50692, -28.68503], [-49.50695, -28.68644], [-49.48868, -28.69185], [-49.48068, -28.69469], [-49.47968, -28.69613], [-49.47787, -28.69692], [-49.47761, -28.69716], [-49.47732, -28.69815], [-49.47686, -28.6989], [-49.47653, -28.70013], [-49.47656, -28.701], [-49.47717, -28.70175], [-49.47724, -28.70225], [-49.47482, -28.70575], [-49.47508, -28.70589], [-49.47542, -28.7067], [-49.47678, -28.70716], [-49.48114, -28.70777], [-49.48165, -28.70745], [-49.48301, -28.70715], [-49.4862, -28.70739], [-49.48623, -28.70652], [-49.487, -28.70657], [-49.48847, -28.70675], [-49.49116, -28.70776], [-49.49195, -28.70785], [-49.49435, -28.70716], [-49.49599, -28.70739], [-49.49898, -28.70725], [-49.49909, -28.70541], [-49.51177, -28.70578], [-49.51264, -28.70603], [-49.51264, -28.70641], [-49.5124, -28.70699], [-49.51152, -28.70781], [-49.51108, -28.70856], [-49.5111, -28.70912], [-49.51149, -28.70901], [-49.5145, -28.70918], [-49.51875, -28.70997], [-49.51995, -28.70993], [-49.522, -28.70945], [-49.52389, -28.70922], [-49.532, -28.70966], [-49.53484, -28.70943], [-49.53805, -28.70982], [-49.55768, -28.71062], [-49.5577, -28.70777], [-49.56019, -28.70771], [-49.56052, -28.70442], [-49.55809, -28.70215], [-49.55642, -28.69996], [-49.55512, -28.69984], [-49.5546, -28.69959], [-49.55435, -28.69874], [-49.55409, -28.69831], [-49.5532, -28.6975], [-49.55231, -28.69562], [-49.5525, -28.69538], [-49.55374, -28.69492], [-49.55459, -28.69407], [-49.55294, -28.69112], [-49.55274, -28.69021], [-49.5528, -28.68956], [-49.55262, -28.68916], [-49.55297, -28.68876], [-49.55405, -28.6886], [-49.55454, -28.68823], [-49.55396, -28.68599], [-49.55326, -28.68521], [-49.55347, -28.68474], [-49.55394, -28.68432], [-49.55428, -28.68349], [-49.55402, -28.68326], [-49.53949, -28.68311], [-49.53865, -28.68345], [-49.53708, -28.68356], [-49.53569, -28.68337], [-49.53304, -28.68242], [-49.53041, -28.68183], [-49.52742, -28.68196], [-49.52622, -28.68269], [-49.52252, -28.68267], [-49.52301, -28.68231], [-49.52294, -28.68146], [-49.52315, -28.68096], [-49.52468, -28.67918], [-49.52527, -28.67772], [-49.52575, -28.67699], [-49.52623, -28.67685], [-49.52695, -28.6769], [-49.52764, -28.67736], [-49.52839, -28.67716], [-49.52891, -28.67683], [-49.52898, -28.67607], [-49.52857, -28.67506], [-49.52758, -28.67508], [-49.5269, -28.67527], [-49.52502, -28.67688], [-49.52336, -28.67792], [-49.52285, -28.67855], [-49.52214, -28.67901], [-49.51946, -28.67988], [-49.51812, -28.67997], [-49.51676, -28.68072], [-49.51587, -28.68055]]]}}, 
{"type": "Feature", "properties": {"CD_SETOR": "421160310000021", "CD_SIT": "8", "NM_DIST": "São Bento Baixo", "NM_SUBDIST": null}, "geometry": {"type": "Polygon", "coordinates": [[[-49.56522, -28.71245], [-49.55787, -28.71243], [-49.55784, -28.71063], [-49.53805, -28.70982], [-49.53484, -28.70943], [-49.532, -28.70966], [-49.52389, -28.70922], [-49.52371, -28.71277], [-49.5097, -28.71215], [-49.50967, -28.71269], [-49.4987, -28.71195], [-49.49881, -28.71002], [-49.49449, -28.70982], [-49.49436, -28.71208], [-49.48796, -28.71181], [-49.48808, -28.70947], [-49.47375, -28.70885], [-49.47408, -28.70954], [-49.47504, -28.71], [-49.47524, -28.71003], [-49.47627, -28.70945], [-49.47699, -28.70932], [-49.47721, -28.70944], [-49.47741, -28.71011], [-49.47747, -28.71134], [-49.4773, -28.71198], [-49.47605, -28.71336], [-49.47687, -28.7145], [-49.47702, -28.71553], [-49.47683, -28.71623], [-49.47546, -28.71902], [-49.47536, -28.7196], [-49.47552, -28.72288], [-49.47578, -28.72339], [-49.47614, -28.72362], [-49.47691, -28.72358], [-49.47764, -28.72308], [-49.47763, -28.72102], [-49.47864, -28.7196], [-49.47987, -28.71921], [-49.48069, -28.71861], [-49.48159, -28.71838], [-49.48222, -28.71855], [-49.48236, -28.71967], [-49.4827, -28.71995], [-49.48479, -28.71983], [-49.48809, -28.71919], [-49.48874, -28.71925], [-49.48883, -28.71943], [-49.48845, -28.72032], [-49.48793, -28.72099], [-49.51284, -28.72091], [-49.51239, -28.72905], [-49.51542, -28.7291], [-49.51555, -28.73852], [-49.52668, -28.75105], [-49.55681, -28.75114], [-49.55681, -28.7504], [-49.57092, -28.75019], [-49.57179, -28.74896], [-49.57197, -28.74796], [-49.57262, -28.74667], [-49.5731, -28.74503], [-49.57357, -28.74471], [-49.57455, -28.74458], [-49.57495, -28.74416], [-49.57507, -28.74283], [-49.57556, -28.74133], [-49.57529, -28.7402], [-49.57628, -28.73985], [-49.57719, -28.73801], [-49.57715, -28.73759], [-49.5767, -28.73693], [-49.57719, -28.73604], [-49.57687, -28.73539], [-49.57627, -28.73475], [-49.57627, -28.73413], [-49.57646, -28.73398], [-49.57769, -28.73395], [-49.5783, -28.73376], [-49.57866, -28.73335], [-49.57911, -28.73202], [-49.57938, -28.73164], [-49.57948, -28.7312], [-49.57933, -28.73043], [-49.57871, -28.72952], [-49.5787, -28.72927], [-49.58021, -28.72724], [-49.58028, -28.72669], [-49.58001, -28.72584], [-49.58024, -28.72505], [-49.58109, -28.72433], [-49.58169, -28.72451], [-49.58193, -28.72433], [-49.58206, -28.72335], [-49.58144, -28.72248], [-49.58143, -28.72199], [-49.58157, -28.72173], [-49.58242, -28.72124], [-49.58271, -28.72074], [-49.58259, -28.72022], [-49.58164, -28.71936], [-49.58187, -28.71856], [-49.58183, -28.71811], [-49.58215, -28.71771], [-49.58359, -28.71679], [-49.5836, -28.71575], [-49.58416, -28.71511], [-49.58424, -28.71466], [-49.58356, -28.71428], [-49.58282, -28.71432], [-49.5824, -28.71411], [-49.58219, -28.71443], [-49.58248, -28.71468], [-49.58237, -28.71488], [-49.58097, -28.7147], [-49.57945, -28.71527], [-49.57801, -28.71531], [-49.57638, -28.71635], [-49.57587, -28.71637], [-49.57547, -28.71671], [-49.57479, -28.71669], [-49.57438, -28.71643], [-49.5743, -28.7159], [-49.57471, -28.71464], [-49.57515, -28.7141], [-49.57566, -28.7139], [-49.57555, -28.71357], [-49.57077, -28.71372], [-49.56916, -28.71338], [-49.56852, -28.71365], [-49.56799, -28.71366], [-49.56768, -28.71341], [-49.56759, -28.71283], [-49.56563, -28.71292], [-49.56527, -28.71275], [-49.56522, -28.71245]]]}}]}