{"type": "FeatureCollection", "features": [
{"type": "Feature", "properties": {"CD_SETOR": "430543905000001", "CD_SIT": "1", "NM_DIST": "Chuí", "NM_SUBDIST": null}, "geometry": {"type": "Polygon", "coordinates": [[[-53.4472, -33.68957], [-53.44731, -33.69306], [-53.4523, -33.69281], [-53.452, -33.68937], [-53.4472, -33.68957]]]}}, 
{"type": "Feature", "properties": {"CD_SETOR": "430543905000002", "CD_SIT": "1", "NM_DIST": "Chuí", "NM_SUBDIST": null}, "geometry": {"type": "Polygon", "coordinates": [[[-53.452, -33.68937], [-53.4523, -33.69281], [-53.4554, -33.69265], [-53.45511, -33.69012], [-53.45444, -33.68956], [-53.45391, -33.68932], [-53.452, -33.68937]]]}}, 
{"type": "Feature", "properties": {"CD_SETOR": "430543905000003", "CD_SIT": "1", "NM_DIST": "Chuí", "NM_SUBDIST": null}, "geometry": {"type": "Polygon", "coordinates": [[[-53.45871, -33.69029], [-53.45518, -33.69044], [-53.4553, -33.69257], [-53.46213, -33.69231], [-53.46208, -33.69012], [-53.45871, -33.69029]]]}}, 
{"type": "Feature", "properties": {"CD_SETOR": "430543905000004", "CD_SIT": "1", "NM_DIST": "Chuí", "NM_SUBDIST": null}, "geometry": {"type": "Polygon", "coordinates": [[[-53.46329, -33.68515], [-53.46317, -33.68516], [-53.46306, -33.68703], [-53.46317, -33.69009], [-53.46208, -33.69012], [-53.46213, -33.69231], [-53.46866, -33.69198], [-53.46876, -33.68592], [-53.46777, -33.68589], [-53.46556, -33.68509], [-53.46329, -33.68515]]]}}, 
{"type": "Feature", "properties": {"CD_SETOR": "430543905000005", "CD_SIT": "1", "NM_DIST": "Chuí", "NM_SUBDIST": null}, "geometry": {"type": "Polygon", "coordinates": [[[-53.4687, -33.68868], [-53.46866, -33.69198], [-53.47597, -33.69164], [-53.47574, -33.68835], [-53.4687, -33.68868]]]}}, 
{"type": "Feature", "properties": {"CD_SETOR": "430543905000006", "CD_SIT": "1", "NM_DIST": "Chuí", "NM_SUBDIST": null}, "geometry": {"type": "Polygon", "coordinates": [[[-53.46875, -33.6861], [-53.4687, -33.68868], [-53.47574, -33.68835], [-53.47556, -33.68595], [-53.4753, -33.68577], [-53.46875, -33.6861]]]}}, 
{"type": "Feature", "properties": {"CD_SETOR": "430543905000007", "CD_SIT": "2", "NM_DIST": "Chuí", "NM_SUBDIST": null}, "geometry": {"type": "Polygon", "coordinates": [[[-53.44197, -33.67027], [-53.45126, -33.6838], [-53.45647, -33.68352], [-53.45905, -33.68484], [-53.45966, -33.67705], [-53.46373, -33.6772], [-53.46329, -33.68515], [-53.46599, -33.68515], [-53.46777, -33.68589], [-53.46876, -33.68592], [-53.46875, -33.6861], [-53.4753, -33.68577], [-53.47556, -33.68595], [-53.47597, -33.69164], [-53.4835, -33.69127], [-53.48296, -33.68048], [-53.47039, -33.68047], [-53.46136, -33.66784], [-53.44338, -33.67075], [-53.44298, -33.66983], [-53.44197, -33.67027]]]}}, 
{"type": "Feature", "properties": {"CD_SETOR": "430543905000008", "CD_SIT": "2", "NM_DIST": "Chuí", "NM_SUBDIST": null}, "geometry": {"type": "Polygon", "coordinates": [[[-53.44184, -33.67041], [-53.43364, -33.67394], [-53.43398, -33.6742], [-53.43405, -33.67476], [-53.43478, -33.67512], [-53.435, -33.67569], [-53.43456, -33.67626], [-53.43551, -33.67639], [-53.43633, -33.67698], [-53.43757, -33.67861], [-53.43815, -33.67882], [-53.43868, -33.67925], [-53.4387, -33.67972], [-53.43851, -33.68005], [-53.43869, -33.68119], [-53.43915, -33.68189], [-53.43896, -33.68278], [-53.43871, -33.68301], [-53.43961, -33.68415], [-53.43982, -33.68582], [-53.4396, -33.68704], [-53.4401, -33.68777], [-53.43989, -33.68809], [-53.44006, -33.68896], [-53.43957, -33.68971], [-53.44052, -33.68976], [-53.44111, -33.68867], [-53.44305, -33.68637], [-53.44441, -33.68425], [-53.44558, -33.68164], [-53.44646, -33.67752], [-53.4467, -33.67713], [-53.44197, -33.67027], [-53.44184, -33.67041]]]}}, 
{"type": "Feature", "properties": {"CD_SETOR": "430543905000009", "CD_SIT": "2", "NM_DIST": "Chuí", "NM_SUBDIST": null}, "geometry": {"type": "Polygon", "coordinates": [[[-53.44052, -33.68976], [-53.43957, -33.68971], [-53.43949, -33.69012], [-53.43919, -33.69025], [-53.4388, -33.69084], [-53.43937, -33.69175], [-53.43924, -33.69243], [-53.43939, -33.693], [-53.44007, -33.69343], [-53.44731, -33.69306], [-53.4472, -33.68957], [-53.44052, -33.68976]]]}}, 
{"type": "Feature", "properties": {"CD_SETOR": "430543905000010", "CD_SIT": "1", "NM_DIST": "Chuí", "NM_SUBDIST": null}, "geometry": {"type": "Polygon", "coordinates": [[[-53.44052, -33.68976], [-53.4472, -33.68957], [-53.44749, -33.68817], [-53.44878, -33.68452], [-53.449, -33.68246], [-53.44864, -33.6807], [-53.44797, -33.67902], [-53.4467, -33.67713], [-53.44646, -33.67752], [-53.44576, -33.68104], [-53.44484, -33.68341], [-53.44329, -33.68605], [-53.44123, -33.6885], [-53.44052, -33.68976]]]}}, 
{"type": "Feature", "properties": {"CD_SETOR": "430543905000011", "CD_SIT": "1", "NM_DIST": "Chuí", "NM_SUBDIST": null}, "geometry": {"type": "Polygon", "coordinates": [[[-53.4472, -33.68957], [-53.45391, -33.68932], [-53.45444, -33.68956], [-53.45511, -33.69012], [-53.45502, -33.68949], [-53.45441, -33.68833], [-53.44797, -33.67902], [-53.44878, -33.68128], [-53.449, -33.68246], [-53.44899, -33.68352], [-53.44849, -33.68549], [-53.44734, -33.68866], [-53.4472, -33.68957]]]}}, 
{"type": "Feature", "properties": {"CD_SETOR": "430543905000012", "CD_SIT": "1", "NM_DIST": "Chuí", "NM_SUBDIST": null}, "geometry": {"type": "Polygon", "coordinates": [[[-53.45126, -33.6838], [-53.45462, -33.68866], [-53.45502, -33.68949], [-53.45518, -33.69044], [-53.45871, -33.69029], [-53.45905, -33.68484], [-53.45647, -33.68352], [-53.45126, -33.6838]]]}}, 
{"type": "Feature", "properties": {"CD_SETOR": "430543905000013", "CD_SIT": "8", "NM_DIST": "Chuí", "NM_SUBDIST": null}, "geometry": {"type": "Polygon", "coordinates": [[[-53.38009, -33.57623], [-53.37801, -33.57691], [-53.3807, -33.58327], [-53.40239, -33.611], [-53.41557, -33.63107], [-53.44184, -33.67041], [-53.44298, -33.66983], [-53.44338, -33.67075], [-53.46136, -33.66784], [-53.47039, -33.68047], [-53.48296, -33.68048], [-53.4835, -33.69127], [-53.52278, -33.68926], [-53.52181, -33.68447], [-53.51915, -33.68025], [-53.51617, -33.67617], [-53.5114, -33.66835], [-53.50957, -33.65992], [-53.50655, -33.65315], [-53.50472, -33.64963], [-53.4982, -33.64201], [-53.49261, -33.63637], [-53.48361, -33.62966], [-53.48218, -33.62852], [-53.48115, -33.62734], [-53.4802, -33.62588], [-53.47934, -33.62335], [-53.47801, -33.61653], [-53.47777, -33.61594], [-53.47459, -33.61292], [-53.4673, -33.60927], [-53.46561, -33.60683], [-53.4611, -33.60118], [-53.45409, -33.59459], [-53.45287, -33.59364], [-53.45124, -33.59206], [-53.4377, -33.58239], [-53.43399, -33.57934], [-53.43134, -33.57707], [-53.41867, -33.56437], [-53.41416, -33.56064], [-53.40142, -33.56599], [-53.40373, -33.57111], [-53.38744, -33.57819], [-53.38509, -33.57444], [-53.38009, -33.57623]]]}}, 
{"type": "Feature", "properties": {"CD_SETOR": "430543905000014", "CD_SIT": "8", "NM_DIST": "Chuí", "NM_SUBDIST": null}, "geometry": {"type": "Polygon", "coordinates": [[[-53.38076, -33.58713], [-53.36876, -33.59461], [-53.36741, -33.59963], [-53.3666, -33.60052], [-53.36596, -33.60174], [-53.3658, -33.60249], [-53.35574, -33.61024], [-53.35836, -33.61599], [-53.34355, -33.62748], [-53.33328, -33.63522], [-53.34091, -33.64423], [-53.34363, -33.64839], [-53.34888, -33.65334], [-53.35267, -33.65662], [-53.3546, -33.65861], [-53.35773, -33.65973], [-53.35956, -33.66066], [-53.36123, -33.6618], [-53.36503, -33.66292], [-53.36902, -33.66667], [-53.37846, -33.67269], [-53.3806, -33.67432], [-53.3823, -33.67519], [-53.38467, -33.67362], [-53.39101, -33.66829], [-53.39556, -33.67076], [-53.40267, -33.6759], [-53.40796, -33.68049], [-53.41028, -33.6847], [-53.41958, -33.68958], [-53.42206, -33.69074], [-53.42728, -33.69175], [-53.42769, -33.69269], [-53.43003, -33.69473], [-53.43556, -33.69047], [-53.43717, -33.68955], [-53.43865, -33.68962], [-53.43911, -33.69038], [-53.43949, -33.69012], [-53.43952, -33.6898], [-53.44006, -33.68896], [-53.43989, -33.68809], [-53.4401, -33.68777], [-53.4396, -33.68704], [-53.43982, -33.68582], [-53.43961, -33.68415], [-53.43871, -33.68301], [-53.43896, -33.68278], [-53.43915, -33.68189], [-53.43869, -33.68119], [-53.43851, -33.68005], [-53.4387, -33.67972], [-53.43868, -33.67925], [-53.43815, -33.67882], [-53.43757, -33.67861], [-53.43633, -33.67698], [-53.43551, -33.67639], [-53.43456, -33.67626], [-53.435, -33.67569], [-53.43478, -33.67512], [-53.43405, -33.67476], [-53.43398, -33.6742], [-53.43364, -33.67394], [-53.44184, -33.67041], [-53.41557, -33.63107], [-53.40239, -33.611], [-53.38275, -33.586], [-53.38076, -33.58713]]]}}, 
{"type": "Feature", "properties": {"CD_SETOR": "430543905000015", "CD_SIT": "8", "NM_DIST": "Chuí", "NM_SUBDIST": null}, "geometry": {"type": "Polygon", "coordinates": [[[-53.30045, -33.66178], [-53.42198, -33.74379], [-53.42348, -33.74304], [-53.42416, -33.74235], [-53.42569, -33.74047], [-53.42589, -33.73962], [-53.42642, -33.73917], [-53.42832, -33.73905], [-53.43042, -33.73959], [-53.43105, -33.73935], [-53.43112, -33.73821], [-53.43198, -33.73611], [-53.43208, -33.73524], [-53.43172, -33.73468], [-53.43113, -33.73417], [-53.43183, -33.73269], [-53.43163, -33.73218], [-53.43102, -33.73145], [-53.43091, -33.73086], [-53.43175, -33.72934], [-53.43196, -33.72789], [-53.43336, -33.72679], [-53.43436, -33.72563], [-53.4357, -33.72485], [-53.43597, -33.72445], [-53.43575, -33.72396], [-53.43431, -33.72303], [-53.43398, -33.72256], [-53.43357, -33.72105], [-53.43352, -33.71992], [-53.43374, -33.71946], [-53.43512, -33.71784], [-53.43522, -33.71674], [-53.43507, -33.71529], [-53.43537, -33.71488], [-53.43603, -33.7144], [-53.43841, -33.71313], [-53.43869, -33.71245], [-53.43874, -33.71193], [-53.43822, -33.71027], [-53.4383, -33.70907], [-53.43704, -33.70754], [-53.43693, -33.70647], [-53.43702, -33.70585], [-53.43722, -33.70564], [-53.43833, -33.70521], [-53.43868, -33.7049], [-53.43869, -33.70425], [-53.43745, -33.70252], [-53.43671, -33.70187], [-53.43645, -33.70135], [-53.4367, -33.70077], [-53.43815, -33.70019], [-53.4378, -33.69959], [-53.43791, -33.69928], [-53.43909, -33.69882], [-53.4395, -33.69819], [-53.43987, -33.69807], [-53.44037, -33.69832], [-53.4406, -33.69966], [-53.44083, -33.69988], [-53.44124, -33.69993], [-53.44201, -33.69972], [-53.44227, -33.69947], [-53.4424, -33.69878], [-53.44212, -33.69773], [-53.44255, -33.69743], [-53.44291, -33.69743], [-53.44312, -33.69712], [-53.44277, -33.69667], [-53.4421, -33.69694], [-53.44181, -33.69685], [-53.44181, -33.69652], [-53.44224, -33.69604], [-53.44223, -33.69582], [-53.44098, -33.6948], [-53.44035, -33.69382], [-53.43977, -33.69388], [-53.4394, -33.69361], [-53.43952, -33.69346], [-53.44007, -33.69343], [-53.43939, -33.693], [-53.43927, -33.69269], [-53.43937, -33.69175], [-53.4388, -33.69084], [-53.43911, -33.69038], [-53.43865, -33.68962], [-53.43717, -33.68955], [-53.43556, -33.69047], [-53.43003, -33.69473], [-53.42769, -33.69269], [-53.42728, -33.69175], [-53.42206, -33.69074], [-53.41958, -33.68958], [-53.41028, -33.6847], [-53.40796, -33.68049], [-53.40267, -33.6759], [-53.39556, -33.67076], [-53.39101, -33.66829], [-53.38467, -33.67362], [-53.3823, -33.67519], [-53.3806, -33.67432], [-53.37846, -33.67269], [-53.36902, -33.66667], [-53.36503, -33.66292], [-53.36123, -33.6618], [-53.35956, -33.66066], [-53.35773, -33.65973], [-53.3546, -33.65861], [-53.35267, -33.65662], [-53.34888, -33.65334], [-53.34363, -33.64839], [-53.34091, -33.64423], [-53.33328, -33.63522], [-53.33404, -33.63614], [-53.30045, -33.66178]]]}}, 
{"type": "Feature", "properties": {"CD_SETOR": "430543905010001", "CD_SIT": "1", "NM_DIST": "Chuí", "NM_SUBDIST": "Área de Planejamento 01"}, "geometry": {"type": "Polygon", "coordinates": [[[-53.46221, -33.68517], [-53.46208, -33.69012], [-53.46317, -33.69009], [-53.46304, -33.6882], [-53.46317, -33.68516], [-53.46221, -33.68517]]]}}, 
{"type": "Feature", "properties": {"CD_SETOR": "430543905010002", "CD_SIT": "1", "NM_DIST": "Chuí", "NM_SUBDIST": "Área de Planejamento 01"}, "geometry": {"type": "Polygon", "coordinates": [[[-53.45871, -33.69029], [-53.46208, -33.69012], [-53.46221, -33.68517], [-53.46025, -33.68514], [-53.45905, -33.68484], [-53.45871, -33.69029]]]}}, 
{"type": "Feature", "properties": {"CD_SETOR": "430543905010003", "CD_SIT": "1", "NM_DIST": "Chuí", "NM_SUBDIST": "Área de Planejamento 01"}, "geometry": {"type": "Polygon", "coordinates": [[[-53.45905, -33.68484], [-53.46025, -33.68514], [-53.46329, -33.68515], [-53.46373, -33.6772], [-53.45966, -33.67705], [-53.45905, -33.68484]]]}}]}