{"type": "FeatureCollection", "features": [
{"type": "Feature", "properties": {"CD_SETOR": "430540505000001", "CD_SIT": "1", "NM_DIST": "Chiapetta", "NM_SUBDIST": null}, "geometry": {"type": "Polygon", "coordinates": [[[-53.94213, -27.92143], [-53.94343, -27.9214], [-53.94856, -27.91817], [-53.94953, -27.91949], [-53.95058, -27.91906], [-53.94776, -27.91524], [-53.94687, -27.91586], [-53.94618, -27.91493], [-53.94236, -27.91344], [-53.94201, -27.91461], [-53.94213, -27.92143]]]}}, 
{"type": "Feature", "properties": {"CD_SETOR": "430540505000002", "CD_SIT": "1", "NM_DIST": "Chiapetta", "NM_SUBDIST": null}, "geometry": {"type": "Polygon", "coordinates": [[[-53.93077, -27.91725], [-53.93406, -27.92121], [-53.92965, -27.92232], [-53.93007, -27.92345], [-53.93753, -27.92266], [-53.94213, -27.92255], [-53.94201, -27.91461], [-53.94236, -27.91344], [-53.94118, -27.91312], [-53.94054, -27.91342], [-53.94035, -27.91313], [-53.93377, -27.91735], [-53.93224, -27.91582], [-53.93077, -27.91725]]]}}, 
{"type": "Feature", "properties": {"CD_SETOR": "430540505000003", "CD_SIT": "1", "NM_DIST": "Chiapetta", "NM_SUBDIST": null}, "geometry": {"type": "Polygon", "coordinates": [[[-53.93366, -27.92309], [-53.93372, -27.92743], [-53.93419, -27.92838], [-53.93287, -27.92895], [-53.93323, -27.92977], [-53.93694, -27.92821], [-53.93666, -27.9277], [-53.93596, -27.92741], [-53.9354, -27.92669], [-53.93531, -27.92605], [-53.93579, -27.92536], [-53.93905, -27.92531], [-53.93896, -27.92683], [-53.94214, -27.92678], [-53.94213, -27.92255], [-53.93903, -27.92255], [-53.93366, -27.92309]]]}}, 
{"type": "Feature", "properties": {"CD_SETOR": "430540505000004", "CD_SIT": "1", "NM_DIST": "Chiapetta", "NM_SUBDIST": null}, "geometry": {"type": "Polygon", "coordinates": [[[-53.94213, -27.92143], [-53.94214, -27.92678], [-53.94589, -27.92811], [-53.94581, -27.9273], [-53.94607, -27.92576], [-53.94578, -27.92435], [-53.94969, -27.92295], [-53.94964, -27.92237], [-53.95017, -27.92073], [-53.94953, -27.91949], [-53.94856, -27.91817], [-53.94343, -27.9214], [-53.94213, -27.92143]]]}}, 
{"type": "Feature", "properties": {"CD_SETOR": "430540505000005", "CD_SIT": "8", "NM_DIST": "Chiapetta", "NM_SUBDIST": null}, "geometry": {"type": "Polygon", "coordinates": [[[-53.89777, -27.89528], [-53.89729, -27.89598], [-53.89734, -27.89666], [-53.89755, -27.89677], [-53.89821, -27.89587], [-53.89855, -27.89602], [-53.89915, -27.89722], [-53.89922, -27.89793], [-53.89905, -27.89842], [-53.89841, -27.89893], [-53.89799, -27.89884], [-53.89615, -27.89752], [-53.89538, -27.89737], [-53.89501, -27.89765], [-53.89431, -27.89883], [-53.89254, -27.89973], [-53.89153, -27.89998], [-53.8919, -27.90129], [-53.89186, -27.90209], [-53.89095, -27.90431], [-53.88998, -27.9051], [-53.88963, -27.90613], [-53.88965, -27.90721], [-53.88943, -27.9077], [-53.88871, -27.90817], [-53.88789, -27.90762], [-53.88752, -27.90786], [-53.88744, -27.90814], [-53.88782, -27.90965], [-53.88765, -27.9101], [-53.88731, -27.91028], [-53.88763, -27.91098], [-53.8873, -27.91129], [-53.88746, -27.9118], [-53.8872, -27.91246], [-53.8874, -27.91342], [-53.88704, -27.91461], [-53.88739, -27.9159], [-53.88727, -27.91628], [-53.88333, -27.91777], [-53.8817, -27.91818], [-53.87985, -27.91843], [-53.87808, -27.91842], [-53.87726, -27.919], [-53.87707, -27.91992], [-53.87546, -27.92004], [-53.87531, -27.92023], [-53.87532, -27.92071], [-53.87513, -27.92084], [-53.87446, -27.92073], [-53.87369, -27.92097], [-53.87277, -27.92062], [-53.87157, -27.92055], [-53.87139, -27.92078], [-53.87159, -27.92167], [-53.87131, -27.92168], [-53.87116, -27.92193], [-53.87128, -27.9223], [-53.87069, -27.92208], [-53.87079, -27.92269], [-53.87065, -27.92288], [-53.87007, -27.92295], [-53.86916, -27.92366], [-53.86866, -27.92452], [-53.86685, -27.92487], [-53.86649, -27.92503], [-53.86615, -27.92547], [-53.8648, -27.92535], [-53.86433, -27.92559], [-53.86409, -27.92591], [-53.86407, -27.92744], [-53.86363, -27.92815], [-53.86244, -27.92813], [-53.86177, -27.92839], [-53.86188, -27.92942], [-53.86167, -27.92984], [-53.86127, -27.93011], [-53.86134, -27.93028], [-53.86791, -27.93543], [-53.87009, -27.93688], [-53.87368, -27.94445], [-53.8761, -27.94671], [-53.87421, -27.95177], [-53.87069, -27.95153], [-53.87003, -27.95163], [-53.86906, -27.95226], [-53.86652, -27.95464], [-53.86524, -27.9551], [-53.8649, -27.95551], [-53.86476, -27.95716], [-53.86365, -27.95978], [-53.8643, -27.96065], [-53.86952, -27.96385], [-53.87368, -27.96722], [-53.87838, -27.96827], [-53.88632, -27.97164], [-53.88792, -27.97284], [-53.89063, -27.9735], [-53.89549, -27.97545], [-53.89762, -27.97697], [-53.89921, -27.9777], [-53.90031, -27.97712], [-53.90183, -27.97745], [-53.90369, -27.97832], [-53.90379, -27.97966], [-53.90504, -27.97959], [-53.90626, -27.98051], [-53.90791, -27.98062], [-53.90945, -27.98172], [-53.91134, -27.98163], [-53.9132, -27.98287], [-53.91388, -27.98433], [-53.9149, -27.98459], [-53.91549, -27.98283], [-53.91643, -27.98208], [-53.91814, -27.98228], [-53.91948, -27.98168], [-53.92157, -27.98126], [-53.9246, -27.97983], [-53.92489, -27.9801], [-53.92493, -27.98054], [-53.92275, -27.98207], [-53.92224, -27.98282], [-53.92237, -27.98346], [-53.92294, -27.98332], [-53.92325, -27.9828], [-53.92415, -27.98225], [-53.92518, -27.98231], [-53.92573, -27.98196], [-53.92634, -27.9809], [-53.9263, -27.97673], [-53.92581, -27.976], [-53.92568, -27.97484], [-53.92461, -27.97289], [-53.92533, -27.97227], [-53.9266, -27.97158], [-53.92765, -27.97219], [-53.92857, -27.97173], [-53.92981, -27.97012], [-53.93133, -27.96998], [-53.93191, -27.96917], [-53.9313, -27.9674], [-53.93174, -27.96563], [-53.93127, -27.9645], [-53.93167, -27.96385], [-53.9327, -27.96317], [-53.93345, -27.96235], [-53.934, -27.96127], [-53.93393, -27.96064], [-53.93345, -27.95996], [-53.93296, -27.95944], [-53.93225, -27.95938], [-53.93172, -27.95873], [-53.93243, -27.95706], [-53.93337, -27.95696], [-53.93734, -27.95867], [-53.93948, -27.95996], [-53.94297, -27.96088], [-53.9439, -27.96154], [-53.94387, -27.96354], [-53.94414, -27.96444], [-53.94428, -27.9661], [-53.94548, -27.96665], [-53.94627, -27.96658], [-53.94808, -27.96535], [-53.94859, -27.96474], [-53.94895, -27.96335], [-53.94962, -27.96292], [-53.95023, -27.96211], [-53.95099, -27.96229], [-53.95119, -27.96297], [-53.95582, -27.95997], [-53.95687, -27.95911], [-53.95747, -27.95833], [-53.95769, -27.95747], [-53.95707, -27.95359], [-53.95663, -27.95276], [-53.9539, -27.95056], [-53.95307, -27.94959], [-53.95227, -27.94855], [-53.94929, -27.94359], [-53.94846, -27.94259], [-53.94683, -27.94089], [-53.94254, -27.93793], [-53.94183, -27.93688], [-53.94107, -27.93406], [-53.94018, -27.93253], [-53.93894, -27.93112], [-53.93867, -27.93058], [-53.93905, -27.92531], [-53.93579, -27.92536], [-53.93531, -27.92605], [-53.9354, -27.92669], [-53.93596, -27.92741], [-53.93666, -27.9277], [-53.93694, -27.92821], [-53.93323, -27.92977], [-53.93287, -27.92895], [-53.93419, -27.92838], [-53.93372, -27.92743], [-53.93366, -27.92309], [-53.93007, -27.92345], [-53.92965, -27.92232], [-53.93406, -27.92121], [-53.93077, -27.91725], [-53.92928, -27.91682], [-53.92674, -27.91552], [-53.92607, -27.91497], [-53.92545, -27.91366], [-53.92531, -27.9125], [-53.92485, -27.91076], [-53.92344, -27.90779], [-53.92276, -27.90476], [-53.91761, -27.90351], [-53.90183, -27.89229], [-53.90038, -27.89325], [-53.89967, -27.89449], [-53.89847, -27.89516], [-53.89777, -27.89528]]]}}, 
{"type": "Feature", "properties": {"CD_SETOR": "430540505000006", "CD_SIT": "8", "NM_DIST": "Chiapetta", "NM_SUBDIST": null}, "geometry": {"type": "Polygon", "coordinates": [[[-53.9149, -27.98459], [-53.91256, -27.98591], [-53.91095, -27.98762], [-53.91002, -27.98741], [-53.90995, -27.98609], [-53.90934, -27.98578], [-53.90793, -27.98623], [-53.90668, -27.98697], [-53.90562, -27.98811], [-53.90557, -27.98904], [-53.90617, -27.98969], [-53.90622, -27.99037], [-53.90435, -27.99228], [-53.90336, -27.99395], [-53.90178, -27.99586], [-53.90189, -27.99768], [-53.90167, -27.99876], [-53.90106, -27.9998], [-53.90042, -28.00022], [-53.89963, -28.00025], [-53.89787, -28.00158], [-53.89722, -28.00305], [-53.89728, -28.00429], [-53.89588, -28.00562], [-53.89564, -28.00631], [-53.89564, -28.00707], [-53.89538, -28.00755], [-53.89468, -28.00814], [-53.89406, -28.00825], [-53.89344, -28.00815], [-53.89233, -28.0075], [-53.89171, -28.00739], [-53.89114, -28.00756], [-53.8903, -28.00722], [-53.88922, -28.00719], [-53.88823, -28.00753], [-53.88803, -28.00824], [-53.88817, -28.00912], [-53.88766, -28.00973], [-53.88609, -28.01025], [-53.88415, -28.01302], [-53.88279, -28.01398], [-53.88249, -28.01474], [-53.88178, -28.01575], [-53.88008, -28.01731], [-53.87873, -28.01806], [-53.8781, -28.019], [-53.87815, -28.01992], [-53.8787, -28.02094], [-53.87812, -28.02202], [-53.8767, -28.02224], [-53.87339, -28.02464], [-53.87137, -28.02579], [-53.87044, -28.02765], [-53.86903, -28.02895], [-53.8677, -28.02915], [-53.86645, -28.02868], [-53.86566, -28.02874], [-53.865, -28.03013], [-53.86462, -28.03054], [-53.86211, -28.03234], [-53.86143, -28.03377], [-53.86079, -28.03688], [-53.86092, -28.03723], [-53.86226, -28.03879], [-53.86216, -28.03962], [-53.86096, -28.04099], [-53.85988, -28.04313], [-53.859, -28.04611], [-53.85586, -28.05142], [-53.84972, -28.05471], [-53.84883, -28.05495], [-53.83964, -28.05949], [-53.83814, -28.06008], [-53.83619, -28.06249], [-53.83435, -28.0638], [-53.83527, -28.06473], [-53.83586, -28.06564], [-53.83863, -28.07118], [-53.84037, -28.07301], [-53.84141, -28.07359], [-53.84942, -28.07605], [-53.85686, -28.07558], [-53.85899, -28.07587], [-53.86507, -28.07763], [-53.86821, -28.07885], [-53.87009, -28.08035], [-53.87214, -28.08246], [-53.87401, -28.08546], [-53.87812, -28.09771], [-53.87893, -28.09886], [-53.88985, -28.10382], [-53.89048, -28.10425], [-53.8912, -28.10515], [-53.89738, -28.10879], [-53.89898, -28.10996], [-53.90006, -28.11101], [-53.90304, -28.11214], [-53.90697, -28.11339], [-53.90833, -28.11413], [-53.91002, -28.1154], [-53.91055, -28.11071], [-53.90935, -28.11007], [-53.90705, -28.10445], [-53.906, -28.10355], [-53.90438, -28.09739], [-53.90453, -28.08276], [-53.90737, -28.0781], [-53.91255, -28.07398], [-53.91486, -28.07058], [-53.92856, -28.06182], [-53.93183, -28.06214], [-53.93545, -28.06437], [-53.93838, -28.06491], [-53.94096, -28.0634], [-53.94349, -28.0636], [-53.94466, -28.06181], [-53.94655, -28.0611], [-53.94755, -28.06158], [-53.95097, -28.05972], [-53.95298, -28.05967], [-53.95784, -28.06185], [-53.96031, -28.06128], [-53.96359, -28.06167], [-53.96537, -28.06454], [-53.96708, -28.06505], [-53.97086, -28.06674], [-53.97278, -28.06622], [-53.97417, -28.06639], [-53.97371, -28.06476], [-53.97572, -28.06364], [-53.97661, -28.06433], [-53.97972, -28.06294], [-53.98038, -28.06355], [-53.98162, -28.06323], [-53.98131, -28.06232], [-53.9825, -28.06103], [-53.98181, -28.06058], [-53.98366, -28.05967], [-53.98275, -28.05859], [-53.98233, -28.05568], [-53.98629, -28.05479], [-53.98798, -28.05547], [-53.98891, -28.05485], [-53.99012, -28.05124], [-53.99291, -28.04855], [-53.99281, -28.04545], [-53.99402, -28.04395], [-53.99422, -28.04308], [-53.99394, -28.04231], [-53.99398, -28.04134], [-53.99251, -28.03967], [-53.99073, -28.03849], [-53.98928, -28.03811], [-53.98911, -28.03788], [-53.98918, -28.03757], [-53.98978, -28.037], [-53.99121, -28.03609], [-53.99146, -28.03573], [-53.99228, -28.0354], [-53.99269, -28.03503], [-53.99361, -28.03334], [-53.99353, -28.03214], [-53.99368, -28.03165], [-53.99405, -28.03121], [-53.99234, -28.03046], [-53.9917, -28.02912], [-53.9899, -28.02872], [-53.98797, -28.02901], [-53.98637, -28.02889], [-53.98421, -28.02944], [-53.98081, -28.02877], [-53.97912, -28.02967], [-53.97784, -28.03076], [-53.97717, -28.03163], [-53.97601, -28.03029], [-53.97406, -28.03034], [-53.97223, -28.03006], [-53.9703, -28.03051], [-53.96813, -28.03072], [-53.9667, -28.03121], [-53.9645, -28.03151], [-53.96103, -28.03344], [-53.95983, -28.03364], [-53.95716, -28.03246], [-53.95622, -28.03261], [-53.95537, -28.03312], [-53.9544, -28.03334], [-53.95201, -28.03324], [-53.94842, -28.03097], [-53.94835, -28.02818], [-53.94764, -28.02676], [-53.9454, -28.02861], [-53.94496, -28.02013], [-53.94225, -28.01673], [-53.94029, -28.01495], [-53.94027, -28.01285], [-53.9389, -28.00746], [-53.93914, -28.00379], [-53.93805, -28.00032], [-53.93782, -27.99764], [-53.93665, -27.9959], [-53.93638, -27.99476], [-53.93635, -27.99373], [-53.93601, -27.9926], [-53.93519, -27.99148], [-53.93439, -27.99094], [-53.93336, -27.9895], [-53.93316, -27.98758], [-53.93215, -27.98519], [-53.93178, -27.98183], [-53.92884, -27.97717], [-53.92719, -27.97558], [-53.92765, -27.97219], [-53.9266, -27.97158], [-53.92533, -27.97227], [-53.92461, -27.97289], [-53.92568, -27.97484], [-53.92581, -27.976], [-53.9263, -27.97673], [-53.92642, -27.98016], [-53.92634, -27.9809], [-53.92573, -27.98196], [-53.92518, -27.98231], [-53.92415, -27.98225], [-53.92325, -27.9828], [-53.92294, -27.98332], [-53.92237, -27.98346], [-53.92224, -27.98282], [-53.92275, -27.98207], [-53.92493, -27.98054], [-53.92489, -27.9801], [-53.9246, -27.97983], [-53.92157, -27.98126], [-53.91948, -27.98168], [-53.91814, -27.98228], [-53.91643, -27.98208], [-53.91549, -27.98283], [-53.9149, -27.98459]]]}}, 
{"type": "Feature", "properties": {"CD_SETOR": "430540505000007", "CD_SIT": "8", "NM_DIST": "Chiapetta", "NM_SUBDIST": null}, "geometry": {"type": "Polygon", "coordinates": [[[-53.95119, -27.96297], [-53.95099, -27.96229], [-53.95023, -27.96211], [-53.94962, -27.96292], [-53.94895, -27.96335], [-53.94859, -27.96474], [-53.94808, -27.96535], [-53.94627, -27.96658], [-53.94548, -27.96665], [-53.94428, -27.9661], [-53.94414, -27.96444], [-53.94387, -27.96354], [-53.9439, -27.96154], [-53.94297, -27.96088], [-53.93948, -27.95996], [-53.93734, -27.95867], [-53.93337, -27.95696], [-53.93243, -27.95706], [-53.93172, -27.95873], [-53.93225, -27.95938], [-53.93296, -27.95944], [-53.93345, -27.95996], [-53.93393, -27.96064], [-53.934, -27.96127], [-53.93345, -27.96235], [-53.9327, -27.96317], [-53.93167, -27.96385], [-53.93127, -27.9645], [-53.93174, -27.96563], [-53.9313, -27.9674], [-53.93191, -27.96917], [-53.93133, -27.96998], [-53.92981, -27.97012], [-53.92857, -27.97173], [-53.92765, -27.97219], [-53.92719, -27.97558], [-53.92884, -27.97717], [-53.93178, -27.98183], [-53.93215, -27.98519], [-53.93316, -27.98758], [-53.93336, -27.9895], [-53.93439, -27.99094], [-53.93519, -27.99148], [-53.93601, -27.9926], [-53.93635, -27.99373], [-53.93638, -27.99476], [-53.93665, -27.9959], [-53.93782, -27.99764], [-53.93805, -28.00032], [-53.93914, -28.00379], [-53.9389, -28.00746], [-53.94027, -28.01285], [-53.94029, -28.01495], [-53.94225, -28.01673], [-53.94496, -28.02013], [-53.9454, -28.02861], [-53.94764, -28.02676], [-53.94835, -28.02818], [-53.94842, -28.03097], [-53.95201, -28.03324], [-53.9544, -28.03334], [-53.95537, -28.03312], [-53.95622, -28.03261], [-53.95716, -28.03246], [-53.95983, -28.03364], [-53.96103, -28.03344], [-53.9645, -28.03151], [-53.9667, -28.03121], [-53.96813, -28.03072], [-53.9703, -28.03051], [-53.97223, -28.03006], [-53.97406, -28.03034], [-53.97601, -28.03029], [-53.97717, -28.03163], [-53.97784, -28.03076], [-53.97912, -28.02967], [-53.98081, -28.02877], [-53.98421, -28.02944], [-53.98637, -28.02889], [-53.98797, -28.02901], [-53.9899, -28.02872], [-53.9917, -28.02912], [-53.99234, -28.03046], [-53.99405, -28.03121], [-53.99445, -28.03042], [-53.99573, -28.03022], [-53.99731, -28.03009], [-53.99861, -28.03048], [-53.99974, -28.03058], [-54.00115, -28.03037], [-54.00252, -28.03046], [-54.00349, -28.03011], [-54.00419, -28.02944], [-54.00468, -28.02787], [-54.00473, -28.02743], [-54.00398, -28.02589], [-54.00403, -28.02508], [-54.00445, -28.02427], [-54.00492, -28.02276], [-54.00596, -28.02184], [-54.0066, -28.02078], [-54.00726, -28.01787], [-54.00759, -28.01782], [-54.00891, -28.01834], [-54.00957, -28.0183], [-54.00998, -28.01764], [-54.01038, -28.01616], [-54.01117, -28.01498], [-54.01143, -28.0136], [-54.01071, -28.01351], [-54.0104, -28.01325], [-54.01041, -28.0128], [-54.01075, -28.01207], [-54.01099, -28.01177], [-54.01239, -28.01103], [-54.01333, -28.00988], [-54.01463, -28.00915], [-54.01542, -28.00819], [-54.01624, -28.00757], [-54.01738, -28.0076], [-54.01902, -28.00689], [-54.01922, -28.00657], [-54.01926, -28.00619], [-54.01901, -28.00546], [-54.01867, -28.00528], [-54.01695, -28.00636], [-54.01643, -28.00644], [-54.01524, -28.00607], [-54.0138, -28.00506], [-54.01312, -28.00393], [-54.01325, -28.00351], [-54.01379, -28.00297], [-54.01394, -28.00253], [-54.01454, -28.00209], [-54.01541, -28.00184], [-54.01738, -28.00218], [-54.0186, -28.00181], [-54.01961, -28.00119], [-54.02028, -28.00047], [-54.0201, -27.99981], [-54.0204, -27.99915], [-54.02157, -27.99887], [-54.02327, -27.99783], [-54.02346, -27.99741], [-54.02344, -27.99672], [-54.02361, -27.99646], [-54.02551, -27.99587], [-54.02603, -27.99551], [-54.02756, -27.9936], [-54.02798, -27.9934], [-54.029, -27.99381], [-54.02949, -27.99373], [-54.02969, -27.99317], [-54.02958, -27.99285], [-54.02968, -27.9914], [-54.02948, -27.991], [-54.02845, -27.99029], [-54.02786, -27.9893], [-54.02793, -27.98882], [-54.02837, -27.98826], [-54.02992, -27.98521], [-54.03027, -27.98496], [-54.03288, -27.98421], [-54.03432, -27.98469], [-54.03446, -27.98446], [-54.03445, -27.98398], [-54.03399, -27.98355], [-54.03124, -27.9832], [-54.0312, -27.98275], [-54.03232, -27.98039], [-54.03221, -27.97965], [-54.02804, -27.97602], [-54.02333, -27.97297], [-54.0229, -27.97256], [-54.02026, -27.96898], [-54.01972, -27.96742], [-54.01959, -27.96564], [-54.0208, -27.95928], [-54.01995, -27.95459], [-54.01995, -27.95208], [-54.02045, -27.95161], [-54.02187, -27.95152], [-54.02281, -27.95108], [-54.02609, -27.949], [-54.02753, -27.94788], [-54.02849, -27.94762], [-54.02892, -27.94734], [-54.02915, -27.94702], [-54.02932, -27.94597], [-54.02923, -27.9409], [-54.0294, -27.94037], [-54.02867, -27.94014], [-54.02821, -27.94063], [-54.02809, -27.94322], [-54.02753, -27.94413], [-54.02634, -27.94534], [-54.02533, -27.94723], [-54.02467, -27.9478], [-54.02355, -27.94835], [-54.02295, -27.94826], [-54.01842, -27.94666], [-54.01628, -27.94564], [-54.01573, -27.94441], [-54.01446, -27.94355], [-54.01368, -27.94335], [-54.01309, -27.94346], [-54.01277, -27.94434], [-54.01355, -27.94652], [-54.01363, -27.94735], [-54.0133, -27.94828], [-54.01293, -27.94854], [-54.01205, -27.94856], [-54.01086, -27.94821], [-54.00581, -27.94642], [-54.00443, -27.94632], [-54.00333, -27.94654], [-54.00264, -27.9473], [-54.0023, -27.94797], [-54.00152, -27.95081], [-54.00089, -27.9512], [-53.99774, -27.95046], [-53.99644, -27.95044], [-53.99273, -27.95074], [-53.99119, -27.95122], [-53.99034, -27.95187], [-53.99111, -27.95283], [-53.99338, -27.95292], [-53.9944, -27.95249], [-53.99551, -27.95282], [-53.99561, -27.95393], [-53.99373, -27.95624], [-53.99297, -27.96001], [-53.99254, -27.96081], [-53.99193, -27.96132], [-53.99088, -27.96179], [-53.98979, -27.96195], [-53.98863, -27.96173], [-53.9871, -27.96119], [-53.98497, -27.96098], [-53.98399, -27.96123], [-53.98236, -27.96107], [-53.98177, -27.95932], [-53.98095, -27.95928], [-53.97799, -27.96187], [-53.977, -27.96249], [-53.97635, -27.96257], [-53.97546, -27.96241], [-53.97476, -27.9628], [-53.97401, -27.96264], [-53.9721, -27.96098], [-53.9711, -27.96083], [-53.96936, -27.96166], [-53.96779, -27.9617], [-53.9671, -27.96209], [-53.96622, -27.96216], [-53.96578, -27.96165], [-53.96596, -27.96019], [-53.96528, -27.95927], [-53.96394, -27.95882], [-53.96268, -27.95918], [-53.96092, -27.95902], [-53.96062, -27.95932], [-53.96056, -27.96046], [-53.95873, -27.96241], [-53.95793, -27.96294], [-53.954, -27.96429], [-53.95253, -27.9641], [-53.95145, -27.96351], [-53.95119, -27.96297]]]}}, 
{"type": "Feature", "properties": {"CD_SETOR": "430540505000008", "CD_SIT": "8", "NM_DIST": "Chiapetta", "NM_SUBDIST": null}, "geometry": {"type": "Polygon", "coordinates": [[[-53.95058, -27.91906], [-53.94953, -27.91949], [-53.95017, -27.92073], [-53.94964, -27.92237], [-53.94969, -27.92295], [-53.94578, -27.92435], [-53.94607, -27.92576], [-53.94581, -27.9273], [-53.94589, -27.92811], [-53.94214, -27.92678], [-53.93896, -27.92683], [-53.93867, -27.93058], [-53.93894, -27.93112], [-53.94018, -27.93253], [-53.94107, -27.93406], [-53.94183, -27.93688], [-53.94254, -27.93793], [-53.94683, -27.94089], [-53.94846, -27.94259], [-53.94929, -27.94359], [-53.95227, -27.94855], [-53.95307, -27.94959], [-53.9539, -27.95056], [-53.95663, -27.95276], [-53.95707, -27.95359], [-53.95769, -27.95747], [-53.95747, -27.95833], [-53.95663, -27.95937], [-53.95582, -27.95997], [-53.95119, -27.96297], [-53.95145, -27.96351], [-53.95253, -27.9641], [-53.954, -27.96429], [-53.95793, -27.96294], [-53.95873, -27.96241], [-53.96056, -27.96046], [-53.96062, -27.95932], [-53.96092, -27.95902], [-53.96268, -27.95918], [-53.96394, -27.95882], [-53.96528, -27.95927], [-53.96596, -27.96019], [-53.96578, -27.96165], [-53.96622, -27.96216], [-53.9671, -27.96209], [-53.96779, -27.9617], [-53.96936, -27.96166], [-53.9711, -27.96083], [-53.9721, -27.96098], [-53.97401, -27.96264], [-53.97476, -27.9628], [-53.97546, -27.96241], [-53.97635, -27.96257], [-53.977, -27.96249], [-53.97799, -27.96187], [-53.98095, -27.95928], [-53.98177, -27.95932], [-53.98236, -27.96107], [-53.98399, -27.96123], [-53.98497, -27.96098], [-53.9871, -27.96119], [-53.98863, -27.96173], [-53.98979, -27.96195], [-53.99088, -27.96179], [-53.99193, -27.96132], [-53.99254, -27.96081], [-53.99297, -27.96001], [-53.99373, -27.95624], [-53.99561, -27.95393], [-53.99551, -27.95282], [-53.9944, -27.95249], [-53.99338, -27.95292], [-53.99111, -27.95283], [-53.99034, -27.95187], [-53.99119, -27.95122], [-53.99273, -27.95074], [-53.99644, -27.95044], [-53.99774, -27.95046], [-54.00089, -27.9512], [-54.00152, -27.95081], [-54.0023, -27.94797], [-54.00264, -27.9473], [-54.00333, -27.94654], [-54.00443, -27.94632], [-54.00581, -27.94642], [-54.01086, -27.94821], [-54.01205, -27.94856], [-54.01293, -27.94854], [-54.0133, -27.94828], [-54.01363, -27.94735], [-54.01355, -27.94652], [-54.01277, -27.94434], [-54.01309, -27.94346], [-54.01368, -27.94335], [-54.01446, -27.94355], [-54.01573, -27.94441], [-54.01628, -27.94564], [-54.01842, -27.94666], [-54.02295, -27.94826], [-54.02355, -27.94835], [-54.02467, -27.9478], [-54.02533, -27.94723], [-54.02634, -27.94534], [-54.02753, -27.94413], [-54.02809, -27.94322], [-54.02821, -27.94063], [-54.02867, -27.94014], [-54.02838, -27.93989], [-54.02836, -27.93958], [-54.02857, -27.93788], [-54.02836, -27.93748], [-54.02833, -27.93657], [-54.02771, -27.93574], [-54.02744, -27.93427], [-54.02684, -27.93334], [-54.02678, -27.93153], [-54.02618, -27.93117], [-54.02537, -27.93135], [-54.02492, -27.93122], [-54.02457, -27.93097], [-54.02445, -27.93053], [-54.02411, -27.9301], [-54.02289, -27.92901], [-54.02136, -27.92832], [-54.01966, -27.92713], [-54.01856, -27.92548], [-54.01775, -27.92483], [-54.01751, -27.92441], [-54.01783, -27.92337], [-54.01754, -27.92315], [-54.0168, -27.9231], [-54.01537, -27.92247], [-54.01422, -27.92163], [-54.01274, -27.92113], [-54.0119, -27.92059], [-54.01046, -27.91999], [-54.0099, -27.91935], [-54.00799, -27.91841], [-54.00742, -27.91789], [-54.00695, -27.91668], [-54.00604, -27.91552], [-54.00496, -27.91487], [-54.00407, -27.9147], [-54.00372, -27.91479], [-54.00033, -27.91668], [-53.99899, -27.91689], [-53.99683, -27.91387], [-53.99539, -27.91468], [-53.99278, -27.91486], [-53.99097, -27.91475], [-53.98758, -27.9141], [-53.98673, -27.91386], [-53.98534, -27.9131], [-53.98356, -27.91169], [-53.97719, -27.90768], [-53.97638, -27.90732], [-53.97549, -27.90727], [-53.97238, -27.90839], [-53.96865, -27.90928], [-53.96477, -27.9093], [-53.96168, -27.90841], [-53.96079, -27.9086], [-53.95992, -27.90922], [-53.95919, -27.91029], [-53.95879, -27.91272], [-53.95854, -27.9134], [-53.95714, -27.9155], [-53.95609, -27.91638], [-53.95258, -27.91822], [-53.95058, -27.91906]]]}}, 
{"type": "Feature", "properties": {"CD_SETOR": "430540505000009", "CD_SIT": "8", "NM_DIST": "Chiapetta", "NM_SUBDIST": null}, "geometry": {"type": "Polygon", "coordinates": [[[-53.91951, -27.86747], [-53.91839, -27.86924], [-53.9187, -27.8708], [-53.92004, -27.87311], [-53.91996, -27.87425], [-53.92053, -27.87483], [-53.92082, -27.87564], [-53.92058, -27.8774], [-53.92087, -27.87831], [-53.92086, -27.87894], [-53.92025, -27.88008], [-53.92023, -27.88074], [-53.92056, -27.88155], [-53.9203, -27.88221], [-53.91986, -27.88241], [-53.91947, -27.8823], [-53.91868, -27.88167], [-53.91673, -27.88203], [-53.91611, -27.88204], [-53.91571, -27.88187], [-53.91515, -27.88197], [-53.9119, -27.88333], [-53.91079, -27.88339], [-53.90941, -27.88308], [-53.90868, -27.88317], [-53.90754, -27.88367], [-53.90713, -27.88398], [-53.90709, -27.88431], [-53.9082, -27.88498], [-53.90822, -27.88529], [-53.90668, -27.88621], [-53.90643, -27.88669], [-53.90639, -27.88733], [-53.90544, -27.88777], [-53.90254, -27.88863], [-53.90116, -27.88975], [-53.90018, -27.89195], [-53.89837, -27.89345], [-53.89777, -27.89528], [-53.89847, -27.89516], [-53.89967, -27.89449], [-53.90038, -27.89325], [-53.90183, -27.89229], [-53.91761, -27.90351], [-53.92276, -27.90476], [-53.92344, -27.90779], [-53.92485, -27.91076], [-53.92531, -27.9125], [-53.92545, -27.91366], [-53.92607, -27.91497], [-53.92674, -27.91552], [-53.92928, -27.91682], [-53.93077, -27.91725], [-53.93224, -27.91582], [-53.93377, -27.91735], [-53.94035, -27.91313], [-53.94054, -27.91342], [-53.94118, -27.91312], [-53.94236, -27.91344], [-53.94618, -27.91493], [-53.94687, -27.91586], [-53.94776, -27.91524], [-53.95058, -27.91906], [-53.95258, -27.91822], [-53.95609, -27.91638], [-53.95714, -27.9155], [-53.95854, -27.9134], [-53.95879, -27.91272], [-53.95919, -27.91029], [-53.95992, -27.90922], [-53.96079, -27.9086], [-53.96168, -27.90841], [-53.96477, -27.9093], [-53.96865, -27.90928], [-53.97238, -27.90839], [-53.97526, -27.90732], [-53.976, -27.90724], [-53.97719, -27.90768], [-53.98356, -27.91169], [-53.98534, -27.9131], [-53.98673, -27.91386], [-53.99041, -27.91466], [-53.99278, -27.91486], [-53.99539, -27.91468], [-53.99683, -27.91387], [-53.97544, -27.88406], [-53.97638, -27.88309], [-53.97646, -27.8825], [-53.97745, -27.87996], [-53.97762, -27.87837], [-53.97716, -27.87767], [-53.97629, -27.87725], [-53.97583, -27.87664], [-53.97407, -27.87063], [-53.97327, -27.86961], [-53.97309, -27.8691], [-53.97272, -27.8686], [-53.97139, -27.86752], [-53.96777, -27.86519], [-53.96513, -27.86448], [-53.96018, -27.86248], [-53.95872, -27.86175], [-53.95791, -27.86064], [-53.95753, -27.86048], [-53.95609, -27.85829], [-53.95478, -27.85748], [-53.9544, -27.85579], [-53.954, -27.85486], [-53.95399, -27.8541], [-53.95364, -27.85289], [-53.95375, -27.85258], [-53.95369, -27.85227], [-53.95343, -27.85207], [-53.95338, -27.85155], [-53.95129, -27.85158], [-53.95048, -27.85182], [-53.95032, -27.85254], [-53.95109, -27.85386], [-53.95144, -27.85558], [-53.95101, -27.85711], [-53.95077, -27.85745], [-53.95001, -27.85772], [-53.94801, -27.85783], [-53.94712, -27.85756], [-53.94709, -27.85688], [-53.94745, -27.85588], [-53.94696, -27.85517], [-53.94463, -27.85322], [-53.94319, -27.85292], [-53.94261, -27.853], [-53.94215, -27.85342], [-53.94119, -27.85484], [-53.94139, -27.85702], [-53.94126, -27.85752], [-53.94054, -27.85843], [-53.94056, -27.85873], [-53.94101, -27.85927], [-53.9414, -27.86035], [-53.94146, -27.8613], [-53.94128, -27.86212], [-53.94041, -27.8627], [-53.93884, -27.86257], [-53.93704, -27.86339], [-53.93484, -27.86298], [-53.93435, -27.8637], [-53.93425, -27.86416], [-53.93438, -27.86465], [-53.93587, -27.866], [-53.93614, -27.86639], [-53.93617, -27.86674], [-53.93538, -27.86741], [-53.93414, -27.86781], [-53.93256, -27.86886], [-53.93171, -27.86885], [-53.93023, -27.86813], [-53.92981, -27.86816], [-53.92471, -27.87057], [-53.92443, -27.87161], [-53.92398, -27.87185], [-53.92261, -27.87086], [-53.92183, -27.86999], [-53.92156, -27.86928], [-53.92136, -27.8676], [-53.92095, -27.86672], [-53.92068, -27.86657], [-53.92034, -27.86665], [-53.91951, -27.86747]]]}}, 
{"type": "Feature", "properties": {"CD_SETOR": "430540505000010", "CD_SIT": "8", "NM_DIST": "Chiapetta", "NM_SUBDIST": null}, "geometry": {"type": "Polygon", "coordinates": [[[-53.74969, -27.99267], [-53.74904, -27.99258], [-53.75348, -27.99548], [-53.75385, -27.9959], [-53.75442, -27.99709], [-53.75525, -28.00211], [-53.75551, -28.00621], [-53.75582, -28.00787], [-53.75727, -28.01268], [-53.75804, -28.0183], [-53.75904, -28.01977], [-53.76052, -28.02137], [-53.7627, -28.02311], [-53.76791, -28.02664], [-53.76863, -28.02761], [-53.77078, -28.03265], [-53.77152, -28.03375], [-53.77709, -28.03999], [-53.77939, -28.0418], [-53.78538, -28.04475], [-53.83042, -28.06184], [-53.83341, -28.0631], [-53.83435, -28.0638], [-53.83619, -28.06249], [-53.83814, -28.06008], [-53.83964, -28.05949], [-53.84883, -28.05495], [-53.84972, -28.05471], [-53.85586, -28.05142], [-53.859, -28.04611], [-53.85988, -28.04313], [-53.86096, -28.04099], [-53.86216, -28.03962], [-53.86226, -28.03879], [-53.86092, -28.03723], [-53.86079, -28.03688], [-53.86143, -28.03377], [-53.86211, -28.03234], [-53.86462, -28.03054], [-53.865, -28.03013], [-53.86566, -28.02874], [-53.86645, -28.02868], [-53.8677, -28.02915], [-53.86903, -28.02895], [-53.87044, -28.02765], [-53.87137, -28.02579], [-53.87339, -28.02464], [-53.8767, -28.02224], [-53.87812, -28.02202], [-53.8787, -28.02094], [-53.87815, -28.01992], [-53.8781, -28.019], [-53.87873, -28.01806], [-53.88008, -28.01731], [-53.88178, -28.01575], [-53.88249, -28.01474], [-53.88279, -28.01398], [-53.88415, -28.01302], [-53.88609, -28.01025], [-53.88766, -28.00973], [-53.88817, -28.00912], [-53.88803, -28.00824], [-53.88823, -28.00753], [-53.88922, -28.00719], [-53.8903, -28.00722], [-53.89114, -28.00756], [-53.89171, -28.00739], [-53.89233, -28.0075], [-53.89344, -28.00815], [-53.89406, -28.00825], [-53.89468, -28.00814], [-53.89538, -28.00755], [-53.89564, -28.00707], [-53.89564, -28.00631], [-53.89588, -28.00562], [-53.89728, -28.00429], [-53.89722, -28.00305], [-53.89787, -28.00158], [-53.89963, -28.00025], [-53.90042, -28.00022], [-53.90106, -27.9998], [-53.90167, -27.99876], [-53.90189, -27.99768], [-53.90178, -27.99586], [-53.90336, -27.99395], [-53.90435, -27.99228], [-53.90622, -27.99037], [-53.90617, -27.98969], [-53.90557, -27.98904], [-53.90562, -27.98811], [-53.90668, -27.98697], [-53.90793, -27.98623], [-53.90934, -27.98578], [-53.90995, -27.98609], [-53.91002, -27.98741], [-53.91095, -27.98762], [-53.91256, -27.98591], [-53.9149, -27.98459], [-53.91388, -27.98433], [-53.9132, -27.98287], [-53.91134, -27.98163], [-53.90945, -27.98172], [-53.90791, -27.98062], [-53.90626, -27.98051], [-53.90504, -27.97959], [-53.90379, -27.97966], [-53.90369, -27.97832], [-53.90183, -27.97745], [-53.90031, -27.97712], [-53.89921, -27.9777], [-53.89762, -27.97697], [-53.89549, -27.97545], [-53.89063, -27.9735], [-53.88792, -27.97284], [-53.88632, -27.97164], [-53.87838, -27.96827], [-53.87368, -27.96722], [-53.86952, -27.96385], [-53.8643, -27.96065], [-53.86365, -27.95978], [-53.86476, -27.95716], [-53.86503, -27.95527], [-53.86652, -27.95464], [-53.86906, -27.95226], [-53.87003, -27.95163], [-53.87069, -27.95153], [-53.87421, -27.95177], [-53.8761, -27.94671], [-53.87368, -27.94445], [-53.87009, -27.93688], [-53.86791, -27.93543], [-53.86127, -27.93011], [-53.86092, -27.93033], [-53.85953, -27.93251], [-53.85925, -27.93414], [-53.85978, -27.93507], [-53.85982, -27.93543], [-53.85893, -27.93661], [-53.85784, -27.93723], [-53.85739, -27.93768], [-53.8572, -27.9388], [-53.85695, -27.93924], [-53.85648, -27.93957], [-53.85512, -27.93985], [-53.85408, -27.94026], [-53.85342, -27.94035], [-53.85214, -27.94022], [-53.85148, -27.94054], [-53.85068, -27.94167], [-53.8495, -27.94286], [-53.84821, -27.94471], [-53.84774, -27.94632], [-53.8475, -27.94663], [-53.84722, -27.94677], [-53.84678, -27.94628], [-53.84647, -27.94621], [-53.84635, -27.94646], [-53.84646, -27.94698], [-53.84627, -27.94721], [-53.84561, -27.9467], [-53.84527, -27.94676], [-53.84462, -27.9473], [-53.84445, -27.94759], [-53.84453, -27.94778], [-53.84574, -27.94835], [-53.8464, -27.94887], [-53.84729, -27.94913], [-53.84749, -27.94942], [-53.8472, -27.94995], [-53.84771, -27.95116], [-53.84744, -27.95167], [-53.84743, -27.95223], [-53.84651, -27.95265], [-53.84625, -27.95322], [-53.84628, -27.95349], [-53.84712, -27.95377], [-53.84732, -27.95401], [-53.84722, -27.95421], [-53.84593, -27.95454], [-53.84571, -27.95484], [-53.84575, -27.95518], [-53.84418, -27.95599], [-53.84363, -27.95549], [-53.84284, -27.95515], [-53.8425, -27.95526], [-53.84165, -27.95648], [-53.83947, -27.95714], [-53.83912, -27.95766], [-53.83842, -27.95783], [-53.83795, -27.95739], [-53.83739, -27.95754], [-53.83724, -27.95773], [-53.83726, -27.95813], [-53.83699, -27.95844], [-53.8352, -27.95973], [-53.83471, -27.96026], [-53.83416, -27.96099], [-53.83382, -27.96183], [-53.83334, -27.96218], [-53.83248, -27.96248], [-53.83104, -27.96364], [-53.83092, -27.96444], [-53.83127, -27.96572], [-53.83097, -27.96616], [-53.8305, -27.96626], [-53.82949, -27.96604], [-53.82679, -27.96474], [-53.82587, -27.96484], [-53.82495, -27.96534], [-53.82422, -27.96597], [-53.82403, -27.96659], [-53.82423, -27.96755], [-53.82389, -27.96925], [-53.82361, -27.96976], [-53.82277, -27.97038], [-53.81958, -27.97184], [-53.81852, -27.97274], [-53.81816, -27.97284], [-53.81631, -27.97259], [-53.8149, -27.97277], [-53.81398, -27.97328], [-53.8136, -27.97398], [-53.8137, -27.97471], [-53.81337, -27.97538], [-53.81357, -27.976], [-53.81325, -27.97664], [-53.81346, -27.9775], [-53.81337, -27.97779], [-53.81244, -27.97824], [-53.81211, -27.97857], [-53.81192, -27.97893], [-53.81179, -27.98016], [-53.8112, -27.981], [-53.80981, -27.98152], [-53.80937, -27.98146], [-53.80583, -27.97889], [-53.80497, -27.97879], [-53.80467, -27.97901], [-53.80439, -27.97979], [-53.80407, -27.9801], [-53.80236, -27.98104], [-53.8007, -27.98156], [-53.79996, -27.98207], [-53.79903, -27.98331], [-53.7988, -27.9841], [-53.79801, -27.98504], [-53.79758, -27.9852], [-53.79582, -27.98549], [-53.7932, -27.9863], [-53.7908, -27.98622], [-53.78893, -27.98653], [-53.78674, -27.9854], [-53.78602, -27.98523], [-53.78517, -27.98517], [-53.78098, -27.98574], [-53.7796, -27.98614], [-53.77916, -27.98654], [-53.77883, -27.98756], [-53.77783, -27.9892], [-53.77569, -27.99064], [-53.77241, -27.99184], [-53.76903, -27.99212], [-53.76401, -27.99358], [-53.76181, -27.99392], [-53.76034, -27.99457], [-53.7592, -27.9945], [-53.75662, -27.99382], [-53.75306, -27.99338], [-53.75241, -27.99318], [-53.75174, -27.99323], [-53.75062, -27.99279], [-53.74969, -27.99267]]]}}]}