{"type": "FeatureCollection", "features": [
{"type": "Feature", "properties": {"CD_SETOR": "430915905000001", "CD_SIT": "1", "NM_DIST": "Gramado Xavier", "NM_SUBDIST": null}, "geometry": {"type": "Polygon", "coordinates": [[[-52.57587, -29.26525], [-52.57576, -29.26675], [-52.57537, -29.2672], [-52.5751, -29.26786], [-52.57491, -29.26955], [-52.57449, -29.2702], [-52.57391, -29.27053], [-52.57378, -29.27084], [-52.57383, -29.27148], [-52.57418, -29.27279], [-52.57751, -29.27384], [-52.57845, -29.27295], [-52.5797, -29.27232], [-52.58089, -29.27128], [-52.58079, -29.26947], [-52.58115, -29.26934], [-52.58072, -29.26588], [-52.5804, -29.26582], [-52.58006, -29.26538], [-52.57869, -29.26449], [-52.57789, -29.26435], [-52.57764, -29.26414], [-52.5771, -29.26454], [-52.57592, -29.26493], [-52.57587, -29.26525]]]}}, 
{"type": "Feature", "properties": {"CD_SETOR": "430915905000002", "CD_SIT": "8", "NM_DIST": "Gramado Xavier", "NM_SUBDIST": null}, "geometry": {"type": "Polygon", "coordinates": [[[-52.51728, -29.22834], [-52.51708, -29.2284], [-52.517, -29.22942], [-52.52035, -29.23366], [-52.51964, -29.23572], [-52.51531, -29.2382], [-52.51252, -29.24181], [-52.50723, -29.24265], [-52.50101, -29.24728], [-52.50483, -29.24971], [-52.51118, -29.24512], [-52.51506, -29.24662], [-52.51769, -29.24625], [-52.51923, -29.24772], [-52.52067, -29.25235], [-52.52395, -29.25396], [-52.5242, -29.25547], [-52.52576, -29.25638], [-52.52578, -29.25779], [-52.52676, -29.25776], [-52.52818, -29.25992], [-52.52725, -29.26095], [-52.52756, -29.26199], [-52.52549, -29.26313], [-52.52606, -29.26456], [-52.52492, -29.26551], [-52.52569, -29.26659], [-52.52374, -29.26736], [-52.52545, -29.27097], [-52.52365, -29.27292], [-52.52544, -29.27518], [-52.52626, -29.28046], [-52.52492, -29.28123], [-52.52448, -29.28334], [-52.52312, -29.28474], [-52.52453, -29.28495], [-52.52639, -29.28708], [-52.52503, -29.28843], [-52.52577, -29.29204], [-52.5254, -29.29427], [-52.52362, -29.29675], [-52.52498, -29.29775], [-52.52743, -29.30497], [-52.53009, -29.30742], [-52.52942, -29.3107], [-52.53022, -29.30853], [-52.53045, -29.30705], [-52.531, -29.30563], [-52.5319, -29.30226], [-52.53301, -29.30031], [-52.53369, -29.30024], [-52.53496, -29.29961], [-52.53604, -29.29976], [-52.53733, -29.29965], [-52.53839, -29.29906], [-52.54169, -29.29929], [-52.54386, -29.2976], [-52.54448, -29.29673], [-52.54531, -29.29598], [-52.54567, -29.2946], [-52.54635, -29.29378], [-52.54794, -29.29382], [-52.55001, -29.29338], [-52.55213, -29.29326], [-52.55328, -29.29369], [-52.55516, -29.29389], [-52.55707, -29.29328], [-52.55959, -29.29289], [-52.56097, -29.29244], [-52.56264, -29.2928], [-52.56354, -29.2934], [-52.56411, -29.2936], [-52.56594, -29.29365], [-52.56774, -29.2943], [-52.56939, -29.29432], [-52.57171, -29.29333], [-52.57191, -29.29302], [-52.57225, -29.29123], [-52.5735, -29.28839], [-52.57286, -29.28756], [-52.57249, -29.28741], [-52.57193, -29.28748], [-52.57142, -29.28708], [-52.57136, -29.28671], [-52.57184, -29.28602], [-52.57192, -29.28554], [-52.57164, -29.283], [-52.57193, -29.28277], [-52.57336, -29.28253], [-52.57389, -29.28213], [-52.57407, -29.28091], [-52.57387, -29.2796], [-52.57397, -29.27888], [-52.57556, -29.27583], [-52.57706, -29.27373], [-52.57418, -29.27279], [-52.57383, -29.27148], [-52.57378, -29.27084], [-52.57391, -29.27053], [-52.57449, -29.2702], [-52.57491, -29.26955], [-52.5751, -29.26786], [-52.57537, -29.2672], [-52.57576, -29.26675], [-52.57587, -29.26525], [-52.57521, -29.2651], [-52.57437, -29.26456], [-52.57294, -29.26436], [-52.57115, -29.26335], [-52.56888, -29.26262], [-52.56794, -29.26248], [-52.56686, -29.26184], [-52.56586, -29.26166], [-52.56498, -29.26106], [-52.56451, -29.26037], [-52.56376, -29.25798], [-52.56288, -29.25673], [-52.56302, -29.2555], [-52.56233, -29.25399], [-52.56197, -29.25009], [-52.562, -29.24808], [-52.56215, -29.24706], [-52.5631, -29.24585], [-52.56329, -29.24512], [-52.56237, -29.24307], [-52.5622, -29.24289], [-52.55872, -29.24164], [-52.55686, -29.24146], [-52.55595, -29.24167], [-52.55539, -29.24161], [-52.55314, -29.24084], [-52.55229, -29.24036], [-52.55192, -29.24003], [-52.55036, -29.23757], [-52.54996, -29.2366], [-52.54889, -29.2349], [-52.54849, -29.23411], [-52.54797, -29.23238], [-52.54856, -29.22966], [-52.5491, -29.2281], [-52.54959, -29.22752], [-52.54966, -29.22691], [-52.55053, -29.22706], [-52.55175, -29.22681], [-52.55262, -29.22556], [-52.55307, -29.22543], [-52.55358, -29.22499], [-52.55363, -29.22471], [-52.55323, -29.22376], [-52.5529, -29.22373], [-52.55254, -29.2234], [-52.55048, -29.22299], [-52.54653, -29.22408], [-52.54007, -29.22352], [-52.53561, -29.22455], [-52.52634, -29.21917], [-52.52405, -29.22544], [-52.52315, -29.22642], [-52.51728, -29.22834]]]}}, 
{"type": "Feature", "properties": {"CD_SETOR": "430915905000003", "CD_SIT": "8", "NM_DIST": "Gramado Xavier", "NM_SUBDIST": null}, "geometry": {"type": "Polygon", "coordinates": [[[-52.52942, -29.3107], [-52.52912, -29.31214], [-52.53072, -29.31483], [-52.53357, -29.31702], [-52.53324, -29.31836], [-52.53146, -29.31973], [-52.53121, -29.32154], [-52.53215, -29.32258], [-52.5352, -29.32247], [-52.53632, -29.32437], [-52.5351, -29.32686], [-52.53512, -29.32898], [-52.53369, -29.33318], [-52.53742, -29.33337], [-52.53395, -29.33617], [-52.53596, -29.3369], [-52.53658, -29.33989], [-52.53182, -29.34277], [-52.53296, -29.34582], [-52.53164, -29.34774], [-52.53378, -29.34891], [-52.53809, -29.34879], [-52.53614, -29.35609], [-52.53688, -29.35863], [-52.53429, -29.36026], [-52.53635, -29.36195], [-52.5407, -29.36327], [-52.54321, -29.36723], [-52.54286, -29.36797], [-52.53986, -29.36815], [-52.53807, -29.36938], [-52.53937, -29.37334], [-52.54193, -29.37435], [-52.54284, -29.37637], [-52.549, -29.37489], [-52.55246, -29.37542], [-52.55585, -29.37271], [-52.56071, -29.37151], [-52.56124, -29.3694], [-52.56261, -29.36894], [-52.56525, -29.36876], [-52.56759, -29.37091], [-52.57171, -29.37581], [-52.57279, -29.376], [-52.57245, -29.37423], [-52.57539, -29.37144], [-52.57814, -29.37185], [-52.57856, -29.36775], [-52.58167, -29.36621], [-52.58454, -29.36656], [-52.59036, -29.36443], [-52.59251, -29.36442], [-52.59272, -29.36423], [-52.59296, -29.36356], [-52.59295, -29.36183], [-52.59338, -29.35991], [-52.59316, -29.35975], [-52.59187, -29.36029], [-52.59138, -29.36028], [-52.59042, -29.35977], [-52.59024, -29.3592], [-52.58976, -29.35894], [-52.58893, -29.35779], [-52.58866, -29.35684], [-52.58936, -29.35616], [-52.58943, -29.35573], [-52.58811, -29.35562], [-52.58811, -29.35498], [-52.58764, -29.35464], [-52.58742, -29.35336], [-52.58791, -29.35286], [-52.58794, -29.35264], [-52.5876, -29.35162], [-52.58716, -29.35103], [-52.58638, -29.35069], [-52.58605, -29.35023], [-52.58576, -29.34904], [-52.58516, -29.34862], [-52.5842, -29.3472], [-52.58337, -29.34639], [-52.58351, -29.34585], [-52.58383, -29.34515], [-52.58444, -29.34445], [-52.58524, -29.34423], [-52.58668, -29.34271], [-52.58728, -29.34235], [-52.58778, -29.34218], [-52.58968, -29.34203], [-52.59081, -29.34132], [-52.59149, -29.34166], [-52.59242, -29.34158], [-52.59311, -29.34175], [-52.59317, -29.34156], [-52.59273, -29.34127], [-52.5927, -29.34094], [-52.59294, -29.33881], [-52.5935, -29.3387], [-52.5953, -29.33758], [-52.59658, -29.33626], [-52.59681, -29.33558], [-52.59802, -29.33559], [-52.59799, -29.33486], [-52.59919, -29.33385], [-52.59989, -29.33358], [-52.60009, -29.33243], [-52.60032, -29.33209], [-52.60322, -29.33196], [-52.60399, -29.33213], [-52.604, -29.33201], [-52.60348, -29.33094], [-52.60191, -29.32901], [-52.60177, -29.32848], [-52.60208, -29.32754], [-52.60201, -29.32709], [-52.59916, -29.32699], [-52.59754, -29.32526], [-52.596, -29.32425], [-52.59303, -29.3207], [-52.59201, -29.31996], [-52.59118, -29.31836], [-52.59027, -29.31777], [-52.58964, -29.31654], [-52.58813, -29.31545], [-52.58759, -29.3142], [-52.58673, -29.31344], [-52.58564, -29.31206], [-52.58563, -29.31093], [-52.58473, -29.30903], [-52.58443, -29.30888], [-52.58398, -29.3076], [-52.58324, -29.30717], [-52.58271, -29.30657], [-52.58186, -29.30632], [-52.58145, -29.30647], [-52.5811, -29.30737], [-52.58061, -29.30719], [-52.5801, -29.30601], [-52.58012, -29.30512], [-52.58061, -29.30398], [-52.58034, -29.30326], [-52.57984, -29.30258], [-52.57893, -29.30186], [-52.57581, -29.30121], [-52.57514, -29.30043], [-52.57361, -29.29929], [-52.57251, -29.29792], [-52.57216, -29.29701], [-52.57075, -29.29559], [-52.57057, -29.29515], [-52.57047, -29.29388], [-52.56939, -29.29432], [-52.56774, -29.2943], [-52.56594, -29.29365], [-52.56411, -29.2936], [-52.56354, -29.2934], [-52.56264, -29.2928], [-52.56097, -29.29244], [-52.55959, -29.29289], [-52.55707, -29.29328], [-52.55516, -29.29389], [-52.55328, -29.29369], [-52.55213, -29.29326], [-52.55001, -29.29338], [-52.54794, -29.29382], [-52.54635, -29.29378], [-52.54567, -29.2946], [-52.54531, -29.29598], [-52.54448, -29.29673], [-52.54386, -29.2976], [-52.54169, -29.29929], [-52.53839, -29.29906], [-52.53733, -29.29965], [-52.53604, -29.29976], [-52.53496, -29.29961], [-52.53369, -29.30024], [-52.53301, -29.30031], [-52.5319, -29.30226], [-52.531, -29.30563], [-52.53045, -29.30705], [-52.53022, -29.30853], [-52.52942, -29.3107]]]}}, 
{"type": "Feature", "properties": {"CD_SETOR": "430915905000004", "CD_SIT": "8", "NM_DIST": "Gramado Xavier", "NM_SUBDIST": null}, "geometry": {"type": "Polygon", "coordinates": [[[-52.64551, -29.28857], [-52.64448, -29.28986], [-52.64422, -29.29074], [-52.64423, -29.2913], [-52.64572, -29.29803], [-52.64735, -29.30095], [-52.64707, -29.30644], [-52.64655, -29.30735], [-52.64584, -29.30785], [-52.64132, -29.30943], [-52.64111, -29.31152], [-52.64027, -29.31286], [-52.63992, -29.31493], [-52.64023, -29.31601], [-52.6403, -29.31749], [-52.64062, -29.31864], [-52.64042, -29.31902], [-52.63933, -29.31978], [-52.63898, -29.32087], [-52.63908, -29.32252], [-52.63882, -29.32422], [-52.63983, -29.32505], [-52.6401, -29.32549], [-52.64008, -29.32615], [-52.63921, -29.32725], [-52.63815, -29.32684], [-52.6375, -29.32676], [-52.63696, -29.32613], [-52.63666, -29.3261], [-52.63659, -29.32779], [-52.63626, -29.32787], [-52.63563, -29.32758], [-52.63529, -29.32763], [-52.63508, -29.32815], [-52.63403, -29.32943], [-52.63397, -29.33018], [-52.6343, -29.33037], [-52.63908, -29.33035], [-52.64134, -29.32964], [-52.64476, -29.3308], [-52.64649, -29.32887], [-52.64738, -29.32854], [-52.64857, -29.32989], [-52.64965, -29.32821], [-52.65193, -29.32733], [-52.65209, -29.32579], [-52.65723, -29.32504], [-52.65849, -29.32201], [-52.66069, -29.3223], [-52.66088, -29.32035], [-52.66394, -29.32099], [-52.66606, -29.31986], [-52.66823, -29.32023], [-52.67205, -29.31942], [-52.67318, -29.3175], [-52.67564, -29.31641], [-52.67677, -29.31471], [-52.68071, -29.3144], [-52.68217, -29.31717], [-52.68347, -29.31711], [-52.68479, -29.31604], [-52.68456, -29.31376], [-52.68532, -29.31287], [-52.68562, -29.30936], [-52.6865, -29.30866], [-52.69277, -29.30824], [-52.69988, -29.30451], [-52.7064, -29.30527], [-52.70686, -29.30507], [-52.70758, -29.30396], [-52.70804, -29.30401], [-52.70842, -29.30434], [-52.70862, -29.30572], [-52.70909, -29.30584], [-52.70963, -29.30578], [-52.71011, -29.30506], [-52.71099, -29.30434], [-52.71315, -29.30332], [-52.71483, -29.30276], [-52.71794, -29.30219], [-52.71868, -29.30215], [-52.71958, -29.30244], [-52.72012, -29.30233], [-52.72074, -29.30196], [-52.72111, -29.30113], [-52.72115, -29.30057], [-52.72084, -29.29938], [-52.71997, -29.29812], [-52.72014, -29.29728], [-52.7208, -29.29644], [-52.72226, -29.29583], [-52.72345, -29.29575], [-52.72511, -29.29605], [-52.72601, -29.2966], [-52.72734, -29.297], [-52.72776, -29.29701], [-52.72854, -29.29668], [-52.72905, -29.29631], [-52.72916, -29.29598], [-52.72929, -29.29432], [-52.73012, -29.2921], [-52.7301, -29.29183], [-52.72983, -29.29159], [-52.72855, -29.29112], [-52.72743, -29.29102], [-52.72587, -29.29128], [-52.7218, -29.2925], [-52.72061, -29.29241], [-52.7191, -29.29202], [-52.71831, -29.29224], [-52.7176, -29.29213], [-52.71721, -29.29226], [-52.7165, -29.29305], [-52.71594, -29.29404], [-52.71571, -29.29486], [-52.71527, -29.29549], [-52.71401, -29.29588], [-52.71316, -29.29566], [-52.71276, -29.2952], [-52.71274, -29.29416], [-52.71374, -29.29241], [-52.71546, -29.29053], [-52.71589, -29.28949], [-52.71499, -29.28888], [-52.71282, -29.28828], [-52.71029, -29.28773], [-52.70834, -29.28841], [-52.70782, -29.28881], [-52.70685, -29.29033], [-52.70699, -29.29082], [-52.70684, -29.2915], [-52.70632, -29.29261], [-52.70584, -29.2932], [-52.70504, -29.29366], [-52.70475, -29.29361], [-52.70422, -29.29315], [-52.70098, -29.28957], [-52.69793, -29.28725], [-52.69612, -29.28656], [-52.69324, -29.28662], [-52.69208, -29.28682], [-52.69134, -29.28673], [-52.69089, -29.28628], [-52.69096, -29.2854], [-52.68961, -29.28563], [-52.68753, -29.2866], [-52.68494, -29.2868], [-52.68249, -29.28838], [-52.68141, -29.28832], [-52.68025, -29.28851], [-52.67922, -29.28823], [-52.67717, -29.28907], [-52.67657, -29.28898], [-52.67582, -29.28843], [-52.67506, -29.28812], [-52.67498, -29.28772], [-52.67476, -29.28764], [-52.67403, -29.28756], [-52.67334, -29.28722], [-52.67296, -29.28737], [-52.67194, -29.28721], [-52.67113, -29.28691], [-52.6705, -29.28617], [-52.66942, -29.28636], [-52.66846, -29.28599], [-52.66844, -29.28518], [-52.66814, -29.28468], [-52.66629, -29.28365], [-52.66597, -29.28366], [-52.66529, -29.28419], [-52.66497, -29.28495], [-52.66406, -29.28576], [-52.66218, -29.28588], [-52.66184, -29.28561], [-52.66133, -29.28475], [-52.66058, -29.28479], [-52.65989, -29.28514], [-52.65813, -29.28681], [-52.6575, -29.28709], [-52.65711, -29.28685], [-52.65697, -29.28648], [-52.65706, -29.28611], [-52.65782, -29.28557], [-52.65779, -29.28461], [-52.65737, -29.28291], [-52.65688, -29.28202], [-52.65646, -29.2817], [-52.65553, -29.28182], [-52.65509, -29.2821], [-52.6546, -29.28273], [-52.6541, -29.28284], [-52.6534, -29.28252], [-52.65217, -29.28286], [-52.65167, -29.28401], [-52.65075, -29.28421], [-52.6498, -29.28409], [-52.64551, -29.28857]]]}}, 
{"type": "Feature", "properties": {"CD_SETOR": "430915905000005", "CD_SIT": "8", "NM_DIST": "Gramado Xavier", "NM_SUBDIST": null}, "geometry": {"type": "Polygon", "coordinates": [[[-52.5909, -29.261], [-52.58945, -29.26375], [-52.58951, -29.26421], [-52.59014, -29.26529], [-52.59048, -29.2674], [-52.59098, -29.26807], [-52.59109, -29.26921], [-52.59006, -29.27334], [-52.58914, -29.27443], [-52.58914, -29.27481], [-52.58958, -29.27595], [-52.58886, -29.27684], [-52.58833, -29.27845], [-52.58833, -29.27907], [-52.5891, -29.27975], [-52.58863, -29.28195], [-52.58921, -29.28451], [-52.58866, -29.28558], [-52.58874, -29.28579], [-52.59046, -29.28682], [-52.59064, -29.28717], [-52.59062, -29.28921], [-52.58983, -29.29039], [-52.58982, -29.2908], [-52.58828, -29.29131], [-52.58805, -29.29206], [-52.58824, -29.29325], [-52.58899, -29.29372], [-52.58941, -29.29449], [-52.59006, -29.29456], [-52.5909, -29.29413], [-52.59109, -29.29423], [-52.59015, -29.2949], [-52.58911, -29.29482], [-52.58902, -29.29504], [-52.5893, -29.29519], [-52.58923, -29.29537], [-52.5887, -29.29565], [-52.58915, -29.29607], [-52.58988, -29.29638], [-52.5908, -29.29623], [-52.59046, -29.2969], [-52.59082, -29.29739], [-52.59091, -29.29781], [-52.592, -29.29919], [-52.59188, -29.29975], [-52.59197, -29.29998], [-52.59304, -29.30066], [-52.59325, -29.30113], [-52.59383, -29.30157], [-52.59446, -29.30141], [-52.59526, -29.30175], [-52.59617, -29.30153], [-52.59789, -29.30165], [-52.59873, -29.3012], [-52.59979, -29.30115], [-52.60087, -29.30062], [-52.60251, -29.30065], [-52.6029, -29.30051], [-52.60327, -29.30059], [-52.60356, -29.3004], [-52.60544, -29.30093], [-52.60874, -29.30287], [-52.60982, -29.30333], [-52.6102, -29.30371], [-52.61166, -29.30647], [-52.61235, -29.30696], [-52.61271, -29.30755], [-52.61364, -29.3101], [-52.61364, -29.31073], [-52.61419, -29.31236], [-52.61465, -29.31325], [-52.61491, -29.31344], [-52.61578, -29.3133], [-52.61787, -29.31209], [-52.61773, -29.3114], [-52.61858, -29.31028], [-52.61903, -29.31005], [-52.61961, -29.31], [-52.6205, -29.31019], [-52.62096, -29.30999], [-52.622, -29.30987], [-52.6233, -29.31001], [-52.62477, -29.31078], [-52.62509, -29.31115], [-52.62522, -29.31167], [-52.6254, -29.31173], [-52.62729, -29.31128], [-52.62811, -29.31162], [-52.62875, -29.31152], [-52.62983, -29.31097], [-52.6314, -29.30981], [-52.63452, -29.3098], [-52.63543, -29.30667], [-52.63531, -29.30633], [-52.63377, -29.30509], [-52.63315, -29.30427], [-52.63338, -29.30349], [-52.63328, -29.30279], [-52.63357, -29.29965], [-52.63024, -29.29887], [-52.62759, -29.29877], [-52.62751, -29.29853], [-52.62829, -29.2972], [-52.62833, -29.29524], [-52.62863, -29.29355], [-52.62896, -29.29279], [-52.62831, -29.29141], [-52.62824, -29.29051], [-52.62853, -29.28977], [-52.62851, -29.28909], [-52.62816, -29.28865], [-52.62801, -29.28809], [-52.62739, -29.28743], [-52.62974, -29.28517], [-52.63017, -29.28423], [-52.63087, -29.28424], [-52.63172, -29.28476], [-52.63318, -29.28433], [-52.63409, -29.28355], [-52.63639, -29.28308], [-52.63677, -29.28271], [-52.63698, -29.28193], [-52.63813, -29.28098], [-52.63847, -29.28049], [-52.6389, -29.28028], [-52.63932, -29.27956], [-52.64039, -29.27838], [-52.64129, -29.27824], [-52.64253, -29.2785], [-52.64188, -29.2792], [-52.64117, -29.27954], [-52.64097, -29.27987], [-52.64088, -29.28074], [-52.64105, -29.28177], [-52.64142, -29.28235], [-52.6414, -29.28293], [-52.64198, -29.28373], [-52.64277, -29.28436], [-52.64216, -29.28524], [-52.64165, -29.28561], [-52.64164, -29.28585], [-52.64194, -29.28639], [-52.64286, -29.28732], [-52.6441, -29.28803], [-52.64428, -29.28877], [-52.64551, -29.28857], [-52.6498, -29.28409], [-52.65075, -29.28421], [-52.65167, -29.28401], [-52.65217, -29.28286], [-52.6534, -29.28252], [-52.6541, -29.28284], [-52.6546, -29.28273], [-52.65509, -29.2821], [-52.65553, -29.28182], [-52.65646, -29.2817], [-52.65688, -29.28202], [-52.65737, -29.28291], [-52.65779, -29.28461], [-52.65782, -29.28557], [-52.65706, -29.28611], [-52.65697, -29.28648], [-52.65711, -29.28685], [-52.6575, -29.28709], [-52.65813, -29.28681], [-52.65989, -29.28514], [-52.66058, -29.28479], [-52.66133, -29.28475], [-52.66184, -29.28561], [-52.66218, -29.28588], [-52.66406, -29.28576], [-52.66497, -29.28495], [-52.66499, -29.28469], [-52.66559, -29.28387], [-52.66629, -29.28365], [-52.66814, -29.28468], [-52.66844, -29.28518], [-52.66846, -29.28599], [-52.66942, -29.28636], [-52.6705, -29.28617], [-52.67113, -29.28691], [-52.67194, -29.28721], [-52.67296, -29.28737], [-52.67334, -29.28722], [-52.67403, -29.28756], [-52.67476, -29.28764], [-52.67498, -29.28772], [-52.67506, -29.28812], [-52.67582, -29.28843], [-52.67657, -29.28898], [-52.67717, -29.28907], [-52.67922, -29.28823], [-52.68025, -29.28851], [-52.68141, -29.28832], [-52.68249, -29.28838], [-52.68494, -29.2868], [-52.68753, -29.2866], [-52.68961, -29.28563], [-52.69096, -29.2854], [-52.69162, -29.28419], [-52.69335, -29.28193], [-52.69367, -29.28171], [-52.69455, -29.28159], [-52.69524, -29.28093], [-52.69536, -29.28009], [-52.69522, -29.27926], [-52.69486, -29.27833], [-52.69349, -29.27608], [-52.69311, -29.27515], [-52.69299, -29.27305], [-52.69314, -29.27216], [-52.69378, -29.27157], [-52.69421, -29.27143], [-52.69649, -29.27192], [-52.69752, -29.27199], [-52.69893, -29.27168], [-52.69904, -29.27126], [-52.69896, -29.26998], [-52.6987, -29.26909], [-52.69645, -29.26269], [-52.69589, -29.26172], [-52.6947, -29.26065], [-52.69329, -29.26021], [-52.69179, -29.26043], [-52.69114, -29.2611], [-52.68988, -29.26341], [-52.68885, -29.26446], [-52.68819, -29.26618], [-52.68739, -29.2668], [-52.68693, -29.26682], [-52.68655, -29.26671], [-52.6857, -29.26537], [-52.68529, -29.2639], [-52.68482, -29.26289], [-52.68534, -29.26136], [-52.68498, -29.26077], [-52.68379, -29.25975], [-52.68271, -29.25931], [-52.67996, -29.25771], [-52.67943, -29.25773], [-52.67839, -29.25816], [-52.67692, -29.25993], [-52.67549, -29.26049], [-52.67439, -29.2604], [-52.67276, -29.2596], [-52.67226, -29.25974], [-52.67165, -29.26103], [-52.67217, -29.26189], [-52.6727, -29.26197], [-52.67339, -29.2624], [-52.67436, -29.26354], [-52.67438, -29.26443], [-52.67396, -29.26476], [-52.67309, -29.26456], [-52.67151, -29.26496], [-52.66945, -29.26468], [-52.66918, -29.26446], [-52.66895, -29.26393], [-52.66906, -29.26362], [-52.66939, -29.26336], [-52.67011, -29.26357], [-52.6703, -29.26346], [-52.67032, -29.26323], [-52.66984, -29.26221], [-52.66948, -29.26198], [-52.66652, -29.26385], [-52.66553, -29.26465], [-52.6643, -29.26409], [-52.66385, -29.26353], [-52.66358, -29.26279], [-52.66299, -29.26226], [-52.66247, -29.26122], [-52.66213, -29.2611], [-52.66183, -29.26114], [-52.66142, -29.26152], [-52.66131, -29.26187], [-52.66148, -29.26301], [-52.66141, -29.26364], [-52.6607, -29.26441], [-52.66015, -29.26433], [-52.65997, -29.26391], [-52.65938, -29.26391], [-52.65768, -29.26475], [-52.6558, -29.26606], [-52.65553, -29.26562], [-52.6558, -29.26406], [-52.65575, -29.26339], [-52.65603, -29.26262], [-52.65598, -29.26225], [-52.65577, -29.26186], [-52.65534, -29.26156], [-52.65325, -29.26044], [-52.65287, -29.25979], [-52.65287, -29.25944], [-52.65395, -29.25656], [-52.65387, -29.25611], [-52.65355, -29.25572], [-52.6532, -29.25557], [-52.65227, -29.25564], [-52.65182, -29.25589], [-52.65139, -29.25624], [-52.64985, -29.25829], [-52.64924, -29.2585], [-52.64692, -29.25701], [-52.64465, -29.25522], [-52.64389, -29.25544], [-52.6427, -29.25615], [-52.64214, -29.25736], [-52.64168, -29.25795], [-52.64146, -29.25919], [-52.64091, -29.26038], [-52.64055, -29.26063], [-52.63809, -29.25991], [-52.63681, -29.25926], [-52.63646, -29.25877], [-52.63576, -29.25861], [-52.63176, -29.25911], [-52.62821, -29.26047], [-52.62768, -29.26084], [-52.62729, -29.26084], [-52.62703, -29.26074], [-52.62687, -29.26025], [-52.62677, -29.25857], [-52.62653, -29.25847], [-52.62615, -29.25864], [-52.62485, -29.25993], [-52.62363, -29.26019], [-52.62164, -29.26165], [-52.62071, -29.26174], [-52.61846, -29.26296], [-52.61797, -29.263], [-52.61701, -29.26274], [-52.61659, -29.2618], [-52.61617, -29.25988], [-52.61524, -29.25925], [-52.61465, -29.25952], [-52.61424, -29.26058], [-52.61379, -29.2609], [-52.61149, -29.26128], [-52.61054, -29.26106], [-52.60908, -29.25932], [-52.60906, -29.25906], [-52.6097, -29.25826], [-52.60979, -29.25752], [-52.60917, -29.25729], [-52.60784, -29.25732], [-52.60737, -29.2574], [-52.60621, -29.2582], [-52.60556, -29.25806], [-52.60554, -29.25716], [-52.60496, -29.25604], [-52.6037, -29.25484], [-52.60292, -29.25443], [-52.60256, -29.25459], [-52.60218, -29.25506], [-52.60051, -29.25541], [-52.59907, -29.25614], [-52.59831, -29.25636], [-52.59742, -29.25614], [-52.59684, -29.2563], [-52.59604, -29.2574], [-52.59608, -29.25941], [-52.59549, -29.26085], [-52.5947, -29.26094], [-52.59408, -29.2603], [-52.59355, -29.25944], [-52.59299, -29.25923], [-52.59118, -29.25991], [-52.59204, -29.26102], [-52.5909, -29.261]]]}}, 
{"type": "Feature", "properties": {"CD_SETOR": "430915905000007", "CD_SIT": "8", "NM_DIST": "Gramado Xavier", "NM_SUBDIST": null}, "geometry": {"type": "Polygon", "coordinates": [[[-52.55254, -29.2234], [-52.5529, -29.22373], [-52.55323, -29.22376], [-52.55363, -29.22471], [-52.55358, -29.22499], [-52.55307, -29.22543], [-52.55262, -29.22556], [-52.55175, -29.22681], [-52.55053, -29.22706], [-52.54966, -29.22691], [-52.54966, -29.22736], [-52.5491, -29.2281], [-52.54856, -29.22966], [-52.54797, -29.23257], [-52.54889, -29.2349], [-52.54996, -29.2366], [-52.55027, -29.23742], [-52.55209, -29.24022], [-52.55314, -29.24084], [-52.55539, -29.24161], [-52.55595, -29.24167], [-52.55686, -29.24146], [-52.55872, -29.24164], [-52.5622, -29.24289], [-52.56277, -29.24373], [-52.56326, -29.24491], [-52.56326, -29.24538], [-52.5631, -29.24585], [-52.56215, -29.24706], [-52.56198, -29.24827], [-52.56197, -29.25009], [-52.56233, -29.25399], [-52.56302, -29.2555], [-52.56288, -29.25673], [-52.56384, -29.25815], [-52.56462, -29.26062], [-52.56498, -29.26106], [-52.56586, -29.26166], [-52.56686, -29.26184], [-52.56794, -29.26248], [-52.56888, -29.26262], [-52.57115, -29.26335], [-52.57294, -29.26436], [-52.57437, -29.26456], [-52.57555, -29.2652], [-52.57587, -29.26525], [-52.57592, -29.26493], [-52.5771, -29.26454], [-52.57764, -29.26414], [-52.57789, -29.26435], [-52.57795, -29.26296], [-52.57958, -29.26267], [-52.57892, -29.26117], [-52.5769, -29.25968], [-52.57722, -29.25937], [-52.57745, -29.25815], [-52.57791, -29.25726], [-52.57959, -29.25637], [-52.58069, -29.25507], [-52.58241, -29.25479], [-52.58376, -29.25423], [-52.58558, -29.25388], [-52.58616, -29.25364], [-52.58633, -29.25337], [-52.5862, -29.25283], [-52.5852, -29.25246], [-52.58512, -29.25218], [-52.5866, -29.25121], [-52.58744, -29.24986], [-52.58737, -29.24826], [-52.58778, -29.24683], [-52.58763, -29.24618], [-52.58692, -29.24536], [-52.5869, -29.24503], [-52.58728, -29.24436], [-52.58798, -29.24384], [-52.58922, -29.24318], [-52.5907, -29.24269], [-52.59176, -29.2411], [-52.59165, -29.23912], [-52.5912, -29.23705], [-52.59124, -29.2358], [-52.59207, -29.23316], [-52.593, -29.23117], [-52.59333, -29.23076], [-52.59149, -29.22994], [-52.59108, -29.22959], [-52.59069, -29.22883], [-52.58921, -29.22795], [-52.58682, -29.22854], [-52.58494, -29.22849], [-52.58166, -29.22791], [-52.58011, -29.22829], [-52.5771, -29.2275], [-52.57684, -29.22491], [-52.57329, -29.22573], [-52.57248, -29.22525], [-52.57117, -29.22612], [-52.56804, -29.22423], [-52.56603, -29.22398], [-52.56372, -29.22181], [-52.56125, -29.22318], [-52.56, -29.22308], [-52.55874, -29.21993], [-52.55315, -29.22352], [-52.55254, -29.2234]]]}}, 
{"type": "Feature", "properties": {"CD_SETOR": "430915905000008", "CD_SIT": "8", "NM_DIST": "Gramado Xavier", "NM_SUBDIST": null}, "geometry": {"type": "Polygon", "coordinates": [[[-52.59188, -29.29975], [-52.59088, -29.29897], [-52.59043, -29.29818], [-52.58793, -29.29639], [-52.58716, -29.29647], [-52.58518, -29.29776], [-52.58348, -29.29788], [-52.58245, -29.29813], [-52.58216, -29.29959], [-52.58147, -29.3009], [-52.58074, -29.30161], [-52.58058, -29.30276], [-52.58034, -29.30326], [-52.58061, -29.30398], [-52.58011, -29.30519], [-52.58016, -29.30623], [-52.58076, -29.30731], [-52.5811, -29.30737], [-52.58145, -29.30647], [-52.58186, -29.30632], [-52.58271, -29.30657], [-52.58324, -29.30717], [-52.58398, -29.3076], [-52.58443, -29.30888], [-52.58473, -29.30903], [-52.58563, -29.31093], [-52.58564, -29.31206], [-52.58673, -29.31344], [-52.58759, -29.3142], [-52.58813, -29.31545], [-52.58964, -29.31654], [-52.59027, -29.31777], [-52.59118, -29.31836], [-52.59201, -29.31996], [-52.59303, -29.3207], [-52.596, -29.32425], [-52.59754, -29.32526], [-52.59916, -29.32699], [-52.60201, -29.32709], [-52.60208, -29.32754], [-52.60177, -29.32848], [-52.60191, -29.32901], [-52.60348, -29.33094], [-52.604, -29.33201], [-52.60399, -29.33213], [-52.60322, -29.33196], [-52.60032, -29.33209], [-52.60009, -29.33243], [-52.59989, -29.33358], [-52.59919, -29.33385], [-52.59799, -29.33486], [-52.59802, -29.33559], [-52.59681, -29.33558], [-52.59658, -29.33626], [-52.5953, -29.33758], [-52.5935, -29.3387], [-52.59294, -29.33881], [-52.5927, -29.34094], [-52.59273, -29.34127], [-52.59317, -29.34156], [-52.59311, -29.34175], [-52.59242, -29.34158], [-52.59149, -29.34166], [-52.59081, -29.34132], [-52.58968, -29.34203], [-52.58778, -29.34218], [-52.58728, -29.34235], [-52.58668, -29.34271], [-52.58524, -29.34423], [-52.58444, -29.34445], [-52.58383, -29.34515], [-52.58351, -29.34585], [-52.58337, -29.34639], [-52.5842, -29.3472], [-52.58516, -29.34862], [-52.58576, -29.34904], [-52.58605, -29.35023], [-52.58638, -29.35069], [-52.58716, -29.35103], [-52.5876, -29.35162], [-52.58794, -29.35264], [-52.58791, -29.35286], [-52.58742, -29.35336], [-52.58764, -29.35464], [-52.58811, -29.35498], [-52.58811, -29.35562], [-52.58943, -29.35573], [-52.58936, -29.35616], [-52.58866, -29.35684], [-52.58893, -29.35779], [-52.58976, -29.35894], [-52.59024, -29.3592], [-52.59042, -29.35977], [-52.59138, -29.36028], [-52.59187, -29.36029], [-52.59316, -29.35975], [-52.59338, -29.35991], [-52.59295, -29.36183], [-52.59287, -29.36388], [-52.59112, -29.3662], [-52.59146, -29.36739], [-52.59653, -29.36564], [-52.59786, -29.36335], [-52.60239, -29.36098], [-52.60071, -29.35813], [-52.60323, -29.35642], [-52.6076, -29.35631], [-52.61903, -29.36039], [-52.62157, -29.35993], [-52.62539, -29.34675], [-52.62503, -29.34479], [-52.62612, -29.34218], [-52.62542, -29.34098], [-52.62559, -29.33878], [-52.6343, -29.33037], [-52.63397, -29.33018], [-52.63403, -29.32943], [-52.63508, -29.32815], [-52.63529, -29.32763], [-52.63563, -29.32758], [-52.63626, -29.32787], [-52.63659, -29.32779], [-52.63666, -29.3261], [-52.63696, -29.32613], [-52.6375, -29.32676], [-52.63815, -29.32684], [-52.63921, -29.32725], [-52.63997, -29.32638], [-52.64014, -29.32592], [-52.6401, -29.32549], [-52.63983, -29.32505], [-52.63882, -29.32422], [-52.63908, -29.32252], [-52.63898, -29.32087], [-52.63915, -29.32002], [-52.6396, -29.31947], [-52.64042, -29.31902], [-52.64062, -29.31864], [-52.6403, -29.31749], [-52.64023, -29.31601], [-52.63992, -29.31493], [-52.64027, -29.31286], [-52.64111, -29.31152], [-52.64132, -29.30943], [-52.64584, -29.30785], [-52.64675, -29.3071], [-52.64711, -29.30623], [-52.64741, -29.30157], [-52.64716, -29.30043], [-52.64572, -29.29803], [-52.64423, -29.2913], [-52.64422, -29.29074], [-52.64448, -29.28986], [-52.64551, -29.28857], [-52.64428, -29.28877], [-52.6441, -29.28803], [-52.64286, -29.28732], [-52.64194, -29.28639], [-52.64164, -29.28585], [-52.64165, -29.28561], [-52.64216, -29.28524], [-52.64277, -29.28436], [-52.64198, -29.28373], [-52.6414, -29.28293], [-52.64142, -29.28235], [-52.64105, -29.28177], [-52.64088, -29.28074], [-52.64097, -29.27987], [-52.64117, -29.27954], [-52.64188, -29.2792], [-52.64253, -29.2785], [-52.64129, -29.27824], [-52.64039, -29.27838], [-52.64021, -29.27855], [-52.6389, -29.28028], [-52.63847, -29.28049], [-52.63813, -29.28098], [-52.63698, -29.28193], [-52.63677, -29.28271], [-52.63639, -29.28308], [-52.63409, -29.28355], [-52.63318, -29.28433], [-52.63172, -29.28476], [-52.63087, -29.28424], [-52.63017, -29.28423], [-52.62974, -29.28517], [-52.62739, -29.28743], [-52.62801, -29.28809], [-52.62816, -29.28865], [-52.62851, -29.28909], [-52.62853, -29.28977], [-52.62824, -29.29051], [-52.62831, -29.29141], [-52.62896, -29.29279], [-52.62863, -29.29355], [-52.62833, -29.29524], [-52.62829, -29.2972], [-52.62751, -29.29853], [-52.62759, -29.29877], [-52.63024, -29.29887], [-52.63357, -29.29965], [-52.63328, -29.30279], [-52.63338, -29.30349], [-52.63315, -29.30427], [-52.63377, -29.30509], [-52.63531, -29.30633], [-52.63543, -29.30667], [-52.63452, -29.3098], [-52.6314, -29.30981], [-52.62983, -29.31097], [-52.62875, -29.31152], [-52.62811, -29.31162], [-52.62729, -29.31128], [-52.6254, -29.31173], [-52.62522, -29.31167], [-52.62509, -29.31115], [-52.62477, -29.31078], [-52.6233, -29.31001], [-52.622, -29.30987], [-52.62096, -29.30999], [-52.6205, -29.31019], [-52.61961, -29.31], [-52.61903, -29.31005], [-52.61858, -29.31028], [-52.61773, -29.3114], [-52.61787, -29.31209], [-52.61578, -29.3133], [-52.61491, -29.31344], [-52.61465, -29.31325], [-52.61419, -29.31236], [-52.61364, -29.31073], [-52.61364, -29.3101], [-52.61271, -29.30755], [-52.61235, -29.30696], [-52.61166, -29.30647], [-52.6102, -29.30371], [-52.60982, -29.30333], [-52.60874, -29.30287], [-52.60544, -29.30093], [-52.60356, -29.3004], [-52.60327, -29.30059], [-52.6029, -29.30051], [-52.60251, -29.30065], [-52.60087, -29.30062], [-52.59979, -29.30115], [-52.59873, -29.3012], [-52.59789, -29.30165], [-52.59617, -29.30153], [-52.59526, -29.30175], [-52.59446, -29.30141], [-52.59388, -29.30158], [-52.59361, -29.30146], [-52.59325, -29.30113], [-52.5931, -29.30072], [-52.59207, -29.30008], [-52.59188, -29.29975]]]}}, 
{"type": "Feature", "properties": {"CD_SETOR": "430915905000009", "CD_SIT": "8", "NM_DIST": "Gramado Xavier", "NM_SUBDIST": null}, "geometry": {"type": "Polygon", "coordinates": [[[-52.58011, -29.22829], [-52.58166, -29.22791], [-52.58494, -29.22849], [-52.58682, -29.22854], [-52.58921, -29.22795], [-52.59069, -29.22883], [-52.59108, -29.22959], [-52.59149, -29.22994], [-52.59333, -29.23076], [-52.593, -29.23117], [-52.59207, -29.23316], [-52.59124, -29.2358], [-52.5912, -29.23705], [-52.59165, -29.23912], [-52.59176, -29.2411], [-52.5907, -29.24269], [-52.58922, -29.24318], [-52.58798, -29.24384], [-52.58728, -29.24436], [-52.5869, -29.24503], [-52.58692, -29.24536], [-52.58763, -29.24618], [-52.58778, -29.24683], [-52.58737, -29.24826], [-52.58744, -29.24986], [-52.5866, -29.25121], [-52.58512, -29.25218], [-52.5852, -29.25246], [-52.5862, -29.25283], [-52.58626, -29.25351], [-52.58558, -29.25388], [-52.58376, -29.25423], [-52.58267, -29.25472], [-52.58069, -29.25507], [-52.57959, -29.25637], [-52.57791, -29.25726], [-52.57745, -29.25815], [-52.57725, -29.25928], [-52.57696, -29.25955], [-52.57694, -29.25981], [-52.57892, -29.26117], [-52.57956, -29.26241], [-52.57958, -29.26267], [-52.57936, -29.2628], [-52.5782, -29.26283], [-52.57795, -29.26296], [-52.57789, -29.26435], [-52.57869, -29.26449], [-52.58006, -29.26538], [-52.5804, -29.26582], [-52.58072, -29.26588], [-52.58124, -29.26544], [-52.58188, -29.26464], [-52.58242, -29.26346], [-52.58404, -29.26316], [-52.58506, -29.26194], [-52.58616, -29.26133], [-52.58678, -29.26121], [-52.58921, -29.26132], [-52.59052, -29.26102], [-52.59204, -29.26102], [-52.59118, -29.25991], [-52.59299, -29.25923], [-52.59355, -29.25944], [-52.59408, -29.2603], [-52.5947, -29.26094], [-52.59549, -29.26085], [-52.59608, -29.25941], [-52.59604, -29.2574], [-52.59684, -29.2563], [-52.59742, -29.25614], [-52.59831, -29.25636], [-52.59907, -29.25614], [-52.60051, -29.25541], [-52.60218, -29.25506], [-52.60256, -29.25459], [-52.60292, -29.25443], [-52.6037, -29.25484], [-52.60496, -29.25604], [-52.60554, -29.25716], [-52.60556, -29.25806], [-52.60621, -29.2582], [-52.60737, -29.2574], [-52.60784, -29.25732], [-52.60917, -29.25729], [-52.60979, -29.25752], [-52.6097, -29.25826], [-52.60906, -29.25906], [-52.60908, -29.25932], [-52.61054, -29.26106], [-52.61149, -29.26128], [-52.61379, -29.2609], [-52.61424, -29.26058], [-52.61465, -29.25952], [-52.61524, -29.25925], [-52.61617, -29.25988], [-52.61659, -29.2618], [-52.61701, -29.26274], [-52.61797, -29.263], [-52.61846, -29.26296], [-52.62071, -29.26174], [-52.62164, -29.26165], [-52.62363, -29.26019], [-52.62485, -29.25993], [-52.62615, -29.25864], [-52.62653, -29.25847], [-52.62677, -29.25857], [-52.62687, -29.26025], [-52.62703, -29.26074], [-52.62729, -29.26084], [-52.62768, -29.26084], [-52.62821, -29.26047], [-52.63176, -29.25911], [-52.63576, -29.25861], [-52.63646, -29.25877], [-52.63681, -29.25926], [-52.63809, -29.25991], [-52.64055, -29.26063], [-52.64091, -29.26038], [-52.64146, -29.25919], [-52.64168, -29.25795], [-52.64214, -29.25736], [-52.6427, -29.25615], [-52.64389, -29.25544], [-52.64465, -29.25522], [-52.64692, -29.25701], [-52.64924, -29.2585], [-52.64985, -29.25829], [-52.65139, -29.25624], [-52.65182, -29.25589], [-52.65227, -29.25564], [-52.6532, -29.25557], [-52.65355, -29.25572], [-52.65387, -29.25611], [-52.65395, -29.25656], [-52.65287, -29.25944], [-52.65287, -29.25979], [-52.65325, -29.26044], [-52.65534, -29.26156], [-52.65577, -29.26186], [-52.65598, -29.26225], [-52.65603, -29.26262], [-52.65575, -29.26339], [-52.6558, -29.26406], [-52.65553, -29.26562], [-52.6558, -29.26606], [-52.65768, -29.26475], [-52.65938, -29.26391], [-52.65997, -29.26391], [-52.66015, -29.26433], [-52.6607, -29.26441], [-52.66141, -29.26364], [-52.66148, -29.26301], [-52.66131, -29.26187], [-52.66142, -29.26152], [-52.66183, -29.26114], [-52.66213, -29.2611], [-52.66247, -29.26122], [-52.66299, -29.26226], [-52.66358, -29.26279], [-52.66385, -29.26353], [-52.6643, -29.26409], [-52.66553, -29.26465], [-52.66652, -29.26385], [-52.66948, -29.26198], [-52.66984, -29.26221], [-52.67032, -29.26323], [-52.6703, -29.26346], [-52.67011, -29.26357], [-52.66939, -29.26336], [-52.66906, -29.26362], [-52.66895, -29.26393], [-52.66918, -29.26446], [-52.66945, -29.26468], [-52.67151, -29.26496], [-52.67309, -29.26456], [-52.67396, -29.26476], [-52.67438, -29.26443], [-52.67436, -29.26354], [-52.67339, -29.2624], [-52.6727, -29.26197], [-52.67217, -29.26189], [-52.67165, -29.26103], [-52.67226, -29.25974], [-52.67276, -29.2596], [-52.67439, -29.2604], [-52.67549, -29.26049], [-52.67692, -29.25993], [-52.67839, -29.25816], [-52.67943, -29.25773], [-52.67996, -29.25771], [-52.67776, -29.25542], [-52.67584, -29.25381], [-52.67572, -29.25338], [-52.67578, -29.25274], [-52.67637, -29.25198], [-52.67874, -29.25084], [-52.67994, -29.24977], [-52.68015, -29.24889], [-52.68065, -29.24789], [-52.68056, -29.24736], [-52.68022, -29.24699], [-52.67975, -29.24689], [-52.67931, -29.24702], [-52.67845, -29.24781], [-52.67771, -29.24822], [-52.67724, -29.24826], [-52.67688, -29.2481], [-52.67653, -29.24777], [-52.67493, -29.24509], [-52.67419, -29.24359], [-52.67412, -29.24303], [-52.67431, -29.2419], [-52.67516, -29.24025], [-52.67541, -29.23947], [-52.67539, -29.23894], [-52.67497, -29.23802], [-52.67439, -29.2359], [-52.67441, -29.23497], [-52.67403, -29.23315], [-52.67261, -29.23392], [-52.67188, -29.23398], [-52.66999, -29.2346], [-52.66665, -29.2361], [-52.66525, -29.23229], [-52.662, -29.23186], [-52.66243, -29.22915], [-52.66144, -29.22794], [-52.65762, -29.22868], [-52.65652, -29.23182], [-52.65345, -29.23066], [-52.65071, -29.23185], [-52.6502, -29.23064], [-52.65067, -29.22863], [-52.64963, -29.22837], [-52.6457, -29.23149], [-52.64799, -29.23275], [-52.64771, -29.23358], [-52.6421, -29.23367], [-52.64038, -29.23469], [-52.63844, -29.23279], [-52.63515, -29.23171], [-52.63401, -29.22636], [-52.63066, -29.23068], [-52.63061, -29.23267], [-52.62922, -29.23039], [-52.62721, -29.22991], [-52.62742, -29.2284], [-52.61955, -29.23085], [-52.61854, -29.23252], [-52.61495, -29.2314], [-52.61499, -29.23033], [-52.61656, -29.22979], [-52.61578, -29.22822], [-52.61027, -29.22776], [-52.60824, -29.2252], [-52.60973, -29.2253], [-52.60917, -29.2223], [-52.60467, -29.21876], [-52.6036, -29.21618], [-52.5998, -29.21592], [-52.59845, -29.21426], [-52.59564, -29.21586], [-52.5926, -29.21582], [-52.5891, -29.21755], [-52.58646, -29.21762], [-52.59154, -29.22339], [-52.5913, -29.2246], [-52.58011, -29.22829]]]}}, 
{"type": "Feature", "properties": {"CD_SETOR": "430915905000010", "CD_SIT": "8", "NM_DIST": "Gramado Xavier", "NM_SUBDIST": null}, "geometry": {"type": "Polygon", "coordinates": [[[-52.58072, -29.26588], [-52.58115, -29.26934], [-52.58079, -29.26947], [-52.58089, -29.27128], [-52.5797, -29.27232], [-52.57845, -29.27295], [-52.57751, -29.27384], [-52.57706, -29.27373], [-52.57556, -29.27583], [-52.57397, -29.27888], [-52.57387, -29.2796], [-52.57407, -29.28091], [-52.57389, -29.28213], [-52.57336, -29.28253], [-52.57193, -29.28277], [-52.57164, -29.283], [-52.57192, -29.28554], [-52.57184, -29.28602], [-52.57141, -29.28655], [-52.57135, -29.28688], [-52.57172, -29.28741], [-52.57286, -29.28756], [-52.57345, -29.28825], [-52.57349, -29.28856], [-52.57225, -29.29123], [-52.57187, -29.29313], [-52.57156, -29.29341], [-52.57047, -29.29388], [-52.57057, -29.29515], [-52.57075, -29.29559], [-52.57216, -29.29701], [-52.57251, -29.29792], [-52.57361, -29.29929], [-52.57514, -29.30043], [-52.57581, -29.30121], [-52.57893, -29.30186], [-52.57971, -29.30244], [-52.58034, -29.30326], [-52.58058, -29.30276], [-52.58074, -29.30161], [-52.58147, -29.3009], [-52.58216, -29.29959], [-52.58235, -29.29821], [-52.58348, -29.29788], [-52.58518, -29.29776], [-52.58596, -29.29715], [-52.58737, -29.29638], [-52.58793, -29.29639], [-52.59043, -29.29818], [-52.59088, -29.29897], [-52.59188, -29.29975], [-52.592, -29.29919], [-52.59091, -29.29781], [-52.59082, -29.29739], [-52.59046, -29.2969], [-52.5908, -29.29623], [-52.58988, -29.29638], [-52.58915, -29.29607], [-52.5887, -29.29565], [-52.58923, -29.29537], [-52.5893, -29.29519], [-52.58902, -29.29504], [-52.58911, -29.29482], [-52.59015, -29.2949], [-52.59109, -29.29423], [-52.5909, -29.29413], [-52.59006, -29.29456], [-52.58941, -29.29449], [-52.58899, -29.29372], [-52.58824, -29.29325], [-52.58805, -29.29231], [-52.58828, -29.29131], [-52.58982, -29.2908], [-52.58983, -29.29039], [-52.59062, -29.28921], [-52.59064, -29.28717], [-52.59046, -29.28682], [-52.58874, -29.28579], [-52.58866, -29.28558], [-52.58921, -29.28451], [-52.58863, -29.28195], [-52.5891, -29.27975], [-52.58833, -29.27907], [-52.58833, -29.27845], [-52.58886, -29.27684], [-52.58958, -29.27595], [-52.58914, -29.27481], [-52.58914, -29.27443], [-52.59006, -29.27334], [-52.59109, -29.26921], [-52.59098, -29.26807], [-52.59048, -29.2674], [-52.59014, -29.26529], [-52.58951, -29.26421], [-52.58945, -29.26375], [-52.5909, -29.261], [-52.58921, -29.26132], [-52.58678, -29.26121], [-52.58587, -29.26144], [-52.58506, -29.26194], [-52.58404, -29.26316], [-52.58242, -29.26346], [-52.58177, -29.2648], [-52.58072, -29.26588]]]}}]}