{"type": "FeatureCollection", "features": [
{"type": "Feature", "properties": {"CD_SETOR": "431010805000001", "CD_SIT": "1", "NM_DIST": "Igrejinha", "NM_SUBDIST": null}, "geometry": {"type": "Polygon", "coordinates": [[[-50.79789, -29.5692], [-50.79844, -29.57023], [-50.79821, -29.57144], [-50.79755, -29.57248], [-50.79759, -29.57286], [-50.7974, -29.57331], [-50.79641, -29.57355], [-50.79635, -29.57492], [-50.79701, -29.5749], [-50.79701, -29.57529], [-50.80091, -29.57452], [-50.79931, -29.56909], [-50.79789, -29.5692]]]}}, 
{"type": "Feature", "properties": {"CD_SETOR": "431010805000002", "CD_SIT": "1", "NM_DIST": "Igrejinha", "NM_SUBDIST": null}, "geometry": {"type": "Polygon", "coordinates": [[[-50.79368, -29.56503], [-50.79298, -29.56653], [-50.79294, -29.56955], [-50.79307, -29.56994], [-50.79337, -29.56977], [-50.79399, -29.57007], [-50.79624, -29.56976], [-50.79789, -29.5692], [-50.79694, -29.56778], [-50.79619, -29.56613], [-50.79613, -29.56469], [-50.79451, -29.56514], [-50.79391, -29.56493], [-50.79368, -29.56503]]]}}, 
{"type": "Feature", "properties": {"CD_SETOR": "431010805000003", "CD_SIT": "1", "NM_DIST": "Igrejinha", "NM_SUBDIST": null}, "geometry": {"type": "Polygon", "coordinates": [[[-50.79009, -29.56643], [-50.78927, -29.56821], [-50.78892, -29.56996], [-50.78863, -29.57063], [-50.78782, -29.57163], [-50.78599, -29.57267], [-50.78629, -29.57307], [-50.79149, -29.57261], [-50.79124, -29.5705], [-50.79216, -29.57046], [-50.79307, -29.56994], [-50.79293, -29.56913], [-50.79304, -29.56763], [-50.79271, -29.56766], [-50.79267, -29.56751], [-50.7927, -29.56625], [-50.79009, -29.56643]]]}}, 
{"type": "Feature", "properties": {"CD_SETOR": "431010805000004", "CD_SIT": "1", "NM_DIST": "Igrejinha", "NM_SUBDIST": null}, "geometry": {"type": "Polygon", "coordinates": [[[-50.79149, -29.57261], [-50.79175, -29.57511], [-50.79635, -29.57492], [-50.79637, -29.57314], [-50.79613, -29.5728], [-50.79422, -29.57151], [-50.79307, -29.56994], [-50.79216, -29.57046], [-50.79124, -29.5705], [-50.79149, -29.57261]]]}}, 
{"type": "Feature", "properties": {"CD_SETOR": "431010805000005", "CD_SIT": "1", "NM_DIST": "Igrejinha", "NM_SUBDIST": null}, "geometry": {"type": "Polygon", "coordinates": [[[-50.78599, -29.57267], [-50.78549, -29.57316], [-50.78472, -29.57443], [-50.78473, -29.5749], [-50.78522, -29.57601], [-50.78561, -29.57577], [-50.78762, -29.57525], [-50.78968, -29.57505], [-50.79175, -29.57511], [-50.79149, -29.57261], [-50.78629, -29.57307], [-50.78599, -29.57267]]]}}, 
{"type": "Feature", "properties": {"CD_SETOR": "431010805000006", "CD_SIT": "1", "NM_DIST": "Igrejinha", "NM_SUBDIST": null}, "geometry": {"type": "Polygon", "coordinates": [[[-50.79175, -29.57511], [-50.78968, -29.57505], [-50.78762, -29.57525], [-50.78537, -29.57585], [-50.78532, -29.57604], [-50.78569, -29.57672], [-50.78631, -29.5771], [-50.79142, -29.57741], [-50.79354, -29.5786], [-50.79618, -29.57939], [-50.79683, -29.5798], [-50.7975, -29.58048], [-50.79825, -29.5818], [-50.79988, -29.58164], [-50.80037, -29.58134], [-50.79958, -29.58094], [-50.7979, -29.57971], [-50.79782, -29.57948], [-50.79808, -29.5786], [-50.79797, -29.57827], [-50.79749, -29.57761], [-50.79656, -29.57735], [-50.79622, -29.5771], [-50.79615, -29.5766], [-50.79635, -29.57492], [-50.79175, -29.57511]]]}}, 
{"type": "Feature", "properties": {"CD_SETOR": "431010805000008", "CD_SIT": "1", "NM_DIST": "Igrejinha", "NM_SUBDIST": null}, "geometry": {"type": "Polygon", "coordinates": [[[-50.80319, -29.57407], [-50.80166, -29.57437], [-50.80244, -29.57709], [-50.80416, -29.57669], [-50.80466, -29.57875], [-50.80738, -29.57822], [-50.80709, -29.5754], [-50.80751, -29.57313], [-50.80319, -29.57407]]]}}, 
{"type": "Feature", "properties": {"CD_SETOR": "431010805000009", "CD_SIT": "1", "NM_DIST": "Igrejinha", "NM_SUBDIST": null}, "geometry": {"type": "Polygon", "coordinates": [[[-50.80116, -29.56964], [-50.79931, -29.56909], [-50.80091, -29.57452], [-50.80319, -29.57407], [-50.80295, -29.57319], [-50.80754, -29.57225], [-50.80748, -29.57108], [-50.80711, -29.56947], [-50.8089, -29.5688], [-50.80119, -29.56977], [-50.80116, -29.56964]]]}}, 
{"type": "Feature", "properties": {"CD_SETOR": "431010805000010", "CD_SIT": "1", "NM_DIST": "Igrejinha", "NM_SUBDIST": null}, "geometry": {"type": "Polygon", "coordinates": [[[-50.80506, -29.56357], [-50.80343, -29.56506], [-50.80261, -29.56517], [-50.80156, -29.565], [-50.80123, -29.56524], [-50.80037, -29.56533], [-50.80011, -29.56548], [-50.80004, -29.5658], [-50.79899, -29.56621], [-50.7981, -29.56614], [-50.79745, -29.56524], [-50.79693, -29.56498], [-50.7962, -29.56504], [-50.79619, -29.56613], [-50.79694, -29.56778], [-50.79782, -29.56771], [-50.79939, -29.56904], [-50.80116, -29.56964], [-50.80252, -29.56845], [-50.80333, -29.56804], [-50.80457, -29.56789], [-50.80487, -29.5676], [-50.80502, -29.56709], [-50.8049, -29.56668], [-50.80499, -29.56628], [-50.80584, -29.5657], [-50.80581, -29.5651], [-50.80629, -29.56458], [-50.8062, -29.56349], [-50.80506, -29.56357]]]}}, 
{"type": "Feature", "properties": {"CD_SETOR": "431010805000011", "CD_SIT": "1", "NM_DIST": "Igrejinha", "NM_SUBDIST": null}, "geometry": {"type": "Polygon", "coordinates": [[[-50.79507, -29.56164], [-50.79499, -29.56184], [-50.79614, -29.56431], [-50.7962, -29.56504], [-50.80292, -29.56446], [-50.80284, -29.56375], [-50.80506, -29.56357], [-50.80584, -29.56235], [-50.8059, -29.56191], [-50.8057, -29.56114], [-50.80355, -29.56129], [-50.80265, -29.56098], [-50.80174, -29.56142], [-50.79959, -29.56161], [-50.79716, -29.5618], [-50.79632, -29.5614], [-50.79507, -29.56164]]]}}, 
{"type": "Feature", "properties": {"CD_SETOR": "431010805000013", "CD_SIT": "1", "NM_DIST": "Igrejinha", "NM_SUBDIST": null}, "geometry": {"type": "Polygon", "coordinates": [[[-50.77055, -29.54008], [-50.77085, -29.54286], [-50.77116, -29.54363], [-50.7717, -29.54436], [-50.77226, -29.54481], [-50.77306, -29.54516], [-50.77668, -29.5461], [-50.77662, -29.54488], [-50.77499, -29.54451], [-50.77229, -29.54435], [-50.77227, -29.54373], [-50.77251, -29.54343], [-50.77394, -29.54256], [-50.77449, -29.54204], [-50.77443, -29.54103], [-50.77422, -29.54073], [-50.77156, -29.53999], [-50.77055, -29.54008]]]}}, 
{"type": "Feature", "properties": {"CD_SETOR": "431010805000014", "CD_SIT": "1", "NM_DIST": "Igrejinha", "NM_SUBDIST": null}, "geometry": {"type": "Polygon", "coordinates": [[[-50.76916, -29.54273], [-50.76939, -29.54371], [-50.77037, -29.54516], [-50.77156, -29.54601], [-50.77284, -29.54656], [-50.77318, -29.54933], [-50.78058, -29.54876], [-50.78004, -29.54766], [-50.77901, -29.5468], [-50.77306, -29.54516], [-50.772, -29.54463], [-50.77133, -29.54391], [-50.77095, -29.54322], [-50.77058, -29.54117], [-50.77055, -29.54008], [-50.77033, -29.54012], [-50.76902, -29.53954], [-50.76882, -29.54008], [-50.76916, -29.54273]]]}}, 
{"type": "Feature", "properties": {"CD_SETOR": "431010805000015", "CD_SIT": "1", "NM_DIST": "Igrejinha", "NM_SUBDIST": null}, "geometry": {"type": "Polygon", "coordinates": [[[-50.7791, -29.57368], [-50.77939, -29.57633], [-50.77668, -29.57665], [-50.77682, -29.57753], [-50.78012, -29.57724], [-50.78221, -29.57589], [-50.78501, -29.57562], [-50.78473, -29.5749], [-50.78472, -29.57443], [-50.78581, -29.57251], [-50.78568, -29.5724], [-50.78501, -29.57305], [-50.7832, -29.57335], [-50.7791, -29.57368]]]}}, 
{"type": "Feature", "properties": {"CD_SETOR": "431010805000016", "CD_SIT": "1", "NM_DIST": "Igrejinha", "NM_SUBDIST": null}, "geometry": {"type": "Polygon", "coordinates": [[[-50.77977, -29.57938], [-50.79028, -29.57917], [-50.7905, -29.58034], [-50.79683, -29.5798], [-50.7956, -29.57915], [-50.79354, -29.5786], [-50.79142, -29.57741], [-50.78789, -29.57721], [-50.78785, -29.57742], [-50.78694, -29.57738], [-50.77956, -29.57802], [-50.77977, -29.57938]]]}}, 
{"type": "Feature", "properties": {"CD_SETOR": "431010805000017", "CD_SIT": "1", "NM_DIST": "Igrejinha", "NM_SUBDIST": null}, "geometry": {"type": "Polygon", "coordinates": [[[-50.79869, -29.58374], [-50.79932, -29.58636], [-50.8016, -29.59018], [-50.80206, -29.59067], [-50.80293, -29.5912], [-50.80304, -29.5911], [-50.80309, -29.59094], [-50.80214, -29.58933], [-50.80063, -29.58777], [-50.8032, -29.5875], [-50.80377, -29.58884], [-50.80629, -29.5886], [-50.80208, -29.58351], [-50.80038, -29.58202], [-50.80048, -29.58163], [-50.80002, -29.58174], [-50.79987, -29.58362], [-50.79869, -29.58374]]]}}, 
{"type": "Feature", "properties": {"CD_SETOR": "431010805000019", "CD_SIT": "1", "NM_DIST": "Igrejinha", "NM_SUBDIST": null}, "geometry": {"type": "Polygon", "coordinates": [[[-50.80227, -29.58116], [-50.80237, -29.58189], [-50.8059, -29.58284], [-50.80756, -29.58467], [-50.80875, -29.58529], [-50.80978, -29.58644], [-50.8117, -29.58742], [-50.81206, -29.58782], [-50.81231, -29.58903], [-50.81219, -29.59003], [-50.81135, -29.59182], [-50.81058, -29.59255], [-50.81028, -29.59306], [-50.81046, -29.59357], [-50.81117, -29.59453], [-50.81215, -29.59417], [-50.81212, -29.59368], [-50.81292, -29.59054], [-50.81296, -29.58934], [-50.81475, -29.58847], [-50.81489, -29.58828], [-50.81478, -29.58797], [-50.81423, -29.58766], [-50.81287, -29.5874], [-50.81132, -29.58653], [-50.81107, -29.58621], [-50.81088, -29.58521], [-50.81049, -29.58477], [-50.80825, -29.58458], [-50.80788, -29.58426], [-50.8076, -29.58312], [-50.80632, -29.58051], [-50.80583, -29.58033], [-50.80519, -29.58038], [-50.80227, -29.58116]]]}}, 
{"type": "Feature", "properties": {"CD_SETOR": "431010805000021", "CD_SIT": "1", "NM_DIST": "Igrejinha", "NM_SUBDIST": null}, "geometry": {"type": "Polygon", "coordinates": [[[-50.81206, -29.56795], [-50.81202, -29.56864], [-50.81148, -29.56924], [-50.81053, -29.56982], [-50.80884, -29.56994], [-50.80853, -29.57009], [-50.8085, -29.57056], [-50.80801, -29.5708], [-50.80804, -29.57151], [-50.80777, -29.57228], [-50.80754, -29.57243], [-50.80709, -29.5754], [-50.80735, -29.57716], [-50.80734, -29.57925], [-50.81208, -29.57824], [-50.81315, -29.57175], [-50.81401, -29.56936], [-50.81476, -29.56789], [-50.81388, -29.56798], [-50.81286, -29.5678], [-50.81206, -29.56795]]]}}, 
{"type": "Feature", "properties": {"CD_SETOR": "431010805000022", "CD_SIT": "1", "NM_DIST": "Igrejinha", "NM_SUBDIST": null}, "geometry": {"type": "Polygon", "coordinates": [[[-50.80668, -29.56477], [-50.8062, -29.56542], [-50.80499, -29.56628], [-50.80498, -29.56735], [-50.80469, -29.56782], [-50.80393, -29.56805], [-50.80333, -29.56804], [-50.80252, -29.56845], [-50.80116, -29.56964], [-50.80119, -29.56977], [-50.80824, -29.56883], [-50.81064, -29.56882], [-50.81146, -29.5684], [-50.8118, -29.56799], [-50.81286, -29.5678], [-50.81388, -29.56798], [-50.81476, -29.56789], [-50.81758, -29.56524], [-50.81848, -29.56393], [-50.80668, -29.56477]]]}}, 
{"type": "Feature", "properties": {"CD_SETOR": "431010805000023", "CD_SIT": "1", "NM_DIST": "Igrejinha", "NM_SUBDIST": null}, "geometry": {"type": "Polygon", "coordinates": [[[-50.82122, -29.55387], [-50.81247, -29.55465], [-50.81187, -29.55548], [-50.81158, -29.55557], [-50.80978, -29.55717], [-50.80931, -29.55774], [-50.80929, -29.55822], [-50.80895, -29.55852], [-50.80773, -29.55864], [-50.80705, -29.55919], [-50.81588, -29.55859], [-50.81155, -29.5624], [-50.80946, -29.56335], [-50.80844, -29.56366], [-50.80804, -29.56443], [-50.80668, -29.56477], [-50.81848, -29.56393], [-50.81854, -29.5632], [-50.82126, -29.55975], [-50.82386, -29.55698], [-50.8238, -29.55364], [-50.82122, -29.55387]]]}}, 
{"type": "Feature", "properties": {"CD_SETOR": "431010805000024", "CD_SIT": "1", "NM_DIST": "Igrejinha", "NM_SUBDIST": null}, "geometry": {"type": "Polygon", "coordinates": [[[-50.80705, -29.55919], [-50.80579, -29.55957], [-50.80547, -29.55999], [-50.8057, -29.56114], [-50.81334, -29.56051], [-50.81386, -29.56034], [-50.81588, -29.55859], [-50.80705, -29.55919]]]}}, 
{"type": "Feature", "properties": {"CD_SETOR": "431010805000025", "CD_SIT": "1", "NM_DIST": "Igrejinha", "NM_SUBDIST": null}, "geometry": {"type": "Polygon", "coordinates": [[[-50.79538, -29.5489], [-50.7875, -29.54921], [-50.78511, -29.54949], [-50.79024, -29.55475], [-50.79218, -29.5574], [-50.79499, -29.56184], [-50.79626, -29.55918], [-50.7963, -29.55873], [-50.796, -29.55815], [-50.79752, -29.55806], [-50.79689, -29.55621], [-50.79623, -29.5552], [-50.79582, -29.55266], [-50.79581, -29.55227], [-50.79749, -29.55212], [-50.79707, -29.54878], [-50.79538, -29.5489]]]}}, 
{"type": "Feature", "properties": {"CD_SETOR": "431010805000026", "CD_SIT": "1", "NM_DIST": "Igrejinha", "NM_SUBDIST": null}, "geometry": {"type": "Polygon", "coordinates": [[[-50.7851, -29.55435], [-50.78844, -29.55695], [-50.79167, -29.55666], [-50.78945, -29.55395], [-50.7851, -29.55435]]]}}, 
{"type": "Feature", "properties": {"CD_SETOR": "431010805000027", "CD_SIT": "2", "NM_DIST": "Igrejinha", "NM_SUBDIST": null}, "geometry": {"type": "Polygon", "coordinates": [[[-50.78058, -29.54046], [-50.78532, -29.5401], [-50.78527, -29.53962], [-50.78318, -29.53972], [-50.78059, -29.53623], [-50.78062, -29.53589], [-50.78121, -29.5355], [-50.78037, -29.53553], [-50.77832, -29.53491], [-50.77786, -29.53571], [-50.77777, -29.53612], [-50.77791, -29.53651], [-50.78058, -29.54046]]]}}, 
{"type": "Feature", "properties": {"CD_SETOR": "431010805000029", "CD_SIT": "1", "NM_DIST": "Igrejinha", "NM_SUBDIST": null}, "geometry": {"type": "Polygon", "coordinates": [[[-50.77466, -29.57397], [-50.77323, -29.57428], [-50.77382, -29.5796], [-50.77682, -29.57753], [-50.77668, -29.57665], [-50.77939, -29.57633], [-50.7791, -29.57368], [-50.77466, -29.57397]]]}}, 
{"type": "Feature", "properties": {"CD_SETOR": "431010805000030", "CD_SIT": "1", "NM_DIST": "Igrejinha", "NM_SUBDIST": null}, "geometry": {"type": "Polygon", "coordinates": [[[-50.75516, -29.57338], [-50.76103, -29.58926], [-50.76588, -29.58593], [-50.76998, -29.58173], [-50.76902, -29.58136], [-50.76896, -29.58061], [-50.77167, -29.57723], [-50.77351, -29.57684], [-50.77323, -29.57428], [-50.77466, -29.57397], [-50.77468, -29.57207], [-50.75516, -29.57338]]]}}, 
{"type": "Feature", "properties": {"CD_SETOR": "431010805000033", "CD_SIT": "2", "NM_DIST": "Igrejinha", "NM_SUBDIST": null}, "geometry": {"type": "Polygon", "coordinates": [[[-50.81412, -29.59792], [-50.81422, -29.59807], [-50.81305, -29.59835], [-50.80465, -29.59899], [-50.80361, -29.61641], [-50.80571, -29.61698], [-50.80585, -29.61639], [-50.80638, -29.61602], [-50.80832, -29.61627], [-50.80922, -29.61572], [-50.80973, -29.61495], [-50.81054, -29.61294], [-50.81052, -29.6118], [-50.8101, -29.61047], [-50.81115, -29.60907], [-50.81096, -29.60846], [-50.80998, -29.60697], [-50.80988, -29.6065], [-50.81015, -29.60624], [-50.81242, -29.60574], [-50.81343, -29.60507], [-50.8145, -29.60057], [-50.81523, -29.59889], [-50.81581, -29.59844], [-50.81499, -29.59789], [-50.81412, -29.59792]]]}}, 
{"type": "Feature", "properties": {"CD_SETOR": "431010805000034", "CD_SIT": "1", "NM_DIST": "Igrejinha", "NM_SUBDIST": null}, "geometry": {"type": "Polygon", "coordinates": [[[-50.80293, -29.5912], [-50.80453, -29.59198], [-50.80525, -29.5926], [-50.80553, -29.59306], [-50.80572, -29.59387], [-50.80532, -29.59559], [-50.80685, -29.595], [-50.80825, -29.59484], [-50.80868, -29.59273], [-50.80871, -29.59161], [-50.80629, -29.5886], [-50.80377, -29.58884], [-50.8032, -29.5875], [-50.80063, -29.58777], [-50.80214, -29.58933], [-50.80309, -29.59094], [-50.80293, -29.5912]]]}}, 
{"type": "Feature", "properties": {"CD_SETOR": "431010805000035", "CD_SIT": "1", "NM_DIST": "Igrejinha", "NM_SUBDIST": null}, "geometry": {"type": "Polygon", "coordinates": [[[-50.80743, -29.59002], [-50.8085, -29.59128], [-50.80878, -29.592], [-50.80825, -29.59484], [-50.81117, -29.59453], [-50.81046, -29.59357], [-50.81028, -29.59306], [-50.81161, -29.59138], [-50.81219, -29.59003], [-50.81231, -29.58903], [-50.80975, -29.58923], [-50.80984, -29.58984], [-50.80743, -29.59002]]]}}, 
{"type": "Feature", "properties": {"CD_SETOR": "431010805000036", "CD_SIT": "2", "NM_DIST": "Igrejinha", "NM_SUBDIST": null}, "geometry": {"type": "Polygon", "coordinates": [[[-50.78828, -29.53538], [-50.78642, -29.53529], [-50.78121, -29.5355], [-50.78062, -29.53589], [-50.78059, -29.53623], [-50.78318, -29.53972], [-50.78527, -29.53962], [-50.78645, -29.54729], [-50.7875, -29.54921], [-50.79538, -29.5489], [-50.79588, -29.54766], [-50.79682, -29.54683], [-50.79681, -29.53246], [-50.79039, -29.53488], [-50.78828, -29.53538]]]}}, 
{"type": "Feature", "properties": {"CD_SETOR": "431010805000037", "CD_SIT": "2", "NM_DIST": "Igrejinha", "NM_SUBDIST": null}, "geometry": {"type": "Polygon", "coordinates": [[[-50.76499, -29.53926], [-50.76442, -29.53981], [-50.76518, -29.54006], [-50.76523, -29.5402], [-50.76505, -29.54055], [-50.76473, -29.54068], [-50.76413, -29.54073], [-50.76389, -29.5406], [-50.76383, -29.54091], [-50.76443, -29.54114], [-50.7646, -29.5414], [-50.76432, -29.54172], [-50.76407, -29.5417], [-50.76391, -29.54201], [-50.76319, -29.542], [-50.76235, -29.54234], [-50.76217, -29.54207], [-50.76151, -29.54209], [-50.76079, -29.54268], [-50.75924, -29.54312], [-50.7589, -29.54361], [-50.75798, -29.54368], [-50.75734, -29.54392], [-50.75702, -29.54367], [-50.75668, -29.54404], [-50.75668, -29.54495], [-50.75899, -29.54468], [-50.75928, -29.54419], [-50.75948, -29.54334], [-50.75989, -29.54314], [-50.76602, -29.54268], [-50.7669, -29.54267], [-50.76743, -29.5429], [-50.76916, -29.54273], [-50.76882, -29.54008], [-50.76902, -29.53954], [-50.76847, -29.53882], [-50.767, -29.53925], [-50.76499, -29.53926]]]}}, 
{"type": "Feature", "properties": {"CD_SETOR": "431010805000042", "CD_SIT": "2", "NM_DIST": "Igrejinha", "NM_SUBDIST": null}, "geometry": {"type": "Polygon", "coordinates": [[[-50.79752, -29.55806], [-50.79786, -29.55868], [-50.79788, -29.55923], [-50.79766, -29.55982], [-50.80579, -29.55957], [-50.80705, -29.55919], [-50.80773, -29.55864], [-50.80895, -29.55852], [-50.80929, -29.55822], [-50.80931, -29.55774], [-50.80978, -29.55717], [-50.81158, -29.55557], [-50.81187, -29.55548], [-50.81247, -29.55465], [-50.798, -29.55578], [-50.79749, -29.55212], [-50.79581, -29.55227], [-50.79623, -29.5552], [-50.79689, -29.55621], [-50.79752, -29.55806]]]}}, 
{"type": "Feature", "properties": {"CD_SETOR": "431010805000044", "CD_SIT": "2", "NM_DIST": "Igrejinha", "NM_SUBDIST": null}, "geometry": {"type": "Polygon", "coordinates": [[[-50.79538, -29.5489], [-50.79707, -29.54878], [-50.79682, -29.54683], [-50.79588, -29.54766], [-50.79538, -29.5489]]]}}, 
{"type": "Feature", "properties": {"CD_SETOR": "431010805000045", "CD_SIT": "8", "NM_DIST": "Igrejinha", "NM_SUBDIST": null}, "geometry": {"type": "Polygon", "coordinates": [[[-50.75668, -29.54495], [-50.75129, -29.5454], [-50.75053, -29.5461], [-50.74954, -29.54661], [-50.7493, -29.54695], [-50.74933, -29.55008], [-50.74887, -29.55149], [-50.74897, -29.55211], [-50.74927, -29.55268], [-50.74916, -29.55363], [-50.74932, -29.55385], [-50.75057, -29.55444], [-50.75193, -29.55559], [-50.7524, -29.55651], [-50.75161, -29.55669], [-50.75035, -29.55603], [-50.74996, -29.55566], [-50.74951, -29.5557], [-50.74916, -29.5561], [-50.74846, -29.55651], [-50.74838, -29.5573], [-50.74708, -29.55915], [-50.74583, -29.56042], [-50.7458, -29.56084], [-50.74614, -29.56146], [-50.74712, -29.56507], [-50.74813, -29.56317], [-50.74854, -29.56164], [-50.74913, -29.56098], [-50.74983, -29.56183], [-50.75031, -29.5634], [-50.75078, -29.56395], [-50.75249, -29.56446], [-50.75454, -29.5658], [-50.75468, -29.56631], [-50.75464, -29.56846], [-50.75495, -29.56995], [-50.75516, -29.57338], [-50.77468, -29.57207], [-50.77428, -29.56418], [-50.77318, -29.54933], [-50.77284, -29.54656], [-50.77156, -29.54601], [-50.77037, -29.54516], [-50.76939, -29.54371], [-50.76916, -29.54273], [-50.76743, -29.5429], [-50.7669, -29.54267], [-50.76602, -29.54268], [-50.75989, -29.54314], [-50.75948, -29.54334], [-50.75928, -29.54419], [-50.75899, -29.54468], [-50.75668, -29.54495]]]}}, 
{"type": "Feature", "properties": {"CD_SETOR": "431010805000046", "CD_SIT": "8", "NM_DIST": "Igrejinha", "NM_SUBDIST": null}, "geometry": {"type": "Polygon", "coordinates": [[[-50.74978, -29.57391], [-50.75516, -29.57338], [-50.75516, -29.57266], [-50.75495, -29.56995], [-50.75464, -29.56846], [-50.75468, -29.56631], [-50.75454, -29.5658], [-50.75249, -29.56446], [-50.75078, -29.56395], [-50.75031, -29.5634], [-50.74983, -29.56183], [-50.74913, -29.56098], [-50.74854, -29.56164], [-50.74813, -29.56317], [-50.74712, -29.56507], [-50.74614, -29.56146], [-50.7458, -29.56084], [-50.74598, -29.56018], [-50.74708, -29.55915], [-50.74845, -29.55718], [-50.74839, -29.55661], [-50.74951, -29.5557], [-50.74996, -29.55566], [-50.75035, -29.55603], [-50.75161, -29.55669], [-50.7524, -29.55651], [-50.75193, -29.55559], [-50.75057, -29.55444], [-50.74932, -29.55385], [-50.74916, -29.55363], [-50.74927, -29.55268], [-50.74897, -29.55211], [-50.74887, -29.55149], [-50.74933, -29.55008], [-50.7493, -29.54695], [-50.74954, -29.54661], [-50.75053, -29.5461], [-50.75129, -29.5454], [-50.75668, -29.54495], [-50.75668, -29.54404], [-50.75702, -29.54367], [-50.75734, -29.54392], [-50.75798, -29.54368], [-50.7589, -29.54361], [-50.75924, -29.54312], [-50.76079, -29.54268], [-50.76151, -29.54209], [-50.76217, -29.54207], [-50.76235, -29.54234], [-50.76319, -29.542], [-50.76391, -29.54201], [-50.76407, -29.5417], [-50.76432, -29.54172], [-50.7646, -29.5414], [-50.76443, -29.54114], [-50.76383, -29.54091], [-50.76389, -29.5406], [-50.76413, -29.54073], [-50.76473, -29.54068], [-50.76505, -29.54055], [-50.76523, -29.5402], [-50.76518, -29.54006], [-50.76442, -29.53981], [-50.76499, -29.53926], [-50.75825, -29.53815], [-50.75254, -29.53697], [-50.74612, -29.53709], [-50.74163, -29.53535], [-50.73292, -29.5292], [-50.7309, -29.52952], [-50.73071, -29.52978], [-50.73156, -29.53041], [-50.73212, -29.53111], [-50.73289, -29.53264], [-50.7334, -29.53447], [-50.73338, -29.53543], [-50.73281, -29.53696], [-50.73157, -29.53827], [-50.73033, -29.53895], [-50.72865, -29.542], [-50.72858, -29.54297], [-50.72886, -29.54382], [-50.72972, -29.54499], [-50.7319, -29.54717], [-50.73211, -29.5484], [-50.73125, -29.55108], [-50.73135, -29.55269], [-50.73168, -29.55357], [-50.73277, -29.55504], [-50.73289, -29.55577], [-50.73274, -29.55942], [-50.73324, -29.56087], [-50.73478, -29.56222], [-50.73703, -29.56361], [-50.73845, -29.56548], [-50.73928, -29.56733], [-50.7397, -29.56981], [-50.74083, -29.5718], [-50.74123, -29.57185], [-50.74323, -29.57144], [-50.74442, -29.57147], [-50.74978, -29.57391]]]}}, 
{"type": "Feature", "properties": {"CD_SETOR": "431010805000047", "CD_SIT": "8", "NM_DIST": "Igrejinha", "NM_SUBDIST": null}, "geometry": {"type": "Polygon", "coordinates": [[[-50.71521, -29.51701], [-50.71339, -29.51794], [-50.71294, -29.51862], [-50.71281, -29.51984], [-50.71247, -29.52039], [-50.71133, -29.52095], [-50.71006, -29.52226], [-50.7094, -29.52364], [-50.70889, -29.52639], [-50.70778, -29.52793], [-50.7081, -29.52916], [-50.7076, -29.52976], [-50.70605, -29.53042], [-50.70569, -29.5309], [-50.70564, -29.53162], [-50.70624, -29.53359], [-50.7062, -29.53393], [-50.7054, -29.53519], [-50.70466, -29.53587], [-50.70452, -29.53625], [-50.70463, -29.53682], [-50.70448, -29.53842], [-50.70401, -29.53895], [-50.70341, -29.54027], [-50.70217, -29.54031], [-50.70201, -29.54045], [-50.70172, -29.54142], [-50.70123, -29.54195], [-50.70063, -29.54345], [-50.70076, -29.54478], [-50.70108, -29.54529], [-50.7011, -29.54697], [-50.70053, -29.5475], [-50.69968, -29.54753], [-50.69946, -29.54775], [-50.69931, -29.54838], [-50.6986, -29.5489], [-50.69831, -29.54948], [-50.69794, -29.54983], [-50.69628, -29.54996], [-50.6948, -29.55035], [-50.69462, -29.55052], [-50.69476, -29.55098], [-50.69544, -29.55131], [-50.69567, -29.55162], [-50.69576, -29.55201], [-50.69561, -29.55246], [-50.69534, -29.5527], [-50.69434, -29.55274], [-50.69361, -29.55323], [-50.69327, -29.55498], [-50.69325, -29.55627], [-50.6929, -29.5575], [-50.6921, -29.55855], [-50.69193, -29.55903], [-50.69208, -29.55953], [-50.69297, -29.56012], [-50.69311, -29.5607], [-50.69304, -29.56123], [-50.69148, -29.56349], [-50.69099, -29.56479], [-50.69105, -29.56656], [-50.69139, -29.56763], [-50.69231, -29.56889], [-50.69267, -29.56972], [-50.69584, -29.56935], [-50.69692, -29.56776], [-50.69708, -29.56701], [-50.6981, -29.56649], [-50.69855, -29.56599], [-50.70095, -29.56537], [-50.70258, -29.56445], [-50.70309, -29.5647], [-50.70429, -29.56466], [-50.70489, -29.56453], [-50.70597, -29.56397], [-50.70685, -29.56467], [-50.70697, -29.56328], [-50.70737, -29.56162], [-50.70768, -29.56111], [-50.70831, -29.56136], [-50.71033, -29.56137], [-50.71294, -29.56026], [-50.71545, -29.56035], [-50.71728, -29.55992], [-50.72013, -29.56017], [-50.72138, -29.56005], [-50.72159, -29.55975], [-50.7212, -29.5592], [-50.72129, -29.55911], [-50.72202, -29.55896], [-50.72301, -29.55838], [-50.72539, -29.55789], [-50.72899, -29.55741], [-50.72924, -29.55641], [-50.72906, -29.55551], [-50.72778, -29.55387], [-50.72712, -29.55261], [-50.72699, -29.55161], [-50.7275, -29.55105], [-50.72765, -29.55043], [-50.72755, -29.54728], [-50.72656, -29.54474], [-50.72435, -29.5425], [-50.72461, -29.54099], [-50.72507, -29.53981], [-50.72609, -29.53794], [-50.72665, -29.53706], [-50.72906, -29.53537], [-50.72924, -29.53473], [-50.72863, -29.53327], [-50.72792, -29.53211], [-50.72747, -29.53171], [-50.7256, -29.5308], [-50.72505, -29.52962], [-50.72504, -29.5289], [-50.72536, -29.52797], [-50.72661, -29.52717], [-50.72885, -29.52632], [-50.72559, -29.52401], [-50.71556, -29.51636], [-50.71521, -29.51701]]]}}, 
{"type": "Feature", "properties": {"CD_SETOR": "431010805000048", "CD_SIT": "8", "NM_DIST": "Igrejinha", "NM_SUBDIST": null}, "geometry": {"type": "Polygon", "coordinates": [[[-50.69386, -29.56957], [-50.69267, -29.56972], [-50.69282, -29.57069], [-50.69309, -29.57117], [-50.69294, -29.5718], [-50.69323, -29.57203], [-50.6939, -29.57178], [-50.69416, -29.57191], [-50.69422, -29.5721], [-50.69381, -29.5726], [-50.69389, -29.57304], [-50.69428, -29.5733], [-50.69504, -29.57331], [-50.69528, -29.57347], [-50.69597, -29.57492], [-50.69513, -29.57587], [-50.69494, -29.57718], [-50.69421, -29.57769], [-50.6945, -29.57841], [-50.6944, -29.57956], [-50.69356, -29.57968], [-50.69312, -29.58008], [-50.69332, -29.58053], [-50.69459, -29.58144], [-50.69469, -29.58206], [-50.69404, -29.58272], [-50.69236, -29.58305], [-50.69202, -29.58341], [-50.69223, -29.58427], [-50.69216, -29.58548], [-50.69261, -29.58724], [-50.69249, -29.58794], [-50.69188, -29.58907], [-50.69214, -29.58923], [-50.69296, -29.58929], [-50.6936, -29.59054], [-50.69404, -29.59115], [-50.69501, -29.592], [-50.69543, -29.59273], [-50.69637, -29.59232], [-50.69969, -29.59206], [-50.70215, -29.59164], [-50.70322, -29.59109], [-50.70575, -29.59064], [-50.70679, -29.5898], [-50.70801, -29.58953], [-50.70867, -29.58978], [-50.71977, -29.58953], [-50.72552, -29.58767], [-50.72978, -29.587], [-50.72973, -29.58592], [-50.73117, -29.58541], [-50.73286, -29.5851], [-50.73415, -29.58437], [-50.74492, -29.58328], [-50.7472, -29.5832], [-50.74622, -29.5801], [-50.74472, -29.57862], [-50.74314, -29.57797], [-50.74263, -29.57792], [-50.74066, -29.57868], [-50.73942, -29.57884], [-50.73735, -29.57808], [-50.73593, -29.57703], [-50.73488, -29.57594], [-50.73827, -29.57559], [-50.73564, -29.57213], [-50.73511, -29.57106], [-50.73438, -29.56794], [-50.73383, -29.56727], [-50.7324, -29.56417], [-50.73053, -29.56265], [-50.72905, -29.56081], [-50.72899, -29.55741], [-50.72539, -29.55789], [-50.72301, -29.55838], [-50.72202, -29.55896], [-50.72129, -29.55911], [-50.7212, -29.5592], [-50.72159, -29.55975], [-50.72138, -29.56005], [-50.72013, -29.56017], [-50.71728, -29.55992], [-50.71545, -29.56035], [-50.71294, -29.56026], [-50.71033, -29.56137], [-50.70831, -29.56136], [-50.70768, -29.56111], [-50.70737, -29.56162], [-50.70697, -29.56328], [-50.70685, -29.56467], [-50.70597, -29.56397], [-50.70489, -29.56453], [-50.70429, -29.56466], [-50.70309, -29.5647], [-50.70258, -29.56445], [-50.70095, -29.56537], [-50.69855, -29.56599], [-50.6981, -29.56649], [-50.69708, -29.56701], [-50.69692, -29.56776], [-50.69584, -29.56935], [-50.69386, -29.56957]]]}}, 
{"type": "Feature", "properties": {"CD_SETOR": "431010805000049", "CD_SIT": "8", "NM_DIST": "Igrejinha", "NM_SUBDIST": null}, "geometry": {"type": "Polygon", "coordinates": [[[-50.77977, -29.57938], [-50.77892, -29.57945], [-50.77899, -29.58144], [-50.77386, -29.58488], [-50.76968, -29.58897], [-50.76799, -29.59039], [-50.76576, -29.59167], [-50.76435, -29.59274], [-50.76272, -29.59353], [-50.76155, -29.59377], [-50.7598, -29.5938], [-50.75639, -29.59331], [-50.75611, -29.59417], [-50.75382, -29.59818], [-50.75531, -29.60003], [-50.75449, -29.60281], [-50.75478, -29.60354], [-50.75811, -29.60371], [-50.7603, -29.60475], [-50.77419, -29.60849], [-50.77487, -29.59655], [-50.77882, -29.5967], [-50.78078, -29.59617], [-50.78167, -29.59609], [-50.78369, -29.59687], [-50.78828, -29.5965], [-50.78993, -29.59739], [-50.79372, -29.59714], [-50.79535, -29.5969], [-50.79507, -29.5949], [-50.80073, -29.59444], [-50.79864, -29.59088], [-50.79776, -29.58872], [-50.79676, -29.58723], [-50.79568, -29.58469], [-50.79517, -29.58305], [-50.79402, -29.58105], [-50.79333, -29.58015], [-50.7905, -29.58034], [-50.79028, -29.57917], [-50.77977, -29.57938]]]}}, 
{"type": "Feature", "properties": {"CD_SETOR": "431010805000051", "CD_SIT": "8", "NM_DIST": "Igrejinha", "NM_SUBDIST": null}, "geometry": {"type": "Polygon", "coordinates": [[[-50.90648, -29.54586], [-50.90827, -29.54559], [-50.91006, -29.54561], [-50.91209, -29.54523], [-50.90815, -29.518], [-50.90808, -29.51628], [-50.90736, -29.51669], [-50.90621, -29.51685], [-50.90451, -29.51762], [-50.90375, -29.51759], [-50.90255, -29.51714], [-50.90092, -29.51686], [-50.89922, -29.51714], [-50.89892, -29.51734], [-50.89789, -29.51705], [-50.89751, -29.51703], [-50.89691, -29.51731], [-50.89644, -29.51719], [-50.89617, -29.51807], [-50.89573, -29.51837], [-50.89547, -29.5182], [-50.89479, -29.51833], [-50.89461, -29.51817], [-50.89419, -29.5182], [-50.8941, -29.51748], [-50.89343, -29.51632], [-50.89301, -29.516], [-50.89273, -29.51541], [-50.89147, -29.51448], [-50.89032, -29.51482], [-50.88891, -29.51472], [-50.88825, -29.51439], [-50.88743, -29.51429], [-50.88683, -29.51385], [-50.8864, -29.51374], [-50.8847, -29.51465], [-50.88414, -29.51512], [-50.88372, -29.51531], [-50.88321, -29.51531], [-50.88102, -29.51487], [-50.88005, -29.51376], [-50.87935, -29.51391], [-50.87893, -29.51447], [-50.87836, -29.51486], [-50.87829, -29.51512], [-50.87864, -29.51665], [-50.87854, -29.51751], [-50.87843, -29.51774], [-50.87763, -29.5182], [-50.87746, -29.51865], [-50.87786, -29.51947], [-50.8786, -29.51932], [-50.87926, -29.51948], [-50.87959, -29.51994], [-50.87967, -29.52039], [-50.8811, -29.52145], [-50.88122, -29.52184], [-50.88102, -29.52224], [-50.88054, -29.5224], [-50.88036, -29.52268], [-50.88071, -29.52363], [-50.88022, -29.52444], [-50.87997, -29.52549], [-50.87898, -29.52591], [-50.87862, -29.52632], [-50.87803, -29.52738], [-50.87801, -29.52818], [-50.87935, -29.52955], [-50.87979, -29.53031], [-50.87986, -29.53089], [-50.87952, -29.53121], [-50.87927, -29.53113], [-50.87952, -29.53169], [-50.88025, -29.53234], [-50.88155, -29.53297], [-50.88202, -29.53395], [-50.8825, -29.53426], [-50.88285, -29.53476], [-50.88309, -29.53553], [-50.88382, -29.53663], [-50.88517, -29.5374], [-50.88611, -29.53816], [-50.88699, -29.53944], [-50.88709, -29.53996], [-50.88742, -29.54023], [-50.88767, -29.54132], [-50.88757, -29.54239], [-50.88654, -29.54289], [-50.88733, -29.54326], [-50.88742, -29.54346], [-50.88731, -29.54729], [-50.88664, -29.54842], [-50.8851, -29.54892], [-50.8831, -29.54929], [-50.88117, -29.55008], [-50.88028, -29.55098], [-50.87861, -29.5536], [-50.87914, -29.55409], [-50.89509, -29.55345], [-50.90005, -29.55049], [-50.90015, -29.55], [-50.90035, -29.54983], [-50.90116, -29.54955], [-50.90173, -29.54901], [-50.90307, -29.54836], [-50.90402, -29.54764], [-50.90499, -29.54642], [-50.90648, -29.54586]]]}}, 
{"type": "Feature", "properties": {"CD_SETOR": "431010805000053", "CD_SIT": "8", "NM_DIST": "Igrejinha", "NM_SUBDIST": null}, "geometry": {"type": "Polygon", "coordinates": [[[-50.86039, -29.52516], [-50.81677, -29.52491], [-50.80514, -29.52931], [-50.80628, -29.52977], [-50.80723, -29.53114], [-50.80811, -29.5319], [-50.80918, -29.53325], [-50.80932, -29.53387], [-50.80876, -29.53391], [-50.80858, -29.53409], [-50.80853, -29.53485], [-50.80681, -29.53587], [-50.80623, -29.53647], [-50.80495, -29.53657], [-50.80419, -29.53771], [-50.80326, -29.54005], [-50.80193, -29.54056], [-50.80178, -29.54131], [-50.80151, -29.5417], [-50.80158, -29.54203], [-50.80293, -29.54365], [-50.80238, -29.5446], [-50.80138, -29.54506], [-50.80015, -29.54497], [-50.79836, -29.54584], [-50.79682, -29.54683], [-50.798, -29.55578], [-50.81247, -29.55465], [-50.81411, -29.55339], [-50.81483, -29.55325], [-50.81589, -29.55079], [-50.81629, -29.5504], [-50.81733, -29.54989], [-50.81822, -29.54855], [-50.81854, -29.54843], [-50.81942, -29.54862], [-50.81994, -29.54764], [-50.82049, -29.54768], [-50.82088, -29.54749], [-50.82111, -29.54712], [-50.82142, -29.54608], [-50.82228, -29.54456], [-50.82235, -29.54398], [-50.82326, -29.54321], [-50.82388, -29.53979], [-50.82437, -29.53813], [-50.82579, -29.53588], [-50.82614, -29.53597], [-50.82598, -29.53704], [-50.82608, -29.53808], [-50.82679, -29.53975], [-50.82679, -29.54069], [-50.82992, -29.5418], [-50.83161, -29.53928], [-50.83193, -29.53783], [-50.83221, -29.53538], [-50.83335, -29.53222], [-50.83359, -29.53188], [-50.83417, -29.53164], [-50.83553, -29.53191], [-50.83632, -29.53177], [-50.83564, -29.53017], [-50.83609, -29.52904], [-50.83569, -29.5268], [-50.83586, -29.52617], [-50.83618, -29.52583], [-50.84151, -29.52528], [-50.84394, -29.5254], [-50.84497, -29.52567], [-50.84819, -29.52608], [-50.85085, -29.52573], [-50.85292, -29.52654], [-50.85357, -29.52664], [-50.85705, -29.52629], [-50.85882, -29.52557], [-50.86175, -29.52591], [-50.86117, -29.5254], [-50.86039, -29.52516]]]}}, 
{"type": "Feature", "properties": {"CD_SETOR": "431010805000054", "CD_SIT": "8", "NM_DIST": "Igrejinha", "NM_SUBDIST": null}, "geometry": {"type": "Polygon", "coordinates": [[[-50.79681, -29.53246], [-50.79682, -29.54683], [-50.79836, -29.54584], [-50.80015, -29.54497], [-50.80138, -29.54506], [-50.80238, -29.5446], [-50.80293, -29.54365], [-50.80158, -29.54203], [-50.80151, -29.5417], [-50.80178, -29.54131], [-50.80193, -29.54056], [-50.80326, -29.54005], [-50.80419, -29.53771], [-50.80495, -29.53657], [-50.80623, -29.53647], [-50.80681, -29.53587], [-50.80853, -29.53485], [-50.80858, -29.53409], [-50.80876, -29.53391], [-50.80932, -29.53387], [-50.80918, -29.53325], [-50.80811, -29.5319], [-50.80723, -29.53114], [-50.80628, -29.52977], [-50.80514, -29.52931], [-50.79681, -29.53246]]]}}, 
{"type": "Feature", "properties": {"CD_SETOR": "431010805000055", "CD_SIT": "8", "NM_DIST": "Igrejinha", "NM_SUBDIST": null}, "geometry": {"type": "Polygon", "coordinates": [[[-50.82433, -29.57221], [-50.82437, -29.58018], [-50.82703, -29.57897], [-50.82936, -29.57845], [-50.83228, -29.57807], [-50.83615, -29.57786], [-50.83581, -29.57264], [-50.8365, -29.57202], [-50.83749, -29.57153], [-50.83811, -29.57043], [-50.83977, -29.5694], [-50.84017, -29.56826], [-50.84147, -29.56676], [-50.84169, -29.56539], [-50.84418, -29.56366], [-50.8356, -29.55766], [-50.83295, -29.55964], [-50.83231, -29.56049], [-50.83207, -29.56113], [-50.83207, -29.56195], [-50.83091, -29.56334], [-50.83076, -29.56396], [-50.82929, -29.56471], [-50.82882, -29.56576], [-50.82628, -29.56763], [-50.82645, -29.56899], [-50.82516, -29.57043], [-50.82433, -29.57221]]]}}, 
{"type": "Feature", "properties": {"CD_SETOR": "431010805000056", "CD_SIT": "8", "NM_DIST": "Igrejinha", "NM_SUBDIST": null}, "geometry": {"type": "Polygon", "coordinates": [[[-50.82122, -29.55387], [-50.82661, -29.55348], [-50.82853, -29.55156], [-50.83069, -29.54844], [-50.83277, -29.54661], [-50.83498, -29.54325], [-50.83005, -29.54184], [-50.8288, -29.54392], [-50.82739, -29.54551], [-50.82635, -29.54618], [-50.82604, -29.5468], [-50.8237, -29.54965], [-50.82303, -29.55097], [-50.82216, -29.55156], [-50.82122, -29.55387]]]}}, 
{"type": "Feature", "properties": {"CD_SETOR": "431010805000057", "CD_SIT": "1", "NM_DIST": "Igrejinha", "NM_SUBDIST": null}, "geometry": {"type": "Polygon", "coordinates": [[[-50.79307, -29.56994], [-50.79422, -29.57151], [-50.79613, -29.5728], [-50.79637, -29.57314], [-50.79641, -29.57355], [-50.7974, -29.57331], [-50.79759, -29.57286], [-50.79755, -29.57248], [-50.79821, -29.57144], [-50.79846, -29.5705], [-50.79789, -29.5692], [-50.79624, -29.56976], [-50.79399, -29.57007], [-50.79337, -29.56977], [-50.79307, -29.56994]]]}}, 
{"type": "Feature", "properties": {"CD_SETOR": "431010805000058", "CD_SIT": "1", "NM_DIST": "Igrejinha", "NM_SUBDIST": null}, "geometry": {"type": "Polygon", "coordinates": [[[-50.79694, -29.56778], [-50.79789, -29.5692], [-50.79939, -29.56904], [-50.79782, -29.56771], [-50.79694, -29.56778]]]}}, 
{"type": "Feature", "properties": {"CD_SETOR": "431010805000059", "CD_SIT": "1", "NM_DIST": "Igrejinha", "NM_SUBDIST": null}, "geometry": {"type": "Polygon", "coordinates": [[[-50.80037, -29.58134], [-50.79988, -29.58164], [-50.79825, -29.5818], [-50.79869, -29.58374], [-50.79987, -29.58362], [-50.80002, -29.58174], [-50.80016, -29.58165], [-50.80112, -29.58162], [-50.80237, -29.58189], [-50.80227, -29.58116], [-50.80037, -29.58134]]]}}, 
{"type": "Feature", "properties": {"CD_SETOR": "431010805000060", "CD_SIT": "1", "NM_DIST": "Igrejinha", "NM_SUBDIST": null}, "geometry": {"type": "Polygon", "coordinates": [[[-50.80319, -29.57407], [-50.80751, -29.57313], [-50.80754, -29.57225], [-50.80295, -29.57319], [-50.80319, -29.57407]]]}}, 
{"type": "Feature", "properties": {"CD_SETOR": "431010805000061", "CD_SIT": "1", "NM_DIST": "Igrejinha", "NM_SUBDIST": null}, "geometry": {"type": "Polygon", "coordinates": [[[-50.79693, -29.56498], [-50.79745, -29.56524], [-50.7981, -29.56614], [-50.79899, -29.56621], [-50.80004, -29.5658], [-50.80011, -29.56548], [-50.80037, -29.56533], [-50.80123, -29.56524], [-50.80156, -29.565], [-50.80261, -29.56517], [-50.80343, -29.56506], [-50.80506, -29.56357], [-50.80284, -29.56375], [-50.80292, -29.56446], [-50.79693, -29.56498]]]}}, 
{"type": "Feature", "properties": {"CD_SETOR": "431010805000062", "CD_SIT": "1", "NM_DIST": "Igrejinha", "NM_SUBDIST": null}, "geometry": {"type": "Polygon", "coordinates": [[[-50.8057, -29.56114], [-50.8059, -29.56191], [-50.80584, -29.56235], [-50.80506, -29.56357], [-50.8062, -29.56349], [-50.80629, -29.56458], [-50.80581, -29.5651], [-50.80584, -29.5657], [-50.80668, -29.56477], [-50.80804, -29.56443], [-50.80844, -29.56366], [-50.80946, -29.56335], [-50.81155, -29.5624], [-50.81386, -29.56034], [-50.81334, -29.56051], [-50.8057, -29.56114]]]}}, 
{"type": "Feature", "properties": {"CD_SETOR": "431010805000063", "CD_SIT": "1", "NM_DIST": "Igrejinha", "NM_SUBDIST": null}, "geometry": {"type": "Polygon", "coordinates": [[[-50.77662, -29.54488], [-50.77668, -29.5461], [-50.77901, -29.5468], [-50.7798, -29.5474], [-50.78023, -29.54795], [-50.78058, -29.54876], [-50.78248, -29.55544], [-50.78381, -29.55761], [-50.78944, -29.56314], [-50.79012, -29.56423], [-50.79037, -29.56518], [-50.79378, -29.56488], [-50.79359, -29.56419], [-50.79282, -29.5634], [-50.79082, -29.56293], [-50.79063, -29.56277], [-50.79081, -29.56222], [-50.79209, -29.56199], [-50.79251, -29.56154], [-50.79246, -29.5613], [-50.79174, -29.5607], [-50.78982, -29.56037], [-50.78853, -29.55948], [-50.78453, -29.55445], [-50.78414, -29.55414], [-50.78389, -29.55312], [-50.78402, -29.55254], [-50.78462, -29.55146], [-50.78475, -29.55074], [-50.78459, -29.54984], [-50.78345, -29.54761], [-50.78332, -29.54558], [-50.78293, -29.54427], [-50.78199, -29.54336], [-50.78165, -29.5433], [-50.77871, -29.54508], [-50.77697, -29.54503], [-50.77662, -29.54488]]]}}, 
{"type": "Feature", "properties": {"CD_SETOR": "431010805000064", "CD_SIT": "1", "NM_DIST": "Igrejinha", "NM_SUBDIST": null}, "geometry": {"type": "Polygon", "coordinates": [[[-50.79037, -29.56518], [-50.79009, -29.56643], [-50.7927, -29.56625], [-50.79267, -29.56751], [-50.79271, -29.56766], [-50.79304, -29.56763], [-50.79298, -29.56653], [-50.79378, -29.56488], [-50.79037, -29.56518]]]}}, 
{"type": "Feature", "properties": {"CD_SETOR": "431010805000066", "CD_SIT": "1", "NM_DIST": "Igrejinha", "NM_SUBDIST": null}, "geometry": {"type": "Polygon", "coordinates": [[[-50.77457, -29.5685], [-50.77466, -29.57397], [-50.7832, -29.57335], [-50.78501, -29.57305], [-50.78568, -29.5724], [-50.78581, -29.57251], [-50.78549, -29.57316], [-50.78626, -29.57248], [-50.78782, -29.57163], [-50.78844, -29.57092], [-50.78892, -29.56996], [-50.78944, -29.56772], [-50.77457, -29.5685]]]}}, 
{"type": "Feature", "properties": {"CD_SETOR": "431010805000067", "CD_SIT": "1", "NM_DIST": "Igrejinha", "NM_SUBDIST": null}, "geometry": {"type": "Polygon", "coordinates": [[[-50.77682, -29.57753], [-50.77607, -29.57795], [-50.77589, -29.57874], [-50.77777, -29.57858], [-50.77817, -29.57881], [-50.77828, -29.57951], [-50.77792, -29.57954], [-50.77809, -29.58143], [-50.77863, -29.58145], [-50.77899, -29.58144], [-50.77892, -29.57945], [-50.77977, -29.57938], [-50.77956, -29.57802], [-50.78694, -29.57738], [-50.78785, -29.57742], [-50.78789, -29.57721], [-50.78606, -29.57702], [-50.78569, -29.57672], [-50.78501, -29.57562], [-50.78221, -29.57589], [-50.78012, -29.57724], [-50.77682, -29.57753]]]}}, 
{"type": "Feature", "properties": {"CD_SETOR": "431010805000069", "CD_SIT": "1", "NM_DIST": "Igrejinha", "NM_SUBDIST": null}, "geometry": {"type": "Polygon", "coordinates": [[[-50.80227, -29.58116], [-50.80519, -29.58038], [-50.80583, -29.58033], [-50.80632, -29.58051], [-50.80656, -29.58087], [-50.80727, -29.58064], [-50.8073, -29.57952], [-50.80385, -29.58029], [-50.80192, -29.57984], [-50.80227, -29.58116]]]}}, 
{"type": "Feature", "properties": {"CD_SETOR": "431010805000071", "CD_SIT": "1", "NM_DIST": "Igrejinha", "NM_SUBDIST": null}, "geometry": {"type": "Polygon", "coordinates": [[[-50.81117, -29.59453], [-50.81412, -29.59792], [-50.81499, -29.59789], [-50.81581, -29.59844], [-50.81636, -29.59806], [-50.81653, -29.5976], [-50.81524, -29.59682], [-50.81367, -29.59613], [-50.81256, -29.59499], [-50.81215, -29.59417], [-50.81117, -29.59453]]]}}, 
{"type": "Feature", "properties": {"CD_SETOR": "431010805000072", "CD_SIT": "1", "NM_DIST": "Igrejinha", "NM_SUBDIST": null}, "geometry": {"type": "Polygon", "coordinates": [[[-50.80734, -29.57925], [-50.80727, -29.58064], [-50.81257, -29.57899], [-50.81208, -29.57824], [-50.80734, -29.57925]]]}}, 
{"type": "Feature", "properties": {"CD_SETOR": "431010805000074", "CD_SIT": "1", "NM_DIST": "Igrejinha", "NM_SUBDIST": null}, "geometry": {"type": "Polygon", "coordinates": [[[-50.8089, -29.5688], [-50.80711, -29.56947], [-50.80748, -29.57108], [-50.80754, -29.57243], [-50.80777, -29.57228], [-50.80804, -29.57151], [-50.80801, -29.5708], [-50.8085, -29.57056], [-50.80853, -29.57009], [-50.80884, -29.56994], [-50.81053, -29.56982], [-50.81148, -29.56924], [-50.81202, -29.56864], [-50.81206, -29.56795], [-50.8118, -29.56799], [-50.81095, -29.56875], [-50.8089, -29.5688]]]}}, 
{"type": "Feature", "properties": {"CD_SETOR": "431010805000075", "CD_SIT": "1", "NM_DIST": "Igrejinha", "NM_SUBDIST": null}, "geometry": {"type": "Polygon", "coordinates": [[[-50.79507, -29.56164], [-50.79632, -29.5614], [-50.79716, -29.5618], [-50.79959, -29.56161], [-50.80174, -29.56142], [-50.80265, -29.56098], [-50.80355, -29.56129], [-50.8057, -29.56114], [-50.80547, -29.55999], [-50.80579, -29.55957], [-50.79766, -29.55982], [-50.79788, -29.55923], [-50.79786, -29.55868], [-50.79752, -29.55806], [-50.796, -29.55815], [-50.7963, -29.55873], [-50.79626, -29.55918], [-50.79507, -29.56164]]]}}, 
{"type": "Feature", "properties": {"CD_SETOR": "431010805000076", "CD_SIT": "2", "NM_DIST": "Igrejinha", "NM_SUBDIST": null}, "geometry": {"type": "Polygon", "coordinates": [[[-50.78058, -29.54046], [-50.78117, -29.5422], [-50.78296, -29.54377], [-50.78383, -29.54511], [-50.78424, -29.5473], [-50.78507, -29.54911], [-50.78511, -29.54949], [-50.7875, -29.54921], [-50.78645, -29.54729], [-50.78532, -29.5401], [-50.78058, -29.54046]]]}}, 
{"type": "Feature", "properties": {"CD_SETOR": "431010805000077", "CD_SIT": "2", "NM_DIST": "Igrejinha", "NM_SUBDIST": null}, "geometry": {"type": "Polygon", "coordinates": [[[-50.77422, -29.54073], [-50.77443, -29.54103], [-50.77449, -29.54204], [-50.77394, -29.54256], [-50.77251, -29.54343], [-50.77227, -29.54373], [-50.77229, -29.54435], [-50.77499, -29.54451], [-50.77697, -29.54503], [-50.77871, -29.54508], [-50.78165, -29.5433], [-50.78199, -29.54336], [-50.78293, -29.54427], [-50.7832, -29.54502], [-50.78342, -29.54625], [-50.78332, -29.54696], [-50.78345, -29.54761], [-50.78446, -29.54955], [-50.78511, -29.54949], [-50.78507, -29.54911], [-50.78424, -29.5473], [-50.78396, -29.54556], [-50.78361, -29.54467], [-50.78296, -29.54377], [-50.78117, -29.5422], [-50.78058, -29.54046], [-50.77791, -29.53651], [-50.77777, -29.53612], [-50.77786, -29.53571], [-50.77832, -29.53491], [-50.77698, -29.53446], [-50.77533, -29.53563], [-50.77452, -29.53572], [-50.77287, -29.53631], [-50.77216, -29.53678], [-50.77152, -29.53748], [-50.77133, -29.53825], [-50.77182, -29.539], [-50.77253, -29.53967], [-50.77366, -29.54001], [-50.77422, -29.54073]]]}}, 
{"type": "Feature", "properties": {"CD_SETOR": "431010805000078", "CD_SIT": "2", "NM_DIST": "Igrejinha", "NM_SUBDIST": null}, "geometry": {"type": "Polygon", "coordinates": [[[-50.7546, -29.58839], [-50.75503, -29.58802], [-50.75548, -29.58795], [-50.75686, -29.58829], [-50.75768, -29.589], [-50.76016, -29.58941], [-50.76103, -29.58926], [-50.75516, -29.57338], [-50.7544, -29.57596], [-50.75334, -29.57696], [-50.75151, -29.57908], [-50.7519, -29.58191], [-50.75302, -29.5862], [-50.75342, -29.58701], [-50.7546, -29.58839]]]}}, 
{"type": "Feature", "properties": {"CD_SETOR": "431010805000081", "CD_SIT": "1", "NM_DIST": "Igrejinha", "NM_SUBDIST": null}, "geometry": {"type": "Polygon", "coordinates": [[[-50.80532, -29.59559], [-50.80465, -29.59899], [-50.80756, -29.59877], [-50.80825, -29.59484], [-50.80685, -29.595], [-50.80532, -29.59559]]]}}, 
{"type": "Feature", "properties": {"CD_SETOR": "431010805000082", "CD_SIT": "1", "NM_DIST": "Igrejinha", "NM_SUBDIST": null}, "geometry": {"type": "Polygon", "coordinates": [[[-50.80825, -29.59484], [-50.80756, -29.59877], [-50.81305, -29.59835], [-50.81422, -29.59807], [-50.81117, -29.59453], [-50.80825, -29.59484]]]}}, 
{"type": "Feature", "properties": {"CD_SETOR": "431010805000085", "CD_SIT": "8", "NM_DIST": "Igrejinha", "NM_SUBDIST": null}, "geometry": {"type": "Polygon", "coordinates": [[[-50.72899, -29.55741], [-50.72905, -29.56081], [-50.73053, -29.56265], [-50.7324, -29.56417], [-50.73383, -29.56727], [-50.73438, -29.56794], [-50.73511, -29.57106], [-50.73564, -29.57213], [-50.73827, -29.57559], [-50.73488, -29.57594], [-50.73593, -29.57703], [-50.73735, -29.57808], [-50.73942, -29.57884], [-50.74066, -29.57868], [-50.74263, -29.57792], [-50.74314, -29.57797], [-50.74472, -29.57862], [-50.74622, -29.5801], [-50.7472, -29.5832], [-50.74776, -29.58313], [-50.74589, -29.57417], [-50.74978, -29.57391], [-50.74442, -29.57147], [-50.74323, -29.57144], [-50.74123, -29.57185], [-50.74083, -29.5718], [-50.7397, -29.56981], [-50.73928, -29.56733], [-50.73845, -29.56548], [-50.73703, -29.56361], [-50.73478, -29.56222], [-50.73324, -29.56087], [-50.73274, -29.55942], [-50.73289, -29.55577], [-50.73277, -29.55504], [-50.73168, -29.55357], [-50.73135, -29.55269], [-50.73125, -29.55108], [-50.73211, -29.5484], [-50.7319, -29.54717], [-50.72972, -29.54499], [-50.72886, -29.54382], [-50.72858, -29.54297], [-50.72865, -29.542], [-50.73033, -29.53895], [-50.73157, -29.53827], [-50.73281, -29.53696], [-50.73338, -29.53543], [-50.7334, -29.53447], [-50.73289, -29.53264], [-50.73212, -29.53111], [-50.73156, -29.53041], [-50.73068, -29.5297], [-50.7309, -29.52952], [-50.73292, -29.5292], [-50.72885, -29.52632], [-50.72661, -29.52717], [-50.72536, -29.52797], [-50.72504, -29.5289], [-50.72505, -29.52962], [-50.7256, -29.5308], [-50.72747, -29.53171], [-50.72792, -29.53211], [-50.72863, -29.53327], [-50.72924, -29.53473], [-50.72906, -29.53537], [-50.72665, -29.53706], [-50.72609, -29.53794], [-50.72507, -29.53981], [-50.72461, -29.54099], [-50.72435, -29.5425], [-50.72656, -29.54474], [-50.72755, -29.54728], [-50.72765, -29.55043], [-50.7275, -29.55105], [-50.72699, -29.55161], [-50.72712, -29.55261], [-50.72778, -29.55387], [-50.72906, -29.55551], [-50.72924, -29.55641], [-50.72899, -29.55741]]]}}, 
{"type": "Feature", "properties": {"CD_SETOR": "431010805000086", "CD_SIT": "2", "NM_DIST": "Igrejinha", "NM_SUBDIST": null}, "geometry": {"type": "Polygon", "coordinates": [[[-50.82491, -29.5967], [-50.82524, -29.60071], [-50.8264, -29.59977], [-50.82787, -29.59962], [-50.82988, -29.59855], [-50.83049, -29.59641], [-50.82491, -29.5967]]]}}, 
{"type": "Feature", "properties": {"CD_SETOR": "431010805000088", "CD_SIT": "8", "NM_DIST": "Igrejinha", "NM_SUBDIST": null}, "geometry": {"type": "Polygon", "coordinates": [[[-50.77419, -29.60849], [-50.78773, -29.61214], [-50.78993, -29.59739], [-50.78842, -29.59653], [-50.78369, -29.59687], [-50.78167, -29.59609], [-50.78078, -29.59617], [-50.77882, -29.5967], [-50.77487, -29.59655], [-50.77419, -29.60849]]]}}, 
{"type": "Feature", "properties": {"CD_SETOR": "431010805000089", "CD_SIT": "1", "NM_DIST": "Igrejinha", "NM_SUBDIST": null}, "geometry": {"type": "Polygon", "coordinates": [[[-50.82107, -29.55389], [-50.82122, -29.55387], [-50.82159, -29.55316], [-50.82216, -29.55156], [-50.82303, -29.55097], [-50.8237, -29.54965], [-50.82604, -29.5468], [-50.82635, -29.54618], [-50.82739, -29.54551], [-50.8288, -29.54392], [-50.83005, -29.54184], [-50.82992, -29.5418], [-50.82948, -29.54239], [-50.82908, -29.54334], [-50.82774, -29.545], [-50.82616, -29.5462], [-50.82567, -29.5471], [-50.82369, -29.54943], [-50.82302, -29.55078], [-50.822, -29.5516], [-50.82107, -29.55389]]]}}, 
{"type": "Feature", "properties": {"CD_SETOR": "431010805000091", "CD_SIT": "1", "NM_DIST": "Igrejinha", "NM_SUBDIST": null}, "geometry": {"type": "Polygon", "coordinates": [[[-50.86039, -29.52516], [-50.86117, -29.5254], [-50.86175, -29.52591], [-50.85882, -29.52557], [-50.85705, -29.52629], [-50.85357, -29.52664], [-50.85292, -29.52654], [-50.8517, -29.52599], [-50.85085, -29.52573], [-50.84819, -29.52608], [-50.84497, -29.52567], [-50.84394, -29.5254], [-50.84151, -29.52528], [-50.83916, -29.52542], [-50.83618, -29.52583], [-50.83586, -29.52617], [-50.83569, -29.5268], [-50.83609, -29.52904], [-50.83564, -29.53017], [-50.83632, -29.53177], [-50.83553, -29.53191], [-50.83417, -29.53164], [-50.83359, -29.53188], [-50.83335, -29.53222], [-50.83221, -29.53538], [-50.83193, -29.53783], [-50.83161, -29.53928], [-50.82992, -29.5418], [-50.83064, -29.54095], [-50.83169, -29.53927], [-50.83204, -29.53766], [-50.83224, -29.53546], [-50.83349, -29.53212], [-50.83412, -29.53171], [-50.83588, -29.53199], [-50.83636, -29.53182], [-50.83642, -29.53168], [-50.83571, -29.5302], [-50.83615, -29.52926], [-50.83577, -29.52696], [-50.83609, -29.52597], [-50.83931, -29.52549], [-50.8415, -29.52534], [-50.8438, -29.52546], [-50.8449, -29.52574], [-50.84807, -29.52614], [-50.85085, -29.5258], [-50.85289, -29.52659], [-50.85364, -29.52672], [-50.85721, -29.52631], [-50.85917, -29.52562], [-50.86009, -29.52585], [-50.86185, -29.526], [-50.8619, -29.52589], [-50.86137, -29.52547], [-50.86106, -29.52531], [-50.86039, -29.52516]]]}}, 
{"type": "Feature", "properties": {"CD_SETOR": "431010805000092", "CD_SIT": "8", "NM_DIST": "Igrejinha", "NM_SUBDIST": null}, "geometry": {"type": "Polygon", "coordinates": [[[-50.82679, -29.54069], [-50.82679, -29.53975], [-50.82608, -29.53808], [-50.82598, -29.53704], [-50.82614, -29.53597], [-50.82579, -29.53588], [-50.82437, -29.53813], [-50.82388, -29.53979], [-50.82326, -29.54321], [-50.82235, -29.54398], [-50.82228, -29.54456], [-50.82142, -29.54608], [-50.82088, -29.54749], [-50.82049, -29.54768], [-50.81994, -29.54764], [-50.81942, -29.54862], [-50.81854, -29.54843], [-50.81822, -29.54855], [-50.81733, -29.54989], [-50.81629, -29.5504], [-50.81589, -29.55079], [-50.81483, -29.55325], [-50.81411, -29.55339], [-50.81247, -29.55465], [-50.82107, -29.55389], [-50.822, -29.5516], [-50.82302, -29.55078], [-50.82369, -29.54943], [-50.82567, -29.5471], [-50.82616, -29.5462], [-50.8274, -29.54532], [-50.82859, -29.544], [-50.82992, -29.5418], [-50.82679, -29.54069]]]}}, 
{"type": "Feature", "properties": {"CD_SETOR": "431010805000093", "CD_SIT": "2", "NM_DIST": "Igrejinha", "NM_SUBDIST": null}, "geometry": {"type": "Polygon", "coordinates": [[[-50.82988, -29.59855], [-50.82787, -29.59962], [-50.8264, -29.59977], [-50.82499, -29.60099], [-50.82389, -29.60122], [-50.82409, -29.60278], [-50.82403, -29.6032], [-50.82357, -29.60403], [-50.82396, -29.60414], [-50.83145, -29.60341], [-50.83103, -29.59811], [-50.82988, -29.59855]]]}}, 
{"type": "Feature", "properties": {"CD_SETOR": "431010805000094", "CD_SIT": "1", "NM_DIST": "Igrejinha", "NM_SUBDIST": null}, "geometry": {"type": "Polygon", "coordinates": [[[-50.82014, -29.60076], [-50.81966, -29.60073], [-50.81911, -29.60264], [-50.82122, -29.60301], [-50.82159, -29.60261], [-50.82146, -29.60239], [-50.82166, -29.60218], [-50.82402, -29.60218], [-50.82389, -29.60122], [-50.82241, -29.60068], [-50.82014, -29.60076]]]}}, 
{"type": "Feature", "properties": {"CD_SETOR": "431010805000095", "CD_SIT": "1", "NM_DIST": "Igrejinha", "NM_SUBDIST": null}, "geometry": {"type": "Polygon", "coordinates": [[[-50.80091, -29.57452], [-50.79701, -29.57529], [-50.79705, -29.57582], [-50.79856, -29.57877], [-50.80434, -29.57752], [-50.80416, -29.57669], [-50.80244, -29.57709], [-50.80166, -29.57437], [-50.80091, -29.57452]]]}}, 
{"type": "Feature", "properties": {"CD_SETOR": "431010805000096", "CD_SIT": "1", "NM_DIST": "Igrejinha", "NM_SUBDIST": null}, "geometry": {"type": "Polygon", "coordinates": [[[-50.79635, -29.57492], [-50.79615, -29.5766], [-50.79622, -29.5771], [-50.79656, -29.57735], [-50.79749, -29.57761], [-50.79797, -29.57827], [-50.79808, -29.5786], [-50.79782, -29.57948], [-50.7979, -29.57971], [-50.79958, -29.58094], [-50.80037, -29.58134], [-50.80227, -29.58116], [-50.80192, -29.57984], [-50.80385, -29.58029], [-50.8073, -29.57952], [-50.80738, -29.57822], [-50.80466, -29.57875], [-50.80434, -29.57752], [-50.79856, -29.57877], [-50.79705, -29.57582], [-50.79701, -29.5749], [-50.79635, -29.57492]]]}}, 
{"type": "Feature", "properties": {"CD_SETOR": "431010805000097", "CD_SIT": "1", "NM_DIST": "Igrejinha", "NM_SUBDIST": null}, "geometry": {"type": "Polygon", "coordinates": [[[-50.80368, -29.58543], [-50.80743, -29.59002], [-50.80984, -29.58984], [-50.80975, -29.58923], [-50.81231, -29.58903], [-50.8122, -29.58807], [-50.81188, -29.58759], [-50.80978, -29.58644], [-50.80902, -29.58554], [-50.80826, -29.585], [-50.80368, -29.58543]]]}}, 
{"type": "Feature", "properties": {"CD_SETOR": "431010805000098", "CD_SIT": "1", "NM_DIST": "Igrejinha", "NM_SUBDIST": null}, "geometry": {"type": "Polygon", "coordinates": [[[-50.80048, -29.58163], [-50.80038, -29.58202], [-50.80183, -29.58325], [-50.80368, -29.58543], [-50.80826, -29.585], [-50.80736, -29.58451], [-50.8059, -29.58284], [-50.8027, -29.58195], [-50.80048, -29.58163]]]}}, 
{"type": "Feature", "properties": {"CD_SETOR": "431010805000099", "CD_SIT": "1", "NM_DIST": "Igrejinha", "NM_SUBDIST": null}, "geometry": {"type": "Polygon", "coordinates": [[[-50.80656, -29.58087], [-50.8076, -29.58312], [-50.80788, -29.58426], [-50.80825, -29.58458], [-50.81049, -29.58477], [-50.81088, -29.58521], [-50.81107, -29.58621], [-50.81132, -29.58653], [-50.81287, -29.5874], [-50.81423, -29.58766], [-50.81478, -29.58797], [-50.81489, -29.58828], [-50.81475, -29.58847], [-50.81341, -29.58905], [-50.81296, -29.58934], [-50.81285, -29.58966], [-50.81292, -29.59054], [-50.81212, -29.59368], [-50.81232, -29.59458], [-50.81305, -29.59559], [-50.81367, -29.59613], [-50.81524, -29.59682], [-50.81653, -29.5976], [-50.81636, -29.59806], [-50.81581, -29.59844], [-50.8162, -29.59872], [-50.81717, -29.59817], [-50.81703, -29.5979], [-50.81758, -29.59749], [-50.81754, -29.5974], [-50.81978, -29.59744], [-50.82019, -29.59781], [-50.82076, -29.59778], [-50.82102, -29.59821], [-50.8193, -29.59837], [-50.81978, -29.59927], [-50.81931, -29.59938], [-50.82014, -29.60076], [-50.82241, -29.60068], [-50.82389, -29.60122], [-50.82358, -29.59889], [-50.82412, -29.5971], [-50.8237, -29.59466], [-50.82332, -29.59406], [-50.82223, -29.59357], [-50.82086, -29.59242], [-50.81942, -29.58909], [-50.81843, -29.58737], [-50.81652, -29.586], [-50.81086, -29.58408], [-50.80945, -29.58381], [-50.80806, -29.58274], [-50.80741, -29.582], [-50.80719, -29.58127], [-50.80727, -29.58064], [-50.80656, -29.58087]]]}}, 
{"type": "Feature", "properties": {"CD_SETOR": "431010805000100", "CD_SIT": "1", "NM_DIST": "Igrejinha", "NM_SUBDIST": null}, "geometry": {"type": "Polygon", "coordinates": [[[-50.8162, -29.59872], [-50.81966, -29.60073], [-50.82014, -29.60076], [-50.81931, -29.59938], [-50.81978, -29.59927], [-50.8193, -29.59837], [-50.82102, -29.59821], [-50.82076, -29.59778], [-50.82019, -29.59781], [-50.81978, -29.59744], [-50.81754, -29.5974], [-50.81758, -29.59749], [-50.81703, -29.5979], [-50.81717, -29.59817], [-50.8162, -29.59872]]]}}, 
{"type": "Feature", "properties": {"CD_SETOR": "431010805000101", "CD_SIT": "2", "NM_DIST": "Igrejinha", "NM_SUBDIST": null}, "geometry": {"type": "Polygon", "coordinates": [[[-50.82476, -29.59141], [-50.82491, -29.5967], [-50.83049, -29.59641], [-50.82988, -29.59855], [-50.83242, -29.59779], [-50.83411, -29.59777], [-50.83454, -29.5979], [-50.83666, -29.5976], [-50.83788, -29.59724], [-50.83788, -29.5957], [-50.837, -29.5924], [-50.84123, -29.59069], [-50.82476, -29.59141]]]}}, 
{"type": "Feature", "properties": {"CD_SETOR": "431010805000102", "CD_SIT": "8", "NM_DIST": "Igrejinha", "NM_SUBDIST": null}, "geometry": {"type": "Polygon", "coordinates": [[[-50.84003, -29.56073], [-50.84418, -29.56366], [-50.84169, -29.56539], [-50.84147, -29.56676], [-50.84017, -29.56826], [-50.83977, -29.5694], [-50.83811, -29.57043], [-50.83749, -29.57153], [-50.8365, -29.57202], [-50.83581, -29.57264], [-50.83615, -29.57786], [-50.83228, -29.57807], [-50.82936, -29.57845], [-50.82703, -29.57897], [-50.82437, -29.58018], [-50.82476, -29.59141], [-50.84123, -29.59069], [-50.85655, -29.58443], [-50.85462, -29.57213], [-50.85761, -29.57087], [-50.85606, -29.55622], [-50.87732, -29.55447], [-50.87024, -29.55341], [-50.86962, -29.55297], [-50.86854, -29.55276], [-50.86784, -29.55237], [-50.86681, -29.55223], [-50.86516, -29.55155], [-50.86062, -29.55053], [-50.86003, -29.55064], [-50.85888, -29.5504], [-50.85007, -29.551], [-50.84922, -29.55118], [-50.84918, -29.55212], [-50.848, -29.55386], [-50.84736, -29.55437], [-50.84514, -29.55522], [-50.84481, -29.55581], [-50.84424, -29.55627], [-50.84224, -29.55688], [-50.84204, -29.5575], [-50.84229, -29.55796], [-50.84205, -29.55918], [-50.8418, -29.55952], [-50.84003, -29.56073]]]}}, 
{"type": "Feature", "properties": {"CD_SETOR": "431010805000103", "CD_SIT": "2", "NM_DIST": "Igrejinha", "NM_SUBDIST": null}, "geometry": {"type": "Polygon", "coordinates": [[[-50.75231, -29.58357], [-50.7519, -29.58191], [-50.75151, -29.57908], [-50.75334, -29.57696], [-50.7544, -29.57596], [-50.75516, -29.57338], [-50.74589, -29.57417], [-50.74776, -29.58313], [-50.75148, -29.5828], [-50.75231, -29.58357]]]}}, 
{"type": "Feature", "properties": {"CD_SETOR": "431010805000104", "CD_SIT": "2", "NM_DIST": "Igrejinha", "NM_SUBDIST": null}, "geometry": {"type": "Polygon", "coordinates": [[[-50.7546, -29.58839], [-50.75546, -29.58879], [-50.75667, -29.59098], [-50.75672, -29.5923], [-50.75639, -29.59331], [-50.7598, -29.5938], [-50.76216, -29.59368], [-50.76206, -29.59203], [-50.76103, -29.58926], [-50.76016, -29.58941], [-50.75768, -29.589], [-50.75686, -29.58829], [-50.75548, -29.58795], [-50.75503, -29.58802], [-50.7546, -29.58839]]]}}, 
{"type": "Feature", "properties": {"CD_SETOR": "431010805000105", "CD_SIT": "1", "NM_DIST": "Igrejinha", "NM_SUBDIST": null}, "geometry": {"type": "Polygon", "coordinates": [[[-50.76103, -29.58926], [-50.76206, -29.59203], [-50.76216, -29.59368], [-50.76435, -29.59274], [-50.76576, -29.59167], [-50.76799, -29.59039], [-50.76968, -29.58897], [-50.77386, -29.58488], [-50.77899, -29.58144], [-50.77809, -29.58143], [-50.77792, -29.57954], [-50.77828, -29.57951], [-50.77817, -29.57881], [-50.77777, -29.57858], [-50.77589, -29.57874], [-50.77607, -29.57795], [-50.77382, -29.5796], [-50.77351, -29.57684], [-50.77167, -29.57723], [-50.76891, -29.58074], [-50.76902, -29.58136], [-50.76998, -29.58173], [-50.76588, -29.58593], [-50.76103, -29.58926]]]}}, 
{"type": "Feature", "properties": {"CD_SETOR": "431010805000106", "CD_SIT": "2", "NM_DIST": "Igrejinha", "NM_SUBDIST": null}, "geometry": {"type": "Polygon", "coordinates": [[[-50.79333, -29.58015], [-50.79402, -29.58105], [-50.79517, -29.58305], [-50.79568, -29.58469], [-50.79676, -29.58723], [-50.79776, -29.58872], [-50.79864, -29.59088], [-50.80073, -29.59444], [-50.79507, -29.5949], [-50.79535, -29.5969], [-50.80082, -29.59641], [-50.80246, -29.59641], [-50.80393, -29.59611], [-50.80532, -29.59559], [-50.80572, -29.59387], [-50.80553, -29.59306], [-50.80525, -29.5926], [-50.80453, -29.59198], [-50.80293, -29.5912], [-50.80206, -29.59067], [-50.8016, -29.59018], [-50.79932, -29.58636], [-50.79825, -29.5818], [-50.7975, -29.58048], [-50.79683, -29.5798], [-50.79333, -29.58015]]]}}, 
{"type": "Feature", "properties": {"CD_SETOR": "431010805000107", "CD_SIT": "2", "NM_DIST": "Igrejinha", "NM_SUBDIST": null}, "geometry": {"type": "Polygon", "coordinates": [[[-50.81257, -29.57899], [-50.80727, -29.58064], [-50.80719, -29.58127], [-50.80741, -29.582], [-50.80806, -29.58274], [-50.80945, -29.58381], [-50.81086, -29.58408], [-50.81652, -29.586], [-50.81843, -29.58737], [-50.81942, -29.58909], [-50.82086, -29.59242], [-50.82223, -29.59357], [-50.82332, -29.59406], [-50.82356, -29.59431], [-50.82412, -29.5971], [-50.82358, -29.59889], [-50.82389, -29.60122], [-50.82499, -29.60099], [-50.82524, -29.60071], [-50.82491, -29.5967], [-50.82437, -29.58018], [-50.82435, -29.57542], [-50.81257, -29.57899]]]}}, 
{"type": "Feature", "properties": {"CD_SETOR": "431010805000108", "CD_SIT": "2", "NM_DIST": "Igrejinha", "NM_SUBDIST": null}, "geometry": {"type": "Polygon", "coordinates": [[[-50.79535, -29.5969], [-50.78993, -29.59739], [-50.78773, -29.61214], [-50.80361, -29.61641], [-50.80465, -29.59899], [-50.80532, -29.59559], [-50.80393, -29.59611], [-50.80246, -29.59641], [-50.80082, -29.59641], [-50.79535, -29.5969]]]}}, 
{"type": "Feature", "properties": {"CD_SETOR": "431010805000109", "CD_SIT": "2", "NM_DIST": "Igrejinha", "NM_SUBDIST": null}, "geometry": {"type": "Polygon", "coordinates": [[[-50.81848, -29.56393], [-50.81758, -29.56524], [-50.81476, -29.56789], [-50.81361, -29.57032], [-50.81291, -29.57274], [-50.81214, -29.57779], [-50.81208, -29.57824], [-50.81257, -29.57899], [-50.82435, -29.57542], [-50.82386, -29.55698], [-50.82126, -29.55975], [-50.81854, -29.5632], [-50.81848, -29.56393]]]}}, 
{"type": "Feature", "properties": {"CD_SETOR": "431010805000111", "CD_SIT": "8", "NM_DIST": "Igrejinha", "NM_SUBDIST": null}, "geometry": {"type": "Polygon", "coordinates": [[[-50.8605, -29.52516], [-50.86137, -29.52547], [-50.8619, -29.52589], [-50.86185, -29.526], [-50.86009, -29.52585], [-50.85917, -29.52562], [-50.85721, -29.52631], [-50.85364, -29.52672], [-50.85289, -29.52659], [-50.85085, -29.5258], [-50.84807, -29.52614], [-50.8449, -29.52574], [-50.8438, -29.52546], [-50.8415, -29.52534], [-50.83931, -29.52549], [-50.83609, -29.52597], [-50.83577, -29.52696], [-50.83615, -29.52926], [-50.83571, -29.5302], [-50.83642, -29.53168], [-50.83588, -29.53199], [-50.83412, -29.53171], [-50.83349, -29.53212], [-50.83224, -29.53546], [-50.83204, -29.53766], [-50.83169, -29.53927], [-50.82999, -29.54182], [-50.83498, -29.54325], [-50.83277, -29.54661], [-50.83069, -29.54844], [-50.82853, -29.55156], [-50.82661, -29.55348], [-50.8238, -29.55364], [-50.82433, -29.57221], [-50.82516, -29.57043], [-50.82645, -29.56899], [-50.82628, -29.56763], [-50.82882, -29.56576], [-50.82929, -29.56471], [-50.83076, -29.56396], [-50.83091, -29.56334], [-50.83207, -29.56195], [-50.83207, -29.56113], [-50.83231, -29.56049], [-50.83295, -29.55964], [-50.8356, -29.55766], [-50.84003, -29.56073], [-50.8418, -29.55952], [-50.84205, -29.55918], [-50.84229, -29.55796], [-50.84204, -29.5575], [-50.84224, -29.55688], [-50.84424, -29.55627], [-50.84481, -29.55581], [-50.84514, -29.55522], [-50.84736, -29.55437], [-50.848, -29.55386], [-50.84918, -29.55212], [-50.84922, -29.55118], [-50.85153, -29.55087], [-50.85582, -29.5507], [-50.85888, -29.5504], [-50.86003, -29.55064], [-50.86062, -29.55053], [-50.86516, -29.55155], [-50.86681, -29.55223], [-50.86784, -29.55237], [-50.86854, -29.55276], [-50.86962, -29.55297], [-50.87024, -29.55341], [-50.87805, -29.55453], [-50.87914, -29.55409], [-50.87861, -29.5536], [-50.88028, -29.55098], [-50.88117, -29.55008], [-50.8831, -29.54929], [-50.8851, -29.54892], [-50.88664, -29.54842], [-50.88731, -29.54729], [-50.88742, -29.54346], [-50.88733, -29.54326], [-50.88654, -29.54289], [-50.88757, -29.54239], [-50.88765, -29.54094], [-50.88742, -29.54023], [-50.88709, -29.53996], [-50.88699, -29.53944], [-50.88611, -29.53816], [-50.88517, -29.5374], [-50.88382, -29.53663], [-50.88309, -29.53553], [-50.88285, -29.53476], [-50.8825, -29.53426], [-50.88202, -29.53395], [-50.88155, -29.53297], [-50.88025, -29.53234], [-50.87952, -29.53169], [-50.87927, -29.53113], [-50.87952, -29.53121], [-50.87986, -29.53089], [-50.87979, -29.53031], [-50.87935, -29.52955], [-50.87858, -29.52889], [-50.87795, -29.52797], [-50.87825, -29.52686], [-50.87883, -29.52605], [-50.87997, -29.52549], [-50.88022, -29.52444], [-50.88071, -29.52363], [-50.88036, -29.52268], [-50.88054, -29.5224], [-50.88102, -29.52224], [-50.88122, -29.52184], [-50.8811, -29.52145], [-50.87967, -29.52039], [-50.87959, -29.51994], [-50.87926, -29.51948], [-50.8786, -29.51932], [-50.87786, -29.51947], [-50.87746, -29.51865], [-50.87763, -29.5182], [-50.87843, -29.51774], [-50.87854, -29.51751], [-50.87864, -29.51665], [-50.87826, -29.51542], [-50.87836, -29.51486], [-50.87893, -29.51447], [-50.87935, -29.51391], [-50.88005, -29.51376], [-50.87979, -29.51323], [-50.87914, -29.513], [-50.87844, -29.5135], [-50.87793, -29.51361], [-50.8773, -29.51315], [-50.87664, -29.51291], [-50.87536, -29.51298], [-50.87444, -29.51252], [-50.87354, -29.51338], [-50.87296, -29.51461], [-50.87165, -29.51575], [-50.87121, -29.51725], [-50.86966, -29.51819], [-50.86948, -29.51868], [-50.86868, -29.51869], [-50.86827, -29.51891], [-50.86787, -29.51943], [-50.86746, -29.51957], [-50.86669, -29.51955], [-50.86591, -29.52041], [-50.86495, -29.52109], [-50.86459, -29.52166], [-50.86478, -29.52212], [-50.86461, -29.52316], [-50.86362, -29.52518], [-50.8605, -29.52516]]]}}, 
{"type": "Feature", "properties": {"CD_SETOR": "431010805000113", "CD_SIT": "1", "NM_DIST": "Igrejinha", "NM_SUBDIST": null}, "geometry": {"type": "Polygon", "coordinates": [[[-50.78453, -29.55445], [-50.78617, -29.55655], [-50.78711, -29.55592], [-50.7851, -29.55435], [-50.78453, -29.55445]]]}}, 
{"type": "Feature", "properties": {"CD_SETOR": "431010805000114", "CD_SIT": "1", "NM_DIST": "Igrejinha", "NM_SUBDIST": null}, "geometry": {"type": "Polygon", "coordinates": [[[-50.78617, -29.55655], [-50.78877, -29.55967], [-50.78982, -29.56037], [-50.79174, -29.5607], [-50.79246, -29.5613], [-50.79251, -29.56154], [-50.79209, -29.56199], [-50.79081, -29.56222], [-50.79063, -29.56277], [-50.79082, -29.56293], [-50.79282, -29.5634], [-50.79359, -29.56419], [-50.79378, -29.56488], [-50.79368, -29.56503], [-50.79391, -29.56493], [-50.79451, -29.56514], [-50.79613, -29.56469], [-50.79614, -29.56431], [-50.79499, -29.56184], [-50.79167, -29.55666], [-50.78844, -29.55695], [-50.78711, -29.55592], [-50.78617, -29.55655]]]}}, 
{"type": "Feature", "properties": {"CD_SETOR": "431010805000115", "CD_SIT": "1", "NM_DIST": "Igrejinha", "NM_SUBDIST": null}, "geometry": {"type": "Polygon", "coordinates": [[[-50.78446, -29.54955], [-50.78475, -29.55074], [-50.78457, -29.55158], [-50.7849, -29.55163], [-50.78471, -29.55387], [-50.7851, -29.55435], [-50.78945, -29.55395], [-50.78511, -29.54949], [-50.78446, -29.54955]]]}}, 
{"type": "Feature", "properties": {"CD_SETOR": "431010805000116", "CD_SIT": "1", "NM_DIST": "Igrejinha", "NM_SUBDIST": null}, "geometry": {"type": "Polygon", "coordinates": [[[-50.78453, -29.55445], [-50.7851, -29.55435], [-50.78471, -29.55387], [-50.7849, -29.55163], [-50.78457, -29.55158], [-50.78402, -29.55254], [-50.78389, -29.55312], [-50.78414, -29.55414], [-50.78453, -29.55445]]]}}, 
{"type": "Feature", "properties": {"CD_SETOR": "431010805000117", "CD_SIT": "2", "NM_DIST": "Igrejinha", "NM_SUBDIST": null}, "geometry": {"type": "Polygon", "coordinates": [[[-50.77318, -29.54933], [-50.77457, -29.5685], [-50.78944, -29.56772], [-50.79028, -29.56595], [-50.79037, -29.56518], [-50.79012, -29.56423], [-50.78944, -29.56314], [-50.78428, -29.55813], [-50.78338, -29.55706], [-50.78248, -29.55544], [-50.78209, -29.55431], [-50.78058, -29.54876], [-50.77318, -29.54933]]]}}]}