{"type": "FeatureCollection", "features": [
{"type": "Feature", "properties": {"CD_SETOR": "431300305000001", "CD_SIT": "1", "NM_DIST": "Nova Bréscia", "NM_SUBDIST": null}, "geometry": {"type": "Polygon", "coordinates": [[[-52.02394, -29.21228], [-52.02394, -29.21354], [-52.02337, -29.21328], [-52.02266, -29.2126], [-52.02263, -29.21403], [-52.02244, -29.21392], [-52.02221, -29.21334], [-52.02145, -29.21292], [-52.01966, -29.21391], [-52.01977, -29.21698], [-52.02347, -29.21692], [-52.02344, -29.21832], [-52.02455, -29.21839], [-52.02463, -29.21572], [-52.02691, -29.21576], [-52.02694, -29.21487], [-52.02846, -29.21489], [-52.02856, -29.214], [-52.02664, -29.21395], [-52.02669, -29.2122], [-52.02394, -29.21228]]]}}, 
{"type": "Feature", "properties": {"CD_SETOR": "431300305000002", "CD_SIT": "1", "NM_DIST": "Nova Bréscia", "NM_SUBDIST": null}, "geometry": {"type": "Polygon", "coordinates": [[[-52.02461, -29.21659], [-52.02675, -29.21664], [-52.02723, -29.21759], [-52.0307, -29.21763], [-52.03072, -29.21527], [-52.03217, -29.21512], [-52.03209, -29.21316], [-52.02949, -29.21231], [-52.02669, -29.2122], [-52.02664, -29.21395], [-52.02856, -29.214], [-52.02846, -29.21489], [-52.02694, -29.21487], [-52.02691, -29.21576], [-52.02463, -29.21572], [-52.02461, -29.21659]]]}}, 
{"type": "Feature", "properties": {"CD_SETOR": "431300305000003", "CD_SIT": "2", "NM_DIST": "Nova Bréscia", "NM_SUBDIST": null}, "geometry": {"type": "Polygon", "coordinates": [[[-52.02455, -29.21839], [-52.02692, -29.21848], [-52.02817, -29.22004], [-52.02746, -29.22137], [-52.02903, -29.22258], [-52.02961, -29.22285], [-52.02995, -29.2229], [-52.02967, -29.22193], [-52.02971, -29.22146], [-52.0295, -29.22116], [-52.0331, -29.22229], [-52.03468, -29.22262], [-52.03518, -29.22258], [-52.03452, -29.22132], [-52.0344, -29.22175], [-52.03386, -29.22181], [-52.03068, -29.22094], [-52.0307, -29.21763], [-52.02723, -29.21759], [-52.02675, -29.21664], [-52.02461, -29.21659], [-52.02455, -29.21839]]]}}, 
{"type": "Feature", "properties": {"CD_SETOR": "431300305000004", "CD_SIT": "2", "NM_DIST": "Nova Bréscia", "NM_SUBDIST": null}, "geometry": {"type": "Polygon", "coordinates": [[[-52.03209, -29.21316], [-52.03217, -29.21512], [-52.03441, -29.21445], [-52.03456, -29.21495], [-52.03487, -29.21515], [-52.03487, -29.21627], [-52.03715, -29.21615], [-52.03712, -29.21491], [-52.03597, -29.21495], [-52.03596, -29.21432], [-52.03733, -29.21417], [-52.03938, -29.21365], [-52.03945, -29.21249], [-52.03863, -29.21244], [-52.03752, -29.21288], [-52.03701, -29.21334], [-52.0333, -29.21308], [-52.03209, -29.21316]]]}}, 
{"type": "Feature", "properties": {"CD_SETOR": "431300305000005", "CD_SIT": "8", "NM_DIST": "Nova Bréscia", "NM_SUBDIST": null}, "geometry": {"type": "Polygon", "coordinates": [[[-52.03113, -29.21032], [-52.03149, -29.2107], [-52.03198, -29.21063], [-52.03209, -29.21316], [-52.0333, -29.21308], [-52.03701, -29.21334], [-52.03756, -29.21286], [-52.039, -29.21239], [-52.03945, -29.21249], [-52.0394, -29.21329], [-52.04042, -29.21341], [-52.04277, -29.21458], [-52.04558, -29.21455], [-52.04644, -29.21508], [-52.04744, -29.21486], [-52.04855, -29.21527], [-52.04971, -29.21544], [-52.05129, -29.21539], [-52.0525, -29.21514], [-52.05381, -29.21547], [-52.05515, -29.21522], [-52.05593, -29.21529], [-52.05689, -29.21497], [-52.05959, -29.21561], [-52.06147, -29.21567], [-52.0658, -29.2143], [-52.06688, -29.21175], [-52.06805, -29.21034], [-52.07036, -29.20985], [-52.07144, -29.20902], [-52.07214, -29.20878], [-52.07436, -29.20752], [-52.07483, -29.20745], [-52.07827, -29.20783], [-52.07833, -29.20391], [-52.07759, -29.20179], [-52.07736, -29.20157], [-52.07634, -29.20127], [-52.07564, -29.20019], [-52.07568, -29.19922], [-52.07539, -29.1987], [-52.07543, -29.19838], [-52.07576, -29.1981], [-52.07571, -29.19758], [-52.0754, -29.19733], [-52.07467, -29.19722], [-52.07437, -29.19641], [-52.07233, -29.19568], [-52.07094, -29.19544], [-52.07061, -29.19563], [-52.07037, -29.19636], [-52.0698, -29.19668], [-52.06932, -29.19665], [-52.06923, -29.19638], [-52.06891, -29.19623], [-52.06894, -29.19606], [-52.06854, -29.19595], [-52.06783, -29.19649], [-52.06702, -29.19646], [-52.06525, -29.19615], [-52.06488, -29.196], [-52.06467, -29.19573], [-52.06388, -29.19554], [-52.06361, -29.19525], [-52.06278, -29.195], [-52.06215, -29.19518], [-52.06193, -29.1948], [-52.06143, -29.19483], [-52.06109, -29.19463], [-52.06098, -29.19431], [-52.05994, -29.19412], [-52.05864, -29.1933], [-52.05751, -29.19319], [-52.05653, -29.19271], [-52.05646, -29.19239], [-52.05573, -29.1921], [-52.05601, -29.19167], [-52.0559, -29.19122], [-52.05485, -29.19085], [-52.0547, -29.1905], [-52.05315, -29.18988], [-52.05304, -29.18969], [-52.05152, -29.19024], [-52.05086, -29.19003], [-52.04981, -29.19031], [-52.04581, -29.19007], [-52.04564, -29.19], [-52.04557, -29.18941], [-52.04488, -29.18824], [-52.04416, -29.18814], [-52.04421, -29.18787], [-52.04403, -29.18765], [-52.04271, -29.18682], [-52.04177, -29.18691], [-52.04134, -29.18616], [-52.04172, -29.18549], [-52.04153, -29.18484], [-52.04112, -29.18515], [-52.04135, -29.18567], [-52.04093, -29.18629], [-52.04103, -29.18841], [-52.04137, -29.18872], [-52.0429, -29.18909], [-52.04399, -29.18992], [-52.04343, -29.19095], [-52.04371, -29.19155], [-52.04416, -29.19175], [-52.04372, -29.19292], [-52.04294, -29.1939], [-52.04254, -29.19468], [-52.04245, -29.19556], [-52.04184, -29.19593], [-52.04179, -29.1961], [-52.04235, -29.19676], [-52.0429, -29.19789], [-52.04309, -29.19926], [-52.04303, -29.20075], [-52.0438, -29.20115], [-52.04438, -29.20208], [-52.04457, -29.20322], [-52.04444, -29.20394], [-52.04406, -29.20447], [-52.04345, -29.20491], [-52.04312, -29.20497], [-52.04185, -29.20437], [-52.04019, -29.20392], [-52.03941, -29.20405], [-52.03845, -29.20455], [-52.03777, -29.20557], [-52.03611, -29.20704], [-52.03571, -29.2072], [-52.03446, -29.20715], [-52.03352, -29.20735], [-52.03269, -29.20831], [-52.0316, -29.20807], [-52.03112, -29.20975], [-52.03113, -29.21032]]]}}, 
{"type": "Feature", "properties": {"CD_SETOR": "431300305000006", "CD_SIT": "8", "NM_DIST": "Nova Bréscia", "NM_SUBDIST": null}, "geometry": {"type": "Polygon", "coordinates": [[[-52.00175, -29.16614], [-52.00146, -29.17456], [-51.98135, -29.1743], [-51.98121, -29.17762], [-51.98138, -29.17873], [-51.98268, -29.18008], [-51.98468, -29.18134], [-51.98643, -29.18219], [-51.98754, -29.18325], [-51.98818, -29.18365], [-51.99154, -29.18485], [-51.99242, -29.1857], [-51.99342, -29.18635], [-51.99471, -29.18782], [-51.99562, -29.18839], [-51.9962, -29.18947], [-51.9971, -29.18996], [-51.99946, -29.19052], [-52.00067, -29.19142], [-52.00163, -29.19134], [-52.0033, -29.19019], [-52.00408, -29.19007], [-52.00516, -29.19052], [-52.00646, -29.19069], [-52.00689, -29.19096], [-52.00782, -29.19081], [-52.00879, -29.19148], [-52.00927, -29.19158], [-52.00927, -29.19173], [-52.00815, -29.19242], [-52.00723, -29.19394], [-52.00641, -29.19438], [-52.00673, -29.19559], [-52.00576, -29.19736], [-52.00574, -29.19873], [-52.00326, -29.20029], [-52.00238, -29.20065], [-52.00264, -29.20269], [-52.00215, -29.20431], [-52.00222, -29.20566], [-52.002, -29.2074], [-52.00204, -29.20832], [-52.0022, -29.20867], [-52.00245, -29.20876], [-52.00511, -29.20849], [-52.00573, -29.20829], [-52.0067, -29.20764], [-52.00837, -29.20762], [-52.00908, -29.20807], [-52.00949, -29.20979], [-52.00978, -29.21012], [-52.01121, -29.21044], [-52.01208, -29.21092], [-52.01504, -29.21152], [-52.01581, -29.21141], [-52.01659, -29.21098], [-52.01643, -29.21055], [-52.01666, -29.21053], [-52.01721, -29.21084], [-52.01772, -29.21178], [-52.0185, -29.21224], [-52.01971, -29.21241], [-52.02113, -29.21214], [-52.0218, -29.2122], [-52.02266, -29.2126], [-52.02337, -29.21328], [-52.02394, -29.21354], [-52.02395, -29.21108], [-52.02815, -29.21106], [-52.02818, -29.20985], [-52.02873, -29.20985], [-52.02873, -29.2101], [-52.02988, -29.21025], [-52.02987, -29.2091], [-52.03058, -29.20911], [-52.0306, -29.21029], [-52.03113, -29.21032], [-52.03112, -29.20975], [-52.0316, -29.20807], [-52.03269, -29.20831], [-52.03352, -29.20735], [-52.03446, -29.20715], [-52.03571, -29.2072], [-52.03611, -29.20704], [-52.03777, -29.20557], [-52.03845, -29.20455], [-52.03941, -29.20405], [-52.04008, -29.2039], [-52.04131, -29.2042], [-52.04297, -29.20497], [-52.04345, -29.20491], [-52.04406, -29.20447], [-52.04457, -29.20347], [-52.04438, -29.20208], [-52.0438, -29.20115], [-52.04303, -29.20075], [-52.04309, -29.19926], [-52.0429, -29.19789], [-52.04235, -29.19676], [-52.04179, -29.1961], [-52.04184, -29.19593], [-52.04245, -29.19556], [-52.04254, -29.19468], [-52.04294, -29.1939], [-52.04372, -29.19292], [-52.04416, -29.19175], [-52.04371, -29.19155], [-52.04343, -29.19095], [-52.04399, -29.18992], [-52.0429, -29.18909], [-52.04123, -29.18865], [-52.04096, -29.18826], [-52.04093, -29.18629], [-52.04137, -29.18554], [-52.04112, -29.18515], [-52.04153, -29.18484], [-52.03994, -29.18237], [-52.03984, -29.18202], [-52.04011, -29.18174], [-52.04021, -29.18123], [-52.03992, -29.18071], [-52.03959, -29.18061], [-52.0388, -29.18113], [-52.03851, -29.18107], [-52.03816, -29.17944], [-52.03793, -29.17942], [-52.03752, -29.17978], [-52.03636, -29.17987], [-52.03562, -29.17946], [-52.03515, -29.17826], [-52.03447, -29.1776], [-52.03455, -29.17731], [-52.03435, -29.1768], [-52.03383, -29.17604], [-52.03331, -29.17589], [-52.03257, -29.17534], [-52.03225, -29.17479], [-52.02879, -29.17372], [-52.02601, -29.17312], [-52.02452, -29.17298], [-52.02384, -29.17334], [-52.02351, -29.1734], [-52.02328, -29.17326], [-52.02312, -29.17234], [-52.02319, -29.17181], [-52.02291, -29.17165], [-52.02233, -29.17173], [-52.0219, -29.17148], [-52.02207, -29.16947], [-52.02313, -29.1691], [-52.02337, -29.16875], [-52.0232, -29.16809], [-52.02189, -29.16817], [-52.01955, -29.16711], [-52.01801, -29.16727], [-52.01771, -29.16754], [-52.01626, -29.16774], [-52.01209, -29.16541], [-52.01066, -29.16329], [-52.00742, -29.16265], [-52.00476, -29.16738], [-52.00252, -29.16728], [-52.00175, -29.16614]]]}}, 
{"type": "Feature", "properties": {"CD_SETOR": "431300305000007", "CD_SIT": "8", "NM_DIST": "Nova Bréscia", "NM_SUBDIST": null}, "geometry": {"type": "Polygon", "coordinates": [[[-51.97927, -29.19467], [-51.97929, -29.20158], [-51.95815, -29.20199], [-51.9585, -29.21358], [-51.96138, -29.21489], [-51.9614, -29.21702], [-51.96267, -29.21886], [-51.9642, -29.21918], [-51.96603, -29.21826], [-51.96691, -29.21802], [-51.96863, -29.21873], [-51.97028, -29.21903], [-51.97059, -29.21884], [-51.9711, -29.21806], [-51.97153, -29.21782], [-51.97514, -29.21745], [-51.97578, -29.21726], [-51.97683, -29.21637], [-51.97745, -29.21617], [-51.97945, -29.21416], [-51.98095, -29.21368], [-51.98325, -29.21459], [-51.985, -29.2157], [-51.9859, -29.21573], [-51.98738, -29.21505], [-51.98963, -29.21503], [-51.99024, -29.21515], [-51.99127, -29.21567], [-51.99186, -29.21632], [-51.99313, -29.21594], [-51.99588, -29.21604], [-51.99687, -29.21551], [-51.99759, -29.21473], [-51.99803, -29.21451], [-51.99847, -29.21456], [-51.99993, -29.21529], [-52.0006, -29.21546], [-52.00114, -29.21543], [-52.00227, -29.21497], [-52.00327, -29.21507], [-52.00564, -29.21616], [-52.00618, -29.21609], [-52.0075, -29.21553], [-52.00927, -29.21549], [-52.00994, -29.21585], [-52.00994, -29.21529], [-52.01078, -29.21593], [-52.01193, -29.21736], [-52.01142, -29.21628], [-52.01131, -29.21476], [-52.01111, -29.21439], [-52.01401, -29.21369], [-52.01538, -29.21412], [-52.01622, -29.21413], [-52.01659, -29.21098], [-52.01581, -29.21141], [-52.01504, -29.21152], [-52.01208, -29.21092], [-52.01121, -29.21044], [-52.00978, -29.21012], [-52.00949, -29.20979], [-52.00908, -29.20807], [-52.00837, -29.20762], [-52.0067, -29.20764], [-52.00573, -29.20829], [-52.00511, -29.20849], [-52.00245, -29.20876], [-52.00207, -29.20845], [-52.00215, -29.20431], [-52.00264, -29.20269], [-52.00238, -29.20065], [-52.00326, -29.20029], [-52.00574, -29.19873], [-52.00576, -29.19736], [-52.00673, -29.19559], [-52.00641, -29.19438], [-52.00723, -29.19394], [-52.00815, -29.19242], [-52.00927, -29.19173], [-52.00924, -29.19154], [-52.00879, -29.19148], [-52.00782, -29.19081], [-52.00689, -29.19096], [-52.00646, -29.19069], [-52.00516, -29.19052], [-52.00408, -29.19007], [-52.0033, -29.19019], [-52.00163, -29.19134], [-52.00067, -29.19142], [-51.99946, -29.19052], [-51.99734, -29.19007], [-51.9962, -29.18947], [-51.99562, -29.18839], [-51.99471, -29.18782], [-51.99342, -29.18635], [-51.99242, -29.1857], [-51.99154, -29.18485], [-51.98818, -29.18365], [-51.98754, -29.18325], [-51.98643, -29.18219], [-51.98307, -29.18036], [-51.9819, -29.17938], [-51.98138, -29.17873], [-51.98122, -29.17784], [-51.98135, -29.1743], [-51.97994, -29.17429], [-51.98183, -29.18395], [-51.97924, -29.18388], [-51.97927, -29.19467]]]}}, 
{"type": "Feature", "properties": {"CD_SETOR": "431300305000008", "CD_SIT": "8", "NM_DIST": "Nova Bréscia", "NM_SUBDIST": null}, "geometry": {"type": "Polygon", "coordinates": [[[-51.9614, -29.21702], [-51.96158, -29.23798], [-51.96601, -29.23802], [-51.96649, -29.23726], [-51.9674, -29.23633], [-51.96738, -29.23564], [-51.97635, -29.23513], [-51.97657, -29.23416], [-51.99359, -29.23383], [-51.99408, -29.23461], [-51.99361, -29.23567], [-51.99375, -29.23597], [-51.99471, -29.23625], [-51.99494, -29.23657], [-51.99565, -29.23853], [-51.99575, -29.23927], [-51.99558, -29.23966], [-51.99417, -29.24033], [-51.99461, -29.24236], [-51.99486, -29.24283], [-51.99532, -29.24298], [-51.99678, -29.24258], [-51.99758, -29.24275], [-51.99813, -29.24325], [-51.99853, -29.24451], [-51.99831, -29.24685], [-51.999, -29.24791], [-51.99989, -29.24836], [-52.00155, -29.24823], [-52.00224, -29.24834], [-52.00403, -29.24932], [-52.0046, -29.24995], [-52.0048, -29.2506], [-52.0053, -29.25125], [-52.00636, -29.25192], [-52.00917, -29.25435], [-52.01091, -29.25464], [-52.01166, -29.25536], [-52.01217, -29.25543], [-52.01314, -29.25499], [-52.01432, -29.25499], [-52.01475, -29.2546], [-52.01447, -29.25356], [-52.0129, -29.25233], [-52.01301, -29.2498], [-52.01336, -29.24931], [-52.01495, -29.24896], [-52.01668, -29.24811], [-52.01794, -29.24674], [-52.01758, -29.24593], [-52.01753, -29.24531], [-52.0194, -29.24489], [-52.02245, -29.24546], [-52.02415, -29.2446], [-52.02566, -29.24441], [-52.02639, -29.24452], [-52.0284, -29.24531], [-52.03012, -29.24542], [-52.03156, -29.24515], [-52.03243, -29.24557], [-52.03692, -29.2454], [-52.03721, -29.24448], [-52.03717, -29.24364], [-52.03867, -29.24207], [-52.03835, -29.24118], [-52.03751, -29.24089], [-52.03722, -29.24046], [-52.03703, -29.23837], [-52.03663, -29.23696], [-52.03627, -29.23629], [-52.03586, -29.2359], [-52.03508, -29.2362], [-52.03471, -29.2361], [-52.0343, -29.23547], [-52.0334, -29.23463], [-52.03328, -29.23429], [-52.03319, -29.23227], [-52.03386, -29.23187], [-52.03511, -29.2318], [-52.03522, -29.2313], [-52.03494, -29.23051], [-52.03636, -29.22877], [-52.03717, -29.22811], [-52.03713, -29.22579], [-52.03611, -29.22509], [-52.03602, -29.22452], [-52.03511, -29.22259], [-52.0331, -29.22229], [-52.0295, -29.22116], [-52.02971, -29.22146], [-52.02967, -29.22193], [-52.02995, -29.2229], [-52.02903, -29.22258], [-52.02746, -29.22137], [-52.02817, -29.22004], [-52.02692, -29.21848], [-52.02344, -29.21832], [-52.02347, -29.21692], [-52.0207, -29.21688], [-52.01586, -29.21722], [-52.01314, -29.21713], [-52.01336, -29.21837], [-52.01303, -29.21876], [-52.01254, -29.2189], [-52.01243, -29.21912], [-52.01316, -29.22102], [-52.01197, -29.22117], [-52.01162, -29.21916], [-52.00994, -29.21744], [-52.00994, -29.21585], [-52.00946, -29.21555], [-52.0075, -29.21553], [-52.00618, -29.21609], [-52.00564, -29.21616], [-52.00327, -29.21507], [-52.00227, -29.21497], [-52.00114, -29.21543], [-52.0006, -29.21546], [-51.99821, -29.21451], [-51.99778, -29.2146], [-51.99687, -29.21551], [-51.99588, -29.21604], [-51.99313, -29.21594], [-51.99186, -29.21632], [-51.99127, -29.21567], [-51.99024, -29.21515], [-51.98963, -29.21503], [-51.98738, -29.21505], [-51.9859, -29.21573], [-51.985, -29.2157], [-51.9826, -29.21427], [-51.98144, -29.21378], [-51.9807, -29.2137], [-51.97945, -29.21416], [-51.97745, -29.21617], [-51.97683, -29.21637], [-51.97578, -29.21726], [-51.97514, -29.21745], [-51.97153, -29.21782], [-51.9711, -29.21806], [-51.97045, -29.21896], [-51.97004, -29.21905], [-51.96863, -29.21873], [-51.96722, -29.21807], [-51.96669, -29.21802], [-51.96446, -29.21909], [-51.96357, -29.21914], [-51.96254, -29.21875], [-51.9614, -29.21702]]]}}, 
{"type": "Feature", "properties": {"CD_SETOR": "431300305000009", "CD_SIT": "8", "NM_DIST": "Nova Bréscia", "NM_SUBDIST": null}, "geometry": {"type": "Polygon", "coordinates": [[[-52.0394, -29.21329], [-52.03938, -29.21365], [-52.03733, -29.21417], [-52.03596, -29.21432], [-52.03597, -29.21495], [-52.03712, -29.21491], [-52.03715, -29.21615], [-52.03487, -29.21627], [-52.03487, -29.21515], [-52.03456, -29.21495], [-52.03441, -29.21445], [-52.03186, -29.2152], [-52.03072, -29.21527], [-52.03068, -29.22094], [-52.03386, -29.22181], [-52.0344, -29.22175], [-52.03452, -29.22132], [-52.03602, -29.22452], [-52.03611, -29.22509], [-52.03713, -29.22579], [-52.03717, -29.22811], [-52.03636, -29.22877], [-52.03494, -29.23051], [-52.0352, -29.23116], [-52.03516, -29.23173], [-52.03499, -29.23186], [-52.03363, -29.23194], [-52.03328, -29.23215], [-52.03312, -29.23251], [-52.0334, -29.23463], [-52.0343, -29.23547], [-52.03471, -29.2361], [-52.03508, -29.2362], [-52.03586, -29.2359], [-52.03627, -29.23629], [-52.03663, -29.23696], [-52.03703, -29.23837], [-52.03722, -29.24046], [-52.03751, -29.24089], [-52.03835, -29.24118], [-52.03868, -29.24186], [-52.0386, -29.2422], [-52.03717, -29.24364], [-52.03721, -29.24448], [-52.03698, -29.24537], [-52.03243, -29.24557], [-52.03156, -29.24515], [-52.03012, -29.24542], [-52.0284, -29.24531], [-52.02639, -29.24452], [-52.02566, -29.24441], [-52.02415, -29.2446], [-52.02245, -29.24546], [-52.01918, -29.2449], [-52.01753, -29.24531], [-52.01758, -29.24593], [-52.01794, -29.24674], [-52.01653, -29.24824], [-52.01495, -29.24896], [-52.01336, -29.24931], [-52.01301, -29.2498], [-52.0129, -29.25233], [-52.01428, -29.25334], [-52.01479, -29.25442], [-52.01468, -29.25472], [-52.0134, -29.25585], [-52.01351, -29.25712], [-52.01631, -29.25988], [-52.01667, -29.26009], [-52.01941, -29.26042], [-52.02089, -29.26088], [-52.02227, -29.26093], [-52.02475, -29.26378], [-52.02638, -29.26509], [-52.02983, -29.267], [-52.03072, -29.26705], [-52.03259, -29.26663], [-52.03542, -29.26683], [-52.03618, -29.26714], [-52.03665, -29.26763], [-52.03663, -29.263], [-52.04216, -29.26295], [-52.04203, -29.25143], [-52.05727, -29.25043], [-52.05686, -29.24935], [-52.05718, -29.2494], [-52.05772, -29.25007], [-52.05865, -29.25011], [-52.05927, -29.24973], [-52.05978, -29.24903], [-52.06004, -29.24908], [-52.06081, -29.24992], [-52.06202, -29.25067], [-52.06315, -29.25057], [-52.06398, -29.25007], [-52.06605, -29.24674], [-52.06619, -29.24599], [-52.06584, -29.24493], [-52.06655, -29.2436], [-52.06844, -29.242], [-52.06927, -29.24101], [-52.06929, -29.23952], [-52.06899, -29.23782], [-52.06914, -29.23768], [-52.07026, -29.23777], [-52.07001, -29.23623], [-52.07013, -29.23532], [-52.07053, -29.23466], [-52.07015, -29.23405], [-52.07001, -29.23318], [-52.07068, -29.23062], [-52.07128, -29.22911], [-52.07119, -29.22768], [-52.07146, -29.22617], [-52.07185, -29.22505], [-52.07237, -29.22441], [-52.07296, -29.22401], [-52.07264, -29.22356], [-52.07263, -29.223], [-52.07331, -29.22237], [-52.07371, -29.22043], [-52.0743, -29.22], [-52.07517, -29.21863], [-52.07513, -29.21843], [-52.07411, -29.21773], [-52.07402, -29.21688], [-52.07436, -29.21636], [-52.07438, -29.21576], [-52.07506, -29.21527], [-52.07521, -29.21443], [-52.07611, -29.21408], [-52.07723, -29.21307], [-52.07737, -29.21254], [-52.07876, -29.21009], [-52.07874, -29.20864], [-52.07848, -29.20839], [-52.07827, -29.20775], [-52.07483, -29.20745], [-52.07416, -29.20758], [-52.07214, -29.20878], [-52.07127, -29.20912], [-52.07036, -29.20985], [-52.06869, -29.21014], [-52.06789, -29.21044], [-52.06688, -29.21175], [-52.06597, -29.21399], [-52.06562, -29.21444], [-52.06147, -29.21567], [-52.05959, -29.21561], [-52.05689, -29.21497], [-52.05593, -29.21529], [-52.05515, -29.21522], [-52.05381, -29.21547], [-52.0525, -29.21514], [-52.05129, -29.21539], [-52.04971, -29.21544], [-52.04855, -29.21527], [-52.04744, -29.21486], [-52.04661, -29.21511], [-52.04558, -29.21455], [-52.04263, -29.21454], [-52.04042, -29.21341], [-52.0394, -29.21329]]]}}, 
{"type": "Feature", "properties": {"CD_SETOR": "431300305000010", "CD_SIT": "8", "NM_DIST": "Nova Bréscia", "NM_SUBDIST": null}, "geometry": {"type": "Polygon", "coordinates": [[[-52.05727, -29.25043], [-52.05754, -29.25041], [-52.05956, -29.25213], [-52.06158, -29.25538], [-52.06375, -29.25809], [-52.06503, -29.25906], [-52.06551, -29.25995], [-52.06545, -29.26105], [-52.06506, -29.26249], [-52.06514, -29.26284], [-52.06533, -29.2633], [-52.06643, -29.26414], [-52.06679, -29.26473], [-52.0676, -29.26415], [-52.06861, -29.26388], [-52.07078, -29.26376], [-52.07397, -29.26409], [-52.07429, -29.26445], [-52.07422, -29.26467], [-52.07347, -29.26471], [-52.07206, -29.26457], [-52.07275, -29.26522], [-52.07393, -29.26557], [-52.07282, -29.27046], [-52.11224, -29.27063], [-52.11232, -29.2578], [-52.1134, -29.23282], [-52.09622, -29.23278], [-52.09785, -29.23141], [-52.09836, -29.22907], [-52.09795, -29.22787], [-52.09743, -29.22737], [-52.097, -29.22655], [-52.09544, -29.22594], [-52.09478, -29.22394], [-52.09434, -29.2234], [-52.09337, -29.22326], [-52.09227, -29.22232], [-52.09141, -29.22249], [-52.09117, -29.2218], [-52.09031, -29.22115], [-52.08974, -29.22094], [-52.08814, -29.22082], [-52.08798, -29.22064], [-52.08858, -29.21971], [-52.08891, -29.21945], [-52.08941, -29.21821], [-52.09093, -29.21695], [-52.09101, -29.21655], [-52.09174, -29.21599], [-52.09288, -29.21427], [-52.09244, -29.21315], [-52.09246, -29.21274], [-52.07737, -29.21254], [-52.07723, -29.21307], [-52.07657, -29.21373], [-52.07611, -29.21408], [-52.07521, -29.21443], [-52.07506, -29.21527], [-52.07438, -29.21576], [-52.07436, -29.21636], [-52.07402, -29.21688], [-52.07411, -29.21773], [-52.07513, -29.21843], [-52.07517, -29.21863], [-52.0743, -29.22], [-52.07371, -29.22043], [-52.07331, -29.22237], [-52.07263, -29.223], [-52.07264, -29.22356], [-52.07296, -29.22401], [-52.07237, -29.22441], [-52.07185, -29.22505], [-52.07146, -29.22617], [-52.07119, -29.22768], [-52.07128, -29.22911], [-52.07068, -29.23062], [-52.07001, -29.23318], [-52.07015, -29.23405], [-52.07053, -29.23466], [-52.07013, -29.23532], [-52.07001, -29.23623], [-52.07026, -29.23777], [-52.06914, -29.23768], [-52.06899, -29.23782], [-52.06932, -29.23987], [-52.06932, -29.24069], [-52.06914, -29.24128], [-52.06655, -29.2436], [-52.06584, -29.24493], [-52.06619, -29.24599], [-52.06605, -29.24674], [-52.06464, -29.24912], [-52.06377, -29.25029], [-52.06281, -29.25067], [-52.06202, -29.25067], [-52.06081, -29.24992], [-52.06004, -29.24908], [-52.05978, -29.24903], [-52.05927, -29.24973], [-52.05865, -29.25011], [-52.05772, -29.25007], [-52.05718, -29.2494], [-52.05686, -29.24935], [-52.05727, -29.25043]]]}}, 
{"type": "Feature", "properties": {"CD_SETOR": "431300305000011", "CD_SIT": "2", "NM_DIST": "Nova Bréscia", "NM_SUBDIST": null}, "geometry": {"type": "Polygon", "coordinates": [[[-52.02394, -29.21228], [-52.02949, -29.21231], [-52.03209, -29.21316], [-52.03198, -29.21063], [-52.03149, -29.2107], [-52.03113, -29.21032], [-52.0306, -29.21029], [-52.03058, -29.20911], [-52.02987, -29.2091], [-52.02988, -29.21025], [-52.02873, -29.2101], [-52.02873, -29.20985], [-52.02818, -29.20985], [-52.02815, -29.21106], [-52.02395, -29.21108], [-52.02394, -29.21228]]]}}, 
{"type": "Feature", "properties": {"CD_SETOR": "431300305000012", "CD_SIT": "2", "NM_DIST": "Nova Bréscia", "NM_SUBDIST": null}, "geometry": {"type": "Polygon", "coordinates": [[[-52.01659, -29.21098], [-52.01622, -29.21413], [-52.01725, -29.21403], [-52.01819, -29.2143], [-52.01919, -29.21415], [-52.02145, -29.21292], [-52.02221, -29.21334], [-52.02244, -29.21392], [-52.02263, -29.21403], [-52.02266, -29.2126], [-52.02234, -29.21242], [-52.02128, -29.21213], [-52.02015, -29.21239], [-52.01862, -29.21228], [-52.01772, -29.21178], [-52.01728, -29.21093], [-52.01695, -29.21062], [-52.01643, -29.21055], [-52.01659, -29.21098]]]}}, 
{"type": "Feature", "properties": {"CD_SETOR": "431300305000013", "CD_SIT": "2", "NM_DIST": "Nova Bréscia", "NM_SUBDIST": null}, "geometry": {"type": "Polygon", "coordinates": [[[-52.00994, -29.21585], [-52.00994, -29.21744], [-52.01162, -29.21916], [-52.01197, -29.22117], [-52.01316, -29.22102], [-52.01243, -29.21912], [-52.01254, -29.2189], [-52.01303, -29.21876], [-52.01336, -29.21837], [-52.01314, -29.21713], [-52.01586, -29.21722], [-52.01977, -29.21698], [-52.01966, -29.21391], [-52.01919, -29.21415], [-52.01819, -29.2143], [-52.01725, -29.21403], [-52.01564, -29.21417], [-52.01401, -29.21369], [-52.01111, -29.21439], [-52.01131, -29.21476], [-52.01142, -29.21628], [-52.01193, -29.21736], [-52.01078, -29.21593], [-52.00994, -29.21529], [-52.00994, -29.21585]]]}}]}