{"type": "FeatureCollection", "features": [
{"type": "Feature", "properties": {"CD_SETOR": "431845705000001", "CD_SIT": "1", "NM_DIST": "São José das Missões", "NM_SUBDIST": null}, "geometry": {"type": "Polygon", "coordinates": [[[-53.10516, -27.77064], [-53.1047, -27.77264], [-53.10616, -27.77556], [-53.10922, -27.77867], [-53.11001, -27.77907], [-53.11279, -27.77965], [-53.11327, -27.78005], [-53.11348, -27.78071], [-53.11414, -27.78152], [-53.11457, -27.78249], [-53.11497, -27.78282], [-53.11627, -27.78298], [-53.11707, -27.78353], [-53.11775, -27.78428], [-53.11937, -27.7853], [-53.12089, -27.78692], [-53.12136, -27.78706], [-53.12175, -27.78757], [-53.12219, -27.78781], [-53.12246, -27.78847], [-53.12408, -27.79087], [-53.12586, -27.78997], [-53.12741, -27.78674], [-53.12506, -27.77926], [-53.11806, -27.77331], [-53.11308, -27.77143], [-53.10852, -27.77046], [-53.10555, -27.77036], [-53.10516, -27.77064]]]}}, 
{"type": "Feature", "properties": {"CD_SETOR": "431845705000002", "CD_SIT": "8", "NM_DIST": "São José das Missões", "NM_SUBDIST": null}, "geometry": {"type": "Polygon", "coordinates": [[[-53.12778, -27.75279], [-53.12779, -27.75324], [-53.12585, -27.75435], [-53.12162, -27.7549], [-53.12052, -27.75324], [-53.11948, -27.75334], [-53.11685, -27.75514], [-53.11819, -27.75778], [-53.11717, -27.75933], [-53.11563, -27.7593], [-53.11431, -27.76119], [-53.11262, -27.76093], [-53.11257, -27.75816], [-53.10952, -27.75917], [-53.10605, -27.75994], [-53.10189, -27.76016], [-53.09668, -27.76089], [-53.0931, -27.76231], [-53.09118, -27.76393], [-53.09213, -27.7656], [-53.09199, -27.76623], [-53.09279, -27.76602], [-53.0961, -27.76758], [-53.10149, -27.76854], [-53.10409, -27.77053], [-53.10516, -27.77064], [-53.10555, -27.77036], [-53.10852, -27.77046], [-53.11308, -27.77143], [-53.11806, -27.77331], [-53.12506, -27.77926], [-53.12617, -27.7828], [-53.12709, -27.78163], [-53.12782, -27.78155], [-53.12875, -27.78074], [-53.13026, -27.78041], [-53.13141, -27.78053], [-53.13192, -27.78035], [-53.13243, -27.77965], [-53.13228, -27.77897], [-53.13177, -27.77868], [-53.13171, -27.77845], [-53.13201, -27.77736], [-53.13181, -27.77643], [-53.13259, -27.77463], [-53.13208, -27.7735], [-53.13204, -27.77234], [-53.13117, -27.76818], [-53.13108, -27.76743], [-53.13126, -27.76492], [-53.13116, -27.76444], [-53.13061, -27.76383], [-53.13047, -27.7624], [-53.12986, -27.7617], [-53.12932, -27.76134], [-53.12868, -27.76117], [-53.12786, -27.7615], [-53.12715, -27.76098], [-53.12607, -27.76086], [-53.12565, -27.7604], [-53.12563, -27.76016], [-53.12596, -27.75986], [-53.12642, -27.75899], [-53.1262, -27.75769], [-53.12651, -27.75617], [-53.12847, -27.75353], [-53.12884, -27.75289], [-53.12891, -27.75244], [-53.12847, -27.7525], [-53.12805, -27.75287], [-53.12778, -27.75279]]]}}, 
{"type": "Feature", "properties": {"CD_SETOR": "431845705000003", "CD_SIT": "8", "NM_DIST": "São José das Missões", "NM_SUBDIST": null}, "geometry": {"type": "Polygon", "coordinates": [[[-53.07075, -27.77523], [-53.07069, -27.77553], [-53.07001, -27.77637], [-53.06989, -27.7775], [-53.07009, -27.77789], [-53.07054, -27.77801], [-53.07077, -27.77826], [-53.0713, -27.77954], [-53.07186, -27.78028], [-53.0724, -27.78054], [-53.07242, -27.78087], [-53.07298, -27.78146], [-53.07287, -27.78188], [-53.07299, -27.78225], [-53.07277, -27.7826], [-53.07286, -27.78288], [-53.07501, -27.78347], [-53.07483, -27.78424], [-53.07545, -27.78459], [-53.07593, -27.78446], [-53.07665, -27.78362], [-53.07656, -27.78288], [-53.07698, -27.78252], [-53.07716, -27.78197], [-53.0774, -27.78176], [-53.07855, -27.78125], [-53.07874, -27.78132], [-53.07891, -27.78168], [-53.0792, -27.78177], [-53.07869, -27.78538], [-53.07882, -27.78567], [-53.07788, -27.78717], [-53.07796, -27.78887], [-53.0788, -27.78962], [-53.07921, -27.78944], [-53.08011, -27.78813], [-53.0806, -27.78795], [-53.08338, -27.78884], [-53.08392, -27.78866], [-53.0848, -27.78784], [-53.08542, -27.78769], [-53.08608, -27.7877], [-53.0865, -27.78801], [-53.08724, -27.7881], [-53.08783, -27.78846], [-53.08861, -27.78855], [-53.0893, -27.78848], [-53.08992, -27.7882], [-53.09071, -27.78744], [-53.09115, -27.78731], [-53.092, -27.78746], [-53.09317, -27.78737], [-53.09421, -27.78782], [-53.09455, -27.78826], [-53.09493, -27.7884], [-53.09609, -27.78791], [-53.09772, -27.78828], [-53.09799, -27.7882], [-53.09882, -27.78737], [-53.09919, -27.78724], [-53.10039, -27.78736], [-53.10072, -27.78771], [-53.10197, -27.78788], [-53.10206, -27.78843], [-53.10267, -27.7885], [-53.10299, -27.78803], [-53.10327, -27.78798], [-53.10419, -27.78897], [-53.10489, -27.79023], [-53.10562, -27.79073], [-53.10533, -27.79117], [-53.10539, -27.79138], [-53.10602, -27.79169], [-53.10652, -27.79143], [-53.10712, -27.79158], [-53.10773, -27.79144], [-53.10858, -27.791], [-53.10921, -27.79091], [-53.10987, -27.79122], [-53.11055, -27.79211], [-53.11046, -27.79271], [-53.11181, -27.79353], [-53.11225, -27.79407], [-53.11244, -27.79399], [-53.11234, -27.79289], [-53.11246, -27.79267], [-53.11471, -27.79084], [-53.11462, -27.79017], [-53.11629, -27.78977], [-53.11948, -27.78744], [-53.12036, -27.78719], [-53.12068, -27.78725], [-53.12165, -27.7879], [-53.12216, -27.78804], [-53.12246, -27.78847], [-53.12219, -27.78781], [-53.12175, -27.78757], [-53.12136, -27.78706], [-53.12089, -27.78692], [-53.11937, -27.7853], [-53.11775, -27.78428], [-53.11707, -27.78353], [-53.11627, -27.78298], [-53.11497, -27.78282], [-53.11457, -27.78249], [-53.11414, -27.78152], [-53.11348, -27.78071], [-53.11327, -27.78005], [-53.11279, -27.77965], [-53.11001, -27.77907], [-53.10922, -27.77867], [-53.10616, -27.77556], [-53.1047, -27.77264], [-53.10516, -27.77064], [-53.10409, -27.77053], [-53.10149, -27.76854], [-53.0961, -27.76758], [-53.09279, -27.76602], [-53.09199, -27.76623], [-53.09213, -27.7656], [-53.09118, -27.76393], [-53.09004, -27.76462], [-53.08939, -27.76542], [-53.08803, -27.76883], [-53.08709, -27.77048], [-53.08562, -27.7723], [-53.08266, -27.77489], [-53.07984, -27.77585], [-53.07832, -27.77606], [-53.07702, -27.77594], [-53.07435, -27.77533], [-53.07075, -27.77523]]]}}, 
{"type": "Feature", "properties": {"CD_SETOR": "431845705000004", "CD_SIT": "8", "NM_DIST": "São José das Missões", "NM_SUBDIST": null}, "geometry": {"type": "Polygon", "coordinates": [[[-53.08417, -27.78838], [-53.08605, -27.78889], [-53.08707, -27.7899], [-53.08824, -27.78996], [-53.09, -27.78962], [-53.0902, -27.7898], [-53.09028, -27.79035], [-53.09179, -27.7917], [-53.09224, -27.7928], [-53.09373, -27.79514], [-53.09675, -27.79895], [-53.10698, -27.8034], [-53.10821, -27.80409], [-53.10868, -27.8041], [-53.11538, -27.8069], [-53.11938, -27.80823], [-53.12352, -27.8113], [-53.12438, -27.81121], [-53.12464, -27.81162], [-53.12487, -27.81169], [-53.12508, -27.81127], [-53.12596, -27.81039], [-53.12957, -27.8083], [-53.13062, -27.80641], [-53.13093, -27.80614], [-53.13301, -27.80556], [-53.13047, -27.80039], [-53.1289, -27.79808], [-53.12839, -27.797], [-53.12788, -27.79649], [-53.1265, -27.79568], [-53.12593, -27.795], [-53.12582, -27.79235], [-53.12603, -27.78977], [-53.12408, -27.79087], [-53.12216, -27.78804], [-53.12165, -27.7879], [-53.12068, -27.78725], [-53.12036, -27.78719], [-53.11948, -27.78744], [-53.11629, -27.78977], [-53.11462, -27.79017], [-53.11471, -27.79084], [-53.11246, -27.79267], [-53.11234, -27.79289], [-53.11244, -27.79399], [-53.11225, -27.79407], [-53.11181, -27.79353], [-53.11046, -27.79271], [-53.11055, -27.79211], [-53.10987, -27.79122], [-53.10921, -27.79091], [-53.10858, -27.791], [-53.10773, -27.79144], [-53.10712, -27.79158], [-53.10652, -27.79143], [-53.10602, -27.79169], [-53.10539, -27.79138], [-53.10533, -27.79117], [-53.10562, -27.79073], [-53.10489, -27.79023], [-53.10419, -27.78897], [-53.10327, -27.78798], [-53.10299, -27.78803], [-53.10267, -27.7885], [-53.10206, -27.78843], [-53.10197, -27.78788], [-53.10072, -27.78771], [-53.10039, -27.78736], [-53.09919, -27.78724], [-53.09882, -27.78737], [-53.09799, -27.7882], [-53.09772, -27.78828], [-53.09609, -27.78791], [-53.09493, -27.7884], [-53.09455, -27.78826], [-53.09421, -27.78782], [-53.09317, -27.78737], [-53.092, -27.78746], [-53.09115, -27.78731], [-53.09071, -27.78744], [-53.08992, -27.7882], [-53.0893, -27.78848], [-53.08783, -27.78846], [-53.08724, -27.7881], [-53.0865, -27.78801], [-53.08608, -27.7877], [-53.0848, -27.78784], [-53.08417, -27.78838]]]}}, 
{"type": "Feature", "properties": {"CD_SETOR": "431845705000005", "CD_SIT": "8", "NM_DIST": "São José das Missões", "NM_SUBDIST": null}, "geometry": {"type": "Polygon", "coordinates": [[[-53.05616, -27.79713], [-53.05605, -27.79756], [-53.05649, -27.7992], [-53.05737, -27.79874], [-53.05816, -27.7978], [-53.05928, -27.79842], [-53.06205, -27.79778], [-53.06352, -27.7979], [-53.0648, -27.79778], [-53.06577, -27.7971], [-53.06661, -27.79694], [-53.06712, -27.79789], [-53.06747, -27.79821], [-53.06801, -27.79824], [-53.06899, -27.79815], [-53.07108, -27.79739], [-53.07381, -27.79722], [-53.07415, -27.79759], [-53.07424, -27.79877], [-53.07346, -27.7992], [-53.07277, -27.79988], [-53.0725, -27.80039], [-53.07234, -27.80153], [-53.07255, -27.80209], [-53.07375, -27.80311], [-53.07534, -27.80348], [-53.0766, -27.80335], [-53.07849, -27.80398], [-53.07968, -27.80454], [-53.08257, -27.80665], [-53.08331, -27.80675], [-53.08603, -27.80652], [-53.08693, -27.80659], [-53.08723, -27.80675], [-53.08739, -27.80705], [-53.08749, -27.80814], [-53.08782, -27.80896], [-53.08998, -27.81024], [-53.09182, -27.81212], [-53.09471, -27.81236], [-53.0956, -27.8121], [-53.09632, -27.81213], [-53.09698, -27.81253], [-53.09771, -27.81357], [-53.0988, -27.81416], [-53.10103, -27.81422], [-53.10372, -27.81538], [-53.10482, -27.81541], [-53.10585, -27.81479], [-53.10662, -27.81467], [-53.10753, -27.81509], [-53.10834, -27.81648], [-53.10903, -27.8165], [-53.10954, -27.81602], [-53.1101, -27.81577], [-53.11146, -27.81574], [-53.1119, -27.81591], [-53.11288, -27.81706], [-53.1139, -27.81909], [-53.11474, -27.81985], [-53.11504, -27.82064], [-53.11591, -27.82048], [-53.11684, -27.82085], [-53.11751, -27.82089], [-53.12027, -27.81912], [-53.1241, -27.81918], [-53.12532, -27.81948], [-53.1265, -27.81955], [-53.12876, -27.81857], [-53.1301, -27.81847], [-53.13034, -27.81879], [-53.13033, -27.81927], [-53.12965, -27.82552], [-53.12926, -27.82691], [-53.12922, -27.82781], [-53.12986, -27.82854], [-53.13077, -27.82904], [-53.13116, -27.82911], [-53.13208, -27.8288], [-53.13477, -27.82938], [-53.13631, -27.83006], [-53.13657, -27.83006], [-53.13783, -27.8294], [-53.13862, -27.8295], [-53.13657, -27.83169], [-53.14032, -27.82796], [-53.14393, -27.82777], [-53.14519, -27.82692], [-53.14638, -27.82781], [-53.15037, -27.82667], [-53.15171, -27.82564], [-53.15364, -27.82558], [-53.15577, -27.82592], [-53.16091, -27.82087], [-53.16358, -27.82456], [-53.16069, -27.82687], [-53.16354, -27.83061], [-53.16393, -27.82947], [-53.16532, -27.82737], [-53.16503, -27.82646], [-53.16508, -27.82466], [-53.16398, -27.82221], [-53.16517, -27.82132], [-53.16548, -27.82068], [-53.1664, -27.81973], [-53.16731, -27.81938], [-53.1677, -27.81889], [-53.16712, -27.81775], [-53.16584, -27.81657], [-53.1645, -27.81569], [-53.16111, -27.81484], [-53.15622, -27.81388], [-53.15373, -27.81237], [-53.15068, -27.80978], [-53.14947, -27.80924], [-53.14776, -27.80874], [-53.14557, -27.80871], [-53.14062, -27.80753], [-53.1361, -27.80711], [-53.13461, -27.80658], [-53.13301, -27.80556], [-53.13093, -27.80614], [-53.13062, -27.80641], [-53.12957, -27.8083], [-53.12596, -27.81039], [-53.12508, -27.81127], [-53.12487, -27.81169], [-53.12464, -27.81162], [-53.12438, -27.81121], [-53.12352, -27.8113], [-53.11938, -27.80823], [-53.11538, -27.8069], [-53.10868, -27.8041], [-53.10821, -27.80409], [-53.10698, -27.8034], [-53.09675, -27.79895], [-53.09373, -27.79514], [-53.09224, -27.7928], [-53.09179, -27.7917], [-53.09028, -27.79035], [-53.0902, -27.7898], [-53.09, -27.78962], [-53.08824, -27.78996], [-53.08707, -27.7899], [-53.08671, -27.78941], [-53.08565, -27.78871], [-53.08417, -27.78838], [-53.08392, -27.78866], [-53.08338, -27.78884], [-53.08295, -27.78879], [-53.08235, -27.78844], [-53.0806, -27.78795], [-53.08011, -27.78813], [-53.07921, -27.78944], [-53.0788, -27.78962], [-53.07859, -27.78953], [-53.07848, -27.78921], [-53.07796, -27.78887], [-53.07788, -27.78717], [-53.07882, -27.78567], [-53.07869, -27.78538], [-53.0792, -27.78177], [-53.07891, -27.78168], [-53.07874, -27.78132], [-53.07855, -27.78125], [-53.0774, -27.78176], [-53.07716, -27.78197], [-53.07698, -27.78252], [-53.07656, -27.78288], [-53.07665, -27.78362], [-53.07593, -27.78446], [-53.07545, -27.78459], [-53.07483, -27.78424], [-53.07501, -27.78347], [-53.07286, -27.78288], [-53.07277, -27.7826], [-53.07299, -27.78225], [-53.07287, -27.78188], [-53.07298, -27.78146], [-53.07242, -27.78087], [-53.0724, -27.78054], [-53.07186, -27.78028], [-53.0713, -27.77954], [-53.07077, -27.77826], [-53.07054, -27.77801], [-53.07009, -27.77789], [-53.06989, -27.7775], [-53.07001, -27.77637], [-53.07069, -27.77553], [-53.07075, -27.77523], [-53.06592, -27.77486], [-53.06532, -27.77494], [-53.06151, -27.77676], [-53.06132, -27.77736], [-53.06159, -27.77865], [-53.06429, -27.78401], [-53.06446, -27.78442], [-53.06448, -27.78529], [-53.06318, -27.78678], [-53.06143, -27.78786], [-53.05911, -27.78891], [-53.0584, -27.78934], [-53.05816, -27.78968], [-53.05815, -27.79132], [-53.05882, -27.79384], [-53.05889, -27.79509], [-53.05871, -27.79562], [-53.05821, -27.79603], [-53.05616, -27.79713]]]}}, 
{"type": "Feature", "properties": {"CD_SETOR": "431845705000006", "CD_SIT": "8", "NM_DIST": "São José das Missões", "NM_SUBDIST": null}, "geometry": {"type": "Polygon", "coordinates": [[[-53.05649, -27.7992], [-53.05968, -27.80576], [-53.06396, -27.80877], [-53.06907, -27.81051], [-53.06986, -27.81229], [-53.06908, -27.8138], [-53.06989, -27.81444], [-53.07263, -27.81435], [-53.07529, -27.8133], [-53.07635, -27.81426], [-53.07477, -27.8177], [-53.0711, -27.82035], [-53.07115, -27.82145], [-53.07216, -27.82207], [-53.07872, -27.8192], [-53.08236, -27.81631], [-53.08454, -27.82106], [-53.08772, -27.82428], [-53.09739, -27.8196], [-53.09998, -27.82076], [-53.10222, -27.82049], [-53.10411, -27.8205], [-53.10428, -27.82118], [-53.10291, -27.82321], [-53.10361, -27.82744], [-53.10293, -27.82801], [-53.1027, -27.82809], [-53.09412, -27.82685], [-53.08612, -27.82738], [-53.08376, -27.82872], [-53.0835, -27.8301], [-53.08436, -27.83197], [-53.08637, -27.83364], [-53.08938, -27.83345], [-53.09412, -27.82953], [-53.09911, -27.83455], [-53.09832, -27.83653], [-53.09135, -27.83876], [-53.08963, -27.84034], [-53.08861, -27.84238], [-53.08873, -27.84402], [-53.09183, -27.84399], [-53.0946, -27.84588], [-53.09711, -27.84628], [-53.09861, -27.84495], [-53.09926, -27.84132], [-53.10201, -27.84258], [-53.10372, -27.84134], [-53.10709, -27.84096], [-53.10718, -27.83846], [-53.11085, -27.83789], [-53.1122, -27.83624], [-53.11387, -27.83624], [-53.11608, -27.83401], [-53.11637, -27.83162], [-53.11905, -27.83165], [-53.12024, -27.83311], [-53.12323, -27.83353], [-53.12638, -27.82893], [-53.13002, -27.83181], [-53.13229, -27.8308], [-53.13423, -27.83218], [-53.13645, -27.83182], [-53.13862, -27.8295], [-53.13783, -27.8294], [-53.13657, -27.83006], [-53.13631, -27.83006], [-53.13477, -27.82938], [-53.13208, -27.8288], [-53.13116, -27.82911], [-53.13077, -27.82904], [-53.12941, -27.82817], [-53.1292, -27.82727], [-53.12965, -27.82552], [-53.13033, -27.81927], [-53.13034, -27.81879], [-53.1301, -27.81847], [-53.12876, -27.81857], [-53.1265, -27.81955], [-53.12532, -27.81948], [-53.1241, -27.81918], [-53.12027, -27.81912], [-53.11751, -27.82089], [-53.11684, -27.82085], [-53.11591, -27.82048], [-53.11504, -27.82064], [-53.11474, -27.81985], [-53.1139, -27.81909], [-53.11288, -27.81706], [-53.11222, -27.8162], [-53.11146, -27.81574], [-53.1098, -27.81585], [-53.10933, -27.81633], [-53.10862, -27.81653], [-53.10813, -27.81628], [-53.10753, -27.81509], [-53.10662, -27.81467], [-53.10585, -27.81479], [-53.10482, -27.81541], [-53.10372, -27.81538], [-53.10103, -27.81422], [-53.0988, -27.81416], [-53.09771, -27.81357], [-53.09698, -27.81253], [-53.09632, -27.81213], [-53.0956, -27.8121], [-53.09471, -27.81236], [-53.09182, -27.81212], [-53.08998, -27.81024], [-53.08782, -27.80896], [-53.08749, -27.80814], [-53.08739, -27.80705], [-53.08723, -27.80675], [-53.08693, -27.80659], [-53.08603, -27.80652], [-53.08331, -27.80675], [-53.08257, -27.80665], [-53.07968, -27.80454], [-53.07849, -27.80398], [-53.0766, -27.80335], [-53.07476, -27.80342], [-53.07375, -27.80311], [-53.07323, -27.80275], [-53.07255, -27.80209], [-53.07234, -27.80153], [-53.0725, -27.80039], [-53.07277, -27.79988], [-53.07346, -27.7992], [-53.07424, -27.79877], [-53.07415, -27.79759], [-53.07381, -27.79722], [-53.07108, -27.79739], [-53.06899, -27.79815], [-53.06801, -27.79824], [-53.06747, -27.79821], [-53.06712, -27.79789], [-53.06661, -27.79694], [-53.06577, -27.7971], [-53.0648, -27.79778], [-53.06352, -27.7979], [-53.06205, -27.79778], [-53.05928, -27.79842], [-53.05816, -27.7978], [-53.05737, -27.79874], [-53.05649, -27.7992]]]}}, 
{"type": "Feature", "properties": {"CD_SETOR": "431845705000007", "CD_SIT": "8", "NM_DIST": "São José das Missões", "NM_SUBDIST": null}, "geometry": {"type": "Polygon", "coordinates": [[[-53.14511, -27.77775], [-53.14495, -27.77843], [-53.14441, -27.77906], [-53.14371, -27.78204], [-53.14291, -27.78263], [-53.14231, -27.78392], [-53.14216, -27.78558], [-53.14197, -27.78611], [-53.14132, -27.78655], [-53.14091, -27.78732], [-53.14089, -27.78813], [-53.14122, -27.78933], [-53.14117, -27.78975], [-53.14047, -27.79116], [-53.1404, -27.79228], [-53.14006, -27.79287], [-53.14, -27.79414], [-53.14037, -27.79554], [-53.14034, -27.79652], [-53.13914, -27.80012], [-53.13842, -27.80159], [-53.13784, -27.80202], [-53.13575, -27.80523], [-53.13614, -27.80659], [-53.1361, -27.80711], [-53.14062, -27.80753], [-53.14557, -27.80871], [-53.14825, -27.80883], [-53.15068, -27.80978], [-53.15373, -27.81237], [-53.15622, -27.81388], [-53.16375, -27.81543], [-53.1645, -27.81569], [-53.16584, -27.81657], [-53.16712, -27.81775], [-53.1677, -27.81889], [-53.16731, -27.81938], [-53.1664, -27.81973], [-53.16548, -27.82068], [-53.16517, -27.82132], [-53.16398, -27.82221], [-53.16508, -27.82466], [-53.16503, -27.82646], [-53.16532, -27.82737], [-53.16393, -27.82947], [-53.16354, -27.83061], [-53.16392, -27.83111], [-53.1677, -27.83078], [-53.17031, -27.8292], [-53.17194, -27.82911], [-53.17379, -27.82749], [-53.17737, -27.82978], [-53.18118, -27.82903], [-53.18295, -27.82751], [-53.18509, -27.82702], [-53.19234, -27.82949], [-53.19662, -27.82577], [-53.19418, -27.8232], [-53.19631, -27.82055], [-53.20328, -27.82008], [-53.20267, -27.81558], [-53.20465, -27.80734], [-53.20155, -27.8063], [-53.20402, -27.80112], [-53.20366, -27.79989], [-53.20043, -27.79801], [-53.19872, -27.79795], [-53.1985, -27.79722], [-53.19974, -27.79477], [-53.19872, -27.79289], [-53.19563, -27.79277], [-53.19042, -27.79418], [-53.18889, -27.79204], [-53.19006, -27.79141], [-53.18865, -27.79009], [-53.18927, -27.78769], [-53.18836, -27.78757], [-53.18684, -27.78889], [-53.18293, -27.78541], [-53.18148, -27.7864], [-53.18137, -27.7862], [-53.18066, -27.78642], [-53.18037, -27.78621], [-53.17929, -27.78609], [-53.17802, -27.78629], [-53.17699, -27.78567], [-53.17685, -27.78487], [-53.17337, -27.78385], [-53.17213, -27.78236], [-53.17168, -27.78225], [-53.16988, -27.78314], [-53.16984, -27.78241], [-53.16963, -27.78212], [-53.16928, -27.78197], [-53.16895, -27.78103], [-53.16745, -27.78057], [-53.16507, -27.78076], [-53.16492, -27.78046], [-53.16452, -27.78044], [-53.16415, -27.78014], [-53.1632, -27.77877], [-53.16253, -27.77833], [-53.16139, -27.779], [-53.16039, -27.78162], [-53.16006, -27.78187], [-53.15913, -27.78128], [-53.15874, -27.78052], [-53.15859, -27.77944], [-53.15881, -27.77672], [-53.15852, -27.77636], [-53.15794, -27.77612], [-53.15719, -27.77609], [-53.15534, -27.77689], [-53.15446, -27.77694], [-53.15348, -27.77682], [-53.15231, -27.77595], [-53.15136, -27.77624], [-53.15089, -27.77609], [-53.15037, -27.77647], [-53.14981, -27.7763], [-53.14865, -27.77686], [-53.14805, -27.77662], [-53.1475, -27.77684], [-53.14727, -27.7773], [-53.14663, -27.7777], [-53.14511, -27.77775]]]}}, 
{"type": "Feature", "properties": {"CD_SETOR": "431845705000008", "CD_SIT": "8", "NM_DIST": "São José das Missões", "NM_SUBDIST": null}, "geometry": {"type": "Polygon", "coordinates": [[[-53.12868, -27.76117], [-53.12932, -27.76134], [-53.12986, -27.7617], [-53.13047, -27.7624], [-53.13061, -27.76383], [-53.13116, -27.76444], [-53.13126, -27.76492], [-53.13108, -27.76743], [-53.13117, -27.76818], [-53.13204, -27.77234], [-53.13208, -27.7735], [-53.13259, -27.77463], [-53.13181, -27.77643], [-53.13201, -27.77736], [-53.13171, -27.77845], [-53.13177, -27.77868], [-53.13228, -27.77897], [-53.13243, -27.77965], [-53.13192, -27.78035], [-53.13141, -27.78053], [-53.13026, -27.78041], [-53.12875, -27.78074], [-53.12782, -27.78155], [-53.12709, -27.78163], [-53.12617, -27.7828], [-53.12741, -27.78674], [-53.12603, -27.78977], [-53.12582, -27.79235], [-53.12593, -27.795], [-53.1265, -27.79568], [-53.12788, -27.79649], [-53.12839, -27.797], [-53.1289, -27.79808], [-53.13047, -27.80039], [-53.13301, -27.80556], [-53.13461, -27.80658], [-53.1361, -27.80711], [-53.13614, -27.80659], [-53.13575, -27.80523], [-53.13784, -27.80202], [-53.13842, -27.80159], [-53.13914, -27.80012], [-53.14034, -27.79652], [-53.14037, -27.79554], [-53.14, -27.79414], [-53.14006, -27.79287], [-53.1404, -27.79228], [-53.14047, -27.79116], [-53.14117, -27.78975], [-53.14122, -27.78933], [-53.14089, -27.78813], [-53.14091, -27.78732], [-53.14132, -27.78655], [-53.14197, -27.78611], [-53.14216, -27.78558], [-53.14231, -27.78392], [-53.14266, -27.78303], [-53.14323, -27.78232], [-53.14371, -27.78204], [-53.14441, -27.77906], [-53.14495, -27.77843], [-53.14511, -27.77775], [-53.1443, -27.77749], [-53.14358, -27.77784], [-53.14334, -27.77774], [-53.14329, -27.77743], [-53.14344, -27.77715], [-53.14464, -27.77698], [-53.14573, -27.77542], [-53.14604, -27.77476], [-53.14605, -27.77412], [-53.14584, -27.77364], [-53.14508, -27.77317], [-53.14464, -27.77242], [-53.14455, -27.77059], [-53.14471, -27.77008], [-53.14467, -27.76947], [-53.14438, -27.76899], [-53.14201, -27.76846], [-53.14084, -27.76749], [-53.14061, -27.76659], [-53.14103, -27.76455], [-53.14155, -27.76312], [-53.14148, -27.76267], [-53.14057, -27.76201], [-53.13989, -27.76187], [-53.13911, -27.76204], [-53.13751, -27.76326], [-53.13684, -27.76366], [-53.13631, -27.76372], [-53.13589, -27.76351], [-53.13572, -27.7631], [-53.13579, -27.76264], [-53.13644, -27.76184], [-53.13973, -27.7601], [-53.14061, -27.75993], [-53.14251, -27.75856], [-53.14399, -27.75707], [-53.14446, -27.75566], [-53.14436, -27.75511], [-53.14373, -27.75488], [-53.14202, -27.75481], [-53.13975, -27.75541], [-53.13893, -27.7552], [-53.13801, -27.75461], [-53.1374, -27.75457], [-53.13697, -27.75486], [-53.13593, -27.75629], [-53.1357, -27.75684], [-53.13461, -27.758], [-53.13273, -27.75812], [-53.13215, -27.75789], [-53.13141, -27.75807], [-53.12957, -27.75983], [-53.12926, -27.76064], [-53.12868, -27.76117]]]}}, 
{"type": "Feature", "properties": {"CD_SETOR": "431845705000009", "CD_SIT": "8", "NM_DIST": "São José das Missões", "NM_SUBDIST": null}, "geometry": {"type": "Polygon", "coordinates": [[[-53.13458, -27.75125], [-53.13343, -27.75154], [-53.13215, -27.74981], [-53.13036, -27.7492], [-53.12772, -27.75063], [-53.12778, -27.75279], [-53.12805, -27.75287], [-53.12874, -27.75239], [-53.12891, -27.75244], [-53.12884, -27.75289], [-53.12651, -27.75617], [-53.1262, -27.75769], [-53.12642, -27.75899], [-53.12596, -27.75986], [-53.12563, -27.76016], [-53.12565, -27.7604], [-53.12607, -27.76086], [-53.12715, -27.76098], [-53.12786, -27.7615], [-53.12831, -27.76139], [-53.12926, -27.76064], [-53.12957, -27.75983], [-53.13141, -27.75807], [-53.13215, -27.75789], [-53.13273, -27.75812], [-53.13461, -27.758], [-53.1357, -27.75684], [-53.13593, -27.75629], [-53.13697, -27.75486], [-53.1374, -27.75457], [-53.13801, -27.75461], [-53.13893, -27.7552], [-53.13975, -27.75541], [-53.14202, -27.75481], [-53.14373, -27.75488], [-53.14436, -27.75511], [-53.14446, -27.75566], [-53.14418, -27.7566], [-53.14342, -27.75776], [-53.14061, -27.75993], [-53.13973, -27.7601], [-53.13644, -27.76184], [-53.13579, -27.76264], [-53.13572, -27.7631], [-53.13589, -27.76351], [-53.13631, -27.76372], [-53.13684, -27.76366], [-53.13911, -27.76204], [-53.13989, -27.76187], [-53.14057, -27.76201], [-53.14148, -27.76267], [-53.14155, -27.76312], [-53.14103, -27.76455], [-53.14061, -27.76659], [-53.14084, -27.76749], [-53.14201, -27.76846], [-53.14438, -27.76899], [-53.14467, -27.76947], [-53.14471, -27.77008], [-53.14455, -27.77059], [-53.14464, -27.77242], [-53.14508, -27.77317], [-53.14584, -27.77364], [-53.14605, -27.77412], [-53.14604, -27.77476], [-53.14525, -27.77621], [-53.14464, -27.77698], [-53.14344, -27.77715], [-53.14329, -27.77743], [-53.14334, -27.77774], [-53.14358, -27.77784], [-53.1443, -27.77749], [-53.14511, -27.77775], [-53.14663, -27.7777], [-53.14727, -27.7773], [-53.1475, -27.77684], [-53.14805, -27.77662], [-53.14865, -27.77686], [-53.14981, -27.7763], [-53.15037, -27.77647], [-53.15089, -27.77609], [-53.15136, -27.77624], [-53.15231, -27.77595], [-53.15348, -27.77682], [-53.15446, -27.77694], [-53.15534, -27.77689], [-53.15719, -27.77609], [-53.15794, -27.77612], [-53.15852, -27.77636], [-53.15881, -27.77672], [-53.15859, -27.77944], [-53.15874, -27.78052], [-53.15913, -27.78128], [-53.16006, -27.78187], [-53.16039, -27.78162], [-53.16139, -27.779], [-53.16253, -27.77833], [-53.1632, -27.77877], [-53.16415, -27.78014], [-53.16452, -27.78044], [-53.16492, -27.78046], [-53.16507, -27.78076], [-53.16745, -27.78057], [-53.16895, -27.78103], [-53.16928, -27.78197], [-53.16963, -27.78212], [-53.16984, -27.78241], [-53.16988, -27.78314], [-53.17168, -27.78225], [-53.17213, -27.78236], [-53.17337, -27.78385], [-53.17685, -27.78487], [-53.17699, -27.78567], [-53.17802, -27.78629], [-53.17987, -27.78611], [-53.18066, -27.78642], [-53.18137, -27.7862], [-53.18062, -27.78473], [-53.1836, -27.78295], [-53.18599, -27.77788], [-53.18275, -27.77508], [-53.18108, -27.76862], [-53.17847, -27.76609], [-53.17787, -27.76222], [-53.17993, -27.75967], [-53.1791, -27.75736], [-53.17683, -27.7584], [-53.1763, -27.75534], [-53.17407, -27.75376], [-53.17195, -27.75479], [-53.17067, -27.75439], [-53.16693, -27.74976], [-53.16591, -27.75048], [-53.16495, -27.75373], [-53.16235, -27.75601], [-53.16043, -27.75211], [-53.15857, -27.7525], [-53.15467, -27.74934], [-53.1537, -27.74944], [-53.14809, -27.75457], [-53.14677, -27.75287], [-53.14754, -27.75027], [-53.14694, -27.74778], [-53.14601, -27.74609], [-53.14272, -27.74474], [-53.14189, -27.74592], [-53.13847, -27.74616], [-53.14032, -27.74823], [-53.13985, -27.7499], [-53.13458, -27.75125]]]}}]}