{"type": "FeatureCollection", "features": [
{"type": "Feature", "properties": {"CD_SETOR": "431990105000001", "CD_SIT": "1", "NM_DIST": "Sapiranga", "NM_SUBDIST": null}, "geometry": {"type": "Polygon", "coordinates": [[[-51.00151, -29.63722], [-51.00173, -29.63784], [-51.00138, -29.63972], [-51.00524, -29.6406], [-51.00604, -29.64056], [-51.00534, -29.63654], [-51.0025, -29.63683], [-51.00151, -29.63722]]]}}, 
{"type": "Feature", "properties": {"CD_SETOR": "431990105000002", "CD_SIT": "1", "NM_DIST": "Sapiranga", "NM_SUBDIST": null}, "geometry": {"type": "Polygon", "coordinates": [[[-51.00872, -29.63644], [-51.00864, -29.63665], [-51.00649, -29.63669], [-51.00617, -29.63654], [-51.00534, -29.63654], [-51.00604, -29.64056], [-51.0076, -29.64036], [-51.00749, -29.63937], [-51.00924, -29.63926], [-51.00905, -29.63767], [-51.00988, -29.63746], [-51.00967, -29.63642], [-51.00872, -29.63644]]]}}, 
{"type": "Feature", "properties": {"CD_SETOR": "431990105000005", "CD_SIT": "1", "NM_DIST": "Sapiranga", "NM_SUBDIST": null}, "geometry": {"type": "Polygon", "coordinates": [[[-50.99574, -29.63223], [-50.99517, -29.6324], [-50.99548, -29.6342], [-50.99804, -29.63714], [-51.00075, -29.63544], [-50.99972, -29.63278], [-50.99931, -29.63247], [-50.99766, -29.63204], [-50.99654, -29.63203], [-50.99574, -29.63223]]]}}, 
{"type": "Feature", "properties": {"CD_SETOR": "431990105000006", "CD_SIT": "1", "NM_DIST": "Sapiranga", "NM_SUBDIST": null}, "geometry": {"type": "Polygon", "coordinates": [[[-50.99804, -29.63714], [-50.99721, -29.63817], [-50.99685, -29.64064], [-50.99641, -29.64126], [-50.9974, -29.64206], [-50.99793, -29.64049], [-50.99944, -29.64086], [-50.99972, -29.63931], [-51.00139, -29.63954], [-51.00173, -29.63784], [-51.00075, -29.63544], [-50.99804, -29.63714]]]}}, 
{"type": "Feature", "properties": {"CD_SETOR": "431990105000007", "CD_SIT": "1", "NM_DIST": "Sapiranga", "NM_SUBDIST": null}, "geometry": {"type": "Polygon", "coordinates": [[[-51.00033, -29.64385], [-51, -29.64486], [-51.00664, -29.6445], [-51.00604, -29.64056], [-51.00524, -29.6406], [-51.00138, -29.63972], [-51.00108, -29.64155], [-51.00033, -29.64385]]]}}, 
{"type": "Feature", "properties": {"CD_SETOR": "431990105000008", "CD_SIT": "1", "NM_DIST": "Sapiranga", "NM_SUBDIST": null}, "geometry": {"type": "Polygon", "coordinates": [[[-51.0076, -29.64036], [-51.00604, -29.64056], [-51.00664, -29.6445], [-51.0142, -29.64407], [-51.015, -29.64332], [-51.01422, -29.64178], [-51.01359, -29.64112], [-51.01071, -29.63958], [-51.00933, -29.64028], [-51.0076, -29.64036]]]}}, 
{"type": "Feature", "properties": {"CD_SETOR": "431990105000009", "CD_SIT": "1", "NM_DIST": "Sapiranga", "NM_SUBDIST": null}, "geometry": {"type": "Polygon", "coordinates": [[[-51.0076, -29.64036], [-51.00933, -29.64028], [-51.01071, -29.63958], [-51.01331, -29.6409], [-51.01516, -29.6393], [-51.01335, -29.63806], [-51.01221, -29.63675], [-51.01167, -29.63647], [-51.00967, -29.63642], [-51.00988, -29.63746], [-51.00905, -29.63767], [-51.00924, -29.63926], [-51.00749, -29.63937], [-51.0076, -29.64036]]]}}, 
{"type": "Feature", "properties": {"CD_SETOR": "431990105000011", "CD_SIT": "1", "NM_DIST": "Sapiranga", "NM_SUBDIST": null}, "geometry": {"type": "Polygon", "coordinates": [[[-51.01658, -29.62986], [-51.01434, -29.62998], [-51.01439, -29.63131], [-51.01616, -29.63131], [-51.01619, -29.63202], [-51.01774, -29.63178], [-51.01782, -29.63234], [-51.01948, -29.63202], [-51.01905, -29.62926], [-51.01862, -29.62975], [-51.01658, -29.62986]]]}}, 
{"type": "Feature", "properties": {"CD_SETOR": "431990105000013", "CD_SIT": "1", "NM_DIST": "Sapiranga", "NM_SUBDIST": null}, "geometry": {"type": "Polygon", "coordinates": [[[-50.99273, -29.62391], [-50.99311, -29.6263], [-50.99329, -29.62637], [-50.99373, -29.62972], [-50.99517, -29.62934], [-50.99574, -29.63223], [-50.99654, -29.63203], [-50.99766, -29.63204], [-50.99865, -29.63223], [-50.99972, -29.63278], [-51.00141, -29.6314], [-51.00081, -29.63076], [-50.99923, -29.63047], [-50.99897, -29.62837], [-50.99768, -29.62804], [-50.99781, -29.62761], [-50.99807, -29.62759], [-50.99776, -29.62511], [-50.99794, -29.62454], [-50.99843, -29.62433], [-50.99827, -29.62324], [-50.99273, -29.62391]]]}}, 
{"type": "Feature", "properties": {"CD_SETOR": "431990105000014", "CD_SIT": "1", "NM_DIST": "Sapiranga", "NM_SUBDIST": null}, "geometry": {"type": "Polygon", "coordinates": [[[-50.9917, -29.62635], [-50.99229, -29.63014], [-50.99267, -29.63082], [-50.99338, -29.63289], [-50.99574, -29.63223], [-50.99517, -29.62934], [-50.99373, -29.62972], [-50.99329, -29.62637], [-50.99247, -29.62607], [-50.99248, -29.62627], [-50.9917, -29.62635]]]}}, 
{"type": "Feature", "properties": {"CD_SETOR": "431990105000015", "CD_SIT": "1", "NM_DIST": "Sapiranga", "NM_SUBDIST": null}, "geometry": {"type": "Polygon", "coordinates": [[[-50.99338, -29.63289], [-50.98819, -29.63421], [-50.98699, -29.63438], [-50.98725, -29.63669], [-50.98802, -29.63659], [-50.99224, -29.63456], [-50.99548, -29.6342], [-50.99517, -29.6324], [-50.99338, -29.63289]]]}}, 
{"type": "Feature", "properties": {"CD_SETOR": "431990105000017", "CD_SIT": "1", "NM_DIST": "Sapiranga", "NM_SUBDIST": null}, "geometry": {"type": "Polygon", "coordinates": [[[-50.99878, -29.64636], [-50.99902, -29.64705], [-50.99945, -29.64748], [-51.00199, -29.6448], [-50.99744, -29.64473], [-50.99583, -29.64435], [-50.99425, -29.64577], [-50.99628, -29.64623], [-50.99691, -29.6468], [-50.99792, -29.64576], [-50.99871, -29.64584], [-50.99878, -29.64636]]]}}, 
{"type": "Feature", "properties": {"CD_SETOR": "431990105000018", "CD_SIT": "1", "NM_DIST": "Sapiranga", "NM_SUBDIST": null}, "geometry": {"type": "Polygon", "coordinates": [[[-50.99502, -29.64982], [-50.99455, -29.6502], [-50.99478, -29.65177], [-50.99643, -29.6516], [-50.99945, -29.64748], [-50.99902, -29.64705], [-50.99878, -29.64636], [-50.99502, -29.64982]]]}}, 
{"type": "Feature", "properties": {"CD_SETOR": "431990105000019", "CD_SIT": "1", "NM_DIST": "Sapiranga", "NM_SUBDIST": null}, "geometry": {"type": "Polygon", "coordinates": [[[-50.99643, -29.6516], [-51.00077, -29.65108], [-51.00044, -29.6486], [-50.9998, -29.64931], [-50.99872, -29.64841], [-50.99643, -29.6516]]]}}, 
{"type": "Feature", "properties": {"CD_SETOR": "431990105000020", "CD_SIT": "1", "NM_DIST": "Sapiranga", "NM_SUBDIST": null}, "geometry": {"type": "Polygon", "coordinates": [[[-51.0034, -29.64465], [-51.00343, -29.64531], [-51.00324, -29.64582], [-51.00044, -29.6486], [-51.00077, -29.65108], [-51.00691, -29.65042], [-51.00616, -29.64546], [-51.00566, -29.64549], [-51.00556, -29.64454], [-51.0034, -29.64465]]]}}, 
{"type": "Feature", "properties": {"CD_SETOR": "431990105000021", "CD_SIT": "1", "NM_DIST": "Sapiranga", "NM_SUBDIST": null}, "geometry": {"type": "Polygon", "coordinates": [[[-51.0142, -29.64407], [-51.00556, -29.64454], [-51.00566, -29.64549], [-51.00616, -29.64546], [-51.00691, -29.65042], [-51.01287, -29.64982], [-51.01273, -29.64863], [-51.01369, -29.64585], [-51.01496, -29.64599], [-51.01599, -29.64494], [-51.01645, -29.6449], [-51.01637, -29.64399], [-51.0142, -29.64407]]]}}, 
{"type": "Feature", "properties": {"CD_SETOR": "431990105000023", "CD_SIT": "1", "NM_DIST": "Sapiranga", "NM_SUBDIST": null}, "geometry": {"type": "Polygon", "coordinates": [[[-51.00636, -29.62856], [-51.00298, -29.62889], [-51.00212, -29.62876], [-51.00132, -29.63063], [-51.0016, -29.63128], [-51.00374, -29.63028], [-51.0048, -29.62999], [-51.00705, -29.63017], [-51.00733, -29.62969], [-51.00794, -29.62988], [-51.00922, -29.62976], [-51.00924, -29.62996], [-51.00985, -29.62954], [-51.01012, -29.62954], [-51.01004, -29.62885], [-51.00909, -29.62824], [-51.00636, -29.62856]]]}}, 
{"type": "Feature", "properties": {"CD_SETOR": "431990105000024", "CD_SIT": "1", "NM_DIST": "Sapiranga", "NM_SUBDIST": null}, "geometry": {"type": "Polygon", "coordinates": [[[-50.98903, -29.63396], [-50.99338, -29.63289], [-50.99267, -29.63082], [-50.99122, -29.63122], [-50.9911, -29.62972], [-50.9887, -29.63002], [-50.98903, -29.63396]]]}}, 
{"type": "Feature", "properties": {"CD_SETOR": "431990105000026", "CD_SIT": "1", "NM_DIST": "Sapiranga", "NM_SUBDIST": null}, "geometry": {"type": "Polygon", "coordinates": [[[-50.98802, -29.63659], [-50.98842, -29.63958], [-50.98916, -29.63951], [-50.98895, -29.63799], [-50.99071, -29.63784], [-50.99078, -29.63836], [-50.99272, -29.63815], [-50.99263, -29.63763], [-50.99345, -29.63755], [-50.99315, -29.6359], [-50.99143, -29.63607], [-50.99132, -29.6351], [-50.98802, -29.63659]]]}}, 
{"type": "Feature", "properties": {"CD_SETOR": "431990105000027", "CD_SIT": "1", "NM_DIST": "Sapiranga", "NM_SUBDIST": null}, "geometry": {"type": "Polygon", "coordinates": [[[-50.98842, -29.63958], [-50.98855, -29.64032], [-50.99021, -29.6401], [-50.99056, -29.64023], [-50.99176, -29.64014], [-50.9922, -29.63938], [-50.99282, -29.63896], [-50.99272, -29.63815], [-50.99078, -29.63836], [-50.99071, -29.63784], [-50.98895, -29.63799], [-50.98916, -29.63951], [-50.98842, -29.63958]]]}}, 
{"type": "Feature", "properties": {"CD_SETOR": "431990105000028", "CD_SIT": "1", "NM_DIST": "Sapiranga", "NM_SUBDIST": null}, "geometry": {"type": "Polygon", "coordinates": [[[-50.99478, -29.65177], [-50.99274, -29.652], [-50.99286, -29.6528], [-50.99259, -29.65283], [-50.99273, -29.65347], [-50.99611, -29.65317], [-50.99643, -29.6516], [-50.99478, -29.65177]]]}}, 
{"type": "Feature", "properties": {"CD_SETOR": "431990105000029", "CD_SIT": "1", "NM_DIST": "Sapiranga", "NM_SUBDIST": null}, "geometry": {"type": "Polygon", "coordinates": [[[-50.99643, -29.6516], [-50.99611, -29.65317], [-50.99241, -29.6535], [-50.99253, -29.65413], [-50.99605, -29.6538], [-50.99544, -29.65581], [-50.99946, -29.6553], [-50.99961, -29.65478], [-50.99995, -29.65453], [-50.99955, -29.65387], [-50.99765, -29.65481], [-50.99793, -29.65134], [-50.99643, -29.6516]]]}}, 
{"type": "Feature", "properties": {"CD_SETOR": "431990105000031", "CD_SIT": "1", "NM_DIST": "Sapiranga", "NM_SUBDIST": null}, "geometry": {"type": "Polygon", "coordinates": [[[-51.00691, -29.65042], [-51.00394, -29.65077], [-51.00388, -29.65164], [-51.00365, -29.65207], [-51.00303, -29.65262], [-51.00372, -29.65243], [-51.00394, -29.6531], [-51.00484, -29.65291], [-51.00505, -29.65213], [-51.00665, -29.6533], [-51.00716, -29.6544], [-51.00798, -29.65429], [-51.00733, -29.6504], [-51.00691, -29.65042]]]}}, 
{"type": "Feature", "properties": {"CD_SETOR": "431990105000033", "CD_SIT": "1", "NM_DIST": "Sapiranga", "NM_SUBDIST": null}, "geometry": {"type": "Polygon", "coordinates": [[[-51.01637, -29.64399], [-51.01645, -29.6449], [-51.01599, -29.64494], [-51.01496, -29.64599], [-51.01369, -29.64585], [-51.01273, -29.64863], [-51.01287, -29.64982], [-51.01761, -29.64934], [-51.0179, -29.64473], [-51.01879, -29.64387], [-51.01637, -29.64399]]]}}, 
{"type": "Feature", "properties": {"CD_SETOR": "431990105000034", "CD_SIT": "1", "NM_DIST": "Sapiranga", "NM_SUBDIST": null}, "geometry": {"type": "Polygon", "coordinates": [[[-51.01879, -29.64387], [-51.0179, -29.64473], [-51.01761, -29.64934], [-51.01848, -29.64922], [-51.01857, -29.64759], [-51.01967, -29.64756], [-51.02071, -29.64385], [-51.01879, -29.64387]]]}}, 
{"type": "Feature", "properties": {"CD_SETOR": "431990105000036", "CD_SIT": "1", "NM_DIST": "Sapiranga", "NM_SUBDIST": null}, "geometry": {"type": "Polygon", "coordinates": [[[-51.02261, -29.649], [-51.02518, -29.65045], [-51.0247, -29.64864], [-51.02502, -29.64807], [-51.02586, -29.64798], [-51.02634, -29.64667], [-51.02381, -29.64497], [-51.02376, -29.64621], [-51.02343, -29.64693], [-51.02281, -29.64693], [-51.02132, -29.64798], [-51.0213, -29.6481], [-51.02261, -29.649]]]}}, 
{"type": "Feature", "properties": {"CD_SETOR": "431990105000037", "CD_SIT": "1", "NM_DIST": "Sapiranga", "NM_SUBDIST": null}, "geometry": {"type": "Polygon", "coordinates": [[[-51.02646, -29.6503], [-51.03097, -29.64977], [-51.03119, -29.64974], [-51.02897, -29.64837], [-51.02783, -29.64851], [-51.02795, -29.64965], [-51.0264, -29.64978], [-51.02646, -29.6503]]]}}, 
{"type": "Feature", "properties": {"CD_SETOR": "431990105000039", "CD_SIT": "1", "NM_DIST": "Sapiranga", "NM_SUBDIST": null}, "geometry": {"type": "Polygon", "coordinates": [[[-51.01998, -29.63972], [-51.02037, -29.6429], [-51.02283, -29.64434], [-51.0242, -29.64441], [-51.02426, -29.64251], [-51.02569, -29.64153], [-51.02532, -29.63886], [-51.02376, -29.63944], [-51.02268, -29.63936], [-51.01998, -29.63972]]]}}, 
{"type": "Feature", "properties": {"CD_SETOR": "431990105000041", "CD_SIT": "1", "NM_DIST": "Sapiranga", "NM_SUBDIST": null}, "geometry": {"type": "Polygon", "coordinates": [[[-51.01687, -29.62639], [-51.01521, -29.62655], [-51.01518, -29.62819], [-51.01644, -29.62811], [-51.01658, -29.62986], [-51.01862, -29.62975], [-51.02124, -29.62636], [-51.02059, -29.62598], [-51.01687, -29.62639]]]}}, 
{"type": "Feature", "properties": {"CD_SETOR": "431990105000042", "CD_SIT": "1", "NM_DIST": "Sapiranga", "NM_SUBDIST": null}, "geometry": {"type": "Polygon", "coordinates": [[[-51.00964, -29.62581], [-51.01008, -29.6292], [-51.0112, -29.62991], [-51.01287, -29.62778], [-51.01184, -29.62765], [-51.01163, -29.62582], [-51.00964, -29.62581]]]}}, 
{"type": "Feature", "properties": {"CD_SETOR": "431990105000044", "CD_SIT": "1", "NM_DIST": "Sapiranga", "NM_SUBDIST": null}, "geometry": {"type": "Polygon", "coordinates": [[[-50.99919, -29.63002], [-51, -29.62991], [-50.99957, -29.62484], [-50.99853, -29.62492], [-50.99843, -29.62433], [-50.99778, -29.62474], [-50.99807, -29.62759], [-50.99781, -29.62761], [-50.99768, -29.62804], [-50.99897, -29.62837], [-50.99919, -29.63002]]]}}, 
{"type": "Feature", "properties": {"CD_SETOR": "431990105000047", "CD_SIT": "1", "NM_DIST": "Sapiranga", "NM_SUBDIST": null}, "geometry": {"type": "Polygon", "coordinates": [[[-50.98902, -29.65858], [-50.98957, -29.6603], [-50.98945, -29.66178], [-50.9955, -29.6611], [-50.99479, -29.65917], [-50.99489, -29.6579], [-50.98902, -29.65858]]]}}, 
{"type": "Feature", "properties": {"CD_SETOR": "431990105000049", "CD_SIT": "1", "NM_DIST": "Sapiranga", "NM_SUBDIST": null}, "geometry": {"type": "Polygon", "coordinates": [[[-50.998, -29.65549], [-50.9981, -29.65659], [-50.9987, -29.65651], [-50.99881, -29.65717], [-51.00128, -29.65689], [-51.00121, -29.6558], [-50.99956, -29.65599], [-50.99946, -29.6553], [-50.998, -29.65549]]]}}, 
{"type": "Feature", "properties": {"CD_SETOR": "431990105000050", "CD_SIT": "1", "NM_DIST": "Sapiranga", "NM_SUBDIST": null}, "geometry": {"type": "Polygon", "coordinates": [[[-50.99679, -29.659], [-50.99911, -29.65878], [-50.99881, -29.65717], [-50.99663, -29.65739], [-50.99679, -29.659]]]}}, 
{"type": "Feature", "properties": {"CD_SETOR": "431990105000051", "CD_SIT": "1", "NM_DIST": "Sapiranga", "NM_SUBDIST": null}, "geometry": {"type": "Polygon", "coordinates": [[[-50.99881, -29.65717], [-50.99911, -29.65878], [-51.00376, -29.65834], [-51.00359, -29.6571], [-51.0031, -29.65715], [-51.00308, -29.65691], [-51.00134, -29.65711], [-51.00128, -29.65689], [-50.99881, -29.65717]]]}}, 
{"type": "Feature", "properties": {"CD_SETOR": "431990105000052", "CD_SIT": "1", "NM_DIST": "Sapiranga", "NM_SUBDIST": null}, "geometry": {"type": "Polygon", "coordinates": [[[-51.00353, -29.65603], [-51.00376, -29.65834], [-51.00598, -29.65813], [-51.00572, -29.65576], [-51.00353, -29.65603]]]}}, 
{"type": "Feature", "properties": {"CD_SETOR": "431990105000055", "CD_SIT": "1", "NM_DIST": "Sapiranga", "NM_SUBDIST": null}, "geometry": {"type": "Polygon", "coordinates": [[[-51.02559, -29.63869], [-51.02532, -29.63886], [-51.02569, -29.64153], [-51.02712, -29.64141], [-51.02732, -29.64313], [-51.02811, -29.64302], [-51.02756, -29.63782], [-51.02559, -29.63869]]]}}, 
{"type": "Feature", "properties": {"CD_SETOR": "431990105000056", "CD_SIT": "1", "NM_DIST": "Sapiranga", "NM_SUBDIST": null}, "geometry": {"type": "Polygon", "coordinates": [[[-51.02756, -29.63782], [-51.02831, -29.64444], [-51.02809, -29.64513], [-51.03027, -29.64568], [-51.02911, -29.64033], [-51.02905, -29.63991], [-51.02925, -29.63987], [-51.02899, -29.63755], [-51.02756, -29.63782]]]}}, 
{"type": "Feature", "properties": {"CD_SETOR": "431990105000059", "CD_SIT": "1", "NM_DIST": "Sapiranga", "NM_SUBDIST": null}, "geometry": {"type": "Polygon", "coordinates": [[[-51.02529, -29.63589], [-51.02559, -29.63869], [-51.02756, -29.63782], [-51.02736, -29.63608], [-51.02669, -29.6362], [-51.02661, -29.63528], [-51.02529, -29.63589]]]}}, 
{"type": "Feature", "properties": {"CD_SETOR": "431990105000060", "CD_SIT": "1", "NM_DIST": "Sapiranga", "NM_SUBDIST": null}, "geometry": {"type": "Polygon", "coordinates": [[[-51.02124, -29.62636], [-51.01905, -29.62926], [-51.01966, -29.63344], [-51.02036, -29.63324], [-51.02123, -29.63258], [-51.02347, -29.63142], [-51.02618, -29.62918], [-51.02714, -29.6291], [-51.02683, -29.62911], [-51.02616, -29.62477], [-51.02403, -29.62502], [-51.02252, -29.62473], [-51.02124, -29.62636]]]}}, 
{"type": "Feature", "properties": {"CD_SETOR": "431990105000062", "CD_SIT": "1", "NM_DIST": "Sapiranga", "NM_SUBDIST": null}, "geometry": {"type": "Polygon", "coordinates": [[[-51.01091, -29.61976], [-51.00691, -29.61992], [-51.00793, -29.62698], [-51.00898, -29.62683], [-51.00881, -29.62584], [-51.00964, -29.62581], [-51.00961, -29.62531], [-51.0105, -29.62526], [-51.01033, -29.6241], [-51.0115, -29.62415], [-51.01147, -29.62322], [-51.01303, -29.62327], [-51.01309, -29.62421], [-51.01409, -29.62428], [-51.01403, -29.62275], [-51.01489, -29.62189], [-51.01588, -29.62187], [-51.01697, -29.61953], [-51.01091, -29.61976]]]}}, 
{"type": "Feature", "properties": {"CD_SETOR": "431990105000064", "CD_SIT": "1", "NM_DIST": "Sapiranga", "NM_SUBDIST": null}, "geometry": {"type": "Polygon", "coordinates": [[[-50.97481, -29.63062], [-50.97954, -29.63015], [-50.97938, -29.62887], [-50.97488, -29.62688], [-50.97437, -29.62688], [-50.97481, -29.63062]]]}}, 
{"type": "Feature", "properties": {"CD_SETOR": "431990105000065", "CD_SIT": "1", "NM_DIST": "Sapiranga", "NM_SUBDIST": null}, "geometry": {"type": "Polygon", "coordinates": [[[-50.97882, -29.6302], [-50.97898, -29.6314], [-50.97664, -29.6316], [-50.97691, -29.63255], [-50.97763, -29.63247], [-50.97779, -29.63382], [-50.97877, -29.63373], [-50.97998, -29.63334], [-50.97954, -29.63015], [-50.97882, -29.6302]]]}}, 
{"type": "Feature", "properties": {"CD_SETOR": "431990105000066", "CD_SIT": "1", "NM_DIST": "Sapiranga", "NM_SUBDIST": null}, "geometry": {"type": "Polygon", "coordinates": [[[-50.97691, -29.63255], [-50.97509, -29.63272], [-50.97549, -29.63566], [-50.97873, -29.63654], [-50.98037, -29.6363], [-50.97998, -29.63334], [-50.97877, -29.63373], [-50.97779, -29.63382], [-50.97763, -29.63247], [-50.97691, -29.63255]]]}}, 
{"type": "Feature", "properties": {"CD_SETOR": "431990105000067", "CD_SIT": "1", "NM_DIST": "Sapiranga", "NM_SUBDIST": null}, "geometry": {"type": "Polygon", "coordinates": [[[-50.98037, -29.6363], [-50.97959, -29.6365], [-50.9784, -29.63647], [-50.97846, -29.63723], [-50.97771, -29.63727], [-50.97756, -29.63789], [-50.97716, -29.63837], [-50.97845, -29.63923], [-50.97885, -29.63881], [-50.97914, -29.64067], [-50.98135, -29.64116], [-50.98086, -29.63743], [-50.98112, -29.63693], [-50.98108, -29.63605], [-50.98037, -29.6363]]]}}, 
{"type": "Feature", "properties": {"CD_SETOR": "431990105000069", "CD_SIT": "1", "NM_DIST": "Sapiranga", "NM_SUBDIST": null}, "geometry": {"type": "Polygon", "coordinates": [[[-50.97199, -29.62407], [-50.9724, -29.62739], [-50.97253, -29.6275], [-50.97431, -29.62704], [-50.97422, -29.62572], [-50.97377, -29.62576], [-50.97354, -29.62392], [-50.97199, -29.62407]]]}}, 
{"type": "Feature", "properties": {"CD_SETOR": "431990105000070", "CD_SIT": "1", "NM_DIST": "Sapiranga", "NM_SUBDIST": null}, "geometry": {"type": "Polygon", "coordinates": [[[-50.97313, -29.62737], [-50.97326, -29.62814], [-50.97241, -29.62835], [-50.97272, -29.62976], [-50.97191, -29.62994], [-50.97213, -29.631], [-50.97292, -29.6308], [-50.97307, -29.63159], [-50.97415, -29.6318], [-50.97443, -29.63381], [-50.97524, -29.63376], [-50.97437, -29.62688], [-50.97431, -29.62704], [-50.97313, -29.62737]]]}}, 
{"type": "Feature", "properties": {"CD_SETOR": "431990105000071", "CD_SIT": "1", "NM_DIST": "Sapiranga", "NM_SUBDIST": null}, "geometry": {"type": "Polygon", "coordinates": [[[-50.96983, -29.62276], [-50.96954, -29.62284], [-50.96971, -29.62396], [-50.96932, -29.62439], [-50.96944, -29.62517], [-50.96986, -29.62505], [-50.96992, -29.62554], [-50.97079, -29.62503], [-50.9721, -29.6249], [-50.97177, -29.62245], [-50.96983, -29.62276]]]}}, 
{"type": "Feature", "properties": {"CD_SETOR": "431990105000072", "CD_SIT": "1", "NM_DIST": "Sapiranga", "NM_SUBDIST": null}, "geometry": {"type": "Polygon", "coordinates": [[[-50.96992, -29.62554], [-50.97015, -29.62745], [-50.97139, -29.62749], [-50.97241, -29.62724], [-50.9721, -29.6249], [-50.97079, -29.62503], [-50.96992, -29.62554]]]}}, 
{"type": "Feature", "properties": {"CD_SETOR": "431990105000074", "CD_SIT": "1", "NM_DIST": "Sapiranga", "NM_SUBDIST": null}, "geometry": {"type": "Polygon", "coordinates": [[[-50.95788, -29.62425], [-50.95971, -29.62509], [-50.96217, -29.62487], [-50.96304, -29.6252], [-50.96599, -29.627], [-50.97015, -29.62745], [-50.96986, -29.62505], [-50.96944, -29.62517], [-50.96932, -29.62439], [-50.96896, -29.62471], [-50.96898, -29.62493], [-50.96794, -29.62515], [-50.96789, -29.62483], [-50.96731, -29.6241], [-50.96681, -29.62396], [-50.9667, -29.62319], [-50.9595, -29.62423], [-50.95788, -29.62425]]]}}, 
{"type": "Feature", "properties": {"CD_SETOR": "431990105000075", "CD_SIT": "1", "NM_DIST": "Sapiranga", "NM_SUBDIST": null}, "geometry": {"type": "Polygon", "coordinates": [[[-50.96288, -29.62798], [-50.96295, -29.62875], [-50.96546, -29.62854], [-50.96517, -29.62658], [-50.96304, -29.6252], [-50.96329, -29.62796], [-50.96288, -29.62798]]]}}, 
{"type": "Feature", "properties": {"CD_SETOR": "431990105000077", "CD_SIT": "1", "NM_DIST": "Sapiranga", "NM_SUBDIST": null}, "geometry": {"type": "Polygon", "coordinates": [[[-50.95941, -29.62503], [-50.96036, -29.63228], [-50.96165, -29.63236], [-50.96067, -29.62501], [-50.95941, -29.62503]]]}}, 
{"type": "Feature", "properties": {"CD_SETOR": "431990105000079", "CD_SIT": "1", "NM_DIST": "Sapiranga", "NM_SUBDIST": null}, "geometry": {"type": "Polygon", "coordinates": [[[-50.95577, -29.62453], [-50.956, -29.62663], [-50.95723, -29.6266], [-50.957, -29.62532], [-50.95885, -29.62532], [-50.95877, -29.62471], [-50.95788, -29.62425], [-50.95577, -29.62453]]]}}, 
{"type": "Feature", "properties": {"CD_SETOR": "431990105000080", "CD_SIT": "1", "NM_DIST": "Sapiranga", "NM_SUBDIST": null}, "geometry": {"type": "Polygon", "coordinates": [[[-50.95746, -29.62843], [-50.95765, -29.6298], [-50.95709, -29.62982], [-50.95711, -29.63083], [-50.95804, -29.63214], [-50.95854, -29.63333], [-50.96002, -29.63395], [-50.95979, -29.63226], [-50.96036, -29.63228], [-50.95984, -29.62836], [-50.95746, -29.62843]]]}}, 
{"type": "Feature", "properties": {"CD_SETOR": "431990105000082", "CD_SIT": "1", "NM_DIST": "Sapiranga", "NM_SUBDIST": null}, "geometry": {"type": "Polygon", "coordinates": [[[-51.00475, -29.6551], [-51.00286, -29.6553], [-51.003, -29.65608], [-51.00663, -29.65566], [-51.00654, -29.65488], [-51.00475, -29.6551]]]}}, 
{"type": "Feature", "properties": {"CD_SETOR": "431990105000083", "CD_SIT": "1", "NM_DIST": "Sapiranga", "NM_SUBDIST": null}, "geometry": {"type": "Polygon", "coordinates": [[[-50.99544, -29.65581], [-50.99479, -29.65839], [-50.99479, -29.65917], [-50.99679, -29.659], [-50.99663, -29.65739], [-50.99881, -29.65717], [-50.9987, -29.65651], [-50.9981, -29.65659], [-50.998, -29.65549], [-50.99544, -29.65581]]]}}, 
{"type": "Feature", "properties": {"CD_SETOR": "431990105000088", "CD_SIT": "1", "NM_DIST": "Sapiranga", "NM_SUBDIST": null}, "geometry": {"type": "Polygon", "coordinates": [[[-50.97679, -29.67382], [-50.97819, -29.67348], [-50.97547, -29.67014], [-50.97429, -29.67065], [-50.97616, -29.67284], [-50.9745, -29.67295], [-50.97463, -29.67402], [-50.97679, -29.67382]]]}}, 
{"type": "Feature", "properties": {"CD_SETOR": "431990105000089", "CD_SIT": "1", "NM_DIST": "Sapiranga", "NM_SUBDIST": null}, "geometry": {"type": "Polygon", "coordinates": [[[-50.99343, -29.67147], [-51.00828, -29.67245], [-51.01064, -29.67261], [-51.01054, -29.67166], [-51.00831, -29.67164], [-50.99383, -29.67075], [-50.99343, -29.67147]]]}}, 
{"type": "Feature", "properties": {"CD_SETOR": "431990105000090", "CD_SIT": "2", "NM_DIST": "Sapiranga", "NM_SUBDIST": null}, "geometry": {"type": "Polygon", "coordinates": [[[-50.95197, -29.62493], [-50.95377, -29.6371], [-50.95564, -29.63712], [-50.95728, -29.63404], [-50.95806, -29.63362], [-50.95748, -29.63214], [-50.95648, -29.63076], [-50.95577, -29.62453], [-50.95197, -29.62493]]]}}, 
{"type": "Feature", "properties": {"CD_SETOR": "431990105000095", "CD_SIT": "1", "NM_DIST": "Sapiranga", "NM_SUBDIST": null}, "geometry": {"type": "Polygon", "coordinates": [[[-50.9974, -29.64206], [-50.99941, -29.64346], [-51.00033, -29.64385], [-51.00108, -29.64155], [-51.00139, -29.63954], [-50.99972, -29.63931], [-50.99944, -29.64086], [-50.99793, -29.64049], [-50.9974, -29.64206]]]}}, 
{"type": "Feature", "properties": {"CD_SETOR": "431990105000097", "CD_SIT": "1", "NM_DIST": "Sapiranga", "NM_SUBDIST": null}, "geometry": {"type": "Polygon", "coordinates": [[[-51.01012, -29.62954], [-51.01052, -29.63245], [-51.01177, -29.63139], [-51.01304, -29.63266], [-51.01447, -29.6334], [-51.01486, -29.63265], [-51.01619, -29.63202], [-51.01616, -29.63131], [-51.01439, -29.63131], [-51.01434, -29.62998], [-51.01124, -29.63017], [-51.0112, -29.62991], [-51.01008, -29.6292], [-51.01012, -29.62954]]]}}, 
{"type": "Feature", "properties": {"CD_SETOR": "431990105000098", "CD_SIT": "1", "NM_DIST": "Sapiranga", "NM_SUBDIST": null}, "geometry": {"type": "Polygon", "coordinates": [[[-51.00705, -29.63017], [-51.00709, -29.63139], [-51.00784, -29.63139], [-51.00794, -29.6323], [-51.00912, -29.63146], [-51.01025, -29.63269], [-51.01052, -29.63245], [-51.01012, -29.62954], [-51.00985, -29.62954], [-51.00924, -29.62996], [-51.00922, -29.62976], [-51.00794, -29.62988], [-51.00733, -29.62969], [-51.00705, -29.63017]]]}}, 
{"type": "Feature", "properties": {"CD_SETOR": "431990105000099", "CD_SIT": "1", "NM_DIST": "Sapiranga", "NM_SUBDIST": null}, "geometry": {"type": "Polygon", "coordinates": [[[-50.99667, -29.62032], [-50.99065, -29.62067], [-50.9911, -29.62384], [-50.99273, -29.62391], [-50.99827, -29.62324], [-50.99787, -29.62023], [-50.99667, -29.62032]]]}}, 
{"type": "Feature", "properties": {"CD_SETOR": "431990105000100", "CD_SIT": "1", "NM_DIST": "Sapiranga", "NM_SUBDIST": null}, "geometry": {"type": "Polygon", "coordinates": [[[-50.99132, -29.6351], [-50.99143, -29.63607], [-50.99315, -29.6359], [-50.9933, -29.63691], [-50.99409, -29.63642], [-50.99428, -29.63742], [-50.99532, -29.63735], [-50.99606, -29.63646], [-50.99694, -29.63583], [-50.99548, -29.6342], [-50.99224, -29.63456], [-50.99132, -29.6351]]]}}, 
{"type": "Feature", "properties": {"CD_SETOR": "431990105000101", "CD_SIT": "1", "NM_DIST": "Sapiranga", "NM_SUBDIST": null}, "geometry": {"type": "Polygon", "coordinates": [[[-50.99404, -29.64633], [-50.99441, -29.64936], [-50.99502, -29.64982], [-50.99878, -29.64636], [-50.99871, -29.64584], [-50.99792, -29.64576], [-50.99691, -29.6468], [-50.99628, -29.64623], [-50.99425, -29.64577], [-50.99583, -29.64435], [-50.99379, -29.64386], [-50.99404, -29.64633]]]}}, 
{"type": "Feature", "properties": {"CD_SETOR": "431990105000102", "CD_SIT": "1", "NM_DIST": "Sapiranga", "NM_SUBDIST": null}, "geometry": {"type": "Polygon", "coordinates": [[[-51.00199, -29.6448], [-50.99872, -29.64841], [-50.9998, -29.64931], [-51.00324, -29.64582], [-51.00343, -29.64531], [-51.0034, -29.64465], [-51.00199, -29.6448]]]}}, 
{"type": "Feature", "properties": {"CD_SETOR": "431990105000103", "CD_SIT": "1", "NM_DIST": "Sapiranga", "NM_SUBDIST": null}, "geometry": {"type": "Polygon", "coordinates": [[[-50.9917, -29.62635], [-50.99248, -29.62627], [-50.99247, -29.62607], [-50.99311, -29.6263], [-50.99281, -29.62441], [-50.99073, -29.62432], [-50.99096, -29.62641], [-50.9917, -29.62635]]]}}, 
{"type": "Feature", "properties": {"CD_SETOR": "431990105000104", "CD_SIT": "1", "NM_DIST": "Sapiranga", "NM_SUBDIST": null}, "geometry": {"type": "Polygon", "coordinates": [[[-50.98855, -29.64032], [-50.98868, -29.64142], [-50.98781, -29.64259], [-50.99243, -29.64351], [-50.9924, -29.64312], [-50.99283, -29.64318], [-50.99333, -29.64284], [-50.99322, -29.64183], [-50.99256, -29.64189], [-50.99238, -29.64026], [-50.99248, -29.63994], [-50.99294, -29.63957], [-50.99282, -29.63896], [-50.9922, -29.63938], [-50.99176, -29.64014], [-50.99056, -29.64023], [-50.99021, -29.6401], [-50.98855, -29.64032]]]}}, 
{"type": "Feature", "properties": {"CD_SETOR": "431990105000106", "CD_SIT": "1", "NM_DIST": "Sapiranga", "NM_SUBDIST": null}, "geometry": {"type": "Polygon", "coordinates": [[[-51.00303, -29.65262], [-51.00131, -29.65311], [-51.0027, -29.65327], [-51.00286, -29.6553], [-51.00475, -29.6551], [-51.0047, -29.6547], [-51.00716, -29.6544], [-51.00665, -29.6533], [-51.00505, -29.65213], [-51.00484, -29.65291], [-51.00394, -29.6531], [-51.00372, -29.65243], [-51.00303, -29.65262]]]}}, 
{"type": "Feature", "properties": {"CD_SETOR": "431990105000109", "CD_SIT": "1", "NM_DIST": "Sapiranga", "NM_SUBDIST": null}, "geometry": {"type": "Polygon", "coordinates": [[[-51.02518, -29.65045], [-51.02646, -29.6503], [-51.0264, -29.64978], [-51.02795, -29.64965], [-51.02783, -29.64851], [-51.02897, -29.64837], [-51.02634, -29.64667], [-51.02586, -29.64798], [-51.02502, -29.64807], [-51.0247, -29.64864], [-51.02518, -29.65045]]]}}, 
{"type": "Feature", "properties": {"CD_SETOR": "431990105000110", "CD_SIT": "1", "NM_DIST": "Sapiranga", "NM_SUBDIST": null}, "geometry": {"type": "Polygon", "coordinates": [[[-51.02036, -29.63324], [-51.02108, -29.63423], [-51.0228, -29.63406], [-51.02301, -29.63566], [-51.02525, -29.63547], [-51.02467, -29.63046], [-51.02347, -29.63142], [-51.02123, -29.63258], [-51.02036, -29.63324]]]}}, 
{"type": "Feature", "properties": {"CD_SETOR": "431990105000111", "CD_SIT": "1", "NM_DIST": "Sapiranga", "NM_SUBDIST": null}, "geometry": {"type": "Polygon", "coordinates": [[[-51.01375, -29.62671], [-51.0112, -29.62991], [-51.01124, -29.63017], [-51.01658, -29.62986], [-51.01644, -29.62811], [-51.01518, -29.62819], [-51.01521, -29.62655], [-51.01375, -29.62671]]]}}, 
{"type": "Feature", "properties": {"CD_SETOR": "431990105000112", "CD_SIT": "1", "NM_DIST": "Sapiranga", "NM_SUBDIST": null}, "geometry": {"type": "Polygon", "coordinates": [[[-51.00636, -29.62856], [-51.00909, -29.62824], [-51.01004, -29.62885], [-51.00964, -29.62581], [-51.00881, -29.62584], [-51.00898, -29.62683], [-51.00793, -29.62698], [-51.00777, -29.6258], [-51.006, -29.62601], [-51.00636, -29.62856]]]}}, 
{"type": "Feature", "properties": {"CD_SETOR": "431990105000114", "CD_SIT": "1", "NM_DIST": "Sapiranga", "NM_SUBDIST": null}, "geometry": {"type": "Polygon", "coordinates": [[[-50.98893, -29.65239], [-50.9899, -29.65494], [-50.99001, -29.65582], [-50.9892, -29.65728], [-50.98902, -29.65858], [-50.99489, -29.6579], [-50.99605, -29.6538], [-50.99253, -29.65413], [-50.99241, -29.6535], [-50.99273, -29.65347], [-50.99259, -29.65283], [-50.99286, -29.6528], [-50.99274, -29.652], [-50.98893, -29.65239]]]}}, 
{"type": "Feature", "properties": {"CD_SETOR": "431990105000115", "CD_SIT": "1", "NM_DIST": "Sapiranga", "NM_SUBDIST": null}, "geometry": {"type": "Polygon", "coordinates": [[[-50.99995, -29.65453], [-50.99947, -29.65502], [-50.99956, -29.65599], [-51.00121, -29.6558], [-51.00134, -29.65711], [-51.00308, -29.65691], [-51.0031, -29.65715], [-51.00359, -29.6571], [-51.00353, -29.65603], [-51.003, -29.65608], [-51.00276, -29.65491], [-51.00174, -29.65504], [-51.00086, -29.65447], [-50.99995, -29.65453]]]}}, 
{"type": "Feature", "properties": {"CD_SETOR": "431990105000116", "CD_SIT": "1", "NM_DIST": "Sapiranga", "NM_SUBDIST": null}, "geometry": {"type": "Polygon", "coordinates": [[[-51.00663, -29.65566], [-51.00572, -29.65576], [-51.0058, -29.65689], [-51.00623, -29.65684], [-51.00619, -29.65602], [-51.00663, -29.65596], [-51.00678, -29.65766], [-51.00797, -29.65753], [-51.00802, -29.65793], [-51.0085, -29.65788], [-51.00816, -29.65546], [-51.00663, -29.65566]]]}}, 
{"type": "Feature", "properties": {"CD_SETOR": "431990105000117", "CD_SIT": "1", "NM_DIST": "Sapiranga", "NM_SUBDIST": null}, "geometry": {"type": "Polygon", "coordinates": [[[-51.02569, -29.64153], [-51.02426, -29.64251], [-51.0242, -29.64441], [-51.02694, -29.64479], [-51.02809, -29.64513], [-51.02831, -29.64444], [-51.02811, -29.64302], [-51.02732, -29.64313], [-51.02712, -29.64141], [-51.02569, -29.64153]]]}}, 
{"type": "Feature", "properties": {"CD_SETOR": "431990105000118", "CD_SIT": "1", "NM_DIST": "Sapiranga", "NM_SUBDIST": null}, "geometry": {"type": "Polygon", "coordinates": [[[-51.03163, -29.63709], [-51.03064, -29.63737], [-51.02899, -29.63755], [-51.02925, -29.63987], [-51.03573, -29.63973], [-51.03542, -29.63818], [-51.03292, -29.63723], [-51.03163, -29.63709]]]}}, 
{"type": "Feature", "properties": {"CD_SETOR": "431990105000119", "CD_SIT": "1", "NM_DIST": "Sapiranga", "NM_SUBDIST": null}, "geometry": {"type": "Polygon", "coordinates": [[[-51.01697, -29.61953], [-51.01588, -29.62187], [-51.01489, -29.62189], [-51.01403, -29.62275], [-51.01415, -29.62524], [-51.01375, -29.62671], [-51.01687, -29.62639], [-51.01672, -29.62508], [-51.01832, -29.62487], [-51.01788, -29.62079], [-51.01717, -29.62086], [-51.01697, -29.61953]]]}}, 
{"type": "Feature", "properties": {"CD_SETOR": "431990105000120", "CD_SIT": "1", "NM_DIST": "Sapiranga", "NM_SUBDIST": null}, "geometry": {"type": "Polygon", "coordinates": [[[-51.00964, -29.62581], [-51.01163, -29.62582], [-51.01184, -29.62765], [-51.01287, -29.62778], [-51.01375, -29.62671], [-51.01396, -29.62614], [-51.01415, -29.62524], [-51.01409, -29.62428], [-51.01309, -29.62421], [-51.01303, -29.62327], [-51.01147, -29.62322], [-51.0115, -29.62415], [-51.01033, -29.6241], [-51.0105, -29.62526], [-51.00961, -29.62531], [-51.00964, -29.62581]]]}}, 
{"type": "Feature", "properties": {"CD_SETOR": "431990105000121", "CD_SIT": "1", "NM_DIST": "Sapiranga", "NM_SUBDIST": null}, "geometry": {"type": "Polygon", "coordinates": [[[-50.99787, -29.62023], [-50.99809, -29.62142], [-51.00056, -29.62111], [-51.00046, -29.62014], [-50.99787, -29.62023]]]}}, 
{"type": "Feature", "properties": {"CD_SETOR": "431990105000122", "CD_SIT": "1", "NM_DIST": "Sapiranga", "NM_SUBDIST": null}, "geometry": {"type": "Polygon", "coordinates": [[[-50.97481, -29.63062], [-50.97509, -29.63272], [-50.97691, -29.63255], [-50.97664, -29.6316], [-50.97898, -29.6314], [-50.97882, -29.6302], [-50.97481, -29.63062]]]}}, 
{"type": "Feature", "properties": {"CD_SETOR": "431990105000123", "CD_SIT": "1", "NM_DIST": "Sapiranga", "NM_SUBDIST": null}, "geometry": {"type": "Polygon", "coordinates": [[[-50.98965, -29.64609], [-50.98865, -29.64757], [-50.98824, -29.64919], [-50.98826, -29.65033], [-50.98893, -29.65239], [-50.99478, -29.65177], [-50.99455, -29.6502], [-50.99502, -29.64982], [-50.99441, -29.64936], [-50.99404, -29.64633], [-50.99269, -29.64645], [-50.99262, -29.64587], [-50.98965, -29.64609]]]}}, 
{"type": "Feature", "properties": {"CD_SETOR": "431990105000124", "CD_SIT": "1", "NM_DIST": "Sapiranga", "NM_SUBDIST": null}, "geometry": {"type": "Polygon", "coordinates": [[[-50.98513, -29.65276], [-50.98333, -29.65293], [-50.98296, -29.65314], [-50.98264, -29.65363], [-50.98252, -29.6547], [-50.98131, -29.65465], [-50.98149, -29.65583], [-50.9899, -29.65494], [-50.98893, -29.65239], [-50.98513, -29.65276]]]}}, 
{"type": "Feature", "properties": {"CD_SETOR": "431990105000125", "CD_SIT": "1", "NM_DIST": "Sapiranga", "NM_SUBDIST": null}, "geometry": {"type": "Polygon", "coordinates": [[[-50.97177, -29.62245], [-50.97199, -29.62407], [-50.97354, -29.62392], [-50.97377, -29.62576], [-50.97422, -29.62572], [-50.97385, -29.62218], [-50.97177, -29.62245]]]}}, 
{"type": "Feature", "properties": {"CD_SETOR": "431990105000126", "CD_SIT": "1", "NM_DIST": "Sapiranga", "NM_SUBDIST": null}, "geometry": {"type": "Polygon", "coordinates": [[[-50.9685, -29.62299], [-50.9667, -29.62319], [-50.96681, -29.62396], [-50.96731, -29.6241], [-50.96789, -29.62483], [-50.96794, -29.62515], [-50.96898, -29.62493], [-50.96896, -29.62471], [-50.96971, -29.62396], [-50.96954, -29.62284], [-50.9685, -29.62299]]]}}, 
{"type": "Feature", "properties": {"CD_SETOR": "431990105000127", "CD_SIT": "1", "NM_DIST": "Sapiranga", "NM_SUBDIST": null}, "geometry": {"type": "Polygon", "coordinates": [[[-50.95723, -29.6266], [-50.95746, -29.62843], [-50.95984, -29.62836], [-50.95941, -29.62503], [-50.95877, -29.62471], [-50.95885, -29.62532], [-50.957, -29.62532], [-50.95723, -29.6266]]]}}, 
{"type": "Feature", "properties": {"CD_SETOR": "431990105000128", "CD_SIT": "1", "NM_DIST": "Sapiranga", "NM_SUBDIST": null}, "geometry": {"type": "Polygon", "coordinates": [[[-50.956, -29.62663], [-50.95644, -29.63038], [-50.95711, -29.63083], [-50.95709, -29.62982], [-50.95765, -29.6298], [-50.95723, -29.6266], [-50.956, -29.62663]]]}}, 
{"type": "Feature", "properties": {"CD_SETOR": "431990105000129", "CD_SIT": "1", "NM_DIST": "Sapiranga", "NM_SUBDIST": null}, "geometry": {"type": "Polygon", "coordinates": [[[-51.00716, -29.6544], [-51.0047, -29.6547], [-51.00475, -29.6551], [-51.00654, -29.65488], [-51.00663, -29.65566], [-51.00816, -29.65546], [-51.00798, -29.65429], [-51.00716, -29.6544]]]}}, 
{"type": "Feature", "properties": {"CD_SETOR": "431990105000130", "CD_SIT": "1", "NM_DIST": "Sapiranga", "NM_SUBDIST": null}, "geometry": {"type": "Polygon", "coordinates": [[[-50.98701, -29.66489], [-50.98515, -29.66653], [-50.98476, -29.66773], [-50.98454, -29.668], [-50.98494, -29.66904], [-50.9848, -29.66931], [-50.98696, -29.66954], [-50.98672, -29.66848], [-50.98794, -29.66826], [-50.9875, -29.66652], [-50.99139, -29.66624], [-50.99163, -29.66711], [-50.99359, -29.66689], [-50.99355, -29.6665], [-50.99371, -29.66631], [-50.99573, -29.66609], [-50.99629, -29.66363], [-50.99596, -29.66241], [-50.99537, -29.66267], [-50.99488, -29.66365], [-50.99491, -29.66403], [-50.99363, -29.66427], [-50.99321, -29.66454], [-50.98701, -29.66489]]]}}, 
{"type": "Feature", "properties": {"CD_SETOR": "431990105000131", "CD_SIT": "1", "NM_DIST": "Sapiranga", "NM_SUBDIST": null}, "geometry": {"type": "Polygon", "coordinates": [[[-50.98696, -29.66954], [-50.99465, -29.66906], [-50.99537, -29.6676], [-50.99573, -29.66609], [-50.99371, -29.66631], [-50.99355, -29.6665], [-50.99359, -29.66689], [-50.99163, -29.66711], [-50.99139, -29.66624], [-50.9875, -29.66652], [-50.98794, -29.66826], [-50.98672, -29.66848], [-50.98696, -29.66954]]]}}, 
{"type": "Feature", "properties": {"CD_SETOR": "431990105000132", "CD_SIT": "1", "NM_DIST": "Sapiranga", "NM_SUBDIST": null}, "geometry": {"type": "Polygon", "coordinates": [[[-51.01705, -29.61951], [-51.01717, -29.62086], [-51.01788, -29.62079], [-51.01804, -29.62243], [-51.02006, -29.62223], [-51.02008, -29.62234], [-51.02324, -29.62188], [-51.02282, -29.61891], [-51.01705, -29.61951]]]}}, 
{"type": "Feature", "properties": {"CD_SETOR": "431990105000133", "CD_SIT": "1", "NM_DIST": "Sapiranga", "NM_SUBDIST": null}, "geometry": {"type": "Polygon", "coordinates": [[[-51.01804, -29.62243], [-51.01832, -29.62487], [-51.01672, -29.62508], [-51.01687, -29.62639], [-51.02059, -29.62598], [-51.02124, -29.62636], [-51.02347, -29.62354], [-51.02324, -29.62188], [-51.02008, -29.62234], [-51.02006, -29.62223], [-51.01804, -29.62243]]]}}, 
{"type": "Feature", "properties": {"CD_SETOR": "431990105000134", "CD_SIT": "1", "NM_DIST": "Sapiranga", "NM_SUBDIST": null}, "geometry": {"type": "Polygon", "coordinates": [[[-50.99611, -29.66286], [-50.99629, -29.66363], [-50.99585, -29.66543], [-50.9974, -29.66527], [-51.00949, -29.66572], [-51.00895, -29.66214], [-50.99698, -29.6634], [-50.99692, -29.66277], [-50.99611, -29.66286]]]}}, 
{"type": "Feature", "properties": {"CD_SETOR": "431990105000135", "CD_SIT": "1", "NM_DIST": "Sapiranga", "NM_SUBDIST": null}, "geometry": {"type": "Polygon", "coordinates": [[[-51.00791, -29.65945], [-51.00277, -29.65981], [-50.99532, -29.66054], [-50.99611, -29.66286], [-50.99692, -29.66277], [-50.99698, -29.6634], [-51.00895, -29.66214], [-51.00869, -29.65938], [-51.00791, -29.65945]]]}}, 
{"type": "Feature", "properties": {"CD_SETOR": "431990105000136", "CD_SIT": "8", "NM_DIST": "Sapiranga", "NM_SUBDIST": null}, "geometry": {"type": "Polygon", "coordinates": [[[-50.94818, -29.58715], [-50.94989, -29.59594], [-50.96022, -29.59599], [-50.96191, -29.60888], [-50.95592, -29.61215], [-50.95231, -29.61625], [-50.95192, -29.61945], [-50.95097, -29.62045], [-50.94684, -29.62131], [-50.95197, -29.62493], [-50.95788, -29.62425], [-50.9595, -29.62423], [-50.9685, -29.62299], [-50.96772, -29.61815], [-50.96906, -29.61823], [-50.96983, -29.62276], [-50.97847, -29.62138], [-50.98826, -29.62083], [-50.98761, -29.61553], [-50.99586, -29.6147], [-50.9972, -29.61325], [-50.99674, -29.6127], [-50.99662, -29.61088], [-50.9954, -29.61006], [-50.99538, -29.60932], [-50.99508, -29.60881], [-50.99484, -29.60769], [-50.99506, -29.60686], [-50.99501, -29.60638], [-50.99402, -29.60478], [-50.99364, -29.60442], [-50.99239, -29.60421], [-50.9918, -29.6039], [-50.99181, -29.60377], [-50.99211, -29.60374], [-50.99263, -29.6033], [-50.99183, -29.60312], [-50.99177, -29.60301], [-50.99215, -29.6029], [-50.99216, -29.6026], [-50.99084, -29.60266], [-50.98961, -29.60238], [-50.98753, -29.60128], [-50.9907, -29.60124], [-50.99159, -29.60065], [-50.99189, -29.59998], [-50.99362, -29.59926], [-50.99579, -29.59906], [-50.99703, -29.59849], [-50.99751, -29.598], [-50.99761, -29.59756], [-50.99735, -29.59722], [-50.99559, -29.59629], [-50.99472, -29.59563], [-50.99572, -29.59463], [-50.99589, -29.59344], [-50.99611, -29.59296], [-50.99574, -29.5921], [-50.98866, -29.59275], [-50.98799, -29.59316], [-50.98535, -29.59314], [-50.98317, -29.59345], [-50.97852, -29.59377], [-50.97654, -29.59369], [-50.97575, -29.59388], [-50.97476, -29.59375], [-50.97436, -29.59407], [-50.97384, -29.59416], [-50.97243, -29.59362], [-50.97046, -29.59335], [-50.96884, -29.59351], [-50.96792, -29.59344], [-50.96699, -29.59393], [-50.96488, -29.59381], [-50.96401, -29.5934], [-50.96344, -29.59331], [-50.96142, -29.59395], [-50.95976, -29.59398], [-50.95869, -29.59417], [-50.9583, -29.59387], [-50.95805, -29.59276], [-50.95811, -29.59233], [-50.9577, -29.59137], [-50.95563, -29.59125], [-50.95487, -29.59098], [-50.95398, -29.59097], [-50.95367, -29.58901], [-50.95214, -29.58862], [-50.95175, -29.58833], [-50.94943, -29.58768], [-50.94818, -29.58715]]]}}, 
{"type": "Feature", "properties": {"CD_SETOR": "431990105000137", "CD_SIT": "8", "NM_DIST": "Sapiranga", "NM_SUBDIST": null}, "geometry": {"type": "Polygon", "coordinates": [[[-50.99574, -29.59211], [-50.99611, -29.59296], [-50.99589, -29.59344], [-50.99572, -29.59463], [-50.99472, -29.59563], [-50.99559, -29.59629], [-50.99735, -29.59722], [-50.99761, -29.59756], [-50.99751, -29.598], [-50.99703, -29.59849], [-50.99579, -29.59906], [-50.99362, -29.59926], [-50.99189, -29.59998], [-50.99159, -29.60065], [-50.9907, -29.60124], [-50.98753, -29.60128], [-50.98961, -29.60238], [-50.99084, -29.60266], [-50.99216, -29.6026], [-50.99215, -29.6029], [-50.99177, -29.60301], [-50.99183, -29.60312], [-50.99263, -29.6033], [-50.99211, -29.60374], [-50.99181, -29.60377], [-50.9918, -29.6039], [-50.99239, -29.60421], [-50.99364, -29.60442], [-50.99441, -29.60531], [-50.99501, -29.60638], [-50.99506, -29.60686], [-50.99484, -29.60769], [-50.99508, -29.60881], [-50.99538, -29.60932], [-50.9954, -29.61006], [-50.99662, -29.61088], [-50.99723, -29.61045], [-50.99775, -29.60974], [-50.99828, -29.60838], [-50.99986, -29.60737], [-51.00129, -29.60718], [-51.00463, -29.60589], [-51.00881, -29.60536], [-51.01062, -29.6178], [-51.0169, -29.61744], [-51.03088, -29.61608], [-51.03227, -29.61243], [-51.03413, -29.61068], [-51.03358, -29.60753], [-51.02823, -29.60801], [-51.02816, -29.6062], [-51.02905, -29.60475], [-51.02884, -29.60394], [-51.02919, -29.60359], [-51.03085, -29.6029], [-51.03129, -29.6018], [-51.03111, -29.60113], [-51.02975, -29.59973], [-51.02954, -29.5993], [-51.02935, -29.59781], [-51.02876, -29.59658], [-51.02894, -29.59645], [-51.0297, -29.59676], [-51.02998, -29.59663], [-51.02906, -29.59562], [-51.02856, -29.59529], [-51.02598, -29.59438], [-51.02595, -29.59425], [-51.02625, -29.59424], [-51.0275, -29.59335], [-51.02733, -29.59245], [-51.02606, -29.58965], [-51.02607, -29.58904], [-51.02437, -29.58924], [-51.02338, -29.5888], [-51.02294, -29.58935], [-51.02267, -29.5894], [-51.01374, -29.59003], [-51.00904, -29.59063], [-51.00804, -29.59131], [-51.00737, -29.59103], [-51.00602, -29.59089], [-51.00558, -29.59099], [-51.00523, -29.59148], [-51.00494, -29.59156], [-51.00447, -29.59117], [-51.00346, -29.5912], [-50.99574, -29.59211]]]}}, 
{"type": "Feature", "properties": {"CD_SETOR": "431990105000138", "CD_SIT": "1", "NM_DIST": "Sapiranga", "NM_SUBDIST": null}, "geometry": {"type": "Polygon", "coordinates": [[[-51.02282, -29.61891], [-51.02347, -29.62354], [-51.02486, -29.62163], [-51.02555, -29.62037], [-51.02805, -29.61837], [-51.02282, -29.61891]]]}}, 
{"type": "Feature", "properties": {"CD_SETOR": "431990105000139", "CD_SIT": "1", "NM_DIST": "Sapiranga", "NM_SUBDIST": null}, "geometry": {"type": "Polygon", "coordinates": [[[-50.97385, -29.62218], [-50.97437, -29.62688], [-50.97488, -29.62688], [-50.97991, -29.6291], [-50.98048, -29.6295], [-50.98205, -29.6317], [-50.98415, -29.63297], [-50.98236, -29.62116], [-50.97847, -29.62138], [-50.97385, -29.62218]]]}}, 
{"type": "Feature", "properties": {"CD_SETOR": "431990105000140", "CD_SIT": "1", "NM_DIST": "Sapiranga", "NM_SUBDIST": null}, "geometry": {"type": "Polygon", "coordinates": [[[-50.98945, -29.62076], [-50.98236, -29.62116], [-50.98384, -29.63098], [-50.98519, -29.63081], [-50.98534, -29.63152], [-50.98491, -29.63204], [-50.98402, -29.63217], [-50.98415, -29.63297], [-50.98669, -29.63432], [-50.98752, -29.63435], [-50.98903, -29.63396], [-50.9887, -29.63002], [-50.9911, -29.62972], [-50.99122, -29.63122], [-50.99267, -29.63082], [-50.99229, -29.63014], [-50.9917, -29.62635], [-50.99096, -29.62641], [-50.99073, -29.62432], [-50.99281, -29.62441], [-50.99273, -29.62391], [-50.9911, -29.62384], [-50.99065, -29.62067], [-50.98945, -29.62076]]]}}, 
{"type": "Feature", "properties": {"CD_SETOR": "431990105000141", "CD_SIT": "1", "NM_DIST": "Sapiranga", "NM_SUBDIST": null}, "geometry": {"type": "Polygon", "coordinates": [[[-50.98384, -29.63098], [-50.98402, -29.63217], [-50.98491, -29.63204], [-50.98534, -29.63152], [-50.98519, -29.63081], [-50.98384, -29.63098]]]}}, 
{"type": "Feature", "properties": {"CD_SETOR": "431990105000142", "CD_SIT": "8", "NM_DIST": "Sapiranga", "NM_SUBDIST": null}, "geometry": {"type": "Polygon", "coordinates": [[[-51.04556, -29.59806], [-51.04493, -29.59814], [-51.04479, -29.59846], [-51.045, -29.59913], [-51.04499, -29.59983], [-51.04468, -29.60061], [-51.04218, -29.6027], [-51.04159, -29.60352], [-51.04123, -29.60433], [-51.04134, -29.60552], [-51.04087, -29.60604], [-51.03969, -29.60652], [-51.03821, -29.60686], [-51.03803, -29.60722], [-51.03828, -29.60787], [-51.0383, -29.60861], [-51.0381, -29.60942], [-51.03767, -29.60991], [-51.03563, -29.61004], [-51.03488, -29.61022], [-51.03322, -29.61147], [-51.03227, -29.61243], [-51.03077, -29.61644], [-51.03044, -29.61684], [-51.02805, -29.61837], [-51.03477, -29.61778], [-51.04505, -29.61654], [-51.05581, -29.61563], [-51.05496, -29.60202], [-51.05452, -29.59917], [-51.05246, -29.59961], [-51.04948, -29.5998], [-51.04692, -29.59848], [-51.04556, -29.59806]]]}}, 
{"type": "Feature", "properties": {"CD_SETOR": "431990105000143", "CD_SIT": "8", "NM_DIST": "Sapiranga", "NM_SUBDIST": null}, "geometry": {"type": "Polygon", "coordinates": [[[-51.02607, -29.58904], [-51.02606, -29.58965], [-51.02733, -29.59245], [-51.0275, -29.59335], [-51.02625, -29.59424], [-51.02595, -29.59425], [-51.02598, -29.59438], [-51.02856, -29.59529], [-51.02906, -29.59562], [-51.02998, -29.59663], [-51.0297, -29.59676], [-51.02894, -29.59645], [-51.02876, -29.59658], [-51.02935, -29.59781], [-51.02954, -29.5993], [-51.02975, -29.59973], [-51.03111, -29.60113], [-51.03129, -29.6018], [-51.03085, -29.6029], [-51.02919, -29.60359], [-51.02884, -29.60394], [-51.02905, -29.60475], [-51.02816, -29.6062], [-51.02823, -29.60801], [-51.03358, -29.60753], [-51.03413, -29.61068], [-51.03488, -29.61022], [-51.03563, -29.61004], [-51.03767, -29.60991], [-51.0381, -29.60942], [-51.0383, -29.60861], [-51.03828, -29.60787], [-51.03803, -29.60722], [-51.03821, -29.60686], [-51.03969, -29.60652], [-51.04087, -29.60604], [-51.04134, -29.60552], [-51.04123, -29.60433], [-51.04159, -29.60352], [-51.04218, -29.6027], [-51.04468, -29.60061], [-51.04499, -29.59983], [-51.045, -29.59913], [-51.04479, -29.59846], [-51.04493, -29.59814], [-51.04556, -29.59806], [-51.04538, -29.5973], [-51.04418, -29.5967], [-51.04384, -29.59599], [-51.04305, -29.59613], [-51.04225, -29.5959], [-51.04082, -29.59489], [-51.03972, -29.58774], [-51.03882, -29.58772], [-51.02607, -29.58904]]]}}, 
{"type": "Feature", "properties": {"CD_SETOR": "431990105000144", "CD_SIT": "2", "NM_DIST": "Sapiranga", "NM_SUBDIST": null}, "geometry": {"type": "Polygon", "coordinates": [[[-51.00463, -29.60589], [-51.00671, -29.61993], [-51.01091, -29.61976], [-51.00881, -29.60536], [-51.00463, -29.60589]]]}}, 
{"type": "Feature", "properties": {"CD_SETOR": "431990105000145", "CD_SIT": "1", "NM_DIST": "Sapiranga", "NM_SUBDIST": null}, "geometry": {"type": "Polygon", "coordinates": [[[-51.0015, -29.62018], [-51.00284, -29.62013], [-51.002, -29.61429], [-51.00069, -29.61446], [-51.0015, -29.62018]]]}}, 
{"type": "Feature", "properties": {"CD_SETOR": "431990105000146", "CD_SIT": "1", "NM_DIST": "Sapiranga", "NM_SUBDIST": null}, "geometry": {"type": "Polygon", "coordinates": [[[-50.99662, -29.61088], [-50.99678, -29.61285], [-50.99759, -29.6137], [-50.99766, -29.61404], [-50.99726, -29.61574], [-50.99787, -29.62023], [-51.0003, -29.62013], [-50.99856, -29.60815], [-50.99824, -29.60845], [-50.99775, -29.60974], [-50.99723, -29.61045], [-50.99662, -29.61088]]]}}, 
{"type": "Feature", "properties": {"CD_SETOR": "431990105000147", "CD_SIT": "1", "NM_DIST": "Sapiranga", "NM_SUBDIST": null}, "geometry": {"type": "Polygon", "coordinates": [[[-50.99586, -29.6147], [-50.99667, -29.62032], [-50.99787, -29.62023], [-50.99726, -29.61574], [-50.99766, -29.61404], [-50.99759, -29.6137], [-50.9972, -29.61325], [-50.99586, -29.6147]]]}}, 
{"type": "Feature", "properties": {"CD_SETOR": "431990105000148", "CD_SIT": "1", "NM_DIST": "Sapiranga", "NM_SUBDIST": null}, "geometry": {"type": "Polygon", "coordinates": [[[-50.98826, -29.62083], [-50.98945, -29.62076], [-50.98871, -29.61542], [-50.98761, -29.61553], [-50.98826, -29.62083]]]}}, 
{"type": "Feature", "properties": {"CD_SETOR": "431990105000149", "CD_SIT": "1", "NM_DIST": "Sapiranga", "NM_SUBDIST": null}, "geometry": {"type": "Polygon", "coordinates": [[[-50.9685, -29.62299], [-50.96983, -29.62276], [-50.96906, -29.61823], [-50.96772, -29.61815], [-50.9685, -29.62299]]]}}, 
{"type": "Feature", "properties": {"CD_SETOR": "431990105000150", "CD_SIT": "1", "NM_DIST": "Sapiranga", "NM_SUBDIST": null}, "geometry": {"type": "Polygon", "coordinates": [[[-51.01848, -29.64922], [-51.01967, -29.64911], [-51.01857, -29.64795], [-51.01848, -29.64922]]]}}, 
{"type": "Feature", "properties": {"CD_SETOR": "431990105000151", "CD_SIT": "1", "NM_DIST": "Sapiranga", "NM_SUBDIST": null}, "geometry": {"type": "Polygon", "coordinates": [[[-51.01993, -29.64924], [-51.01978, -29.65109], [-51.02518, -29.65045], [-51.02261, -29.649], [-51.01993, -29.64924]]]}}, 
{"type": "Feature", "properties": {"CD_SETOR": "431990105000152", "CD_SIT": "1", "NM_DIST": "Sapiranga", "NM_SUBDIST": null}, "geometry": {"type": "Polygon", "coordinates": [[[-51.01857, -29.64795], [-51.01937, -29.64881], [-51.01967, -29.64756], [-51.01857, -29.64759], [-51.01857, -29.64795]]]}}, 
{"type": "Feature", "properties": {"CD_SETOR": "431990105000153", "CD_SIT": "1", "NM_DIST": "Sapiranga", "NM_SUBDIST": null}, "geometry": {"type": "Polygon", "coordinates": [[[-51.01967, -29.64756], [-51.01937, -29.64881], [-51.01993, -29.64924], [-51.02261, -29.649], [-51.0213, -29.6481], [-51.02132, -29.64798], [-51.02281, -29.64693], [-51.02343, -29.64693], [-51.02376, -29.64621], [-51.02381, -29.64497], [-51.02316, -29.64445], [-51.02251, -29.64418], [-51.02071, -29.64385], [-51.01967, -29.64756]]]}}, 
{"type": "Feature", "properties": {"CD_SETOR": "431990105000155", "CD_SIT": "2", "NM_DIST": "Sapiranga", "NM_SUBDIST": null}, "geometry": {"type": "Polygon", "coordinates": [[[-50.98945, -29.66178], [-50.98902, -29.66299], [-50.98701, -29.66489], [-50.99321, -29.66454], [-50.99363, -29.66427], [-50.99491, -29.66403], [-50.99488, -29.66365], [-50.99537, -29.66267], [-50.99596, -29.66241], [-50.9955, -29.6611], [-50.98945, -29.66178]]]}}, 
{"type": "Feature", "properties": {"CD_SETOR": "431990105000156", "CD_SIT": "1", "NM_DIST": "Sapiranga", "NM_SUBDIST": null}, "geometry": {"type": "Polygon", "coordinates": [[[-50.97946, -29.64271], [-50.97974, -29.64455], [-50.98494, -29.6461], [-50.98713, -29.64625], [-50.98965, -29.64609], [-50.99087, -29.64495], [-50.99284, -29.64363], [-50.97997, -29.64086], [-50.97946, -29.64271]]]}}, 
{"type": "Feature", "properties": {"CD_SETOR": "431990105000157", "CD_SIT": "1", "NM_DIST": "Sapiranga", "NM_SUBDIST": null}, "geometry": {"type": "Polygon", "coordinates": [[[-50.98965, -29.64609], [-50.99262, -29.64587], [-50.99269, -29.64645], [-50.99404, -29.64633], [-50.99379, -29.64386], [-50.99284, -29.64363], [-50.99087, -29.64495], [-50.98965, -29.64609]]]}}, 
{"type": "Feature", "properties": {"CD_SETOR": "431990105000158", "CD_SIT": "2", "NM_DIST": "Sapiranga", "NM_SUBDIST": null}, "geometry": {"type": "Polygon", "coordinates": [[[-50.95162, -29.63993], [-50.96378, -29.64208], [-50.97334, -29.64346], [-50.97584, -29.643], [-50.97946, -29.64271], [-50.97997, -29.64086], [-50.97133, -29.63911], [-50.95767, -29.63723], [-50.95564, -29.63712], [-50.95126, -29.63706], [-50.95162, -29.63993]]]}}, 
{"type": "Feature", "properties": {"CD_SETOR": "431990105000159", "CD_SIT": "2", "NM_DIST": "Sapiranga", "NM_SUBDIST": null}, "geometry": {"type": "Polygon", "coordinates": [[[-50.97334, -29.64346], [-50.97497, -29.65377], [-50.98513, -29.65276], [-50.98421, -29.64854], [-50.985, -29.64679], [-50.98497, -29.6461], [-50.97974, -29.64455], [-50.97946, -29.64271], [-50.97584, -29.643], [-50.97334, -29.64346]]]}}, 
{"type": "Feature", "properties": {"CD_SETOR": "431990105000160", "CD_SIT": "2", "NM_DIST": "Sapiranga", "NM_SUBDIST": null}, "geometry": {"type": "Polygon", "coordinates": [[[-50.98497, -29.6461], [-50.985, -29.64679], [-50.98421, -29.64854], [-50.98513, -29.65276], [-50.98893, -29.65239], [-50.98826, -29.65033], [-50.98824, -29.64919], [-50.98865, -29.64757], [-50.98964, -29.64609], [-50.98713, -29.64625], [-50.98497, -29.6461]]]}}, 
{"type": "Feature", "properties": {"CD_SETOR": "431990105000161", "CD_SIT": "8", "NM_DIST": "Sapiranga", "NM_SUBDIST": null}, "geometry": {"type": "Polygon", "coordinates": [[[-50.96369, -29.67846], [-50.9672, -29.67859], [-50.97057, -29.67769], [-50.97219, -29.6761], [-50.97679, -29.67382], [-50.97463, -29.67402], [-50.9745, -29.67295], [-50.97616, -29.67284], [-50.97429, -29.67065], [-50.97597, -29.66989], [-50.97539, -29.66925], [-50.97521, -29.66825], [-50.97434, -29.66786], [-50.97433, -29.66754], [-50.97397, -29.66741], [-50.97418, -29.66696], [-50.97361, -29.66689], [-50.97343, -29.66565], [-50.97316, -29.66547], [-50.97313, -29.66493], [-50.973, -29.66501], [-50.97296, -29.66483], [-50.97256, -29.66469], [-50.97279, -29.66444], [-50.9723, -29.66409], [-50.97225, -29.66377], [-50.97157, -29.66372], [-50.97199, -29.66241], [-50.97136, -29.66221], [-50.97144, -29.66148], [-50.97073, -29.66125], [-50.97056, -29.66097], [-50.96961, -29.66029], [-50.96904, -29.66047], [-50.9685, -29.66035], [-50.96839, -29.6599], [-50.96848, -29.65947], [-50.96768, -29.65863], [-50.96727, -29.65716], [-50.96651, -29.65559], [-50.96628, -29.65475], [-50.96353, -29.65504], [-50.96491, -29.65239], [-50.96485, -29.65104], [-50.96412, -29.64918], [-50.96372, -29.64767], [-50.96226, -29.64716], [-50.96203, -29.64695], [-50.96133, -29.64441], [-50.96071, -29.64312], [-50.9604, -29.6415], [-50.95162, -29.63993], [-50.95378, -29.65606], [-50.9526, -29.65619], [-50.9541, -29.66642], [-50.95575, -29.66624], [-50.95698, -29.67414], [-50.9581, -29.67404], [-50.95863, -29.67703], [-50.95935, -29.67757], [-50.96369, -29.67846]]]}}, 
{"type": "Feature", "properties": {"CD_SETOR": "431990105000162", "CD_SIT": "2", "NM_DIST": "Sapiranga", "NM_SUBDIST": null}, "geometry": {"type": "Polygon", "coordinates": [[[-50.96628, -29.65475], [-50.97497, -29.65377], [-50.97334, -29.64346], [-50.97054, -29.64314], [-50.9604, -29.6415], [-50.96071, -29.64312], [-50.96133, -29.64441], [-50.96203, -29.64695], [-50.96226, -29.64716], [-50.96372, -29.64767], [-50.96412, -29.64918], [-50.96485, -29.65104], [-50.96491, -29.65239], [-50.96353, -29.65504], [-50.96628, -29.65475]]]}}, 
{"type": "Feature", "properties": {"CD_SETOR": "431990105000163", "CD_SIT": "2", "NM_DIST": "Sapiranga", "NM_SUBDIST": null}, "geometry": {"type": "Polygon", "coordinates": [[[-50.978, -29.6535], [-50.98007, -29.66577], [-50.98122, -29.66566], [-50.98079, -29.66281], [-50.98219, -29.66271], [-50.9813, -29.65747], [-50.98944, -29.65683], [-50.98985, -29.6563], [-50.99001, -29.65582], [-50.9899, -29.65494], [-50.98149, -29.65583], [-50.98131, -29.65465], [-50.98252, -29.6547], [-50.98264, -29.65363], [-50.98296, -29.65314], [-50.98333, -29.65293], [-50.978, -29.6535]]]}}, 
{"type": "Feature", "properties": {"CD_SETOR": "431990105000164", "CD_SIT": "8", "NM_DIST": "Sapiranga", "NM_SUBDIST": null}, "geometry": {"type": "Polygon", "coordinates": [[[-50.9973, -29.70458], [-50.99803, -29.70344], [-50.99924, -29.70264], [-51.0022, -29.7011], [-51.00275, -29.70061], [-51.00325, -29.70005], [-51.00431, -29.69818], [-51.00479, -29.69775], [-51.00661, -29.69713], [-51.01019, -29.69629], [-51.0138, -29.69584], [-51.01064, -29.67261], [-50.99343, -29.67147], [-50.99262, -29.67362], [-50.98668, -29.67423], [-50.98752, -29.67589], [-50.9878, -29.6769], [-50.98774, -29.67834], [-50.98705, -29.68058], [-50.98617, -29.6817], [-50.98309, -29.68385], [-50.98198, -29.68485], [-50.98163, -29.68545], [-50.98122, -29.68681], [-50.9812, -29.68798], [-50.98258, -29.70081], [-50.98279, -29.70162], [-50.98436, -29.70341], [-50.98454, -29.70406], [-50.98601, -29.70438], [-50.98656, -29.70425], [-50.98741, -29.70386], [-50.98873, -29.70245], [-50.98919, -29.70243], [-50.98968, -29.7027], [-50.99141, -29.70489], [-50.99225, -29.70572], [-50.99624, -29.70633], [-50.99674, -29.70595], [-50.9973, -29.70458]]]}}, 
{"type": "Feature", "properties": {"CD_SETOR": "431990105000165", "CD_SIT": "2", "NM_DIST": "Sapiranga", "NM_SUBDIST": null}, "geometry": {"type": "Polygon", "coordinates": [[[-50.99585, -29.66543], [-50.99537, -29.6676], [-50.99465, -29.66906], [-50.98776, -29.66954], [-50.9848, -29.66931], [-50.98509, -29.6698], [-50.98507, -29.67084], [-50.98542, -29.67131], [-50.98668, -29.67423], [-50.99262, -29.67362], [-50.99287, -29.6727], [-50.99383, -29.67075], [-51.00831, -29.67164], [-51.01054, -29.67166], [-51.00949, -29.66572], [-50.9974, -29.66527], [-50.99585, -29.66543]]]}}, 
{"type": "Feature", "properties": {"CD_SETOR": "431990105000166", "CD_SIT": "1", "NM_DIST": "Sapiranga", "NM_SUBDIST": null}, "geometry": {"type": "Polygon", "coordinates": [[[-51.02925, -29.63987], [-51.02905, -29.63991], [-51.02911, -29.64033], [-51.03027, -29.64568], [-51.03163, -29.64571], [-51.03266, -29.64601], [-51.03282, -29.64657], [-51.03424, -29.6433], [-51.03477, -29.6404], [-51.03507, -29.63997], [-51.03573, -29.63973], [-51.02925, -29.63987]]]}}, 
{"type": "Feature", "properties": {"CD_SETOR": "431990105000167", "CD_SIT": "2", "NM_DIST": "Sapiranga", "NM_SUBDIST": null}, "geometry": {"type": "Polygon", "coordinates": [[[-51.03542, -29.63818], [-51.03573, -29.63973], [-51.03507, -29.63997], [-51.03477, -29.6404], [-51.03424, -29.6433], [-51.03282, -29.64657], [-51.03293, -29.64736], [-51.03364, -29.64814], [-51.03431, -29.64937], [-51.0395, -29.64876], [-51.03787, -29.63809], [-51.03698, -29.638], [-51.03542, -29.63818]]]}}, 
{"type": "Feature", "properties": {"CD_SETOR": "431990105000168", "CD_SIT": "1", "NM_DIST": "Sapiranga", "NM_SUBDIST": null}, "geometry": {"type": "Polygon", "coordinates": [[[-51.02316, -29.64445], [-51.02787, -29.64772], [-51.02977, -29.64887], [-51.03007, -29.64856], [-51.03099, -29.64865], [-51.03197, -29.64774], [-51.03282, -29.64657], [-51.03266, -29.64601], [-51.03163, -29.64571], [-51.03017, -29.64569], [-51.02571, -29.64458], [-51.02316, -29.64445]]]}}, 
{"type": "Feature", "properties": {"CD_SETOR": "431990105000169", "CD_SIT": "2", "NM_DIST": "Sapiranga", "NM_SUBDIST": null}, "geometry": {"type": "Polygon", "coordinates": [[[-51.02977, -29.64887], [-51.03119, -29.64974], [-51.03431, -29.64937], [-51.03364, -29.64814], [-51.03293, -29.64736], [-51.03282, -29.64657], [-51.03197, -29.64774], [-51.03099, -29.64865], [-51.03007, -29.64856], [-51.02977, -29.64887]]]}}, 
{"type": "Feature", "properties": {"CD_SETOR": "431990105000170", "CD_SIT": "8", "NM_DIST": "Sapiranga", "NM_SUBDIST": null}, "geometry": {"type": "Polygon", "coordinates": [[[-51.02805, -29.61837], [-51.02555, -29.62037], [-51.02428, -29.62248], [-51.02252, -29.62473], [-51.02403, -29.62502], [-51.02616, -29.62477], [-51.02683, -29.62911], [-51.02792, -29.6292], [-51.02953, -29.63016], [-51.03096, -29.6304], [-51.03191, -29.63029], [-51.03303, -29.62973], [-51.03417, -29.62884], [-51.03489, -29.62878], [-51.03649, -29.62905], [-51.03477, -29.61778], [-51.02805, -29.61837]]]}}, 
{"type": "Feature", "properties": {"CD_SETOR": "431990105000171", "CD_SIT": "2", "NM_DIST": "Sapiranga", "NM_SUBDIST": null}, "geometry": {"type": "Polygon", "coordinates": [[[-51.02714, -29.6291], [-51.02747, -29.63157], [-51.02892, -29.63143], [-51.02898, -29.63198], [-51.03068, -29.63178], [-51.03163, -29.63709], [-51.03292, -29.63723], [-51.03506, -29.63813], [-51.03787, -29.63809], [-51.03649, -29.62905], [-51.03489, -29.62878], [-51.03417, -29.62884], [-51.03303, -29.62973], [-51.03191, -29.63029], [-51.03129, -29.63041], [-51.02953, -29.63016], [-51.02792, -29.6292], [-51.02714, -29.6291]]]}}, 
{"type": "Feature", "properties": {"CD_SETOR": "431990105000172", "CD_SIT": "1", "NM_DIST": "Sapiranga", "NM_SUBDIST": null}, "geometry": {"type": "Polygon", "coordinates": [[[-51.02714, -29.6291], [-51.02618, -29.62918], [-51.02467, -29.63046], [-51.02529, -29.63589], [-51.02661, -29.63528], [-51.02669, -29.6362], [-51.02736, -29.63608], [-51.02756, -29.63782], [-51.03064, -29.63737], [-51.03163, -29.63709], [-51.03068, -29.63178], [-51.02898, -29.63198], [-51.02892, -29.63143], [-51.02747, -29.63157], [-51.02714, -29.6291]]]}}, 
{"type": "Feature", "properties": {"CD_SETOR": "431990105000173", "CD_SIT": "1", "NM_DIST": "Sapiranga", "NM_SUBDIST": null}, "geometry": {"type": "Polygon", "coordinates": [[[-51.01619, -29.63202], [-51.01486, -29.63265], [-51.01447, -29.6334], [-51.01503, -29.63507], [-51.01568, -29.63555], [-51.01697, -29.6352], [-51.01735, -29.63469], [-51.01741, -29.63411], [-51.01966, -29.63344], [-51.01948, -29.63202], [-51.01782, -29.63234], [-51.01774, -29.63178], [-51.01619, -29.63202]]]}}, 
{"type": "Feature", "properties": {"CD_SETOR": "431990105000174", "CD_SIT": "1", "NM_DIST": "Sapiranga", "NM_SUBDIST": null}, "geometry": {"type": "Polygon", "coordinates": [[[-51.01568, -29.63555], [-51.01609, -29.63587], [-51.01493, -29.63692], [-51.01609, -29.63822], [-51.01615, -29.63981], [-51.0175, -29.64007], [-51.01998, -29.63972], [-51.01911, -29.6336], [-51.01741, -29.63411], [-51.01735, -29.63469], [-51.01697, -29.6352], [-51.01568, -29.63555]]]}}, 
{"type": "Feature", "properties": {"CD_SETOR": "431990105000175", "CD_SIT": "1", "NM_DIST": "Sapiranga", "NM_SUBDIST": null}, "geometry": {"type": "Polygon", "coordinates": [[[-51.0129, -29.63756], [-51.01408, -29.63862], [-51.01615, -29.63981], [-51.01609, -29.63822], [-51.01595, -29.63793], [-51.01426, -29.63635], [-51.0129, -29.63756]]]}}, 
{"type": "Feature", "properties": {"CD_SETOR": "431990105000176", "CD_SIT": "1", "NM_DIST": "Sapiranga", "NM_SUBDIST": null}, "geometry": {"type": "Polygon", "coordinates": [[[-51.01615, -29.63981], [-51.01621, -29.64032], [-51.01664, -29.64088], [-51.01669, -29.64184], [-51.01704, -29.64223], [-51.02037, -29.6429], [-51.01996, -29.63974], [-51.0175, -29.64007], [-51.01615, -29.63981]]]}}, 
{"type": "Feature", "properties": {"CD_SETOR": "431990105000177", "CD_SIT": "1", "NM_DIST": "Sapiranga", "NM_SUBDIST": null}, "geometry": {"type": "Polygon", "coordinates": [[[-51.01331, -29.6409], [-51.01422, -29.64178], [-51.015, -29.64332], [-51.0142, -29.64407], [-51.02071, -29.64385], [-51.02251, -29.64418], [-51.02037, -29.6429], [-51.01704, -29.64223], [-51.01669, -29.64184], [-51.01664, -29.64088], [-51.01621, -29.64032], [-51.01615, -29.63981], [-51.01516, -29.6393], [-51.01331, -29.6409]]]}}, 
{"type": "Feature", "properties": {"CD_SETOR": "431990105000178", "CD_SIT": "1", "NM_DIST": "Sapiranga", "NM_SUBDIST": null}, "geometry": {"type": "Polygon", "coordinates": [[[-51.01052, -29.63245], [-51.01025, -29.63269], [-51.01112, -29.63375], [-51.01109, -29.63467], [-51.01213, -29.63471], [-51.01279, -29.63502], [-51.01493, -29.63692], [-51.01609, -29.63587], [-51.01503, -29.63507], [-51.01447, -29.6334], [-51.01304, -29.63266], [-51.01177, -29.63139], [-51.01052, -29.63245]]]}}, 
{"type": "Feature", "properties": {"CD_SETOR": "431990105000179", "CD_SIT": "1", "NM_DIST": "Sapiranga", "NM_SUBDIST": null}, "geometry": {"type": "Polygon", "coordinates": [[[-51.01151, -29.63642], [-51.01221, -29.63675], [-51.0129, -29.63756], [-51.01426, -29.63635], [-51.01279, -29.63502], [-51.01151, -29.63642]]]}}, 
{"type": "Feature", "properties": {"CD_SETOR": "431990105000180", "CD_SIT": "1", "NM_DIST": "Sapiranga", "NM_SUBDIST": null}, "geometry": {"type": "Polygon", "coordinates": [[[-51.00794, -29.6323], [-51.00716, -29.6329], [-51.00728, -29.63447], [-51.00818, -29.63479], [-51.01109, -29.63467], [-51.01112, -29.63375], [-51.01069, -29.63309], [-51.00912, -29.63146], [-51.00794, -29.6323]]]}}, 
{"type": "Feature", "properties": {"CD_SETOR": "431990105000181", "CD_SIT": "1", "NM_DIST": "Sapiranga", "NM_SUBDIST": null}, "geometry": {"type": "Polygon", "coordinates": [[[-51.00782, -29.63469], [-51.00713, -29.63573], [-51.00708, -29.63632], [-51.01151, -29.63642], [-51.01279, -29.63502], [-51.01213, -29.63471], [-51.00782, -29.63469]]]}}, 
{"type": "Feature", "properties": {"CD_SETOR": "431990105000182", "CD_SIT": "1", "NM_DIST": "Sapiranga", "NM_SUBDIST": null}, "geometry": {"type": "Polygon", "coordinates": [[[-51.00141, -29.6314], [-50.99972, -29.63278], [-51.00245, -29.6347], [-51.00303, -29.63349], [-51.00322, -29.63346], [-51.0016, -29.63128], [-51.00141, -29.6314]]]}}, 
{"type": "Feature", "properties": {"CD_SETOR": "431990105000183", "CD_SIT": "1", "NM_DIST": "Sapiranga", "NM_SUBDIST": null}, "geometry": {"type": "Polygon", "coordinates": [[[-51.0016, -29.63128], [-51.00322, -29.63346], [-51.00422, -29.63326], [-51.00728, -29.63447], [-51.00716, -29.6329], [-51.00794, -29.6323], [-51.00784, -29.63139], [-51.00709, -29.63139], [-51.00705, -29.63017], [-51.0048, -29.62999], [-51.00374, -29.63028], [-51.0016, -29.63128]]]}}, 
{"type": "Feature", "properties": {"CD_SETOR": "431990105000184", "CD_SIT": "1", "NM_DIST": "Sapiranga", "NM_SUBDIST": null}, "geometry": {"type": "Polygon", "coordinates": [[[-51.00075, -29.63544], [-51.00211, -29.63489], [-51.00245, -29.63471], [-51.00245, -29.63469], [-50.99972, -29.63278], [-51.00075, -29.63544]]]}}, 
{"type": "Feature", "properties": {"CD_SETOR": "431990105000185", "CD_SIT": "1", "NM_DIST": "Sapiranga", "NM_SUBDIST": null}, "geometry": {"type": "Polygon", "coordinates": [[[-51.00322, -29.63346], [-51.00303, -29.63349], [-51.00245, -29.63471], [-51.00075, -29.63544], [-51.00151, -29.63722], [-51.0025, -29.63683], [-51.00499, -29.63657], [-51.00864, -29.63665], [-51.00861, -29.63632], [-51.00708, -29.63632], [-51.00713, -29.63573], [-51.00782, -29.63469], [-51.00422, -29.63326], [-51.00322, -29.63346]]]}}, 
{"type": "Feature", "properties": {"CD_SETOR": "431990105000186", "CD_SIT": "1", "NM_DIST": "Sapiranga", "NM_SUBDIST": null}, "geometry": {"type": "Polygon", "coordinates": [[[-50.9933, -29.63691], [-50.99345, -29.63755], [-50.99263, -29.63763], [-50.99294, -29.63957], [-50.99248, -29.63994], [-50.99238, -29.64026], [-50.99256, -29.64189], [-50.99322, -29.64183], [-50.99333, -29.64284], [-50.99283, -29.64318], [-50.9924, -29.64312], [-50.99243, -29.64351], [-50.99284, -29.64363], [-50.9947, -29.64237], [-50.9952, -29.64177], [-50.996, -29.64152], [-50.9967, -29.64094], [-50.99721, -29.63817], [-50.99804, -29.63714], [-50.99694, -29.63583], [-50.99606, -29.63646], [-50.99532, -29.63735], [-50.99428, -29.63742], [-50.99409, -29.63642], [-50.9933, -29.63691]]]}}, 
{"type": "Feature", "properties": {"CD_SETOR": "431990105000187", "CD_SIT": "1", "NM_DIST": "Sapiranga", "NM_SUBDIST": null}, "geometry": {"type": "Polygon", "coordinates": [[[-50.99284, -29.64363], [-50.99744, -29.64473], [-51, -29.64486], [-51.00033, -29.64385], [-50.99941, -29.64346], [-50.99641, -29.64126], [-50.9952, -29.64177], [-50.9947, -29.64237], [-50.99284, -29.64363]]]}}, 
{"type": "Feature", "properties": {"CD_SETOR": "431990105000188", "CD_SIT": "1", "NM_DIST": "Sapiranga", "NM_SUBDIST": null}, "geometry": {"type": "Polygon", "coordinates": [[[-51.00056, -29.62111], [-51.0008, -29.62256], [-50.99902, -29.6227], [-50.99918, -29.62427], [-50.99843, -29.62433], [-50.99853, -29.62492], [-50.99957, -29.62484], [-51, -29.62991], [-50.99919, -29.63002], [-50.99923, -29.63047], [-51.00081, -29.63076], [-51.00141, -29.6314], [-51.0016, -29.63128], [-51.00132, -29.63063], [-51.00212, -29.62876], [-51.00305, -29.62888], [-51.00195, -29.62016], [-51.00046, -29.62014], [-51.00056, -29.62111]]]}}, 
{"type": "Feature", "properties": {"CD_SETOR": "431990105000189", "CD_SIT": "1", "NM_DIST": "Sapiranga", "NM_SUBDIST": null}, "geometry": {"type": "Polygon", "coordinates": [[[-51.00671, -29.61993], [-51.00195, -29.62016], [-51.00305, -29.62888], [-51.00636, -29.62856], [-51.006, -29.62601], [-51.00777, -29.6258], [-51.00691, -29.61992], [-51.00671, -29.61993]]]}}, 
{"type": "Feature", "properties": {"CD_SETOR": "431990105000190", "CD_SIT": "1", "NM_DIST": "Sapiranga", "NM_SUBDIST": null}, "geometry": {"type": "Polygon", "coordinates": [[[-50.98438, -29.6418], [-50.98781, -29.64259], [-50.98837, -29.64194], [-50.98779, -29.64156], [-50.98603, -29.63984], [-50.98516, -29.63986], [-50.98407, -29.63953], [-50.98438, -29.6418]]]}}, 
{"type": "Feature", "properties": {"CD_SETOR": "431990105000191", "CD_SIT": "1", "NM_DIST": "Sapiranga", "NM_SUBDIST": null}, "geometry": {"type": "Polygon", "coordinates": [[[-50.98725, -29.63669], [-50.98698, -29.63674], [-50.98727, -29.63893], [-50.98543, -29.63913], [-50.98718, -29.641], [-50.98837, -29.64194], [-50.98868, -29.64142], [-50.98802, -29.63659], [-50.98725, -29.63669]]]}}, 
{"type": "Feature", "properties": {"CD_SETOR": "431990105000192", "CD_SIT": "1", "NM_DIST": "Sapiranga", "NM_SUBDIST": null}, "geometry": {"type": "Polygon", "coordinates": [[[-50.98543, -29.63913], [-50.98727, -29.63893], [-50.98698, -29.63674], [-50.9859, -29.63677], [-50.9852, -29.63644], [-50.98543, -29.63913]]]}}, 
{"type": "Feature", "properties": {"CD_SETOR": "431990105000193", "CD_SIT": "1", "NM_DIST": "Sapiranga", "NM_SUBDIST": null}, "geometry": {"type": "Polygon", "coordinates": [[[-50.98108, -29.63605], [-50.98112, -29.63693], [-50.98086, -29.63743], [-50.98135, -29.64116], [-50.98438, -29.6418], [-50.98407, -29.63953], [-50.98516, -29.63986], [-50.98603, -29.63984], [-50.98543, -29.63913], [-50.9852, -29.63644], [-50.98433, -29.63592], [-50.98303, -29.63562], [-50.98231, -29.63558], [-50.98108, -29.63605]]]}}, 
{"type": "Feature", "properties": {"CD_SETOR": "431990105000194", "CD_SIT": "1", "NM_DIST": "Sapiranga", "NM_SUBDIST": null}, "geometry": {"type": "Polygon", "coordinates": [[[-50.98531, -29.6365], [-50.9859, -29.63677], [-50.98725, -29.63669], [-50.98699, -29.63438], [-50.98433, -29.63306], [-50.9842, -29.63323], [-50.98437, -29.6345], [-50.98519, -29.63534], [-50.98531, -29.6365]]]}}, 
{"type": "Feature", "properties": {"CD_SETOR": "431990105000195", "CD_SIT": "1", "NM_DIST": "Sapiranga", "NM_SUBDIST": null}, "geometry": {"type": "Polygon", "coordinates": [[[-50.97954, -29.63015], [-50.98037, -29.6363], [-50.98231, -29.63558], [-50.9837, -29.6357], [-50.98531, -29.6365], [-50.98519, -29.63534], [-50.98437, -29.6345], [-50.9842, -29.63323], [-50.98433, -29.63306], [-50.98205, -29.6317], [-50.98048, -29.6295], [-50.97938, -29.62887], [-50.97954, -29.63015]]]}}, 
{"type": "Feature", "properties": {"CD_SETOR": "431990105000196", "CD_SIT": "2", "NM_DIST": "Sapiranga", "NM_SUBDIST": null}, "geometry": {"type": "Polygon", "coordinates": [[[-50.95564, -29.63712], [-50.95767, -29.63723], [-50.96181, -29.63777], [-50.96159, -29.63579], [-50.96181, -29.63532], [-50.96167, -29.63476], [-50.96209, -29.63403], [-50.9604, -29.63409], [-50.95854, -29.63333], [-50.95772, -29.63161], [-50.95711, -29.63083], [-50.95644, -29.63038], [-50.95648, -29.63076], [-50.95748, -29.63214], [-50.95806, -29.63362], [-50.95728, -29.63404], [-50.95564, -29.63712]]]}}, 
{"type": "Feature", "properties": {"CD_SETOR": "431990105000197", "CD_SIT": "1", "NM_DIST": "Sapiranga", "NM_SUBDIST": null}, "geometry": {"type": "Polygon", "coordinates": [[[-50.96695, -29.63393], [-50.9637, -29.63447], [-50.96209, -29.63403], [-50.96167, -29.63476], [-50.96181, -29.63532], [-50.96159, -29.63579], [-50.96181, -29.63777], [-50.97133, -29.63911], [-50.97914, -29.64067], [-50.97885, -29.63881], [-50.97845, -29.63923], [-50.97716, -29.63837], [-50.97756, -29.63789], [-50.97771, -29.63727], [-50.97846, -29.63723], [-50.9784, -29.63647], [-50.97464, -29.63545], [-50.97351, -29.63463], [-50.97001, -29.634], [-50.96759, -29.63381], [-50.96695, -29.63393]]]}}, 
{"type": "Feature", "properties": {"CD_SETOR": "431990105000198", "CD_SIT": "1", "NM_DIST": "Sapiranga", "NM_SUBDIST": null}, "geometry": {"type": "Polygon", "coordinates": [[[-50.96695, -29.63393], [-50.96759, -29.63381], [-50.96973, -29.63399], [-50.96917, -29.62733], [-50.96599, -29.627], [-50.96695, -29.63393]]]}}, 
{"type": "Feature", "properties": {"CD_SETOR": "431990105000199", "CD_SIT": "1", "NM_DIST": "Sapiranga", "NM_SUBDIST": null}, "geometry": {"type": "Polygon", "coordinates": [[[-50.97015, -29.62745], [-50.96917, -29.62733], [-50.96973, -29.63399], [-50.97351, -29.63463], [-50.97464, -29.63545], [-50.97549, -29.63566], [-50.97524, -29.63376], [-50.97443, -29.63381], [-50.97415, -29.6318], [-50.97307, -29.63159], [-50.97292, -29.6308], [-50.97213, -29.631], [-50.97191, -29.62994], [-50.97272, -29.62976], [-50.97241, -29.62835], [-50.97326, -29.62814], [-50.97313, -29.62737], [-50.97253, -29.6275], [-50.97241, -29.62724], [-50.97139, -29.62749], [-50.97015, -29.62745]]]}}, 
{"type": "Feature", "properties": {"CD_SETOR": "431990105000200", "CD_SIT": "1", "NM_DIST": "Sapiranga", "NM_SUBDIST": null}, "geometry": {"type": "Polygon", "coordinates": [[[-50.97994, -29.67234], [-50.98274, -29.67646], [-50.98349, -29.67605], [-50.98055, -29.67191], [-50.97994, -29.67234]]]}}, 
{"type": "Feature", "properties": {"CD_SETOR": "431990105000201", "CD_SIT": "8", "NM_DIST": "Sapiranga", "NM_SUBDIST": null}, "geometry": {"type": "Polygon", "coordinates": [[[-50.98055, -29.67191], [-50.98349, -29.67605], [-50.98274, -29.67646], [-50.97994, -29.67234], [-50.97819, -29.67348], [-50.97611, -29.67411], [-50.97219, -29.6761], [-50.97057, -29.67769], [-50.9672, -29.67859], [-50.96369, -29.67846], [-50.96282, -29.67859], [-50.96023, -29.67963], [-50.95298, -29.68192], [-50.95245, -29.68217], [-50.9508, -29.6837], [-50.9446, -29.69009], [-50.94157, -29.69118], [-50.94382, -29.69343], [-50.9465, -29.69327], [-50.9469, -29.69311], [-50.9472, -29.69053], [-50.94749, -29.69016], [-50.94966, -29.68913], [-50.95268, -29.68856], [-50.95365, -29.68795], [-50.95433, -29.68779], [-50.95664, -29.68819], [-50.95815, -29.6889], [-50.95839, -29.68921], [-50.95767, -29.69134], [-50.95759, -29.69204], [-50.95778, -29.69344], [-50.95817, -29.69379], [-50.95968, -29.69455], [-50.96063, -29.69578], [-50.96132, -29.69729], [-50.96212, -29.70075], [-50.96258, -29.70203], [-50.96287, -29.70243], [-50.96337, -29.70271], [-50.96389, -29.70279], [-50.96483, -29.70254], [-50.96568, -29.70146], [-50.96604, -29.70029], [-50.9661, -29.69947], [-50.9669, -29.69792], [-50.96805, -29.69705], [-50.96963, -29.69684], [-50.97014, -29.69695], [-50.9704, -29.69726], [-50.97049, -29.69774], [-50.97134, -29.69883], [-50.97277, -29.70028], [-50.97381, -29.70103], [-50.97627, -29.70182], [-50.97841, -29.70285], [-50.98003, -29.70242], [-50.98104, -29.70239], [-50.98454, -29.70406], [-50.98436, -29.70341], [-50.98279, -29.70162], [-50.98258, -29.70081], [-50.9812, -29.68798], [-50.98122, -29.68681], [-50.98136, -29.68611], [-50.98198, -29.68485], [-50.98309, -29.68385], [-50.98575, -29.68206], [-50.98705, -29.68058], [-50.98774, -29.67834], [-50.9878, -29.6769], [-50.98752, -29.67589], [-50.98691, -29.67485], [-50.98542, -29.67131], [-50.98507, -29.67084], [-50.98509, -29.6698], [-50.9848, -29.66931], [-50.98334, -29.66923], [-50.98296, -29.66937], [-50.98224, -29.67003], [-50.9811, -29.67152], [-50.98055, -29.67191]]]}}, 
{"type": "Feature", "properties": {"CD_SETOR": "431990105000202", "CD_SIT": "2", "NM_DIST": "Sapiranga", "NM_SUBDIST": null}, "geometry": {"type": "Polygon", "coordinates": [[[-50.97497, -29.65377], [-50.96628, -29.65475], [-50.96651, -29.65559], [-50.96727, -29.65716], [-50.96768, -29.65863], [-50.96848, -29.65947], [-50.96839, -29.6599], [-50.9685, -29.66035], [-50.96904, -29.66047], [-50.96961, -29.66029], [-50.97056, -29.66097], [-50.97073, -29.66125], [-50.97144, -29.66148], [-50.97136, -29.66221], [-50.97199, -29.66241], [-50.97157, -29.66372], [-50.97225, -29.66377], [-50.9723, -29.66409], [-50.97282, -29.6645], [-50.97256, -29.66469], [-50.97265, -29.66481], [-50.97296, -29.66483], [-50.973, -29.66501], [-50.97313, -29.66493], [-50.97316, -29.66547], [-50.97343, -29.66565], [-50.97361, -29.66689], [-50.97418, -29.66696], [-50.97397, -29.66741], [-50.97433, -29.66754], [-50.97434, -29.66786], [-50.97521, -29.66825], [-50.97539, -29.66925], [-50.97597, -29.66989], [-50.97547, -29.67014], [-50.97819, -29.67348], [-50.9811, -29.67152], [-50.98224, -29.67003], [-50.98296, -29.66937], [-50.98334, -29.66923], [-50.9848, -29.66931], [-50.98494, -29.66904], [-50.98454, -29.668], [-50.98476, -29.66773], [-50.98515, -29.66653], [-50.98862, -29.66346], [-50.98936, -29.66231], [-50.98962, -29.66081], [-50.98902, -29.65858], [-50.9892, -29.65728], [-50.98944, -29.65683], [-50.9813, -29.65747], [-50.98219, -29.66271], [-50.98079, -29.66281], [-50.98122, -29.66566], [-50.98007, -29.66577], [-50.978, -29.6535], [-50.97497, -29.65377]]]}}, 
{"type": "Feature", "properties": {"CD_SETOR": "431990105000203", "CD_SIT": "2", "NM_DIST": "Sapiranga", "NM_SUBDIST": null}, "geometry": {"type": "Polygon", "coordinates": [[[-51.01062, -29.6178], [-51.01091, -29.61976], [-51.01697, -29.61953], [-51.02805, -29.61837], [-51.03044, -29.61684], [-51.03088, -29.61608], [-51.0169, -29.61744], [-51.01062, -29.6178]]]}}, 
{"type": "Feature", "properties": {"CD_SETOR": "431990105000204", "CD_SIT": "2", "NM_DIST": "Sapiranga", "NM_SUBDIST": null}, "geometry": {"type": "Polygon", "coordinates": [[[-50.99856, -29.60815], [-51.0003, -29.62013], [-51.0015, -29.62018], [-51.00069, -29.61446], [-51.002, -29.61429], [-51.00284, -29.62013], [-51.00671, -29.61993], [-51.00463, -29.60589], [-51.00129, -29.60718], [-50.99986, -29.60737], [-50.99856, -29.60815]]]}}, 
{"type": "Feature", "properties": {"CD_SETOR": "431990105000205", "CD_SIT": "2", "NM_DIST": "Sapiranga", "NM_SUBDIST": null}, "geometry": {"type": "Polygon", "coordinates": [[[-50.98871, -29.61542], [-50.98945, -29.62076], [-50.99667, -29.62032], [-50.99586, -29.6147], [-50.98871, -29.61542]]]}}, 
{"type": "Feature", "properties": {"CD_SETOR": "431990105000206", "CD_SIT": "1", "NM_DIST": "Sapiranga", "NM_SUBDIST": null}, "geometry": {"type": "Polygon", "coordinates": [[[-50.99809, -29.62142], [-50.99823, -29.62278], [-51.0008, -29.62256], [-51.00056, -29.62111], [-50.99809, -29.62142]]]}}, 
{"type": "Feature", "properties": {"CD_SETOR": "431990105000207", "CD_SIT": "1", "NM_DIST": "Sapiranga", "NM_SUBDIST": null}, "geometry": {"type": "Polygon", "coordinates": [[[-50.99823, -29.62278], [-50.99843, -29.62433], [-50.99918, -29.62427], [-50.99902, -29.6227], [-50.99823, -29.62278]]]}}, 
{"type": "Feature", "properties": {"CD_SETOR": "431990105000208", "CD_SIT": "1", "NM_DIST": "Sapiranga", "NM_SUBDIST": null}, "geometry": {"type": "Polygon", "coordinates": [[[-50.96067, -29.62501], [-50.9611, -29.62815], [-50.96244, -29.62802], [-50.96223, -29.62609], [-50.96135, -29.62619], [-50.9612, -29.62492], [-50.96067, -29.62501]]]}}, 
{"type": "Feature", "properties": {"CD_SETOR": "431990105000209", "CD_SIT": "1", "NM_DIST": "Sapiranga", "NM_SUBDIST": null}, "geometry": {"type": "Polygon", "coordinates": [[[-50.9612, -29.62492], [-50.96135, -29.62619], [-50.96223, -29.62609], [-50.96244, -29.62802], [-50.96329, -29.62796], [-50.96304, -29.6252], [-50.96217, -29.62487], [-50.9612, -29.62492]]]}}, 
{"type": "Feature", "properties": {"CD_SETOR": "431990105000210", "CD_SIT": "2", "NM_DIST": "Sapiranga", "NM_SUBDIST": null}, "geometry": {"type": "Polygon", "coordinates": [[[-50.96288, -29.62798], [-50.96244, -29.62802], [-50.96252, -29.62878], [-50.9612, -29.62888], [-50.96165, -29.63236], [-50.95979, -29.63226], [-50.96002, -29.63395], [-50.96077, -29.63411], [-50.9621, -29.63403], [-50.9637, -29.63447], [-50.96695, -29.63393], [-50.96599, -29.627], [-50.96517, -29.62658], [-50.96546, -29.62854], [-50.96295, -29.62875], [-50.96288, -29.62798]]]}}, 
{"type": "Feature", "properties": {"CD_SETOR": "431990105000211", "CD_SIT": "1", "NM_DIST": "Sapiranga", "NM_SUBDIST": null}, "geometry": {"type": "Polygon", "coordinates": [[[-50.9611, -29.62815], [-50.9612, -29.62888], [-50.96252, -29.62878], [-50.96244, -29.62802], [-50.9611, -29.62815]]]}}, 
{"type": "Feature", "properties": {"CD_SETOR": "431990105000212", "CD_SIT": "1", "NM_DIST": "Sapiranga", "NM_SUBDIST": null}, "geometry": {"type": "Polygon", "coordinates": [[[-50.99856, -29.65389], [-50.99851, -29.65441], [-51.00046, -29.65335], [-50.9999, -29.65314], [-50.99985, -29.65331], [-50.99856, -29.65389]]]}}, 
{"type": "Feature", "properties": {"CD_SETOR": "431990105000213", "CD_SIT": "1", "NM_DIST": "Sapiranga", "NM_SUBDIST": null}, "geometry": {"type": "Polygon", "coordinates": [[[-51.00046, -29.65335], [-50.99955, -29.65387], [-50.99995, -29.65453], [-51.00086, -29.65447], [-51.00174, -29.65504], [-51.00276, -29.65491], [-51.0027, -29.65327], [-51.00131, -29.65311], [-51.00046, -29.65335]]]}}, 
{"type": "Feature", "properties": {"CD_SETOR": "431990105000214", "CD_SIT": "1", "NM_DIST": "Sapiranga", "NM_SUBDIST": null}, "geometry": {"type": "Polygon", "coordinates": [[[-51.00077, -29.65108], [-50.99793, -29.65134], [-50.99765, -29.65481], [-50.99851, -29.65441], [-50.99865, -29.65351], [-50.99961, -29.65301], [-51.00046, -29.65335], [-51.00303, -29.65262], [-51.00365, -29.65207], [-51.00396, -29.65122], [-51.00394, -29.65077], [-51.00077, -29.65108]]]}}, 
{"type": "Feature", "properties": {"CD_SETOR": "431990105000215", "CD_SIT": "1", "NM_DIST": "Sapiranga", "NM_SUBDIST": null}, "geometry": {"type": "Polygon", "coordinates": [[[-50.99856, -29.65389], [-50.99985, -29.65331], [-50.9999, -29.65314], [-50.99961, -29.65301], [-50.99909, -29.65324], [-50.99865, -29.65351], [-50.99856, -29.65389]]]}}, 
{"type": "Feature", "properties": {"CD_SETOR": "431990105000216", "CD_SIT": "1", "NM_DIST": "Sapiranga", "NM_SUBDIST": null}, "geometry": {"type": "Polygon", "coordinates": [[[-51.00376, -29.65834], [-50.99625, -29.65906], [-50.99479, -29.65917], [-50.99532, -29.66054], [-51.00562, -29.65962], [-51.00546, -29.65818], [-51.00376, -29.65834]]]}}, 
{"type": "Feature", "properties": {"CD_SETOR": "431990105000217", "CD_SIT": "1", "NM_DIST": "Sapiranga", "NM_SUBDIST": null}, "geometry": {"type": "Polygon", "coordinates": [[[-51.00598, -29.65813], [-51.00546, -29.65818], [-51.00558, -29.65922], [-51.00707, -29.65906], [-51.00693, -29.65806], [-51.00598, -29.65813]]]}}, 
{"type": "Feature", "properties": {"CD_SETOR": "431990105000218", "CD_SIT": "1", "NM_DIST": "Sapiranga", "NM_SUBDIST": null}, "geometry": {"type": "Polygon", "coordinates": [[[-51.00693, -29.65806], [-51.00707, -29.65906], [-51.00558, -29.65922], [-51.00562, -29.65962], [-51.00791, -29.65945], [-51.00775, -29.65798], [-51.00693, -29.65806]]]}}, 
{"type": "Feature", "properties": {"CD_SETOR": "431990105000219", "CD_SIT": "1", "NM_DIST": "Sapiranga", "NM_SUBDIST": null}, "geometry": {"type": "Polygon", "coordinates": [[[-51.0058, -29.65689], [-51.00598, -29.65813], [-51.00775, -29.65798], [-51.00791, -29.65945], [-51.00869, -29.65938], [-51.0085, -29.65788], [-51.00802, -29.65793], [-51.00797, -29.65753], [-51.00678, -29.65766], [-51.00663, -29.65596], [-51.00619, -29.65602], [-51.00623, -29.65684], [-51.0058, -29.65689]]]}}, 
{"type": "Feature", "properties": {"CD_SETOR": "431990105000220", "CD_SIT": "1", "NM_DIST": "Sapiranga", "NM_SUBDIST": null}, "geometry": {"type": "Polygon", "coordinates": [[[-51.02152, -29.63951], [-51.02268, -29.63936], [-51.02376, -29.63944], [-51.02559, -29.63869], [-51.02525, -29.63547], [-51.02301, -29.63566], [-51.0228, -29.63406], [-51.02108, -29.63423], [-51.0214, -29.63481], [-51.02192, -29.6374], [-51.02124, -29.63749], [-51.02152, -29.63951]]]}}, 
{"type": "Feature", "properties": {"CD_SETOR": "431990105000221", "CD_SIT": "1", "NM_DIST": "Sapiranga", "NM_SUBDIST": null}, "geometry": {"type": "Polygon", "coordinates": [[[-51.02108, -29.63423], [-51.02036, -29.63324], [-51.01911, -29.63358], [-51.01998, -29.63972], [-51.02152, -29.63951], [-51.02124, -29.63749], [-51.02192, -29.6374], [-51.0214, -29.63481], [-51.02108, -29.63423]]]}}, 
{"type": "Feature", "properties": {"CD_SETOR": "431990125000011", "CD_SIT": "8", "NM_DIST": "Picada São Jacob", "NM_SUBDIST": null}, "geometry": {"type": "Polygon", "coordinates": [[[-50.94775, -29.55336], [-50.94713, -29.55324], [-50.94719, -29.55298], [-50.94694, -29.5526], [-50.94584, -29.55313], [-50.94627, -29.5539], [-50.94632, -29.5546], [-50.94463, -29.55735], [-50.94499, -29.55988], [-50.945, -29.56166], [-50.94629, -29.5618], [-50.94541, -29.56436], [-50.94549, -29.56511], [-50.94535, -29.56579], [-50.94569, -29.56763], [-50.94596, -29.56824], [-50.94761, -29.56986], [-50.94804, -29.57059], [-50.94823, -29.57137], [-50.94778, -29.57289], [-50.94785, -29.57359], [-50.94765, -29.57469], [-50.96482, -29.57357], [-50.96782, -29.57401], [-50.97309, -29.57599], [-50.97595, -29.5762], [-50.97714, -29.57552], [-50.97812, -29.57524], [-50.98177, -29.57522], [-50.98217, -29.57501], [-50.98153, -29.57458], [-50.98152, -29.57382], [-50.98178, -29.57361], [-50.98468, -29.57347], [-50.98538, -29.57363], [-50.98752, -29.57487], [-50.98893, -29.57533], [-50.99147, -29.57506], [-50.99553, -29.57501], [-51.00575, -29.57345], [-51.0075, -29.57341], [-51.00959, -29.57322], [-51.0098, -29.57309], [-51.01185, -29.57322], [-51.01261, -29.57318], [-51.01314, -29.57296], [-51.01334, -29.57308], [-51.01344, -29.57254], [-51.01398, -29.57227], [-51.01414, -29.57196], [-51.01406, -29.57054], [-51.0135, -29.56918], [-51.01151, -29.56829], [-51.01127, -29.56773], [-51.01183, -29.5664], [-51.01315, -29.56477], [-51.01328, -29.56426], [-51.01293, -29.56253], [-51.01196, -29.56162], [-51.01164, -29.55833], [-51.01164, -29.55655], [-51.01187, -29.55594], [-51.01187, -29.55527], [-51.0112, -29.55377], [-51.01034, -29.55261], [-51.01058, -29.55234], [-51.01054, -29.55182], [-51.01083, -29.55145], [-51.01098, -29.5509], [-51.01083, -29.54865], [-51.0106, -29.54802], [-51.01072, -29.5468], [-51.00962, -29.54548], [-51.00909, -29.54443], [-51.00722, -29.54373], [-51.00653, -29.54393], [-51.00622, -29.5436], [-51.00559, -29.54403], [-51.00505, -29.5442], [-51.00446, -29.54344], [-51.00419, -29.54251], [-51.00364, -29.54196], [-51.00324, -29.54178], [-51.00236, -29.54168], [-51.00088, -29.54215], [-50.99922, -29.54385], [-50.99875, -29.5439], [-50.99712, -29.54363], [-50.99537, -29.5445], [-50.99485, -29.5444], [-50.99425, -29.54362], [-50.99396, -29.54294], [-50.99316, -29.54271], [-50.99256, -29.54296], [-50.99191, -29.54363], [-50.99145, -29.54367], [-50.98977, -29.54543], [-50.98908, -29.54571], [-50.98851, -29.54623], [-50.98752, -29.54664], [-50.98684, -29.54715], [-50.9853, -29.54733], [-50.98488, -29.54764], [-50.98463, -29.54738], [-50.98409, -29.54719], [-50.9838, -29.54626], [-50.98309, -29.54578], [-50.98226, -29.54572], [-50.98193, -29.54541], [-50.98152, -29.54547], [-50.98128, -29.546], [-50.98039, -29.54647], [-50.97982, -29.54642], [-50.97956, -29.54619], [-50.97852, -29.54638], [-50.97761, -29.54623], [-50.97655, -29.54583], [-50.97601, -29.54581], [-50.97542, -29.546], [-50.9752, -29.54591], [-50.97336, -29.54682], [-50.9717, -29.54646], [-50.96944, -29.54517], [-50.96807, -29.54498], [-50.96785, -29.54528], [-50.96675, -29.54581], [-50.96581, -29.54665], [-50.96403, -29.54788], [-50.96205, -29.5489], [-50.96211, -29.55011], [-50.96236, -29.55043], [-50.96223, -29.55058], [-50.96072, -29.5506], [-50.95948, -29.55024], [-50.95854, -29.55055], [-50.95755, -29.5515], [-50.95659, -29.55136], [-50.95606, -29.55179], [-50.95547, -29.55193], [-50.9552, -29.55215], [-50.95351, -29.55256], [-50.95293, -29.55312], [-50.95245, -29.55414], [-50.95173, -29.55432], [-50.95101, -29.55429], [-50.95082, -29.5541], [-50.95082, -29.55354], [-50.95054, -29.55347], [-50.94887, -29.55408], [-50.94855, -29.55401], [-50.94844, -29.55379], [-50.94775, -29.55336]]]}}, 
{"type": "Feature", "properties": {"CD_SETOR": "431990125000012", "CD_SIT": "8", "NM_DIST": "Picada São Jacob", "NM_SUBDIST": null}, "geometry": {"type": "Polygon", "coordinates": [[[-50.94816, -29.58144], [-50.94808, -29.58169], [-50.94745, -29.58217], [-50.9473, -29.5826], [-50.94776, -29.58567], [-50.94795, -29.58587], [-50.94818, -29.58715], [-50.94943, -29.58768], [-50.95175, -29.58833], [-50.95214, -29.58862], [-50.95367, -29.58901], [-50.95398, -29.59097], [-50.95487, -29.59098], [-50.95563, -29.59125], [-50.9577, -29.59137], [-50.95811, -29.59233], [-50.95805, -29.59276], [-50.9583, -29.59387], [-50.95869, -29.59417], [-50.95976, -29.59398], [-50.96142, -29.59395], [-50.96344, -29.59331], [-50.96401, -29.5934], [-50.96488, -29.59381], [-50.96699, -29.59393], [-50.96792, -29.59344], [-50.96884, -29.59351], [-50.97046, -29.59335], [-50.97243, -29.59362], [-50.97384, -29.59416], [-50.97436, -29.59407], [-50.97476, -29.59375], [-50.97575, -29.59388], [-50.97654, -29.59369], [-50.97852, -29.59377], [-50.98317, -29.59345], [-50.98535, -29.59314], [-50.98799, -29.59316], [-50.98866, -29.59275], [-50.99377, -29.59225], [-50.99349, -29.5907], [-50.99451, -29.58951], [-50.99487, -29.58879], [-50.99475, -29.58815], [-50.99452, -29.58802], [-50.9936, -29.5886], [-50.99175, -29.58888], [-50.99138, -29.58909], [-50.99054, -29.58908], [-50.98985, -29.58881], [-50.99096, -29.58785], [-50.99114, -29.58729], [-50.99046, -29.58588], [-50.98924, -29.58535], [-50.98895, -29.58506], [-50.9899, -29.58383], [-50.99032, -29.58292], [-50.991, -29.58271], [-50.99088, -29.58245], [-50.9884, -29.58138], [-50.98751, -29.58117], [-50.98639, -29.58124], [-50.98412, -29.5809], [-50.9818, -29.58116], [-50.98288, -29.57844], [-50.98273, -29.57779], [-50.9831, -29.57614], [-50.98263, -29.57576], [-50.98232, -29.57504], [-50.9814, -29.5753], [-50.97812, -29.57524], [-50.97714, -29.57552], [-50.97595, -29.5762], [-50.97441, -29.57613], [-50.97283, -29.57592], [-50.96782, -29.57401], [-50.96482, -29.57357], [-50.94765, -29.57469], [-50.94756, -29.57519], [-50.94779, -29.57603], [-50.9476, -29.57755], [-50.94778, -29.57862], [-50.94773, -29.57951], [-50.94816, -29.58144]]]}}, 
{"type": "Feature", "properties": {"CD_SETOR": "431990125000013", "CD_SIT": "8", "NM_DIST": "Picada São Jacob", "NM_SUBDIST": null}, "geometry": {"type": "Polygon", "coordinates": [[[-50.98217, -29.57501], [-50.98232, -29.57504], [-50.98263, -29.57576], [-50.9831, -29.57614], [-50.98273, -29.57779], [-50.98288, -29.57844], [-50.9818, -29.58116], [-50.98412, -29.5809], [-50.98639, -29.58124], [-50.98751, -29.58117], [-50.9884, -29.58138], [-50.99088, -29.58245], [-50.991, -29.58271], [-50.99032, -29.58292], [-50.9899, -29.58383], [-50.98895, -29.58506], [-50.98924, -29.58535], [-50.99046, -29.58588], [-50.99114, -29.58729], [-50.99096, -29.58785], [-50.98985, -29.58881], [-50.99054, -29.58908], [-50.99138, -29.58909], [-50.99175, -29.58888], [-50.9936, -29.5886], [-50.99465, -29.58806], [-50.99484, -29.58854], [-50.99479, -29.58904], [-50.99349, -29.5907], [-50.9938, -29.59229], [-51.00346, -29.5912], [-51.00447, -29.59117], [-51.00494, -29.59156], [-51.00523, -29.59148], [-51.00558, -29.59099], [-51.00602, -29.59089], [-51.00737, -29.59103], [-51.00804, -29.59131], [-51.00904, -29.59063], [-51.01374, -29.59003], [-51.02267, -29.5894], [-51.02294, -29.58935], [-51.02338, -29.5888], [-51.02437, -29.58924], [-51.02607, -29.58904], [-51.02606, -29.58532], [-51.02472, -29.58505], [-51.02173, -29.58504], [-51.02027, -29.58466], [-51.01783, -29.58433], [-51.01741, -29.58414], [-51.01704, -29.58301], [-51.01542, -29.58192], [-51.01498, -29.58141], [-51.01485, -29.58076], [-51.0152, -29.5803], [-51.0167, -29.58068], [-51.01694, -29.58065], [-51.01705, -29.58031], [-51.01586, -29.57877], [-51.01425, -29.57791], [-51.01409, -29.57748], [-51.01456, -29.57555], [-51.01392, -29.5749], [-51.01342, -29.57381], [-51.01334, -29.57308], [-51.01314, -29.57296], [-51.01261, -29.57318], [-51.0098, -29.57309], [-51.00959, -29.57322], [-51.00442, -29.5736], [-50.99553, -29.57501], [-50.99147, -29.57506], [-50.98923, -29.57533], [-50.98752, -29.57487], [-50.98538, -29.57363], [-50.98468, -29.57347], [-50.98178, -29.57361], [-50.98152, -29.57382], [-50.98153, -29.57458], [-50.98217, -29.57501]]]}}, 
{"type": "Feature", "properties": {"CD_SETOR": "431990125000014", "CD_SIT": "8", "NM_DIST": "Picada São Jacob", "NM_SUBDIST": null}, "geometry": {"type": "Polygon", "coordinates": [[[-51.00622, -29.5436], [-51.00653, -29.54393], [-51.00722, -29.54373], [-51.00909, -29.54443], [-51.00962, -29.54548], [-51.01072, -29.5468], [-51.0106, -29.54802], [-51.01083, -29.54865], [-51.01098, -29.5509], [-51.01083, -29.55145], [-51.01054, -29.55182], [-51.01058, -29.55234], [-51.01034, -29.55261], [-51.0112, -29.55377], [-51.01187, -29.55527], [-51.01187, -29.55594], [-51.01164, -29.55655], [-51.01164, -29.55833], [-51.01196, -29.56162], [-51.01293, -29.56253], [-51.01328, -29.56426], [-51.01315, -29.56477], [-51.01183, -29.5664], [-51.01127, -29.56773], [-51.01151, -29.56829], [-51.0135, -29.56918], [-51.01406, -29.57054], [-51.01414, -29.57196], [-51.01398, -29.57227], [-51.01344, -29.57254], [-51.01334, -29.57308], [-51.01342, -29.57381], [-51.01392, -29.5749], [-51.01456, -29.57555], [-51.01409, -29.57748], [-51.01425, -29.57791], [-51.01586, -29.57877], [-51.01705, -29.58031], [-51.01694, -29.58065], [-51.0167, -29.58068], [-51.0152, -29.5803], [-51.01497, -29.58051], [-51.01488, -29.58111], [-51.01542, -29.58192], [-51.01704, -29.58301], [-51.01741, -29.58414], [-51.01783, -29.58433], [-51.02027, -29.58466], [-51.02173, -29.58504], [-51.02472, -29.58505], [-51.02606, -29.58532], [-51.02607, -29.58904], [-51.03882, -29.58772], [-51.03972, -29.58774], [-51.04094, -29.59502], [-51.04225, -29.5959], [-51.04305, -29.59613], [-51.04384, -29.59599], [-51.04418, -29.5967], [-51.04528, -29.59715], [-51.04556, -29.59806], [-51.04692, -29.59848], [-51.04948, -29.5998], [-51.05246, -29.59961], [-51.05452, -29.59917], [-51.04886, -29.56171], [-51.04647, -29.56205], [-51.04378, -29.54491], [-51.01402, -29.54802], [-51.01376, -29.54713], [-51.01137, -29.54664], [-51.01077, -29.54613], [-51.01074, -29.54592], [-51.01159, -29.54533], [-51.01177, -29.54501], [-51.0117, -29.54454], [-51.00868, -29.54299], [-51.00699, -29.54321], [-51.00622, -29.5436]]]}}]}