{"type": "FeatureCollection", "features": [
{"type": "Feature", "properties": {"CD_SETOR": "432290505000001", "CD_SIT": "1", "NM_DIST": "Viadutos", "NM_SUBDIST": null}, "geometry": {"type": "Polygon", "coordinates": [[[-52.0216, -27.56498], [-52.0226, -27.56521], [-52.02276, -27.56582], [-52.02271, -27.56627], [-52.02219, -27.56687], [-52.0219, -27.56768], [-52.02197, -27.56821], [-52.02264, -27.56976], [-52.02274, -27.57061], [-52.02089, -27.57094], [-52.02167, -27.5744], [-52.02217, -27.57426], [-52.0226, -27.57392], [-52.02542, -27.57571], [-52.02638, -27.57756], [-52.02854, -27.57606], [-52.0303, -27.57433], [-52.029, -27.57311], [-52.02938, -27.57272], [-52.0278, -27.57129], [-52.02746, -27.57191], [-52.02738, -27.573], [-52.02709, -27.57324], [-52.02686, -27.57247], [-52.02683, -27.57117], [-52.02745, -27.56974], [-52.02727, -27.56923], [-52.02696, -27.56913], [-52.02676, -27.5688], [-52.0264, -27.56799], [-52.0264, -27.56749], [-52.02684, -27.56618], [-52.02679, -27.56563], [-52.02744, -27.56504], [-52.02754, -27.56451], [-52.0274, -27.56412], [-52.02781, -27.5638], [-52.02791, -27.56259], [-52.02778, -27.56115], [-52.02665, -27.56183], [-52.02645, -27.56255], [-52.02647, -27.56365], [-52.02633, -27.56425], [-52.02623, -27.56375], [-52.02568, -27.56328], [-52.02385, -27.56289], [-52.02135, -27.56306], [-52.02115, -27.56311], [-52.02138, -27.56477], [-52.0216, -27.56498]]]}}, 
{"type": "Feature", "properties": {"CD_SETOR": "432290505000002", "CD_SIT": "1", "NM_DIST": "Viadutos", "NM_SUBDIST": null}, "geometry": {"type": "Polygon", "coordinates": [[[-52.01542, -27.5716], [-52.01752, -27.5713], [-52.01776, -27.57197], [-52.01919, -27.5713], [-52.02274, -27.57061], [-52.02255, -27.56943], [-52.0219, -27.56794], [-52.02206, -27.56709], [-52.02271, -27.56627], [-52.02276, -27.56582], [-52.0226, -27.56521], [-52.0216, -27.56498], [-52.0212, -27.5651], [-52.01965, -27.56718], [-52.01924, -27.56742], [-52.01832, -27.56733], [-52.01796, -27.56697], [-52.01787, -27.56647], [-52.01803, -27.56536], [-52.01724, -27.56421], [-52.01737, -27.56308], [-52.01726, -27.56179], [-52.0174, -27.56115], [-52.01704, -27.56044], [-52.01656, -27.56017], [-52.0154, -27.56035], [-52.01362, -27.56296], [-52.0119, -27.56376], [-52.01167, -27.56408], [-52.01161, -27.56463], [-52.01216, -27.5652], [-52.01358, -27.56538], [-52.01424, -27.56591], [-52.01442, -27.56723], [-52.01338, -27.56887], [-52.01332, -27.57067], [-52.01404, -27.57193], [-52.01406, -27.57228], [-52.01538, -27.57144], [-52.01542, -27.5716]]]}}, 
{"type": "Feature", "properties": {"CD_SETOR": "432290505000003", "CD_SIT": "1", "NM_DIST": "Viadutos", "NM_SUBDIST": null}, "geometry": {"type": "Polygon", "coordinates": [[[-52.01542, -27.5716], [-52.01589, -27.57275], [-52.01532, -27.573], [-52.01425, -27.57309], [-52.01487, -27.5767], [-52.01448, -27.57761], [-52.01456, -27.57833], [-52.01492, -27.57873], [-52.01555, -27.57882], [-52.01615, -27.57847], [-52.01652, -27.57842], [-52.01921, -27.57847], [-52.01923, -27.57659], [-52.019, -27.57625], [-52.01866, -27.57464], [-52.01917, -27.57481], [-52.01919, -27.57505], [-52.02041, -27.57555], [-52.02045, -27.57576], [-52.02204, -27.57618], [-52.02194, -27.57514], [-52.02089, -27.57094], [-52.01919, -27.5713], [-52.01776, -27.57197], [-52.01752, -27.5713], [-52.01542, -27.5716]]]}}, 
{"type": "Feature", "properties": {"CD_SETOR": "432290505000004", "CD_SIT": "2", "NM_DIST": "Viadutos", "NM_SUBDIST": null}, "geometry": {"type": "Polygon", "coordinates": [[[-52.01162, -27.57926], [-52.01338, -27.58097], [-52.01478, -27.58117], [-52.01546, -27.58075], [-52.01579, -27.58077], [-52.01662, -27.58111], [-52.01914, -27.58137], [-52.02084, -27.58206], [-52.02123, -27.58208], [-52.02214, -27.58162], [-52.0226, -27.58162], [-52.02371, -27.58206], [-52.02454, -27.58218], [-52.02543, -27.58267], [-52.02558, -27.58309], [-52.0259, -27.58323], [-52.02632, -27.58379], [-52.02795, -27.58426], [-52.02811, -27.5844], [-52.02811, -27.58476], [-52.02996, -27.58685], [-52.03209, -27.5837], [-52.03237, -27.58358], [-52.03306, -27.58404], [-52.03441, -27.58461], [-52.03664, -27.5822], [-52.03652, -27.58192], [-52.03607, -27.58201], [-52.03514, -27.5817], [-52.03488, -27.58142], [-52.03468, -27.58024], [-52.03476, -27.57979], [-52.03567, -27.57852], [-52.03554, -27.57745], [-52.03563, -27.57679], [-52.03645, -27.57605], [-52.03686, -27.57533], [-52.03706, -27.57456], [-52.03686, -27.57387], [-52.03615, -27.57341], [-52.03457, -27.57331], [-52.03408, -27.57301], [-52.03345, -27.57217], [-52.03228, -27.57131], [-52.02973, -27.57074], [-52.02918, -27.57069], [-52.0278, -27.57129], [-52.02938, -27.57272], [-52.029, -27.57311], [-52.0303, -27.57433], [-52.02854, -27.57606], [-52.02638, -27.57756], [-52.02542, -27.57571], [-52.0226, -27.57392], [-52.02217, -27.57426], [-52.02167, -27.5744], [-52.02194, -27.57514], [-52.02204, -27.57618], [-52.02045, -27.57576], [-52.02041, -27.57555], [-52.01919, -27.57505], [-52.01917, -27.57481], [-52.01866, -27.57464], [-52.019, -27.57625], [-52.01923, -27.57659], [-52.01921, -27.57847], [-52.01652, -27.57842], [-52.01615, -27.57847], [-52.01555, -27.57882], [-52.01511, -27.57885], [-52.01456, -27.57833], [-52.01448, -27.57761], [-52.01487, -27.5767], [-52.01425, -27.57309], [-52.01532, -27.573], [-52.01589, -27.57275], [-52.01538, -27.57144], [-52.01406, -27.57228], [-52.01404, -27.57193], [-52.01332, -27.57067], [-52.01338, -27.56887], [-52.01442, -27.56723], [-52.01424, -27.56591], [-52.01358, -27.56538], [-52.01216, -27.5652], [-52.01161, -27.56463], [-52.01167, -27.56408], [-52.0119, -27.56376], [-52.01362, -27.56296], [-52.0154, -27.56035], [-52.01602, -27.56016], [-52.01656, -27.56017], [-52.01704, -27.56044], [-52.01729, -27.56078], [-52.01737, -27.56308], [-52.01724, -27.56421], [-52.01803, -27.56536], [-52.01787, -27.56647], [-52.01796, -27.56697], [-52.01832, -27.56733], [-52.01924, -27.56742], [-52.01965, -27.56718], [-52.02097, -27.5653], [-52.0216, -27.56498], [-52.02138, -27.56477], [-52.02115, -27.56311], [-52.02385, -27.56289], [-52.02568, -27.56328], [-52.02623, -27.56375], [-52.02633, -27.56425], [-52.02647, -27.56365], [-52.02645, -27.56255], [-52.02665, -27.56183], [-52.02778, -27.56115], [-52.02778, -27.56045], [-52.02738, -27.55982], [-52.02731, -27.55925], [-52.02682, -27.55849], [-52.02407, -27.55688], [-52.02352, -27.55488], [-52.02299, -27.55429], [-52.00504, -27.55959], [-52.00513, -27.56097], [-52.00501, -27.56318], [-52.00517, -27.56378], [-52.00681, -27.56568], [-52.0086, -27.56615], [-52.0101, -27.56677], [-52.01056, -27.56728], [-52.01104, -27.56862], [-52.01121, -27.56926], [-52.01114, -27.57019], [-52.01152, -27.57159], [-52.01154, -27.57296], [-52.01182, -27.57415], [-52.01148, -27.57533], [-52.0115, -27.57626], [-52.01203, -27.57748], [-52.0117, -27.57889], [-52.01146, -27.57907], [-52.01162, -27.57926]]]}}, 
{"type": "Feature", "properties": {"CD_SETOR": "432290505000005", "CD_SIT": "8", "NM_DIST": "Viadutos", "NM_SUBDIST": null}, "geometry": {"type": "Polygon", "coordinates": [[[-52.02861, -27.54464], [-52.02866, -27.54553], [-52.02705, -27.54826], [-52.02746, -27.54971], [-52.02668, -27.55149], [-52.02674, -27.55208], [-52.02801, -27.55485], [-52.02817, -27.55656], [-52.03, -27.55939], [-52.02983, -27.55978], [-52.02778, -27.56121], [-52.02791, -27.56259], [-52.02781, -27.5638], [-52.0274, -27.56412], [-52.02754, -27.56451], [-52.02744, -27.56504], [-52.02679, -27.56563], [-52.02684, -27.56618], [-52.02645, -27.56716], [-52.02644, -27.56811], [-52.02696, -27.56913], [-52.02727, -27.56923], [-52.02745, -27.56974], [-52.02683, -27.57117], [-52.02686, -27.57247], [-52.02709, -27.57324], [-52.02738, -27.573], [-52.0276, -27.5715], [-52.02839, -27.57092], [-52.02918, -27.57069], [-52.03228, -27.57131], [-52.03345, -27.57217], [-52.03408, -27.57301], [-52.03457, -27.57331], [-52.03615, -27.57341], [-52.03686, -27.57387], [-52.03706, -27.57456], [-52.03686, -27.57533], [-52.03645, -27.57605], [-52.03563, -27.57679], [-52.03554, -27.57745], [-52.03567, -27.57852], [-52.03476, -27.57979], [-52.03468, -27.58024], [-52.03488, -27.58142], [-52.03545, -27.58188], [-52.03607, -27.58201], [-52.03652, -27.58193], [-52.03735, -27.5812], [-52.03805, -27.58086], [-52.04026, -27.58128], [-52.04101, -27.58118], [-52.04232, -27.58062], [-52.04379, -27.58026], [-52.04455, -27.5803], [-52.04543, -27.58076], [-52.04678, -27.58193], [-52.04718, -27.58338], [-52.047, -27.58427], [-52.04622, -27.58519], [-52.04574, -27.58598], [-52.04544, -27.58693], [-52.04494, -27.58763], [-52.04264, -27.58945], [-52.04282, -27.59035], [-52.0432, -27.59062], [-52.04354, -27.59072], [-52.04538, -27.58995], [-52.0466, -27.5905], [-52.04733, -27.59051], [-52.047, -27.5908], [-52.0487, -27.58969], [-52.05153, -27.58957], [-52.05607, -27.59128], [-52.05958, -27.59053], [-52.06128, -27.5891], [-52.06565, -27.59029], [-52.06666, -27.58915], [-52.06634, -27.58632], [-52.06922, -27.58532], [-52.05422, -27.54253], [-52.0556, -27.54251], [-52.05432, -27.54155], [-52.05307, -27.53832], [-52.05275, -27.53783], [-52.05205, -27.53743], [-52.05135, -27.53737], [-52.0502, -27.53811], [-52.0495, -27.53816], [-52.04867, -27.53774], [-52.04684, -27.53646], [-52.04581, -27.53544], [-52.04537, -27.53466], [-52.04515, -27.53364], [-52.04481, -27.53307], [-52.04431, -27.5328], [-52.04315, -27.53263], [-52.04127, -27.53194], [-52.03965, -27.53202], [-52.03766, -27.53128], [-52.03487, -27.53093], [-52.03482, -27.53196], [-52.03438, -27.53388], [-52.0348, -27.53649], [-52.03477, -27.53724], [-52.03451, -27.5373], [-52.03438, -27.53813], [-52.03295, -27.53991], [-52.03231, -27.54041], [-52.03145, -27.5421], [-52.02994, -27.5436], [-52.02942, -27.54441], [-52.02861, -27.54464]]]}}, 
{"type": "Feature", "properties": {"CD_SETOR": "432290505000006", "CD_SIT": "8", "NM_DIST": "Viadutos", "NM_SUBDIST": null}, "geometry": {"type": "Polygon", "coordinates": [[[-52.03418, -27.49866], [-52.0338, -27.49944], [-52.03377, -27.50009], [-52.03346, -27.50076], [-52.03351, -27.50155], [-52.03329, -27.50224], [-52.03298, -27.5025], [-52.03248, -27.50254], [-52.03218, -27.5028], [-52.03274, -27.50375], [-52.03268, -27.50417], [-52.03196, -27.50517], [-52.03156, -27.50514], [-52.0314, -27.50534], [-52.03162, -27.50595], [-52.03255, -27.50724], [-52.03229, -27.50849], [-52.03178, -27.50905], [-52.02817, -27.51079], [-52.02675, -27.51273], [-52.02658, -27.51331], [-52.02491, -27.51521], [-52.02499, -27.51568], [-52.02422, -27.51665], [-52.02458, -27.5182], [-52.0252, -27.51933], [-52.02521, -27.51968], [-52.02495, -27.52011], [-52.02519, -27.52098], [-52.02637, -27.52426], [-52.02791, -27.52608], [-52.02784, -27.52661], [-52.02813, -27.52742], [-52.02925, -27.52884], [-52.02983, -27.52929], [-52.03085, -27.52964], [-52.03196, -27.53076], [-52.03371, -27.53055], [-52.03487, -27.53093], [-52.03766, -27.53128], [-52.03965, -27.53202], [-52.04127, -27.53194], [-52.04315, -27.53263], [-52.04431, -27.5328], [-52.04481, -27.53307], [-52.04515, -27.53364], [-52.04537, -27.53466], [-52.04581, -27.53544], [-52.04684, -27.53646], [-52.04867, -27.53774], [-52.0495, -27.53816], [-52.0502, -27.53811], [-52.05135, -27.53737], [-52.05205, -27.53743], [-52.05275, -27.53783], [-52.05307, -27.53832], [-52.05432, -27.54155], [-52.0556, -27.54251], [-52.05493, -27.54253], [-52.06596, -27.5426], [-52.06568, -27.53467], [-52.07683, -27.53443], [-52.07671, -27.52937], [-52.07876, -27.52859], [-52.07825, -27.52773], [-52.07512, -27.52657], [-52.07496, -27.52297], [-52.07615, -27.52126], [-52.07617, -27.51899], [-52.07924, -27.51778], [-52.08142, -27.51839], [-52.08272, -27.52018], [-52.08389, -27.5204], [-52.08792, -27.52005], [-52.08876, -27.5188], [-52.08628, -27.51715], [-52.08539, -27.51525], [-52.07721, -27.51498], [-52.07417, -27.5131], [-52.07486, -27.51223], [-52.07735, -27.51345], [-52.07946, -27.51346], [-52.08297, -27.51114], [-52.08817, -27.51028], [-52.0888, -27.50768], [-52.08778, -27.50654], [-52.08617, -27.50622], [-52.07834, -27.50656], [-52.07737, -27.50537], [-52.07505, -27.50472], [-52.07564, -27.50369], [-52.07958, -27.50177], [-52.08045, -27.49928], [-52.08, -27.49633], [-52.07357, -27.4916], [-52.06703, -27.49173], [-52.06496, -27.4913], [-52.0638, -27.49135], [-52.06277, -27.49099], [-52.06237, -27.49059], [-52.05692, -27.49068], [-52.05761, -27.49164], [-52.05942, -27.49323], [-52.06013, -27.49516], [-52.06013, -27.49536], [-52.05931, -27.49608], [-52.05924, -27.49634], [-52.06014, -27.49733], [-52.06021, -27.49963], [-52.06067, -27.50131], [-52.06032, -27.50184], [-52.0594, -27.50209], [-52.05891, -27.50246], [-52.05869, -27.503], [-52.05828, -27.50296], [-52.05649, -27.50177], [-52.05391, -27.50202], [-52.05193, -27.50146], [-52.04984, -27.50136], [-52.04924, -27.50041], [-52.04805, -27.50017], [-52.04787, -27.49999], [-52.04797, -27.498], [-52.04745, -27.49796], [-52.04551, -27.49862], [-52.04497, -27.49907], [-52.04482, -27.4998], [-52.04353, -27.50071], [-52.04314, -27.50081], [-52.04196, -27.50061], [-52.04127, -27.50081], [-52.03957, -27.50025], [-52.03951, -27.49951], [-52.03904, -27.49853], [-52.03859, -27.4985], [-52.03736, -27.49717], [-52.03708, -27.49711], [-52.03615, -27.49754], [-52.03468, -27.49716], [-52.03418, -27.49866]]]}}, 
{"type": "Feature", "properties": {"CD_SETOR": "432290505000007", "CD_SIT": "8", "NM_DIST": "Viadutos", "NM_SUBDIST": null}, "geometry": {"type": "Polygon", "coordinates": [[[-52.03589, -27.45442], [-52.0365, -27.455], [-52.03586, -27.45556], [-52.03529, -27.45549], [-52.03468, -27.45622], [-52.03448, -27.45728], [-52.03458, -27.45935], [-52.03431, -27.46004], [-52.03476, -27.46094], [-52.03592, -27.46184], [-52.03613, -27.46219], [-52.03606, -27.46248], [-52.03565, -27.46249], [-52.03517, -27.46305], [-52.03507, -27.46536], [-52.03525, -27.46642], [-52.03489, -27.46703], [-52.03419, -27.46766], [-52.03313, -27.46806], [-52.03202, -27.46786], [-52.03039, -27.46716], [-52.02953, -27.46659], [-52.02894, -27.46661], [-52.02812, -27.46692], [-52.02567, -27.46836], [-52.02498, -27.46845], [-52.02389, -27.4683], [-52.0222, -27.4678], [-52.02104, -27.46768], [-52.01937, -27.46844], [-52.01788, -27.46938], [-52.01666, -27.46936], [-52.01498, -27.4687], [-52.01459, -27.46903], [-52.01574, -27.47056], [-52.01639, -27.47059], [-52.01711, -27.47096], [-52.0171, -27.47148], [-52.01778, -27.47214], [-52.02029, -27.47336], [-52.02093, -27.47481], [-52.02108, -27.47578], [-52.02093, -27.47665], [-52.02112, -27.47735], [-52.02153, -27.47806], [-52.02119, -27.47835], [-52.02179, -27.47855], [-52.02454, -27.47879], [-52.02516, -27.47906], [-52.02531, -27.47951], [-52.02521, -27.48023], [-52.02491, -27.48077], [-52.0242, -27.48128], [-52.02416, -27.48171], [-52.02425, -27.482], [-52.02452, -27.48217], [-52.02465, -27.48317], [-52.02526, -27.48412], [-52.02662, -27.48468], [-52.0314, -27.48609], [-52.03129, -27.48678], [-52.03068, -27.48775], [-52.0299, -27.49036], [-52.03054, -27.49267], [-52.03049, -27.49312], [-52.03097, -27.4941], [-52.03099, -27.49537], [-52.03182, -27.4955], [-52.03238, -27.4958], [-52.03364, -27.49565], [-52.03417, -27.49695], [-52.03384, -27.4978], [-52.03418, -27.49866], [-52.03468, -27.49716], [-52.03615, -27.49754], [-52.03708, -27.49711], [-52.03736, -27.49717], [-52.03859, -27.4985], [-52.03904, -27.49853], [-52.03951, -27.49951], [-52.03957, -27.50025], [-52.04127, -27.50081], [-52.04196, -27.50061], [-52.04314, -27.50081], [-52.04353, -27.50071], [-52.04482, -27.4998], [-52.04497, -27.49907], [-52.04551, -27.49862], [-52.04745, -27.49796], [-52.04797, -27.498], [-52.04787, -27.49999], [-52.04805, -27.50017], [-52.04924, -27.50041], [-52.04984, -27.50136], [-52.05193, -27.50146], [-52.05391, -27.50202], [-52.05649, -27.50177], [-52.05828, -27.50296], [-52.05869, -27.503], [-52.05891, -27.50246], [-52.0594, -27.50209], [-52.06032, -27.50184], [-52.06067, -27.50131], [-52.06021, -27.49963], [-52.06014, -27.49733], [-52.05924, -27.49634], [-52.05931, -27.49608], [-52.06013, -27.49536], [-52.06013, -27.49516], [-52.05942, -27.49323], [-52.05761, -27.49164], [-52.05692, -27.49068], [-52.06237, -27.49059], [-52.06277, -27.49099], [-52.0638, -27.49135], [-52.06496, -27.4913], [-52.06703, -27.49163], [-52.06707, -27.48027], [-52.06665, -27.45392], [-52.03589, -27.45442]]]}}, 
{"type": "Feature", "properties": {"CD_SETOR": "432290505000008", "CD_SIT": "8", "NM_DIST": "Viadutos", "NM_SUBDIST": null}, "geometry": {"type": "Polygon", "coordinates": [[[-51.99786, -27.45343], [-51.99445, -27.45679], [-51.9953, -27.45988], [-51.99205, -27.46254], [-51.99443, -27.46462], [-51.99711, -27.46496], [-51.99805, -27.48715], [-51.98851, -27.4868], [-51.98855, -27.49494], [-51.98859, -27.49471], [-51.99065, -27.49475], [-51.99402, -27.49557], [-51.99559, -27.49544], [-51.99647, -27.49513], [-51.99828, -27.49395], [-52.00004, -27.49314], [-52.00091, -27.49131], [-52.00248, -27.49038], [-52.00487, -27.49043], [-52.00649, -27.48926], [-52.00716, -27.48933], [-52.00845, -27.48881], [-52.00808, -27.48828], [-52.00821, -27.48761], [-52.00979, -27.48322], [-52.00999, -27.4812], [-52.00954, -27.47972], [-52.00947, -27.47835], [-52.00876, -27.47704], [-52.00809, -27.47456], [-52.00844, -27.47275], [-52.00898, -27.47236], [-52.00977, -27.47226], [-52.01065, -27.47099], [-52.01086, -27.47015], [-52.01117, -27.4701], [-52.01095, -27.47096], [-52.01115, -27.47113], [-52.01248, -27.47139], [-52.01286, -27.47107], [-52.01312, -27.47019], [-52.01498, -27.4687], [-52.01666, -27.46936], [-52.01788, -27.46938], [-52.01937, -27.46844], [-52.02104, -27.46768], [-52.0222, -27.4678], [-52.02389, -27.4683], [-52.02498, -27.46845], [-52.02567, -27.46836], [-52.02812, -27.46692], [-52.02894, -27.46661], [-52.02953, -27.46659], [-52.03112, -27.46751], [-52.03313, -27.46806], [-52.03419, -27.46766], [-52.03489, -27.46703], [-52.03525, -27.46642], [-52.03507, -27.46536], [-52.03517, -27.46305], [-52.03565, -27.46249], [-52.03606, -27.46248], [-52.03613, -27.46219], [-52.03592, -27.46184], [-52.03476, -27.46094], [-52.03431, -27.46004], [-52.03458, -27.45935], [-52.03448, -27.45728], [-52.03468, -27.45622], [-52.03529, -27.45549], [-52.03586, -27.45556], [-52.0365, -27.455], [-52.03589, -27.45442], [-52.02881, -27.45453], [-52.02975, -27.43594], [-52.02864, -27.43479], [-52.02008, -27.43229], [-52.01434, -27.43448], [-52.01151, -27.43888], [-52.01026, -27.44432], [-52.0111, -27.44677], [-52.01003, -27.44817], [-52.00602, -27.45048], [-52.00453, -27.45373], [-52.00119, -27.45477], [-51.99786, -27.45343]]]}}, 
{"type": "Feature", "properties": {"CD_SETOR": "432290505000009", "CD_SIT": "8", "NM_DIST": "Viadutos", "NM_SUBDIST": null}, "geometry": {"type": "Polygon", "coordinates": [[[-51.98855, -27.49494], [-51.98858, -27.4997], [-51.97909, -27.49955], [-51.97064, -27.50548], [-51.97083, -27.50393], [-51.958, -27.51142], [-51.96309, -27.50854], [-51.96416, -27.50952], [-51.96412, -27.51019], [-51.96364, -27.51191], [-51.96426, -27.51262], [-51.96459, -27.51329], [-51.96509, -27.51525], [-51.96586, -27.51642], [-51.96677, -27.51699], [-51.97072, -27.5171], [-51.97371, -27.51737], [-51.97368, -27.52076], [-51.97288, -27.52232], [-51.97059, -27.52537], [-51.97022, -27.52627], [-51.97079, -27.52661], [-51.97182, -27.52681], [-51.9763, -27.52489], [-51.97732, -27.52531], [-51.97814, -27.52588], [-51.97824, -27.52611], [-51.97698, -27.52778], [-51.97683, -27.52896], [-51.97699, -27.53031], [-51.97694, -27.53186], [-51.97714, -27.53233], [-51.97849, -27.53236], [-51.97936, -27.53189], [-51.98164, -27.53308], [-51.98429, -27.53394], [-51.98527, -27.53381], [-51.98729, -27.53288], [-51.98728, -27.5319], [-51.98764, -27.53119], [-51.9886, -27.53109], [-51.98925, -27.53182], [-51.98922, -27.53236], [-51.98962, -27.53306], [-51.99167, -27.53461], [-51.99149, -27.5354], [-51.99068, -27.5359], [-51.99027, -27.53665], [-51.9905, -27.53693], [-51.99189, -27.53665], [-51.99227, -27.53699], [-51.99212, -27.5401], [-51.99226, -27.54073], [-51.99257, -27.54105], [-51.99543, -27.5403], [-51.99677, -27.53957], [-51.99977, -27.53842], [-52.00077, -27.53857], [-52.001, -27.54163], [-52.00226, -27.54375], [-52.00297, -27.54443], [-52.0036, -27.54436], [-52.00438, -27.54339], [-52.00534, -27.54168], [-52.00594, -27.54143], [-52.0067, -27.54143], [-52.00798, -27.54175], [-52.00762, -27.54287], [-52.00775, -27.54445], [-52.00844, -27.54536], [-52.00943, -27.54557], [-52.01017, -27.54458], [-52.01012, -27.5426], [-52.01047, -27.54279], [-52.01257, -27.54559], [-52.01317, -27.54603], [-52.01449, -27.54619], [-52.01698, -27.54544], [-52.01807, -27.54543], [-52.01949, -27.54739], [-52.02012, -27.54793], [-52.02113, -27.54778], [-52.02186, -27.54705], [-52.02216, -27.54621], [-52.02262, -27.54585], [-52.02346, -27.54552], [-52.02478, -27.54453], [-52.02622, -27.54449], [-52.02686, -27.54535], [-52.02735, -27.54552], [-52.02794, -27.54543], [-52.02825, -27.54488], [-52.02942, -27.54441], [-52.02994, -27.5436], [-52.03145, -27.5421], [-52.03231, -27.54041], [-52.03295, -27.53991], [-52.0342, -27.53843], [-52.03451, -27.5373], [-52.03477, -27.53724], [-52.0348, -27.53649], [-52.03438, -27.53388], [-52.03482, -27.53196], [-52.03487, -27.53093], [-52.03371, -27.53055], [-52.03196, -27.53076], [-52.03085, -27.52964], [-52.02983, -27.52929], [-52.02925, -27.52884], [-52.02813, -27.52742], [-52.02784, -27.52661], [-52.02791, -27.52608], [-52.02654, -27.52458], [-52.02599, -27.52327], [-52.02495, -27.52011], [-52.02521, -27.51968], [-52.0252, -27.51933], [-52.02458, -27.5182], [-52.02422, -27.51665], [-52.02499, -27.51568], [-52.02491, -27.51521], [-52.02658, -27.51331], [-52.02675, -27.51273], [-52.02817, -27.51079], [-52.03178, -27.50905], [-52.03229, -27.50849], [-52.03249, -27.50789], [-52.03255, -27.50724], [-52.03162, -27.50595], [-52.0314, -27.50534], [-52.03156, -27.50514], [-52.03196, -27.50517], [-52.03268, -27.50417], [-52.03274, -27.50375], [-52.03218, -27.5028], [-52.03248, -27.50254], [-52.03298, -27.5025], [-52.03346, -27.5019], [-52.03346, -27.50076], [-52.03377, -27.50009], [-52.0338, -27.49944], [-52.03418, -27.49866], [-52.03384, -27.4978], [-52.03417, -27.49695], [-52.03364, -27.49565], [-52.03238, -27.4958], [-52.03182, -27.4955], [-52.03099, -27.49537], [-52.03097, -27.4941], [-52.03049, -27.49312], [-52.03054, -27.49267], [-52.0299, -27.49036], [-52.03068, -27.48775], [-52.03129, -27.48678], [-52.0314, -27.48609], [-52.02662, -27.48468], [-52.02526, -27.48412], [-52.02465, -27.48317], [-52.02452, -27.48217], [-52.02425, -27.482], [-52.02416, -27.48171], [-52.0242, -27.48128], [-52.02491, -27.48077], [-52.02521, -27.48023], [-52.02531, -27.47951], [-52.02516, -27.47906], [-52.02454, -27.47879], [-52.02179, -27.47855], [-52.02119, -27.47835], [-52.02153, -27.47806], [-52.02112, -27.47735], [-52.02093, -27.47665], [-52.02108, -27.47578], [-52.02093, -27.47481], [-52.02029, -27.47336], [-52.01778, -27.47214], [-52.0171, -27.47148], [-52.01711, -27.47096], [-52.01639, -27.47059], [-52.01574, -27.47056], [-52.01459, -27.46903], [-52.01312, -27.47019], [-52.01286, -27.47107], [-52.01248, -27.47139], [-52.01115, -27.47113], [-52.01095, -27.47096], [-52.01117, -27.4701], [-52.01086, -27.47015], [-52.01065, -27.47099], [-52.00977, -27.47226], [-52.00898, -27.47236], [-52.00844, -27.47275], [-52.00826, -27.47331], [-52.00809, -27.47456], [-52.0083, -27.47554], [-52.0089, -27.47743], [-52.00947, -27.47835], [-52.00954, -27.47972], [-52.00999, -27.4812], [-52.00979, -27.48322], [-52.00821, -27.48761], [-52.00808, -27.48828], [-52.00845, -27.48881], [-52.00716, -27.48933], [-52.00649, -27.48926], [-52.00487, -27.49043], [-52.00248, -27.49038], [-52.00091, -27.49131], [-52.00004, -27.49314], [-51.99828, -27.49395], [-51.99647, -27.49513], [-51.99559, -27.49544], [-51.99402, -27.49557], [-51.99065, -27.49475], [-51.98859, -27.49471], [-51.98855, -27.49494]]]}}, 
{"type": "Feature", "properties": {"CD_SETOR": "432290505000010", "CD_SIT": "8", "NM_DIST": "Viadutos", "NM_SUBDIST": null}, "geometry": {"type": "Polygon", "coordinates": [[[-51.958, -27.51142], [-51.95637, -27.51237], [-51.95507, -27.52113], [-51.95563, -27.52313], [-51.95807, -27.52521], [-51.96118, -27.52475], [-51.96147, -27.52754], [-51.96361, -27.53037], [-51.96258, -27.53283], [-51.96559, -27.53437], [-51.96692, -27.53804], [-51.97061, -27.53953], [-51.97005, -27.54307], [-51.97254, -27.5427], [-51.97309, -27.54448], [-51.97584, -27.54666], [-51.97517, -27.54889], [-51.97088, -27.55285], [-51.97034, -27.55565], [-51.96712, -27.5636], [-51.96879, -27.56686], [-51.96901, -27.56911], [-51.97121, -27.56718], [-51.97504, -27.5772], [-51.97276, -27.57841], [-51.97316, -27.57927], [-51.97402, -27.58012], [-51.9783, -27.58278], [-51.9789, -27.58301], [-51.9797, -27.58292], [-51.98238, -27.58163], [-51.9834, -27.58143], [-51.98613, -27.58166], [-51.98835, -27.58138], [-51.98895, -27.58149], [-51.98933, -27.58193], [-51.99029, -27.58447], [-51.99182, -27.58532], [-51.99303, -27.5855], [-51.99486, -27.58489], [-51.99561, -27.58436], [-51.99596, -27.58308], [-51.99766, -27.58147], [-51.99809, -27.58085], [-51.99956, -27.58028], [-52.00095, -27.58022], [-52.00193, -27.5814], [-52.00225, -27.58155], [-52.00383, -27.58164], [-52.00475, -27.58224], [-52.00513, -27.58269], [-52.00532, -27.58327], [-52.00501, -27.58515], [-52.00561, -27.58537], [-52.00602, -27.58486], [-52.00712, -27.58266], [-52.0087, -27.58068], [-52.00928, -27.5802], [-52.01162, -27.57926], [-52.01146, -27.57907], [-52.0117, -27.57889], [-52.01203, -27.57748], [-52.0115, -27.57626], [-52.01148, -27.57533], [-52.01182, -27.57415], [-52.01154, -27.57296], [-52.01152, -27.57159], [-52.01114, -27.57019], [-52.01121, -27.56926], [-52.01056, -27.56728], [-52.0101, -27.56677], [-52.0086, -27.56615], [-52.00681, -27.56568], [-52.00517, -27.56378], [-52.00501, -27.56318], [-52.00513, -27.56097], [-52.00504, -27.55959], [-52.02299, -27.55429], [-52.02352, -27.55488], [-52.02407, -27.55688], [-52.02682, -27.55849], [-52.02731, -27.55925], [-52.02738, -27.55982], [-52.02778, -27.56045], [-52.02778, -27.56121], [-52.02811, -27.56104], [-52.02983, -27.55978], [-52.03, -27.55939], [-52.02817, -27.55656], [-52.02801, -27.55485], [-52.02674, -27.55208], [-52.02668, -27.55149], [-52.02746, -27.54971], [-52.02705, -27.54826], [-52.02866, -27.54553], [-52.02861, -27.54464], [-52.02825, -27.54488], [-52.02794, -27.54543], [-52.02735, -27.54552], [-52.02686, -27.54535], [-52.02622, -27.54449], [-52.02478, -27.54453], [-52.02346, -27.54552], [-52.02262, -27.54585], [-52.02216, -27.54621], [-52.02186, -27.54705], [-52.02113, -27.54778], [-52.02012, -27.54793], [-52.01949, -27.54739], [-52.01807, -27.54543], [-52.01698, -27.54544], [-52.01449, -27.54619], [-52.01317, -27.54603], [-52.01257, -27.54559], [-52.01047, -27.54279], [-52.01012, -27.5426], [-52.01017, -27.54458], [-52.00943, -27.54557], [-52.00844, -27.54536], [-52.00775, -27.54445], [-52.00762, -27.54287], [-52.00798, -27.54175], [-52.0067, -27.54143], [-52.00594, -27.54143], [-52.00534, -27.54168], [-52.00438, -27.54339], [-52.0036, -27.54436], [-52.00297, -27.54443], [-52.00226, -27.54375], [-52.001, -27.54163], [-52.00077, -27.53857], [-51.99977, -27.53842], [-51.99677, -27.53957], [-51.99543, -27.5403], [-51.99257, -27.54105], [-51.99226, -27.54073], [-51.99212, -27.5401], [-51.99227, -27.53699], [-51.99189, -27.53665], [-51.9905, -27.53693], [-51.99027, -27.53665], [-51.99068, -27.5359], [-51.99149, -27.5354], [-51.99167, -27.53461], [-51.98962, -27.53306], [-51.98922, -27.53236], [-51.98925, -27.53182], [-51.9886, -27.53109], [-51.98764, -27.53119], [-51.98728, -27.5319], [-51.98729, -27.53288], [-51.98527, -27.53381], [-51.98429, -27.53394], [-51.98164, -27.53308], [-51.97936, -27.53189], [-51.97849, -27.53236], [-51.97714, -27.53233], [-51.97694, -27.53186], [-51.97699, -27.53031], [-51.97683, -27.52896], [-51.97698, -27.52778], [-51.97824, -27.52611], [-51.97814, -27.52588], [-51.97732, -27.52531], [-51.9763, -27.52489], [-51.97182, -27.52681], [-51.97079, -27.52661], [-51.97022, -27.52627], [-51.97059, -27.52537], [-51.97288, -27.52232], [-51.97368, -27.52076], [-51.97371, -27.51737], [-51.97072, -27.5171], [-51.96677, -27.51699], [-51.96586, -27.51642], [-51.96509, -27.51525], [-51.96459, -27.51329], [-51.96426, -27.51262], [-51.96364, -27.51191], [-51.96412, -27.51019], [-51.96416, -27.50952], [-51.96309, -27.50854], [-51.958, -27.51142]]]}}, 
{"type": "Feature", "properties": {"CD_SETOR": "432290505000011", "CD_SIT": "8", "NM_DIST": "Viadutos", "NM_SUBDIST": null}, "geometry": {"type": "Polygon", "coordinates": [[[-51.94082, -27.58018], [-51.93934, -27.58002], [-51.93707, -27.57889], [-51.93115, -27.58233], [-51.9288, -27.5848], [-51.92189, -27.58796], [-51.91617, -27.5925], [-51.91114, -27.5952], [-51.90734, -27.59554], [-51.90511, -27.59527], [-51.90621, -27.5955], [-51.90622, -27.5964], [-51.90688, -27.59949], [-51.9081, -27.60018], [-51.9109, -27.60112], [-51.91398, -27.60133], [-51.9147, -27.60154], [-51.91545, -27.60222], [-51.91868, -27.6043], [-51.92283, -27.60522], [-51.92597, -27.60448], [-51.93005, -27.6041], [-51.93066, -27.60446], [-51.93161, -27.60857], [-51.93142, -27.60978], [-51.93209, -27.61163], [-51.93391, -27.61547], [-51.93454, -27.61668], [-51.9353, -27.61761], [-51.93551, -27.61844], [-51.93504, -27.61897], [-51.92998, -27.6208], [-51.92846, -27.6218], [-51.92816, -27.62249], [-51.92874, -27.62342], [-51.92977, -27.62385], [-51.93455, -27.62524], [-51.93537, -27.6258], [-51.9355, -27.62717], [-51.93503, -27.62953], [-51.93526, -27.63098], [-51.93597, -27.63204], [-51.9372, -27.63236], [-51.93808, -27.63292], [-51.94002, -27.6328], [-51.94169, -27.63239], [-51.9429, -27.63179], [-51.94434, -27.63057], [-51.95199, -27.62353], [-51.9547, -27.6222], [-51.95571, -27.62218], [-51.95694, -27.62282], [-51.95822, -27.62423], [-51.95807, -27.62514], [-51.9576, -27.62639], [-51.95666, -27.62757], [-51.9564, -27.6286], [-51.95598, -27.63563], [-51.95529, -27.63655], [-51.95044, -27.64047], [-51.95007, -27.64162], [-51.95092, -27.6428], [-51.95288, -27.6435], [-51.9545, -27.64366], [-51.95676, -27.64477], [-51.95926, -27.64532], [-51.96013, -27.64514], [-51.96188, -27.64342], [-51.96237, -27.64244], [-51.96267, -27.64116], [-51.96259, -27.63707], [-51.96238, -27.63476], [-51.96253, -27.63337], [-51.96329, -27.63228], [-51.96534, -27.6308], [-51.96851, -27.62921], [-51.97043, -27.62787], [-51.97142, -27.62689], [-51.97327, -27.62599], [-51.97394, -27.62608], [-51.97441, -27.62659], [-51.97523, -27.62606], [-51.97558, -27.62538], [-51.97637, -27.62492], [-51.9766, -27.62459], [-51.97636, -27.62439], [-51.97576, -27.62439], [-51.9759, -27.62407], [-51.97659, -27.62393], [-51.97666, -27.62361], [-51.97711, -27.62327], [-51.97677, -27.62252], [-51.97926, -27.62267], [-51.97956, -27.62232], [-51.98029, -27.6206], [-51.98086, -27.62123], [-51.98231, -27.6197], [-51.98188, -27.61786], [-51.9806, -27.61481], [-51.98006, -27.61495], [-51.97867, -27.61398], [-51.97883, -27.61333], [-51.9784, -27.61214], [-51.97833, -27.61101], [-51.97872, -27.61004], [-51.97812, -27.60986], [-51.97691, -27.61053], [-51.97605, -27.61034], [-51.97584, -27.60973], [-51.97669, -27.6091], [-51.97694, -27.60831], [-51.9766, -27.60727], [-51.9767, -27.60604], [-51.97639, -27.60543], [-51.97652, -27.60439], [-51.97686, -27.60399], [-51.97834, -27.60328], [-51.97899, -27.6035], [-51.98005, -27.60307], [-51.98048, -27.60274], [-51.9809, -27.6015], [-51.981, -27.6006], [-51.98159, -27.60041], [-51.9818, -27.59922], [-51.98023, -27.59547], [-51.98044, -27.59294], [-51.97917, -27.59085], [-51.97936, -27.58966], [-51.9791, -27.58867], [-51.97805, -27.58778], [-51.97759, -27.58771], [-51.97443, -27.58604], [-51.97202, -27.58428], [-51.97223, -27.58347], [-51.97263, -27.58281], [-51.97379, -27.58163], [-51.97467, -27.58107], [-51.97567, -27.5811], [-51.97402, -27.58012], [-51.97316, -27.57927], [-51.97276, -27.57841], [-51.96888, -27.58047], [-51.96424, -27.58074], [-51.9617, -27.58274], [-51.94866, -27.58836], [-51.94411, -27.58054], [-51.94082, -27.58018]]]}}, 
{"type": "Feature", "properties": {"CD_SETOR": "432290505000012", "CD_SIT": "8", "NM_DIST": "Viadutos", "NM_SUBDIST": null}, "geometry": {"type": "Polygon", "coordinates": [[[-51.89167, -27.57897], [-51.89174, -27.58026], [-51.88495, -27.58752], [-51.883, -27.59062], [-51.8827, -27.59274], [-51.88815, -27.59866], [-51.89871, -27.60201], [-51.90005, -27.60378], [-51.89941, -27.60518], [-51.89354, -27.61048], [-51.89232, -27.61636], [-51.88664, -27.62442], [-51.8842, -27.6256], [-51.87265, -27.62227], [-51.87113, -27.62305], [-51.86951, -27.62581], [-51.8685, -27.62791], [-51.86887, -27.63157], [-51.88777, -27.63188], [-51.89122, -27.63498], [-51.88996, -27.63816], [-51.88776, -27.63988], [-51.88071, -27.64323], [-51.87806, -27.65082], [-51.87567, -27.65335], [-51.87269, -27.65501], [-51.87119, -27.65728], [-51.87097, -27.66077], [-51.87305, -27.66144], [-51.87613, -27.66046], [-51.88498, -27.65269], [-51.89109, -27.64879], [-51.89741, -27.64736], [-51.89935, -27.64855], [-51.8964, -27.65216], [-51.90609, -27.65125], [-51.90751, -27.64948], [-51.90759, -27.64749], [-51.90994, -27.64359], [-51.91023, -27.6419], [-51.91238, -27.64028], [-51.91309, -27.63883], [-51.9136, -27.6371], [-51.91324, -27.6352], [-51.91438, -27.6335], [-51.91494, -27.63212], [-51.91504, -27.63066], [-51.91482, -27.62915], [-51.91436, -27.62783], [-51.9155, -27.62624], [-51.91599, -27.62484], [-51.91578, -27.62412], [-51.9161, -27.62323], [-51.91757, -27.62225], [-51.91748, -27.62134], [-51.91641, -27.62025], [-51.91639, -27.61979], [-51.91737, -27.61924], [-51.91829, -27.6182], [-51.91748, -27.61579], [-51.91765, -27.61446], [-51.91855, -27.61145], [-51.91845, -27.61002], [-51.91857, -27.60877], [-51.91817, -27.60771], [-51.91733, -27.60646], [-51.91708, -27.60573], [-51.91738, -27.60538], [-51.91743, -27.60498], [-51.91775, -27.60487], [-51.91765, -27.60425], [-51.91805, -27.60389], [-51.91545, -27.60222], [-51.9147, -27.60154], [-51.91398, -27.60133], [-51.9109, -27.60112], [-51.9081, -27.60018], [-51.90688, -27.59949], [-51.90622, -27.5964], [-51.90621, -27.5955], [-51.89857, -27.59449], [-51.89592, -27.5903], [-51.90016, -27.58587], [-51.9002, -27.5834], [-51.8982, -27.57954], [-51.89681, -27.57855], [-51.89167, -27.57897]]]}}, 
{"type": "Feature", "properties": {"CD_SETOR": "432290505000013", "CD_SIT": "8", "NM_DIST": "Viadutos", "NM_SUBDIST": null}, "geometry": {"type": "Polygon", "coordinates": [[[-51.90609, -27.65125], [-51.90703, -27.65116], [-51.90812, -27.65444], [-51.93945, -27.66323], [-51.93912, -27.66309], [-51.93953, -27.66236], [-51.94072, -27.66113], [-51.94092, -27.66046], [-51.94123, -27.66005], [-51.94534, -27.65565], [-51.94525, -27.65503], [-51.94635, -27.65344], [-51.94721, -27.6527], [-51.94949, -27.65143], [-51.95006, -27.65033], [-51.95094, -27.64925], [-51.95113, -27.64862], [-51.95244, -27.64677], [-51.95253, -27.64638], [-51.95194, -27.64592], [-51.95048, -27.64556], [-51.95109, -27.64488], [-51.952, -27.64494], [-51.95206, -27.64453], [-51.95235, -27.64442], [-51.95247, -27.64391], [-51.95288, -27.6435], [-51.95092, -27.6428], [-51.95007, -27.64162], [-51.95044, -27.64047], [-51.95529, -27.63655], [-51.95598, -27.63563], [-51.9564, -27.6286], [-51.95666, -27.62757], [-51.9576, -27.62639], [-51.95807, -27.62514], [-51.95822, -27.62423], [-51.95694, -27.62282], [-51.95571, -27.62218], [-51.9547, -27.6222], [-51.95199, -27.62353], [-51.9429, -27.63179], [-51.94169, -27.63239], [-51.94002, -27.6328], [-51.93808, -27.63292], [-51.9372, -27.63236], [-51.93597, -27.63204], [-51.93526, -27.63098], [-51.93503, -27.62953], [-51.9355, -27.62717], [-51.93537, -27.6258], [-51.93455, -27.62524], [-51.92977, -27.62385], [-51.92874, -27.62342], [-51.92816, -27.62249], [-51.92846, -27.6218], [-51.92998, -27.6208], [-51.93504, -27.61897], [-51.93551, -27.61844], [-51.9353, -27.61761], [-51.93454, -27.61668], [-51.93391, -27.61547], [-51.93209, -27.61163], [-51.93142, -27.60978], [-51.93161, -27.60857], [-51.93066, -27.60446], [-51.93005, -27.6041], [-51.92597, -27.60448], [-51.92283, -27.60522], [-51.91868, -27.6043], [-51.91805, -27.60389], [-51.91765, -27.60425], [-51.91775, -27.60487], [-51.91743, -27.60498], [-51.91738, -27.60538], [-51.91708, -27.60573], [-51.91733, -27.60646], [-51.91817, -27.60771], [-51.91857, -27.60877], [-51.91845, -27.61002], [-51.91855, -27.61145], [-51.91765, -27.61446], [-51.91748, -27.61579], [-51.91829, -27.6182], [-51.91737, -27.61924], [-51.91639, -27.61979], [-51.91641, -27.62025], [-51.91748, -27.62134], [-51.91757, -27.62225], [-51.9161, -27.62323], [-51.91578, -27.62412], [-51.91599, -27.62484], [-51.9155, -27.62624], [-51.91436, -27.62783], [-51.91482, -27.62915], [-51.91504, -27.63066], [-51.91494, -27.63212], [-51.91438, -27.6335], [-51.91324, -27.6352], [-51.9136, -27.6371], [-51.91309, -27.63883], [-51.91238, -27.64028], [-51.91023, -27.6419], [-51.90994, -27.64359], [-51.90759, -27.64749], [-51.90751, -27.64948], [-51.90609, -27.65125]]]}}, 
{"type": "Feature", "properties": {"CD_SETOR": "432290505000014", "CD_SIT": "8", "NM_DIST": "Viadutos", "NM_SUBDIST": null}, "geometry": {"type": "Polygon", "coordinates": [[[-51.95288, -27.6435], [-51.95247, -27.64391], [-51.95235, -27.64442], [-51.95206, -27.64453], [-51.952, -27.64494], [-51.95109, -27.64488], [-51.95048, -27.64556], [-51.95194, -27.64592], [-51.95253, -27.64638], [-51.95244, -27.64677], [-51.95113, -27.64862], [-51.95094, -27.64925], [-51.95006, -27.65033], [-51.94949, -27.65143], [-51.94721, -27.6527], [-51.94635, -27.65344], [-51.94525, -27.65503], [-51.94534, -27.65565], [-51.9444, -27.65654], [-51.94383, -27.65741], [-51.94185, -27.65931], [-51.94092, -27.66046], [-51.94072, -27.66113], [-51.93953, -27.66236], [-51.93912, -27.66309], [-51.94718, -27.6654], [-51.9468, -27.66686], [-51.97348, -27.67302], [-51.98215, -27.72039], [-51.98421, -27.71987], [-51.9886, -27.71676], [-51.99131, -27.71022], [-51.99653, -27.70289], [-51.99756, -27.69912], [-52.00047, -27.69615], [-52.00067, -27.69531], [-52.00126, -27.69447], [-52.00087, -27.69389], [-52.00117, -27.69263], [-52.00132, -27.69079], [-52.00094, -27.69026], [-52.00059, -27.68874], [-52.00136, -27.68569], [-52.00119, -27.6855], [-52.00052, -27.68536], [-51.99718, -27.6863], [-51.99664, -27.686], [-51.99636, -27.68522], [-51.99627, -27.68465], [-51.99639, -27.68389], [-51.99706, -27.68217], [-51.99682, -27.68178], [-51.99582, -27.68174], [-51.99594, -27.66931], [-51.9908, -27.66926], [-51.99069, -27.64898], [-51.99048, -27.64862], [-51.98885, -27.64762], [-51.98854, -27.64798], [-51.98704, -27.64764], [-51.98543, -27.64791], [-51.98424, -27.64715], [-51.98372, -27.64635], [-51.98359, -27.64463], [-51.98385, -27.63899], [-51.98352, -27.63837], [-51.98273, -27.63762], [-51.98159, -27.6372], [-51.98006, -27.6371], [-51.97888, -27.63735], [-51.97694, -27.63824], [-51.97608, -27.63903], [-51.97602, -27.64014], [-51.97773, -27.64361], [-51.97822, -27.6486], [-51.97813, -27.652], [-51.97749, -27.65453], [-51.97693, -27.65517], [-51.97631, -27.65534], [-51.97207, -27.65343], [-51.96955, -27.65167], [-51.96752, -27.6506], [-51.96712, -27.64966], [-51.96689, -27.64756], [-51.96833, -27.64336], [-51.97026, -27.64013], [-51.97181, -27.63843], [-51.97363, -27.63706], [-51.97621, -27.63458], [-51.97746, -27.63245], [-51.9774, -27.63153], [-51.97662, -27.62945], [-51.9756, -27.62793], [-51.97394, -27.62608], [-51.97327, -27.62599], [-51.97142, -27.62689], [-51.97043, -27.62787], [-51.96851, -27.62921], [-51.96534, -27.6308], [-51.96329, -27.63228], [-51.96253, -27.63337], [-51.96238, -27.63476], [-51.96259, -27.63707], [-51.96267, -27.64116], [-51.96237, -27.64244], [-51.96188, -27.64342], [-51.96013, -27.64514], [-51.95926, -27.64532], [-51.95676, -27.64477], [-51.9545, -27.64366], [-51.95288, -27.6435]]]}}, 
{"type": "Feature", "properties": {"CD_SETOR": "432290505000015", "CD_SIT": "8", "NM_DIST": "Viadutos", "NM_SUBDIST": null}, "geometry": {"type": "Polygon", "coordinates": [[[-51.97567, -27.5811], [-51.97467, -27.58107], [-51.97379, -27.58163], [-51.97263, -27.58281], [-51.97223, -27.58347], [-51.97202, -27.58428], [-51.97443, -27.58604], [-51.97759, -27.58771], [-51.97805, -27.58778], [-51.9791, -27.58867], [-51.97936, -27.58966], [-51.97917, -27.59085], [-51.98044, -27.59294], [-51.98023, -27.59547], [-51.9818, -27.59922], [-51.98159, -27.60041], [-51.981, -27.6006], [-51.9809, -27.6015], [-51.98048, -27.60274], [-51.98005, -27.60307], [-51.97899, -27.6035], [-51.97834, -27.60328], [-51.97686, -27.60399], [-51.97652, -27.60439], [-51.97639, -27.60543], [-51.9767, -27.60604], [-51.9766, -27.60727], [-51.97694, -27.60831], [-51.97669, -27.6091], [-51.97584, -27.60973], [-51.97605, -27.61034], [-51.97691, -27.61053], [-51.97812, -27.60986], [-51.97872, -27.61004], [-51.97833, -27.61101], [-51.9784, -27.61214], [-51.97883, -27.61333], [-51.97867, -27.61398], [-51.98006, -27.61495], [-51.9806, -27.61481], [-51.98188, -27.61786], [-51.98231, -27.6197], [-51.98086, -27.62123], [-51.98029, -27.6206], [-51.97956, -27.62232], [-51.97926, -27.62267], [-51.97677, -27.62252], [-51.97711, -27.62327], [-51.97666, -27.62361], [-51.97659, -27.62393], [-51.9759, -27.62407], [-51.97576, -27.62439], [-51.97636, -27.62439], [-51.9766, -27.62459], [-51.97637, -27.62492], [-51.97558, -27.62538], [-51.97523, -27.62606], [-51.97441, -27.62659], [-51.9756, -27.62793], [-51.97662, -27.62945], [-51.9774, -27.63153], [-51.97746, -27.63245], [-51.97621, -27.63458], [-51.97363, -27.63706], [-51.97181, -27.63843], [-51.97026, -27.64013], [-51.96833, -27.64336], [-51.96689, -27.64756], [-51.96712, -27.64966], [-51.96752, -27.6506], [-51.96955, -27.65167], [-51.97207, -27.65343], [-51.97631, -27.65534], [-51.97693, -27.65517], [-51.97749, -27.65453], [-51.97813, -27.652], [-51.97822, -27.6486], [-51.97792, -27.64471], [-51.97773, -27.64361], [-51.97602, -27.64014], [-51.97608, -27.63903], [-51.97694, -27.63824], [-51.97888, -27.63735], [-51.98006, -27.6371], [-51.98159, -27.6372], [-51.98273, -27.63762], [-51.98352, -27.63837], [-51.98385, -27.63899], [-51.98359, -27.64463], [-51.98372, -27.64635], [-51.98424, -27.64715], [-51.98543, -27.64791], [-51.98704, -27.64764], [-51.98854, -27.64798], [-51.98899, -27.6474], [-51.98901, -27.64676], [-51.98811, -27.64447], [-51.98733, -27.64174], [-51.98706, -27.63947], [-51.98731, -27.63891], [-51.98901, -27.63882], [-51.99048, -27.63907], [-51.99191, -27.63907], [-51.9943, -27.63966], [-51.99666, -27.63964], [-51.99835, -27.64011], [-52.00085, -27.64051], [-52.00187, -27.64054], [-52.00246, -27.64032], [-52.0018, -27.63731], [-52.00194, -27.63617], [-52.00245, -27.63497], [-52.00307, -27.63463], [-52.00618, -27.63481], [-52.00745, -27.63512], [-52.00774, -27.63509], [-52.00777, -27.63479], [-52.00825, -27.63451], [-52.00834, -27.63371], [-52.00811, -27.63333], [-52.00871, -27.63251], [-52.00951, -27.63204], [-52.00929, -27.63124], [-52.00946, -27.63009], [-52.0084, -27.62846], [-52.00926, -27.62621], [-52.00906, -27.62529], [-52.00939, -27.62397], [-52.00789, -27.62366], [-52.00737, -27.6233], [-52.0066, -27.62233], [-52.00645, -27.62182], [-52.00646, -27.62029], [-52.00749, -27.6183], [-52.0085, -27.61708], [-52.00989, -27.616], [-52.01239, -27.61122], [-52.01266, -27.61001], [-52.01325, -27.60916], [-52.01364, -27.60793], [-52.01504, -27.60655], [-52.01647, -27.60549], [-52.01885, -27.60465], [-52.02044, -27.60353], [-52.02067, -27.60304], [-52.01945, -27.6031], [-52.01857, -27.60292], [-52.02105, -27.60017], [-52.0222, -27.59848], [-52.02219, -27.59793], [-52.02188, -27.59707], [-52.02119, -27.59661], [-52.02065, -27.59594], [-52.02023, -27.59577], [-52.02002, -27.59527], [-52.02029, -27.59427], [-52.0207, -27.59376], [-52.02092, -27.59315], [-52.02131, -27.59291], [-52.0226, -27.59282], [-52.0218, -27.59158], [-52.0218, -27.59005], [-52.02212, -27.58864], [-52.0225, -27.58773], [-52.02221, -27.58698], [-52.02188, -27.58669], [-52.02173, -27.58574], [-52.02209, -27.58506], [-52.02208, -27.58424], [-52.02288, -27.58289], [-52.02327, -27.58246], [-52.02404, -27.58218], [-52.0226, -27.58162], [-52.02214, -27.58162], [-52.02123, -27.58208], [-52.02084, -27.58206], [-52.01914, -27.58137], [-52.01662, -27.58111], [-52.01579, -27.58077], [-52.01546, -27.58075], [-52.01478, -27.58117], [-52.01338, -27.58097], [-52.01162, -27.57926], [-52.00928, -27.5802], [-52.0087, -27.58068], [-52.00712, -27.58266], [-52.00602, -27.58486], [-52.00561, -27.58537], [-52.00501, -27.58515], [-52.00532, -27.58327], [-52.00513, -27.58269], [-52.00475, -27.58224], [-52.00383, -27.58164], [-52.00225, -27.58155], [-52.00193, -27.5814], [-52.00095, -27.58022], [-51.99956, -27.58028], [-51.99809, -27.58085], [-51.99766, -27.58147], [-51.99659, -27.58238], [-51.99596, -27.58308], [-51.99561, -27.58436], [-51.99486, -27.58489], [-51.99303, -27.5855], [-51.99182, -27.58532], [-51.99029, -27.58447], [-51.98933, -27.58193], [-51.98895, -27.58149], [-51.98835, -27.58138], [-51.98613, -27.58166], [-51.9834, -27.58143], [-51.98238, -27.58163], [-51.9797, -27.58292], [-51.9789, -27.58301], [-51.9783, -27.58278], [-51.97567, -27.5811]]]}}, 
{"type": "Feature", "properties": {"CD_SETOR": "432290505000016", "CD_SIT": "8", "NM_DIST": "Viadutos", "NM_SUBDIST": null}, "geometry": {"type": "Polygon", "coordinates": [[[-52.03652, -27.58193], [-52.03664, -27.5822], [-52.03641, -27.58249], [-52.03441, -27.58461], [-52.03306, -27.58404], [-52.03237, -27.58358], [-52.03209, -27.5837], [-52.02996, -27.58685], [-52.02811, -27.58476], [-52.02811, -27.5844], [-52.02795, -27.58426], [-52.02632, -27.58379], [-52.0259, -27.58323], [-52.02558, -27.58309], [-52.02519, -27.58247], [-52.02386, -27.58207], [-52.02404, -27.58218], [-52.02327, -27.58246], [-52.02288, -27.58289], [-52.02208, -27.58424], [-52.02209, -27.58506], [-52.02173, -27.58574], [-52.02188, -27.58669], [-52.02221, -27.58698], [-52.0225, -27.58773], [-52.02212, -27.58864], [-52.0218, -27.59005], [-52.0218, -27.59158], [-52.0226, -27.59282], [-52.02131, -27.59291], [-52.02092, -27.59315], [-52.0207, -27.59376], [-52.02029, -27.59427], [-52.02002, -27.59527], [-52.02023, -27.59577], [-52.02065, -27.59594], [-52.02119, -27.59661], [-52.02188, -27.59707], [-52.02219, -27.59793], [-52.0222, -27.59848], [-52.02105, -27.60017], [-52.01857, -27.60292], [-52.01945, -27.6031], [-52.02067, -27.60304], [-52.02044, -27.60353], [-52.01972, -27.60414], [-52.01885, -27.60465], [-52.01647, -27.60549], [-52.01504, -27.60655], [-52.01364, -27.60793], [-52.01325, -27.60916], [-52.01266, -27.61001], [-52.01239, -27.61122], [-52.00989, -27.616], [-52.0085, -27.61708], [-52.00749, -27.6183], [-52.00646, -27.62029], [-52.00645, -27.62182], [-52.0066, -27.62233], [-52.00737, -27.6233], [-52.00789, -27.62366], [-52.00939, -27.62397], [-52.00906, -27.62529], [-52.00926, -27.62621], [-52.0084, -27.62846], [-52.00946, -27.63009], [-52.00929, -27.63124], [-52.00951, -27.63204], [-52.00871, -27.63251], [-52.00824, -27.63306], [-52.00811, -27.63333], [-52.00834, -27.63371], [-52.0082, -27.63407], [-52.00831, -27.63439], [-52.00777, -27.63479], [-52.00774, -27.63509], [-52.00914, -27.63468], [-52.01065, -27.63487], [-52.01089, -27.63509], [-52.01097, -27.63567], [-52.01206, -27.63663], [-52.01234, -27.63714], [-52.01227, -27.63735], [-52.01118, -27.63777], [-52.00786, -27.63816], [-52.00716, -27.6385], [-52.00645, -27.63939], [-52.00665, -27.63982], [-52.00706, -27.64008], [-52.00787, -27.64172], [-52.00829, -27.64216], [-52.00883, -27.64318], [-52.00883, -27.64364], [-52.0073, -27.64613], [-52.00675, -27.64786], [-52.00677, -27.64815], [-52.00714, -27.64834], [-52.00791, -27.64939], [-52.01096, -27.65021], [-52.01326, -27.65036], [-52.01595, -27.64838], [-52.01683, -27.64746], [-52.01778, -27.64594], [-52.01882, -27.64471], [-52.01924, -27.64364], [-52.02213, -27.64327], [-52.02498, -27.64328], [-52.02582, -27.64314], [-52.027, -27.64331], [-52.02927, -27.64244], [-52.03307, -27.63963], [-52.03399, -27.63922], [-52.03491, -27.6394], [-52.03553, -27.64132], [-52.03736, -27.64409], [-52.0412, -27.64552], [-52.04112, -27.5951], [-52.04289, -27.59511], [-52.04554, -27.59236], [-52.04675, -27.59227], [-52.047, -27.5908], [-52.04733, -27.59051], [-52.0466, -27.5905], [-52.04538, -27.58995], [-52.04354, -27.59072], [-52.04282, -27.59035], [-52.04264, -27.58945], [-52.04494, -27.58763], [-52.04544, -27.58693], [-52.04574, -27.58598], [-52.04622, -27.58519], [-52.047, -27.58427], [-52.04718, -27.58338], [-52.04678, -27.58193], [-52.04619, -27.58129], [-52.04455, -27.5803], [-52.04379, -27.58026], [-52.04232, -27.58062], [-52.04101, -27.58118], [-52.04026, -27.58128], [-52.03805, -27.58086], [-52.03735, -27.5812], [-52.03652, -27.58193]]]}}]}