{"type": "FeatureCollection", "features": [
{"type": "Feature", "properties": {"CD_SETOR": "500769505000001", "CD_SIT": "1", "NM_DIST": "São Gabriel do Oeste", "NM_SUBDIST": null}, "geometry": {"type": "Polygon", "coordinates": [[[-54.56126, -19.39593], [-54.56581, -19.39847], [-54.56795, -19.39497], [-54.56379, -19.39258], [-54.56271, -19.39348], [-54.56126, -19.39593]]]}}, 
{"type": "Feature", "properties": {"CD_SETOR": "500769505000002", "CD_SIT": "1", "NM_DIST": "São Gabriel do Oeste", "NM_SUBDIST": null}, "geometry": {"type": "Polygon", "coordinates": [[[-54.56581, -19.39847], [-54.5633, -19.40268], [-54.56528, -19.40379], [-54.56574, -19.40299], [-54.5683, -19.4044], [-54.5725, -19.39748], [-54.56795, -19.39497], [-54.56581, -19.39847]]]}}, 
{"type": "Feature", "properties": {"CD_SETOR": "500769505000003", "CD_SIT": "1", "NM_DIST": "São Gabriel do Oeste", "NM_SUBDIST": null}, "geometry": {"type": "Polygon", "coordinates": [[[-54.5683, -19.4044], [-54.57254, -19.40669], [-54.57534, -19.40221], [-54.57106, -19.39984], [-54.5683, -19.4044]]]}}, 
{"type": "Feature", "properties": {"CD_SETOR": "500769505000004", "CD_SIT": "1", "NM_DIST": "São Gabriel do Oeste", "NM_SUBDIST": null}, "geometry": {"type": "Polygon", "coordinates": [[[-54.57621, -19.40267], [-54.57346, -19.40721], [-54.57624, -19.40877], [-54.57978, -19.40303], [-54.57849, -19.40235], [-54.57777, -19.40355], [-54.57621, -19.40267]]]}}, 
{"type": "Feature", "properties": {"CD_SETOR": "500769505000006", "CD_SIT": "1", "NM_DIST": "São Gabriel do Oeste", "NM_SUBDIST": null}, "geometry": {"type": "Polygon", "coordinates": [[[-54.57534, -19.40221], [-54.57254, -19.40669], [-54.57346, -19.40721], [-54.57964, -19.39692], [-54.57888, -19.39647], [-54.57534, -19.40221]]]}}, 
{"type": "Feature", "properties": {"CD_SETOR": "500769505000007", "CD_SIT": "1", "NM_DIST": "São Gabriel do Oeste", "NM_SUBDIST": null}, "geometry": {"type": "Polygon", "coordinates": [[[-54.5725, -19.39748], [-54.57106, -19.39984], [-54.57534, -19.40221], [-54.57888, -19.39647], [-54.57459, -19.39409], [-54.5725, -19.39748]]]}}, 
{"type": "Feature", "properties": {"CD_SETOR": "500769505000008", "CD_SIT": "1", "NM_DIST": "São Gabriel do Oeste", "NM_SUBDIST": null}, "geometry": {"type": "Polygon", "coordinates": [[[-54.57011, -19.3916], [-54.57459, -19.39409], [-54.57677, -19.39058], [-54.57234, -19.38805], [-54.57011, -19.3916]]]}}, 
{"type": "Feature", "properties": {"CD_SETOR": "500769505000009", "CD_SIT": "1", "NM_DIST": "São Gabriel do Oeste", "NM_SUBDIST": null}, "geometry": {"type": "Polygon", "coordinates": [[[-54.55966, -19.39538], [-54.56084, -19.39655], [-54.56271, -19.39348], [-54.56379, -19.39258], [-54.56795, -19.39497], [-54.57436, -19.38482], [-54.57092, -19.38493], [-54.57034, -19.38449], [-54.56877, -19.38603], [-54.56665, -19.38685], [-54.56617, -19.38772], [-54.56553, -19.38815], [-54.56483, -19.38914], [-54.5642, -19.38956], [-54.56383, -19.39049], [-54.56317, -19.39101], [-54.56284, -19.39159], [-54.56242, -19.39181], [-54.56224, -19.39229], [-54.56167, -19.39273], [-54.56132, -19.39338], [-54.5609, -19.39356], [-54.55966, -19.39538]]]}}, 
{"type": "Feature", "properties": {"CD_SETOR": "500769505000010", "CD_SIT": "1", "NM_DIST": "São Gabriel do Oeste", "NM_SUBDIST": null}, "geometry": {"type": "Polygon", "coordinates": [[[-54.57234, -19.38805], [-54.57677, -19.39058], [-54.57459, -19.39409], [-54.57964, -19.39692], [-54.58256, -19.39227], [-54.57301, -19.38698], [-54.57234, -19.38805]], [[-54.5771, -19.39017], [-54.57719, -19.39001], [-54.57741, -19.39013], [-54.57732, -19.39028], [-54.5771, -19.39017]]]}}, 
{"type": "Feature", "properties": {"CD_SETOR": "500769505000011", "CD_SIT": "1", "NM_DIST": "São Gabriel do Oeste", "NM_SUBDIST": null}, "geometry": {"type": "Polygon", "coordinates": [[[-54.57964, -19.39692], [-54.58194, -19.39819], [-54.58298, -19.39649], [-54.58236, -19.39611], [-54.58421, -19.39313], [-54.58256, -19.39227], [-54.57964, -19.39692]]]}}, 
{"type": "Feature", "properties": {"CD_SETOR": "500769505000012", "CD_SIT": "1", "NM_DIST": "São Gabriel do Oeste", "NM_SUBDIST": null}, "geometry": {"type": "Polygon", "coordinates": [[[-54.57933, -19.38725], [-54.57786, -19.3896], [-54.58047, -19.39111], [-54.58273, -19.38746], [-54.58078, -19.3864], [-54.58061, -19.38614], [-54.5799, -19.38756], [-54.57933, -19.38725]]]}}, 
{"type": "Feature", "properties": {"CD_SETOR": "500769505000014", "CD_SIT": "1", "NM_DIST": "São Gabriel do Oeste", "NM_SUBDIST": null}, "geometry": {"type": "Polygon", "coordinates": [[[-54.58574, -19.37526], [-54.58883, -19.37701], [-54.59107, -19.37336], [-54.58799, -19.37163], [-54.58574, -19.37526]]]}}, 
{"type": "Feature", "properties": {"CD_SETOR": "500769505000016", "CD_SIT": "1", "NM_DIST": "São Gabriel do Oeste", "NM_SUBDIST": null}, "geometry": {"type": "Polygon", "coordinates": [[[-54.57708, -19.38032], [-54.57997, -19.3819], [-54.58225, -19.37823], [-54.57935, -19.37657], [-54.57708, -19.38032]]]}}, 
{"type": "Feature", "properties": {"CD_SETOR": "500769505000017", "CD_SIT": "1", "NM_DIST": "São Gabriel do Oeste", "NM_SUBDIST": null}, "geometry": {"type": "Polygon", "coordinates": [[[-54.57935, -19.37657], [-54.58225, -19.37823], [-54.5845, -19.37458], [-54.5816, -19.37292], [-54.57935, -19.37657]]]}}, 
{"type": "Feature", "properties": {"CD_SETOR": "500769505000019", "CD_SIT": "1", "NM_DIST": "São Gabriel do Oeste", "NM_SUBDIST": null}, "geometry": {"type": "Polygon", "coordinates": [[[-54.5771, -19.39017], [-54.57732, -19.39028], [-54.57741, -19.39013], [-54.57719, -19.39001], [-54.5771, -19.39017]]]}}, 
{"type": "Feature", "properties": {"CD_SETOR": "500769505000020", "CD_SIT": "8", "NM_DIST": "São Gabriel do Oeste", "NM_SUBDIST": null}, "geometry": {"type": "Polygon", "coordinates": [[[-54.62585, -19.30485], [-54.62773, -19.30252], [-54.6382, -19.29107], [-54.64704, -19.28166], [-54.61641, -19.26522], [-54.61307, -19.26716], [-54.60673, -19.27284], [-54.60274, -19.27404], [-54.6031, -19.26865], [-54.60046, -19.26138], [-54.55942, -19.25531], [-54.55412, -19.26154], [-54.55582, -19.26198], [-54.55088, -19.27578], [-54.57431, -19.28123], [-54.58081, -19.28366], [-54.58212, -19.28475], [-54.58192, -19.28529], [-54.58625, -19.28715], [-54.58902, -19.29205], [-54.58949, -19.29259], [-54.58755, -19.29563], [-54.60264, -19.30051], [-54.62585, -19.30485]]]}}, 
{"type": "Feature", "properties": {"CD_SETOR": "500769505000021", "CD_SIT": "8", "NM_DIST": "São Gabriel do Oeste", "NM_SUBDIST": null}, "geometry": {"type": "Polygon", "coordinates": [[[-54.64704, -19.28166], [-54.62773, -19.30252], [-54.61827, -19.31422], [-54.61413, -19.32039], [-54.58291, -19.37075], [-54.58468, -19.37018], [-54.60103, -19.3682], [-54.61213, -19.36662], [-54.61432, -19.38004], [-54.61279, -19.38312], [-54.60967, -19.38336], [-54.60835, -19.38368], [-54.60443, -19.38577], [-54.60286, -19.38596], [-54.60501, -19.38878], [-54.60551, -19.3901], [-54.60595, -19.3924], [-54.60667, -19.39417], [-54.59257, -19.39782], [-54.58926, -19.39601], [-54.58004, -19.4111], [-54.57624, -19.40877], [-54.56574, -19.40299], [-54.56528, -19.40379], [-54.5633, -19.40268], [-54.5593, -19.40864], [-54.55711, -19.41233], [-54.55484, -19.41521], [-54.54993, -19.42017], [-54.53945, -19.43142], [-54.53895, -19.43598], [-54.53848, -19.44519], [-54.53639, -19.45267], [-54.52987, -19.45837], [-54.52351, -19.46438], [-54.51994, -19.4709], [-54.51682, -19.48105], [-54.51704, -19.48778], [-54.52009, -19.49345], [-54.52332, -19.49803], [-54.52654, -19.5037], [-54.536, -19.51103], [-54.53703, -19.51607], [-54.53752, -19.51957], [-54.53911, -19.52366], [-54.5384, -19.52693], [-54.53117, -19.53846], [-54.54464, -19.53615], [-54.55121, -19.53132], [-54.56813, -19.5019], [-54.62245, -19.44543], [-54.62541, -19.43155], [-54.64065, -19.40375], [-54.64493, -19.39938], [-54.66016, -19.36819], [-54.67708, -19.33407], [-54.68766, -19.32036], [-54.6896, -19.3181], [-54.70952, -19.30379], [-54.71075, -19.30333], [-54.71701, -19.2968], [-54.7267, -19.2876], [-54.74899, -19.26563], [-54.74952, -19.26431], [-54.7498, -19.26293], [-54.74985, -19.26067], [-54.7492, -19.25733], [-54.74137, -19.2292], [-54.7566, -19.22857], [-54.76628, -19.22523], [-54.77624, -19.21877], [-54.78271, -19.21004], [-54.78947, -19.20511], [-54.79726, -19.20264], [-54.80533, -19.20115], [-54.80528, -19.19846], [-54.80566, -19.1952], [-54.80553, -19.19359], [-54.80528, -19.19287], [-54.80436, -19.19185], [-54.80263, -19.19039], [-54.79921, -19.18803], [-54.79481, -19.18397], [-54.79364, -19.18235], [-54.79086, -19.17659], [-54.78884, -19.17296], [-54.788, -19.17195], [-54.7861, -19.17041], [-54.78435, -19.16938], [-54.78215, -19.16873], [-54.78066, -19.16849], [-54.7746, -19.16558], [-54.77144, -19.16471], [-54.76971, -19.16394], [-54.76897, -19.16378], [-54.76499, -19.16377], [-54.76347, -19.16298], [-54.76223, -19.16262], [-54.7616, -19.16183], [-54.75991, -19.16168], [-54.75891, -19.16131], [-54.75496, -19.1737], [-54.74793, -19.19304], [-54.74132, -19.21215], [-54.74044, -19.21403], [-54.73865, -19.21554], [-54.71754, -19.22309], [-54.6837, -19.23285], [-54.66419, -19.25984], [-54.65823, -19.26843], [-54.65316, -19.27439], [-54.65022, -19.27828], [-54.64704, -19.28166]]]}}, 
{"type": "Feature", "properties": {"CD_SETOR": "500769505000022", "CD_SIT": "8", "NM_DIST": "São Gabriel do Oeste", "NM_SUBDIST": null}, "geometry": {"type": "Polygon", "coordinates": [[[-54.55121, -19.53132], [-54.55552, -19.53643], [-54.55638, -19.53713], [-54.55776, -19.53873], [-54.55986, -19.54037], [-54.56533, -19.54286], [-54.56663, -19.54378], [-54.56797, -19.54528], [-54.56947, -19.54646], [-54.57254, -19.54838], [-54.57447, -19.54996], [-54.57655, -19.55214], [-54.57783, -19.55394], [-54.57843, -19.55537], [-54.57864, -19.55663], [-54.57908, -19.558], [-54.57994, -19.55931], [-54.58058, -19.55989], [-54.58268, -19.56153], [-54.58372, -19.56186], [-54.58624, -19.56343], [-54.589, -19.56473], [-54.59059, -19.56494], [-54.5925, -19.56425], [-54.59454, -19.56242], [-54.59569, -19.56162], [-54.59754, -19.56085], [-54.59805, -19.56079], [-54.59947, -19.56116], [-54.60016, -19.56162], [-54.60169, -19.56316], [-54.60261, -19.56467], [-54.60304, -19.56497], [-54.60414, -19.56516], [-54.61289, -19.56431], [-54.61797, -19.56338], [-54.62123, -19.56182], [-54.62154, -19.5618], [-54.62261, -19.56218], [-54.62333, -19.56216], [-54.6243, -19.56178], [-54.62624, -19.56061], [-54.62743, -19.56056], [-54.6291, -19.56193], [-54.63187, -19.56325], [-54.63411, -19.56556], [-54.6344, -19.5663], [-54.63443, -19.56829], [-54.63491, -19.56948], [-54.63483, -19.5699], [-54.63422, -19.57081], [-54.63423, -19.57109], [-54.63583, -19.57295], [-54.6369, -19.57336], [-54.63741, -19.57434], [-54.6381, -19.575], [-54.6389, -19.57772], [-54.63916, -19.578], [-54.64085, -19.57868], [-54.64706, -19.58035], [-54.65062, -19.58081], [-54.65107, -19.58113], [-54.6515, -19.58188], [-54.65259, -19.58266], [-54.655, -19.58329], [-54.65645, -19.58411], [-54.65854, -19.58499], [-54.65957, -19.58587], [-54.66047, -19.58731], [-54.66199, -19.58802], [-54.66254, -19.58845], [-54.66327, -19.59028], [-54.66416, -19.59138], [-54.66453, -19.59246], [-54.66714, -19.59359], [-54.66805, -19.59517], [-54.6692, -19.59539], [-54.67476, -19.59536], [-54.67509, -19.59558], [-54.67544, -19.5965], [-54.67621, -19.59689], [-54.67662, -19.59685], [-54.68169, -19.59547], [-54.68379, -19.59404], [-54.68452, -19.59373], [-54.68542, -19.59363], [-54.68719, -19.594], [-54.68784, -19.59351], [-54.68851, -19.59236], [-54.69042, -19.59117], [-54.69152, -19.59069], [-54.69406, -19.59016], [-54.69714, -19.58999], [-54.69844, -19.5902], [-54.69899, -19.59175], [-54.69927, -19.59212], [-54.69961, -19.5922], [-54.70075, -19.59202], [-54.70205, -19.59273], [-54.70327, -19.59245], [-54.70517, -19.59097], [-54.70591, -19.5906], [-54.70628, -19.59064], [-54.70734, -19.59144], [-54.71133, -19.59137], [-54.71168, -19.59157], [-54.71237, -19.59283], [-54.71398, -19.59267], [-54.71518, -19.59322], [-54.71563, -19.59373], [-54.71633, -19.59522], [-54.71973, -19.59797], [-54.72063, -19.59825], [-54.72264, -19.59777], [-54.72179, -19.59596], [-54.72202, -19.59557], [-54.7206, -19.59382], [-54.72056, -19.59343], [-54.72073, -19.5931], [-54.72229, -19.5922], [-54.72552, -19.59114], [-54.72672, -19.59047], [-54.72703, -19.59004], [-54.72722, -19.5891], [-54.72801, -19.58784], [-54.72832, -19.58697], [-54.7282, -19.58652], [-54.72788, -19.58629], [-54.72705, -19.58613], [-54.7249, -19.58611], [-54.72401, -19.58577], [-54.72354, -19.58524], [-54.72329, -19.58401], [-54.72366, -19.58275], [-54.72355, -19.58138], [-54.72409, -19.58056], [-54.72451, -19.5792], [-54.72387, -19.5786], [-54.72391, -19.57794], [-54.72419, -19.57755], [-54.72459, -19.57736], [-54.72556, -19.5773], [-54.72634, -19.57704], [-54.72741, -19.57703], [-54.72792, -19.57676], [-54.72787, -19.57604], [-54.72697, -19.57467], [-54.72693, -19.57405], [-54.72711, -19.57369], [-54.72744, -19.57362], [-54.72849, -19.57384], [-54.73058, -19.57372], [-54.73139, -19.57336], [-54.732, -19.57222], [-54.73312, -19.5688], [-54.73326, -19.56733], [-54.73318, -19.5653], [-54.73274, -19.56359], [-54.73206, -19.56194], [-54.73076, -19.56012], [-54.72854, -19.56018], [-54.72814, -19.55998], [-54.72801, -19.5597], [-54.72827, -19.55934], [-54.7302, -19.55833], [-54.73099, -19.55706], [-54.73137, -19.55671], [-54.73449, -19.55592], [-54.73567, -19.5543], [-54.73655, -19.55341], [-54.73681, -19.5529], [-54.73666, -19.55241], [-54.7358, -19.55148], [-54.73574, -19.55106], [-54.73648, -19.54897], [-54.73645, -19.54866], [-54.73585, -19.54811], [-54.73414, -19.54744], [-54.73282, -19.54652], [-54.73135, -19.5448], [-54.73094, -19.54406], [-54.73093, -19.54365], [-54.73279, -19.54374], [-54.73365, -19.54363], [-54.73968, -19.54137], [-54.74247, -19.54082], [-54.74418, -19.54082], [-54.74555, -19.54039], [-54.74671, -19.53948], [-54.74716, -19.53891], [-54.7482, -19.53688], [-54.7488, -19.53453], [-54.74906, -19.53237], [-54.74892, -19.53146], [-54.74867, -19.53095], [-54.74657, -19.52801], [-54.74618, -19.52704], [-54.74628, -19.52619], [-54.74749, -19.52264], [-54.74745, -19.52201], [-54.74714, -19.52144], [-54.74577, -19.51983], [-54.74531, -19.51953], [-54.74359, -19.52014], [-54.74304, -19.52005], [-54.74133, -19.51918], [-54.73925, -19.5198], [-54.73884, -19.51976], [-54.73849, -19.51947], [-54.73829, -19.51903], [-54.73803, -19.51683], [-54.73756, -19.51634], [-54.73683, -19.51645], [-54.73543, -19.51768], [-54.73514, -19.51764], [-54.73496, -19.51731], [-54.73489, -19.51642], [-54.73575, -19.51369], [-54.73576, -19.51263], [-54.73608, -19.51231], [-54.73739, -19.5119], [-54.73757, -19.51152], [-54.7375, -19.51091], [-54.73703, -19.51019], [-54.7362, -19.50974], [-54.73292, -19.50974], [-54.73235, -19.50933], [-54.73248, -19.50877], [-54.73356, -19.50753], [-54.73575, -19.50743], [-54.73722, -19.50685], [-54.73755, -19.50645], [-54.73857, -19.50402], [-54.73944, -19.50268], [-54.74021, -19.50201], [-54.7425, -19.50061], [-54.74319, -19.4999], [-54.74341, -19.49878], [-54.74459, -19.49841], [-54.74607, -19.49831], [-54.74719, -19.49802], [-54.75065, -19.49542], [-54.7529, -19.49468], [-54.75705, -19.49298], [-54.75859, -19.49206], [-54.76048, -19.49145], [-54.76148, -19.49092], [-54.76448, -19.48846], [-54.76735, -19.48684], [-54.7695, -19.48449], [-54.77667, -19.47866], [-54.78049, -19.47462], [-54.78216, -19.47401], [-54.78379, -19.4741], [-54.78455, -19.47395], [-54.78538, -19.47356], [-54.78627, -19.47288], [-54.78722, -19.47151], [-54.78828, -19.46945], [-54.78883, -19.466], [-54.79002, -19.46296], [-54.79276, -19.45893], [-54.79346, -19.45713], [-54.79491, -19.45542], [-54.79067, -19.45238], [-54.78681, -19.44831], [-54.78196, -19.44282], [-54.78017, -19.43996], [-54.77855, -19.4367], [-54.77879, -19.43408], [-54.78255, -19.42676], [-54.78218, -19.42546], [-54.77992, -19.42337], [-54.77978, -19.42306], [-54.7798, -19.42163], [-54.77938, -19.42092], [-54.76732, -19.40736], [-54.76682, -19.40622], [-54.76671, -19.40534], [-54.76663, -19.40059], [-54.76632, -19.39982], [-54.76356, -19.39544], [-54.76103, -19.39229], [-54.75446, -19.38648], [-54.75329, -19.38392], [-54.74725, -19.37549], [-54.74568, -19.37012], [-54.74282, -19.3644], [-54.74136, -19.35829], [-54.74021, -19.3479], [-54.73758, -19.34274], [-54.73657, -19.33916], [-54.72934, -19.33221], [-54.7272, -19.32605], [-54.72622, -19.31991], [-54.7244, -19.31453], [-54.72244, -19.31212], [-54.71075, -19.30333], [-54.70952, -19.30379], [-54.6896, -19.3181], [-54.68766, -19.32036], [-54.67708, -19.33407], [-54.66016, -19.36819], [-54.64493, -19.39938], [-54.64065, -19.40375], [-54.62541, -19.43155], [-54.62245, -19.44543], [-54.56813, -19.5019], [-54.55121, -19.53132]]]}}, 
{"type": "Feature", "properties": {"CD_SETOR": "500769505000024", "CD_SIT": "1", "NM_DIST": "São Gabriel do Oeste", "NM_SUBDIST": null}, "geometry": {"type": "Polygon", "coordinates": [[[-54.55637, -19.39866], [-54.55654, -19.39939], [-54.55716, -19.39973], [-54.55901, -19.40243], [-54.56042, -19.40373], [-54.56206, -19.40459], [-54.56581, -19.39847], [-54.56126, -19.39593], [-54.56084, -19.39655], [-54.55966, -19.39538], [-54.55875, -19.39624], [-54.55819, -19.39731], [-54.55728, -19.39786], [-54.55684, -19.39827], [-54.55676, -19.39861], [-54.55637, -19.39866]]]}}, 
{"type": "Feature", "properties": {"CD_SETOR": "500769505000025", "CD_SIT": "1", "NM_DIST": "São Gabriel do Oeste", "NM_SUBDIST": null}, "geometry": {"type": "Polygon", "coordinates": [[[-54.56795, -19.39497], [-54.5725, -19.39748], [-54.57459, -19.39409], [-54.57011, -19.3916], [-54.56795, -19.39497]]]}}, 
{"type": "Feature", "properties": {"CD_SETOR": "500769505000027", "CD_SIT": "1", "NM_DIST": "São Gabriel do Oeste", "NM_SUBDIST": null}, "geometry": {"type": "Polygon", "coordinates": [[[-54.57301, -19.38698], [-54.57786, -19.3896], [-54.57933, -19.38725], [-54.57725, -19.38618], [-54.5778, -19.3853], [-54.57478, -19.38482], [-54.57436, -19.38482], [-54.57301, -19.38698]]]}}, 
{"type": "Feature", "properties": {"CD_SETOR": "500769505000028", "CD_SIT": "1", "NM_DIST": "São Gabriel do Oeste", "NM_SUBDIST": null}, "geometry": {"type": "Polygon", "coordinates": [[[-54.58919, -19.36966], [-54.58799, -19.37163], [-54.58984, -19.37269], [-54.59098, -19.37082], [-54.5914, -19.37106], [-54.59253, -19.36923], [-54.58919, -19.36966]]]}}, 
{"type": "Feature", "properties": {"CD_SETOR": "500769505000029", "CD_SIT": "1", "NM_DIST": "São Gabriel do Oeste", "NM_SUBDIST": null}, "geometry": {"type": "Polygon", "coordinates": [[[-54.5852, -19.37744], [-54.5812, -19.38391], [-54.58056, -19.38505], [-54.58223, -19.3849], [-54.58757, -19.37628], [-54.58574, -19.37526], [-54.5852, -19.37615], [-54.5858, -19.37649], [-54.5852, -19.37744]]]}}, 
{"type": "Feature", "properties": {"CD_SETOR": "500769505000030", "CD_SIT": "1", "NM_DIST": "São Gabriel do Oeste", "NM_SUBDIST": null}, "geometry": {"type": "Polygon", "coordinates": [[[-54.58225, -19.37823], [-54.58112, -19.38008], [-54.58293, -19.38111], [-54.5852, -19.37744], [-54.58338, -19.3764], [-54.58225, -19.37823]]]}}, 
{"type": "Feature", "properties": {"CD_SETOR": "500769505000031", "CD_SIT": "1", "NM_DIST": "São Gabriel do Oeste", "NM_SUBDIST": null}, "geometry": {"type": "Polygon", "coordinates": [[[-54.57997, -19.3819], [-54.57825, -19.3847], [-54.5778, -19.3853], [-54.58056, -19.38505], [-54.58293, -19.38111], [-54.58112, -19.38008], [-54.57997, -19.3819]]]}}, 
{"type": "Feature", "properties": {"CD_SETOR": "500769505000032", "CD_SIT": "1", "NM_DIST": "São Gabriel do Oeste", "NM_SUBDIST": null}, "geometry": {"type": "Polygon", "coordinates": [[[-54.57436, -19.38482], [-54.5778, -19.3853], [-54.57997, -19.3819], [-54.57708, -19.38032], [-54.57436, -19.38482]]]}}, 
{"type": "Feature", "properties": {"CD_SETOR": "500769505000034", "CD_SIT": "1", "NM_DIST": "São Gabriel do Oeste", "NM_SUBDIST": null}, "geometry": {"type": "Polygon", "coordinates": [[[-54.58223, -19.3849], [-54.58768, -19.38305], [-54.58988, -19.3825], [-54.59067, -19.38249], [-54.59249, -19.3796], [-54.58898, -19.3776], [-54.58923, -19.37722], [-54.58757, -19.37628], [-54.58223, -19.3849]]]}}, 
{"type": "Feature", "properties": {"CD_SETOR": "500769505000035", "CD_SIT": "1", "NM_DIST": "São Gabriel do Oeste", "NM_SUBDIST": null}, "geometry": {"type": "Polygon", "coordinates": [[[-54.57624, -19.40877], [-54.58004, -19.4111], [-54.58355, -19.40526], [-54.57978, -19.40303], [-54.57624, -19.40877]]]}}, 
{"type": "Feature", "properties": {"CD_SETOR": "500769505000037", "CD_SIT": "1", "NM_DIST": "São Gabriel do Oeste", "NM_SUBDIST": null}, "geometry": {"type": "Polygon", "coordinates": [[[-54.58291, -19.37075], [-54.5816, -19.37292], [-54.5845, -19.37458], [-54.58739, -19.3699], [-54.58468, -19.37018], [-54.58291, -19.37075]]]}}, 
{"type": "Feature", "properties": {"CD_SETOR": "500769505000039", "CD_SIT": "1", "NM_DIST": "São Gabriel do Oeste", "NM_SUBDIST": null}, "geometry": {"type": "Polygon", "coordinates": [[[-54.58984, -19.37269], [-54.59107, -19.37336], [-54.59337, -19.36972], [-54.59253, -19.36923], [-54.5914, -19.37106], [-54.59098, -19.37082], [-54.58984, -19.37269]]]}}, 
{"type": "Feature", "properties": {"CD_SETOR": "500769505000041", "CD_SIT": "1", "NM_DIST": "São Gabriel do Oeste", "NM_SUBDIST": null}, "geometry": {"type": "Polygon", "coordinates": [[[-54.57835, -19.3992], [-54.58506, -19.4029], [-54.58643, -19.40066], [-54.57964, -19.39692], [-54.57835, -19.3992]]]}}, 
{"type": "Feature", "properties": {"CD_SETOR": "500769505000042", "CD_SIT": "1", "NM_DIST": "São Gabriel do Oeste", "NM_SUBDIST": null}, "geometry": {"type": "Polygon", "coordinates": [[[-54.57621, -19.40267], [-54.57777, -19.40355], [-54.57849, -19.40235], [-54.58355, -19.40526], [-54.58506, -19.4029], [-54.57835, -19.3992], [-54.57621, -19.40267]]]}}, 
{"type": "Feature", "properties": {"CD_SETOR": "500769505000043", "CD_SIT": "1", "NM_DIST": "São Gabriel do Oeste", "NM_SUBDIST": null}, "geometry": {"type": "Polygon", "coordinates": [[[-54.58278, -19.39543], [-54.58788, -19.39825], [-54.58928, -19.39598], [-54.58421, -19.39313], [-54.58278, -19.39543]]]}}, 
{"type": "Feature", "properties": {"CD_SETOR": "500769505000044", "CD_SIT": "1", "NM_DIST": "São Gabriel do Oeste", "NM_SUBDIST": null}, "geometry": {"type": "Polygon", "coordinates": [[[-54.58194, -19.39819], [-54.58643, -19.40066], [-54.58788, -19.39825], [-54.58278, -19.39543], [-54.58236, -19.39611], [-54.58298, -19.39649], [-54.58194, -19.39819]]]}}, 
{"type": "Feature", "properties": {"CD_SETOR": "500769505000045", "CD_SIT": "1", "NM_DIST": "São Gabriel do Oeste", "NM_SUBDIST": null}, "geometry": {"type": "Polygon", "coordinates": [[[-54.58088, -19.39135], [-54.58421, -19.39313], [-54.58571, -19.39077], [-54.58405, -19.38985], [-54.58483, -19.38861], [-54.58315, -19.38771], [-54.58088, -19.39135]]]}}, 
{"type": "Feature", "properties": {"CD_SETOR": "500769505000046", "CD_SIT": "1", "NM_DIST": "São Gabriel do Oeste", "NM_SUBDIST": null}, "geometry": {"type": "Polygon", "coordinates": [[[-54.58047, -19.39111], [-54.58088, -19.39135], [-54.58315, -19.38771], [-54.58273, -19.38746], [-54.58047, -19.39111]]]}}, 
{"type": "Feature", "properties": {"CD_SETOR": "500769505000047", "CD_SIT": "1", "NM_DIST": "São Gabriel do Oeste", "NM_SUBDIST": null}, "geometry": {"type": "Polygon", "coordinates": [[[-54.58223, -19.3849], [-54.5778, -19.3853], [-54.57725, -19.38618], [-54.5799, -19.38756], [-54.58064, -19.38614], [-54.58078, -19.3864], [-54.58315, -19.38771], [-54.58547, -19.38382], [-54.58223, -19.3849]]]}}, 
{"type": "Feature", "properties": {"CD_SETOR": "500769505000048", "CD_SIT": "1", "NM_DIST": "São Gabriel do Oeste", "NM_SUBDIST": null}, "geometry": {"type": "Polygon", "coordinates": [[[-54.58547, -19.38382], [-54.58315, -19.38771], [-54.58483, -19.38861], [-54.58405, -19.38985], [-54.58571, -19.39077], [-54.59067, -19.38249], [-54.58896, -19.38268], [-54.58547, -19.38382]]]}}, 
{"type": "Feature", "properties": {"CD_SETOR": "500769505000049", "CD_SIT": "1", "NM_DIST": "São Gabriel do Oeste", "NM_SUBDIST": null}, "geometry": {"type": "Polygon", "coordinates": [[[-54.59249, -19.3796], [-54.59273, -19.37921], [-54.59024, -19.37775], [-54.58923, -19.37722], [-54.58916, -19.37731], [-54.58898, -19.3776], [-54.59249, -19.3796]]]}}, 
{"type": "Feature", "properties": {"CD_SETOR": "500769505000050", "CD_SIT": "1", "NM_DIST": "São Gabriel do Oeste", "NM_SUBDIST": null}, "geometry": {"type": "Polygon", "coordinates": [[[-54.58883, -19.37701], [-54.58969, -19.37746], [-54.59197, -19.37383], [-54.59107, -19.37336], [-54.58883, -19.37701]]]}}, 
{"type": "Feature", "properties": {"CD_SETOR": "500769505000051", "CD_SIT": "1", "NM_DIST": "São Gabriel do Oeste", "NM_SUBDIST": null}, "geometry": {"type": "Polygon", "coordinates": [[[-54.58969, -19.37746], [-54.59273, -19.37921], [-54.59502, -19.37552], [-54.59197, -19.37383], [-54.58969, -19.37746]]]}}, 
{"type": "Feature", "properties": {"CD_SETOR": "500769505000052", "CD_SIT": "1", "NM_DIST": "São Gabriel do Oeste", "NM_SUBDIST": null}, "geometry": {"type": "Polygon", "coordinates": [[[-54.59107, -19.37336], [-54.59197, -19.37383], [-54.59421, -19.37023], [-54.59337, -19.36972], [-54.59107, -19.37336]]]}}, 
{"type": "Feature", "properties": {"CD_SETOR": "500769505000053", "CD_SIT": "1", "NM_DIST": "São Gabriel do Oeste", "NM_SUBDIST": null}, "geometry": {"type": "Polygon", "coordinates": [[[-54.59197, -19.37383], [-54.59502, -19.37552], [-54.59725, -19.37192], [-54.59421, -19.37023], [-54.59197, -19.37383]]]}}, 
{"type": "Feature", "properties": {"CD_SETOR": "500769505000054", "CD_SIT": "1", "NM_DIST": "São Gabriel do Oeste", "NM_SUBDIST": null}, "geometry": {"type": "Polygon", "coordinates": [[[-54.59273, -19.37921], [-54.59223, -19.38004], [-54.59067, -19.38249], [-54.59129, -19.38238], [-54.59312, -19.38263], [-54.59455, -19.38021], [-54.59273, -19.37921]]]}}, 
{"type": "Feature", "properties": {"CD_SETOR": "500769505000055", "CD_SIT": "2", "NM_DIST": "São Gabriel do Oeste", "NM_SUBDIST": null}, "geometry": {"type": "Polygon", "coordinates": [[[-54.59253, -19.36923], [-54.59725, -19.37192], [-54.59276, -19.37917], [-54.59455, -19.38021], [-54.59312, -19.38263], [-54.5945, -19.3834], [-54.59656, -19.38422], [-54.59886, -19.38597], [-54.60286, -19.38596], [-54.60443, -19.38577], [-54.60835, -19.38368], [-54.60967, -19.38336], [-54.61279, -19.38312], [-54.61432, -19.38004], [-54.61213, -19.36662], [-54.60103, -19.3682], [-54.59253, -19.36923]]]}}, 
{"type": "Feature", "properties": {"CD_SETOR": "500769505000056", "CD_SIT": "1", "NM_DIST": "São Gabriel do Oeste", "NM_SUBDIST": null}, "geometry": {"type": "Polygon", "coordinates": [[[-54.59067, -19.38249], [-54.58421, -19.39313], [-54.58928, -19.39598], [-54.59228, -19.39134], [-54.59657, -19.38423], [-54.5945, -19.3834], [-54.59312, -19.38263], [-54.59129, -19.38238], [-54.59067, -19.38249]]]}}, 
{"type": "Feature", "properties": {"CD_SETOR": "500769505000057", "CD_SIT": "2", "NM_DIST": "São Gabriel do Oeste", "NM_SUBDIST": null}, "geometry": {"type": "Polygon", "coordinates": [[[-54.58928, -19.39598], [-54.59257, -19.39782], [-54.60667, -19.39417], [-54.60595, -19.3924], [-54.60551, -19.3901], [-54.60501, -19.38878], [-54.60286, -19.38596], [-54.59886, -19.38597], [-54.59657, -19.38423], [-54.59228, -19.39134], [-54.58928, -19.39598]]]}}, 
{"type": "Feature", "properties": {"CD_SETOR": "500769505000058", "CD_SIT": "1", "NM_DIST": "São Gabriel do Oeste", "NM_SUBDIST": null}, "geometry": {"type": "Polygon", "coordinates": [[[-54.5593, -19.40864], [-54.56206, -19.40459], [-54.56042, -19.40373], [-54.55901, -19.40243], [-54.55716, -19.39973], [-54.55654, -19.39939], [-54.55637, -19.39866], [-54.55551, -19.39904], [-54.55401, -19.39939], [-54.55253, -19.39937], [-54.54998, -19.39985], [-54.54883, -19.40044], [-54.5593, -19.40864]]]}}, 
{"type": "Feature", "properties": {"CD_SETOR": "500769505000059", "CD_SIT": "2", "NM_DIST": "São Gabriel do Oeste", "NM_SUBDIST": null}, "geometry": {"type": "Polygon", "coordinates": [[[-54.57036, -19.38451], [-54.57092, -19.38493], [-54.57436, -19.38482], [-54.58219, -19.37194], [-54.57768, -19.36944], [-54.57621, -19.37006], [-54.57481, -19.37033], [-54.57223, -19.37059], [-54.56995, -19.37043], [-54.56933, -19.37199], [-54.56933, -19.37373], [-54.56907, -19.37577], [-54.56958, -19.38206], [-54.57036, -19.38451]]]}}, 
{"type": "Feature", "properties": {"CD_SETOR": "500769505000060", "CD_SIT": "8", "NM_DIST": "São Gabriel do Oeste", "NM_SUBDIST": null}, "geometry": {"type": "Polygon", "coordinates": [[[-54.59997, -18.97884], [-54.6021, -18.99565], [-54.60504, -18.99766], [-54.60692, -19.00136], [-54.61022, -19.00931], [-54.61444, -19.01557], [-54.62204, -19.02464], [-54.62217, -19.02605], [-54.62435, -19.02932], [-54.62721, -19.03699], [-54.62742, -19.04334], [-54.62718, -19.04955], [-54.62755, -19.05492], [-54.62498, -19.06856], [-54.62439, -19.0789], [-54.62472, -19.08709], [-54.63241, -19.10046], [-54.63693, -19.10603], [-54.64403, -19.11391], [-54.64768, -19.11862], [-54.65191, -19.1246], [-54.65626, -19.13256], [-54.65781, -19.13851], [-54.65826, -19.14854], [-54.6537, -19.15588], [-54.64856, -19.16175], [-54.64539, -19.16495], [-54.64265, -19.16929], [-54.64019, -19.17533], [-54.63978, -19.18323], [-54.64175, -19.19602], [-54.6467, -19.20399], [-54.65464, -19.21031], [-54.66668, -19.22147], [-54.66721, -19.22628], [-54.66295, -19.23244], [-54.64234, -19.23782], [-54.63307, -19.24109], [-54.61092, -19.23812], [-54.59101, -19.23616], [-54.58151, -19.23491], [-54.56664, -19.23387], [-54.55823, -19.23968], [-54.55035, -19.2489], [-54.5388, -19.26568], [-54.52518, -19.28074], [-54.51515, -19.29444], [-54.49124, -19.30866], [-54.47834, -19.31497], [-54.46962, -19.31984], [-54.45747, -19.32858], [-54.45334, -19.33383], [-54.45202, -19.342], [-54.44329, -19.34837], [-54.44113, -19.35342], [-54.44209, -19.37868], [-54.44127, -19.40125], [-54.44508, -19.4167], [-54.45126, -19.41489], [-54.45317, -19.41398], [-54.45456, -19.41447], [-54.45532, -19.41354], [-54.4578, -19.41326], [-54.4619, -19.41488], [-54.46396, -19.41507], [-54.46603, -19.41416], [-54.46893, -19.41389], [-54.47098, -19.41438], [-54.47511, -19.41413], [-54.47718, -19.41337], [-54.48135, -19.4103], [-54.48343, -19.4094], [-54.48531, -19.41036], [-54.4929, -19.41046], [-54.49677, -19.41017], [-54.49894, -19.41215], [-54.50045, -19.41291], [-54.50322, -19.41483], [-54.50748, -19.41439], [-54.51146, -19.41557], [-54.5137, -19.41412], [-54.51786, -19.41237], [-54.52656, -19.41014], [-54.52967, -19.40771], [-54.5328, -19.40645], [-54.53427, -19.4074], [-54.53572, -19.40961], [-54.54014, -19.42265], [-54.53989, -19.42848], [-54.53945, -19.43142], [-54.54993, -19.42017], [-54.55484, -19.41521], [-54.55711, -19.41233], [-54.5593, -19.40864], [-54.54883, -19.40044], [-54.54998, -19.39985], [-54.55253, -19.39937], [-54.55401, -19.39939], [-54.55676, -19.39861], [-54.55684, -19.39827], [-54.55728, -19.39786], [-54.55819, -19.39731], [-54.55875, -19.39624], [-54.55988, -19.39518], [-54.5609, -19.39356], [-54.56132, -19.39338], [-54.56167, -19.39273], [-54.56224, -19.39229], [-54.56242, -19.39181], [-54.56284, -19.39159], [-54.56317, -19.39101], [-54.56383, -19.39049], [-54.5642, -19.38956], [-54.56483, -19.38914], [-54.56553, -19.38815], [-54.56617, -19.38772], [-54.56665, -19.38685], [-54.56877, -19.38603], [-54.57036, -19.38451], [-54.56958, -19.38206], [-54.56907, -19.37577], [-54.56933, -19.37373], [-54.56933, -19.37199], [-54.56995, -19.37043], [-54.57223, -19.37059], [-54.57481, -19.37033], [-54.57621, -19.37006], [-54.57768, -19.36944], [-54.58219, -19.37194], [-54.61413, -19.32039], [-54.61827, -19.31422], [-54.62585, -19.30485], [-54.60264, -19.30051], [-54.58755, -19.29563], [-54.58949, -19.29259], [-54.58902, -19.29205], [-54.58625, -19.28715], [-54.58192, -19.28529], [-54.58212, -19.28475], [-54.58081, -19.28366], [-54.57431, -19.28123], [-54.55088, -19.27578], [-54.55582, -19.26198], [-54.55412, -19.26154], [-54.55942, -19.25531], [-54.60046, -19.26138], [-54.6031, -19.26865], [-54.60274, -19.27404], [-54.60673, -19.27284], [-54.61307, -19.26716], [-54.61641, -19.26522], [-54.64704, -19.28166], [-54.65022, -19.27828], [-54.65316, -19.27439], [-54.65823, -19.26843], [-54.66419, -19.25984], [-54.6837, -19.23285], [-54.71754, -19.22309], [-54.73865, -19.21554], [-54.74044, -19.21403], [-54.74132, -19.21215], [-54.74793, -19.19304], [-54.75496, -19.1737], [-54.75891, -19.16131], [-54.75745, -19.16042], [-54.75682, -19.15911], [-54.7563, -19.15367], [-54.75625, -19.151], [-54.75527, -19.14704], [-54.7541, -19.14524], [-54.75369, -19.14428], [-54.75313, -19.14199], [-54.75301, -19.14048], [-54.75215, -19.13973], [-54.74955, -19.1385], [-54.74758, -19.13674], [-54.74609, -19.13601], [-54.74555, -19.13553], [-54.74519, -19.1343], [-54.72611, -19.10673], [-54.72613, -19.10583], [-54.7259, -19.10449], [-54.72477, -19.10171], [-54.72368, -19.10028], [-54.72192, -19.09869], [-54.72151, -19.09799], [-54.72136, -19.09628], [-54.72214, -19.09234], [-54.72312, -19.09], [-54.72317, -19.08805], [-54.72348, -19.08582], [-54.72319, -19.08441], [-54.72276, -19.08345], [-54.72085, -19.08155], [-54.72049, -19.08096], [-54.72043, -19.08056], [-54.72132, -19.07773], [-54.722, -19.07715], [-54.7231, -19.07661], [-54.72337, -19.07627], [-54.72344, -19.07559], [-54.72314, -19.07425], [-54.72359, -19.073], [-54.72283, -19.07066], [-54.72287, -19.06924], [-54.72205, -19.06696], [-54.72167, -19.06494], [-54.721, -19.06372], [-54.71981, -19.06218], [-54.71693, -19.06038], [-54.71498, -19.05876], [-54.71386, -19.05705], [-54.71284, -19.05628], [-54.71026, -19.05291], [-54.70592, -19.05103], [-54.70332, -19.0497], [-54.70101, -19.04826], [-54.69853, -19.04725], [-54.69762, -19.04662], [-54.69729, -19.04593], [-54.69701, -19.04439], [-54.69602, -19.04277], [-54.69555, -19.04042], [-54.69547, -19.03855], [-54.69526, -19.03759], [-54.69455, -19.03645], [-54.69303, -19.0352], [-54.69242, -19.03434], [-54.6921, -19.03274], [-54.69154, -19.03139], [-54.69055, -19.02771], [-54.69058, -19.02625], [-54.69099, -19.02486], [-54.69087, -19.02416], [-54.69048, -19.02396], [-54.68923, -19.02377], [-54.68834, -19.02302], [-54.68734, -19.02244], [-54.68607, -19.02106], [-54.68362, -19.02002], [-54.68157, -19.01972], [-54.67874, -19.0189], [-54.67692, -19.01829], [-54.67479, -19.01716], [-54.674, -19.01702], [-54.67269, -19.0174], [-54.6718, -19.01685], [-54.67079, -19.01665], [-54.67024, -19.01611], [-54.6693, -19.01383], [-54.66872, -19.01296], [-54.66781, -19.01223], [-54.6665, -19.01157], [-54.66381, -19.01064], [-54.66085, -19.01029], [-54.65561, -19.00876], [-54.65373, -19.00802], [-54.65181, -19.00809], [-54.65095, -19.00783], [-54.65068, -19.00746], [-54.65086, -19.00653], [-54.65074, -19.00613], [-54.65027, -19.0062], [-54.64954, -19.00667], [-54.6492, -19.00651], [-54.64945, -19.00532], [-54.64882, -19.00452], [-54.64819, -19.00431], [-54.64623, -19.00422], [-54.64481, -19.00384], [-54.64417, -19.00333], [-54.64403, -19.00265], [-54.64475, -19.00146], [-54.64474, -19.00051], [-54.64226, -18.99814], [-54.64192, -18.99682], [-54.64057, -18.9955], [-54.63831, -18.99416], [-54.63669, -18.99298], [-54.63417, -18.99147], [-54.63257, -18.99071], [-54.63116, -18.98964], [-54.63019, -18.98915], [-54.62777, -18.98836], [-54.62674, -18.98825], [-54.62562, -18.98845], [-54.62385, -18.98917], [-54.62294, -18.98928], [-54.62142, -18.98772], [-54.61942, -18.987], [-54.61784, -18.98579], [-54.61637, -18.98538], [-54.61451, -18.98438], [-54.6124, -18.98386], [-54.61125, -18.9827], [-54.61026, -18.98134], [-54.60958, -18.97999], [-54.60944, -18.97882], [-54.60915, -18.97847], [-54.6081, -18.97824], [-54.60663, -18.97818], [-54.60519, -18.97751], [-54.60433, -18.97737], [-54.60209, -18.97853], [-54.59997, -18.97884]]]}}, 
{"type": "Feature", "properties": {"CD_SETOR": "500769505000061", "CD_SIT": "1", "NM_DIST": "São Gabriel do Oeste", "NM_SUBDIST": null}, "geometry": {"type": "Polygon", "coordinates": [[[-54.5845, -19.37458], [-54.58338, -19.3764], [-54.5852, -19.37744], [-54.5858, -19.37649], [-54.5852, -19.37615], [-54.58574, -19.37526], [-54.5845, -19.37458]]]}}, 
{"type": "Feature", "properties": {"CD_SETOR": "500769505000062", "CD_SIT": "1", "NM_DIST": "São Gabriel do Oeste", "NM_SUBDIST": null}, "geometry": {"type": "Polygon", "coordinates": [[[-54.58739, -19.3699], [-54.58451, -19.37457], [-54.58574, -19.37526], [-54.58919, -19.36966], [-54.58739, -19.3699]]]}}, 
{"type": "Feature", "properties": {"CD_SETOR": "500769510000001", "CD_SIT": "1", "NM_DIST": "Areado", "NM_SUBDIST": null}, "geometry": {"type": "Polygon", "coordinates": [[[-54.32463, -19.25438], [-54.32903, -19.25593], [-54.33074, -19.2529], [-54.33149, -19.25122], [-54.33052, -19.25053], [-54.33004, -19.24955], [-54.32992, -19.2486], [-54.32716, -19.2476], [-54.32618, -19.25059], [-54.32489, -19.25023], [-54.32406, -19.25139], [-54.32363, -19.25264], [-54.32509, -19.25315], [-54.32463, -19.25438]]]}}, 
{"type": "Feature", "properties": {"CD_SETOR": "500769510000003", "CD_SIT": "8", "NM_DIST": "Areado", "NM_SUBDIST": null}, "geometry": {"type": "Polygon", "coordinates": [[[-54.25909, -18.79618], [-54.25903, -18.79779], [-54.25977, -18.79947], [-54.26043, -18.80207], [-54.26098, -18.80869], [-54.26063, -18.8125], [-54.26008, -18.81547], [-54.25994, -18.81707], [-54.25841, -18.82287], [-54.25852, -18.82436], [-54.25909, -18.82605], [-54.25978, -18.82928], [-54.25967, -18.83086], [-54.25885, -18.83345], [-54.25479, -18.83969], [-54.25384, -18.8407], [-54.25192, -18.84225], [-54.25061, -18.84372], [-54.24953, -18.84573], [-54.24892, -18.84893], [-54.24819, -18.85048], [-54.24721, -18.85157], [-54.24437, -18.85364], [-54.24297, -18.85534], [-54.24249, -18.85629], [-54.24175, -18.85947], [-54.24075, -18.86077], [-54.23974, -18.86154], [-54.23523, -18.86343], [-54.23138, -18.86638], [-54.22864, -18.8693], [-54.22542, -18.87396], [-54.22485, -18.87459], [-54.22403, -18.87514], [-54.22136, -18.87612], [-54.21881, -18.87735], [-54.21698, -18.87862], [-54.21244, -18.8841], [-54.21207, -18.88509], [-54.2115, -18.88842], [-54.21078, -18.88966], [-54.20921, -18.89153], [-54.20801, -18.89415], [-54.20747, -18.89604], [-54.207, -18.89831], [-54.20695, -18.90122], [-54.20666, -18.90277], [-54.20638, -18.90698], [-54.20596, -18.90857], [-54.20519, -18.91003], [-54.20576, -18.91374], [-54.20551, -18.91584], [-54.20528, -18.91711], [-54.20431, -18.9198], [-54.20354, -18.92336], [-54.20267, -18.92481], [-54.19924, -18.92804], [-54.19602, -18.93533], [-54.19453, -18.9368], [-54.19377, -18.93778], [-54.19301, -18.93966], [-54.19284, -18.9425], [-54.19331, -18.94473], [-54.19525, -18.94761], [-54.19663, -18.94912], [-54.19805, -18.95138], [-54.19946, -18.95443], [-54.19976, -18.95569], [-54.19977, -18.9567], [-54.19938, -18.9582], [-54.19814, -18.96111], [-54.19746, -18.96358], [-54.19672, -18.96462], [-54.19574, -18.9656], [-54.19403, -18.96834], [-54.19206, -18.97042], [-54.19144, -18.9713], [-54.19092, -18.97229], [-54.18989, -18.9763], [-54.18975, -18.97832], [-54.18998, -18.97897], [-54.19097, -18.98059], [-54.19109, -18.98359], [-54.19187, -18.98535], [-54.19199, -18.98738], [-54.19248, -18.98899], [-54.19242, -18.99032], [-54.19202, -18.9925], [-54.19203, -18.99423], [-54.19167, -18.9969], [-54.1921, -18.9995], [-54.19182, -19.0008], [-54.19101, -19.00206], [-54.19025, -19.00429], [-54.18914, -19.00597], [-54.18878, -19.00694], [-54.188, -19.01059], [-54.18828, -19.01403], [-54.1878, -19.01552], [-54.1859, -19.01922], [-54.18579, -19.0208], [-54.18619, -19.02261], [-54.18788, -19.02425], [-54.18861, -19.02468], [-54.18958, -19.0248], [-54.19122, -19.02418], [-54.19249, -19.02397], [-54.19744, -19.02479], [-54.19785, -19.02538], [-54.19808, -19.02658], [-54.1983, -19.02697], [-54.19866, -19.02725], [-54.19954, -19.02745], [-54.20037, -19.02792], [-54.20183, -19.02974], [-54.20285, -19.03073], [-54.20305, -19.03151], [-54.20197, -19.03269], [-54.20162, -19.03337], [-54.20168, -19.03374], [-54.20201, -19.03424], [-54.20148, -19.03536], [-54.20166, -19.03617], [-54.20243, -19.0368], [-54.20332, -19.03715], [-54.20637, -19.03686], [-54.20696, -19.03704], [-54.20741, -19.03756], [-54.20724, -19.03803], [-54.20526, -19.04029], [-54.20446, -19.04247], [-54.20453, -19.04657], [-54.20475, -19.04737], [-54.20518, -19.04771], [-54.20594, -19.04776], [-54.20751, -19.04751], [-54.20942, -19.04743], [-54.20992, -19.04729], [-54.21039, -19.04662], [-54.21072, -19.04644], [-54.21185, -19.04635], [-54.21309, -19.04604], [-54.21403, -19.04623], [-54.2144, -19.04615], [-54.21455, -19.04499], [-54.21608, -19.04416], [-54.21662, -19.04343], [-54.21683, -19.04274], [-54.21686, -19.04133], [-54.2174, -19.04027], [-54.21884, -19.03877], [-54.22002, -19.03821], [-54.22077, -19.03809], [-54.22204, -19.03822], [-54.22229, -19.03841], [-54.22265, -19.03965], [-54.22284, -19.04272], [-54.2231, -19.04312], [-54.22362, -19.04334], [-54.22448, -19.04304], [-54.22544, -19.04227], [-54.22668, -19.04055], [-54.22746, -19.03903], [-54.22806, -19.03837], [-54.22829, -19.03835], [-54.22843, -19.03852], [-54.22848, -19.03957], [-54.22987, -19.03951], [-54.23066, -19.04016], [-54.23108, -19.03997], [-54.23189, -19.03919], [-54.23343, -19.03894], [-54.23362, -19.03872], [-54.23361, -19.03828], [-54.23264, -19.03625], [-54.2325, -19.03502], [-54.23276, -19.03452], [-54.23343, -19.03384], [-54.23447, -19.03327], [-54.23546, -19.03328], [-54.2365, -19.03375], [-54.23707, -19.03449], [-54.23653, -19.03471], [-54.23662, -19.03497], [-54.2374, -19.03568], [-54.23837, -19.03608], [-54.23966, -19.03631], [-54.24104, -19.03627], [-54.24389, -19.03528], [-54.24449, -19.03477], [-54.24516, -19.03379], [-54.24451, -19.032], [-54.24632, -19.02968], [-54.24477, -19.02681], [-54.24484, -19.02312], [-54.24258, -19.02057], [-54.24737, -19.0193], [-54.25018, -19.02051], [-54.25355, -19.01939], [-54.25769, -19.01526], [-54.26243, -19.0165], [-54.26486, -19.01922], [-54.26375, -19.02273], [-54.26158, -19.02555], [-54.26263, -19.0264], [-54.26478, -19.02442], [-54.26546, -19.02577], [-54.26438, -19.0271], [-54.27, -19.02936], [-54.27375, -19.02657], [-54.27587, -19.0266], [-54.27725, -19.0288], [-54.279, -19.03], [-54.28165, -19.03004], [-54.2863, -19.02625], [-54.29004, -19.02446], [-54.29235, -19.02365], [-54.29817, -19.02424], [-54.30117, -19.02428], [-54.30459, -19.02064], [-54.30863, -19.02221], [-54.3095, -19.02323], [-54.30841, -19.02489], [-54.30664, -19.02487], [-54.30588, -19.02804], [-54.30035, -19.03165], [-54.29978, -19.03433], [-54.30187, -19.03621], [-54.30362, -19.03707], [-54.30551, -19.04045], [-54.31248, -19.04189], [-54.31782, -19.03978], [-54.32051, -19.03697], [-54.32344, -19.03063], [-54.32331, -19.02777], [-54.31929, -19.02503], [-54.31617, -19.02146], [-54.31589, -19.01692], [-54.31842, -19.0136], [-54.32161, -19.01281], [-54.32246, -19.015], [-54.32349, -19.0167], [-54.33213, -19.01749], [-54.33454, -19.02139], [-54.33536, -19.0256], [-54.3364, -19.02712], [-54.33817, -19.02648], [-54.3396, -19.02566], [-54.34157, -19.02418], [-54.34214, -19.02167], [-54.34278, -19.01479], [-54.3444, -19.0128], [-54.34634, -19.01283], [-54.34737, -19.01452], [-54.34855, -19.01857], [-54.34941, -19.01976], [-54.35262, -19.01779], [-54.3564, -19.01684], [-54.36186, -19.01775], [-54.36634, -19.01412], [-54.36881, -19.01416], [-54.37389, -19.01692], [-54.37622, -19.0151], [-54.3784, -19.01094], [-54.38157, -19.01182], [-54.38554, -19.00634], [-54.38816, -18.99714], [-54.38668, -18.98995], [-54.38973, -18.98681], [-54.39241, -18.98466], [-54.39451, -18.98603], [-54.39716, -18.98607], [-54.39864, -18.98519], [-54.39855, -18.98449], [-54.39738, -18.98314], [-54.3961, -18.9825], [-54.39363, -18.98212], [-54.39331, -18.9817], [-54.39343, -18.98096], [-54.39374, -18.98051], [-54.39518, -18.97921], [-54.39591, -18.97912], [-54.3975, -18.97966], [-54.39839, -18.97935], [-54.39952, -18.9778], [-54.40043, -18.97618], [-54.4007, -18.97515], [-54.40011, -18.97051], [-54.39922, -18.96686], [-54.39641, -18.96166], [-54.39541, -18.95886], [-54.39538, -18.95839], [-54.3958, -18.95788], [-54.39654, -18.95763], [-54.398, -18.95753], [-54.39834, -18.95732], [-54.39846, -18.95701], [-54.3982, -18.9562], [-54.39681, -18.95472], [-54.39599, -18.95314], [-54.39577, -18.95187], [-54.39621, -18.95079], [-54.39683, -18.95041], [-54.39851, -18.95021], [-54.40035, -18.95023], [-54.40357, -18.95055], [-54.40482, -18.95108], [-54.40795, -18.95304], [-54.40894, -18.95332], [-54.4095, -18.95305], [-54.41017, -18.95192], [-54.41101, -18.95141], [-54.41164, -18.9513], [-54.4131, -18.95166], [-54.41455, -18.95164], [-54.41944, -18.95021], [-54.42052, -18.94973], [-54.42148, -18.94903], [-54.42206, -18.94733], [-54.42186, -18.94661], [-54.42101, -18.94523], [-54.42072, -18.94439], [-54.42056, -18.94297], [-54.42086, -18.94128], [-54.42142, -18.94018], [-54.42239, -18.93924], [-54.42496, -18.93934], [-54.42597, -18.93921], [-54.42684, -18.93886], [-54.4276, -18.93814], [-54.4279, -18.93726], [-54.42767, -18.93643], [-54.42699, -18.93593], [-54.42549, -18.93555], [-54.425, -18.93504], [-54.42489, -18.93462], [-54.42547, -18.93307], [-54.42732, -18.93089], [-54.4288, -18.92874], [-54.43072, -18.92699], [-54.43229, -18.92643], [-54.43482, -18.92631], [-54.43796, -18.92708], [-54.43942, -18.92694], [-54.4398, -18.92646], [-54.43992, -18.92578], [-54.43951, -18.92399], [-54.43949, -18.92295], [-54.44224, -18.91911], [-54.44308, -18.91877], [-54.44711, -18.91936], [-54.44783, -18.91931], [-54.44808, -18.91906], [-54.4482, -18.91812], [-54.44772, -18.91704], [-54.44264, -18.91183], [-54.44188, -18.91086], [-54.4414, -18.90993], [-54.44108, -18.90882], [-54.44052, -18.90453], [-54.44066, -18.9035], [-54.44132, -18.90152], [-54.44255, -18.90036], [-54.44421, -18.9], [-54.44658, -18.90033], [-54.44917, -18.90134], [-54.45037, -18.9013], [-54.45097, -18.90071], [-54.45144, -18.89976], [-54.45243, -18.89624], [-54.45376, -18.8947], [-54.4546, -18.89431], [-54.45544, -18.8942], [-54.45888, -18.89554], [-54.45944, -18.89554], [-54.45998, -18.8953], [-54.46054, -18.89468], [-54.46075, -18.8939], [-54.46074, -18.89311], [-54.45987, -18.89052], [-54.45992, -18.88988], [-54.46029, -18.8893], [-54.46125, -18.88887], [-54.46293, -18.88872], [-54.46494, -18.88808], [-54.46694, -18.88776], [-54.46856, -18.88694], [-54.46967, -18.88597], [-54.4711, -18.88358], [-54.47399, -18.87998], [-54.47491, -18.87738], [-54.47554, -18.87638], [-54.47659, -18.87564], [-54.47762, -18.87525], [-54.48144, -18.87473], [-54.48291, -18.87372], [-54.48358, -18.87257], [-54.48416, -18.87028], [-54.48425, -18.8693], [-54.48328, -18.86574], [-54.48183, -18.86283], [-54.48143, -18.8616], [-54.48155, -18.86049], [-54.48233, -18.85945], [-54.48354, -18.85894], [-54.48528, -18.85877], [-54.48901, -18.85933], [-54.4944, -18.86054], [-54.49618, -18.86064], [-54.49806, -18.86033], [-54.49902, -18.85985], [-54.49999, -18.85912], [-54.50201, -18.85722], [-54.50403, -18.85645], [-54.50722, -18.85474], [-54.51078, -18.85253], [-54.51375, -18.85009], [-54.51837, -18.84847], [-54.52009, -18.8474], [-54.52063, -18.84688], [-54.52097, -18.84519], [-54.52058, -18.84308], [-54.52119, -18.84022], [-54.52005, -18.83843], [-54.51933, -18.8369], [-54.51905, -18.8345], [-54.51918, -18.83187], [-54.51844, -18.82948], [-54.51751, -18.8275], [-54.5171, -18.82617], [-54.51632, -18.82009], [-54.51677, -18.81913], [-54.5188, -18.81758], [-54.51933, -18.81668], [-54.51939, -18.81527], [-54.51874, -18.81195], [-54.51884, -18.81051], [-54.52005, -18.80911], [-54.52449, -18.80509], [-54.5274, -18.8033], [-54.53016, -18.8019], [-54.53082, -18.80109], [-54.53071, -18.80044], [-54.52911, -18.79838], [-54.52842, -18.79712], [-54.5282, -18.7964], [-54.5281, -18.79422], [-54.52826, -18.79313], [-54.52872, -18.79185], [-54.52987, -18.78967], [-54.52998, -18.78913], [-54.52978, -18.78817], [-54.52841, -18.78508], [-54.5284, -18.78402], [-54.52896, -18.78328], [-54.53376, -18.77993], [-54.53587, -18.77744], [-54.53661, -18.77677], [-54.53746, -18.77654], [-54.53883, -18.77662], [-54.53945, -18.77647], [-54.54075, -18.77493], [-54.54166, -18.77432], [-54.54394, -18.7746], [-54.54497, -18.77446], [-54.55171, -18.77106], [-54.56311, -18.76626], [-54.5654, -18.76456], [-54.5687, -18.76267], [-54.56928, -18.76216], [-54.56937, -18.76161], [-54.56895, -18.76115], [-54.56738, -18.76102], [-54.56673, -18.76071], [-54.56626, -18.76009], [-54.56592, -18.75908], [-54.56591, -18.75779], [-54.56641, -18.75481], [-54.56683, -18.75381], [-54.56822, -18.75155], [-54.56845, -18.75047], [-54.56812, -18.74942], [-54.56683, -18.74794], [-54.56627, -18.74703], [-54.56584, -18.74567], [-54.56578, -18.74474], [-54.56633, -18.74342], [-54.56708, -18.74279], [-54.56957, -18.74172], [-54.57217, -18.74124], [-54.57409, -18.74039], [-54.57537, -18.73882], [-54.57855, -18.7355], [-54.57911, -18.73454], [-54.5793, -18.73368], [-54.57931, -18.73222], [-54.57866, -18.72892], [-54.5778, -18.72718], [-54.57598, -18.72426], [-54.57505, -18.72184], [-54.57523, -18.72115], [-54.57675, -18.72017], [-54.57673, -18.7197], [-54.57596, -18.71852], [-54.5764, -18.71788], [-54.57733, -18.71728], [-54.57744, -18.71682], [-54.57691, -18.7161], [-54.57475, -18.71458], [-54.57415, -18.71303], [-54.57403, -18.71227], [-54.57149, -18.71339], [-54.56854, -18.71424], [-54.56664, -18.71533], [-54.56574, -18.71558], [-54.5642, -18.71532], [-54.56074, -18.71364], [-54.55931, -18.71336], [-54.55764, -18.7133], [-54.55626, -18.71384], [-54.54788, -18.71953], [-54.54665, -18.72004], [-54.54487, -18.72041], [-54.54363, -18.72196], [-54.54252, -18.72279], [-54.54163, -18.72289], [-54.53986, -18.72238], [-54.53871, -18.72253], [-54.53681, -18.72323], [-54.53509, -18.72434], [-54.53253, -18.7252], [-54.53101, -18.72515], [-54.52742, -18.72394], [-54.5267, -18.72396], [-54.52491, -18.72454], [-54.52258, -18.7246], [-54.51954, -18.72372], [-54.51763, -18.72356], [-54.51282, -18.72354], [-54.51104, -18.72382], [-54.509, -18.72492], [-54.50737, -18.72526], [-54.50434, -18.7255], [-54.50067, -18.72529], [-54.49979, -18.72561], [-54.49823, -18.72577], [-54.49657, -18.72575], [-54.49263, -18.72529], [-54.48928, -18.72454], [-54.48877, -18.72479], [-54.48784, -18.72582], [-54.48584, -18.72675], [-54.48478, -18.72704], [-54.4818, -18.72717], [-54.47896, -18.72765], [-54.4778, -18.72815], [-54.47613, -18.72948], [-54.47476, -18.72993], [-54.47184, -18.72952], [-54.46882, -18.72858], [-54.46608, -18.72739], [-54.46497, -18.72706], [-54.46254, -18.72727], [-54.46053, -18.72675], [-54.45927, -18.72577], [-54.4566, -18.72156], [-54.45593, -18.72101], [-54.45527, -18.72094], [-54.45373, -18.7216], [-54.45129, -18.7233], [-54.45034, -18.72422], [-54.44982, -18.72526], [-54.4495, -18.72723], [-54.44898, -18.72842], [-54.44814, -18.72895], [-54.44698, -18.72938], [-54.44548, -18.72964], [-54.44268, -18.72857], [-54.44028, -18.72855], [-54.43951, -18.72837], [-54.43879, -18.72787], [-54.43815, -18.72691], [-54.43733, -18.72612], [-54.43415, -18.72439], [-54.43306, -18.72292], [-54.4329, -18.72188], [-54.4329, -18.71974], [-54.43259, -18.71865], [-54.43224, -18.71805], [-54.43134, -18.71724], [-54.42955, -18.71678], [-54.42815, -18.71616], [-54.42735, -18.7156], [-54.42639, -18.71454], [-54.42527, -18.71198], [-54.42435, -18.71095], [-54.42342, -18.71044], [-54.42241, -18.71026], [-54.41803, -18.71188], [-54.41706, -18.71203], [-54.41631, -18.7119], [-54.41564, -18.7113], [-54.41468, -18.7088], [-54.41413, -18.70776], [-54.41342, -18.70699], [-54.4124, -18.70633], [-54.41055, -18.70592], [-54.40932, -18.70605], [-54.40806, -18.70673], [-54.40619, -18.70856], [-54.40538, -18.70896], [-54.40428, -18.70902], [-54.40172, -18.70834], [-54.39956, -18.70918], [-54.39899, -18.70926], [-54.39832, -18.70917], [-54.39749, -18.7087], [-54.3957, -18.70723], [-54.39368, -18.70597], [-54.39293, -18.7053], [-54.38681, -18.70737], [-54.38447, -18.70732], [-54.38239, -18.70696], [-54.38064, -18.70758], [-54.37872, -18.7112], [-54.37664, -18.71129], [-54.37553, -18.71079], [-54.37375, -18.71142], [-54.37225, -18.7126], [-54.36986, -18.71553], [-54.36886, -18.71726], [-54.36753, -18.71874], [-54.36564, -18.71917], [-54.36397, -18.71849], [-54.35967, -18.71854], [-54.35639, -18.71659], [-54.3492, -18.71739], [-54.34375, -18.71736], [-54.34145, -18.71749], [-54.34036, -18.7181], [-54.33884, -18.71936], [-54.3377, -18.71988], [-54.33556, -18.71977], [-54.33369, -18.72053], [-54.32903, -18.72842], [-54.32845, -18.73005], [-54.32819, -18.73145], [-54.32683, -18.73304], [-54.3255, -18.7329], [-54.32437, -18.73248], [-54.32203, -18.73219], [-54.31861, -18.73401], [-54.3168, -18.7348], [-54.31294, -18.73456], [-54.31078, -18.73494], [-54.30877, -18.73585], [-54.30495, -18.73839], [-54.30286, -18.73869], [-54.30097, -18.73777], [-54.29958, -18.73931], [-54.29783, -18.73976], [-54.29461, -18.74537], [-54.29369, -18.74763], [-54.29028, -18.75233], [-54.28919, -18.75327], [-54.28814, -18.75391], [-54.28553, -18.75483], [-54.28186, -18.75722], [-54.28103, -18.75909], [-54.28047, -18.76132], [-54.28062, -18.76344], [-54.27883, -18.76706], [-54.27903, -18.76905], [-54.27897, -18.77292], [-54.27839, -18.77474], [-54.27678, -18.77622], [-54.27597, -18.77722], [-54.27494, -18.77903], [-54.27034, -18.78321], [-54.26858, -18.78716], [-54.26756, -18.78883], [-54.26656, -18.78956], [-54.26453, -18.79005], [-54.2632, -18.7895], [-54.262, -18.7899], [-54.26048, -18.79117], [-54.26042, -18.79346], [-54.25909, -18.79618]]]}}, 
{"type": "Feature", "properties": {"CD_SETOR": "500769510000004", "CD_SIT": "8", "NM_DIST": "Areado", "NM_SUBDIST": null}, "geometry": {"type": "Polygon", "coordinates": [[[-54.24516, -19.03379], [-54.24601, -19.03452], [-54.24927, -19.03615], [-54.25105, -19.03659], [-54.25356, -19.03781], [-54.2553, -19.03813], [-54.25649, -19.03931], [-54.25747, -19.03937], [-54.25778, -19.03955], [-54.25814, -19.04025], [-54.25818, -19.04149], [-54.25804, -19.04212], [-54.25744, -19.04323], [-54.25689, -19.04376], [-54.25554, -19.04412], [-54.25382, -19.04407], [-54.25296, -19.04429], [-54.25098, -19.04569], [-54.24874, -19.04676], [-54.24718, -19.04827], [-54.24537, -19.04947], [-54.24334, -19.05122], [-54.24204, -19.05243], [-54.2416, -19.05312], [-54.2421, -19.05399], [-54.24503, -19.05616], [-54.24563, -19.05693], [-54.24557, -19.05769], [-54.24472, -19.05889], [-54.24455, -19.05943], [-54.2454, -19.06163], [-54.24498, -19.06306], [-54.24503, -19.06366], [-54.24527, -19.06411], [-54.24621, -19.06494], [-54.24648, -19.06553], [-54.24625, -19.06809], [-54.24662, -19.06835], [-54.24721, -19.06802], [-54.24752, -19.06762], [-54.24782, -19.06763], [-54.24805, -19.06789], [-54.24851, -19.06952], [-54.2491, -19.07031], [-54.24979, -19.07068], [-54.25179, -19.07131], [-54.25213, -19.07174], [-54.25252, -19.07283], [-54.25291, -19.07327], [-54.25347, -19.07349], [-54.25456, -19.07356], [-54.25491, -19.07386], [-54.25468, -19.07451], [-54.25319, -19.07551], [-54.25286, -19.07608], [-54.25303, -19.0766], [-54.25419, -19.07757], [-54.25427, -19.07846], [-54.25394, -19.07904], [-54.25344, -19.07919], [-54.25154, -19.07809], [-54.25055, -19.0781], [-54.24992, -19.07852], [-54.24885, -19.07971], [-54.24662, -19.08114], [-54.24345, -19.08236], [-54.24215, -19.08302], [-54.24041, -19.08521], [-54.23957, -19.08586], [-54.23809, -19.08626], [-54.23502, -19.08641], [-54.23168, -19.08704], [-54.23038, -19.08757], [-54.22981, -19.08824], [-54.22996, -19.08873], [-54.23131, -19.08932], [-54.23178, -19.08968], [-54.2323, -19.09046], [-54.23274, -19.09164], [-54.23261, -19.093], [-54.23166, -19.09399], [-54.2315, -19.09443], [-54.23244, -19.0967], [-54.23254, -19.09755], [-54.23243, -19.09928], [-54.23293, -19.10045], [-54.23467, -19.10169], [-54.23582, -19.10313], [-54.2364, -19.10359], [-54.23674, -19.10357], [-54.23753, -19.10304], [-54.23885, -19.10404], [-54.24087, -19.10364], [-54.24149, -19.10377], [-54.24207, -19.10411], [-54.24242, -19.10459], [-54.24231, -19.1077], [-54.24213, -19.1085], [-54.24009, -19.11119], [-54.23833, -19.11424], [-54.23751, -19.11526], [-54.23677, -19.11541], [-54.23466, -19.11459], [-54.23373, -19.11461], [-54.23299, -19.11488], [-54.23115, -19.11664], [-54.22989, -19.11733], [-54.22855, -19.1178], [-54.22817, -19.11832], [-54.22789, -19.11951], [-54.22752, -19.11993], [-54.22669, -19.12038], [-54.22571, -19.12033], [-54.22423, -19.1192], [-54.22334, -19.11883], [-54.22296, -19.11886], [-54.22202, -19.11938], [-54.22158, -19.11942], [-54.22139, -19.11935], [-54.22098, -19.11846], [-54.22037, -19.11821], [-54.21654, -19.11806], [-54.21445, -19.11837], [-54.21284, -19.11818], [-54.21222, -19.1188], [-54.21133, -19.12064], [-54.21081, -19.12102], [-54.2103, -19.12097], [-54.20994, -19.12064], [-54.2097, -19.12], [-54.20964, -19.11887], [-54.20937, -19.11861], [-54.20865, -19.11915], [-54.20817, -19.1204], [-54.20779, -19.12095], [-54.20738, -19.12087], [-54.20726, -19.11999], [-54.20697, -19.11977], [-54.20629, -19.11982], [-54.20557, -19.12037], [-54.20527, -19.12147], [-54.20536, -19.12197], [-54.20652, -19.12476], [-54.20732, -19.12576], [-54.20795, -19.12594], [-54.20861, -19.12575], [-54.20914, -19.12532], [-54.21004, -19.1241], [-54.21073, -19.12385], [-54.21123, -19.12403], [-54.21369, -19.12564], [-54.21577, -19.12603], [-54.21613, -19.12632], [-54.2163, -19.12673], [-54.21606, -19.12883], [-54.21683, -19.13074], [-54.21691, -19.13135], [-54.21642, -19.13279], [-54.21657, -19.13456], [-54.21637, -19.1377], [-54.2166, -19.14137], [-54.21682, -19.142], [-54.21725, -19.14245], [-54.21884, -19.14216], [-54.21922, -19.1425], [-54.21931, -19.14309], [-54.21918, -19.14398], [-54.21886, -19.1446], [-54.21752, -19.1455], [-54.21717, -19.14612], [-54.21739, -19.14699], [-54.21835, -19.14809], [-54.21868, -19.14884], [-54.21861, -19.14946], [-54.21801, -19.15031], [-54.2179, -19.15074], [-54.21803, -19.15137], [-54.21863, -19.15252], [-54.21871, -19.1531], [-54.21798, -19.15487], [-54.21829, -19.15524], [-54.2195, -19.1556], [-54.22007, -19.15601], [-54.22057, -19.15667], [-54.22066, -19.15736], [-54.22039, -19.15789], [-54.21993, -19.15826], [-54.21529, -19.16037], [-54.21397, -19.16126], [-54.2136, -19.16183], [-54.21334, -19.16321], [-54.21254, -19.16437], [-54.21129, -19.16544], [-54.21003, -19.16568], [-54.20962, -19.16596], [-54.20825, -19.16893], [-54.20814, -19.16945], [-54.2084, -19.1703], [-54.20939, -19.17187], [-54.20996, -19.17378], [-54.21096, -19.17612], [-54.21112, -19.17744], [-54.21059, -19.17902], [-54.21064, -19.17938], [-54.21096, -19.17956], [-54.21314, -19.17977], [-54.21472, -19.1808], [-54.21699, -19.18135], [-54.21811, -19.18269], [-54.21911, -19.18317], [-54.21915, -19.18416], [-54.21942, -19.18482], [-54.21901, -19.18546], [-54.21772, -19.18633], [-54.21592, -19.18681], [-54.21493, -19.18688], [-54.21296, -19.18797], [-54.21217, -19.18812], [-54.21106, -19.18766], [-54.20935, -19.18551], [-54.20883, -19.18536], [-54.20827, -19.18544], [-54.20759, -19.186], [-54.20645, -19.18784], [-54.20585, -19.18829], [-54.20458, -19.18879], [-54.20399, -19.18934], [-54.20393, -19.1913], [-54.20378, -19.19167], [-54.20334, -19.19204], [-54.20265, -19.19224], [-54.20064, -19.19207], [-54.19994, -19.1923], [-54.19952, -19.19311], [-54.19938, -19.19446], [-54.19888, -19.19481], [-54.19857, -19.19478], [-54.19811, -19.1943], [-54.19762, -19.19334], [-54.19719, -19.19329], [-54.1968, -19.1935], [-54.19635, -19.19432], [-54.19642, -19.19483], [-54.1974, -19.19574], [-54.19847, -19.19618], [-54.19928, -19.19617], [-54.20092, -19.19556], [-54.20226, -19.19617], [-54.20395, -19.19629], [-54.20421, -19.19655], [-54.20437, -19.19704], [-54.2046, -19.19713], [-54.20716, -19.19636], [-54.20823, -19.19647], [-54.20925, -19.19695], [-54.20958, -19.19775], [-54.21017, -19.20397], [-54.21063, -19.20531], [-54.21229, -19.20854], [-54.21244, -19.20951], [-54.21225, -19.21017], [-54.21148, -19.211], [-54.20853, -19.21003], [-54.20746, -19.20993], [-54.20448, -19.21106], [-54.20164, -19.21143], [-54.2005, -19.21294], [-54.19913, -19.21376], [-54.19794, -19.21514], [-54.19635, -19.21624], [-54.19576, -19.2169], [-54.19532, -19.21794], [-54.1947, -19.21867], [-54.19286, -19.21973], [-54.19309, -19.2201], [-54.1939, -19.22057], [-54.19456, -19.2212], [-54.19444, -19.22179], [-54.19547, -19.22221], [-54.19703, -19.22176], [-54.19824, -19.22116], [-54.19889, -19.22104], [-54.20003, -19.2211], [-54.20116, -19.22152], [-54.2017, -19.22212], [-54.20153, -19.22264], [-54.20084, -19.22341], [-54.20064, -19.22445], [-54.20081, -19.22489], [-54.20197, -19.22566], [-54.20425, -19.22645], [-54.20507, -19.22718], [-54.20506, -19.22756], [-54.20482, -19.22789], [-54.20352, -19.22819], [-54.20316, -19.22864], [-54.20337, -19.22898], [-54.20442, -19.22871], [-54.20501, -19.22895], [-54.20523, -19.22973], [-54.20488, -19.2304], [-54.20406, -19.23108], [-54.20212, -19.2322], [-54.19978, -19.23306], [-54.19855, -19.23385], [-54.19764, -19.2347], [-54.19726, -19.23577], [-54.19743, -19.23638], [-54.19777, -19.23659], [-54.20005, -19.23658], [-54.2007, -19.23695], [-54.20072, -19.2372], [-54.20052, -19.23739], [-54.19949, -19.23749], [-54.19914, -19.23807], [-54.19942, -19.24034], [-54.19981, -19.24079], [-54.20058, -19.24093], [-54.20217, -19.24066], [-54.20314, -19.24149], [-54.20438, -19.24086], [-54.2055, -19.24114], [-54.20594, -19.24108], [-54.20758, -19.24019], [-54.20824, -19.24006], [-54.20847, -19.2403], [-54.20859, -19.24169], [-54.20877, -19.24212], [-54.20907, -19.24217], [-54.21003, -19.2417], [-54.21043, -19.24189], [-54.21037, -19.24224], [-54.20917, -19.2429], [-54.20835, -19.24361], [-54.20755, -19.2447], [-54.20686, -19.246], [-54.20679, -19.24683], [-54.20747, -19.24785], [-54.20775, -19.24907], [-54.20833, -19.2504], [-54.20839, -19.25102], [-54.20805, -19.25137], [-54.20669, -19.25115], [-54.20568, -19.2515], [-54.20546, -19.2518], [-54.20541, -19.25229], [-54.20602, -19.25297], [-54.20702, -19.25333], [-54.20777, -19.25337], [-54.20849, -19.25323], [-54.20946, -19.25263], [-54.20988, -19.25261], [-54.21025, -19.25279], [-54.21078, -19.25358], [-54.21115, -19.25379], [-54.21452, -19.2528], [-54.21485, -19.25317], [-54.21499, -19.25415], [-54.2156, -19.25429], [-54.2171, -19.25344], [-54.22178, -19.25254], [-54.22555, -19.25129], [-54.22737, -19.25109], [-54.22844, -19.25126], [-54.23045, -19.25325], [-54.23161, -19.25346], [-54.23273, -19.25308], [-54.23468, -19.25141], [-54.23624, -19.25121], [-54.23695, -19.2515], [-54.23901, -19.25302], [-54.23934, -19.25365], [-54.23942, -19.25463], [-54.23983, -19.25509], [-54.24199, -19.25526], [-54.24472, -19.25593], [-54.24644, -19.25666], [-54.24672, -19.25656], [-54.24721, -19.25577], [-54.24773, -19.2557], [-54.24845, -19.25614], [-54.24919, -19.25722], [-54.25037, -19.25751], [-54.25068, -19.25773], [-54.2508, -19.25803], [-54.25041, -19.25886], [-54.25031, -19.25944], [-54.25065, -19.26044], [-54.25147, -19.26118], [-54.25352, -19.26202], [-54.25409, -19.26243], [-54.2543, -19.26279], [-54.25425, -19.26351], [-54.25282, -19.2652], [-54.25239, -19.26604], [-54.25255, -19.26636], [-54.25342, -19.26672], [-54.25362, -19.26699], [-54.25346, -19.26861], [-54.25357, -19.26942], [-54.25314, -19.27055], [-54.25326, -19.27103], [-54.25363, -19.27132], [-54.25498, -19.27174], [-54.25591, -19.27329], [-54.25641, -19.27383], [-54.25909, -19.27531], [-54.26044, -19.27656], [-54.26091, -19.27778], [-54.26036, -19.2793], [-54.26026, -19.28018], [-54.26073, -19.2812], [-54.26157, -19.28158], [-54.26221, -19.28148], [-54.26238, -19.28104], [-54.26191, -19.28002], [-54.26209, -19.27982], [-54.26253, -19.27979], [-54.26325, -19.28032], [-54.26418, -19.2817], [-54.26547, -19.28235], [-54.26644, -19.28315], [-54.26756, -19.28345], [-54.26862, -19.28336], [-54.26918, -19.28352], [-54.26967, -19.28403], [-54.26979, -19.28505], [-54.271, -19.28601], [-54.27288, -19.28862], [-54.27461, -19.29056], [-54.27475, -19.29116], [-54.27449, -19.29291], [-54.27469, -19.29384], [-54.27522, -19.29482], [-54.27684, -19.29679], [-54.27719, -19.29768], [-54.27671, -19.29842], [-54.27446, -19.30006], [-54.27386, -19.30154], [-54.27387, -19.30315], [-54.27456, -19.30541], [-54.27444, -19.30674], [-54.27498, -19.30815], [-54.27473, -19.30907], [-54.27381, -19.31036], [-54.27364, -19.31141], [-54.27444, -19.31273], [-54.27572, -19.31392], [-54.27898, -19.31525], [-54.27975, -19.31584], [-54.28134, -19.31554], [-54.28186, -19.31331], [-54.28178, -19.31244], [-54.2812, -19.3109], [-54.28118, -19.30961], [-54.28199, -19.30805], [-54.28266, -19.30727], [-54.28284, -19.30649], [-54.28447, -19.30568], [-54.28841, -19.30278], [-54.29421, -19.29797], [-54.29491, -19.29772], [-54.29531, -19.29718], [-54.29742, -19.29676], [-54.30802, -19.29393], [-54.32608, -19.2847], [-54.33078, -19.27868], [-54.33361, -19.27587], [-54.33674, -19.27351], [-54.33686, -19.27312], [-54.33652, -19.2693], [-54.3358, -19.26809], [-54.33344, -19.2651], [-54.32897, -19.25805], [-54.32903, -19.25593], [-54.32463, -19.25438], [-54.32342, -19.25297], [-54.31933, -19.2521], [-54.31825, -19.25151], [-54.29913, -19.22558], [-54.3221, -19.21915], [-54.32425, -19.21789], [-54.32717, -19.21496], [-54.32853, -19.21381], [-54.32924, -19.21367], [-54.3306, -19.21258], [-54.3316, -19.2124], [-54.33408, -19.21106], [-54.33558, -19.21068], [-54.33673, -19.21004], [-54.33764, -19.20916], [-54.33822, -19.20824], [-54.33814, -19.20745], [-54.33534, -19.20462], [-54.33533, -19.204], [-54.33488, -19.20293], [-54.33478, -19.2021], [-54.3344, -19.20125], [-54.33352, -19.20004], [-54.33354, -19.19626], [-54.33312, -19.1827], [-54.3314, -19.17922], [-54.33134, -19.17817], [-54.33219, -19.17602], [-54.33337, -19.17475], [-54.33532, -19.16936], [-54.33824, -19.16012], [-54.33882, -19.15947], [-54.34179, -19.1596], [-54.34636, -19.15892], [-54.34756, -19.15841], [-54.34806, -19.15767], [-54.34791, -19.15363], [-54.34903, -19.15092], [-54.34891, -19.15057], [-54.3546, -19.14406], [-54.35494, -19.14346], [-54.35376, -19.14163], [-54.35366, -19.14105], [-54.35098, -19.13953], [-54.35055, -19.13878], [-54.35032, -19.13763], [-54.35081, -19.13663], [-54.35076, -19.13618], [-54.34979, -19.1357], [-54.34925, -19.13489], [-54.34797, -19.134], [-54.34836, -19.13239], [-54.34928, -19.13065], [-54.34827, -19.12637], [-54.3488, -19.12583], [-54.35126, -19.12577], [-54.35434, -19.12519], [-54.35584, -19.12409], [-54.35842, -19.12077], [-54.35917, -19.12008], [-54.35936, -19.11823], [-54.35908, -19.11638], [-54.35786, -19.11455], [-54.35811, -19.11195], [-54.35808, -19.11075], [-54.35741, -19.10912], [-54.35802, -19.10587], [-54.35798, -19.10508], [-54.35678, -19.10417], [-54.35633, -19.10264], [-54.35424, -19.09862], [-54.35466, -19.09622], [-54.35843, -19.09197], [-54.36642, -19.07727], [-54.36686, -19.07347], [-54.36731, -19.07245], [-54.36727, -19.07148], [-54.3692, -19.07023], [-54.37045, -19.06903], [-54.37237, -19.06901], [-54.37311, -19.0686], [-54.37396, -19.06574], [-54.37917, -19.06433], [-54.38082, -19.06174], [-54.38329, -19.05964], [-54.39294, -19.05819], [-54.40151, -19.05731], [-54.40709, -19.05276], [-54.4161, -19.04432], [-54.41972, -19.04214], [-54.42015, -19.04203], [-54.42039, -19.04111], [-54.42602, -19.03953], [-54.43024, -19.03593], [-54.43579, -19.03146], [-54.43659, -19.03102], [-54.43565, -19.03063], [-54.43661, -19.02976], [-54.43774, -19.02938], [-54.43741, -19.02809], [-54.43669, -19.02765], [-54.43624, -19.0268], [-54.43623, -19.02618], [-54.43723, -19.02582], [-54.43657, -19.02431], [-54.43394, -19.02494], [-54.43209, -19.02466], [-54.43091, -19.02543], [-54.42936, -19.02515], [-54.42607, -19.02724], [-54.42496, -19.02717], [-54.42422, -19.02651], [-54.42385, -19.02381], [-54.42313, -19.02255], [-54.42138, -19.02236], [-54.41937, -19.02164], [-54.41794, -19.01939], [-54.41374, -19.01941], [-54.41271, -19.01801], [-54.41273, -19.01655], [-54.41381, -19.01503], [-54.41326, -19.01394], [-54.41181, -19.01321], [-54.41087, -19.01135], [-54.40959, -19.01041], [-54.40993, -19.00934], [-54.40889, -19.00848], [-54.40858, -19.00771], [-54.40957, -19.00672], [-54.40911, -19.00472], [-54.40953, -19.00372], [-54.40867, -19.00194], [-54.39864, -18.98519], [-54.39716, -18.98607], [-54.39451, -18.98603], [-54.39241, -18.98466], [-54.38973, -18.98681], [-54.38668, -18.98995], [-54.38816, -18.99714], [-54.38554, -19.00634], [-54.38157, -19.01182], [-54.3784, -19.01094], [-54.37622, -19.0151], [-54.37389, -19.01692], [-54.36881, -19.01416], [-54.36634, -19.01412], [-54.36186, -19.01775], [-54.3564, -19.01684], [-54.35262, -19.01779], [-54.34941, -19.01976], [-54.34855, -19.01857], [-54.34737, -19.01452], [-54.34634, -19.01283], [-54.3444, -19.0128], [-54.34278, -19.01479], [-54.34214, -19.02167], [-54.34157, -19.02418], [-54.3396, -19.02566], [-54.33817, -19.02648], [-54.3364, -19.02712], [-54.33536, -19.0256], [-54.33454, -19.02139], [-54.33213, -19.01749], [-54.32349, -19.0167], [-54.32246, -19.015], [-54.32161, -19.01281], [-54.31842, -19.0136], [-54.31589, -19.01692], [-54.31617, -19.02146], [-54.31929, -19.02503], [-54.32331, -19.02777], [-54.32344, -19.03063], [-54.32051, -19.03697], [-54.31782, -19.03978], [-54.31248, -19.04189], [-54.30551, -19.04045], [-54.30362, -19.03707], [-54.30187, -19.03621], [-54.29978, -19.03433], [-54.30035, -19.03165], [-54.30588, -19.02804], [-54.30664, -19.02487], [-54.30841, -19.02489], [-54.3095, -19.02323], [-54.30863, -19.02221], [-54.30459, -19.02064], [-54.30117, -19.02428], [-54.29817, -19.02424], [-54.29235, -19.02365], [-54.29004, -19.02446], [-54.2863, -19.02625], [-54.28165, -19.03004], [-54.279, -19.03], [-54.27725, -19.0288], [-54.27587, -19.0266], [-54.27375, -19.02657], [-54.27, -19.02936], [-54.26438, -19.0271], [-54.26546, -19.02577], [-54.26478, -19.02442], [-54.26263, -19.0264], [-54.26158, -19.02555], [-54.26375, -19.02273], [-54.26486, -19.01922], [-54.26243, -19.0165], [-54.25769, -19.01526], [-54.25355, -19.01939], [-54.25018, -19.02051], [-54.24737, -19.0193], [-54.24258, -19.02057], [-54.24484, -19.02312], [-54.24477, -19.02681], [-54.24632, -19.02968], [-54.24451, -19.032], [-54.24516, -19.03379]]]}}, 
{"type": "Feature", "properties": {"CD_SETOR": "500769510000005", "CD_SIT": "8", "NM_DIST": "Areado", "NM_SUBDIST": null}, "geometry": {"type": "Polygon", "coordinates": [[[-54.33017, -19.21304], [-54.32924, -19.21367], [-54.32853, -19.21381], [-54.32717, -19.21496], [-54.32425, -19.21789], [-54.3221, -19.21915], [-54.29913, -19.22558], [-54.31825, -19.25151], [-54.31933, -19.2521], [-54.32342, -19.25297], [-54.32463, -19.25438], [-54.32509, -19.25315], [-54.32363, -19.25264], [-54.32406, -19.25139], [-54.32489, -19.25023], [-54.32618, -19.25059], [-54.32716, -19.2476], [-54.32992, -19.2486], [-54.33004, -19.24955], [-54.33052, -19.25053], [-54.33149, -19.25122], [-54.33074, -19.2529], [-54.32903, -19.25593], [-54.32897, -19.25805], [-54.33344, -19.2651], [-54.3358, -19.26809], [-54.33652, -19.2693], [-54.33686, -19.27312], [-54.33674, -19.27351], [-54.33361, -19.27587], [-54.33078, -19.27868], [-54.32608, -19.2847], [-54.30802, -19.29393], [-54.29742, -19.29676], [-54.29531, -19.29718], [-54.29491, -19.29772], [-54.29421, -19.29797], [-54.28841, -19.30278], [-54.28447, -19.30568], [-54.28284, -19.30649], [-54.28266, -19.30727], [-54.28199, -19.30805], [-54.28118, -19.30961], [-54.2812, -19.3109], [-54.28178, -19.31244], [-54.28186, -19.31331], [-54.28134, -19.31554], [-54.27975, -19.31584], [-54.28049, -19.31642], [-54.28374, -19.31661], [-54.28474, -19.31611], [-54.28621, -19.3159], [-54.28763, -19.31481], [-54.28893, -19.31439], [-54.28969, -19.31464], [-54.29074, -19.31549], [-54.29187, -19.31562], [-54.29306, -19.31515], [-54.29371, -19.31398], [-54.29411, -19.31372], [-54.29474, -19.31358], [-54.2953, -19.31374], [-54.29647, -19.31467], [-54.297, -19.31483], [-54.29747, -19.3145], [-54.29719, -19.31348], [-54.29825, -19.31332], [-54.29872, -19.31356], [-54.29937, -19.31459], [-54.2999, -19.31502], [-54.30321, -19.3152], [-54.30624, -19.31622], [-54.30696, -19.31671], [-54.30872, -19.3184], [-54.31082, -19.31887], [-54.31131, -19.31915], [-54.31342, -19.32244], [-54.31766, -19.32436], [-54.31676, -19.41096], [-54.31822, -19.41065], [-54.31921, -19.41015], [-54.32067, -19.40978], [-54.32209, -19.40897], [-54.32253, -19.4091], [-54.3237, -19.41024], [-54.32451, -19.41068], [-54.32669, -19.41118], [-54.32837, -19.41101], [-54.32881, -19.41133], [-54.32887, -19.41166], [-54.32745, -19.41275], [-54.32727, -19.41312], [-54.32787, -19.41429], [-54.32782, -19.41554], [-54.32794, -19.41602], [-54.32958, -19.41721], [-54.33031, -19.41717], [-54.33196, -19.41671], [-54.33387, -19.41719], [-54.33429, -19.41702], [-54.33438, -19.41595], [-54.33531, -19.41479], [-54.33552, -19.41394], [-54.33582, -19.41355], [-54.33613, -19.41367], [-54.33671, -19.41479], [-54.33712, -19.41518], [-54.34075, -19.41558], [-54.34104, -19.41529], [-54.34069, -19.41468], [-54.34084, -19.41444], [-54.3413, -19.41443], [-54.34249, -19.41478], [-54.34306, -19.41473], [-54.34383, -19.41432], [-54.34453, -19.41329], [-54.3449, -19.41326], [-54.34594, -19.41363], [-54.34661, -19.41286], [-54.34751, -19.41289], [-54.35083, -19.40957], [-54.35126, -19.40925], [-54.35166, -19.40919], [-54.35235, -19.40969], [-54.35249, -19.41006], [-54.35207, -19.41125], [-54.35086, -19.41221], [-54.3507, -19.41433], [-54.3508, -19.41499], [-54.35133, -19.41599], [-54.35197, -19.4165], [-54.35228, -19.4163], [-54.3525, -19.4153], [-54.35273, -19.41499], [-54.35337, -19.41478], [-54.35394, -19.415], [-54.35421, -19.41532], [-54.35414, -19.41654], [-54.3544, -19.41756], [-54.35451, -19.41786], [-54.35486, -19.41811], [-54.35536, -19.41808], [-54.35642, -19.41741], [-54.3575, -19.4173], [-54.35811, -19.41775], [-54.35873, -19.41885], [-54.35911, -19.41903], [-54.35944, -19.41899], [-54.35967, -19.41876], [-54.35986, -19.41785], [-54.36013, -19.41735], [-54.36145, -19.41639], [-54.36245, -19.41516], [-54.36291, -19.41517], [-54.36383, -19.41614], [-54.36477, -19.41603], [-54.36566, -19.41529], [-54.3667, -19.41342], [-54.36741, -19.41301], [-54.36805, -19.41292], [-54.36826, -19.4132], [-54.36824, -19.41441], [-54.36867, -19.41488], [-54.36888, -19.41489], [-54.36902, -19.41469], [-54.36907, -19.41361], [-54.3697, -19.41345], [-54.37016, -19.41353], [-54.37152, -19.41419], [-54.37349, -19.41426], [-54.37457, -19.41533], [-54.37502, -19.41528], [-54.37516, -19.41481], [-54.37553, -19.41479], [-54.37724, -19.4153], [-54.37762, -19.41599], [-54.38012, -19.41779], [-54.38102, -19.41811], [-54.38361, -19.41596], [-54.385, -19.41629], [-54.38507, -19.41739], [-54.38713, -19.41773], [-54.38736, -19.41836], [-54.38511, -19.41973], [-54.38501, -19.42098], [-54.38725, -19.42055], [-54.38929, -19.42136], [-54.39138, -19.41967], [-54.39244, -19.42046], [-54.39417, -19.42111], [-54.39508, -19.42082], [-54.39601, -19.41911], [-54.39691, -19.41943], [-54.39869, -19.42196], [-54.39975, -19.42244], [-54.40084, -19.42168], [-54.40223, -19.42201], [-54.40515, -19.41987], [-54.40705, -19.4202], [-54.40893, -19.42086], [-54.41019, -19.41962], [-54.41142, -19.42027], [-54.41214, -19.42153], [-54.41306, -19.4206], [-54.4146, -19.4225], [-54.41676, -19.42144], [-54.417, -19.42207], [-54.41871, -19.42319], [-54.41752, -19.42536], [-54.41792, -19.42615], [-54.42042, -19.42462], [-54.42117, -19.42385], [-54.42207, -19.42495], [-54.42364, -19.42451], [-54.42832, -19.42598], [-54.42956, -19.42568], [-54.43065, -19.42461], [-54.43174, -19.42384], [-54.43313, -19.42402], [-54.4347, -19.42388], [-54.43596, -19.42265], [-54.43737, -19.42189], [-54.43989, -19.41942], [-54.44227, -19.41992], [-54.44468, -19.41918], [-54.44576, -19.41841], [-54.44508, -19.4167], [-54.44127, -19.40125], [-54.44209, -19.37868], [-54.44113, -19.35342], [-54.44329, -19.34837], [-54.45202, -19.342], [-54.45334, -19.33383], [-54.45747, -19.32858], [-54.46962, -19.31984], [-54.47834, -19.31497], [-54.49124, -19.30866], [-54.51515, -19.29444], [-54.52518, -19.28074], [-54.5388, -19.26568], [-54.55035, -19.2489], [-54.55823, -19.23968], [-54.56664, -19.23387], [-54.58151, -19.23491], [-54.59101, -19.23616], [-54.61092, -19.23812], [-54.63307, -19.24109], [-54.64234, -19.23782], [-54.66295, -19.23244], [-54.66721, -19.22628], [-54.66668, -19.22147], [-54.65464, -19.21031], [-54.6467, -19.20399], [-54.64175, -19.19602], [-54.64147, -19.1942], [-54.62713, -19.19409], [-54.61863, -19.19456], [-54.61422, -19.19252], [-54.60493, -19.19236], [-54.601, -19.19], [-54.59644, -19.18827], [-54.59282, -19.18717], [-54.58983, -19.18701], [-54.58038, -19.18953], [-54.57755, -19.19063], [-54.57424, -19.19157], [-54.56826, -19.1922], [-54.56574, -19.19488], [-54.56244, -19.19803], [-54.55709, -19.20133], [-54.55095, -19.20275], [-54.54607, -19.20353], [-54.54371, -19.20353], [-54.54229, -19.20464], [-54.5349, -19.20936], [-54.53128, -19.20952], [-54.52813, -19.21046], [-54.52593, -19.21077], [-54.52057, -19.20794], [-54.51349, -19.20841], [-54.5105, -19.2103], [-54.50342, -19.21361], [-54.5009, -19.21534], [-54.49539, -19.21849], [-54.49335, -19.22022], [-54.49162, -19.22069], [-54.49083, -19.21975], [-54.48894, -19.21912], [-54.48768, -19.21896], [-54.48611, -19.21975], [-54.47871, -19.22148], [-54.47682, -19.22053], [-54.47399, -19.22053], [-54.47115, -19.22006], [-54.46895, -19.21912], [-54.46596, -19.2188], [-54.46486, -19.21786], [-54.46281, -19.21754], [-54.46045, -19.21754], [-54.46014, -19.21613], [-54.45668, -19.21691], [-54.45683, -19.21833], [-54.4562, -19.21943], [-54.45447, -19.21943], [-54.45148, -19.2188], [-54.44896, -19.21896], [-54.44755, -19.2177], [-54.44582, -19.21896], [-54.4444, -19.21849], [-54.44172, -19.21833], [-54.44015, -19.2177], [-54.43496, -19.21707], [-54.43275, -19.21849], [-54.42945, -19.21849], [-54.42772, -19.21833], [-54.42646, -19.21754], [-54.42457, -19.21817], [-54.42331, -19.21754], [-54.42174, -19.21786], [-54.42189, -19.22022], [-54.42048, -19.22305], [-54.41827, -19.22321], [-54.41607, -19.22462], [-54.41418, -19.22462], [-54.41308, -19.22573], [-54.41135, -19.2262], [-54.4104, -19.2251], [-54.40836, -19.22431], [-54.40741, -19.22242], [-54.40537, -19.22195], [-54.40112, -19.22321], [-54.39939, -19.22289], [-54.3975, -19.22289], [-54.39577, -19.22226], [-54.39278, -19.22163], [-54.38931, -19.22148], [-54.38758, -19.22085], [-54.38585, -19.22116], [-54.38428, -19.21927], [-54.37971, -19.22085], [-54.37751, -19.224], [-54.37657, -19.22321], [-54.37546, -19.22368], [-54.37562, -19.22525], [-54.37342, -19.22651], [-54.372, -19.22573], [-54.37137, -19.22683], [-54.37121, -19.22872], [-54.36948, -19.23092], [-54.36681, -19.23186], [-54.36696, -19.2336], [-54.36523, -19.23706], [-54.36382, -19.23816], [-54.35972, -19.238], [-54.35705, -19.23769], [-54.35595, -19.23643], [-54.35012, -19.23737], [-54.34603, -19.23847], [-54.34572, -19.23706], [-54.34462, -19.23706], [-54.34288, -19.23674], [-54.34147, -19.23485], [-54.341, -19.2336], [-54.34021, -19.23454], [-54.33895, -19.23454], [-54.33753, -19.23407], [-54.33501, -19.23013], [-54.33218, -19.22982], [-54.33077, -19.22919], [-54.33171, -19.22746], [-54.3325, -19.22683], [-54.3325, -19.22494], [-54.33234, -19.22289], [-54.33108, -19.22069], [-54.32951, -19.21975], [-54.32935, -19.2155], [-54.33017, -19.21304]]]}}, 
{"type": "Feature", "properties": {"CD_SETOR": "500769510000006", "CD_SIT": "8", "NM_DIST": "Areado", "NM_SUBDIST": null}, "geometry": {"type": "Polygon", "coordinates": [[[-54.54219, -19.03551], [-54.56052, -19.04513], [-54.56056, -19.04548], [-54.5613, -19.04548], [-54.56912, -19.0495], [-54.56932, -19.04997], [-54.57186, -19.05338], [-54.57315, -19.05431], [-54.57465, -19.05598], [-54.57614, -19.0542], [-54.58005, -19.05051], [-54.5867, -19.04729], [-54.59988, -19.04218], [-54.59924, -19.04034], [-54.58585, -19.01301], [-54.56311, -19.00545], [-54.55093, -19.02339], [-54.53967, -19.00874], [-54.53766, -19.00709], [-54.53582, -19.00652], [-54.53227, -19.00653], [-54.52392, -19.0208], [-54.51647, -19.02661], [-54.52553, -19.03046], [-54.52284, -19.03164], [-54.5266, -19.03355], [-54.53099, -19.02986], [-54.5299, -19.02824], [-54.53623, -19.02551], [-54.54219, -19.03551]]]}}, 
{"type": "Feature", "properties": {"CD_SETOR": "500769510000007", "CD_SIT": "8", "NM_DIST": "Areado", "NM_SUBDIST": null}, "geometry": {"type": "Polygon", "coordinates": [[[-54.39885, -18.98563], [-54.40867, -19.00194], [-54.40953, -19.00372], [-54.40911, -19.00472], [-54.40957, -19.00672], [-54.40858, -19.00771], [-54.40889, -19.00848], [-54.40993, -19.00934], [-54.40959, -19.01041], [-54.41087, -19.01135], [-54.41181, -19.01321], [-54.41326, -19.01394], [-54.41381, -19.01503], [-54.41273, -19.01655], [-54.41271, -19.01801], [-54.41374, -19.01941], [-54.41794, -19.01939], [-54.41937, -19.02164], [-54.42138, -19.02236], [-54.42313, -19.02255], [-54.42385, -19.02381], [-54.42422, -19.02651], [-54.42496, -19.02717], [-54.42607, -19.02724], [-54.42936, -19.02515], [-54.43091, -19.02543], [-54.43209, -19.02466], [-54.43394, -19.02494], [-54.43657, -19.02431], [-54.43723, -19.02582], [-54.43623, -19.02618], [-54.43624, -19.0268], [-54.43669, -19.02765], [-54.43741, -19.02809], [-54.43774, -19.02938], [-54.43661, -19.02976], [-54.43565, -19.03063], [-54.43659, -19.03102], [-54.43579, -19.03146], [-54.43024, -19.03593], [-54.42602, -19.03953], [-54.42039, -19.04111], [-54.42015, -19.04203], [-54.41972, -19.04214], [-54.4161, -19.04432], [-54.40709, -19.05276], [-54.40151, -19.05731], [-54.39294, -19.05819], [-54.38329, -19.05964], [-54.38082, -19.06174], [-54.37917, -19.06433], [-54.37396, -19.06574], [-54.37311, -19.0686], [-54.37237, -19.06901], [-54.37045, -19.06903], [-54.3692, -19.07023], [-54.36727, -19.07148], [-54.36731, -19.07245], [-54.36686, -19.07347], [-54.36642, -19.07727], [-54.35843, -19.09197], [-54.35466, -19.09622], [-54.35424, -19.09862], [-54.35633, -19.10264], [-54.35678, -19.10417], [-54.35798, -19.10508], [-54.35802, -19.10587], [-54.35741, -19.10912], [-54.35808, -19.11075], [-54.35811, -19.11195], [-54.35786, -19.11455], [-54.35908, -19.11638], [-54.35936, -19.11823], [-54.35917, -19.12008], [-54.35842, -19.12077], [-54.35584, -19.12409], [-54.35434, -19.12519], [-54.35126, -19.12577], [-54.3488, -19.12583], [-54.34827, -19.12637], [-54.34928, -19.13065], [-54.34836, -19.13239], [-54.34797, -19.134], [-54.34925, -19.13489], [-54.34979, -19.1357], [-54.35076, -19.13618], [-54.35081, -19.13663], [-54.35032, -19.13763], [-54.35055, -19.13878], [-54.35098, -19.13953], [-54.35366, -19.14105], [-54.35376, -19.14163], [-54.35494, -19.14346], [-54.3546, -19.14406], [-54.34891, -19.15057], [-54.34903, -19.15092], [-54.34791, -19.15363], [-54.34806, -19.15767], [-54.34756, -19.15841], [-54.34636, -19.15892], [-54.34179, -19.1596], [-54.33882, -19.15947], [-54.33824, -19.16012], [-54.33532, -19.16936], [-54.33337, -19.17475], [-54.33219, -19.17602], [-54.33134, -19.17817], [-54.3314, -19.17922], [-54.33312, -19.1827], [-54.33354, -19.19626], [-54.33352, -19.20004], [-54.3344, -19.20125], [-54.33478, -19.2021], [-54.33488, -19.20293], [-54.33533, -19.204], [-54.33534, -19.20462], [-54.33814, -19.20745], [-54.33822, -19.20824], [-54.33764, -19.20916], [-54.33673, -19.21004], [-54.33558, -19.21068], [-54.33408, -19.21106], [-54.3316, -19.2124], [-54.3306, -19.21258], [-54.33017, -19.21304], [-54.32935, -19.2155], [-54.32951, -19.21975], [-54.33108, -19.22069], [-54.33234, -19.22289], [-54.3325, -19.22494], [-54.3325, -19.22683], [-54.33171, -19.22746], [-54.33077, -19.22919], [-54.33218, -19.22982], [-54.33501, -19.23013], [-54.33753, -19.23407], [-54.33895, -19.23454], [-54.34021, -19.23454], [-54.341, -19.2336], [-54.34147, -19.23485], [-54.34288, -19.23674], [-54.34462, -19.23706], [-54.34572, -19.23706], [-54.34603, -19.23847], [-54.35012, -19.23737], [-54.35595, -19.23643], [-54.35705, -19.23769], [-54.35972, -19.238], [-54.36382, -19.23816], [-54.36523, -19.23706], [-54.36696, -19.2336], [-54.36681, -19.23186], [-54.36948, -19.23092], [-54.37121, -19.22872], [-54.37137, -19.22683], [-54.372, -19.22573], [-54.37342, -19.22651], [-54.37562, -19.22525], [-54.37546, -19.22368], [-54.37657, -19.22321], [-54.37751, -19.224], [-54.37971, -19.22085], [-54.38428, -19.21927], [-54.38585, -19.22116], [-54.38758, -19.22085], [-54.38931, -19.22148], [-54.39278, -19.22163], [-54.39577, -19.22226], [-54.3975, -19.22289], [-54.39939, -19.22289], [-54.40112, -19.22321], [-54.40537, -19.22195], [-54.40741, -19.22242], [-54.40836, -19.22431], [-54.4104, -19.2251], [-54.41135, -19.2262], [-54.41308, -19.22573], [-54.41418, -19.22462], [-54.41607, -19.22462], [-54.41827, -19.22321], [-54.42048, -19.22305], [-54.42189, -19.22022], [-54.42174, -19.21786], [-54.42331, -19.21754], [-54.42457, -19.21817], [-54.42646, -19.21754], [-54.42772, -19.21833], [-54.42945, -19.21849], [-54.43275, -19.21849], [-54.43496, -19.21707], [-54.44015, -19.2177], [-54.44172, -19.21833], [-54.4444, -19.21849], [-54.44582, -19.21896], [-54.44755, -19.2177], [-54.44896, -19.21896], [-54.45148, -19.2188], [-54.45447, -19.21943], [-54.4562, -19.21943], [-54.45683, -19.21833], [-54.45668, -19.21691], [-54.46014, -19.21613], [-54.46045, -19.21754], [-54.46281, -19.21754], [-54.46486, -19.21786], [-54.46596, -19.2188], [-54.46895, -19.21912], [-54.47115, -19.22006], [-54.47399, -19.22053], [-54.47682, -19.22053], [-54.47871, -19.22148], [-54.48611, -19.21975], [-54.48768, -19.21896], [-54.48894, -19.21912], [-54.49083, -19.21975], [-54.49162, -19.22069], [-54.49335, -19.22022], [-54.49539, -19.21849], [-54.5009, -19.21534], [-54.50342, -19.21361], [-54.5105, -19.2103], [-54.51349, -19.20841], [-54.52057, -19.20794], [-54.52593, -19.21077], [-54.52813, -19.21046], [-54.53128, -19.20952], [-54.5349, -19.20936], [-54.54229, -19.20464], [-54.54371, -19.20353], [-54.54607, -19.20353], [-54.55095, -19.20275], [-54.55709, -19.20133], [-54.56244, -19.19803], [-54.56574, -19.19488], [-54.56826, -19.1922], [-54.57424, -19.19157], [-54.57755, -19.19063], [-54.58038, -19.18953], [-54.58983, -19.18701], [-54.59282, -19.18717], [-54.59644, -19.18827], [-54.601, -19.19], [-54.60493, -19.19236], [-54.61422, -19.19252], [-54.61863, -19.19456], [-54.62713, -19.19409], [-54.64147, -19.1942], [-54.63978, -19.18323], [-54.64019, -19.17533], [-54.64265, -19.16929], [-54.64539, -19.16495], [-54.64856, -19.16175], [-54.6537, -19.15588], [-54.65826, -19.14854], [-54.65781, -19.13851], [-54.65626, -19.13256], [-54.65191, -19.1246], [-54.64768, -19.11862], [-54.64403, -19.11391], [-54.63693, -19.10603], [-54.63241, -19.10046], [-54.62472, -19.08709], [-54.62439, -19.0789], [-54.62498, -19.06856], [-54.62755, -19.05492], [-54.62718, -19.04955], [-54.62742, -19.04334], [-54.62721, -19.03699], [-54.62435, -19.02932], [-54.62217, -19.02605], [-54.62204, -19.02464], [-54.61444, -19.01557], [-54.61022, -19.00931], [-54.60692, -19.00136], [-54.60504, -18.99766], [-54.6021, -18.99565], [-54.59997, -18.97884], [-54.59856, -18.97873], [-54.59764, -18.97828], [-54.59734, -18.97795], [-54.59693, -18.97681], [-54.59648, -18.97613], [-54.59506, -18.97475], [-54.59426, -18.97423], [-54.59329, -18.97426], [-54.59314, -18.97479], [-54.59328, -18.976], [-54.59314, -18.97622], [-54.59267, -18.97632], [-54.59139, -18.97594], [-54.58903, -18.97488], [-54.58612, -18.97508], [-54.58244, -18.97426], [-54.58097, -18.97244], [-54.58019, -18.96981], [-54.57979, -18.96937], [-54.57907, -18.96927], [-54.57829, -18.96943], [-54.57688, -18.97083], [-54.57649, -18.97101], [-54.57609, -18.97098], [-54.57367, -18.96807], [-54.57248, -18.96698], [-54.56905, -18.9647], [-54.56706, -18.96397], [-54.56652, -18.96356], [-54.56664, -18.96236], [-54.5661, -18.9611], [-54.56576, -18.95963], [-54.56662, -18.95839], [-54.56677, -18.95776], [-54.56659, -18.95728], [-54.56615, -18.95688], [-54.56545, -18.9565], [-54.56464, -18.95637], [-54.56281, -18.95669], [-54.56224, -18.95661], [-54.56067, -18.95594], [-54.55907, -18.95481], [-54.55816, -18.95438], [-54.55506, -18.95467], [-54.55356, -18.95399], [-54.55164, -18.95353], [-54.55075, -18.95369], [-54.54931, -18.95433], [-54.54696, -18.95578], [-54.54644, -18.95581], [-54.54565, -18.95558], [-54.54459, -18.95484], [-54.54358, -18.95483], [-54.54014, -18.95652], [-54.53636, -18.95757], [-54.53502, -18.95816], [-54.53332, -18.95979], [-54.52926, -18.96465], [-54.52679, -18.96659], [-54.52442, -18.96791], [-54.52103, -18.97101], [-54.51992, -18.97171], [-54.51821, -18.97212], [-54.51691, -18.97196], [-54.51565, -18.97157], [-54.51455, -18.97085], [-54.51339, -18.96968], [-54.51154, -18.96734], [-54.51065, -18.96676], [-54.50991, -18.96673], [-54.50926, -18.96711], [-54.50871, -18.96783], [-54.50902, -18.97122], [-54.50884, -18.97191], [-54.5083, -18.97237], [-54.50715, -18.97279], [-54.50347, -18.97335], [-54.5019, -18.97384], [-54.50067, -18.97442], [-54.49766, -18.97631], [-54.49574, -18.97694], [-54.4939, -18.97721], [-54.49263, -18.97706], [-54.49178, -18.97659], [-54.49101, -18.97534], [-54.49081, -18.97379], [-54.49025, -18.97333], [-54.48864, -18.97572], [-54.48761, -18.9789], [-54.48711, -18.97953], [-54.48659, -18.97977], [-54.48575, -18.97963], [-54.48281, -18.97807], [-54.48175, -18.97785], [-54.48055, -18.97826], [-54.47884, -18.97968], [-54.47821, -18.97983], [-54.47748, -18.9798], [-54.47673, -18.97921], [-54.47615, -18.97769], [-54.47553, -18.97662], [-54.4749, -18.97608], [-54.47402, -18.97571], [-54.47244, -18.97591], [-54.47059, -18.97663], [-54.4694, -18.97689], [-54.46887, -18.97685], [-54.46805, -18.97644], [-54.46731, -18.97632], [-54.46069, -18.97635], [-54.45958, -18.97608], [-54.45796, -18.9754], [-54.45677, -18.97444], [-54.45593, -18.97404], [-54.45438, -18.97391], [-54.45315, -18.97431], [-54.45199, -18.97549], [-54.45149, -18.97633], [-54.45115, -18.97756], [-54.45059, -18.97817], [-54.4494, -18.97827], [-54.44802, -18.97736], [-54.44762, -18.9773], [-54.44734, -18.97744], [-54.44678, -18.9782], [-54.44637, -18.97947], [-54.44542, -18.98099], [-54.44403, -18.98259], [-54.44235, -18.98395], [-54.44063, -18.98443], [-54.43922, -18.98447], [-54.43833, -18.9843], [-54.43787, -18.98399], [-54.43765, -18.9835], [-54.4377, -18.98286], [-54.43785, -18.98265], [-54.43963, -18.98194], [-54.43996, -18.98159], [-54.44001, -18.98115], [-54.43903, -18.98024], [-54.4379, -18.97986], [-54.43618, -18.97957], [-54.43541, -18.97901], [-54.43526, -18.97842], [-54.43532, -18.97768], [-54.43704, -18.97618], [-54.43725, -18.97489], [-54.43704, -18.97435], [-54.43634, -18.97365], [-54.43573, -18.97335], [-54.43499, -18.97329], [-54.43396, -18.97354], [-54.43043, -18.97517], [-54.42821, -18.97662], [-54.42732, -18.97699], [-54.42611, -18.97717], [-54.42354, -18.97709], [-54.41837, -18.97854], [-54.41482, -18.97834], [-54.41306, -18.97779], [-54.41078, -18.97676], [-54.40989, -18.97677], [-54.40853, -18.97783], [-54.40814, -18.97837], [-54.40804, -18.97886], [-54.40825, -18.97957], [-54.40981, -18.98141], [-54.41005, -18.98251], [-54.40816, -18.98567], [-54.40736, -18.9865], [-54.40569, -18.98759], [-54.4047, -18.98798], [-54.40389, -18.98811], [-54.40263, -18.98771], [-54.40158, -18.98773], [-54.40104, -18.98755], [-54.39885, -18.98563]], [[-54.56052, -19.04513], [-54.55451, -19.0467], [-54.54786, -19.0609], [-54.54481, -19.05486], [-54.53464, -19.05486], [-54.52833, -19.05867], [-54.52472, -19.06638], [-54.52914, -19.06885], [-54.52584, -19.0706], [-54.52343, -19.07412], [-54.52318, -19.07542], [-54.50884, -19.07364], [-54.5182, -19.05928], [-54.51661, -19.05478], [-54.52528, -19.04289], [-54.52704, -19.04601], [-54.53494, -19.03486], [-54.54219, -19.03551], [-54.53623, -19.02551], [-54.5299, -19.02824], [-54.53099, -19.02986], [-54.5266, -19.03355], [-54.52284, -19.03164], [-54.52553, -19.03046], [-54.51647, -19.02661], [-54.52392, -19.0208], [-54.53227, -19.00653], [-54.53582, -19.00652], [-54.53766, -19.00709], [-54.53967, -19.00874], [-54.55093, -19.02339], [-54.56311, -19.00545], [-54.58585, -19.01301], [-54.59924, -19.04034], [-54.59988, -19.04218], [-54.5867, -19.04729], [-54.58005, -19.05051], [-54.57614, -19.0542], [-54.57465, -19.05598], [-54.57315, -19.05431], [-54.57186, -19.05338], [-54.56932, -19.04997], [-54.56912, -19.0495], [-54.5613, -19.04548], [-54.56056, -19.04548], [-54.56052, -19.04513]]]}}, 
{"type": "Feature", "properties": {"CD_SETOR": "500769510000008", "CD_SIT": "8", "NM_DIST": "Areado", "NM_SUBDIST": null}, "geometry": {"type": "Polygon", "coordinates": [[[-54.56052, -19.04513], [-54.54219, -19.03551], [-54.53494, -19.03486], [-54.52704, -19.04601], [-54.52528, -19.04289], [-54.51661, -19.05478], [-54.5182, -19.05928], [-54.50884, -19.07364], [-54.52318, -19.07542], [-54.52343, -19.07412], [-54.52584, -19.0706], [-54.52914, -19.06885], [-54.52472, -19.06638], [-54.52833, -19.05867], [-54.53464, -19.05486], [-54.54481, -19.05486], [-54.54786, -19.0609], [-54.55451, -19.0467], [-54.56052, -19.04513]]]}}, 
{"type": "Feature", "properties": {"CD_SETOR": "500769515000001", "CD_SIT": "1", "NM_DIST": "Ponte Vermelha", "NM_SUBDIST": null}, "geometry": {"type": "Polygon", "coordinates": [[[-54.42365, -19.47477], [-54.42688, -19.47598], [-54.42875, -19.47627], [-54.42978, -19.47263], [-54.43053, -19.46867], [-54.42739, -19.46991], [-54.42668, -19.47222], [-54.42499, -19.47219], [-54.42453, -19.47424], [-54.42393, -19.47416], [-54.42365, -19.47477]]]}}, 
{"type": "Feature", "properties": {"CD_SETOR": "500769515000002", "CD_SIT": "8", "NM_DIST": "Ponte Vermelha", "NM_SUBDIST": null}, "geometry": {"type": "Polygon", "coordinates": [[[-54.44508, -19.4167], [-54.44576, -19.41841], [-54.44468, -19.41918], [-54.44227, -19.41992], [-54.43989, -19.41942], [-54.43737, -19.42189], [-54.43596, -19.42265], [-54.4347, -19.42388], [-54.43313, -19.42402], [-54.43174, -19.42384], [-54.43065, -19.42461], [-54.42956, -19.42568], [-54.42832, -19.42598], [-54.42364, -19.42451], [-54.42207, -19.42495], [-54.42117, -19.42385], [-54.42042, -19.42462], [-54.41792, -19.42615], [-54.41752, -19.42536], [-54.41871, -19.42319], [-54.417, -19.42207], [-54.41676, -19.42144], [-54.4146, -19.4225], [-54.41306, -19.4206], [-54.41214, -19.42153], [-54.41142, -19.42027], [-54.41019, -19.41962], [-54.40893, -19.42086], [-54.40705, -19.4202], [-54.40515, -19.41987], [-54.40223, -19.42201], [-54.40084, -19.42168], [-54.39975, -19.42244], [-54.39869, -19.42196], [-54.39691, -19.41943], [-54.39601, -19.41911], [-54.39508, -19.42082], [-54.39417, -19.42111], [-54.39244, -19.42046], [-54.39138, -19.41967], [-54.38929, -19.42136], [-54.38725, -19.42055], [-54.38501, -19.42098], [-54.38511, -19.41973], [-54.38736, -19.41836], [-54.38713, -19.41773], [-54.38507, -19.41739], [-54.385, -19.41629], [-54.38361, -19.41596], [-54.38102, -19.41811], [-54.38012, -19.41779], [-54.37762, -19.41599], [-54.37755, -19.41694], [-54.37691, -19.41828], [-54.3723, -19.42355], [-54.37154, -19.42496], [-54.37143, -19.4261], [-54.37164, -19.42673], [-54.37305, -19.42933], [-54.37309, -19.42982], [-54.37276, -19.4309], [-54.37283, -19.43131], [-54.37411, -19.43239], [-54.37464, -19.43394], [-54.3755, -19.43501], [-54.37585, -19.43597], [-54.37612, -19.43834], [-54.37607, -19.44025], [-54.37714, -19.44178], [-54.37759, -19.44287], [-54.37751, -19.4437], [-54.37712, -19.4448], [-54.37739, -19.44574], [-54.378, -19.44613], [-54.37964, -19.44575], [-54.38064, -19.44678], [-54.38249, -19.44695], [-54.38331, -19.44736], [-54.38353, -19.44769], [-54.38354, -19.44805], [-54.38279, -19.44851], [-54.38262, -19.44895], [-54.38268, -19.44925], [-54.38327, -19.44965], [-54.38292, -19.45027], [-54.38297, -19.45054], [-54.38436, -19.45097], [-54.38501, -19.45162], [-54.38603, -19.45167], [-54.38704, -19.4526], [-54.38808, -19.45327], [-54.38766, -19.45464], [-54.38786, -19.45503], [-54.3886, -19.45536], [-54.38887, -19.45574], [-54.3889, -19.45672], [-54.38865, -19.4587], [-54.38879, -19.46015], [-54.38924, -19.46136], [-54.38972, -19.46161], [-54.3914, -19.46138], [-54.39238, -19.46157], [-54.39278, -19.46209], [-54.39305, -19.46349], [-54.39332, -19.46391], [-54.39596, -19.46601], [-54.39842, -19.4674], [-54.40049, -19.46954], [-54.40142, -19.47004], [-54.40323, -19.4705], [-54.40413, -19.47044], [-54.40574, -19.46977], [-54.40674, -19.46963], [-54.41204, -19.47109], [-54.41749, -19.47123], [-54.41938, -19.47225], [-54.42224, -19.47414], [-54.42365, -19.47477], [-54.42393, -19.47416], [-54.42453, -19.47424], [-54.42499, -19.47219], [-54.42668, -19.47222], [-54.42739, -19.46991], [-54.43053, -19.46867], [-54.42978, -19.47263], [-54.42875, -19.47627], [-54.42979, -19.47634], [-54.43006, -19.47812], [-54.43014, -19.48141], [-54.43145, -19.4857], [-54.43221, -19.49187], [-54.43182, -19.49361], [-54.43017, -19.49696], [-54.42931, -19.49967], [-54.42916, -19.50057], [-54.42972, -19.50517], [-54.43073, -19.50824], [-54.4328, -19.51354], [-54.43367, -19.5154], [-54.43658, -19.52069], [-54.43741, -19.5219], [-54.43755, -19.52386], [-54.43745, -19.52514], [-54.43654, -19.52871], [-54.43647, -19.53021], [-54.43675, -19.53447], [-54.43627, -19.53689], [-54.43602, -19.54029], [-54.43532, -19.54194], [-54.4333, -19.54458], [-54.43174, -19.54724], [-54.43065, -19.55331], [-54.43533, -19.55122], [-54.45829, -19.54005], [-54.45884, -19.53992], [-54.46428, -19.53974], [-54.46819, -19.53981], [-54.46912, -19.54013], [-54.47204, -19.54363], [-54.47365, -19.55087], [-54.47751, -19.55479], [-54.48497, -19.56162], [-54.48664, -19.56255], [-54.48778, -19.56264], [-54.48982, -19.5625], [-54.49167, -19.56181], [-54.5007, -19.55924], [-54.50276, -19.55844], [-54.50332, -19.55807], [-54.50783, -19.54882], [-54.51157, -19.54046], [-54.51241, -19.53829], [-54.51289, -19.53783], [-54.51413, -19.5374], [-54.51471, -19.53741], [-54.5197, -19.538], [-54.52815, -19.53849], [-54.53117, -19.53846], [-54.5384, -19.52693], [-54.53911, -19.52366], [-54.53752, -19.51957], [-54.53703, -19.51607], [-54.536, -19.51103], [-54.52654, -19.5037], [-54.52332, -19.49803], [-54.52009, -19.49345], [-54.51704, -19.48778], [-54.51682, -19.48105], [-54.51994, -19.4709], [-54.52351, -19.46438], [-54.52987, -19.45837], [-54.53639, -19.45267], [-54.53848, -19.44519], [-54.53895, -19.43598], [-54.53989, -19.42848], [-54.54014, -19.42265], [-54.53572, -19.40961], [-54.53427, -19.4074], [-54.5328, -19.40645], [-54.52967, -19.40771], [-54.52656, -19.41014], [-54.51786, -19.41237], [-54.5137, -19.41412], [-54.51146, -19.41557], [-54.50748, -19.41439], [-54.50322, -19.41483], [-54.50045, -19.41291], [-54.49894, -19.41215], [-54.49677, -19.41017], [-54.4929, -19.41046], [-54.48531, -19.41036], [-54.48343, -19.4094], [-54.48135, -19.4103], [-54.47718, -19.41337], [-54.47511, -19.41413], [-54.47098, -19.41438], [-54.46893, -19.41389], [-54.46603, -19.41416], [-54.46396, -19.41507], [-54.4619, -19.41488], [-54.4578, -19.41326], [-54.45532, -19.41354], [-54.45456, -19.41447], [-54.45317, -19.41398], [-54.45126, -19.41489], [-54.44508, -19.4167]]]}}]}