{"type": "FeatureCollection", "features": [
{"type": "Feature", "properties": {"CD_SETOR": "520082905000001", "CD_SIT": "1", "NM_DIST": "Amaralina", "NM_SUBDIST": null}, "geometry": {"type": "Polygon", "coordinates": [[[-49.29142, -13.93245], [-49.2975, -13.92877], [-49.29665, -13.92499], [-49.2975, -13.92273], [-49.29698, -13.92137], [-49.29634, -13.92164], [-49.29694, -13.92299], [-49.29526, -13.92324], [-49.29607, -13.92546], [-49.29393, -13.92953], [-49.29081, -13.93063], [-49.29142, -13.93245]]]}}, 
{"type": "Feature", "properties": {"CD_SETOR": "520082905000002", "CD_SIT": "1", "NM_DIST": "Amaralina", "NM_SUBDIST": null}, "geometry": {"type": "Polygon", "coordinates": [[[-49.2975, -13.92877], [-49.29109, -13.93266], [-49.28699, -13.93618], [-49.28843, -13.93784], [-49.29087, -13.93847], [-49.29129, -13.93744], [-49.29141, -13.93665], [-49.29159, -13.93648], [-49.29208, -13.93756], [-49.29598, -13.93617], [-49.29447, -13.93083], [-49.2983, -13.93064], [-49.29901, -13.9319], [-49.30176, -13.93142], [-49.30212, -13.93303], [-49.30378, -13.9328], [-49.30382, -13.93123], [-49.30219, -13.9312], [-49.30132, -13.93046], [-49.3003, -13.92866], [-49.2975, -13.92877]]]}}, 
{"type": "Feature", "properties": {"CD_SETOR": "520082905000003", "CD_SIT": "8", "NM_DIST": "Amaralina", "NM_SUBDIST": null}, "geometry": {"type": "Polygon", "coordinates": [[[-49.26004, -13.94881], [-49.26039, -13.95017], [-49.26079, -13.951], [-49.26163, -13.95205], [-49.26239, -13.95556], [-49.26397, -13.95906], [-49.26394, -13.96033], [-49.26426, -13.96201], [-49.26667, -13.96257], [-49.26703, -13.96285], [-49.26717, -13.96374], [-49.2685, -13.96448], [-49.26862, -13.96557], [-49.26931, -13.96658], [-49.27045, -13.96669], [-49.2718, -13.96627], [-49.2732, -13.96786], [-49.27564, -13.96858], [-49.27661, -13.96915], [-49.27725, -13.97008], [-49.27822, -13.97285], [-49.27905, -13.97299], [-49.28028, -13.97284], [-49.28042, -13.97408], [-49.28072, -13.97433], [-49.28191, -13.97385], [-49.28297, -13.97405], [-49.28302, -13.97439], [-49.28378, -13.97452], [-49.28422, -13.97497], [-49.28428, -13.97628], [-49.28478, -13.97746], [-49.28566, -13.97794], [-49.28661, -13.97887], [-49.28664, -13.98051], [-49.28798, -13.9817], [-49.2883, -13.98247], [-49.28833, -13.98371], [-49.28881, -13.9842], [-49.29056, -13.98503], [-49.29086, -13.98582], [-49.29103, -13.98729], [-49.29253, -13.98823], [-49.29295, -13.98899], [-49.29472, -13.99081], [-49.29538, -13.99244], [-49.29612, -13.99337], [-49.29666, -13.99368], [-49.29694, -13.99365], [-49.29775, -13.99311], [-49.29928, -13.99356], [-49.30017, -13.99429], [-49.29984, -13.99529], [-49.30241, -13.99669], [-49.30558, -13.9969], [-49.30682, -13.99639], [-49.30933, -13.99452], [-49.31125, -13.99256], [-49.31253, -13.99199], [-49.31347, -13.99211], [-49.31447, -13.99248], [-49.31661, -13.99392], [-49.31809, -13.99591], [-49.31892, -13.99651], [-49.32088, -13.99851], [-49.32131, -13.99924], [-49.32136, -14.00124], [-49.32181, -14.00266], [-49.32261, -14.00334], [-49.3245, -14.00051], [-49.32436, -13.9999], [-49.32384, -13.99962], [-49.32394, -13.99857], [-49.32359, -13.9981], [-49.32392, -13.9962], [-49.32314, -13.99524], [-49.32355, -13.99491], [-49.32333, -13.9943], [-49.32358, -13.99413], [-49.32364, -13.99361], [-49.32351, -13.99317], [-49.32312, -13.99317], [-49.32277, -13.99291], [-49.3231, -13.99214], [-49.32346, -13.99178], [-49.32342, -13.99165], [-49.32288, -13.9916], [-49.32268, -13.9913], [-49.32268, -13.99061], [-49.32308, -13.99053], [-49.32306, -13.99017], [-49.32245, -13.98951], [-49.32194, -13.98929], [-49.32137, -13.98848], [-49.32, -13.98789], [-49.31966, -13.98737], [-49.31871, -13.98715], [-49.31829, -13.9868], [-49.31813, -13.98624], [-49.31888, -13.98619], [-49.31903, -13.98604], [-49.31924, -13.98533], [-49.31904, -13.98509], [-49.31839, -13.98483], [-49.31767, -13.9849], [-49.31734, -13.98478], [-49.31722, -13.98457], [-49.31729, -13.98378], [-49.31632, -13.9835], [-49.31603, -13.98283], [-49.31509, -13.98296], [-49.31468, -13.98275], [-49.31447, -13.9823], [-49.31454, -13.9818], [-49.31433, -13.98081], [-49.31397, -13.98002], [-49.31398, -13.97936], [-49.31434, -13.97892], [-49.31527, -13.97893], [-49.31581, -13.97746], [-49.31647, -13.97648], [-49.31677, -13.97541], [-49.31778, -13.97481], [-49.31807, -13.97399], [-49.31858, -13.97357], [-49.31912, -13.97283], [-49.31969, -13.97245], [-49.32019, -13.97185], [-49.32098, -13.97198], [-49.32207, -13.97145], [-49.32185, -13.9703], [-49.32203, -13.96986], [-49.32267, -13.96966], [-49.32364, -13.9699], [-49.32648, -13.96894], [-49.32827, -13.96909], [-49.32863, -13.96927], [-49.32895, -13.96982], [-49.32966, -13.96978], [-49.32979, -13.96957], [-49.32973, -13.96928], [-49.32927, -13.96877], [-49.32939, -13.96832], [-49.3293, -13.96757], [-49.32948, -13.96734], [-49.32983, -13.96731], [-49.33102, -13.9681], [-49.33183, -13.96829], [-49.33239, -13.96821], [-49.33322, -13.96771], [-49.33351, -13.96773], [-49.33414, -13.96826], [-49.3348, -13.96824], [-49.336, -13.96781], [-49.3362, -13.96757], [-49.33504, -13.96639], [-49.33508, -13.96611], [-49.33545, -13.96582], [-49.3351, -13.96558], [-49.33468, -13.96484], [-49.33449, -13.96297], [-49.33378, -13.96249], [-49.33309, -13.96119], [-49.33281, -13.96045], [-49.33289, -13.9599], [-49.33269, -13.9593], [-49.33269, -13.95846], [-49.33204, -13.95784], [-49.3316, -13.95708], [-49.33172, -13.95677], [-49.33226, -13.9566], [-49.33232, -13.95639], [-49.33201, -13.95614], [-49.33149, -13.95604], [-49.33068, -13.95483], [-49.33023, -13.95445], [-49.33035, -13.95422], [-49.33095, -13.95427], [-49.33114, -13.95376], [-49.33054, -13.95255], [-49.32865, -13.95129], [-49.3284, -13.95091], [-49.32844, -13.95024], [-49.32827, -13.94981], [-49.32761, -13.94974], [-49.32769, -13.94912], [-49.32724, -13.94899], [-49.32682, -13.94919], [-49.32659, -13.9491], [-49.3266, -13.94892], [-49.32737, -13.94862], [-49.32734, -13.94831], [-49.32679, -13.94814], [-49.32668, -13.94794], [-49.32702, -13.94759], [-49.32524, -13.94714], [-49.32506, -13.94602], [-49.32452, -13.94609], [-49.32353, -13.9456], [-49.32309, -13.94494], [-49.32254, -13.94475], [-49.32217, -13.94402], [-49.32186, -13.94375], [-49.32067, -13.94339], [-49.3206, -13.94316], [-49.32089, -13.94228], [-49.32073, -13.94163], [-49.31953, -13.94109], [-49.31954, -13.94055], [-49.31908, -13.94017], [-49.31886, -13.93932], [-49.3179, -13.93936], [-49.31752, -13.93915], [-49.31689, -13.93615], [-49.31696, -13.93598], [-49.31781, -13.93591], [-49.31832, -13.93624], [-49.31862, -13.93542], [-49.31823, -13.93513], [-49.31819, -13.93456], [-49.31732, -13.93454], [-49.31739, -13.93397], [-49.31693, -13.93305], [-49.31676, -13.93228], [-49.3169, -13.93205], [-49.31767, -13.93198], [-49.31799, -13.93174], [-49.3167, -13.93084], [-49.31627, -13.93074], [-49.31507, -13.93132], [-49.31407, -13.93143], [-49.30984, -13.9308], [-49.30581, -13.93087], [-49.30382, -13.93123], [-49.30378, -13.9328], [-49.30212, -13.93303], [-49.30176, -13.93142], [-49.29901, -13.9319], [-49.2983, -13.93064], [-49.29447, -13.93083], [-49.29598, -13.93617], [-49.29208, -13.93756], [-49.29159, -13.93648], [-49.29141, -13.93665], [-49.29129, -13.93744], [-49.29087, -13.93847], [-49.28843, -13.93784], [-49.28699, -13.93618], [-49.29142, -13.93245], [-49.29081, -13.93063], [-49.29393, -13.92953], [-49.29607, -13.92546], [-49.29526, -13.92324], [-49.29694, -13.92299], [-49.29634, -13.92164], [-49.29698, -13.92137], [-49.2963, -13.92023], [-49.29767, -13.91857], [-49.29828, -13.91758], [-49.29967, -13.91334], [-49.29962, -13.9118], [-49.3006, -13.90972], [-49.30107, -13.908], [-49.30039, -13.90491], [-49.29913, -13.90212], [-49.29765, -13.90083], [-49.29553, -13.89776], [-49.29385, -13.89611], [-49.2928, -13.89471], [-49.29062, -13.89266], [-49.28976, -13.89063], [-49.28747, -13.88642], [-49.28374, -13.88212], [-49.28244, -13.87983], [-49.28145, -13.87867], [-49.28095, -13.87702], [-49.28122, -13.87609], [-49.28122, -13.87523], [-49.28081, -13.87462], [-49.28067, -13.87405], [-49.27981, -13.87344], [-49.27904, -13.87242], [-49.27879, -13.87035], [-49.27851, -13.86984], [-49.27859, -13.86911], [-49.27904, -13.86825], [-49.27937, -13.86782], [-49.27992, -13.86769], [-49.2245, -13.8653], [-49.22472, -13.86565], [-49.22533, -13.86608], [-49.22692, -13.86633], [-49.22845, -13.86768], [-49.22878, -13.86733], [-49.22944, -13.86824], [-49.23037, -13.87012], [-49.2308, -13.8705], [-49.23175, -13.87045], [-49.23247, -13.87111], [-49.23375, -13.87119], [-49.23433, -13.87255], [-49.23462, -13.87425], [-49.23475, -13.87415], [-49.23573, -13.87445], [-49.23684, -13.87452], [-49.23794, -13.87567], [-49.23858, -13.87571], [-49.23912, -13.87655], [-49.23908, -13.87761], [-49.23942, -13.87854], [-49.24042, -13.87939], [-49.24142, -13.87951], [-49.24183, -13.88072], [-49.24265, -13.88048], [-49.24325, -13.88179], [-49.24283, -13.88307], [-49.24261, -13.8845], [-49.24308, -13.88669], [-49.24397, -13.88626], [-49.24453, -13.88669], [-49.24484, -13.88742], [-49.24595, -13.88742], [-49.24625, -13.8878], [-49.24703, -13.8898], [-49.24767, -13.88985], [-49.24825, -13.88966], [-49.24933, -13.89028], [-49.25001, -13.8904], [-49.25011, -13.89021], [-49.25061, -13.89011], [-49.25133, -13.89095], [-49.25128, -13.89201], [-49.25142, -13.89254], [-49.25205, -13.89239], [-49.25272, -13.89272], [-49.25303, -13.8931], [-49.25317, -13.89414], [-49.25407, -13.89475], [-49.25445, -13.89482], [-49.25553, -13.89622], [-49.25653, -13.89645], [-49.25686, -13.89729], [-49.25664, -13.89797], [-49.25722, -13.89903], [-49.25778, -13.89901], [-49.25845, -13.89965], [-49.25816, -13.90131], [-49.25775, -13.9018], [-49.25761, -13.9025], [-49.25778, -13.90321], [-49.2575, -13.90375], [-49.25759, -13.90477], [-49.25727, -13.90551], [-49.25691, -13.90584], [-49.25678, -13.90669], [-49.25636, -13.90727], [-49.25586, -13.90728], [-49.25531, -13.90703], [-49.25491, -13.9065], [-49.25441, -13.9065], [-49.25364, -13.90697], [-49.25288, -13.9065], [-49.25231, -13.90749], [-49.25233, -13.91003], [-49.25283, -13.91252], [-49.25372, -13.91332], [-49.25422, -13.91438], [-49.25473, -13.91648], [-49.25586, -13.91815], [-49.2573, -13.91951], [-49.25742, -13.92028], [-49.2567, -13.9221], [-49.25727, -13.92404], [-49.25717, -13.92475], [-49.25684, -13.92548], [-49.25676, -13.92728], [-49.25756, -13.9296], [-49.25909, -13.9319], [-49.25914, -13.93338], [-49.25739, -13.93613], [-49.25747, -13.94076], [-49.26004, -13.94881]]]}}, 
{"type": "Feature", "properties": {"CD_SETOR": "520082905000004", "CD_SIT": "8", "NM_DIST": "Amaralina", "NM_SUBDIST": null}, "geometry": {"type": "Polygon", "coordinates": [[[-49.28124, -13.86774], [-49.27992, -13.86769], [-49.27934, -13.86784], [-49.27869, -13.86884], [-49.27851, -13.86969], [-49.27879, -13.87035], [-49.27904, -13.87242], [-49.27981, -13.87344], [-49.28067, -13.87405], [-49.28081, -13.87462], [-49.28122, -13.87523], [-49.28122, -13.87609], [-49.28095, -13.87702], [-49.28145, -13.87867], [-49.28244, -13.87983], [-49.28374, -13.88212], [-49.28747, -13.88642], [-49.28976, -13.89063], [-49.29062, -13.89266], [-49.2928, -13.89471], [-49.29385, -13.89611], [-49.29553, -13.89776], [-49.29765, -13.90083], [-49.29913, -13.90212], [-49.30039, -13.90491], [-49.30102, -13.90758], [-49.30106, -13.90833], [-49.3006, -13.90972], [-49.29962, -13.9118], [-49.29967, -13.91334], [-49.29828, -13.91758], [-49.29629, -13.92028], [-49.29736, -13.92215], [-49.29768, -13.92206], [-49.29786, -13.92257], [-49.29773, -13.92332], [-49.29868, -13.92366], [-49.29888, -13.92399], [-49.29861, -13.92425], [-49.29752, -13.92466], [-49.29768, -13.92521], [-49.29718, -13.92533], [-49.29721, -13.92551], [-49.29775, -13.9256], [-49.29798, -13.92607], [-49.29987, -13.92622], [-49.29984, -13.92693], [-49.30061, -13.92669], [-49.30069, -13.92754], [-49.30448, -13.92697], [-49.30613, -13.92301], [-49.30739, -13.92216], [-49.30802, -13.92153], [-49.30946, -13.9196], [-49.31013, -13.91831], [-49.3112, -13.917], [-49.31271, -13.91597], [-49.31635, -13.91412], [-49.31762, -13.91314], [-49.31802, -13.91261], [-49.31841, -13.91152], [-49.31911, -13.90821], [-49.31933, -13.90789], [-49.32226, -13.90546], [-49.32343, -13.90408], [-49.32385, -13.90388], [-49.32496, -13.90403], [-49.32606, -13.90357], [-49.32837, -13.90086], [-49.32869, -13.89989], [-49.32913, -13.89921], [-49.33088, -13.89762], [-49.33365, -13.89695], [-49.33463, -13.89708], [-49.33517, -13.89751], [-49.33588, -13.89846], [-49.33709, -13.9007], [-49.3382, -13.90165], [-49.33969, -13.9026], [-49.34129, -13.90417], [-49.34183, -13.90439], [-49.34479, -13.90455], [-49.34544, -13.90416], [-49.34647, -13.90297], [-49.34825, -13.90245], [-49.34971, -13.90229], [-49.35171, -13.90226], [-49.35465, -13.90314], [-49.35601, -13.90324], [-49.35801, -13.90283], [-49.35953, -13.9016], [-49.36144, -13.90185], [-49.36328, -13.90266], [-49.36496, -13.90291], [-49.36541, -13.90276], [-49.3657, -13.90218], [-49.3664, -13.90141], [-49.36659, -13.90083], [-49.36609, -13.90016], [-49.36631, -13.89902], [-49.36556, -13.89795], [-49.36604, -13.89636], [-49.3651, -13.89513], [-49.36469, -13.89354], [-49.36563, -13.89199], [-49.36702, -13.89146], [-49.36721, -13.89095], [-49.36721, -13.88999], [-49.36742, -13.88902], [-49.36736, -13.88805], [-49.36777, -13.887], [-49.36739, -13.88586], [-49.36759, -13.88477], [-49.36727, -13.88415], [-49.36681, -13.88163], [-49.36652, -13.88083], [-49.36639, -13.87935], [-49.36644, -13.87881], [-49.36767, -13.87587], [-49.36766, -13.87471], [-49.36729, -13.8735], [-49.3669, -13.87116], [-49.36709, -13.86978], [-49.36755, -13.86945], [-49.36641, -13.86831], [-49.36586, -13.86718], [-49.36553, -13.86597], [-49.36543, -13.8653], [-49.36554, -13.86328], [-49.36621, -13.86282], [-49.36636, -13.86238], [-49.36592, -13.86039], [-49.36515, -13.859], [-49.36498, -13.85819], [-49.36528, -13.85741], [-49.36589, -13.85719], [-49.36562, -13.85705], [-49.36558, -13.85686], [-49.36613, -13.85686], [-49.36639, -13.85653], [-49.36589, -13.8554], [-49.36609, -13.85517], [-49.36649, -13.85508], [-49.36618, -13.85434], [-49.36671, -13.85438], [-49.36644, -13.85352], [-49.36659, -13.85332], [-49.36736, -13.85328], [-49.36748, -13.85306], [-49.36737, -13.85246], [-49.36618, -13.85146], [-49.36665, -13.85038], [-49.36639, -13.84958], [-49.36679, -13.84901], [-49.36673, -13.84824], [-49.36692, -13.84771], [-49.36685, -13.84725], [-49.36701, -13.84704], [-49.36686, -13.8466], [-49.36636, -13.84634], [-49.36637, -13.84605], [-49.36666, -13.84605], [-49.36673, -13.84591], [-49.36632, -13.84559], [-49.36632, -13.84488], [-49.36616, -13.84463], [-49.36633, -13.84441], [-49.36626, -13.84414], [-49.36658, -13.84414], [-49.3663, -13.84375], [-49.36633, -13.84339], [-49.36677, -13.84285], [-49.36717, -13.84265], [-49.36689, -13.84208], [-49.36692, -13.8417], [-49.36674, -13.84149], [-49.36691, -13.84112], [-49.36665, -13.84057], [-49.36667, -13.84], [-49.36642, -13.83964], [-49.36649, -13.83908], [-49.36632, -13.83872], [-49.36555, -13.83927], [-49.36466, -13.83933], [-49.36372, -13.83966], [-49.36346, -13.83999], [-49.36311, -13.83979], [-49.36258, -13.84059], [-49.36194, -13.84064], [-49.36181, -13.84104], [-49.36121, -13.84114], [-49.36107, -13.84232], [-49.36059, -13.84259], [-49.36069, -13.84306], [-49.36014, -13.84367], [-49.35975, -13.84362], [-49.35897, -13.84396], [-49.35844, -13.84386], [-49.35833, -13.84326], [-49.35803, -13.84318], [-49.35774, -13.8433], [-49.35749, -13.84383], [-49.35687, -13.84378], [-49.35633, -13.84415], [-49.35628, -13.84371], [-49.3557, -13.84354], [-49.35562, -13.84324], [-49.35507, -13.84281], [-49.35499, -13.84247], [-49.35401, -13.84182], [-49.35332, -13.84205], [-49.353, -13.84237], [-49.35251, -13.84237], [-49.35208, -13.84312], [-49.3515, -13.84332], [-49.35131, -13.84357], [-49.35096, -13.84362], [-49.35055, -13.84429], [-49.35035, -13.84401], [-49.3502, -13.84404], [-49.3498, -13.84432], [-49.34975, -13.84455], [-49.34929, -13.84461], [-49.34817, -13.84438], [-49.34778, -13.84413], [-49.34735, -13.84448], [-49.3469, -13.8441], [-49.34664, -13.84423], [-49.34614, -13.84505], [-49.3454, -13.84507], [-49.34533, -13.84575], [-49.34473, -13.84564], [-49.34444, -13.84517], [-49.34409, -13.84526], [-49.34347, -13.84515], [-49.34314, -13.84489], [-49.34273, -13.84529], [-49.34238, -13.84536], [-49.34145, -13.84492], [-49.34038, -13.84496], [-49.33961, -13.84392], [-49.33914, -13.84435], [-49.33893, -13.84412], [-49.33863, -13.84423], [-49.33816, -13.8439], [-49.3379, -13.84418], [-49.33789, -13.84352], [-49.33761, -13.84335], [-49.33761, -13.84301], [-49.33737, -13.84274], [-49.33737, -13.8416], [-49.33709, -13.84151], [-49.33718, -13.84082], [-49.33668, -13.83999], [-49.33688, -13.83946], [-49.33637, -13.83877], [-49.3358, -13.83847], [-49.33515, -13.83739], [-49.33444, -13.83662], [-49.33316, -13.83648], [-49.33189, -13.83597], [-49.33144, -13.83619], [-49.33102, -13.83612], [-49.33081, -13.83641], [-49.33061, -13.83641], [-49.32943, -13.83563], [-49.32878, -13.83558], [-49.32793, -13.83516], [-49.32695, -13.8352], [-49.32663, -13.83485], [-49.32575, -13.83439], [-49.32532, -13.83454], [-49.32349, -13.83237], [-49.32419, -13.83123], [-49.32409, -13.83088], [-49.32433, -13.83014], [-49.3247, -13.82957], [-49.32535, -13.82929], [-49.32548, -13.8288], [-49.32572, -13.82855], [-49.32644, -13.82819], [-49.32778, -13.82824], [-49.3304, -13.82571], [-49.33127, -13.82542], [-49.33204, -13.82541], [-49.33261, -13.82496], [-49.33298, -13.82373], [-49.33294, -13.82123], [-49.3327, -13.82081], [-49.33139, -13.8197], [-49.33107, -13.81882], [-49.33134, -13.81838], [-49.33136, -13.8177], [-49.33185, -13.81701], [-49.33214, -13.81593], [-49.33235, -13.81579], [-49.3332, -13.81595], [-49.33303, -13.81562], [-49.33323, -13.81536], [-49.33299, -13.81514], [-49.33315, -13.81493], [-49.3331, -13.81461], [-49.33335, -13.81447], [-49.33304, -13.81394], [-49.33327, -13.81312], [-49.33349, -13.81296], [-49.3342, -13.81305], [-49.33541, -13.8123], [-49.33601, -13.81247], [-49.33634, -13.81186], [-49.33688, -13.81187], [-49.3373, -13.81251], [-49.33805, -13.81268], [-49.33845, -13.81261], [-49.33859, -13.81215], [-49.33878, -13.81202], [-49.33955, -13.81197], [-49.33995, -13.81178], [-49.34027, -13.8112], [-49.34092, -13.8108], [-49.34093, -13.81036], [-49.34182, -13.81001], [-49.34224, -13.80961], [-49.34298, -13.80834], [-49.34349, -13.80786], [-49.34402, -13.80766], [-49.34418, -13.80631], [-49.34455, -13.80549], [-49.34534, -13.80509], [-49.3453, -13.80451], [-49.34641, -13.804], [-49.3466, -13.8036], [-49.3466, -13.80273], [-49.34697, -13.80078], [-49.34837, -13.80002], [-49.34877, -13.79898], [-49.34936, -13.79849], [-49.34988, -13.79843], [-49.35029, -13.79766], [-49.35131, -13.79741], [-49.35149, -13.79651], [-49.35138, -13.79503], [-49.35179, -13.79368], [-49.35164, -13.79335], [-49.35102, -13.79338], [-49.35094, -13.79275], [-49.35153, -13.79236], [-49.35156, -13.79207], [-49.3512, -13.79141], [-49.35152, -13.79086], [-49.35229, -13.79019], [-49.35235, -13.78955], [-49.35294, -13.7896], [-49.35336, -13.78945], [-49.35377, -13.78862], [-49.35463, -13.78787], [-49.35555, -13.78767], [-49.35613, -13.78732], [-49.35734, -13.78717], [-49.35795, -13.78668], [-49.35859, -13.78656], [-49.36012, -13.78682], [-49.36052, -13.78748], [-49.36136, -13.78731], [-49.36183, -13.78743], [-49.36222, -13.78768], [-49.36251, -13.78821], [-49.36318, -13.78842], [-49.36571, -13.78851], [-49.36738, -13.7882], [-49.3685, -13.78859], [-49.36919, -13.78858], [-49.36911, -13.7875], [-49.36753, -13.78524], [-49.364, -13.78108], [-49.36325, -13.7798], [-49.36325, -13.77899], [-49.36253, -13.77608], [-49.36028, -13.77183], [-49.3589, -13.77092], [-49.35722, -13.77174], [-49.35622, -13.77201], [-49.35286, -13.76983], [-49.351, -13.76928], [-49.35091, -13.76856], [-49.35008, -13.76811], [-49.3485, -13.76766], [-49.34758, -13.7672], [-49.34525, -13.76812], [-49.3447, -13.76865], [-49.34239, -13.76938], [-49.33775, -13.7682], [-49.33673, -13.76775], [-49.33617, -13.76693], [-49.33403, -13.76558], [-49.33247, -13.76502], [-49.33108, -13.76494], [-49.33005, -13.76557], [-49.32867, -13.76539], [-49.32717, -13.76684], [-49.32614, -13.76875], [-49.32467, -13.76929], [-49.32364, -13.77038], [-49.32264, -13.77074], [-49.31928, -13.77264], [-49.31836, -13.77337], [-49.31678, -13.77365], [-49.31558, -13.77292], [-49.31408, -13.7731], [-49.31309, -13.77355], [-49.31178, -13.77528], [-49.31233, -13.77628], [-49.3117, -13.778], [-49.3117, -13.77845], [-49.31086, -13.77908], [-49.31019, -13.7799], [-49.30678, -13.77926], [-49.30584, -13.77999], [-49.30092, -13.78008], [-49.29973, -13.78163], [-49.29758, -13.78534], [-49.296, -13.78652], [-49.29497, -13.7877], [-49.29546, -13.79024], [-49.29738, -13.79402], [-49.29756, -13.7952], [-49.29702, -13.7965], [-49.29571, -13.79851], [-49.29541, -13.79984], [-49.29553, -13.80218], [-49.29646, -13.80456], [-49.29782, -13.80631], [-49.29882, -13.80857], [-49.2989, -13.80985], [-49.2982, -13.81144], [-49.29707, -13.81344], [-49.29705, -13.81485], [-49.29841, -13.81578], [-49.30395, -13.81757], [-49.30516, -13.81906], [-49.30608, -13.82181], [-49.30721, -13.82361], [-49.31042, -13.82674], [-49.31301, -13.82961], [-49.31393, -13.83128], [-49.31493, -13.83528], [-49.31591, -13.83628], [-49.31722, -13.83813], [-49.31724, -13.84314], [-49.31776, -13.84432], [-49.31889, -13.84604], [-49.31904, -13.8466], [-49.31889, -13.84806], [-49.31927, -13.84896], [-49.3195, -13.85004], [-49.3195, -13.85173], [-49.32094, -13.85327], [-49.32097, -13.85417], [-49.32061, -13.85512], [-49.32099, -13.8572], [-49.32068, -13.85882], [-49.32161, -13.85907], [-49.32181, -13.85982], [-49.32366, -13.86148], [-49.32535, -13.86215], [-49.3262, -13.8629], [-49.32705, -13.8649], [-49.32797, -13.86549], [-49.32831, -13.86639], [-49.32892, -13.867], [-49.32936, -13.86808], [-49.3311, -13.86944], [-49.33357, -13.8698], [-49.33414, -13.87012], [-49.28124, -13.86774]]]}}, 
{"type": "Feature", "properties": {"CD_SETOR": "520082905000005", "CD_SIT": "8", "NM_DIST": "Amaralina", "NM_SUBDIST": null}, "geometry": {"type": "Polygon", "coordinates": [[[-49.30448, -13.92697], [-49.30374, -13.93074], [-49.30382, -13.93123], [-49.30581, -13.93087], [-49.30899, -13.93077], [-49.31103, -13.9309], [-49.31407, -13.93143], [-49.31507, -13.93132], [-49.31627, -13.93074], [-49.3167, -13.93084], [-49.31799, -13.93174], [-49.31767, -13.93198], [-49.3169, -13.93205], [-49.31676, -13.93228], [-49.31693, -13.93305], [-49.31739, -13.93397], [-49.31732, -13.93454], [-49.31819, -13.93456], [-49.31823, -13.93513], [-49.31862, -13.93542], [-49.31832, -13.93624], [-49.31781, -13.93591], [-49.31696, -13.93598], [-49.31689, -13.93615], [-49.31752, -13.93915], [-49.3179, -13.93936], [-49.31886, -13.93932], [-49.31908, -13.94017], [-49.31954, -13.94055], [-49.31953, -13.94109], [-49.32073, -13.94163], [-49.32089, -13.94228], [-49.3206, -13.94316], [-49.32067, -13.94339], [-49.32186, -13.94375], [-49.32217, -13.94402], [-49.32254, -13.94475], [-49.32309, -13.94494], [-49.32353, -13.9456], [-49.32452, -13.94609], [-49.32506, -13.94602], [-49.32524, -13.94714], [-49.32702, -13.94759], [-49.32668, -13.94794], [-49.32679, -13.94814], [-49.32734, -13.94831], [-49.32737, -13.94862], [-49.3266, -13.94892], [-49.32659, -13.9491], [-49.32682, -13.94919], [-49.32724, -13.94899], [-49.32769, -13.94912], [-49.32761, -13.94974], [-49.32827, -13.94981], [-49.32844, -13.95024], [-49.3284, -13.95091], [-49.32865, -13.95129], [-49.33054, -13.95255], [-49.33114, -13.95376], [-49.33095, -13.95427], [-49.33035, -13.95422], [-49.33023, -13.95445], [-49.33068, -13.95483], [-49.33149, -13.95604], [-49.33201, -13.95614], [-49.33232, -13.95639], [-49.33226, -13.9566], [-49.33172, -13.95677], [-49.3316, -13.95708], [-49.33204, -13.95784], [-49.33269, -13.95846], [-49.33269, -13.9593], [-49.33289, -13.9599], [-49.33281, -13.96045], [-49.33309, -13.96119], [-49.33378, -13.96249], [-49.33449, -13.96297], [-49.33468, -13.96484], [-49.3351, -13.96558], [-49.33545, -13.96582], [-49.33508, -13.96611], [-49.33504, -13.96639], [-49.3362, -13.96757], [-49.336, -13.96781], [-49.3348, -13.96824], [-49.33414, -13.96826], [-49.33351, -13.96773], [-49.33322, -13.96771], [-49.33239, -13.96821], [-49.33183, -13.96829], [-49.33102, -13.9681], [-49.32983, -13.96731], [-49.32948, -13.96734], [-49.3293, -13.96757], [-49.32939, -13.96832], [-49.32927, -13.96877], [-49.32973, -13.96928], [-49.32979, -13.96957], [-49.32966, -13.96978], [-49.32895, -13.96982], [-49.32863, -13.96927], [-49.32827, -13.96909], [-49.32648, -13.96894], [-49.32364, -13.9699], [-49.32267, -13.96966], [-49.32203, -13.96986], [-49.32185, -13.9703], [-49.32207, -13.97145], [-49.32098, -13.97198], [-49.32019, -13.97185], [-49.31969, -13.97245], [-49.31912, -13.97283], [-49.31858, -13.97357], [-49.31807, -13.97399], [-49.31778, -13.97481], [-49.31677, -13.97541], [-49.31647, -13.97648], [-49.31581, -13.97746], [-49.31527, -13.97893], [-49.31434, -13.97892], [-49.31398, -13.97936], [-49.31397, -13.98002], [-49.31433, -13.98081], [-49.31454, -13.9818], [-49.31447, -13.9823], [-49.31468, -13.98275], [-49.31509, -13.98296], [-49.31603, -13.98283], [-49.31632, -13.9835], [-49.31729, -13.98378], [-49.31722, -13.98457], [-49.31734, -13.98478], [-49.31767, -13.9849], [-49.31839, -13.98483], [-49.31904, -13.98509], [-49.31924, -13.98533], [-49.31903, -13.98604], [-49.31888, -13.98619], [-49.31813, -13.98624], [-49.31829, -13.9868], [-49.31871, -13.98715], [-49.31966, -13.98737], [-49.32, -13.98789], [-49.32137, -13.98848], [-49.32194, -13.98929], [-49.32245, -13.98951], [-49.32298, -13.99], [-49.32311, -13.99048], [-49.32268, -13.99061], [-49.32268, -13.9913], [-49.32288, -13.9916], [-49.32342, -13.99165], [-49.32346, -13.99178], [-49.3231, -13.99214], [-49.32277, -13.99291], [-49.32312, -13.99317], [-49.32351, -13.99317], [-49.32364, -13.99361], [-49.32358, -13.99413], [-49.32333, -13.9943], [-49.32355, -13.99491], [-49.32314, -13.99524], [-49.32392, -13.9962], [-49.32359, -13.9981], [-49.32394, -13.99857], [-49.32414, -13.99657], [-49.3247, -13.99481], [-49.3281, -13.98871], [-49.33, -13.98646], [-49.3312, -13.98579], [-49.33314, -13.98547], [-49.33576, -13.98677], [-49.33697, -13.98691], [-49.33722, -13.9869], [-49.33753, -13.98631], [-49.33878, -13.98553], [-49.34028, -13.98629], [-49.34292, -13.98576], [-49.34408, -13.98633], [-49.34522, -13.98812], [-49.3453, -13.98873], [-49.346, -13.98955], [-49.34662, -13.98986], [-49.34992, -13.99038], [-49.35053, -13.99011], [-49.35081, -13.98975], [-49.35052, -13.98695], [-49.35092, -13.98673], [-49.35031, -13.98465], [-49.34958, -13.98402], [-49.3492, -13.98246], [-49.35025, -13.98238], [-49.35039, -13.98103], [-49.35172, -13.9809], [-49.35228, -13.98053], [-49.35228, -13.97924], [-49.35278, -13.97822], [-49.35308, -13.97807], [-49.35367, -13.97826], [-49.35453, -13.97798], [-49.35605, -13.97791], [-49.35659, -13.97828], [-49.35797, -13.97767], [-49.35817, -13.97741], [-49.35786, -13.97655], [-49.35802, -13.97628], [-49.35884, -13.97576], [-49.35786, -13.97511], [-49.35759, -13.9741], [-49.35692, -13.97358], [-49.35675, -13.9729], [-49.36045, -13.97044], [-49.36109, -13.96985], [-49.36297, -13.9691], [-49.36348, -13.96845], [-49.36411, -13.96689], [-49.36492, -13.96673], [-49.36525, -13.96578], [-49.36503, -13.96515], [-49.36667, -13.96426], [-49.36706, -13.96336], [-49.3675, -13.96311], [-49.36786, -13.96259], [-49.3677, -13.96203], [-49.36773, -13.96101], [-49.36851, -13.95999], [-49.36961, -13.9593], [-49.36833, -13.95799], [-49.36578, -13.95654], [-49.36445, -13.95454], [-49.36483, -13.95376], [-49.36561, -13.95302], [-49.36592, -13.9517], [-49.36591, -13.95052], [-49.36345, -13.94738], [-49.35963, -13.94449], [-49.35959, -13.94283], [-49.36, -13.94187], [-49.36003, -13.94098], [-49.3732, -13.94097], [-49.37392, -13.94386], [-49.37495, -13.94647], [-49.37558, -13.94859], [-49.37737, -13.95233], [-49.3783, -13.95375], [-49.3798, -13.95536], [-49.38439, -13.95925], [-49.38481, -13.95983], [-49.387, -13.96082], [-49.38862, -13.96197], [-49.38922, -13.96219], [-49.39092, -13.96018], [-49.39273, -13.95734], [-49.39378, -13.95621], [-49.39551, -13.95484], [-49.39761, -13.95533], [-49.40003, -13.9556], [-49.40203, -13.95562], [-49.40306, -13.95381], [-49.41033, -13.95329], [-49.41364, -13.95426], [-49.41667, -13.95433], [-49.41747, -13.95478], [-49.41983, -13.95563], [-49.42148, -13.95399], [-49.423, -13.95176], [-49.42518, -13.95036], [-49.4261, -13.94994], [-49.42924, -13.9491], [-49.43213, -13.94774], [-49.43575, -13.94645], [-49.43881, -13.94498], [-49.44067, -13.94362], [-49.44244, -13.94261], [-49.44439, -13.94214], [-49.44512, -13.94172], [-49.44536, -13.94129], [-49.44522, -13.94048], [-49.44345, -13.93578], [-49.4435, -13.93417], [-49.44416, -13.93042], [-49.44418, -13.92869], [-49.44325, -13.92553], [-49.44196, -13.92205], [-49.44153, -13.9198], [-49.44167, -13.91813], [-49.44266, -13.91505], [-49.44256, -13.91291], [-49.44209, -13.91183], [-49.44259, -13.91072], [-49.44265, -13.91012], [-49.44214, -13.90625], [-49.44379, -13.90388], [-49.44307, -13.9025], [-49.44165, -13.90118], [-49.43905, -13.89765], [-49.43756, -13.89502], [-49.43634, -13.89195], [-49.43556, -13.89139], [-49.43484, -13.89119], [-49.43316, -13.89025], [-49.43221, -13.88891], [-49.43174, -13.88856], [-49.43158, -13.88788], [-49.43115, -13.88727], [-49.43017, -13.88649], [-49.42991, -13.88579], [-49.43139, -13.8841], [-49.43153, -13.88207], [-49.43202, -13.88115], [-49.43216, -13.88041], [-49.43292, -13.87935], [-49.43335, -13.87825], [-49.43326, -13.87732], [-49.43337, -13.87623], [-49.43397, -13.8755], [-49.43435, -13.87428], [-49.43581, -13.87124], [-49.43648, -13.87054], [-49.43828, -13.86979], [-49.43915, -13.86848], [-49.43971, -13.86804], [-49.44061, -13.86754], [-49.44632, -13.86529], [-49.44667, -13.86492], [-49.44684, -13.86444], [-49.44737, -13.86394], [-49.45019, -13.86284], [-49.45041, -13.8626], [-49.45047, -13.86091], [-49.45172, -13.85927], [-49.45316, -13.85801], [-49.45342, -13.85747], [-49.4552, -13.85653], [-49.45587, -13.85585], [-49.45638, -13.85578], [-49.45665, -13.85597], [-49.45735, -13.85498], [-49.4596, -13.85305], [-49.46028, -13.85205], [-49.46096, -13.84886], [-49.46063, -13.84766], [-49.45862, -13.84575], [-49.45874, -13.84527], [-49.45932, -13.84498], [-49.46092, -13.84487], [-49.46392, -13.8416], [-49.46654, -13.84196], [-49.4691, -13.84367], [-49.47134, -13.84559], [-49.47344, -13.84495], [-49.47515, -13.84783], [-49.47664, -13.84851], [-49.48028, -13.84726], [-49.48264, -13.84704], [-49.48495, -13.84622], [-49.4875, -13.84564], [-49.48852, -13.84466], [-49.48944, -13.84287], [-49.49043, -13.84207], [-49.49148, -13.84181], [-49.49398, -13.83994], [-49.4957, -13.83915], [-49.50441, -13.83424], [-49.50272, -13.83171], [-49.50295, -13.83149], [-49.50296, -13.8303], [-49.50317, -13.82944], [-49.50269, -13.82806], [-49.50217, -13.82834], [-49.50142, -13.82826], [-49.50037, -13.82874], [-49.49947, -13.8296], [-49.4982, -13.83014], [-49.49725, -13.82988], [-49.49625, -13.8286], [-49.49523, -13.82997], [-49.49328, -13.82979], [-49.49142, -13.8287], [-49.49047, -13.82752], [-49.48984, -13.82788], [-49.48836, -13.82816], [-49.48808, -13.82717], [-49.48762, -13.82743], [-49.48713, -13.82925], [-49.48622, -13.8297], [-49.48528, -13.82943], [-49.484, -13.82843], [-49.48251, -13.82889], [-49.48103, -13.82907], [-49.47992, -13.8288], [-49.47936, -13.82835], [-49.47878, -13.82753], [-49.47815, -13.82581], [-49.47731, -13.82608], [-49.47676, -13.82545], [-49.47572, -13.82626], [-49.47469, -13.825], [-49.47351, -13.82563], [-49.47239, -13.8259], [-49.47175, -13.82545], [-49.47147, -13.82463], [-49.46997, -13.82364], [-49.46914, -13.82255], [-49.46858, -13.82137], [-49.4685, -13.82065], [-49.46645, -13.82047], [-49.46637, -13.82174], [-49.46505, -13.8202], [-49.46553, -13.81902], [-49.46664, -13.81739], [-49.46245, -13.81376], [-49.46153, -13.81358], [-49.4603, -13.81376], [-49.45891, -13.81331], [-49.458, -13.81177], [-49.45697, -13.81249], [-49.45725, -13.81376], [-49.45511, -13.81413], [-49.45365, -13.81703], [-49.45281, -13.81585], [-49.45094, -13.81422], [-49.44836, -13.81323], [-49.44753, -13.81422], [-49.44584, -13.81568], [-49.44584, -13.8164], [-49.44473, -13.81921], [-49.44297, -13.82075], [-49.4425, -13.82393], [-49.44103, -13.82265], [-49.43992, -13.8213], [-49.43798, -13.82021], [-49.4362, -13.81949], [-49.43591, -13.81868], [-49.4337, -13.81795], [-49.43183, -13.81695], [-49.43136, -13.81596], [-49.43053, -13.81577], [-49.42969, -13.81758], [-49.42803, -13.81713], [-49.42655, -13.81623], [-49.42608, -13.81858], [-49.42506, -13.81895], [-49.42422, -13.8195], [-49.4235, -13.8204], [-49.42275, -13.81932], [-49.42172, -13.81932], [-49.42098, -13.81895], [-49.42097, -13.81968], [-49.42014, -13.8194], [-49.41978, -13.81976], [-49.41922, -13.81877], [-49.4197, -13.81786], [-49.41931, -13.81723], [-49.41914, -13.81623], [-49.4182, -13.81687], [-49.41633, -13.81913], [-49.41542, -13.81886], [-49.41447, -13.81814], [-49.413, -13.81814], [-49.41236, -13.81787], [-49.41142, -13.81877], [-49.41031, -13.81832], [-49.41058, -13.81678], [-49.4094, -13.81488], [-49.40872, -13.81297], [-49.40781, -13.8127], [-49.40658, -13.81125], [-49.40586, -13.80998], [-49.40558, -13.8098], [-49.40566, -13.80934], [-49.4038, -13.80754], [-49.40372, -13.80654], [-49.40447, -13.8059], [-49.40379, -13.80381], [-49.40158, -13.80227], [-49.39945, -13.79992], [-49.40011, -13.79765], [-49.40039, -13.79592], [-49.4, -13.79484], [-49.4002, -13.79421], [-49.3998, -13.79357], [-49.39924, -13.79176], [-49.3975, -13.79176], [-49.39731, -13.79249], [-49.39583, -13.79231], [-49.39473, -13.79403], [-49.39306, -13.7934], [-49.39064, -13.79367], [-49.38981, -13.79213], [-49.38886, -13.79113], [-49.38728, -13.79077], [-49.38553, -13.79077], [-49.38414, -13.79095], [-49.38284, -13.79049], [-49.37987, -13.79013], [-49.37717, -13.7895], [-49.37617, -13.79032], [-49.37617, -13.79141], [-49.37551, -13.79204], [-49.37392, -13.79141], [-49.37237, -13.79032], [-49.37069, -13.78887], [-49.36919, -13.78858], [-49.3685, -13.78859], [-49.3675, -13.78822], [-49.36571, -13.78851], [-49.36318, -13.78842], [-49.36251, -13.78821], [-49.36222, -13.78768], [-49.36183, -13.78743], [-49.36136, -13.78731], [-49.36052, -13.78748], [-49.36012, -13.78682], [-49.35884, -13.78656], [-49.35806, -13.78663], [-49.35746, -13.78713], [-49.35613, -13.78732], [-49.35555, -13.78767], [-49.35463, -13.78787], [-49.35377, -13.78862], [-49.35336, -13.78945], [-49.35294, -13.7896], [-49.35235, -13.78955], [-49.35229, -13.79019], [-49.35152, -13.79086], [-49.3512, -13.7914], [-49.35156, -13.79207], [-49.35153, -13.79236], [-49.35098, -13.79264], [-49.35094, -13.79318], [-49.35106, -13.79339], [-49.35164, -13.79336], [-49.3518, -13.79379], [-49.35138, -13.79503], [-49.35149, -13.79651], [-49.35131, -13.79741], [-49.35029, -13.79766], [-49.34988, -13.79843], [-49.34936, -13.79849], [-49.34877, -13.79898], [-49.34837, -13.80002], [-49.34697, -13.80078], [-49.3466, -13.80273], [-49.3466, -13.8036], [-49.34631, -13.80412], [-49.3453, -13.80451], [-49.34536, -13.80502], [-49.34517, -13.80525], [-49.34455, -13.80549], [-49.34404, -13.80686], [-49.34402, -13.80766], [-49.34349, -13.80786], [-49.34298, -13.80834], [-49.34224, -13.80961], [-49.34182, -13.81001], [-49.34093, -13.81036], [-49.34092, -13.8108], [-49.34027, -13.8112], [-49.33995, -13.81178], [-49.33955, -13.81197], [-49.33878, -13.81202], [-49.33859, -13.81215], [-49.33845, -13.81261], [-49.33745, -13.81259], [-49.33693, -13.81191], [-49.33663, -13.81181], [-49.33634, -13.81186], [-49.33601, -13.81247], [-49.33541, -13.8123], [-49.3342, -13.81305], [-49.33349, -13.81296], [-49.33327, -13.81312], [-49.33304, -13.81394], [-49.33335, -13.81447], [-49.3331, -13.81461], [-49.33315, -13.81493], [-49.33299, -13.81514], [-49.33323, -13.81536], [-49.33303, -13.81562], [-49.3332, -13.81595], [-49.33235, -13.81579], [-49.33214, -13.81593], [-49.33185, -13.81701], [-49.33136, -13.8177], [-49.33134, -13.81838], [-49.33107, -13.81882], [-49.33139, -13.8197], [-49.3327, -13.82081], [-49.33301, -13.8215], [-49.33298, -13.82373], [-49.33251, -13.82513], [-49.33192, -13.82545], [-49.33127, -13.82542], [-49.3304, -13.82571], [-49.32778, -13.82824], [-49.32644, -13.82819], [-49.32572, -13.82855], [-49.32548, -13.8288], [-49.32535, -13.82929], [-49.3247, -13.82957], [-49.32433, -13.83014], [-49.32409, -13.83088], [-49.32419, -13.83123], [-49.32349, -13.83237], [-49.32532, -13.83454], [-49.32575, -13.83439], [-49.32663, -13.83485], [-49.32695, -13.8352], [-49.32793, -13.83516], [-49.32878, -13.83558], [-49.32943, -13.83563], [-49.33061, -13.83641], [-49.33081, -13.83641], [-49.33102, -13.83612], [-49.33144, -13.83619], [-49.33189, -13.83597], [-49.33316, -13.83648], [-49.33444, -13.83662], [-49.33515, -13.83739], [-49.3358, -13.83847], [-49.33637, -13.83877], [-49.33688, -13.83946], [-49.33668, -13.83999], [-49.33718, -13.84082], [-49.33709, -13.84151], [-49.33737, -13.8416], [-49.33737, -13.84274], [-49.33761, -13.84301], [-49.33761, -13.84335], [-49.33789, -13.84352], [-49.3379, -13.84418], [-49.33816, -13.8439], [-49.33863, -13.84423], [-49.33893, -13.84412], [-49.33914, -13.84435], [-49.33961, -13.84392], [-49.34038, -13.84496], [-49.34145, -13.84492], [-49.34238, -13.84536], [-49.34273, -13.84529], [-49.34314, -13.84489], [-49.34347, -13.84515], [-49.34409, -13.84526], [-49.34444, -13.84517], [-49.34473, -13.84564], [-49.34533, -13.84575], [-49.3454, -13.84507], [-49.34614, -13.84505], [-49.34664, -13.84423], [-49.3469, -13.8441], [-49.34735, -13.84448], [-49.34778, -13.84413], [-49.34817, -13.84438], [-49.34929, -13.84461], [-49.34975, -13.84455], [-49.3498, -13.84432], [-49.3502, -13.84404], [-49.35035, -13.84401], [-49.35055, -13.84429], [-49.35096, -13.84362], [-49.35131, -13.84357], [-49.3515, -13.84332], [-49.35208, -13.84312], [-49.35251, -13.84237], [-49.353, -13.84237], [-49.35332, -13.84205], [-49.35401, -13.84182], [-49.35499, -13.84247], [-49.35507, -13.84281], [-49.35562, -13.84324], [-49.3557, -13.84354], [-49.35628, -13.84371], [-49.35633, -13.84415], [-49.35687, -13.84378], [-49.35749, -13.84383], [-49.35774, -13.8433], [-49.35803, -13.84318], [-49.35833, -13.84326], [-49.35844, -13.84386], [-49.35897, -13.84396], [-49.35975, -13.84362], [-49.36014, -13.84367], [-49.36069, -13.84306], [-49.36059, -13.84259], [-49.36107, -13.84232], [-49.36121, -13.84114], [-49.36181, -13.84104], [-49.36194, -13.84064], [-49.36258, -13.84059], [-49.36311, -13.83979], [-49.36346, -13.83999], [-49.36372, -13.83966], [-49.36466, -13.83933], [-49.36555, -13.83927], [-49.36632, -13.83872], [-49.36649, -13.83908], [-49.36642, -13.83964], [-49.36667, -13.84], [-49.36665, -13.84057], [-49.36691, -13.84112], [-49.36674, -13.84149], [-49.36692, -13.8417], [-49.36689, -13.84208], [-49.36717, -13.84265], [-49.36677, -13.84285], [-49.36633, -13.84339], [-49.3663, -13.84375], [-49.36658, -13.84414], [-49.36626, -13.84414], [-49.36633, -13.84441], [-49.36616, -13.84463], [-49.36632, -13.84488], [-49.36632, -13.84559], [-49.36673, -13.84591], [-49.36666, -13.84605], [-49.36637, -13.84605], [-49.36636, -13.84634], [-49.36686, -13.8466], [-49.36701, -13.84704], [-49.36685, -13.84725], [-49.36692, -13.84771], [-49.36673, -13.84824], [-49.36679, -13.84901], [-49.36639, -13.84958], [-49.36665, -13.85038], [-49.36618, -13.85146], [-49.36737, -13.85246], [-49.36748, -13.85306], [-49.36736, -13.85328], [-49.36659, -13.85332], [-49.36644, -13.85352], [-49.36671, -13.85438], [-49.36618, -13.85434], [-49.36649, -13.85508], [-49.36609, -13.85517], [-49.36589, -13.8554], [-49.36639, -13.85653], [-49.36613, -13.85686], [-49.36558, -13.85686], [-49.36562, -13.85705], [-49.36589, -13.85719], [-49.36528, -13.85741], [-49.36498, -13.85819], [-49.36515, -13.859], [-49.36592, -13.86039], [-49.36636, -13.86238], [-49.36621, -13.86282], [-49.36554, -13.86328], [-49.36543, -13.8653], [-49.36553, -13.86597], [-49.36586, -13.86718], [-49.36641, -13.86831], [-49.36755, -13.86945], [-49.36709, -13.86978], [-49.3669, -13.87116], [-49.36729, -13.8735], [-49.36766, -13.87471], [-49.36767, -13.87587], [-49.36644, -13.87881], [-49.36639, -13.87935], [-49.36652, -13.88083], [-49.36681, -13.88163], [-49.36727, -13.88415], [-49.36759, -13.88477], [-49.36739, -13.88586], [-49.36777, -13.887], [-49.36736, -13.88805], [-49.36742, -13.88902], [-49.36721, -13.88999], [-49.36721, -13.89095], [-49.36702, -13.89146], [-49.36563, -13.89199], [-49.36469, -13.89354], [-49.3651, -13.89513], [-49.36604, -13.89636], [-49.36556, -13.89795], [-49.36631, -13.89902], [-49.36607, -13.90005], [-49.36653, -13.90066], [-49.36653, -13.90118], [-49.36541, -13.90276], [-49.36496, -13.90291], [-49.36328, -13.90266], [-49.36122, -13.90179], [-49.35953, -13.9016], [-49.35801, -13.90283], [-49.35601, -13.90324], [-49.35465, -13.90314], [-49.35171, -13.90226], [-49.34971, -13.90229], [-49.34825, -13.90245], [-49.34647, -13.90297], [-49.34544, -13.90416], [-49.34479, -13.90455], [-49.34228, -13.90445], [-49.34129, -13.90417], [-49.33936, -13.90233], [-49.3382, -13.90165], [-49.33725, -13.90086], [-49.33668, -13.90009], [-49.33588, -13.89846], [-49.33517, -13.89751], [-49.33463, -13.89708], [-49.33365, -13.89695], [-49.33088, -13.89762], [-49.32913, -13.89921], [-49.32869, -13.89989], [-49.32837, -13.90086], [-49.32606, -13.90357], [-49.32496, -13.90403], [-49.32385, -13.90388], [-49.32343, -13.90408], [-49.32226, -13.90546], [-49.31933, -13.90789], [-49.31911, -13.90821], [-49.31841, -13.91152], [-49.31802, -13.91261], [-49.31762, -13.91314], [-49.31635, -13.91412], [-49.31271, -13.91597], [-49.3112, -13.917], [-49.31013, -13.91831], [-49.30946, -13.9196], [-49.30802, -13.92153], [-49.30739, -13.92216], [-49.30613, -13.92301], [-49.30448, -13.92697]]]}}, 
{"type": "Feature", "properties": {"CD_SETOR": "520082905000006", "CD_SIT": "8", "NM_DIST": "Amaralina", "NM_SUBDIST": null}, "geometry": {"type": "Polygon", "coordinates": [[[-49.56191, -13.79374], [-49.56154, -13.79556], [-49.56042, -13.79682], [-49.55995, -13.79664], [-49.55959, -13.7961], [-49.55884, -13.79619], [-49.55793, -13.79854], [-49.55744, -13.80199], [-49.55587, -13.80281], [-49.55522, -13.80262], [-49.55392, -13.80126], [-49.55336, -13.80171], [-49.55317, -13.80235], [-49.55244, -13.80326], [-49.55225, -13.80425], [-49.55106, -13.80606], [-49.55059, -13.80634], [-49.54911, -13.80434], [-49.54713, -13.80507], [-49.54603, -13.80489], [-49.54492, -13.80398], [-49.54428, -13.80461], [-49.54408, -13.80507], [-49.54428, -13.80553], [-49.54531, -13.80625], [-49.54539, -13.80679], [-49.544, -13.80887], [-49.54404, -13.8096], [-49.54464, -13.80996], [-49.54642, -13.81023], [-49.54714, -13.81114], [-49.54725, -13.8125], [-49.54623, -13.81395], [-49.5455, -13.81573], [-49.54361, -13.81912], [-49.54334, -13.82047], [-49.54278, -13.82111], [-49.54167, -13.82147], [-49.54019, -13.82237], [-49.53963, -13.82346], [-49.53778, -13.82519], [-49.53631, -13.82573], [-49.53508, -13.82545], [-49.53398, -13.82482], [-49.53351, -13.82473], [-49.53286, -13.82582], [-49.53306, -13.82844], [-49.53286, -13.82926], [-49.53176, -13.82962], [-49.531, -13.82954], [-49.52981, -13.8289], [-49.52914, -13.82971], [-49.52897, -13.83043], [-49.52842, -13.83135], [-49.52851, -13.83216], [-49.52747, -13.83307], [-49.52656, -13.83451], [-49.52358, -13.83596], [-49.522, -13.83623], [-49.521, -13.83623], [-49.52061, -13.83496], [-49.51961, -13.83469], [-49.51922, -13.83424], [-49.517, -13.83469], [-49.517, -13.8337], [-49.51747, -13.8326], [-49.51681, -13.83197], [-49.51589, -13.83242], [-49.51526, -13.83188], [-49.51423, -13.83152], [-49.51339, -13.83206], [-49.51229, -13.83135], [-49.51164, -13.83161], [-49.51089, -13.83125], [-49.51053, -13.83052], [-49.50895, -13.83034], [-49.50875, -13.82907], [-49.50942, -13.82835], [-49.50884, -13.8279], [-49.50903, -13.82735], [-49.50792, -13.82753], [-49.50755, -13.82681], [-49.50633, -13.82771], [-49.50486, -13.82826], [-49.50412, -13.82753], [-49.50365, -13.82753], [-49.50269, -13.82806], [-49.50317, -13.82944], [-49.50296, -13.8303], [-49.50295, -13.83149], [-49.50272, -13.83171], [-49.50441, -13.83424], [-49.4957, -13.83915], [-49.49398, -13.83994], [-49.49148, -13.84181], [-49.49043, -13.84207], [-49.48944, -13.84287], [-49.48852, -13.84466], [-49.4875, -13.84564], [-49.48495, -13.84622], [-49.48264, -13.84704], [-49.48028, -13.84726], [-49.47664, -13.84851], [-49.47515, -13.84783], [-49.47344, -13.84495], [-49.47134, -13.84559], [-49.4691, -13.84367], [-49.46654, -13.84196], [-49.46392, -13.8416], [-49.46092, -13.84487], [-49.45932, -13.84498], [-49.45874, -13.84527], [-49.45862, -13.84575], [-49.46063, -13.84766], [-49.46096, -13.84886], [-49.46028, -13.85205], [-49.4596, -13.85305], [-49.45735, -13.85498], [-49.45665, -13.85597], [-49.45638, -13.85578], [-49.45587, -13.85585], [-49.4552, -13.85653], [-49.45342, -13.85747], [-49.45316, -13.85801], [-49.45172, -13.85927], [-49.45047, -13.86091], [-49.45041, -13.8626], [-49.45019, -13.86284], [-49.44737, -13.86394], [-49.44684, -13.86444], [-49.44667, -13.86492], [-49.44632, -13.86529], [-49.44061, -13.86754], [-49.43971, -13.86804], [-49.43915, -13.86848], [-49.43828, -13.86979], [-49.43648, -13.87054], [-49.43581, -13.87124], [-49.43435, -13.87428], [-49.43397, -13.8755], [-49.43337, -13.87623], [-49.43326, -13.87732], [-49.43335, -13.87825], [-49.43292, -13.87935], [-49.43216, -13.88041], [-49.43202, -13.88115], [-49.43153, -13.88207], [-49.43139, -13.8841], [-49.42991, -13.88579], [-49.43017, -13.88649], [-49.43115, -13.88727], [-49.43158, -13.88788], [-49.43174, -13.88856], [-49.43221, -13.88891], [-49.43316, -13.89025], [-49.43484, -13.89119], [-49.43556, -13.89139], [-49.43634, -13.89195], [-49.43756, -13.89502], [-49.43905, -13.89765], [-49.44165, -13.90118], [-49.44307, -13.9025], [-49.44379, -13.90388], [-49.44214, -13.90625], [-49.44265, -13.91012], [-49.44259, -13.91072], [-49.44209, -13.91183], [-49.44256, -13.91291], [-49.44266, -13.91505], [-49.44167, -13.91813], [-49.44153, -13.9198], [-49.44196, -13.92205], [-49.44325, -13.92553], [-49.44418, -13.92869], [-49.44416, -13.93042], [-49.4435, -13.93417], [-49.44345, -13.93578], [-49.44522, -13.94048], [-49.44536, -13.94129], [-49.44512, -13.94172], [-49.44439, -13.94214], [-49.44244, -13.94261], [-49.44067, -13.94362], [-49.43881, -13.94498], [-49.43575, -13.94645], [-49.43213, -13.94774], [-49.42924, -13.9491], [-49.4261, -13.94994], [-49.42518, -13.95036], [-49.423, -13.95176], [-49.42148, -13.95399], [-49.41983, -13.95563], [-49.42156, -13.95704], [-49.42315, -13.95954], [-49.42389, -13.96167], [-49.42612, -13.9638], [-49.42684, -13.96514], [-49.42711, -13.96631], [-49.42912, -13.96931], [-49.43117, -13.97176], [-49.43406, -13.97446], [-49.43617, -13.97746], [-49.43731, -13.97826], [-49.43852, -13.97946], [-49.44136, -13.98157], [-49.44251, -13.98182], [-49.44342, -13.98228], [-49.44747, -13.98303], [-49.44931, -13.98408], [-49.4503, -13.98497], [-49.4542, -13.99081], [-49.45539, -13.99037], [-49.45625, -13.98902], [-49.45761, -13.98819], [-49.45958, -13.98664], [-49.46184, -13.98605], [-49.46356, -13.98602], [-49.46708, -13.98511], [-49.46725, -13.98523], [-49.46881, -13.98495], [-49.47258, -13.98325], [-49.47856, -13.97864], [-49.48056, -13.97674], [-49.48205, -13.97568], [-49.48289, -13.97541], [-49.48428, -13.97561], [-49.48584, -13.97612], [-49.488, -13.97716], [-49.48878, -13.97733], [-49.49203, -13.97904], [-49.49315, -13.97941], [-49.49456, -13.98035], [-49.49877, -13.98214], [-49.50112, -13.98247], [-49.50209, -13.98275], [-49.50372, -13.98284], [-49.506, -13.98266], [-49.5078, -13.98197], [-49.50749, -13.98127], [-49.50764, -13.97978], [-49.50718, -13.97833], [-49.5071, -13.97503], [-49.50672, -13.97394], [-49.50638, -13.97363], [-49.5064, -13.97243], [-49.50603, -13.97151], [-49.50621, -13.97086], [-49.50508, -13.96882], [-49.50435, -13.96794], [-49.50356, -13.96731], [-49.50331, -13.96584], [-49.50271, -13.96526], [-49.5022, -13.96509], [-49.5021, -13.96369], [-49.50247, -13.96305], [-49.50382, -13.9625], [-49.50409, -13.96224], [-49.5044, -13.961], [-49.50448, -13.95987], [-49.50667, -13.95887], [-49.50834, -13.95836], [-49.50881, -13.95802], [-49.50939, -13.95701], [-49.50932, -13.95675], [-49.50996, -13.95612], [-49.50984, -13.95567], [-49.50994, -13.95533], [-49.50973, -13.95468], [-49.50988, -13.95431], [-49.51061, -13.95408], [-49.51087, -13.95419], [-49.51159, -13.95332], [-49.51308, -13.95279], [-49.51377, -13.95294], [-49.51492, -13.95404], [-49.51693, -13.95371], [-49.51802, -13.95328], [-49.51931, -13.95319], [-49.52025, -13.95254], [-49.52072, -13.95194], [-49.52177, -13.95161], [-49.52181, -13.95093], [-49.52333, -13.95044], [-49.52405, -13.94934], [-49.52349, -13.94826], [-49.52367, -13.94769], [-49.52327, -13.94734], [-49.52342, -13.94709], [-49.52387, -13.94695], [-49.52391, -13.94675], [-49.52311, -13.94607], [-49.52351, -13.9452], [-49.52297, -13.94401], [-49.52236, -13.9435], [-49.52062, -13.94325], [-49.52042, -13.94296], [-49.52021, -13.94192], [-49.51905, -13.94052], [-49.51928, -13.9396], [-49.51868, -13.93716], [-49.51787, -13.93563], [-49.51797, -13.93494], [-49.51771, -13.93444], [-49.51774, -13.93373], [-49.51796, -13.93278], [-49.51925, -13.93293], [-49.5204, -13.93239], [-49.52078, -13.93182], [-49.5206, -13.93023], [-49.52072, -13.93012], [-49.52114, -13.93021], [-49.52128, -13.92966], [-49.5219, -13.92938], [-49.5214, -13.92817], [-49.52157, -13.92771], [-49.52192, -13.92748], [-49.52198, -13.92705], [-49.5212, -13.92637], [-49.52048, -13.92606], [-49.52035, -13.92554], [-49.52066, -13.92382], [-49.52171, -13.92295], [-49.52194, -13.92264], [-49.52198, -13.92223], [-49.52043, -13.91992], [-49.52023, -13.91819], [-49.52044, -13.91767], [-49.52138, -13.91646], [-49.52205, -13.91614], [-49.52228, -13.9156], [-49.52217, -13.91472], [-49.52385, -13.91185], [-49.52447, -13.91049], [-49.52487, -13.909], [-49.5253, -13.90828], [-49.52535, -13.90723], [-49.52486, -13.90522], [-49.52498, -13.9041], [-49.52534, -13.90341], [-49.52759, -13.90156], [-49.52809, -13.90069], [-49.5285, -13.89929], [-49.52976, -13.89779], [-49.5296, -13.89681], [-49.52862, -13.89603], [-49.5283, -13.89493], [-49.52844, -13.89424], [-49.53056, -13.89203], [-49.5318, -13.89145], [-49.53255, -13.89076], [-49.53249, -13.88923], [-49.53272, -13.88738], [-49.53254, -13.88647], [-49.53281, -13.88595], [-49.53358, -13.88567], [-49.53332, -13.88482], [-49.53356, -13.88198], [-49.53612, -13.87997], [-49.53669, -13.8787], [-49.53659, -13.87767], [-49.53729, -13.87636], [-49.53723, -13.87449], [-49.53778, -13.87292], [-49.53796, -13.87153], [-49.53747, -13.86977], [-49.53729, -13.86797], [-49.53608, -13.86694], [-49.53499, -13.86634], [-49.53437, -13.86466], [-49.53453, -13.86439], [-49.53654, -13.86339], [-49.537, -13.86355], [-49.53773, -13.86425], [-49.53812, -13.86427], [-49.5395, -13.86322], [-49.54049, -13.8617], [-49.54042, -13.86092], [-49.53984, -13.86091], [-49.54, -13.86048], [-49.5399, -13.86009], [-49.54047, -13.85993], [-49.54113, -13.85946], [-49.54121, -13.85914], [-49.54097, -13.85854], [-49.541, -13.8582], [-49.54168, -13.85684], [-49.5418, -13.85629], [-49.54198, -13.8561], [-49.54295, -13.85582], [-49.54286, -13.85495], [-49.54335, -13.85417], [-49.54337, -13.85377], [-49.54293, -13.85281], [-49.54281, -13.85192], [-49.54343, -13.85115], [-49.54366, -13.85045], [-49.54357, -13.84995], [-49.54318, -13.84947], [-49.54331, -13.84825], [-49.54311, -13.84771], [-49.54315, -13.84737], [-49.54423, -13.84722], [-49.54568, -13.84747], [-49.54598, -13.8473], [-49.54619, -13.84618], [-49.5475, -13.84566], [-49.54753, -13.84509], [-49.54709, -13.84345], [-49.54748, -13.84282], [-49.54797, -13.84264], [-49.54865, -13.84281], [-49.54887, -13.84308], [-49.54918, -13.84479], [-49.54949, -13.84514], [-49.55063, -13.84548], [-49.55165, -13.84536], [-49.55165, -13.84486], [-49.55082, -13.8438], [-49.55064, -13.84261], [-49.55076, -13.84209], [-49.55097, -13.84174], [-49.5517, -13.8415], [-49.55233, -13.84174], [-49.55269, -13.84225], [-49.55308, -13.84215], [-49.55298, -13.84135], [-49.55333, -13.84066], [-49.55425, -13.83996], [-49.55534, -13.83962], [-49.556, -13.83922], [-49.55607, -13.83848], [-49.55551, -13.8379], [-49.55534, -13.83737], [-49.55583, -13.83687], [-49.55605, -13.83537], [-49.55644, -13.83461], [-49.55725, -13.83423], [-49.55911, -13.83473], [-49.55924, -13.83402], [-49.55907, -13.83249], [-49.55924, -13.83236], [-49.56129, -13.83245], [-49.56287, -13.83163], [-49.56354, -13.83077], [-49.56421, -13.82941], [-49.565, -13.82883], [-49.56521, -13.82831], [-49.56511, -13.82769], [-49.56596, -13.82699], [-49.56598, -13.82582], [-49.56536, -13.82459], [-49.56468, -13.82391], [-49.56472, -13.82313], [-49.56399, -13.82134], [-49.56404, -13.82082], [-49.5643, -13.82016], [-49.56505, -13.81912], [-49.56587, -13.8186], [-49.56628, -13.81856], [-49.56666, -13.81818], [-49.56771, -13.81515], [-49.56797, -13.81327], [-49.56785, -13.81259], [-49.5674, -13.81206], [-49.56634, -13.81154], [-49.56582, -13.81101], [-49.5657, -13.81019], [-49.56636, -13.80966], [-49.56857, -13.80917], [-49.56887, -13.80896], [-49.56991, -13.80709], [-49.57069, -13.80633], [-49.57089, -13.80582], [-49.56969, -13.80428], [-49.5694, -13.80347], [-49.56954, -13.80299], [-49.56924, -13.80145], [-49.56892, -13.80125], [-49.56783, -13.80118], [-49.56621, -13.80206], [-49.56584, -13.80206], [-49.56516, -13.80159], [-49.56503, -13.80123], [-49.56562, -13.8007], [-49.56509, -13.79945], [-49.56531, -13.79779], [-49.56519, -13.79699], [-49.56442, -13.79643], [-49.56336, -13.79639], [-49.5631, -13.7962], [-49.56285, -13.79576], [-49.56254, -13.79376], [-49.56191, -13.79374]]]}}, 
{"type": "Feature", "properties": {"CD_SETOR": "520082905000007", "CD_SIT": "8", "NM_DIST": "Amaralina", "NM_SUBDIST": null}, "geometry": {"type": "Polygon", "coordinates": [[[-49.5749, -13.76693], [-49.57545, -13.76783], [-49.576, -13.76756], [-49.577, -13.76747], [-49.57691, -13.7681], [-49.57589, -13.76973], [-49.57609, -13.77046], [-49.57886, -13.77128], [-49.57953, -13.77272], [-49.58053, -13.774], [-49.58398, -13.77635], [-49.58573, -13.77327], [-49.58656, -13.77327], [-49.58684, -13.77409], [-49.58695, -13.77608], [-49.58814, -13.77753], [-49.59184, -13.77871], [-49.58953, -13.78179], [-49.58945, -13.78242], [-49.5885, -13.78305], [-49.58767, -13.78243], [-49.58695, -13.78224], [-49.58601, -13.78297], [-49.58454, -13.78587], [-49.58303, -13.78605], [-49.58286, -13.78441], [-49.58303, -13.78333], [-49.58267, -13.78161], [-49.58148, -13.77988], [-49.58064, -13.78042], [-49.57989, -13.78142], [-49.57803, -13.78242], [-49.57664, -13.78261], [-49.57581, -13.78161], [-49.57553, -13.78178], [-49.57498, -13.7826], [-49.5747, -13.78414], [-49.57378, -13.78523], [-49.57303, -13.78568], [-49.57211, -13.78459], [-49.57153, -13.78324], [-49.57089, -13.78305], [-49.56886, -13.78305], [-49.56709, -13.78188], [-49.56561, -13.78151], [-49.56431, -13.78151], [-49.56348, -13.78214], [-49.56367, -13.78342], [-49.5645, -13.78442], [-49.56459, -13.78577], [-49.56411, -13.78749], [-49.56367, -13.79193], [-49.56329, -13.79248], [-49.56191, -13.79374], [-49.56254, -13.79376], [-49.56285, -13.79576], [-49.5631, -13.7962], [-49.56336, -13.79639], [-49.56442, -13.79643], [-49.56519, -13.79699], [-49.56531, -13.79779], [-49.56509, -13.79945], [-49.56562, -13.8007], [-49.56503, -13.80123], [-49.56516, -13.80159], [-49.56584, -13.80206], [-49.56621, -13.80206], [-49.56783, -13.80118], [-49.56892, -13.80125], [-49.56924, -13.80145], [-49.56954, -13.80299], [-49.5694, -13.80347], [-49.56969, -13.80428], [-49.57089, -13.80582], [-49.57069, -13.80633], [-49.56991, -13.80709], [-49.56887, -13.80896], [-49.56857, -13.80917], [-49.56636, -13.80966], [-49.5657, -13.81019], [-49.56582, -13.81101], [-49.56634, -13.81154], [-49.5674, -13.81206], [-49.56785, -13.81259], [-49.56797, -13.81327], [-49.56771, -13.81515], [-49.56666, -13.81818], [-49.56628, -13.81856], [-49.56587, -13.8186], [-49.56505, -13.81912], [-49.5643, -13.82016], [-49.56404, -13.82082], [-49.56399, -13.82134], [-49.56472, -13.82313], [-49.56468, -13.82391], [-49.56536, -13.82459], [-49.56598, -13.82582], [-49.56596, -13.82699], [-49.56511, -13.82769], [-49.56521, -13.82831], [-49.565, -13.82883], [-49.56421, -13.82941], [-49.56354, -13.83077], [-49.56287, -13.83163], [-49.56129, -13.83245], [-49.55924, -13.83236], [-49.55907, -13.83249], [-49.55924, -13.83402], [-49.55911, -13.83473], [-49.55725, -13.83423], [-49.55644, -13.83461], [-49.55605, -13.83537], [-49.55583, -13.83687], [-49.55534, -13.83737], [-49.55551, -13.8379], [-49.55607, -13.83848], [-49.556, -13.83922], [-49.55534, -13.83962], [-49.55425, -13.83996], [-49.55333, -13.84066], [-49.55298, -13.84135], [-49.55308, -13.84215], [-49.55269, -13.84225], [-49.55233, -13.84174], [-49.5517, -13.8415], [-49.55097, -13.84174], [-49.55076, -13.84209], [-49.55064, -13.84261], [-49.55082, -13.8438], [-49.55165, -13.84486], [-49.55165, -13.84536], [-49.55063, -13.84548], [-49.54949, -13.84514], [-49.54918, -13.84479], [-49.54887, -13.84308], [-49.54865, -13.84281], [-49.54797, -13.84264], [-49.54748, -13.84282], [-49.54709, -13.84345], [-49.54753, -13.84509], [-49.5475, -13.84566], [-49.54619, -13.84618], [-49.54598, -13.8473], [-49.54568, -13.84747], [-49.54423, -13.84722], [-49.54315, -13.84737], [-49.54311, -13.84771], [-49.54331, -13.84825], [-49.54318, -13.84947], [-49.54357, -13.84995], [-49.54366, -13.85045], [-49.54343, -13.85115], [-49.54281, -13.85192], [-49.54293, -13.85281], [-49.54337, -13.85377], [-49.54335, -13.85417], [-49.54286, -13.85495], [-49.54295, -13.85582], [-49.54198, -13.8561], [-49.5418, -13.85629], [-49.54168, -13.85684], [-49.541, -13.8582], [-49.54097, -13.85854], [-49.54121, -13.85914], [-49.54113, -13.85946], [-49.54047, -13.85993], [-49.5399, -13.86009], [-49.54, -13.86048], [-49.53984, -13.86091], [-49.54042, -13.86092], [-49.54049, -13.8617], [-49.5395, -13.86322], [-49.53812, -13.86427], [-49.53773, -13.86425], [-49.537, -13.86355], [-49.53654, -13.86339], [-49.53453, -13.86439], [-49.53437, -13.86466], [-49.53499, -13.86634], [-49.53608, -13.86694], [-49.53729, -13.86797], [-49.53747, -13.86977], [-49.53796, -13.87153], [-49.53778, -13.87292], [-49.53723, -13.87449], [-49.53729, -13.87636], [-49.53659, -13.87767], [-49.53669, -13.8787], [-49.53612, -13.87997], [-49.53356, -13.88198], [-49.53332, -13.88482], [-49.53358, -13.88567], [-49.53281, -13.88595], [-49.53254, -13.88647], [-49.53272, -13.88738], [-49.53249, -13.88923], [-49.53255, -13.89076], [-49.5318, -13.89145], [-49.53056, -13.89203], [-49.52844, -13.89424], [-49.5283, -13.89493], [-49.52862, -13.89603], [-49.5296, -13.89681], [-49.52976, -13.89779], [-49.5285, -13.89929], [-49.52809, -13.90069], [-49.52759, -13.90156], [-49.52534, -13.90341], [-49.52498, -13.9041], [-49.52486, -13.90522], [-49.52535, -13.90723], [-49.5253, -13.90828], [-49.52487, -13.909], [-49.52447, -13.91049], [-49.52385, -13.91185], [-49.52217, -13.91472], [-49.52228, -13.9156], [-49.52205, -13.91614], [-49.52138, -13.91646], [-49.52044, -13.91767], [-49.52023, -13.91819], [-49.52043, -13.91992], [-49.52198, -13.92223], [-49.52194, -13.92264], [-49.52171, -13.92295], [-49.52066, -13.92382], [-49.52035, -13.92554], [-49.52048, -13.92606], [-49.5212, -13.92637], [-49.52198, -13.92705], [-49.52192, -13.92748], [-49.52157, -13.92771], [-49.5214, -13.92817], [-49.5219, -13.92938], [-49.52128, -13.92966], [-49.52114, -13.93021], [-49.52072, -13.93012], [-49.5206, -13.93023], [-49.52078, -13.93182], [-49.5204, -13.93239], [-49.51925, -13.93293], [-49.51796, -13.93278], [-49.51774, -13.93373], [-49.51771, -13.93444], [-49.51797, -13.93494], [-49.51787, -13.93563], [-49.51868, -13.93716], [-49.51928, -13.9396], [-49.51905, -13.94052], [-49.52021, -13.94192], [-49.52042, -13.94296], [-49.52062, -13.94325], [-49.52236, -13.9435], [-49.52297, -13.94401], [-49.52351, -13.9452], [-49.52311, -13.94607], [-49.52383, -13.94657], [-49.52391, -13.94678], [-49.52387, -13.94695], [-49.52332, -13.94716], [-49.52327, -13.94734], [-49.52367, -13.94769], [-49.52345, -13.94805], [-49.5236, -13.94866], [-49.52404, -13.94917], [-49.52393, -13.94964], [-49.52333, -13.95044], [-49.52181, -13.95093], [-49.52177, -13.95161], [-49.52072, -13.95194], [-49.52025, -13.95254], [-49.51931, -13.95319], [-49.51802, -13.95328], [-49.51693, -13.95371], [-49.51492, -13.95404], [-49.51377, -13.95294], [-49.51308, -13.95279], [-49.51159, -13.95332], [-49.51087, -13.95419], [-49.51061, -13.95408], [-49.50993, -13.95428], [-49.50973, -13.95468], [-49.50994, -13.95533], [-49.50984, -13.95567], [-49.50996, -13.95612], [-49.50932, -13.95675], [-49.50939, -13.95701], [-49.50881, -13.95802], [-49.50834, -13.95836], [-49.50667, -13.95887], [-49.50448, -13.95987], [-49.5044, -13.961], [-49.50409, -13.96224], [-49.50382, -13.9625], [-49.50247, -13.96305], [-49.5021, -13.96369], [-49.5022, -13.96509], [-49.50271, -13.96526], [-49.50331, -13.96584], [-49.50356, -13.96731], [-49.50435, -13.96794], [-49.50508, -13.96882], [-49.50621, -13.97086], [-49.50603, -13.97151], [-49.5064, -13.97243], [-49.50638, -13.97363], [-49.50672, -13.97394], [-49.5071, -13.97503], [-49.50718, -13.97833], [-49.50764, -13.97978], [-49.50749, -13.98127], [-49.5078, -13.98197], [-49.50914, -13.98188], [-49.51112, -13.98252], [-49.51323, -13.98344], [-49.51461, -13.98362], [-49.51598, -13.98417], [-49.51719, -13.9855], [-49.51859, -13.9867], [-49.51967, -13.98694], [-49.52255, -13.98656], [-49.52352, -13.98617], [-49.52522, -13.98495], [-49.52664, -13.98306], [-49.52692, -13.98216], [-49.52709, -13.98043], [-49.52758, -13.97919], [-49.53011, -13.97674], [-49.53051, -13.97556], [-49.53217, -13.97426], [-49.53259, -13.97372], [-49.53373, -13.97123], [-49.53501, -13.96961], [-49.53628, -13.9689], [-49.53659, -13.96831], [-49.53748, -13.96786], [-49.53792, -13.96741], [-49.53828, -13.96665], [-49.53925, -13.96663], [-49.54113, -13.96544], [-49.54022, -13.96409], [-49.54266, -13.96261], [-49.54391, -13.96216], [-49.54551, -13.96168], [-49.55017, -13.96089], [-49.55225, -13.95991], [-49.55413, -13.95934], [-49.55491, -13.95968], [-49.55528, -13.9587], [-49.55566, -13.95831], [-49.55567, -13.95569], [-49.55584, -13.95501], [-49.55721, -13.954], [-49.56016, -13.9527], [-49.5617, -13.95174], [-49.56248, -13.95107], [-49.56292, -13.94973], [-49.56322, -13.94929], [-49.56594, -13.94708], [-49.56928, -13.94523], [-49.57044, -13.9439], [-49.57283, -13.9424], [-49.57376, -13.94156], [-49.5782, -13.93952], [-49.57928, -13.9394], [-49.5802, -13.93952], [-49.58093, -13.93984], [-49.5824, -13.93938], [-49.58469, -13.93759], [-49.58644, -13.93681], [-49.58737, -13.93546], [-49.58837, -13.933], [-49.58972, -13.93181], [-49.5902, -13.93102], [-49.59072, -13.92939], [-49.59089, -13.92798], [-49.59148, -13.92746], [-49.59195, -13.92672], [-49.59364, -13.92556], [-49.59364, -13.92543], [-49.5963, -13.92299], [-49.59809, -13.92151], [-49.60143, -13.91945], [-49.60284, -13.9192], [-49.60372, -13.91937], [-49.60469, -13.91933], [-49.60834, -13.91671], [-49.60956, -13.91668], [-49.61006, -13.91612], [-49.61004, -13.91527], [-49.61045, -13.91359], [-49.61061, -13.91159], [-49.61095, -13.91065], [-49.611, -13.90964], [-49.61183, -13.90588], [-49.61248, -13.90516], [-49.6142, -13.904], [-49.61857, -13.90214], [-49.62125, -13.90127], [-49.62181, -13.9008], [-49.62248, -13.89681], [-49.62231, -13.89304], [-49.62241, -13.89091], [-49.62303, -13.89005], [-49.62331, -13.88833], [-49.62408, -13.88679], [-49.62453, -13.88521], [-49.62551, -13.8844], [-49.62717, -13.88414], [-49.62792, -13.88387], [-49.63056, -13.88181], [-49.63334, -13.88065], [-49.63406, -13.88016], [-49.63464, -13.87717], [-49.63467, -13.87527], [-49.63502, -13.87317], [-49.63706, -13.87134], [-49.63967, -13.87014], [-49.64039, -13.86945], [-49.64142, -13.86883], [-49.64217, -13.86762], [-49.64361, -13.86663], [-49.64567, -13.86574], [-49.64719, -13.86476], [-49.64832, -13.8643], [-49.65059, -13.86275], [-49.65417, -13.86114], [-49.65473, -13.86056], [-49.65487, -13.85993], [-49.65542, -13.85916], [-49.65539, -13.85791], [-49.65656, -13.85544], [-49.65723, -13.85491], [-49.65775, -13.85418], [-49.65792, -13.8536], [-49.65906, -13.85279], [-49.65969, -13.8508], [-49.66123, -13.84904], [-49.66256, -13.84783], [-49.66331, -13.84679], [-49.66406, -13.84621], [-49.66522, -13.84369], [-49.66712, -13.84124], [-49.668, -13.8407], [-49.66862, -13.83993], [-49.67096, -13.8386], [-49.67297, -13.83812], [-49.674, -13.83813], [-49.67542, -13.83846], [-49.67665, -13.83914], [-49.6772, -13.83965], [-49.67836, -13.83884], [-49.67937, -13.83875], [-49.6815, -13.83823], [-49.68289, -13.83711], [-49.68347, -13.83647], [-49.68526, -13.83255], [-49.6874, -13.82981], [-49.68767, -13.82778], [-49.68838, -13.82607], [-49.68857, -13.82439], [-49.68922, -13.82262], [-49.68859, -13.8201], [-49.68792, -13.81975], [-49.68736, -13.81867], [-49.68751, -13.81797], [-49.68606, -13.81716], [-49.68446, -13.81519], [-49.68343, -13.81435], [-49.68315, -13.8138], [-49.6831, -13.81289], [-49.6828, -13.81248], [-49.68192, -13.81198], [-49.67924, -13.80914], [-49.67811, -13.80858], [-49.67671, -13.80761], [-49.6763, -13.80623], [-49.67533, -13.80441], [-49.67738, -13.80553], [-49.67973, -13.80439], [-49.68012, -13.80329], [-49.67896, -13.80126], [-49.67897, -13.8008], [-49.67985, -13.79796], [-49.68108, -13.79696], [-49.68186, -13.79549], [-49.68195, -13.79464], [-49.68239, -13.79366], [-49.68254, -13.79278], [-49.68305, -13.79235], [-49.6871, -13.79039], [-49.68796, -13.78952], [-49.68936, -13.78899], [-49.6902, -13.78777], [-49.69068, -13.78635], [-49.6923, -13.78586], [-49.69266, -13.78544], [-49.69261, -13.78526], [-49.69323, -13.78377], [-49.69456, -13.78281], [-49.69555, -13.7812], [-49.69546, -13.7803], [-49.69481, -13.78], [-49.69466, -13.7795], [-49.69355, -13.77874], [-49.69329, -13.77798], [-49.69359, -13.77642], [-49.6939, -13.77622], [-49.69404, -13.7758], [-49.69395, -13.77508], [-49.69353, -13.77461], [-49.69337, -13.77405], [-49.69263, -13.77406], [-49.69245, -13.77394], [-49.69124, -13.77098], [-49.69047, -13.77074], [-49.68979, -13.77005], [-49.68889, -13.76959], [-49.68828, -13.76876], [-49.68765, -13.76579], [-49.68762, -13.76498], [-49.68789, -13.7642], [-49.68831, -13.76368], [-49.68995, -13.76292], [-49.6902, -13.76187], [-49.69051, -13.76142], [-49.69258, -13.75931], [-49.69371, -13.75912], [-49.69423, -13.75874], [-49.69443, -13.75842], [-49.69501, -13.75551], [-49.69541, -13.75455], [-49.69681, -13.75327], [-49.69793, -13.753], [-49.69837, -13.75229], [-49.69614, -13.75096], [-49.69534, -13.74907], [-49.69594, -13.74553], [-49.69523, -13.74507], [-49.69345, -13.74625], [-49.68825, -13.74779], [-49.68771, -13.74928], [-49.68623, -13.75033], [-49.6834, -13.7494], [-49.68195, -13.74634], [-49.68251, -13.74498], [-49.68111, -13.74435], [-49.68206, -13.74308], [-49.68206, -13.74145], [-49.68047, -13.74154], [-49.68075, -13.74054], [-49.68178, -13.73955], [-49.6802, -13.73937], [-49.67964, -13.73846], [-49.68019, -13.7381], [-49.68104, -13.73855], [-49.68158, -13.73837], [-49.68158, -13.73684], [-49.68223, -13.73647], [-49.68223, -13.73566], [-49.68034, -13.73591], [-49.67973, -13.73375], [-49.68056, -13.7332], [-49.68214, -13.73384], [-49.68241, -13.73329], [-49.68167, -13.73302], [-49.68075, -13.73076], [-49.6802, -13.73085], [-49.67964, -13.73221], [-49.67909, -13.73094], [-49.67834, -13.73066], [-49.67759, -13.73094], [-49.67723, -13.7303], [-49.67445, -13.72931], [-49.67417, -13.72976], [-49.67176, -13.72913], [-49.67112, -13.72931], [-49.67184, -13.73067], [-49.67128, -13.73103], [-49.66918, -13.73076], [-49.66815, -13.73039], [-49.66704, -13.72894], [-49.66592, -13.7294], [-49.66537, -13.72813], [-49.66434, -13.72813], [-49.6637, -13.72968], [-49.66303, -13.72959], [-49.66267, -13.72796], [-49.6637, -13.72723], [-49.66386, -13.72659], [-49.66037, -13.72687], [-49.65942, -13.72514], [-49.65803, -13.72514], [-49.65656, -13.72378], [-49.65561, -13.72396], [-49.65506, -13.72505], [-49.65628, -13.72551], [-49.65572, -13.7265], [-49.65461, -13.72705], [-49.65406, -13.72487], [-49.65311, -13.72433], [-49.65239, -13.72487], [-49.65366, -13.72747], [-49.65136, -13.72723], [-49.65073, -13.72786], [-49.65116, -13.72859], [-49.65117, -13.73185], [-49.64878, -13.73484], [-49.6447, -13.73565], [-49.64376, -13.73621], [-49.64348, -13.73747], [-49.64116, -13.73775], [-49.64108, -13.73865], [-49.63942, -13.74028], [-49.63494, -13.74001], [-49.63115, -13.73857], [-49.62828, -13.73938], [-49.62876, -13.74309], [-49.62504, -13.74581], [-49.62439, -13.74717], [-49.62799, -13.74844], [-49.62856, -13.74925], [-49.62773, -13.75034], [-49.6232, -13.74971], [-49.62196, -13.75111], [-49.61967, -13.75479], [-49.61614, -13.7545], [-49.61308, -13.75596], [-49.61095, -13.75624], [-49.60651, -13.75406], [-49.6059, -13.75156], [-49.60584, -13.75034], [-49.60659, -13.74962], [-49.609, -13.7488], [-49.60872, -13.7469], [-49.60734, -13.74517], [-49.59873, -13.73992], [-49.59676, -13.73938], [-49.59239, -13.74146], [-49.59203, -13.74291], [-49.59481, -13.7498], [-49.59435, -13.75187], [-49.59295, -13.75542], [-49.59128, -13.75587], [-49.59064, -13.75787], [-49.59325, -13.75841], [-49.59518, -13.7616], [-49.59259, -13.76484], [-49.59056, -13.7652], [-49.58378, -13.76321], [-49.58072, -13.76004], [-49.58045, -13.75913], [-49.57672, -13.75967], [-49.57617, -13.76059], [-49.57711, -13.76213], [-49.57478, -13.7644], [-49.57572, -13.7661], [-49.5749, -13.76693]]]}}, 
{"type": "Feature", "properties": {"CD_SETOR": "520082905000008", "CD_SIT": "8", "NM_DIST": "Amaralina", "NM_SUBDIST": null}, "geometry": {"type": "Polygon", "coordinates": [[[-49.71959, -13.72811], [-49.71915, -13.72875], [-49.72034, -13.72893], [-49.72061, -13.72976], [-49.71941, -13.73419], [-49.71839, -13.73518], [-49.71764, -13.73517], [-49.71736, -13.73319], [-49.71681, -13.73319], [-49.71561, -13.73491], [-49.71356, -13.73627], [-49.71422, -13.73736], [-49.71403, -13.73944], [-49.71525, -13.74144], [-49.71553, -13.74298], [-49.71117, -13.74643], [-49.70894, -13.74761], [-49.7055, -13.74715], [-49.70459, -13.74778], [-49.70443, -13.74881], [-49.70189, -13.75241], [-49.70023, -13.75341], [-49.69837, -13.75229], [-49.69793, -13.753], [-49.69681, -13.75327], [-49.69541, -13.75455], [-49.69501, -13.75551], [-49.69443, -13.75842], [-49.69423, -13.75874], [-49.69371, -13.75912], [-49.69258, -13.75931], [-49.69051, -13.76142], [-49.6902, -13.76187], [-49.68995, -13.76292], [-49.68842, -13.76362], [-49.68802, -13.76397], [-49.68768, -13.76471], [-49.68762, -13.76531], [-49.68828, -13.76876], [-49.68889, -13.76959], [-49.68979, -13.77005], [-49.69047, -13.77074], [-49.69124, -13.77098], [-49.69245, -13.77394], [-49.69341, -13.7741], [-49.69353, -13.77461], [-49.69395, -13.77508], [-49.69404, -13.77562], [-49.6939, -13.77622], [-49.69359, -13.77642], [-49.69329, -13.77768], [-49.69346, -13.7786], [-49.69466, -13.7795], [-49.69481, -13.78], [-49.69546, -13.7803], [-49.69555, -13.7812], [-49.69456, -13.78281], [-49.69323, -13.78377], [-49.69261, -13.78526], [-49.69266, -13.78544], [-49.6923, -13.78586], [-49.69068, -13.78635], [-49.6902, -13.78777], [-49.68936, -13.78899], [-49.68796, -13.78952], [-49.6871, -13.79039], [-49.68305, -13.79235], [-49.68254, -13.79278], [-49.68239, -13.79366], [-49.68195, -13.79464], [-49.68186, -13.79549], [-49.68108, -13.79696], [-49.67985, -13.79796], [-49.67897, -13.8008], [-49.67896, -13.80126], [-49.68012, -13.80329], [-49.67973, -13.80439], [-49.67738, -13.80553], [-49.67533, -13.80441], [-49.6763, -13.80623], [-49.67671, -13.80761], [-49.67811, -13.80858], [-49.67924, -13.80914], [-49.68192, -13.81198], [-49.6828, -13.81248], [-49.6831, -13.81289], [-49.68315, -13.8138], [-49.68343, -13.81435], [-49.68446, -13.81519], [-49.68606, -13.81716], [-49.68751, -13.81797], [-49.68736, -13.81867], [-49.68792, -13.81975], [-49.68859, -13.8201], [-49.68922, -13.82262], [-49.68857, -13.82439], [-49.68838, -13.82607], [-49.68767, -13.82778], [-49.6874, -13.82981], [-49.68526, -13.83255], [-49.68332, -13.83669], [-49.6815, -13.83823], [-49.67937, -13.83875], [-49.67836, -13.83884], [-49.6772, -13.83965], [-49.67863, -13.84095], [-49.6805, -13.84307], [-49.68192, -13.84366], [-49.68348, -13.84484], [-49.68478, -13.84721], [-49.68662, -13.84811], [-49.68856, -13.84877], [-49.69048, -13.84874], [-49.6915, -13.84888], [-49.69256, -13.84867], [-49.69345, -13.84867], [-49.69551, -13.84902], [-49.69625, -13.84946], [-49.69692, -13.85017], [-49.69754, -13.85122], [-49.69822, -13.85319], [-49.69865, -13.85393], [-49.70095, -13.856], [-49.70264, -13.8566], [-49.70317, -13.85666], [-49.7057, -13.85609], [-49.70689, -13.85553], [-49.70936, -13.85474], [-49.71081, -13.8549], [-49.71217, -13.85636], [-49.71265, -13.85742], [-49.71465, -13.86071], [-49.7152, -13.86043], [-49.71581, -13.85971], [-49.71906, -13.85893], [-49.7214, -13.85863], [-49.72399, -13.85899], [-49.72987, -13.86133], [-49.73095, -13.86143], [-49.73267, -13.86101], [-49.73367, -13.86117], [-49.73834, -13.85943], [-49.74108, -13.85787], [-49.74317, -13.85721], [-49.74337, -13.85728], [-49.74394, -13.85676], [-49.75222, -13.85289], [-49.7532, -13.85213], [-49.75395, -13.85095], [-49.75495, -13.8506], [-49.7557, -13.84996], [-49.75897, -13.84824], [-49.76097, -13.84774], [-49.76265, -13.84772], [-49.76342, -13.84801], [-49.7642, -13.84892], [-49.76476, -13.84883], [-49.76781, -13.84759], [-49.76919, -13.84745], [-49.77023, -13.84701], [-49.77195, -13.84694], [-49.77325, -13.8467], [-49.7745, -13.8461], [-49.77834, -13.84632], [-49.77965, -13.84676], [-49.77964, -13.85196], [-49.78001, -13.85574], [-49.77936, -13.85714], [-49.77787, -13.85898], [-49.77748, -13.86049], [-49.77828, -13.86534], [-49.77878, -13.86637], [-49.77945, -13.8667], [-49.78048, -13.8677], [-49.78209, -13.87076], [-49.7829, -13.87172], [-49.78496, -13.8728], [-49.78678, -13.87503], [-49.78714, -13.87581], [-49.78767, -13.87615], [-49.78914, -13.87875], [-49.7896, -13.87926], [-49.7917, -13.87971], [-49.79239, -13.87967], [-49.79319, -13.87997], [-49.79439, -13.88112], [-49.79484, -13.88183], [-49.79559, -13.88235], [-49.79818, -13.88263], [-49.79981, -13.88315], [-49.80156, -13.88471], [-49.80536, -13.88575], [-49.80612, -13.88639], [-49.80636, -13.88789], [-49.80584, -13.89011], [-49.80625, -13.89139], [-49.80754, -13.89413], [-49.80884, -13.89582], [-49.81009, -13.89697], [-49.81148, -13.89776], [-49.81186, -13.89846], [-49.81187, -13.89917], [-49.81164, -13.89981], [-49.81293, -13.90213], [-49.81297, -13.90354], [-49.81337, -13.90532], [-49.81418, -13.90565], [-49.8157, -13.90557], [-49.8207, -13.90674], [-49.8217, -13.9083], [-49.82356, -13.90987], [-49.82473, -13.91006], [-49.82586, -13.91079], [-49.82639, -13.91081], [-49.82723, -13.91054], [-49.82818, -13.9099], [-49.83037, -13.90752], [-49.83273, -13.90608], [-49.83328, -13.90508], [-49.83414, -13.90421], [-49.83795, -13.8995], [-49.83981, -13.89895], [-49.84592, -13.89868], [-49.84834, -13.89985], [-49.84929, -13.90149], [-49.84964, -13.90321], [-49.84956, -13.90656], [-49.84873, -13.90991], [-49.84892, -13.91253], [-49.85039, -13.91427], [-49.85095, -13.91472], [-49.85225, -13.91471], [-49.8544, -13.91543], [-49.85559, -13.91543], [-49.8582, -13.91443], [-49.86023, -13.91344], [-49.86339, -13.91334], [-49.86542, -13.91298], [-49.86617, -13.91198], [-49.8659, -13.91089], [-49.86748, -13.90763], [-49.86801, -13.90463], [-49.87098, -13.89892], [-49.87293, -13.89738], [-49.87608, -13.89683], [-49.87973, -13.89783], [-49.88917, -13.899], [-49.89353, -13.9018], [-49.89547, -13.90198], [-49.89948, -13.90134], [-49.90353, -13.90152], [-49.90606, -13.90088], [-49.90801, -13.89952], [-49.91078, -13.89643], [-49.91356, -13.89534], [-49.9167, -13.89516], [-49.91865, -13.89443], [-49.91967, -13.89343], [-49.9194, -13.89207], [-49.91948, -13.89017], [-49.91967, -13.88881], [-49.92003, -13.88772], [-49.92292, -13.88599], [-49.92468, -13.88871], [-49.92617, -13.89043], [-49.92831, -13.88943], [-49.92959, -13.88825], [-49.93379, -13.88589], [-49.9366, -13.88453], [-49.93868, -13.88462], [-49.94184, -13.88506], [-49.94398, -13.88679], [-49.94501, -13.88687], [-49.94695, -13.8866], [-49.9502, -13.88569], [-49.95262, -13.88532], [-49.95429, -13.88714], [-49.95559, -13.88976], [-49.95595, -13.89239], [-49.95559, -13.89483], [-49.95261, -13.89928], [-49.95011, -13.90155], [-49.94797, -13.90173], [-49.94623, -13.90074], [-49.94623, -13.89947], [-49.94742, -13.89847], [-49.94853, -13.89683], [-49.94873, -13.89485], [-49.94761, -13.89312], [-49.94631, -13.89213], [-49.94434, -13.89168], [-49.94251, -13.89223], [-49.94112, -13.89286], [-49.93926, -13.89323], [-49.93787, -13.89413], [-49.93676, -13.89576], [-49.93648, -13.89712], [-49.93648, -13.89994], [-49.93711, -13.90184], [-49.94103, -13.90935], [-49.94159, -13.91171], [-49.94309, -13.9146], [-49.94337, -13.91488], [-49.94512, -13.91578], [-49.94643, -13.91561], [-49.94847, -13.91567], [-49.95106, -13.91442], [-49.95154, -13.91324], [-49.95189, -13.90889], [-49.95411, -13.90671], [-49.95709, -13.90535], [-49.95848, -13.90362], [-49.95891, -13.9023], [-49.96087, -13.90027], [-49.96209, -13.89954], [-49.96488, -13.89735], [-49.96677, -13.89505], [-49.9682, -13.89282], [-49.96932, -13.89038], [-49.97106, -13.88929], [-49.97404, -13.88638], [-49.97496, -13.88248], [-49.97023, -13.87641], [-49.96204, -13.86972], [-49.96092, -13.86755], [-49.96065, -13.86673], [-49.96259, -13.86174], [-49.96165, -13.85912], [-49.96136, -13.8574], [-49.9609, -13.85123], [-49.95887, -13.84671], [-49.95653, -13.84408], [-49.9542, -13.84245], [-49.94858, -13.83947], [-49.94151, -13.83477], [-49.94009, -13.8316], [-49.93898, -13.82824], [-49.93906, -13.8258], [-49.94139, -13.82416], [-49.94323, -13.82325], [-49.94528, -13.82289], [-49.94862, -13.82198], [-49.95186, -13.81989], [-49.95381, -13.81916], [-49.95762, -13.81734], [-49.95761, -13.81581], [-49.95715, -13.81499], [-49.95601, -13.812], [-49.95434, -13.81155], [-49.95167, -13.81218], [-49.94862, -13.81373], [-49.94657, -13.81446], [-49.94212, -13.8141], [-49.94089, -13.81238], [-49.94089, -13.81082], [-49.94209, -13.80313], [-49.94145, -13.79932], [-49.9394, -13.79733], [-49.93773, -13.79725], [-49.93578, -13.79734], [-49.93404, -13.79815], [-49.93218, -13.79934], [-49.93067, -13.79934], [-49.92754, -13.79699], [-49.92698, -13.79536], [-49.92714, -13.79373], [-49.92826, -13.7921], [-49.92964, -13.792], [-49.93123, -13.79064], [-49.93178, -13.78847], [-49.93151, -13.78656], [-49.9302, -13.78547], [-49.92806, -13.78439], [-49.92564, -13.7824], [-49.92314, -13.77669], [-49.92147, -13.77337], [-49.9205, -13.77355], [-49.91939, -13.77341], [-49.91753, -13.77283], [-49.91581, -13.77271], [-49.91, -13.77337], [-49.89837, -13.77747], [-49.89683, -13.77654], [-49.89582, -13.77534], [-49.89406, -13.77542], [-49.89222, -13.73765], [-49.87064, -13.74379], [-49.86591, -13.74563], [-49.86494, -13.74623], [-49.86412, -13.74612], [-49.84914, -13.75112], [-49.84563, -13.75366], [-49.84126, -13.754], [-49.81995, -13.763], [-49.81569, -13.76501], [-49.8099, -13.77001], [-49.78054, -13.79454], [-49.78212, -13.75027], [-49.79041, -13.75228], [-49.79053, -13.74846], [-49.8147, -13.75419], [-49.81536, -13.74561], [-49.81629, -13.71744], [-49.81423, -13.70646], [-49.81311, -13.7053], [-49.81015, -13.7035], [-49.8092, -13.70422], [-49.80848, -13.70441], [-49.80828, -13.70358], [-49.80681, -13.70449], [-49.80662, -13.70513], [-49.80606, -13.70577], [-49.80606, -13.70621], [-49.80487, -13.70558], [-49.80467, -13.70486], [-49.8042, -13.70586], [-49.80495, -13.70703], [-49.80504, -13.70821], [-49.80364, -13.70866], [-49.80329, -13.7093], [-49.80273, -13.70948], [-49.80265, -13.71039], [-49.80237, -13.7112], [-49.80142, -13.71138], [-49.80086, -13.71093], [-49.8005, -13.71157], [-49.80014, -13.71139], [-49.79939, -13.71165], [-49.79903, -13.71157], [-49.79885, -13.71077], [-49.79828, -13.71057], [-49.79821, -13.70913], [-49.79737, -13.70939], [-49.79653, -13.71003], [-49.79559, -13.70949], [-49.79523, -13.7104], [-49.7957, -13.7113], [-49.79578, -13.71284], [-49.79448, -13.7132], [-49.79392, -13.71356], [-49.79403, -13.71402], [-49.79309, -13.71465], [-49.79392, -13.71493], [-49.79431, -13.71539], [-49.79309, -13.71556], [-49.79217, -13.71592], [-49.79301, -13.71755], [-49.79265, -13.71801], [-49.79209, -13.71819], [-49.79115, -13.71919], [-49.79153, -13.71973], [-49.79293, -13.72001], [-49.79356, -13.72064], [-49.7917, -13.72109], [-49.79031, -13.72182], [-49.79031, -13.72281], [-49.78968, -13.72336], [-49.78892, -13.72354], [-49.78847, -13.72327], [-49.78689, -13.72436], [-49.78661, -13.72553], [-49.78317, -13.72708], [-49.78225, -13.72699], [-49.78011, -13.72599], [-49.77865, -13.72708], [-49.77734, -13.72717], [-49.77689, -13.72771], [-49.77567, -13.72727], [-49.77603, -13.72563], [-49.77678, -13.72463], [-49.77698, -13.72292], [-49.77631, -13.72164], [-49.7742, -13.72101], [-49.77076, -13.72183], [-49.77019, -13.72283], [-49.77003, -13.72356], [-49.77047, -13.72464], [-49.76975, -13.72618], [-49.76901, -13.72654], [-49.769, -13.72537], [-49.76877, -13.72439], [-49.76742, -13.7251], [-49.76723, -13.72655], [-49.76753, -13.72727], [-49.76557, -13.72972], [-49.76409, -13.72899], [-49.76473, -13.72782], [-49.76484, -13.727], [-49.76317, -13.72601], [-49.76317, -13.72483], [-49.76261, -13.72383], [-49.76278, -13.72302], [-49.76158, -13.72192], [-49.7601, -13.72211], [-49.75918, -13.72302], [-49.75695, -13.72221], [-49.75536, -13.72275], [-49.75434, -13.72221], [-49.75223, -13.72166], [-49.75045, -13.72094], [-49.74945, -13.72085], [-49.74862, -13.72048], [-49.74859, -13.71949], [-49.74748, -13.71913], [-49.74692, -13.71804], [-49.74637, -13.7175], [-49.74545, -13.71723], [-49.74489, -13.71795], [-49.74517, -13.71876], [-49.74581, -13.71958], [-49.74461, -13.72103], [-49.74406, -13.72067], [-49.74425, -13.71986], [-49.74386, -13.7194], [-49.7375, -13.72013], [-49.73645, -13.71959], [-49.73645, -13.71859], [-49.73545, -13.71768], [-49.73423, -13.7175], [-49.73312, -13.7185], [-49.73248, -13.72013], [-49.72987, -13.72176], [-49.72895, -13.72294], [-49.72867, -13.72376], [-49.72737, -13.72466], [-49.72653, -13.72485], [-49.72562, -13.72376], [-49.72487, -13.72457], [-49.72422, -13.72566], [-49.72292, -13.72674], [-49.72192, -13.7272], [-49.72089, -13.72802], [-49.71959, -13.72811]]]}}, 
{"type": "Feature", "properties": {"CD_SETOR": "520082905000009", "CD_SIT": "8", "NM_DIST": "Amaralina", "NM_SUBDIST": null}, "geometry": {"type": "Polygon", "coordinates": [[[-49.81423, -13.70646], [-49.81629, -13.71744], [-49.81536, -13.74561], [-49.8147, -13.75419], [-49.79053, -13.74846], [-49.79041, -13.75228], [-49.78212, -13.75027], [-49.78054, -13.79454], [-49.8099, -13.77001], [-49.81569, -13.76501], [-49.81995, -13.763], [-49.84126, -13.754], [-49.84563, -13.75366], [-49.84914, -13.75112], [-49.86412, -13.74612], [-49.86494, -13.74623], [-49.86591, -13.74563], [-49.87064, -13.74379], [-49.89222, -13.73765], [-49.89406, -13.77542], [-49.89582, -13.77534], [-49.89683, -13.77654], [-49.89837, -13.77747], [-49.91, -13.77337], [-49.91581, -13.77271], [-49.91753, -13.77283], [-49.91939, -13.77341], [-49.9205, -13.77355], [-49.92147, -13.77337], [-49.92073, -13.77144], [-49.92062, -13.76742], [-49.92164, -13.75967], [-49.92284, -13.7563], [-49.9247, -13.75422], [-49.92737, -13.75258], [-49.93323, -13.7495], [-49.93617, -13.74749], [-49.93804, -13.74767], [-49.93878, -13.75012], [-49.94054, -13.75183], [-49.94203, -13.75247], [-49.94454, -13.7531], [-49.94767, -13.75364], [-49.95037, -13.75318], [-49.95171, -13.7508], [-49.95878, -13.7452], [-49.96045, -13.74356], [-49.96056, -13.74184], [-49.96037, -13.73904], [-49.95898, -13.73504], [-49.9572, -13.73197], [-49.95589, -13.72907], [-49.95617, -13.72734], [-49.96273, -13.71356], [-49.96273, -13.70758], [-49.96356, -13.7054], [-49.96317, -13.70275], [-49.96254, -13.70259], [-49.96162, -13.7016], [-49.96115, -13.70169], [-49.96079, -13.70224], [-49.95909, -13.70214], [-49.95817, -13.70233], [-49.95789, -13.70296], [-49.95623, -13.70396], [-49.95575, -13.70478], [-49.95586, -13.70568], [-49.95539, -13.70641], [-49.95412, -13.70732], [-49.95347, -13.70722], [-49.95326, -13.70686], [-49.95439, -13.70642], [-49.95409, -13.70533], [-49.95297, -13.70506], [-49.95253, -13.70433], [-49.95207, -13.70406], [-49.95067, -13.70406], [-49.94984, -13.70424], [-49.94928, -13.70406], [-49.94909, -13.70351], [-49.95075, -13.70297], [-49.95095, -13.70135], [-49.95159, -13.69979], [-49.95084, -13.69944], [-49.95001, -13.69862], [-49.95151, -13.69663], [-49.95158, -13.6959], [-49.95039, -13.69554], [-49.94862, -13.69645], [-49.94714, -13.69437], [-49.9437, -13.69319], [-49.94139, -13.69447], [-49.94056, -13.69547], [-49.9385, -13.69574], [-49.93601, -13.69574], [-49.93545, -13.69628], [-49.93501, -13.69647], [-49.93387, -13.69592], [-49.93343, -13.6933], [-49.93247, -13.6933], [-49.93156, -13.69385], [-49.93065, -13.69366], [-49.93006, -13.69267], [-49.93026, -13.69149], [-49.92859, -13.6895], [-49.9282, -13.68669], [-49.92859, -13.68587], [-49.92775, -13.68505], [-49.92681, -13.68488], [-49.9257, -13.68606], [-49.92506, -13.68715], [-49.92459, -13.68751], [-49.9221, -13.68606], [-49.92126, -13.68697], [-49.92109, -13.68897], [-49.91979, -13.68968], [-49.91922, -13.6906], [-49.91839, -13.69115], [-49.91617, -13.68916], [-49.9157, -13.69033], [-49.91459, -13.69015], [-49.91589, -13.68752], [-49.91478, -13.68616], [-49.91422, -13.68626], [-49.91376, -13.68689], [-49.91237, -13.68707], [-49.91209, -13.68635], [-49.91392, -13.6848], [-49.91237, -13.68345], [-49.91142, -13.68209], [-49.91087, -13.68155], [-49.90939, -13.68109], [-49.90829, -13.68155], [-49.90622, -13.68373], [-49.90532, -13.68282], [-49.90401, -13.68218], [-49.90234, -13.68264], [-49.90012, -13.68302], [-49.89995, -13.68428], [-49.90031, -13.68564], [-49.89967, -13.68672], [-49.89912, -13.68727], [-49.89634, -13.68782], [-49.89614, -13.68836], [-49.89428, -13.69008], [-49.89301, -13.69045], [-49.89086, -13.68982], [-49.88753, -13.69227], [-49.88689, -13.69391], [-49.88539, -13.69463], [-49.88269, -13.69391], [-49.88103, -13.69319], [-49.88095, -13.69263], [-49.88012, -13.69128], [-49.87761, -13.69038], [-49.87639, -13.69056], [-49.87428, -13.69183], [-49.87445, -13.69328], [-49.87584, -13.69428], [-49.87678, -13.69581], [-49.87547, -13.69609], [-49.87373, -13.69546], [-49.87131, -13.69392], [-49.86734, -13.6941], [-49.8652, -13.69392], [-49.8652, -13.69356], [-49.86398, -13.69157], [-49.86231, -13.69005], [-49.86029, -13.68986], [-49.85953, -13.68922], [-49.85851, -13.68913], [-49.85787, -13.68976], [-49.85739, -13.6894], [-49.85748, -13.68868], [-49.85648, -13.68813], [-49.85564, -13.68904], [-49.85545, -13.69059], [-49.85592, -13.69157], [-49.85528, -13.69222], [-49.85453, -13.69194], [-49.85453, -13.6933], [-49.85398, -13.69412], [-49.85489, -13.69602], [-49.85389, -13.69666], [-49.85176, -13.69558], [-49.85112, -13.69557], [-49.85112, -13.69639], [-49.85092, -13.69684], [-49.84998, -13.6953], [-49.84942, -13.69539], [-49.84878, -13.69603], [-49.84795, -13.6973], [-49.84628, -13.6972], [-49.84498, -13.69893], [-49.84359, -13.69957], [-49.84184, -13.69893], [-49.84156, -13.69794], [-49.84157, -13.69521], [-49.84117, -13.69322], [-49.84081, -13.69241], [-49.83783, -13.69241], [-49.83739, -13.69178], [-49.83739, -13.69078], [-49.83878, -13.68842], [-49.83932, -13.68706], [-49.83886, -13.68598], [-49.83792, -13.68543], [-49.83526, -13.68543], [-49.83415, -13.68598], [-49.83394, -13.68752], [-49.83256, -13.68906], [-49.832, -13.69061], [-49.83173, -13.69324], [-49.83061, -13.69405], [-49.82776, -13.69451], [-49.82728, -13.69369], [-49.82709, -13.69206], [-49.82709, -13.69107], [-49.82736, -13.68997], [-49.82578, -13.68952], [-49.82598, -13.68763], [-49.8232, -13.68907], [-49.82134, -13.69044], [-49.82162, -13.69143], [-49.82079, -13.69179], [-49.81947, -13.69126], [-49.81904, -13.69198], [-49.81939, -13.69261], [-49.8195, -13.69324], [-49.81807, -13.69389], [-49.81543, -13.69633], [-49.81403, -13.6966], [-49.81292, -13.69724], [-49.81189, -13.69914], [-49.81237, -13.70087], [-49.81339, -13.70177], [-49.8145, -13.70213], [-49.8159, -13.70177], [-49.81803, -13.70068], [-49.81895, -13.70095], [-49.81978, -13.70194], [-49.81942, -13.7033], [-49.81987, -13.70439], [-49.81756, -13.70539], [-49.81784, -13.70576], [-49.81848, -13.70603], [-49.81859, -13.70684], [-49.81748, -13.70829], [-49.81609, -13.70811], [-49.81423, -13.70646]]]}}, 
{"type": "Feature", "properties": {"CD_SETOR": "520082905000010", "CD_SIT": "1", "NM_DIST": "Amaralina", "NM_SUBDIST": null}, "geometry": {"type": "Polygon", "coordinates": [[[-49.29736, -13.92215], [-49.2975, -13.92273], [-49.29665, -13.92499], [-49.2975, -13.92877], [-49.3003, -13.92866], [-49.30132, -13.93046], [-49.30219, -13.9312], [-49.30382, -13.93123], [-49.30374, -13.93074], [-49.30448, -13.92697], [-49.30069, -13.92754], [-49.30061, -13.92669], [-49.29984, -13.92693], [-49.29987, -13.92622], [-49.29798, -13.92607], [-49.29775, -13.9256], [-49.29721, -13.92551], [-49.29718, -13.92533], [-49.29768, -13.92521], [-49.29752, -13.92466], [-49.29861, -13.92425], [-49.29888, -13.92399], [-49.29868, -13.92366], [-49.29773, -13.92332], [-49.29786, -13.92257], [-49.29768, -13.92206], [-49.29736, -13.92215]]]}}, 
{"type": "Feature", "properties": {"CD_SETOR": "520082905000011", "CD_SIT": "3", "NM_DIST": "Amaralina", "NM_SUBDIST": null}, "geometry": {"type": "Polygon", "coordinates": [[[-49.54113, -13.96544], [-49.54317, -13.96416], [-49.54534, -13.96332], [-49.55091, -13.9624], [-49.55444, -13.96057], [-49.55491, -13.95968], [-49.55413, -13.95934], [-49.55225, -13.95991], [-49.55017, -13.96089], [-49.54551, -13.96168], [-49.54266, -13.96261], [-49.54022, -13.96409], [-49.54113, -13.96544]]]}}]}