{"type": "FeatureCollection", "features": [
{"type": "Feature", "properties": {"CD_SETOR": "520915005000001", "CD_SIT": "1", "NM_DIST": "Gouvelândia", "NM_SUBDIST": null}, "geometry": {"type": "Polygon", "coordinates": [[[-50.13585, -18.43617], [-50.13518, -18.43932], [-50.14214, -18.44073], [-50.14211, -18.44047], [-50.13978, -18.43753], [-50.13983, -18.43643], [-50.13689, -18.43581], [-50.13692, -18.4364], [-50.13585, -18.43617]]]}}, 
{"type": "Feature", "properties": {"CD_SETOR": "520915005000002", "CD_SIT": "1", "NM_DIST": "Gouvelândia", "NM_SUBDIST": null}, "geometry": {"type": "Polygon", "coordinates": [[[-50.13079, -18.43675], [-50.13551, -18.43773], [-50.13585, -18.43617], [-50.13337, -18.43566], [-50.13326, -18.43624], [-50.13156, -18.43589], [-50.1317, -18.43531], [-50.13049, -18.43507], [-50.13079, -18.43675]]]}}, 
{"type": "Feature", "properties": {"CD_SETOR": "520915005000003", "CD_SIT": "1", "NM_DIST": "Gouvelândia", "NM_SUBDIST": null}, "geometry": {"type": "Polygon", "coordinates": [[[-50.13998, -18.44698], [-50.14072, -18.44697], [-50.1416, -18.44296], [-50.13757, -18.44214], [-50.13655, -18.44658], [-50.13671, -18.44671], [-50.13998, -18.44698]]]}}, 
{"type": "Feature", "properties": {"CD_SETOR": "520915005000004", "CD_SIT": "1", "NM_DIST": "Gouvelândia", "NM_SUBDIST": null}, "geometry": {"type": "Polygon", "coordinates": [[[-50.13485, -18.4408], [-50.13469, -18.44155], [-50.1416, -18.44296], [-50.14214, -18.44073], [-50.13518, -18.43932], [-50.13485, -18.4408]]]}}, 
{"type": "Feature", "properties": {"CD_SETOR": "520915005000005", "CD_SIT": "1", "NM_DIST": "Gouvelândia", "NM_SUBDIST": null}, "geometry": {"type": "Polygon", "coordinates": [[[-50.13108, -18.43846], [-50.13134, -18.44011], [-50.13485, -18.4408], [-50.13551, -18.43773], [-50.13079, -18.43675], [-50.13108, -18.43846]]]}}, 
{"type": "Feature", "properties": {"CD_SETOR": "520915005000006", "CD_SIT": "1", "NM_DIST": "Gouvelândia", "NM_SUBDIST": null}, "geometry": {"type": "Polygon", "coordinates": [[[-50.13263, -18.44638], [-50.13364, -18.4463], [-50.13485, -18.4408], [-50.13134, -18.44011], [-50.13263, -18.44638]]]}}, 
{"type": "Feature", "properties": {"CD_SETOR": "520915005000007", "CD_SIT": "8", "NM_DIST": "Gouvelândia", "NM_SUBDIST": null}, "geometry": {"type": "Polygon", "coordinates": [[[-50.10789, -18.32532], [-50.1077, -18.32853], [-50.10724, -18.32993], [-50.10621, -18.33103], [-50.10504, -18.33145], [-50.10045, -18.33145], [-50.09741, -18.33165], [-50.09535, -18.33234], [-50.09368, -18.33323], [-50.0926, -18.3341], [-50.0918, -18.33499], [-50.09028, -18.33736], [-50.08672, -18.34435], [-50.0848, -18.34735], [-50.0796, -18.35432], [-50.07643, -18.35742], [-50.07408, -18.35857], [-50.06979, -18.36005], [-50.0671, -18.36012], [-50.06491, -18.35976], [-50.06188, -18.35961], [-50.05981, -18.35974], [-50.05821, -18.36045], [-50.05613, -18.36287], [-50.05458, -18.36569], [-50.05062, -18.37139], [-50.04897, -18.37488], [-50.04826, -18.37771], [-50.04634, -18.38248], [-50.04605, -18.38292], [-50.04727, -18.39634], [-50.05007, -18.40322], [-50.05085, -18.40414], [-50.05302, -18.40591], [-50.05949, -18.40814], [-50.06396, -18.41056], [-50.0652, -18.41238], [-50.06718, -18.42378], [-50.06701, -18.42922], [-50.06468, -18.43322], [-50.05827, -18.43786], [-50.06136, -18.43674], [-50.06484, -18.43628], [-50.06763, -18.4365], [-50.06983, -18.43799], [-50.07108, -18.43968], [-50.07246, -18.44314], [-50.07284, -18.44618], [-50.07277, -18.44762], [-50.0725, -18.44887], [-50.07308, -18.44981], [-50.07625, -18.45149], [-50.07913, -18.45216], [-50.08055, -18.45322], [-50.08103, -18.45438], [-50.08175, -18.45536], [-50.08334, -18.45582], [-50.08457, -18.45545], [-50.08546, -18.45349], [-50.08652, -18.45325], [-50.08703, -18.45292], [-50.08734, -18.4526], [-50.08758, -18.45179], [-50.0878, -18.45152], [-50.09048, -18.45225], [-50.09116, -18.45206], [-50.09184, -18.4516], [-50.0932, -18.45198], [-50.09366, -18.45174], [-50.09338, -18.45143], [-50.0931, -18.45137], [-50.09268, -18.45075], [-50.09296, -18.45037], [-50.09267, -18.44972], [-50.09285, -18.44962], [-50.09294, -18.4492], [-50.0925, -18.44879], [-50.0926, -18.44855], [-50.09194, -18.44871], [-50.09169, -18.44849], [-50.09163, -18.44833], [-50.0921, -18.44772], [-50.09148, -18.44668], [-50.09152, -18.44653], [-50.09242, -18.44637], [-50.09279, -18.4461], [-50.09271, -18.44521], [-50.09235, -18.44482], [-50.09297, -18.44401], [-50.09252, -18.44217], [-50.09298, -18.44199], [-50.09308, -18.44177], [-50.09291, -18.44125], [-50.09302, -18.44107], [-50.09263, -18.44073], [-50.09323, -18.43958], [-50.09323, -18.43903], [-50.09287, -18.43847], [-50.09254, -18.43725], [-50.09272, -18.43676], [-50.09358, -18.43644], [-50.09354, -18.43613], [-50.0924, -18.43538], [-50.09226, -18.43504], [-50.09312, -18.43421], [-50.0945, -18.43422], [-50.09491, -18.43403], [-50.09496, -18.43364], [-50.09465, -18.43322], [-50.09415, -18.43292], [-50.09297, -18.43274], [-50.09269, -18.43235], [-50.09261, -18.43176], [-50.09262, -18.4312], [-50.09283, -18.43088], [-50.09371, -18.43053], [-50.09418, -18.4306], [-50.09488, -18.43017], [-50.09558, -18.42906], [-50.09549, -18.4279], [-50.09563, -18.42739], [-50.09606, -18.42694], [-50.09643, -18.42697], [-50.09674, -18.42721], [-50.09659, -18.42863], [-50.0968, -18.42915], [-50.09727, -18.42946], [-50.09804, -18.43059], [-50.09802, -18.43107], [-50.0983, -18.43153], [-50.0988, -18.43185], [-50.10038, -18.43222], [-50.10081, -18.43216], [-50.10145, -18.43176], [-50.1013, -18.43134], [-50.10089, -18.43149], [-50.10064, -18.43139], [-50.10096, -18.43037], [-50.10128, -18.42988], [-50.10217, -18.42945], [-50.10255, -18.42827], [-50.10388, -18.4275], [-50.10445, -18.42653], [-50.1045, -18.42598], [-50.10372, -18.42569], [-50.1033, -18.42535], [-50.10364, -18.42489], [-50.1038, -18.42396], [-50.10428, -18.42311], [-50.10352, -18.42243], [-50.10338, -18.42211], [-50.10358, -18.42185], [-50.10347, -18.42098], [-50.10311, -18.42014], [-50.1028, -18.42001], [-50.10293, -18.41888], [-50.10356, -18.41815], [-50.10461, -18.41832], [-50.1059, -18.41896], [-50.10639, -18.41864], [-50.10684, -18.41872], [-50.1083, -18.4182], [-50.10885, -18.41863], [-50.11022, -18.42036], [-50.11263, -18.42082], [-50.11357, -18.42061], [-50.11401, -18.42016], [-50.11401, -18.41967], [-50.11436, -18.41899], [-50.11639, -18.41845], [-50.11718, -18.41883], [-50.11773, -18.41942], [-50.11797, -18.42021], [-50.1177, -18.42134], [-50.11646, -18.42176], [-50.11588, -18.42236], [-50.11579, -18.42301], [-50.11601, -18.42344], [-50.11662, -18.42366], [-50.11695, -18.42397], [-50.11737, -18.42475], [-50.11731, -18.42576], [-50.11754, -18.42654], [-50.11715, -18.42708], [-50.11705, -18.42792], [-50.11779, -18.42941], [-50.11774, -18.43014], [-50.11807, -18.43085], [-50.11925, -18.43079], [-50.12111, -18.42939], [-50.12178, -18.42939], [-50.12219, -18.4291], [-50.1242, -18.4285], [-50.1244, -18.4278], [-50.12417, -18.42727], [-50.12481, -18.42586], [-50.12496, -18.42516], [-50.12609, -18.42403], [-50.12694, -18.42371], [-50.12871, -18.42354], [-50.12979, -18.42379], [-50.13153, -18.42491], [-50.13266, -18.42595], [-50.13407, -18.42668], [-50.13568, -18.42621], [-50.13622, -18.42572], [-50.13692, -18.42468], [-50.1374, -18.42444], [-50.13984, -18.42409], [-50.14194, -18.42324], [-50.14378, -18.42314], [-50.14542, -18.42331], [-50.14649, -18.42387], [-50.14849, -18.42419], [-50.14986, -18.42497], [-50.15078, -18.4253], [-50.15397, -18.42834], [-50.1555, -18.43037], [-50.16221, -18.4357], [-50.16226, -18.43702], [-50.16257, -18.4376], [-50.16318, -18.44013], [-50.1631, -18.4405], [-50.16373, -18.44131], [-50.16382, -18.44355], [-50.16458, -18.44852], [-50.16455, -18.44935], [-50.18275, -18.44813], [-50.18903, -18.44748], [-50.19049, -18.44749], [-50.19603, -18.44702], [-50.19784, -18.44718], [-50.2285, -18.4558], [-50.23234, -18.45624], [-50.25074, -18.45775], [-50.27527, -18.45822], [-50.27405, -18.45697], [-50.25995, -18.44452], [-50.258, -18.44203], [-50.25707, -18.43983], [-50.25667, -18.43745], [-50.25668, -18.43597], [-50.25778, -18.42775], [-50.2577, -18.42271], [-50.25733, -18.41965], [-50.25775, -18.41704], [-50.25846, -18.41413], [-50.25891, -18.40388], [-50.25987, -18.39911], [-50.26159, -18.39641], [-50.26329, -18.39471], [-50.26556, -18.39373], [-50.2682, -18.3933], [-50.27169, -18.39305], [-50.27463, -18.39263], [-50.28272, -18.39023], [-50.28866, -18.3879], [-50.29128, -18.38672], [-50.29415, -18.38586], [-50.29863, -18.38574], [-50.30044, -18.3851], [-50.30193, -18.3844], [-50.30362, -18.38305], [-50.30572, -18.38049], [-50.30634, -18.37856], [-50.30256, -18.37944], [-50.29885, -18.37995], [-50.29568, -18.37987], [-50.28938, -18.37836], [-50.28432, -18.37785], [-50.28298, -18.37713], [-50.27701, -18.37662], [-50.27446, -18.37827], [-50.27132, -18.37875], [-50.26791, -18.37759], [-50.26646, -18.37751], [-50.25791, -18.37385], [-50.2504, -18.373], [-50.24657, -18.37003], [-50.23835, -18.36183], [-50.23568, -18.36058], [-50.22493, -18.35893], [-50.22096, -18.35759], [-50.21088, -18.35684], [-50.20812, -18.35614], [-50.19783, -18.3505], [-50.1939, -18.34734], [-50.18601, -18.34584], [-50.18001, -18.34289], [-50.17565, -18.34292], [-50.17384, -18.34338], [-50.16542, -18.34154], [-50.16426, -18.34091], [-50.1631, -18.33955], [-50.16137, -18.33522], [-50.15993, -18.33431], [-50.15651, -18.33451], [-50.14897, -18.33745], [-50.1477, -18.33701], [-50.14446, -18.33259], [-50.14027, -18.33072], [-50.13808, -18.32665], [-50.13655, -18.32521], [-50.13188, -18.32623], [-50.12943, -18.32788], [-50.12679, -18.32889], [-50.12479, -18.33136], [-50.12311, -18.332], [-50.12157, -18.33137], [-50.11871, -18.32876], [-50.11679, -18.32805], [-50.11538, -18.32555], [-50.11354, -18.32417], [-50.11165, -18.32408], [-50.10789, -18.32532]]]}}, 
{"type": "Feature", "properties": {"CD_SETOR": "520915005000009", "CD_SIT": "8", "NM_DIST": "Gouvelândia", "NM_SUBDIST": null}, "geometry": {"type": "Polygon", "coordinates": [[[-50.16455, -18.44935], [-50.16616, -18.45389], [-50.16694, -18.45814], [-50.16608, -18.46347], [-50.16552, -18.46496], [-50.15488, -18.47418], [-50.15208, -18.47266], [-50.1505, -18.47123], [-50.14836, -18.47031], [-50.14637, -18.47006], [-50.14449, -18.47006], [-50.14429, -18.47031], [-50.1421, -18.46955], [-50.13977, -18.46711], [-50.13937, -18.46569], [-50.13886, -18.46528], [-50.13733, -18.46568], [-50.13482, -18.46371], [-50.1339, -18.46344], [-50.13189, -18.46186], [-50.13144, -18.46181], [-50.13087, -18.46206], [-50.1304, -18.46248], [-50.13005, -18.46347], [-50.12886, -18.46404], [-50.12771, -18.46387], [-50.12684, -18.46333], [-50.12589, -18.46235], [-50.1256, -18.46133], [-50.12534, -18.46118], [-50.1243, -18.46142], [-50.12414, -18.46217], [-50.12151, -18.4635], [-50.12106, -18.46564], [-50.12023, -18.46555], [-50.1201, -18.46611], [-50.11807, -18.46598], [-50.11777, -18.46572], [-50.11299, -18.46994], [-50.11276, -18.47063], [-50.11247, -18.47077], [-50.11285, -18.4716], [-50.11243, -18.47301], [-50.1104, -18.47772], [-50.10899, -18.47939], [-50.10795, -18.48093], [-50.10791, -18.48213], [-50.1081, -18.48285], [-50.10784, -18.48318], [-50.1073, -18.49144], [-50.10762, -18.49389], [-50.1081, -18.50691], [-50.10781, -18.50824], [-50.10875, -18.51172], [-50.10866, -18.51609], [-50.10908, -18.51821], [-50.10973, -18.52376], [-50.11008, -18.52391], [-50.11026, -18.52486], [-50.11002, -18.52558], [-50.11047, -18.52785], [-50.11041, -18.52864], [-50.11055, -18.52925], [-50.11078, -18.52954], [-50.11064, -18.52986], [-50.11093, -18.53044], [-50.11091, -18.53136], [-50.11025, -18.53309], [-50.11064, -18.53364], [-50.11057, -18.53401], [-50.11001, -18.53427], [-50.10998, -18.53452], [-50.11026, -18.53473], [-50.11032, -18.53521], [-50.11064, -18.53523], [-50.11145, -18.53596], [-50.11197, -18.5361], [-50.11211, -18.53646], [-50.11264, -18.53695], [-50.11242, -18.53712], [-50.11256, -18.53755], [-50.11285, -18.53773], [-50.11289, -18.53881], [-50.11312, -18.53928], [-50.11344, -18.53932], [-50.11357, -18.53956], [-50.11343, -18.54053], [-50.1138, -18.54094], [-50.11369, -18.5413], [-50.11386, -18.54158], [-50.11348, -18.54216], [-50.11362, -18.54262], [-50.114, -18.54285], [-50.11389, -18.54293], [-50.11409, -18.54334], [-50.11405, -18.54358], [-50.1136, -18.54365], [-50.11373, -18.54419], [-50.11342, -18.54544], [-50.11365, -18.54616], [-50.11346, -18.54642], [-50.11316, -18.54639], [-50.1126, -18.54699], [-50.11224, -18.547], [-50.1106, -18.54773], [-50.11025, -18.54753], [-50.10985, -18.54753], [-50.10894, -18.54807], [-50.10734, -18.54957], [-50.10505, -18.55099], [-50.10459, -18.55111], [-50.10319, -18.55098], [-50.10267, -18.55118], [-50.10242, -18.55155], [-50.10218, -18.55266], [-50.10162, -18.55317], [-50.10114, -18.55333], [-50.10029, -18.55437], [-50.09835, -18.55574], [-50.09801, -18.55706], [-50.09805, -18.55759], [-50.09848, -18.55871], [-50.09883, -18.56169], [-50.09809, -18.56309], [-50.09786, -18.56546], [-50.09687, -18.56594], [-50.0964, -18.56598], [-50.09614, -18.56624], [-50.09587, -18.56694], [-50.09511, -18.56753], [-50.09484, -18.56794], [-50.09306, -18.56876], [-50.09279, -18.56917], [-50.09267, -18.57013], [-50.09235, -18.57048], [-50.09292, -18.57144], [-50.09306, -18.572], [-50.09338, -18.57483], [-50.0938, -18.57504], [-50.09409, -18.57546], [-50.09319, -18.57631], [-50.09351, -18.57877], [-50.0941, -18.58128], [-50.09452, -18.58215], [-50.09462, -18.58377], [-50.09545, -18.58773], [-50.09547, -18.59072], [-50.09438, -18.59518], [-50.09314, -18.59725], [-50.09271, -18.60064], [-50.09353, -18.60429], [-50.09412, -18.60563], [-50.09487, -18.60657], [-50.09523, -18.60659], [-50.09557, -18.60688], [-50.09579, -18.60749], [-50.0964, -18.60761], [-50.09741, -18.60874], [-50.09836, -18.60887], [-50.0988, -18.60996], [-50.09921, -18.61045], [-50.10009, -18.61086], [-50.1007, -18.61149], [-50.10162, -18.61381], [-50.10299, -18.61623], [-50.10334, -18.61734], [-50.10466, -18.61918], [-50.10725, -18.62133], [-50.10891, -18.62162], [-50.1095, -18.62131], [-50.11008, -18.62141], [-50.11002, -18.62182], [-50.11096, -18.6229], [-50.11104, -18.62385], [-50.11153, -18.62458], [-50.11255, -18.62563], [-50.11292, -18.62677], [-50.1128, -18.62735], [-50.11306, -18.62798], [-50.11275, -18.62838], [-50.11289, -18.62911], [-50.11276, -18.62968], [-50.11212, -18.63032], [-50.11122, -18.63067], [-50.11059, -18.63065], [-50.1103, -18.63079], [-50.11004, -18.63144], [-50.10999, -18.63222], [-50.10974, -18.63255], [-50.10999, -18.63332], [-50.11131, -18.63453], [-50.11143, -18.63488], [-50.11116, -18.63511], [-50.10866, -18.63573], [-50.10622, -18.63597], [-50.10349, -18.63565], [-50.10164, -18.63491], [-50.10022, -18.63521], [-50.0986, -18.63644], [-50.0981, -18.63818], [-50.09869, -18.64006], [-50.09833, -18.64124], [-50.0951, -18.64387], [-50.09278, -18.64691], [-50.09136, -18.64917], [-50.09091, -18.65145], [-50.09229, -18.65827], [-50.09206, -18.66013], [-50.08998, -18.66364], [-50.08898, -18.66725], [-50.08887, -18.66839], [-50.08919, -18.66953], [-50.0904, -18.67127], [-50.0946, -18.67122], [-50.10387, -18.66946], [-50.11262, -18.66905], [-50.11985, -18.66951], [-50.12488, -18.66926], [-50.13224, -18.66827], [-50.14306, -18.66581], [-50.14925, -18.66491], [-50.15762, -18.66428], [-50.16429, -18.66435], [-50.17365, -18.66622], [-50.18005, -18.66846], [-50.18652, -18.6717], [-50.19232, -18.67565], [-50.19888, -18.67908], [-50.20257, -18.67954], [-50.20763, -18.67856], [-50.21749, -18.68052], [-50.21426, -18.67591], [-50.21106, -18.6741], [-50.20873, -18.67331], [-50.20421, -18.67258], [-50.20179, -18.67181], [-50.19997, -18.67072], [-50.19604, -18.66785], [-50.1945, -18.6649], [-50.19473, -18.66236], [-50.19537, -18.65949], [-50.19589, -18.65889], [-50.19849, -18.65782], [-50.19919, -18.65723], [-50.19914, -18.65692], [-50.19688, -18.65558], [-50.19558, -18.6533], [-50.19548, -18.65168], [-50.19451, -18.65021], [-50.19305, -18.64988], [-50.19228, -18.64933], [-50.19228, -18.64906], [-50.19326, -18.64832], [-50.19563, -18.64723], [-50.1967, -18.64612], [-50.19723, -18.64503], [-50.19731, -18.6443], [-50.19649, -18.64105], [-50.19254, -18.63574], [-50.18918, -18.62878], [-50.18878, -18.62539], [-50.18826, -18.62365], [-50.18784, -18.62141], [-50.18769, -18.61959], [-50.18756, -18.61599], [-50.18763, -18.61205], [-50.18811, -18.60809], [-50.18799, -18.6074], [-50.1869, -18.60472], [-50.1841, -18.60064], [-50.18321, -18.59972], [-50.18218, -18.59871], [-50.18061, -18.59754], [-50.17946, -18.59695], [-50.17778, -18.59653], [-50.17714, -18.59592], [-50.17682, -18.59534], [-50.17677, -18.5946], [-50.17831, -18.59072], [-50.17863, -18.58949], [-50.17853, -18.58485], [-50.17883, -18.58373], [-50.17914, -18.58318], [-50.18227, -18.58003], [-50.18196, -18.57815], [-50.18251, -18.57717], [-50.18284, -18.57598], [-50.18282, -18.57502], [-50.18294, -18.57469], [-50.1845, -18.57337], [-50.18471, -18.57281], [-50.18468, -18.57171], [-50.18486, -18.5713], [-50.18534, -18.57104], [-50.18556, -18.57069], [-50.18593, -18.56966], [-50.18581, -18.56851], [-50.18601, -18.56729], [-50.1868, -18.56619], [-50.18735, -18.56506], [-50.18758, -18.56415], [-50.18822, -18.5632], [-50.19015, -18.5623], [-50.19144, -18.56212], [-50.19188, -18.5619], [-50.19219, -18.56013], [-50.19244, -18.55952], [-50.19391, -18.55923], [-50.19431, -18.5589], [-50.1963, -18.55534], [-50.19683, -18.55492], [-50.19758, -18.55461], [-50.19797, -18.55463], [-50.19899, -18.55518], [-50.20205, -18.55865], [-50.20298, -18.55921], [-50.20519, -18.55967], [-50.2067, -18.55971], [-50.20708, -18.55985], [-50.20727, -18.55974], [-50.2081, -18.55997], [-50.21002, -18.55995], [-50.21067, -18.55979], [-50.21175, -18.55915], [-50.21282, -18.55799], [-50.21311, -18.55789], [-50.21349, -18.55816], [-50.21392, -18.558], [-50.21408, -18.55814], [-50.21553, -18.55749], [-50.21564, -18.55731], [-50.21653, -18.55719], [-50.21827, -18.55601], [-50.21902, -18.55574], [-50.21965, -18.55569], [-50.21963, -18.55551], [-50.22094, -18.55445], [-50.22272, -18.55026], [-50.2229, -18.5491], [-50.22259, -18.54827], [-50.22295, -18.54717], [-50.22284, -18.54692], [-50.22301, -18.54673], [-50.22278, -18.54538], [-50.22347, -18.54264], [-50.22429, -18.54093], [-50.22566, -18.53982], [-50.2267, -18.53927], [-50.23204, -18.53781], [-50.23295, -18.53731], [-50.23393, -18.53702], [-50.23477, -18.53634], [-50.2352, -18.53564], [-50.23563, -18.53435], [-50.23668, -18.53336], [-50.23692, -18.53243], [-50.23653, -18.53191], [-50.23651, -18.53133], [-50.23625, -18.53076], [-50.23635, -18.53038], [-50.23625, -18.53003], [-50.23666, -18.5289], [-50.2362, -18.528], [-50.23622, -18.52758], [-50.23646, -18.52717], [-50.23635, -18.52674], [-50.23666, -18.52576], [-50.23636, -18.52559], [-50.23638, -18.52495], [-50.2361, -18.52447], [-50.23606, -18.52401], [-50.23561, -18.52367], [-50.23505, -18.52262], [-50.23413, -18.52197], [-50.23406, -18.5215], [-50.23365, -18.52071], [-50.23333, -18.52062], [-50.23307, -18.51984], [-50.23271, -18.51955], [-50.23271, -18.51919], [-50.22905, -18.5158], [-50.22838, -18.51459], [-50.22762, -18.51378], [-50.22575, -18.511], [-50.22421, -18.50659], [-50.22344, -18.50382], [-50.21883, -18.49789], [-50.2177, -18.49615], [-50.21704, -18.49305], [-50.21909, -18.45321], [-50.19784, -18.44718], [-50.19603, -18.44702], [-50.19049, -18.44749], [-50.18903, -18.44748], [-50.18275, -18.44813], [-50.16455, -18.44935]]]}}, 
{"type": "Feature", "properties": {"CD_SETOR": "520915005000010", "CD_SIT": "8", "NM_DIST": "Gouvelândia", "NM_SUBDIST": null}, "geometry": {"type": "Polygon", "coordinates": [[[-50.21749, -18.68052], [-50.22221, -18.68146], [-50.22516, -18.68163], [-50.23096, -18.68104], [-50.24091, -18.67866], [-50.25026, -18.67789], [-50.25743, -18.67952], [-50.26996, -18.68417], [-50.26822, -18.67815], [-50.26988, -18.67302], [-50.26468, -18.66075], [-50.26091, -18.65685], [-50.26068, -18.65125], [-50.25961, -18.65103], [-50.25533, -18.65201], [-50.25391, -18.65068], [-50.25101, -18.64981], [-50.25409, -18.64808], [-50.25137, -18.64683], [-50.25354, -18.64435], [-50.25201, -18.64368], [-50.25073, -18.64183], [-50.24935, -18.637], [-50.24818, -18.63479], [-50.24513, -18.63128], [-50.24215, -18.62921], [-50.24107, -18.62673], [-50.2421, -18.62386], [-50.24338, -18.62271], [-50.24587, -18.62151], [-50.24663, -18.62197], [-50.24763, -18.62399], [-50.25007, -18.62487], [-50.2488, -18.62221], [-50.24776, -18.61837], [-50.24909, -18.61497], [-50.25572, -18.61304], [-50.25621, -18.61152], [-50.25757, -18.61055], [-50.25929, -18.61042], [-50.26026, -18.60981], [-50.26054, -18.60654], [-50.26271, -18.60361], [-50.26298, -18.60053], [-50.26158, -18.5995], [-50.25752, -18.59832], [-50.25721, -18.59605], [-50.25794, -18.59334], [-50.25903, -18.59201], [-50.26367, -18.59158], [-50.26296, -18.59011], [-50.25963, -18.58703], [-50.25937, -18.58577], [-50.26365, -18.58278], [-50.26199, -18.58048], [-50.26184, -18.57893], [-50.26338, -18.57745], [-50.26832, -18.57483], [-50.26824, -18.57112], [-50.26965, -18.56735], [-50.26979, -18.56552], [-50.26779, -18.56249], [-50.26699, -18.56012], [-50.26885, -18.55853], [-50.26977, -18.55673], [-50.27016, -18.54561], [-50.2718, -18.54048], [-50.27359, -18.53745], [-50.27401, -18.53564], [-50.27329, -18.53091], [-50.27572, -18.5297], [-50.28041, -18.53], [-50.28154, -18.5283], [-50.28429, -18.52855], [-50.28693, -18.52933], [-50.28782, -18.52818], [-50.28965, -18.52343], [-50.28998, -18.5209], [-50.28952, -18.51789], [-50.28887, -18.51665], [-50.28749, -18.51697], [-50.28556, -18.51683], [-50.27964, -18.51809], [-50.27755, -18.51815], [-50.27429, -18.51885], [-50.2726, -18.51904], [-50.27098, -18.51909], [-50.26834, -18.51863], [-50.26699, -18.51624], [-50.26913, -18.50759], [-50.26858, -18.50649], [-50.26481, -18.50313], [-50.2624, -18.50062], [-50.26107, -18.49902], [-50.26053, -18.49791], [-50.26141, -18.49469], [-50.26364, -18.48874], [-50.26391, -18.48681], [-50.26525, -18.48329], [-50.26601, -18.47989], [-50.2663, -18.47647], [-50.26568, -18.47444], [-50.26481, -18.47296], [-50.26226, -18.46941], [-50.26153, -18.46683], [-50.26167, -18.46484], [-50.26678, -18.46568], [-50.27174, -18.46625], [-50.27639, -18.46644], [-50.2814, -18.46636], [-50.28119, -18.46493], [-50.28017, -18.46343], [-50.27527, -18.45822], [-50.25074, -18.45775], [-50.23234, -18.45624], [-50.2285, -18.4558], [-50.21909, -18.45321], [-50.21704, -18.49305], [-50.2177, -18.49615], [-50.21883, -18.49789], [-50.22344, -18.50382], [-50.22421, -18.50659], [-50.22575, -18.511], [-50.22762, -18.51378], [-50.22838, -18.51459], [-50.22905, -18.5158], [-50.23245, -18.51887], [-50.23271, -18.51919], [-50.23271, -18.51955], [-50.23307, -18.51984], [-50.23324, -18.5203], [-50.23315, -18.52038], [-50.23335, -18.52045], [-50.23344, -18.52071], [-50.23365, -18.52071], [-50.23406, -18.5215], [-50.23413, -18.52197], [-50.23505, -18.52262], [-50.23561, -18.52367], [-50.23606, -18.52401], [-50.2361, -18.52447], [-50.23638, -18.52495], [-50.23636, -18.52559], [-50.23669, -18.52592], [-50.23635, -18.52674], [-50.23646, -18.52717], [-50.23622, -18.52758], [-50.2362, -18.528], [-50.23666, -18.5289], [-50.23625, -18.53003], [-50.23635, -18.53038], [-50.23625, -18.53076], [-50.23651, -18.53133], [-50.23653, -18.53191], [-50.23682, -18.53222], [-50.23693, -18.53272], [-50.23655, -18.53356], [-50.23613, -18.53374], [-50.23563, -18.53435], [-50.2352, -18.53564], [-50.23477, -18.53634], [-50.23393, -18.53702], [-50.23295, -18.53731], [-50.23204, -18.53781], [-50.2267, -18.53927], [-50.22566, -18.53982], [-50.22429, -18.54093], [-50.22347, -18.54264], [-50.22278, -18.54538], [-50.22301, -18.54673], [-50.22284, -18.54692], [-50.22295, -18.54717], [-50.22259, -18.54827], [-50.2229, -18.5491], [-50.22272, -18.55026], [-50.22094, -18.55445], [-50.21963, -18.55551], [-50.21965, -18.55569], [-50.21902, -18.55574], [-50.21827, -18.55601], [-50.21653, -18.55719], [-50.21564, -18.55731], [-50.21553, -18.55749], [-50.21408, -18.55814], [-50.21392, -18.558], [-50.21349, -18.55816], [-50.21311, -18.55789], [-50.21282, -18.55799], [-50.21256, -18.55813], [-50.21236, -18.55863], [-50.21111, -18.55957], [-50.21002, -18.55995], [-50.20922, -18.55999], [-50.20519, -18.55967], [-50.20298, -18.55921], [-50.20205, -18.55865], [-50.19899, -18.55518], [-50.19842, -18.55482], [-50.19758, -18.55461], [-50.19683, -18.55492], [-50.1963, -18.55534], [-50.19431, -18.5589], [-50.19391, -18.55923], [-50.19244, -18.55952], [-50.19219, -18.56013], [-50.19188, -18.5619], [-50.19144, -18.56212], [-50.19015, -18.5623], [-50.18837, -18.56309], [-50.18758, -18.56415], [-50.18735, -18.56506], [-50.1868, -18.56619], [-50.18601, -18.56729], [-50.18581, -18.56851], [-50.18593, -18.56966], [-50.18556, -18.57069], [-50.18534, -18.57104], [-50.18486, -18.5713], [-50.18468, -18.57171], [-50.18471, -18.57281], [-50.1845, -18.57337], [-50.18294, -18.57469], [-50.18282, -18.57502], [-50.18284, -18.57598], [-50.18251, -18.57717], [-50.18196, -18.57815], [-50.18227, -18.58003], [-50.17914, -18.58318], [-50.17883, -18.58373], [-50.17853, -18.58485], [-50.17863, -18.58949], [-50.17831, -18.59072], [-50.17677, -18.5946], [-50.17675, -18.59515], [-50.17714, -18.59592], [-50.17778, -18.59653], [-50.17946, -18.59695], [-50.18061, -18.59754], [-50.18218, -18.59871], [-50.1841, -18.60064], [-50.1869, -18.60472], [-50.18799, -18.6074], [-50.18811, -18.60809], [-50.18763, -18.61205], [-50.18756, -18.61599], [-50.18769, -18.61959], [-50.18784, -18.62141], [-50.18826, -18.62365], [-50.18878, -18.62539], [-50.18918, -18.62878], [-50.19254, -18.63574], [-50.19649, -18.64105], [-50.19731, -18.6443], [-50.19723, -18.64503], [-50.1967, -18.64612], [-50.19563, -18.64723], [-50.19326, -18.64832], [-50.19228, -18.64906], [-50.19228, -18.64933], [-50.19305, -18.64988], [-50.19451, -18.65021], [-50.19548, -18.65168], [-50.19558, -18.6533], [-50.19688, -18.65558], [-50.19914, -18.65692], [-50.19919, -18.65723], [-50.19849, -18.65782], [-50.19589, -18.65889], [-50.19537, -18.65949], [-50.19473, -18.66236], [-50.1945, -18.6649], [-50.19604, -18.66785], [-50.19997, -18.67072], [-50.20179, -18.67181], [-50.20421, -18.67258], [-50.20873, -18.67331], [-50.21106, -18.6741], [-50.21426, -18.67591], [-50.21749, -18.68052]]]}}, 
{"type": "Feature", "properties": {"CD_SETOR": "520915005000012", "CD_SIT": "1", "NM_DIST": "Gouvelândia", "NM_SUBDIST": null}, "geometry": {"type": "Polygon", "coordinates": [[[-50.13263, -18.44638], [-50.13179, -18.44251], [-50.13108, -18.43846], [-50.1297, -18.44494], [-50.13073, -18.44634], [-50.13263, -18.44638]]]}}, 
{"type": "Feature", "properties": {"CD_SETOR": "520915005000013", "CD_SIT": "1", "NM_DIST": "Gouvelândia", "NM_SUBDIST": null}, "geometry": {"type": "Polygon", "coordinates": [[[-50.13263, -18.44638], [-50.13795, -18.45062], [-50.13966, -18.44731], [-50.13998, -18.44698], [-50.13671, -18.44671], [-50.13655, -18.44658], [-50.13757, -18.44214], [-50.13469, -18.44155], [-50.13364, -18.4463], [-50.13263, -18.44638]]]}}, 
{"type": "Feature", "properties": {"CD_SETOR": "520915005000014", "CD_SIT": "8", "NM_DIST": "Gouvelândia", "NM_SUBDIST": null}, "geometry": {"type": "Polygon", "coordinates": [[[-50.05827, -18.43786], [-50.05493, -18.4398], [-50.05135, -18.44526], [-50.0496, -18.45062], [-50.04678, -18.4647], [-50.04602, -18.46739], [-50.04113, -18.47926], [-50.03801, -18.48467], [-50.03879, -18.48648], [-50.0406, -18.48829], [-50.04318, -18.49317], [-50.04446, -18.4986], [-50.04201, -18.50169], [-50.03991, -18.50607], [-50.04001, -18.50834], [-50.04254, -18.51285], [-50.04335, -18.5154], [-50.04298, -18.52128], [-50.04009, -18.52464], [-50.0319, -18.53052], [-50.03015, -18.53455], [-50.03001, -18.54017], [-50.03079, -18.54263], [-50.03251, -18.54566], [-50.04351, -18.55673], [-50.04751, -18.56318], [-50.05016, -18.57712], [-50.04971, -18.57955], [-50.04809, -18.58268], [-50.04603, -18.5849], [-50.04295, -18.58672], [-50.03608, -18.58844], [-50.03026, -18.59165], [-50.02932, -18.59489], [-50.02959, -18.59834], [-50.02876, -18.60147], [-50.03702, -18.60988], [-50.0401, -18.61383], [-50.0426, -18.61987], [-50.04496, -18.63054], [-50.04796, -18.63877], [-50.05021, -18.64354], [-50.05343, -18.64707], [-50.05846, -18.65055], [-50.06334, -18.65267], [-50.06838, -18.65624], [-50.07207, -18.6605], [-50.07488, -18.66583], [-50.08004, -18.67224], [-50.08203, -18.67262], [-50.0904, -18.67127], [-50.08919, -18.66953], [-50.08887, -18.66839], [-50.08898, -18.66725], [-50.08998, -18.66364], [-50.09206, -18.66013], [-50.09229, -18.65827], [-50.09091, -18.65145], [-50.09136, -18.64917], [-50.09278, -18.64691], [-50.0951, -18.64387], [-50.09833, -18.64124], [-50.09869, -18.64006], [-50.0981, -18.63818], [-50.0986, -18.63644], [-50.10022, -18.63521], [-50.10164, -18.63491], [-50.10349, -18.63565], [-50.10622, -18.63597], [-50.10866, -18.63573], [-50.11116, -18.63511], [-50.11143, -18.63488], [-50.11131, -18.63453], [-50.10999, -18.63332], [-50.10974, -18.63255], [-50.10999, -18.63222], [-50.11004, -18.63144], [-50.1103, -18.63079], [-50.11059, -18.63065], [-50.11122, -18.63067], [-50.11212, -18.63032], [-50.11276, -18.62968], [-50.11289, -18.62911], [-50.11275, -18.62838], [-50.11306, -18.62798], [-50.1128, -18.62735], [-50.11292, -18.62677], [-50.11255, -18.62563], [-50.11153, -18.62458], [-50.11104, -18.62385], [-50.11096, -18.6229], [-50.11002, -18.62182], [-50.11008, -18.62141], [-50.1095, -18.62131], [-50.10891, -18.62162], [-50.10725, -18.62133], [-50.10466, -18.61918], [-50.10334, -18.61734], [-50.10299, -18.61623], [-50.10162, -18.61381], [-50.1007, -18.61149], [-50.10009, -18.61086], [-50.09921, -18.61045], [-50.0988, -18.60996], [-50.09836, -18.60887], [-50.09741, -18.60874], [-50.0964, -18.60761], [-50.09579, -18.60749], [-50.09557, -18.60688], [-50.09523, -18.60659], [-50.09487, -18.60657], [-50.09412, -18.60563], [-50.09353, -18.60429], [-50.09271, -18.60064], [-50.09314, -18.59725], [-50.09438, -18.59518], [-50.09547, -18.59072], [-50.09545, -18.58773], [-50.09462, -18.58377], [-50.09452, -18.58215], [-50.0941, -18.58128], [-50.09351, -18.57877], [-50.09319, -18.57631], [-50.09409, -18.57546], [-50.0938, -18.57504], [-50.09338, -18.57483], [-50.09306, -18.572], [-50.09292, -18.57144], [-50.09235, -18.57048], [-50.09267, -18.57013], [-50.09279, -18.56917], [-50.09306, -18.56876], [-50.09484, -18.56794], [-50.09511, -18.56753], [-50.09587, -18.56694], [-50.09614, -18.56624], [-50.0964, -18.56598], [-50.09687, -18.56594], [-50.09786, -18.56546], [-50.09809, -18.56309], [-50.09883, -18.56169], [-50.09848, -18.55871], [-50.09805, -18.55759], [-50.09801, -18.55706], [-50.09835, -18.55574], [-50.10029, -18.55437], [-50.10114, -18.55333], [-50.10162, -18.55317], [-50.10218, -18.55266], [-50.10242, -18.55155], [-50.10267, -18.55118], [-50.10319, -18.55098], [-50.10459, -18.55111], [-50.10505, -18.55099], [-50.10734, -18.54957], [-50.10894, -18.54807], [-50.10985, -18.54753], [-50.11025, -18.54753], [-50.1106, -18.54773], [-50.11224, -18.547], [-50.1126, -18.54699], [-50.11316, -18.54639], [-50.11346, -18.54642], [-50.11365, -18.54616], [-50.11342, -18.54544], [-50.11373, -18.54419], [-50.1136, -18.54365], [-50.11405, -18.54358], [-50.11409, -18.54334], [-50.11389, -18.54293], [-50.114, -18.54285], [-50.11362, -18.54262], [-50.11348, -18.54216], [-50.11386, -18.54158], [-50.11369, -18.5413], [-50.1138, -18.54094], [-50.11343, -18.54053], [-50.11357, -18.53956], [-50.11344, -18.53932], [-50.11312, -18.53928], [-50.11289, -18.53881], [-50.11285, -18.53773], [-50.11256, -18.53755], [-50.11242, -18.53712], [-50.11264, -18.53695], [-50.11211, -18.53646], [-50.11197, -18.5361], [-50.11145, -18.53596], [-50.11064, -18.53523], [-50.11032, -18.53521], [-50.11026, -18.53473], [-50.10998, -18.53452], [-50.11001, -18.53427], [-50.11057, -18.53401], [-50.11064, -18.53364], [-50.11025, -18.53309], [-50.11091, -18.53136], [-50.11093, -18.53044], [-50.11064, -18.52986], [-50.11078, -18.52954], [-50.11055, -18.52925], [-50.11041, -18.52864], [-50.11047, -18.52785], [-50.11002, -18.52558], [-50.11026, -18.52486], [-50.11008, -18.52391], [-50.10973, -18.52376], [-50.10908, -18.51821], [-50.10866, -18.51609], [-50.10875, -18.51172], [-50.10781, -18.50824], [-50.1081, -18.50691], [-50.10762, -18.49389], [-50.1073, -18.49144], [-50.10784, -18.48318], [-50.1081, -18.48285], [-50.10791, -18.48213], [-50.10795, -18.48093], [-50.10899, -18.47939], [-50.1104, -18.47772], [-50.11243, -18.47301], [-50.11285, -18.4716], [-50.11247, -18.47077], [-50.11276, -18.47063], [-50.11299, -18.46994], [-50.11777, -18.46572], [-50.11807, -18.46598], [-50.1201, -18.46611], [-50.12023, -18.46555], [-50.12106, -18.46564], [-50.12151, -18.4635], [-50.12414, -18.46217], [-50.1243, -18.46142], [-50.12534, -18.46118], [-50.1256, -18.46133], [-50.12589, -18.46235], [-50.12684, -18.46333], [-50.12771, -18.46387], [-50.12886, -18.46404], [-50.13005, -18.46347], [-50.1304, -18.46248], [-50.13087, -18.46206], [-50.13144, -18.46181], [-50.13189, -18.46186], [-50.1339, -18.46344], [-50.13482, -18.46371], [-50.13733, -18.46568], [-50.13886, -18.46528], [-50.13937, -18.46569], [-50.13977, -18.46711], [-50.1421, -18.46955], [-50.14429, -18.47031], [-50.14449, -18.47006], [-50.14637, -18.47006], [-50.14836, -18.47031], [-50.1505, -18.47123], [-50.15208, -18.47266], [-50.15488, -18.47418], [-50.16552, -18.46496], [-50.16608, -18.46347], [-50.16694, -18.45814], [-50.16616, -18.45389], [-50.16455, -18.44935], [-50.16458, -18.44852], [-50.16382, -18.44355], [-50.16373, -18.44131], [-50.1631, -18.4405], [-50.16318, -18.44013], [-50.16257, -18.4376], [-50.16226, -18.43702], [-50.16221, -18.4357], [-50.1555, -18.43037], [-50.15397, -18.42834], [-50.15078, -18.4253], [-50.14986, -18.42497], [-50.14849, -18.42419], [-50.14649, -18.42387], [-50.14542, -18.42331], [-50.14378, -18.42314], [-50.14194, -18.42324], [-50.13984, -18.42409], [-50.1374, -18.42444], [-50.13692, -18.42468], [-50.13622, -18.42572], [-50.13568, -18.42621], [-50.13407, -18.42668], [-50.13266, -18.42595], [-50.13153, -18.42491], [-50.12979, -18.42379], [-50.12871, -18.42354], [-50.12694, -18.42371], [-50.12609, -18.42403], [-50.12496, -18.42516], [-50.12481, -18.42586], [-50.12417, -18.42727], [-50.1244, -18.4278], [-50.1242, -18.4285], [-50.12219, -18.4291], [-50.12178, -18.42939], [-50.12111, -18.42939], [-50.11925, -18.43079], [-50.11807, -18.43085], [-50.11774, -18.43014], [-50.11779, -18.42941], [-50.11705, -18.42792], [-50.11715, -18.42708], [-50.11754, -18.42654], [-50.11731, -18.42576], [-50.11737, -18.42475], [-50.11695, -18.42397], [-50.11662, -18.42366], [-50.11601, -18.42344], [-50.11579, -18.42301], [-50.11588, -18.42236], [-50.11646, -18.42176], [-50.1177, -18.42134], [-50.11797, -18.42021], [-50.11773, -18.41942], [-50.11718, -18.41883], [-50.11639, -18.41845], [-50.11436, -18.41899], [-50.11401, -18.41967], [-50.11401, -18.42016], [-50.11357, -18.42061], [-50.11263, -18.42082], [-50.11022, -18.42036], [-50.10885, -18.41863], [-50.1083, -18.4182], [-50.10684, -18.41872], [-50.10639, -18.41864], [-50.1059, -18.41896], [-50.10461, -18.41832], [-50.10356, -18.41815], [-50.10293, -18.41888], [-50.1028, -18.42001], [-50.10311, -18.42014], [-50.10347, -18.42098], [-50.10358, -18.42185], [-50.10338, -18.42211], [-50.10352, -18.42243], [-50.10428, -18.42311], [-50.1038, -18.42396], [-50.10364, -18.42489], [-50.1033, -18.42535], [-50.10372, -18.42569], [-50.1045, -18.42598], [-50.10445, -18.42653], [-50.10388, -18.4275], [-50.10255, -18.42827], [-50.10217, -18.42945], [-50.10128, -18.42988], [-50.10096, -18.43037], [-50.10064, -18.43139], [-50.10089, -18.43149], [-50.1013, -18.43134], [-50.10145, -18.43176], [-50.10081, -18.43216], [-50.10038, -18.43222], [-50.0988, -18.43185], [-50.09836, -18.43159], [-50.09802, -18.43107], [-50.09804, -18.43059], [-50.09727, -18.42946], [-50.0968, -18.42915], [-50.09659, -18.42863], [-50.09674, -18.42721], [-50.09663, -18.42701], [-50.09606, -18.42694], [-50.09563, -18.42739], [-50.09549, -18.4279], [-50.09558, -18.42906], [-50.09488, -18.43017], [-50.09418, -18.4306], [-50.09322, -18.43065], [-50.09262, -18.4312], [-50.09269, -18.43235], [-50.09297, -18.43274], [-50.09415, -18.43292], [-50.09465, -18.43322], [-50.09496, -18.43364], [-50.09491, -18.43403], [-50.0945, -18.43422], [-50.09312, -18.43421], [-50.09226, -18.43504], [-50.0924, -18.43538], [-50.09354, -18.43613], [-50.09358, -18.43644], [-50.09272, -18.43676], [-50.09254, -18.43725], [-50.09287, -18.43847], [-50.09323, -18.43903], [-50.09323, -18.43958], [-50.09263, -18.44073], [-50.09302, -18.44107], [-50.09291, -18.44125], [-50.09308, -18.44177], [-50.09298, -18.44199], [-50.09252, -18.44217], [-50.09297, -18.44401], [-50.09235, -18.44482], [-50.09271, -18.44521], [-50.09279, -18.4461], [-50.09242, -18.44637], [-50.09152, -18.44653], [-50.09148, -18.44668], [-50.0921, -18.44772], [-50.09163, -18.44833], [-50.09169, -18.44849], [-50.09194, -18.44871], [-50.0926, -18.44855], [-50.0925, -18.44879], [-50.09294, -18.4492], [-50.09285, -18.44962], [-50.09267, -18.44972], [-50.09296, -18.45037], [-50.09268, -18.45075], [-50.0931, -18.45137], [-50.09338, -18.45143], [-50.09366, -18.45174], [-50.0932, -18.45198], [-50.09184, -18.4516], [-50.09116, -18.45206], [-50.09048, -18.45225], [-50.0878, -18.45152], [-50.08758, -18.45179], [-50.08734, -18.4526], [-50.08703, -18.45292], [-50.08652, -18.45325], [-50.08546, -18.45349], [-50.08457, -18.45545], [-50.08334, -18.45582], [-50.08175, -18.45536], [-50.08103, -18.45438], [-50.08055, -18.45322], [-50.07913, -18.45216], [-50.07625, -18.45149], [-50.07308, -18.44981], [-50.0725, -18.44887], [-50.07277, -18.44762], [-50.07284, -18.44618], [-50.07246, -18.44314], [-50.07108, -18.43968], [-50.06983, -18.43799], [-50.06763, -18.4365], [-50.06484, -18.43628], [-50.06136, -18.43674], [-50.05827, -18.43786]], [[-50.13263, -18.44638], [-50.13073, -18.44634], [-50.1297, -18.44494], [-50.13108, -18.43846], [-50.13049, -18.43507], [-50.1317, -18.43531], [-50.13156, -18.43589], [-50.13326, -18.43624], [-50.13337, -18.43566], [-50.13692, -18.4364], [-50.13689, -18.43581], [-50.13983, -18.43643], [-50.13978, -18.43753], [-50.14214, -18.44052], [-50.14072, -18.44697], [-50.13998, -18.44698], [-50.13966, -18.44731], [-50.13795, -18.45062], [-50.13263, -18.44638]]]}}]}