{"type": "FeatureCollection", "features": [
{"type": "Feature", "properties": {"CD_SETOR": "521590005000001", "CD_SIT": "1", "NM_DIST": "Palminópolis", "NM_SUBDIST": null}, "geometry": {"type": "Polygon", "coordinates": [[[-50.16542, -16.7936], [-50.16409, -16.79373], [-50.16404, -16.79898], [-50.1634, -16.8047], [-50.16393, -16.80499], [-50.16512, -16.80489], [-50.16616, -16.80521], [-50.16687, -16.805], [-50.16704, -16.80535], [-50.16759, -16.8054], [-50.16783, -16.80572], [-50.16814, -16.80566], [-50.16893, -16.80594], [-50.16921, -16.80661], [-50.16968, -16.80647], [-50.17029, -16.80565], [-50.17067, -16.80558], [-50.1715, -16.80594], [-50.17236, -16.8058], [-50.17153, -16.80515], [-50.17084, -16.80396], [-50.17068, -16.80101], [-50.1705, -16.80048], [-50.17022, -16.80005], [-50.16977, -16.79991], [-50.16811, -16.79641], [-50.16754, -16.7963], [-50.16744, -16.79526], [-50.16728, -16.79525], [-50.16711, -16.79444], [-50.16741, -16.79438], [-50.16748, -16.79367], [-50.16542, -16.7936]]]}}, 
{"type": "Feature", "properties": {"CD_SETOR": "521590005000003", "CD_SIT": "2", "NM_DIST": "Palminópolis", "NM_SUBDIST": null}, "geometry": {"type": "Polygon", "coordinates": [[[-50.16073, -16.77953], [-50.16053, -16.77975], [-50.15982, -16.78408], [-50.15781, -16.79128], [-50.15891, -16.79272], [-50.1588, -16.79361], [-50.15895, -16.79653], [-50.15935, -16.79722], [-50.15974, -16.79868], [-50.1596, -16.79907], [-50.15985, -16.80012], [-50.15964, -16.80118], [-50.15981, -16.80158], [-50.1598, -16.80229], [-50.15992, -16.80254], [-50.16019, -16.80263], [-50.16029, -16.80309], [-50.16084, -16.80306], [-50.16215, -16.80358], [-50.16265, -16.80427], [-50.1634, -16.8047], [-50.16404, -16.79898], [-50.16409, -16.79373], [-50.16542, -16.7936], [-50.16549, -16.78917], [-50.16513, -16.788], [-50.16105, -16.78014], [-50.16096, -16.77961], [-50.16073, -16.77953]]]}}, 
{"type": "Feature", "properties": {"CD_SETOR": "521590005000004", "CD_SIT": "8", "NM_DIST": "Palminópolis", "NM_SUBDIST": null}, "geometry": {"type": "Polygon", "coordinates": [[[-50.16073, -16.77953], [-50.16096, -16.77961], [-50.16105, -16.78014], [-50.16348, -16.78483], [-50.16391, -16.7849], [-50.16652, -16.78653], [-50.16707, -16.78724], [-50.16739, -16.78567], [-50.16958, -16.78656], [-50.17336, -16.78663], [-50.17359, -16.7875], [-50.17126, -16.78865], [-50.17128, -16.78921], [-50.17216, -16.79133], [-50.17011, -16.79194], [-50.17041, -16.79266], [-50.16906, -16.79342], [-50.16742, -16.79374], [-50.16741, -16.79438], [-50.16711, -16.79444], [-50.16728, -16.79525], [-50.16744, -16.79526], [-50.16754, -16.7963], [-50.16811, -16.79641], [-50.16977, -16.79991], [-50.17022, -16.80005], [-50.1705, -16.80048], [-50.17068, -16.80101], [-50.17073, -16.80362], [-50.17093, -16.80416], [-50.17153, -16.80515], [-50.17236, -16.8058], [-50.17289, -16.80567], [-50.17312, -16.80533], [-50.17408, -16.80473], [-50.17457, -16.8042], [-50.17462, -16.80385], [-50.17509, -16.80365], [-50.17535, -16.80324], [-50.1765, -16.80343], [-50.17742, -16.80309], [-50.17804, -16.80353], [-50.1784, -16.80354], [-50.17918, -16.80325], [-50.17952, -16.80224], [-50.18082, -16.80156], [-50.18113, -16.80085], [-50.1829, -16.80042], [-50.18364, -16.80033], [-50.184, -16.80046], [-50.18427, -16.80034], [-50.18442, -16.80017], [-50.1843, -16.79971], [-50.18471, -16.79918], [-50.18485, -16.79854], [-50.18531, -16.79819], [-50.18562, -16.79833], [-50.18625, -16.79817], [-50.18656, -16.79829], [-50.18697, -16.79796], [-50.18728, -16.79801], [-50.1876, -16.79782], [-50.18781, -16.7981], [-50.18823, -16.79781], [-50.18872, -16.79797], [-50.18904, -16.79748], [-50.18958, -16.79738], [-50.19039, -16.7975], [-50.19067, -16.79744], [-50.19083, -16.79702], [-50.19116, -16.79678], [-50.19159, -16.79671], [-50.19196, -16.79685], [-50.19273, -16.79598], [-50.19275, -16.79533], [-50.19296, -16.79529], [-50.19358, -16.79387], [-50.1942, -16.79355], [-50.19464, -16.79365], [-50.19486, -16.79338], [-50.19513, -16.79338], [-50.19596, -16.79264], [-50.19613, -16.79226], [-50.1964, -16.79225], [-50.19658, -16.79182], [-50.19689, -16.79172], [-50.19836, -16.79196], [-50.19834, -16.79135], [-50.19877, -16.79169], [-50.19912, -16.79124], [-50.19922, -16.79081], [-50.1986, -16.79032], [-50.1986, -16.7898], [-50.19888, -16.78926], [-50.19942, -16.78871], [-50.20024, -16.78835], [-50.20055, -16.78791], [-50.20114, -16.78763], [-50.20143, -16.7872], [-50.20149, -16.78671], [-50.20183, -16.78652], [-50.20225, -16.78661], [-50.20325, -16.78633], [-50.20434, -16.78649], [-50.20469, -16.78715], [-50.20475, -16.78805], [-50.20541, -16.78925], [-50.20688, -16.78949], [-50.20718, -16.78975], [-50.20736, -16.78977], [-50.20754, -16.78953], [-50.20816, -16.79006], [-50.2082, -16.79036], [-50.20845, -16.79019], [-50.20887, -16.79048], [-50.20925, -16.79048], [-50.20959, -16.79087], [-50.21015, -16.79118], [-50.2108, -16.7905], [-50.21144, -16.79051], [-50.21162, -16.79028], [-50.21175, -16.79036], [-50.21223, -16.79014], [-50.21254, -16.79045], [-50.21261, -16.79034], [-50.21294, -16.79045], [-50.21307, -16.79022], [-50.21326, -16.79045], [-50.21348, -16.79043], [-50.21378, -16.79021], [-50.21458, -16.79098], [-50.21532, -16.79088], [-50.21662, -16.79103], [-50.21716, -16.79101], [-50.21825, -16.79039], [-50.21976, -16.79084], [-50.22035, -16.79036], [-50.22073, -16.79042], [-50.2218, -16.79009], [-50.22288, -16.78998], [-50.22427, -16.79025], [-50.22462, -16.7905], [-50.22527, -16.79039], [-50.2256, -16.7906], [-50.22583, -16.79045], [-50.2262, -16.79049], [-50.22631, -16.79064], [-50.22661, -16.79051], [-50.22733, -16.79095], [-50.22779, -16.7911], [-50.22787, -16.79096], [-50.22801, -16.79127], [-50.2284, -16.79129], [-50.22867, -16.7915], [-50.22989, -16.79142], [-50.23066, -16.79172], [-50.23091, -16.79152], [-50.23158, -16.79173], [-50.23203, -16.79209], [-50.23261, -16.7921], [-50.23301, -16.79229], [-50.23341, -16.79223], [-50.23372, -16.79195], [-50.2341, -16.79228], [-50.23474, -16.79225], [-50.23504, -16.79205], [-50.23519, -16.79216], [-50.23551, -16.79195], [-50.23542, -16.79173], [-50.23584, -16.79148], [-50.23706, -16.79214], [-50.23753, -16.79167], [-50.23786, -16.7906], [-50.23852, -16.78974], [-50.2394, -16.78815], [-50.24096, -16.78679], [-50.24178, -16.78638], [-50.24215, -16.78582], [-50.2425, -16.78414], [-50.24348, -16.78361], [-50.24346, -16.78308], [-50.2427, -16.78297], [-50.24202, -16.78321], [-50.24181, -16.78298], [-50.24171, -16.78182], [-50.24119, -16.78151], [-50.24136, -16.78115], [-50.2408, -16.7806], [-50.24068, -16.77995], [-50.24047, -16.77972], [-50.2405, -16.77925], [-50.24019, -16.77852], [-50.24024, -16.77827], [-50.24143, -16.77616], [-50.24202, -16.77588], [-50.24294, -16.77613], [-50.24433, -16.77578], [-50.24499, -16.77591], [-50.24536, -16.7763], [-50.24549, -16.77685], [-50.24582, -16.77726], [-50.24686, -16.7779], [-50.24712, -16.77838], [-50.24925, -16.78016], [-50.2497, -16.78029], [-50.25132, -16.77989], [-50.2522, -16.78043], [-50.2545, -16.78087], [-50.25477, -16.78077], [-50.25445, -16.77958], [-50.25461, -16.77861], [-50.25611, -16.77653], [-50.25643, -16.77645], [-50.2568, -16.77662], [-50.25728, -16.7777], [-50.25749, -16.77773], [-50.25781, -16.77747], [-50.25811, -16.77685], [-50.25859, -16.77733], [-50.259, -16.77747], [-50.25941, -16.77736], [-50.26127, -16.7759], [-50.25991, -16.77432], [-50.25882, -16.77245], [-50.25878, -16.77013], [-50.25768, -16.76837], [-50.25768, -16.76714], [-50.25829, -16.76637], [-50.25937, -16.76556], [-50.25993, -16.76439], [-50.25993, -16.76311], [-50.25962, -16.76212], [-50.25871, -16.7617], [-50.25777, -16.76193], [-50.25701, -16.76247], [-50.25565, -16.76292], [-50.25493, -16.76215], [-50.25468, -16.76093], [-50.2547, -16.75984], [-50.25515, -16.75803], [-50.25482, -16.75534], [-50.25421, -16.75299], [-50.25407, -16.75185], [-50.25409, -16.74931], [-50.25574, -16.74759], [-50.25329, -16.74387], [-50.25443, -16.74215], [-50.25423, -16.7412], [-50.25204, -16.74092], [-50.2521, -16.73969], [-50.2528, -16.73888], [-50.25365, -16.73843], [-50.25434, -16.73752], [-50.25414, -16.73637], [-50.25344, -16.73435], [-50.25329, -16.73316], [-50.25215, -16.73271], [-50.24992, -16.73221], [-50.24901, -16.73132], [-50.24853, -16.72991], [-50.24762, -16.72945], [-50.24641, -16.72931], [-50.24537, -16.72891], [-50.24457, -16.72795], [-50.24335, -16.7259], [-50.24229, -16.72509], [-50.24135, -16.72509], [-50.24034, -16.72481], [-50.23932, -16.72376], [-50.23879, -16.72271], [-50.23645, -16.72081], [-50.23424, -16.72058], [-50.23326, -16.72025], [-50.23062, -16.71791], [-50.22725, -16.71729], [-50.22621, -16.71688], [-50.22529, -16.71628], [-50.22532, -16.7152], [-50.2251, -16.7142], [-50.22443, -16.71347], [-50.22443, -16.7113], [-50.22395, -16.7103], [-50.22176, -16.70911], [-50.21943, -16.70897], [-50.21884, -16.70871], [-50.21866, -16.70911], [-50.21866, -16.70979], [-50.21806, -16.70977], [-50.21735, -16.71013], [-50.21742, -16.71042], [-50.21712, -16.71052], [-50.21712, -16.71095], [-50.21694, -16.71116], [-50.21734, -16.71178], [-50.21701, -16.7122], [-50.2163, -16.71204], [-50.21594, -16.71264], [-50.21525, -16.71312], [-50.21415, -16.71311], [-50.21315, -16.71337], [-50.21255, -16.71379], [-50.21206, -16.71384], [-50.21171, -16.71368], [-50.21122, -16.71303], [-50.21071, -16.7129], [-50.21045, -16.71302], [-50.21003, -16.71378], [-50.20934, -16.71391], [-50.20861, -16.71483], [-50.20763, -16.71536], [-50.2076, -16.71551], [-50.20814, -16.71559], [-50.20821, -16.71575], [-50.20778, -16.71667], [-50.20667, -16.71746], [-50.20581, -16.71866], [-50.20537, -16.71885], [-50.20469, -16.72074], [-50.20434, -16.72136], [-50.20383, -16.72146], [-50.20367, -16.72184], [-50.20353, -16.72232], [-50.20372, -16.72274], [-50.20356, -16.72351], [-50.20407, -16.72539], [-50.20367, -16.72629], [-50.20274, -16.72692], [-50.20303, -16.72852], [-50.20255, -16.72903], [-50.20225, -16.73023], [-50.20163, -16.7307], [-50.20159, -16.73133], [-50.2012, -16.73172], [-50.20053, -16.73206], [-50.20014, -16.73207], [-50.19916, -16.73252], [-50.19855, -16.73368], [-50.19812, -16.73378], [-50.19711, -16.73337], [-50.19641, -16.73351], [-50.19598, -16.7342], [-50.19503, -16.73504], [-50.19483, -16.73544], [-50.19502, -16.73643], [-50.19521, -16.73684], [-50.19592, -16.73723], [-50.19604, -16.73772], [-50.1958, -16.73821], [-50.19602, -16.74079], [-50.1962, -16.74192], [-50.19662, -16.74293], [-50.19655, -16.74342], [-50.19709, -16.74559], [-50.19702, -16.7461], [-50.19631, -16.7472], [-50.1954, -16.74775], [-50.19506, -16.74879], [-50.19294, -16.75154], [-50.1915, -16.75233], [-50.19119, -16.75266], [-50.18981, -16.75258], [-50.18839, -16.7531], [-50.18769, -16.75351], [-50.18697, -16.75434], [-50.18645, -16.75403], [-50.18627, -16.75356], [-50.18435, -16.75269], [-50.18362, -16.75213], [-50.18297, -16.75117], [-50.18115, -16.75138], [-50.17968, -16.75119], [-50.17637, -16.75259], [-50.17528, -16.75228], [-50.17436, -16.75228], [-50.17318, -16.75178], [-50.17237, -16.75222], [-50.17161, -16.75302], [-50.17126, -16.75362], [-50.17091, -16.7551], [-50.16991, -16.75746], [-50.16884, -16.7588], [-50.16847, -16.76022], [-50.16859, -16.76038], [-50.16862, -16.76223], [-50.1698, -16.76562], [-50.16989, -16.76693], [-50.16783, -16.76908], [-50.16722, -16.77016], [-50.16707, -16.77149], [-50.16652, -16.77299], [-50.16467, -16.77403], [-50.16346, -16.77518], [-50.16334, -16.77548], [-50.16235, -16.77607], [-50.16013, -16.77841], [-50.16073, -16.77953]]]}}, 
{"type": "Feature", "properties": {"CD_SETOR": "521590005000005", "CD_SIT": "8", "NM_DIST": "Palminópolis", "NM_SUBDIST": null}, "geometry": {"type": "Polygon", "coordinates": [[[-50.11087, -16.79639], [-50.11183, -16.79683], [-50.11304, -16.79704], [-50.12057, -16.7974], [-50.12888, -16.79804], [-50.13008, -16.79776], [-50.13148, -16.79713], [-50.13331, -16.79584], [-50.1348, -16.79654], [-50.13515, -16.79689], [-50.13547, -16.79757], [-50.13526, -16.80004], [-50.13544, -16.80146], [-50.13635, -16.80238], [-50.13713, -16.80261], [-50.14005, -16.80262], [-50.14157, -16.80221], [-50.14298, -16.80211], [-50.14418, -16.80231], [-50.14446, -16.80208], [-50.14503, -16.8023], [-50.14582, -16.80232], [-50.14692, -16.80203], [-50.14745, -16.8017], [-50.14766, -16.8018], [-50.14799, -16.80162], [-50.14843, -16.80166], [-50.14901, -16.80133], [-50.14976, -16.80129], [-50.15117, -16.80065], [-50.15159, -16.80029], [-50.15195, -16.80043], [-50.15214, -16.80099], [-50.15234, -16.80108], [-50.15281, -16.8012], [-50.15341, -16.8011], [-50.15348, -16.8013], [-50.15461, -16.80149], [-50.15808, -16.80287], [-50.15957, -16.8028], [-50.16029, -16.80309], [-50.16019, -16.80263], [-50.15992, -16.80254], [-50.15976, -16.80219], [-50.15981, -16.80158], [-50.15964, -16.80118], [-50.15985, -16.80012], [-50.1596, -16.79907], [-50.15972, -16.79855], [-50.15941, -16.79761], [-50.1564, -16.79693], [-50.15608, -16.79748], [-50.15544, -16.79756], [-50.15218, -16.79669], [-50.15312, -16.79345], [-50.15689, -16.79447], [-50.15982, -16.78408], [-50.16053, -16.77975], [-50.16073, -16.77953], [-50.16013, -16.77841], [-50.16235, -16.77607], [-50.16334, -16.77548], [-50.16346, -16.77518], [-50.16467, -16.77403], [-50.16652, -16.77299], [-50.16707, -16.77149], [-50.16722, -16.77016], [-50.16783, -16.76908], [-50.16989, -16.76693], [-50.1698, -16.76562], [-50.16862, -16.76223], [-50.16859, -16.76038], [-50.16847, -16.76022], [-50.16884, -16.7588], [-50.16991, -16.75746], [-50.17091, -16.7551], [-50.17126, -16.75362], [-50.17161, -16.75302], [-50.17237, -16.75222], [-50.17318, -16.75178], [-50.17436, -16.75228], [-50.17528, -16.75228], [-50.17637, -16.75259], [-50.17968, -16.75119], [-50.18115, -16.75138], [-50.18297, -16.75117], [-50.18362, -16.75213], [-50.18435, -16.75269], [-50.18627, -16.75356], [-50.18645, -16.75403], [-50.18697, -16.75434], [-50.18769, -16.75351], [-50.18839, -16.7531], [-50.18981, -16.75258], [-50.19119, -16.75266], [-50.1915, -16.75233], [-50.19294, -16.75154], [-50.19506, -16.74879], [-50.1954, -16.74775], [-50.19631, -16.7472], [-50.19702, -16.7461], [-50.19709, -16.74559], [-50.19655, -16.74342], [-50.19662, -16.74293], [-50.1962, -16.74192], [-50.19602, -16.74079], [-50.1958, -16.73821], [-50.19604, -16.73772], [-50.19592, -16.73723], [-50.19521, -16.73684], [-50.19502, -16.73643], [-50.19483, -16.73544], [-50.19503, -16.73504], [-50.19598, -16.7342], [-50.19641, -16.73351], [-50.19711, -16.73337], [-50.19812, -16.73378], [-50.19855, -16.73368], [-50.19916, -16.73252], [-50.20014, -16.73207], [-50.20053, -16.73206], [-50.2012, -16.73172], [-50.20159, -16.73133], [-50.20163, -16.7307], [-50.20225, -16.73023], [-50.20255, -16.72903], [-50.20303, -16.72852], [-50.20274, -16.72692], [-50.20367, -16.72629], [-50.20407, -16.72539], [-50.20356, -16.72351], [-50.20372, -16.72274], [-50.20353, -16.72232], [-50.20367, -16.72184], [-50.20383, -16.72146], [-50.20434, -16.72136], [-50.20469, -16.72074], [-50.20537, -16.71885], [-50.20581, -16.71866], [-50.20667, -16.71746], [-50.20778, -16.71667], [-50.20821, -16.71575], [-50.20814, -16.71559], [-50.2076, -16.71551], [-50.20763, -16.71536], [-50.20861, -16.71483], [-50.20934, -16.71391], [-50.21003, -16.71378], [-50.21045, -16.71302], [-50.21071, -16.7129], [-50.21122, -16.71303], [-50.21171, -16.71368], [-50.21206, -16.71384], [-50.21255, -16.71379], [-50.21315, -16.71337], [-50.21415, -16.71311], [-50.21525, -16.71312], [-50.21594, -16.71264], [-50.2163, -16.71204], [-50.21701, -16.7122], [-50.21734, -16.71178], [-50.21694, -16.71116], [-50.21712, -16.71095], [-50.21712, -16.71052], [-50.21742, -16.71042], [-50.21735, -16.71013], [-50.21806, -16.70977], [-50.21866, -16.70979], [-50.21866, -16.70911], [-50.21884, -16.70871], [-50.21826, -16.70847], [-50.21635, -16.7081], [-50.21534, -16.70705], [-50.21488, -16.70587], [-50.21415, -16.70469], [-50.21337, -16.70274], [-50.20723, -16.70075], [-50.20123, -16.69835], [-50.1976, -16.69286], [-50.19423, -16.68585], [-50.18581, -16.68291], [-50.17554, -16.68329], [-50.16631, -16.68403], [-50.15898, -16.68625], [-50.15465, -16.6811], [-50.14998, -16.67957], [-50.15876, -16.71948], [-50.11087, -16.79639]]]}}, 
{"type": "Feature", "properties": {"CD_SETOR": "521590005000006", "CD_SIT": "8", "NM_DIST": "Palminópolis", "NM_SUBDIST": null}, "geometry": {"type": "Polygon", "coordinates": [[[-50.11083, -16.79645], [-50.11059, -16.79683], [-50.10746, -16.82978], [-50.11436, -16.8269], [-50.12089, -16.82883], [-50.12175, -16.82894], [-50.12255, -16.82875], [-50.12499, -16.83436], [-50.12621, -16.8367], [-50.12626, -16.83696], [-50.12555, -16.83956], [-50.12774, -16.83989], [-50.12825, -16.8404], [-50.12861, -16.84114], [-50.12959, -16.84177], [-50.1299, -16.8433], [-50.1306, -16.84393], [-50.13192, -16.84563], [-50.13242, -16.846], [-50.13282, -16.84746], [-50.13371, -16.84741], [-50.13449, -16.84773], [-50.13524, -16.84773], [-50.13561, -16.84809], [-50.13634, -16.84814], [-50.13666, -16.84835], [-50.13711, -16.84831], [-50.13783, -16.84899], [-50.13827, -16.84903], [-50.139, -16.84941], [-50.13926, -16.84981], [-50.14114, -16.8504], [-50.1415, -16.8507], [-50.1417, -16.85145], [-50.14346, -16.85269], [-50.1437, -16.85258], [-50.14592, -16.8531], [-50.14651, -16.85238], [-50.14753, -16.85219], [-50.1484, -16.85164], [-50.14882, -16.85153], [-50.14928, -16.85164], [-50.14964, -16.85186], [-50.14973, -16.85211], [-50.15102, -16.85269], [-50.15179, -16.85361], [-50.15189, -16.85413], [-50.15262, -16.85471], [-50.15267, -16.85494], [-50.15324, -16.85502], [-50.15338, -16.85482], [-50.15368, -16.85503], [-50.154, -16.85497], [-50.15513, -16.85599], [-50.15773, -16.8571], [-50.15959, -16.85674], [-50.16095, -16.85706], [-50.1619, -16.85765], [-50.16303, -16.85875], [-50.16383, -16.86018], [-50.16443, -16.8603], [-50.16507, -16.85999], [-50.16704, -16.86052], [-50.16757, -16.86097], [-50.16785, -16.86162], [-50.17013, -16.86279], [-50.17043, -16.86277], [-50.17141, -16.86192], [-50.17206, -16.8616], [-50.17292, -16.86179], [-50.17357, -16.86222], [-50.17357, -16.86179], [-50.17391, -16.86165], [-50.17409, -16.86171], [-50.17426, -16.86247], [-50.17473, -16.86271], [-50.17548, -16.86278], [-50.17559, -16.8631], [-50.17609, -16.86299], [-50.17628, -16.86325], [-50.17627, -16.86358], [-50.17683, -16.86306], [-50.1771, -16.86334], [-50.17708, -16.86299], [-50.17732, -16.86318], [-50.17764, -16.86297], [-50.17776, -16.86327], [-50.17801, -16.86316], [-50.17792, -16.86294], [-50.17831, -16.86295], [-50.1783, -16.86335], [-50.17906, -16.86348], [-50.17945, -16.86307], [-50.17972, -16.86304], [-50.17969, -16.8637], [-50.18003, -16.86416], [-50.18053, -16.86434], [-50.18196, -16.86391], [-50.18295, -16.86392], [-50.1845, -16.86501], [-50.18538, -16.86499], [-50.18601, -16.86561], [-50.18626, -16.86564], [-50.18792, -16.86469], [-50.18881, -16.86456], [-50.18861, -16.86411], [-50.18885, -16.86399], [-50.18948, -16.86447], [-50.19001, -16.86447], [-50.19016, -16.86473], [-50.19146, -16.8648], [-50.19168, -16.86544], [-50.19189, -16.86562], [-50.19311, -16.8661], [-50.19357, -16.8661], [-50.1939, -16.86583], [-50.19459, -16.86593], [-50.19504, -16.86574], [-50.19534, -16.86544], [-50.1956, -16.86458], [-50.19575, -16.86454], [-50.1962, -16.86457], [-50.19648, -16.86483], [-50.19712, -16.86498], [-50.19832, -16.86443], [-50.19866, -16.86456], [-50.19917, -16.86514], [-50.2006, -16.86487], [-50.20093, -16.86537], [-50.20157, -16.86563], [-50.20177, -16.86587], [-50.20232, -16.86552], [-50.20215, -16.86479], [-50.2023, -16.86459], [-50.20228, -16.86395], [-50.20252, -16.8635], [-50.20254, -16.863], [-50.2031, -16.86254], [-50.20325, -16.86181], [-50.20377, -16.86143], [-50.20385, -16.86102], [-50.20443, -16.86039], [-50.20484, -16.85845], [-50.20373, -16.85541], [-50.20335, -16.85496], [-50.20321, -16.85424], [-50.2026, -16.85369], [-50.20261, -16.85324], [-50.20208, -16.85244], [-50.20216, -16.85224], [-50.20183, -16.8521], [-50.20135, -16.85143], [-50.201, -16.85151], [-50.20115, -16.85102], [-50.20076, -16.8506], [-50.2003, -16.85058], [-50.20004, -16.85019], [-50.19936, -16.85015], [-50.19934, -16.84992], [-50.19909, -16.84988], [-50.19772, -16.84805], [-50.19807, -16.84711], [-50.19803, -16.84668], [-50.19727, -16.84643], [-50.19718, -16.84594], [-50.19677, -16.84602], [-50.19651, -16.84575], [-50.196, -16.84563], [-50.19568, -16.84471], [-50.19507, -16.8445], [-50.19517, -16.84421], [-50.19478, -16.84377], [-50.19465, -16.84312], [-50.19429, -16.8427], [-50.19386, -16.84296], [-50.19286, -16.8428], [-50.19256, -16.84301], [-50.19206, -16.84261], [-50.19126, -16.84256], [-50.19115, -16.8423], [-50.19076, -16.84215], [-50.19037, -16.84232], [-50.18973, -16.84227], [-50.18881, -16.84168], [-50.18875, -16.84139], [-50.18846, -16.84122], [-50.18826, -16.84079], [-50.18809, -16.83979], [-50.18758, -16.8395], [-50.18761, -16.8387], [-50.18747, -16.8385], [-50.1867, -16.83817], [-50.1853, -16.83671], [-50.18115, -16.83325], [-50.1805, -16.83237], [-50.17803, -16.83103], [-50.17694, -16.83074], [-50.17625, -16.83085], [-50.1754, -16.82948], [-50.17502, -16.82837], [-50.17416, -16.82757], [-50.17289, -16.82659], [-50.17012, -16.82548], [-50.17056, -16.82422], [-50.17021, -16.81959], [-50.16811, -16.81257], [-50.16629, -16.81085], [-50.1651, -16.8101], [-50.16278, -16.81025], [-50.1634, -16.8047], [-50.16265, -16.80427], [-50.16229, -16.80368], [-50.16132, -16.80321], [-50.16022, -16.80309], [-50.15957, -16.8028], [-50.15808, -16.80287], [-50.15461, -16.80149], [-50.15348, -16.8013], [-50.15341, -16.8011], [-50.15281, -16.8012], [-50.15234, -16.80108], [-50.15214, -16.80099], [-50.15195, -16.80043], [-50.15159, -16.80029], [-50.15117, -16.80065], [-50.14976, -16.80129], [-50.14901, -16.80133], [-50.14843, -16.80166], [-50.14799, -16.80162], [-50.14766, -16.8018], [-50.14745, -16.8017], [-50.14692, -16.80203], [-50.14582, -16.80232], [-50.14503, -16.8023], [-50.14446, -16.80208], [-50.14418, -16.80231], [-50.14298, -16.80211], [-50.14157, -16.80221], [-50.14005, -16.80262], [-50.13713, -16.80261], [-50.13635, -16.80238], [-50.13544, -16.80146], [-50.13526, -16.80004], [-50.13547, -16.79757], [-50.13515, -16.79689], [-50.1348, -16.79654], [-50.13331, -16.79584], [-50.13148, -16.79713], [-50.13008, -16.79776], [-50.12888, -16.79804], [-50.12057, -16.7974], [-50.11304, -16.79704], [-50.11183, -16.79683], [-50.11083, -16.79645]]]}}, 
{"type": "Feature", "properties": {"CD_SETOR": "521590005000007", "CD_SIT": "8", "NM_DIST": "Palminópolis", "NM_SUBDIST": null}, "geometry": {"type": "Polygon", "coordinates": [[[-50.10746, -16.82978], [-50.10137, -16.89365], [-50.10368, -16.89699], [-50.11376, -16.89998], [-50.12054, -16.89986], [-50.12779, -16.90225], [-50.1319, -16.90502], [-50.1351, -16.90943], [-50.14021, -16.9126], [-50.14492, -16.9111], [-50.15102, -16.91158], [-50.15543, -16.91363], [-50.15405, -16.91722], [-50.14496, -16.9209], [-50.14379, -16.924], [-50.14357, -16.92826], [-50.14373, -16.93237], [-50.14471, -16.93311], [-50.14543, -16.93447], [-50.14673, -16.9362], [-50.14782, -16.93734], [-50.14985, -16.93816], [-50.15116, -16.93844], [-50.15304, -16.93917], [-50.15507, -16.9395], [-50.15629, -16.9395], [-50.15824, -16.93837], [-50.15946, -16.93806], [-50.1612, -16.93684], [-50.16215, -16.93657], [-50.16404, -16.93563], [-50.1654, -16.93533], [-50.16657, -16.93484], [-50.17141, -16.9344], [-50.17243, -16.93379], [-50.17371, -16.93366], [-50.17513, -16.9338], [-50.17623, -16.93344], [-50.17701, -16.93276], [-50.17951, -16.92982], [-50.18045, -16.92901], [-50.18154, -16.9287], [-50.18288, -16.92802], [-50.18357, -16.9273], [-50.18412, -16.92621], [-50.18613, -16.92332], [-50.1881, -16.92133], [-50.19037, -16.92003], [-50.19157, -16.91957], [-50.1936, -16.91917], [-50.19863, -16.91934], [-50.19996, -16.91982], [-50.20351, -16.92056], [-50.2052, -16.92059], [-50.20876, -16.92099], [-50.20984, -16.92176], [-50.21046, -16.92249], [-50.21156, -16.92267], [-50.21365, -16.92206], [-50.21582, -16.92015], [-50.21729, -16.91947], [-50.21857, -16.9192], [-50.21954, -16.9188], [-50.22082, -16.91726], [-50.22123, -16.91628], [-50.22238, -16.91443], [-50.22479, -16.91153], [-50.22787, -16.909], [-50.22899, -16.90878], [-50.23135, -16.90931], [-50.23234, -16.90895], [-50.23391, -16.90771], [-50.23537, -16.90712], [-50.23768, -16.90659], [-50.24135, -16.90691], [-50.24351, -16.90615], [-50.24443, -16.90547], [-50.24571, -16.90493], [-50.24651, -16.90425], [-50.24863, -16.90299], [-50.24985, -16.90249], [-50.25085, -16.90247], [-50.25193, -16.90218], [-50.25296, -16.90169], [-50.25443, -16.90131], [-50.25552, -16.90067], [-50.25627, -16.90008], [-50.25673, -16.89897], [-50.25823, -16.89654], [-50.25948, -16.89567], [-50.26052, -16.89427], [-50.26234, -16.89301], [-50.26434, -16.89446], [-50.26465, -16.89381], [-50.26469, -16.89344], [-50.26405, -16.89259], [-50.26381, -16.89144], [-50.26339, -16.89048], [-50.26278, -16.88995], [-50.26236, -16.88986], [-50.26181, -16.88949], [-50.26145, -16.88871], [-50.26051, -16.88803], [-50.26028, -16.88803], [-50.25998, -16.88834], [-50.25961, -16.88837], [-50.25898, -16.88757], [-50.25761, -16.88721], [-50.2577, -16.88688], [-50.25808, -16.88663], [-50.25808, -16.88646], [-50.25785, -16.88625], [-50.2579, -16.88579], [-50.25771, -16.88562], [-50.25762, -16.88515], [-50.25758, -16.88459], [-50.25775, -16.88443], [-50.25743, -16.88402], [-50.25744, -16.88316], [-50.25726, -16.88271], [-50.25728, -16.88026], [-50.25635, -16.87946], [-50.25593, -16.8797], [-50.25601, -16.8792], [-50.25551, -16.87929], [-50.25551, -16.87908], [-50.25437, -16.87871], [-50.2543, -16.87835], [-50.25412, -16.87827], [-50.25285, -16.878], [-50.25253, -16.8777], [-50.25223, -16.87785], [-50.25188, -16.8778], [-50.25168, -16.87745], [-50.25133, -16.8775], [-50.25118, -16.87773], [-50.25087, -16.87773], [-50.25093, -16.87737], [-50.25028, -16.87765], [-50.25004, -16.87736], [-50.24939, -16.87728], [-50.24834, -16.87738], [-50.24839, -16.87795], [-50.24767, -16.87797], [-50.24743, -16.87811], [-50.2473, -16.87748], [-50.24684, -16.87743], [-50.24665, -16.87768], [-50.24645, -16.87716], [-50.24603, -16.87716], [-50.24586, -16.87663], [-50.24502, -16.87642], [-50.24511, -16.87609], [-50.24457, -16.87646], [-50.24388, -16.87647], [-50.24372, -16.8767], [-50.24316, -16.87647], [-50.24264, -16.87653], [-50.2422, -16.87529], [-50.24162, -16.87515], [-50.24142, -16.87482], [-50.24116, -16.8748], [-50.24138, -16.87446], [-50.24129, -16.87435], [-50.24086, -16.87462], [-50.24058, -16.87439], [-50.23985, -16.87434], [-50.24, -16.874], [-50.23987, -16.87386], [-50.23963, -16.87384], [-50.23939, -16.87413], [-50.23904, -16.87383], [-50.23832, -16.87361], [-50.23753, -16.87371], [-50.23755, -16.87356], [-50.23698, -16.87326], [-50.23655, -16.8735], [-50.23647, -16.87321], [-50.23619, -16.87319], [-50.23613, -16.87347], [-50.23572, -16.87338], [-50.23548, -16.87359], [-50.23559, -16.87383], [-50.23528, -16.87396], [-50.2354, -16.87418], [-50.23493, -16.87409], [-50.23511, -16.87445], [-50.23483, -16.8746], [-50.2349, -16.8749], [-50.23472, -16.87475], [-50.23449, -16.8749], [-50.23413, -16.87479], [-50.23388, -16.87529], [-50.23365, -16.87512], [-50.23331, -16.87571], [-50.23301, -16.87569], [-50.23269, -16.87593], [-50.23265, -16.87604], [-50.23292, -16.87611], [-50.23274, -16.87643], [-50.23327, -16.87638], [-50.23332, -16.87658], [-50.23314, -16.877], [-50.23274, -16.877], [-50.23285, -16.87733], [-50.23269, -16.8774], [-50.23268, -16.87794], [-50.23238, -16.87782], [-50.23226, -16.87808], [-50.23252, -16.87839], [-50.23182, -16.8788], [-50.23173, -16.8794], [-50.23113, -16.87935], [-50.23049, -16.8798], [-50.23006, -16.87964], [-50.22964, -16.88015], [-50.22929, -16.88026], [-50.22907, -16.88017], [-50.22905, -16.87994], [-50.22817, -16.87967], [-50.22736, -16.88029], [-50.22603, -16.88071], [-50.2259, -16.88115], [-50.22536, -16.88155], [-50.22524, -16.88146], [-50.22533, -16.88109], [-50.22507, -16.88149], [-50.22481, -16.88155], [-50.22367, -16.88077], [-50.22366, -16.8779], [-50.22297, -16.87742], [-50.22152, -16.87581], [-50.21948, -16.87421], [-50.21868, -16.87335], [-50.21754, -16.87274], [-50.21637, -16.87238], [-50.21459, -16.87231], [-50.21418, -16.87179], [-50.21396, -16.87176], [-50.21332, -16.87228], [-50.21303, -16.87219], [-50.21213, -16.87134], [-50.21187, -16.87151], [-50.21185, -16.87209], [-50.21168, -16.87235], [-50.2114, -16.87237], [-50.21073, -16.87179], [-50.21038, -16.87169], [-50.21021, -16.8712], [-50.20993, -16.8712], [-50.20999, -16.87094], [-50.20978, -16.87051], [-50.20895, -16.86961], [-50.20825, -16.86923], [-50.20832, -16.86899], [-50.20784, -16.86872], [-50.20745, -16.86874], [-50.20701, -16.86833], [-50.20686, -16.86743], [-50.20639, -16.86736], [-50.20558, -16.86807], [-50.20479, -16.86797], [-50.20471, -16.86813], [-50.20469, -16.86769], [-50.20437, -16.86759], [-50.20427, -16.86791], [-50.20411, -16.8677], [-50.20377, -16.86784], [-50.20304, -16.86703], [-50.20296, -16.86718], [-50.20267, -16.86718], [-50.20238, -16.86693], [-50.20188, -16.86696], [-50.20196, -16.86668], [-50.2017, -16.86653], [-50.20174, -16.86581], [-50.20093, -16.86537], [-50.2006, -16.86487], [-50.19945, -16.86517], [-50.19917, -16.86514], [-50.19866, -16.86456], [-50.19832, -16.86443], [-50.19712, -16.86498], [-50.19648, -16.86483], [-50.1962, -16.86457], [-50.19575, -16.86454], [-50.1956, -16.86458], [-50.19534, -16.86544], [-50.19504, -16.86574], [-50.19459, -16.86593], [-50.1939, -16.86583], [-50.19357, -16.8661], [-50.19311, -16.8661], [-50.19189, -16.86562], [-50.19168, -16.86544], [-50.19146, -16.8648], [-50.19016, -16.86473], [-50.19001, -16.86447], [-50.18948, -16.86447], [-50.18885, -16.86399], [-50.18861, -16.86411], [-50.18881, -16.86456], [-50.18792, -16.86469], [-50.18626, -16.86564], [-50.18601, -16.86561], [-50.18538, -16.86499], [-50.1845, -16.86501], [-50.18295, -16.86392], [-50.18196, -16.86391], [-50.18053, -16.86434], [-50.18003, -16.86416], [-50.17969, -16.8637], [-50.17972, -16.86304], [-50.17945, -16.86307], [-50.17906, -16.86348], [-50.1783, -16.86335], [-50.17831, -16.86295], [-50.17792, -16.86294], [-50.17801, -16.86316], [-50.17776, -16.86327], [-50.17764, -16.86297], [-50.17732, -16.86318], [-50.17708, -16.86299], [-50.1771, -16.86334], [-50.17683, -16.86306], [-50.17627, -16.86358], [-50.17628, -16.86325], [-50.17609, -16.86299], [-50.17559, -16.8631], [-50.17548, -16.86278], [-50.17473, -16.86271], [-50.17426, -16.86247], [-50.17409, -16.86171], [-50.17391, -16.86165], [-50.17357, -16.86179], [-50.17357, -16.86222], [-50.17292, -16.86179], [-50.17206, -16.8616], [-50.17141, -16.86192], [-50.17043, -16.86277], [-50.17013, -16.86279], [-50.16785, -16.86162], [-50.16757, -16.86097], [-50.16704, -16.86052], [-50.16507, -16.85999], [-50.16443, -16.8603], [-50.16383, -16.86018], [-50.16303, -16.85875], [-50.1619, -16.85765], [-50.16095, -16.85706], [-50.15959, -16.85674], [-50.15773, -16.8571], [-50.15513, -16.85599], [-50.154, -16.85497], [-50.15368, -16.85503], [-50.15338, -16.85482], [-50.15324, -16.85502], [-50.15267, -16.85494], [-50.15262, -16.85471], [-50.15189, -16.85413], [-50.15179, -16.85361], [-50.15102, -16.85269], [-50.14973, -16.85211], [-50.14964, -16.85186], [-50.14928, -16.85164], [-50.14882, -16.85153], [-50.1484, -16.85164], [-50.14753, -16.85219], [-50.14651, -16.85238], [-50.14592, -16.8531], [-50.1437, -16.85258], [-50.14346, -16.85269], [-50.1417, -16.85145], [-50.1415, -16.8507], [-50.14114, -16.8504], [-50.13926, -16.84981], [-50.139, -16.84941], [-50.13827, -16.84903], [-50.13783, -16.84899], [-50.13711, -16.84831], [-50.13666, -16.84835], [-50.13634, -16.84814], [-50.13561, -16.84809], [-50.13524, -16.84773], [-50.13449, -16.84773], [-50.13371, -16.84741], [-50.13282, -16.84746], [-50.13242, -16.846], [-50.13192, -16.84563], [-50.1306, -16.84393], [-50.1299, -16.8433], [-50.12959, -16.84177], [-50.12861, -16.84114], [-50.12825, -16.8404], [-50.12774, -16.83989], [-50.12555, -16.83956], [-50.12626, -16.83696], [-50.12621, -16.8367], [-50.12499, -16.83436], [-50.12255, -16.82875], [-50.12175, -16.82894], [-50.12089, -16.82883], [-50.11436, -16.8269], [-50.10746, -16.82978]]]}}, 
{"type": "Feature", "properties": {"CD_SETOR": "521590005000008", "CD_SIT": "8", "NM_DIST": "Palminópolis", "NM_SUBDIST": null}, "geometry": {"type": "Polygon", "coordinates": [[[-50.17236, -16.8058], [-50.1715, -16.80594], [-50.17067, -16.80558], [-50.17029, -16.80565], [-50.16968, -16.80647], [-50.16921, -16.80661], [-50.16893, -16.80594], [-50.16814, -16.80566], [-50.16783, -16.80572], [-50.16759, -16.8054], [-50.16704, -16.80535], [-50.16687, -16.805], [-50.16616, -16.80521], [-50.16512, -16.80489], [-50.16393, -16.80499], [-50.1634, -16.8047], [-50.16278, -16.81025], [-50.1651, -16.8101], [-50.16629, -16.81085], [-50.16811, -16.81257], [-50.17021, -16.81959], [-50.17056, -16.82422], [-50.17012, -16.82548], [-50.17289, -16.82659], [-50.17416, -16.82757], [-50.17502, -16.82837], [-50.1754, -16.82948], [-50.17625, -16.83085], [-50.17694, -16.83074], [-50.17803, -16.83103], [-50.1805, -16.83237], [-50.18115, -16.83325], [-50.1853, -16.83671], [-50.1867, -16.83817], [-50.18747, -16.8385], [-50.18761, -16.8387], [-50.18758, -16.8395], [-50.18809, -16.83979], [-50.18826, -16.84079], [-50.18846, -16.84122], [-50.18875, -16.84139], [-50.18881, -16.84168], [-50.18973, -16.84227], [-50.19037, -16.84232], [-50.19076, -16.84215], [-50.19115, -16.8423], [-50.19126, -16.84256], [-50.19206, -16.84261], [-50.19256, -16.84301], [-50.19286, -16.8428], [-50.19386, -16.84296], [-50.19429, -16.8427], [-50.19465, -16.84312], [-50.19478, -16.84377], [-50.19517, -16.84421], [-50.19507, -16.8445], [-50.19568, -16.84471], [-50.196, -16.84563], [-50.19651, -16.84575], [-50.19677, -16.84602], [-50.19718, -16.84594], [-50.19727, -16.84643], [-50.19803, -16.84668], [-50.19807, -16.84711], [-50.19772, -16.84805], [-50.19781, -16.84825], [-50.198, -16.84826], [-50.19909, -16.84988], [-50.19934, -16.84992], [-50.19936, -16.85015], [-50.19994, -16.85014], [-50.20022, -16.85054], [-50.20076, -16.8506], [-50.20115, -16.85102], [-50.201, -16.85151], [-50.20135, -16.85143], [-50.20183, -16.8521], [-50.20216, -16.85224], [-50.20208, -16.85244], [-50.20261, -16.85324], [-50.2026, -16.85369], [-50.20321, -16.85424], [-50.20327, -16.85477], [-50.20373, -16.85541], [-50.20482, -16.85818], [-50.20471, -16.85945], [-50.20443, -16.86039], [-50.20385, -16.86102], [-50.20377, -16.86143], [-50.20325, -16.86181], [-50.2031, -16.86254], [-50.20254, -16.863], [-50.20252, -16.8635], [-50.20228, -16.86395], [-50.2023, -16.86459], [-50.20215, -16.86479], [-50.20232, -16.86552], [-50.20181, -16.86582], [-50.20167, -16.86611], [-50.2017, -16.86653], [-50.20196, -16.86668], [-50.20188, -16.86696], [-50.20238, -16.86693], [-50.20267, -16.86718], [-50.20296, -16.86718], [-50.20304, -16.86703], [-50.20377, -16.86784], [-50.20411, -16.8677], [-50.20427, -16.86791], [-50.20433, -16.86761], [-50.20467, -16.86767], [-50.20471, -16.86813], [-50.20479, -16.86797], [-50.20558, -16.86807], [-50.20639, -16.86736], [-50.20686, -16.86743], [-50.20701, -16.86833], [-50.20745, -16.86874], [-50.20784, -16.86872], [-50.20832, -16.86899], [-50.20825, -16.86923], [-50.20895, -16.86961], [-50.20978, -16.87051], [-50.20999, -16.87094], [-50.20993, -16.8712], [-50.21021, -16.8712], [-50.21038, -16.87169], [-50.21073, -16.87179], [-50.2114, -16.87237], [-50.21168, -16.87235], [-50.21185, -16.87209], [-50.21187, -16.87151], [-50.21213, -16.87134], [-50.21303, -16.87219], [-50.21332, -16.87228], [-50.21396, -16.87176], [-50.21418, -16.87179], [-50.21459, -16.87231], [-50.21637, -16.87238], [-50.21754, -16.87274], [-50.21868, -16.87335], [-50.21948, -16.87421], [-50.22152, -16.87581], [-50.22297, -16.87742], [-50.22366, -16.8779], [-50.22367, -16.88077], [-50.22481, -16.88155], [-50.22507, -16.88149], [-50.22533, -16.88109], [-50.22524, -16.88146], [-50.22536, -16.88155], [-50.2259, -16.88115], [-50.22603, -16.88071], [-50.22736, -16.88029], [-50.22817, -16.87967], [-50.22905, -16.87994], [-50.22907, -16.88017], [-50.22929, -16.88026], [-50.22964, -16.88015], [-50.23006, -16.87964], [-50.23049, -16.8798], [-50.23113, -16.87935], [-50.23173, -16.8794], [-50.23182, -16.8788], [-50.23252, -16.87839], [-50.23226, -16.87808], [-50.23238, -16.87782], [-50.23268, -16.87794], [-50.23269, -16.8774], [-50.23285, -16.87733], [-50.23274, -16.877], [-50.23314, -16.877], [-50.23332, -16.87658], [-50.23327, -16.87638], [-50.23274, -16.87643], [-50.23292, -16.87611], [-50.23265, -16.87604], [-50.23269, -16.87593], [-50.23301, -16.87569], [-50.23331, -16.87571], [-50.23365, -16.87512], [-50.23388, -16.87529], [-50.23413, -16.87479], [-50.23449, -16.8749], [-50.23472, -16.87475], [-50.2349, -16.8749], [-50.23483, -16.8746], [-50.23511, -16.87445], [-50.23493, -16.87409], [-50.2354, -16.87418], [-50.23528, -16.87396], [-50.23559, -16.87383], [-50.23548, -16.87359], [-50.23572, -16.87338], [-50.23613, -16.87347], [-50.23619, -16.87319], [-50.23647, -16.87321], [-50.23655, -16.8735], [-50.23698, -16.87326], [-50.23755, -16.87356], [-50.23753, -16.87371], [-50.23832, -16.87361], [-50.23904, -16.87383], [-50.23939, -16.87413], [-50.23963, -16.87384], [-50.23987, -16.87386], [-50.24, -16.874], [-50.23985, -16.87434], [-50.24058, -16.87439], [-50.24086, -16.87462], [-50.24129, -16.87435], [-50.24138, -16.87446], [-50.24116, -16.8748], [-50.24142, -16.87482], [-50.24162, -16.87515], [-50.2422, -16.87529], [-50.24264, -16.87653], [-50.24316, -16.87647], [-50.24372, -16.8767], [-50.24388, -16.87647], [-50.24457, -16.87646], [-50.24511, -16.87609], [-50.24502, -16.87642], [-50.24586, -16.87663], [-50.24603, -16.87716], [-50.24645, -16.87716], [-50.24665, -16.87768], [-50.24684, -16.87743], [-50.2473, -16.87748], [-50.24743, -16.87811], [-50.24767, -16.87797], [-50.24839, -16.87795], [-50.24834, -16.87738], [-50.24939, -16.87728], [-50.25004, -16.87736], [-50.25028, -16.87765], [-50.25093, -16.87737], [-50.25087, -16.87773], [-50.25118, -16.87773], [-50.25133, -16.8775], [-50.25168, -16.87745], [-50.25188, -16.8778], [-50.25223, -16.87785], [-50.25253, -16.8777], [-50.25285, -16.878], [-50.25412, -16.87827], [-50.2543, -16.87835], [-50.25437, -16.87871], [-50.25551, -16.87908], [-50.25551, -16.87929], [-50.25601, -16.8792], [-50.25593, -16.8797], [-50.25635, -16.87946], [-50.25728, -16.88026], [-50.25726, -16.88271], [-50.25744, -16.88316], [-50.25743, -16.88402], [-50.25775, -16.88443], [-50.25758, -16.88459], [-50.25762, -16.88515], [-50.25771, -16.88562], [-50.2579, -16.88579], [-50.25785, -16.88625], [-50.25808, -16.88646], [-50.25808, -16.88663], [-50.2577, -16.88688], [-50.25761, -16.88721], [-50.25898, -16.88757], [-50.25961, -16.88837], [-50.25998, -16.88834], [-50.26028, -16.88803], [-50.26051, -16.88803], [-50.26145, -16.88871], [-50.26181, -16.88949], [-50.26236, -16.88986], [-50.26278, -16.88995], [-50.26358, -16.89079], [-50.26405, -16.89259], [-50.26469, -16.89344], [-50.26434, -16.89446], [-50.26816, -16.89615], [-50.26971, -16.89752], [-50.27035, -16.89838], [-50.2714, -16.89829], [-50.27282, -16.89689], [-50.27376, -16.8966], [-50.27629, -16.89926], [-50.27729, -16.89955], [-50.27832, -16.89899], [-50.28016, -16.89736], [-50.28079, -16.8965], [-50.28362, -16.8958], [-50.28374, -16.89393], [-50.28334, -16.89187], [-50.28357, -16.89098], [-50.28454, -16.88976], [-50.28391, -16.88848], [-50.28398, -16.88748], [-50.28381, -16.88653], [-50.28404, -16.88558], [-50.28518, -16.88522], [-50.28726, -16.88491], [-50.28808, -16.88424], [-50.28807, -16.88319], [-50.28746, -16.88229], [-50.28581, -16.88119], [-50.2844, -16.87942], [-50.28401, -16.87837], [-50.28412, -16.87691], [-50.28446, -16.87543], [-50.28504, -16.87461], [-50.28595, -16.87217], [-50.28644, -16.8702], [-50.28776, -16.86693], [-50.28879, -16.8669], [-50.28927, -16.86893], [-50.29031, -16.86857], [-50.29107, -16.8693], [-50.29215, -16.86976], [-50.29232, -16.86881], [-50.29215, -16.86776], [-50.29163, -16.86658], [-50.29182, -16.86554], [-50.2926, -16.8645], [-50.29293, -16.86351], [-50.29254, -16.86251], [-50.29118, -16.8625], [-50.29024, -16.86141], [-50.29099, -16.86064], [-50.29246, -16.86044], [-50.29393, -16.85988], [-50.29404, -16.85874], [-50.29476, -16.85805], [-50.29574, -16.85843], [-50.29574, -16.85942], [-50.29668, -16.86038], [-50.29729, -16.85832], [-50.29821, -16.85798], [-50.29929, -16.85798], [-50.30018, -16.85835], [-50.30051, -16.85957], [-50.30129, -16.86007], [-50.30207, -16.85822], [-50.30227, -16.85731], [-50.30232, -16.85528], [-50.30135, -16.85491], [-50.30082, -16.85287], [-50.29995, -16.85205], [-50.29896, -16.85223], [-50.29785, -16.85199], [-50.29829, -16.84992], [-50.29776, -16.8486], [-50.29623, -16.84724], [-50.29673, -16.84642], [-50.29593, -16.84446], [-50.29576, -16.84329], [-50.29615, -16.84229], [-50.29809, -16.84161], [-50.29887, -16.84084], [-50.29877, -16.83976], [-50.29776, -16.83939], [-50.29651, -16.83943], [-50.29551, -16.83925], [-50.29526, -16.83834], [-50.29549, -16.83717], [-50.29707, -16.83603], [-50.29707, -16.83508], [-50.29626, -16.83449], [-50.2951, -16.83449], [-50.29504, -16.83349], [-50.29585, -16.83264], [-50.29618, -16.83149], [-50.2953, -16.83114], [-50.29515, -16.83018], [-50.29554, -16.82918], [-50.29649, -16.82842], [-50.29746, -16.82846], [-50.29866, -16.82672], [-50.30021, -16.82512], [-50.30054, -16.82412], [-50.29985, -16.82237], [-50.29824, -16.82064], [-50.2971, -16.8191], [-50.29632, -16.8186], [-50.29524, -16.8183], [-50.29423, -16.8183], [-50.29296, -16.818], [-50.29282, -16.81691], [-50.29298, -16.81501], [-50.2924, -16.81251], [-50.28918, -16.80973], [-50.28757, -16.80788], [-50.28663, -16.80715], [-50.28524, -16.80701], [-50.28498, -16.808], [-50.28515, -16.80941], [-50.28496, -16.81059], [-50.28335, -16.81017], [-50.28212, -16.80849], [-50.28141, -16.80632], [-50.28126, -16.80532], [-50.28071, -16.80427], [-50.28065, -16.80332], [-50.28256, -16.80223], [-50.28085, -16.80146], [-50.27982, -16.79851], [-50.27898, -16.7976], [-50.27812, -16.7972], [-50.27473, -16.79841], [-50.27318, -16.79826], [-50.27332, -16.79605], [-50.27257, -16.79505], [-50.27154, -16.79525], [-50.27051, -16.79477], [-50.26943, -16.79363], [-50.26876, -16.79246], [-50.26877, -16.79132], [-50.26915, -16.79023], [-50.26948, -16.78788], [-50.26907, -16.78592], [-50.26807, -16.78524], [-50.26824, -16.78429], [-50.26766, -16.78338], [-50.2669, -16.7827], [-50.26626, -16.78138], [-50.26506, -16.77993], [-50.26215, -16.77973], [-50.26201, -16.77772], [-50.26172, -16.77643], [-50.26127, -16.7759], [-50.25941, -16.77736], [-50.259, -16.77747], [-50.25859, -16.77733], [-50.25811, -16.77685], [-50.25781, -16.77747], [-50.25749, -16.77773], [-50.25728, -16.7777], [-50.2568, -16.77662], [-50.25643, -16.77645], [-50.25611, -16.77653], [-50.25461, -16.77861], [-50.25445, -16.77958], [-50.25477, -16.78077], [-50.2545, -16.78087], [-50.2522, -16.78043], [-50.25132, -16.77989], [-50.2497, -16.78029], [-50.24925, -16.78016], [-50.24712, -16.77838], [-50.24686, -16.7779], [-50.24582, -16.77726], [-50.24549, -16.77685], [-50.24536, -16.7763], [-50.24499, -16.77591], [-50.24433, -16.77578], [-50.24294, -16.77613], [-50.24202, -16.77588], [-50.24143, -16.77616], [-50.24024, -16.77827], [-50.24019, -16.77852], [-50.2405, -16.77925], [-50.24047, -16.77972], [-50.24068, -16.77995], [-50.2408, -16.7806], [-50.24136, -16.78115], [-50.24119, -16.78151], [-50.24171, -16.78182], [-50.24181, -16.78298], [-50.24202, -16.78321], [-50.2427, -16.78297], [-50.24346, -16.78308], [-50.24348, -16.78361], [-50.2425, -16.78414], [-50.24215, -16.78582], [-50.24178, -16.78638], [-50.24096, -16.78679], [-50.2394, -16.78815], [-50.23852, -16.78974], [-50.23786, -16.7906], [-50.23753, -16.79167], [-50.23706, -16.79214], [-50.23584, -16.79148], [-50.23542, -16.79173], [-50.23551, -16.79195], [-50.23519, -16.79216], [-50.23504, -16.79205], [-50.23474, -16.79225], [-50.2341, -16.79228], [-50.23372, -16.79195], [-50.23341, -16.79223], [-50.23301, -16.79229], [-50.23261, -16.7921], [-50.23203, -16.79209], [-50.23158, -16.79173], [-50.23091, -16.79152], [-50.23066, -16.79172], [-50.22989, -16.79142], [-50.22867, -16.7915], [-50.2284, -16.79129], [-50.22801, -16.79127], [-50.22787, -16.79096], [-50.22779, -16.7911], [-50.22733, -16.79095], [-50.22661, -16.79051], [-50.22631, -16.79064], [-50.2262, -16.79049], [-50.22583, -16.79045], [-50.2256, -16.7906], [-50.22527, -16.79039], [-50.22462, -16.7905], [-50.22427, -16.79025], [-50.22288, -16.78998], [-50.2218, -16.79009], [-50.22073, -16.79042], [-50.22035, -16.79036], [-50.21976, -16.79084], [-50.21825, -16.79039], [-50.21716, -16.79101], [-50.21662, -16.79103], [-50.21532, -16.79088], [-50.21458, -16.79098], [-50.21378, -16.79021], [-50.21348, -16.79043], [-50.21326, -16.79045], [-50.21307, -16.79022], [-50.21294, -16.79045], [-50.21261, -16.79034], [-50.21254, -16.79045], [-50.21223, -16.79014], [-50.21175, -16.79036], [-50.21162, -16.79028], [-50.21144, -16.79051], [-50.2108, -16.7905], [-50.21015, -16.79118], [-50.20959, -16.79087], [-50.20925, -16.79048], [-50.20887, -16.79048], [-50.20845, -16.79019], [-50.2082, -16.79036], [-50.20816, -16.79006], [-50.20754, -16.78953], [-50.20736, -16.78977], [-50.20718, -16.78975], [-50.20688, -16.78949], [-50.20541, -16.78925], [-50.20475, -16.78805], [-50.20469, -16.78715], [-50.20434, -16.78649], [-50.20325, -16.78633], [-50.20225, -16.78661], [-50.20183, -16.78652], [-50.20149, -16.78671], [-50.20143, -16.7872], [-50.20114, -16.78763], [-50.20055, -16.78791], [-50.20024, -16.78835], [-50.19942, -16.78871], [-50.19888, -16.78926], [-50.1986, -16.7898], [-50.1986, -16.79032], [-50.19922, -16.79081], [-50.19912, -16.79124], [-50.19877, -16.79169], [-50.19834, -16.79135], [-50.19836, -16.79196], [-50.19689, -16.79172], [-50.19658, -16.79182], [-50.1964, -16.79225], [-50.19613, -16.79226], [-50.19596, -16.79264], [-50.19513, -16.79338], [-50.19486, -16.79338], [-50.19464, -16.79365], [-50.1942, -16.79355], [-50.19358, -16.79387], [-50.19296, -16.79529], [-50.19275, -16.79533], [-50.19273, -16.79598], [-50.19196, -16.79685], [-50.19159, -16.79671], [-50.19116, -16.79678], [-50.19083, -16.79702], [-50.19067, -16.79744], [-50.19039, -16.7975], [-50.18958, -16.79738], [-50.18904, -16.79748], [-50.18872, -16.79797], [-50.18823, -16.79781], [-50.18781, -16.7981], [-50.1876, -16.79782], [-50.18728, -16.79801], [-50.18697, -16.79796], [-50.18656, -16.79829], [-50.18625, -16.79817], [-50.18562, -16.79833], [-50.18531, -16.79819], [-50.18485, -16.79854], [-50.18471, -16.79918], [-50.1843, -16.79971], [-50.18442, -16.80017], [-50.18427, -16.80034], [-50.184, -16.80046], [-50.18364, -16.80033], [-50.1829, -16.80042], [-50.18113, -16.80085], [-50.18082, -16.80156], [-50.17952, -16.80224], [-50.17918, -16.80325], [-50.1784, -16.80354], [-50.17804, -16.80353], [-50.17742, -16.80309], [-50.1765, -16.80343], [-50.17535, -16.80324], [-50.17509, -16.80365], [-50.17462, -16.80385], [-50.17457, -16.8042], [-50.17408, -16.80473], [-50.17312, -16.80533], [-50.17289, -16.80567], [-50.17236, -16.8058]]]}}, 
{"type": "Feature", "properties": {"CD_SETOR": "521590005000009", "CD_SIT": "1", "NM_DIST": "Palminópolis", "NM_SUBDIST": null}, "geometry": {"type": "Polygon", "coordinates": [[[-50.15941, -16.79761], [-50.15895, -16.79653], [-50.1588, -16.79361], [-50.15891, -16.79272], [-50.15781, -16.79128], [-50.15689, -16.79447], [-50.15312, -16.79345], [-50.15218, -16.79669], [-50.15544, -16.79756], [-50.15608, -16.79748], [-50.1564, -16.79693], [-50.15941, -16.79761]]]}}, 
{"type": "Feature", "properties": {"CD_SETOR": "521590005000010", "CD_SIT": "1", "NM_DIST": "Palminópolis", "NM_SUBDIST": null}, "geometry": {"type": "Polygon", "coordinates": [[[-50.16549, -16.78917], [-50.16566, -16.78892], [-50.16843, -16.78814], [-50.16906, -16.79067], [-50.17161, -16.79004], [-50.17128, -16.78921], [-50.17126, -16.78865], [-50.17359, -16.7875], [-50.17336, -16.78663], [-50.16958, -16.78656], [-50.16739, -16.78567], [-50.16707, -16.78724], [-50.16652, -16.78653], [-50.16391, -16.7849], [-50.16348, -16.78483], [-50.16513, -16.788], [-50.16549, -16.78917]]]}}, 
{"type": "Feature", "properties": {"CD_SETOR": "521590005000011", "CD_SIT": "1", "NM_DIST": "Palminópolis", "NM_SUBDIST": null}, "geometry": {"type": "Polygon", "coordinates": [[[-50.16549, -16.78917], [-50.16542, -16.7936], [-50.16748, -16.79373], [-50.16906, -16.79342], [-50.17041, -16.79266], [-50.17011, -16.79194], [-50.17216, -16.79133], [-50.17161, -16.79004], [-50.16906, -16.79067], [-50.16843, -16.78814], [-50.16566, -16.78892], [-50.16549, -16.78917]]]}}]}