{"type": "FeatureCollection", "features": [
{"type": "Feature", "properties": {"CD_SETOR": "521930805000001", "CD_SIT": "1", "NM_DIST": "Santa Helena de Goiás", "NM_SUBDIST": null}, "geometry": {"type": "Polygon", "coordinates": [[[-50.59599, -17.81195], [-50.5996, -17.81445], [-50.60088, -17.81274], [-50.59726, -17.81023], [-50.59599, -17.81195]]]}}, 
{"type": "Feature", "properties": {"CD_SETOR": "521930805000002", "CD_SIT": "1", "NM_DIST": "Santa Helena de Goiás", "NM_SUBDIST": null}, "geometry": {"type": "Polygon", "coordinates": [[[-50.59425, -17.81656], [-50.59462, -17.81917], [-50.59573, -17.81907], [-50.59648, -17.81865], [-50.59835, -17.81612], [-50.59544, -17.81412], [-50.59413, -17.81576], [-50.59425, -17.81656]]]}}, 
{"type": "Feature", "properties": {"CD_SETOR": "521930805000004", "CD_SIT": "1", "NM_DIST": "Santa Helena de Goiás", "NM_SUBDIST": null}, "geometry": {"type": "Polygon", "coordinates": [[[-50.59835, -17.81612], [-50.60244, -17.81897], [-50.60401, -17.81823], [-50.60372, -17.81725], [-50.5996, -17.81445], [-50.59835, -17.81612]]]}}, 
{"type": "Feature", "properties": {"CD_SETOR": "521930805000005", "CD_SIT": "1", "NM_DIST": "Santa Helena de Goiás", "NM_SUBDIST": null}, "geometry": {"type": "Polygon", "coordinates": [[[-50.60014, -17.81222], [-50.60088, -17.81274], [-50.5996, -17.81445], [-50.60372, -17.81725], [-50.60203, -17.80984], [-50.60014, -17.81222]]]}}, 
{"type": "Feature", "properties": {"CD_SETOR": "521930805000006", "CD_SIT": "1", "NM_DIST": "Santa Helena de Goiás", "NM_SUBDIST": null}, "geometry": {"type": "Polygon", "coordinates": [[[-50.60188, -17.80792], [-50.60097, -17.8083], [-50.59873, -17.81125], [-50.60014, -17.81222], [-50.60203, -17.80984], [-50.602, -17.80942], [-50.60427, -17.80852], [-50.60368, -17.80718], [-50.60188, -17.80792]]]}}, 
{"type": "Feature", "properties": {"CD_SETOR": "521930805000007", "CD_SIT": "1", "NM_DIST": "Santa Helena de Goiás", "NM_SUBDIST": null}, "geometry": {"type": "Polygon", "coordinates": [[[-50.59072, -17.8144], [-50.59105, -17.817], [-50.59425, -17.81656], [-50.59413, -17.81576], [-50.59544, -17.81412], [-50.59473, -17.81363], [-50.59599, -17.81195], [-50.59293, -17.80982], [-50.59255, -17.81062], [-50.5925, -17.81373], [-50.59233, -17.81393], [-50.59072, -17.8144]]]}}, 
{"type": "Feature", "properties": {"CD_SETOR": "521930805000008", "CD_SIT": "1", "NM_DIST": "Santa Helena de Goiás", "NM_SUBDIST": null}, "geometry": {"type": "Polygon", "coordinates": [[[-50.5891, -17.81486], [-50.58749, -17.81534], [-50.58581, -17.815], [-50.58544, -17.81516], [-50.58882, -17.82085], [-50.59138, -17.81954], [-50.59072, -17.8144], [-50.5891, -17.81486]]]}}, 
{"type": "Feature", "properties": {"CD_SETOR": "521930805000009", "CD_SIT": "1", "NM_DIST": "Santa Helena de Goiás", "NM_SUBDIST": null}, "geometry": {"type": "Polygon", "coordinates": [[[-50.58475, -17.81625], [-50.58431, -17.81626], [-50.5837, -17.81595], [-50.58569, -17.81961], [-50.58516, -17.81989], [-50.5865, -17.82211], [-50.58882, -17.82085], [-50.58544, -17.81516], [-50.58475, -17.81625]]]}}, 
{"type": "Feature", "properties": {"CD_SETOR": "521930805000010", "CD_SIT": "1", "NM_DIST": "Santa Helena de Goiás", "NM_SUBDIST": null}, "geometry": {"type": "Polygon", "coordinates": [[[-50.5865, -17.82211], [-50.58744, -17.82366], [-50.58856, -17.82305], [-50.58902, -17.82382], [-50.5902, -17.82317], [-50.58948, -17.82193], [-50.58918, -17.82193], [-50.58899, -17.82175], [-50.58909, -17.8213], [-50.58882, -17.82085], [-50.5865, -17.82211]]]}}, 
{"type": "Feature", "properties": {"CD_SETOR": "521930805000011", "CD_SIT": "1", "NM_DIST": "Santa Helena de Goiás", "NM_SUBDIST": null}, "geometry": {"type": "Polygon", "coordinates": [[[-50.59105, -17.817], [-50.59138, -17.81954], [-50.59462, -17.81917], [-50.59425, -17.81656], [-50.59105, -17.817]]]}}, 
{"type": "Feature", "properties": {"CD_SETOR": "521930805000012", "CD_SIT": "1", "NM_DIST": "Santa Helena de Goiás", "NM_SUBDIST": null}, "geometry": {"type": "Polygon", "coordinates": [[[-50.59138, -17.81954], [-50.58882, -17.82085], [-50.58909, -17.8213], [-50.58899, -17.82175], [-50.58918, -17.82193], [-50.58948, -17.82193], [-50.5902, -17.82317], [-50.59174, -17.82234], [-50.59499, -17.82182], [-50.59462, -17.81917], [-50.59138, -17.81954]]]}}, 
{"type": "Feature", "properties": {"CD_SETOR": "521930805000013", "CD_SIT": "1", "NM_DIST": "Santa Helena de Goiás", "NM_SUBDIST": null}, "geometry": {"type": "Polygon", "coordinates": [[[-50.60401, -17.81823], [-50.6022, -17.81906], [-50.60501, -17.82221], [-50.60934, -17.82052], [-50.60778, -17.81886], [-50.60742, -17.8189], [-50.60746, -17.81854], [-50.60643, -17.81758], [-50.60401, -17.81823]]]}}, 
{"type": "Feature", "properties": {"CD_SETOR": "521930805000014", "CD_SIT": "1", "NM_DIST": "Santa Helena de Goiás", "NM_SUBDIST": null}, "geometry": {"type": "Polygon", "coordinates": [[[-50.60268, -17.81254], [-50.60405, -17.81828], [-50.60696, -17.81742], [-50.60785, -17.81693], [-50.60551, -17.81144], [-50.60268, -17.81254]]]}}, 
{"type": "Feature", "properties": {"CD_SETOR": "521930805000015", "CD_SIT": "1", "NM_DIST": "Santa Helena de Goiás", "NM_SUBDIST": null}, "geometry": {"type": "Polygon", "coordinates": [[[-50.60631, -17.81332], [-50.60785, -17.81693], [-50.61141, -17.81475], [-50.61095, -17.81375], [-50.61119, -17.81366], [-50.61036, -17.81173], [-50.60631, -17.81332]]]}}, 
{"type": "Feature", "properties": {"CD_SETOR": "521930805000016", "CD_SIT": "1", "NM_DIST": "Santa Helena de Goiás", "NM_SUBDIST": null}, "geometry": {"type": "Polygon", "coordinates": [[[-50.61141, -17.81475], [-50.60737, -17.81723], [-50.60647, -17.81751], [-50.60645, -17.81766], [-50.60664, -17.81768], [-50.60746, -17.81854], [-50.60737, -17.81882], [-50.60758, -17.81896], [-50.60781, -17.81878], [-50.61307, -17.81787], [-50.61171, -17.8147], [-50.61141, -17.81475]]]}}, 
{"type": "Feature", "properties": {"CD_SETOR": "521930805000017", "CD_SIT": "1", "NM_DIST": "Santa Helena de Goiás", "NM_SUBDIST": null}, "geometry": {"type": "Polygon", "coordinates": [[[-50.61918, -17.80308], [-50.62158, -17.80722], [-50.62257, -17.8067], [-50.62052, -17.80301], [-50.61918, -17.80308]]]}}, 
{"type": "Feature", "properties": {"CD_SETOR": "521930805000018", "CD_SIT": "1", "NM_DIST": "Santa Helena de Goiás", "NM_SUBDIST": null}, "geometry": {"type": "Polygon", "coordinates": [[[-50.60632, -17.81112], [-50.60551, -17.81144], [-50.60631, -17.81332], [-50.61101, -17.81148], [-50.6099, -17.80972], [-50.60632, -17.81112]]]}}, 
{"type": "Feature", "properties": {"CD_SETOR": "521930805000019", "CD_SIT": "1", "NM_DIST": "Santa Helena de Goiás", "NM_SUBDIST": null}, "geometry": {"type": "Polygon", "coordinates": [[[-50.60546, -17.80913], [-50.60632, -17.81112], [-50.6099, -17.80972], [-50.60871, -17.80784], [-50.60546, -17.80913]]]}}, 
{"type": "Feature", "properties": {"CD_SETOR": "521930805000020", "CD_SIT": "1", "NM_DIST": "Santa Helena de Goiás", "NM_SUBDIST": null}, "geometry": {"type": "Polygon", "coordinates": [[[-50.6045, -17.80685], [-50.60546, -17.80913], [-50.60871, -17.80784], [-50.60812, -17.80692], [-50.6093, -17.80629], [-50.60707, -17.80593], [-50.6045, -17.80685]]]}}, 
{"type": "Feature", "properties": {"CD_SETOR": "521930805000021", "CD_SIT": "1", "NM_DIST": "Santa Helena de Goiás", "NM_SUBDIST": null}, "geometry": {"type": "Polygon", "coordinates": [[[-50.60368, -17.80718], [-50.60427, -17.80852], [-50.602, -17.80942], [-50.60268, -17.81254], [-50.60632, -17.81112], [-50.6045, -17.80685], [-50.60368, -17.80718]]]}}, 
{"type": "Feature", "properties": {"CD_SETOR": "521930805000022", "CD_SIT": "1", "NM_DIST": "Santa Helena de Goiás", "NM_SUBDIST": null}, "geometry": {"type": "Polygon", "coordinates": [[[-50.59694, -17.80756], [-50.59848, -17.80861], [-50.60178, -17.80709], [-50.60188, -17.80792], [-50.6061, -17.80618], [-50.60707, -17.80593], [-50.60786, -17.80606], [-50.60785, -17.80509], [-50.60815, -17.80496], [-50.60801, -17.80448], [-50.60676, -17.8031], [-50.60464, -17.80325], [-50.60418, -17.8041], [-50.60404, -17.80472], [-50.6036, -17.80511], [-50.60194, -17.80512], [-50.59922, -17.80627], [-50.59835, -17.80689], [-50.5978, -17.80702], [-50.59734, -17.80753], [-50.59694, -17.80756]]]}}, 
{"type": "Feature", "properties": {"CD_SETOR": "521930805000023", "CD_SIT": "1", "NM_DIST": "Santa Helena de Goiás", "NM_SUBDIST": null}, "geometry": {"type": "Polygon", "coordinates": [[[-50.59019, -17.80808], [-50.59293, -17.80982], [-50.59364, -17.80882], [-50.59573, -17.80793], [-50.59513, -17.80767], [-50.59157, -17.80504], [-50.59106, -17.80597], [-50.59127, -17.80612], [-50.59018, -17.80759], [-50.5896, -17.80718], [-50.58923, -17.80739], [-50.59019, -17.80808]]]}}, 
{"type": "Feature", "properties": {"CD_SETOR": "521930805000024", "CD_SIT": "1", "NM_DIST": "Santa Helena de Goiás", "NM_SUBDIST": null}, "geometry": {"type": "Polygon", "coordinates": [[[-50.58593, -17.81109], [-50.58855, -17.814], [-50.5891, -17.81486], [-50.59243, -17.81384], [-50.59258, -17.81338], [-50.59255, -17.81062], [-50.59293, -17.80982], [-50.59212, -17.80932], [-50.59199, -17.80953], [-50.58593, -17.81109]]]}}, 
{"type": "Feature", "properties": {"CD_SETOR": "521930805000025", "CD_SIT": "1", "NM_DIST": "Santa Helena de Goiás", "NM_SUBDIST": null}, "geometry": {"type": "Polygon", "coordinates": [[[-50.58465, -17.80949], [-50.58593, -17.81109], [-50.59199, -17.80953], [-50.59212, -17.80932], [-50.59019, -17.80808], [-50.58465, -17.80949]]]}}, 
{"type": "Feature", "properties": {"CD_SETOR": "521930805000028", "CD_SIT": "1", "NM_DIST": "Santa Helena de Goiás", "NM_SUBDIST": null}, "geometry": {"type": "Polygon", "coordinates": [[[-50.58176, -17.81217], [-50.58475, -17.81625], [-50.58489, -17.81617], [-50.5852, -17.81539], [-50.58544, -17.81516], [-50.58341, -17.81173], [-50.58176, -17.81217]]]}}, 
{"type": "Feature", "properties": {"CD_SETOR": "521930805000029", "CD_SIT": "1", "NM_DIST": "Santa Helena de Goiás", "NM_SUBDIST": null}, "geometry": {"type": "Polygon", "coordinates": [[[-50.58046, -17.81597], [-50.58199, -17.81857], [-50.58152, -17.81884], [-50.58191, -17.81949], [-50.58475, -17.81792], [-50.5837, -17.81595], [-50.58196, -17.81547], [-50.58046, -17.81597]]]}}, 
{"type": "Feature", "properties": {"CD_SETOR": "521930805000030", "CD_SIT": "1", "NM_DIST": "Santa Helena de Goiás", "NM_SUBDIST": null}, "geometry": {"type": "Polygon", "coordinates": [[[-50.57868, -17.81702], [-50.58009, -17.81961], [-50.58199, -17.81857], [-50.58046, -17.81597], [-50.58007, -17.81635], [-50.57868, -17.81702]]]}}, 
{"type": "Feature", "properties": {"CD_SETOR": "521930805000031", "CD_SIT": "1", "NM_DIST": "Santa Helena de Goiás", "NM_SUBDIST": null}, "geometry": {"type": "Polygon", "coordinates": [[[-50.57808, -17.81805], [-50.58065, -17.82232], [-50.57701, -17.82425], [-50.57719, -17.82549], [-50.57974, -17.82417], [-50.57961, -17.82394], [-50.58218, -17.82253], [-50.58171, -17.82175], [-50.58147, -17.82188], [-50.57868, -17.81702], [-50.57824, -17.81748], [-50.57808, -17.81805]]]}}, 
{"type": "Feature", "properties": {"CD_SETOR": "521930805000032", "CD_SIT": "1", "NM_DIST": "Santa Helena de Goiás", "NM_SUBDIST": null}, "geometry": {"type": "Polygon", "coordinates": [[[-50.58335, -17.82189], [-50.58647, -17.82717], [-50.58877, -17.82591], [-50.58562, -17.82066], [-50.58335, -17.82189]]]}}, 
{"type": "Feature", "properties": {"CD_SETOR": "521930805000033", "CD_SIT": "1", "NM_DIST": "Santa Helena de Goiás", "NM_SUBDIST": null}, "geometry": {"type": "Polygon", "coordinates": [[[-50.61101, -17.81148], [-50.61036, -17.81173], [-50.61119, -17.81366], [-50.61215, -17.81328], [-50.61737, -17.81036], [-50.61698, -17.80925], [-50.61458, -17.81066], [-50.61427, -17.81052], [-50.61385, -17.80985], [-50.61101, -17.81148]]]}}, 
{"type": "Feature", "properties": {"CD_SETOR": "521930805000036", "CD_SIT": "1", "NM_DIST": "Santa Helena de Goiás", "NM_SUBDIST": null}, "geometry": {"type": "Polygon", "coordinates": [[[-50.59573, -17.80793], [-50.59364, -17.80882], [-50.59293, -17.80982], [-50.59599, -17.81195], [-50.59848, -17.80861], [-50.59693, -17.80756], [-50.59619, -17.8079], [-50.59573, -17.80793]]]}}, 
{"type": "Feature", "properties": {"CD_SETOR": "521930805000037", "CD_SIT": "1", "NM_DIST": "Santa Helena de Goiás", "NM_SUBDIST": null}, "geometry": {"type": "Polygon", "coordinates": [[[-50.58341, -17.81173], [-50.58526, -17.81484], [-50.58612, -17.81479], [-50.58615, -17.81391], [-50.58657, -17.814], [-50.5863, -17.81296], [-50.58585, -17.81308], [-50.58533, -17.81124], [-50.58341, -17.81173]]]}}, 
{"type": "Feature", "properties": {"CD_SETOR": "521930805000038", "CD_SIT": "1", "NM_DIST": "Santa Helena de Goiás", "NM_SUBDIST": null}, "geometry": {"type": "Polygon", "coordinates": [[[-50.58533, -17.81124], [-50.58585, -17.81308], [-50.5863, -17.81296], [-50.58657, -17.814], [-50.58615, -17.81391], [-50.58612, -17.81479], [-50.58526, -17.81484], [-50.58544, -17.81516], [-50.58581, -17.815], [-50.58749, -17.81534], [-50.5891, -17.81486], [-50.58855, -17.814], [-50.58593, -17.81109], [-50.58533, -17.81124]]]}}, 
{"type": "Feature", "properties": {"CD_SETOR": "521930805000039", "CD_SIT": "1", "NM_DIST": "Santa Helena de Goiás", "NM_SUBDIST": null}, "geometry": {"type": "Polygon", "coordinates": [[[-50.58191, -17.81949], [-50.58335, -17.82189], [-50.58562, -17.82066], [-50.58516, -17.81989], [-50.58569, -17.81961], [-50.58475, -17.81792], [-50.58191, -17.81949]]]}}, 
{"type": "Feature", "properties": {"CD_SETOR": "521930805000040", "CD_SIT": "1", "NM_DIST": "Santa Helena de Goiás", "NM_SUBDIST": null}, "geometry": {"type": "Polygon", "coordinates": [[[-50.58009, -17.81961], [-50.58147, -17.82188], [-50.58171, -17.82175], [-50.58218, -17.82253], [-50.58335, -17.82189], [-50.58152, -17.81884], [-50.58009, -17.81961]]]}}, 
{"type": "Feature", "properties": {"CD_SETOR": "521930805000041", "CD_SIT": "1", "NM_DIST": "Santa Helena de Goiás", "NM_SUBDIST": null}, "geometry": {"type": "Polygon", "coordinates": [[[-50.57515, -17.82038], [-50.57459, -17.82419], [-50.57452, -17.82567], [-50.58065, -17.82232], [-50.57808, -17.81805], [-50.5771, -17.81882], [-50.57656, -17.81856], [-50.57671, -17.81893], [-50.576, -17.81999], [-50.57558, -17.8204], [-50.57515, -17.82038]]]}}, 
{"type": "Feature", "properties": {"CD_SETOR": "521930805000042", "CD_SIT": "1", "NM_DIST": "Santa Helena de Goiás", "NM_SUBDIST": null}, "geometry": {"type": "Polygon", "coordinates": [[[-50.58218, -17.82253], [-50.57961, -17.82394], [-50.57974, -17.82417], [-50.57719, -17.82549], [-50.57701, -17.82425], [-50.57452, -17.82567], [-50.57291, -17.83429], [-50.57315, -17.83447], [-50.57581, -17.84025], [-50.57788, -17.83991], [-50.57777, -17.83144], [-50.58071, -17.83035], [-50.58644, -17.82709], [-50.58335, -17.82189], [-50.58218, -17.82253]]]}}, 
{"type": "Feature", "properties": {"CD_SETOR": "521930805000043", "CD_SIT": "1", "NM_DIST": "Santa Helena de Goiás", "NM_SUBDIST": null}, "geometry": {"type": "Polygon", "coordinates": [[[-50.59848, -17.80861], [-50.59726, -17.81023], [-50.59873, -17.81125], [-50.60097, -17.8083], [-50.60188, -17.80792], [-50.60178, -17.80709], [-50.59848, -17.80861]]]}}, 
{"type": "Feature", "properties": {"CD_SETOR": "521930805000044", "CD_SIT": "1", "NM_DIST": "Santa Helena de Goiás", "NM_SUBDIST": null}, "geometry": {"type": "Polygon", "coordinates": [[[-50.5902, -17.82317], [-50.58902, -17.82382], [-50.58856, -17.82305], [-50.58744, -17.82366], [-50.58877, -17.82591], [-50.59197, -17.82417], [-50.59185, -17.82322], [-50.59139, -17.82252], [-50.5902, -17.82317]]]}}, 
{"type": "Feature", "properties": {"CD_SETOR": "521930805000045", "CD_SIT": "1", "NM_DIST": "Santa Helena de Goiás", "NM_SUBDIST": null}, "geometry": {"type": "Polygon", "coordinates": [[[-50.59139, -17.82252], [-50.59185, -17.82322], [-50.59197, -17.82417], [-50.59418, -17.82363], [-50.59527, -17.82536], [-50.59432, -17.82595], [-50.59535, -17.8275], [-50.59812, -17.82584], [-50.59616, -17.82278], [-50.5952, -17.82326], [-50.59499, -17.82182], [-50.59174, -17.82234], [-50.59139, -17.82252]]]}}, 
{"type": "Feature", "properties": {"CD_SETOR": "521930805000046", "CD_SIT": "1", "NM_DIST": "Santa Helena de Goiás", "NM_SUBDIST": null}, "geometry": {"type": "Polygon", "coordinates": [[[-50.60501, -17.82221], [-50.60594, -17.82319], [-50.60995, -17.82158], [-50.6099, -17.82113], [-50.60934, -17.82052], [-50.60501, -17.82221]]]}}, 
{"type": "Feature", "properties": {"CD_SETOR": "521930805000047", "CD_SIT": "1", "NM_DIST": "Santa Helena de Goiás", "NM_SUBDIST": null}, "geometry": {"type": "Polygon", "coordinates": [[[-50.61307, -17.81787], [-50.60781, -17.81878], [-50.60778, -17.81886], [-50.6099, -17.82113], [-50.60995, -17.82158], [-50.61838, -17.81836], [-50.61834, -17.81703], [-50.61307, -17.81787]]]}}, 
{"type": "Feature", "properties": {"CD_SETOR": "521930805000048", "CD_SIT": "1", "NM_DIST": "Santa Helena de Goiás", "NM_SUBDIST": null}, "geometry": {"type": "Polygon", "coordinates": [[[-50.61595, -17.81321], [-50.61141, -17.81475], [-50.61171, -17.8147], [-50.61307, -17.81787], [-50.61829, -17.81698], [-50.61825, -17.81295], [-50.61595, -17.81321]]]}}, 
{"type": "Feature", "properties": {"CD_SETOR": "521930805000049", "CD_SIT": "1", "NM_DIST": "Santa Helena de Goiás", "NM_SUBDIST": null}, "geometry": {"type": "Polygon", "coordinates": [[[-50.6093, -17.80629], [-50.60812, -17.80692], [-50.60932, -17.80881], [-50.61215, -17.80719], [-50.61275, -17.80809], [-50.61341, -17.80772], [-50.61216, -17.80572], [-50.61084, -17.80645], [-50.6093, -17.80629]]]}}, 
{"type": "Feature", "properties": {"CD_SETOR": "521930805000050", "CD_SIT": "1", "NM_DIST": "Santa Helena de Goiás", "NM_SUBDIST": null}, "geometry": {"type": "Polygon", "coordinates": [[[-50.61341, -17.80772], [-50.61275, -17.80809], [-50.61215, -17.80719], [-50.60932, -17.80881], [-50.61045, -17.8106], [-50.61624, -17.80725], [-50.61591, -17.80626], [-50.61341, -17.80772]]]}}, 
{"type": "Feature", "properties": {"CD_SETOR": "521930805000051", "CD_SIT": "1", "NM_DIST": "Santa Helena de Goiás", "NM_SUBDIST": null}, "geometry": {"type": "Polygon", "coordinates": [[[-50.61045, -17.8106], [-50.61101, -17.81148], [-50.61385, -17.80985], [-50.61427, -17.81052], [-50.61458, -17.81066], [-50.61698, -17.80925], [-50.61624, -17.80725], [-50.61045, -17.8106]]]}}, 
{"type": "Feature", "properties": {"CD_SETOR": "521930805000052", "CD_SIT": "8", "NM_DIST": "Santa Helena de Goiás", "NM_SUBDIST": null}, "geometry": {"type": "Polygon", "coordinates": [[[-50.59197, -17.82417], [-50.58644, -17.82709], [-50.58071, -17.83035], [-50.57777, -17.83144], [-50.57788, -17.83991], [-50.57581, -17.84025], [-50.57454, -17.83733], [-50.57315, -17.83447], [-50.57292, -17.83428], [-50.57257, -17.83514], [-50.57233, -17.83512], [-50.57223, -17.8349], [-50.57058, -17.83636], [-50.56757, -17.83741], [-50.5639, -17.83961], [-50.56254, -17.84022], [-50.56117, -17.84116], [-50.54781, -17.85175], [-50.52472, -17.86598], [-50.4931, -17.87469], [-50.46994, -17.87976], [-50.46932, -17.88037], [-50.4646, -17.88672], [-50.45081, -17.89796], [-50.45078, -17.89936], [-50.45056, -17.89994], [-50.44843, -17.90285], [-50.44106, -17.90219], [-50.43343, -17.89865], [-50.42275, -17.90185], [-50.38136, -17.92933], [-50.3806, -17.92964], [-50.37348, -17.92962], [-50.37284, -17.92976], [-50.35761, -17.94765], [-50.35834, -17.94768], [-50.35901, -17.94736], [-50.36088, -17.947], [-50.36203, -17.94665], [-50.36287, -17.94619], [-50.36339, -17.94541], [-50.36375, -17.94446], [-50.36427, -17.94401], [-50.36559, -17.94411], [-50.36652, -17.94438], [-50.36744, -17.94417], [-50.36806, -17.94378], [-50.36863, -17.93943], [-50.36915, -17.93908], [-50.36989, -17.93907], [-50.37011, -17.93879], [-50.36951, -17.93781], [-50.36929, -17.93708], [-50.37171, -17.9331], [-50.37233, -17.93254], [-50.37325, -17.9324], [-50.37506, -17.93292], [-50.37654, -17.93302], [-50.37942, -17.93392], [-50.38045, -17.93377], [-50.38188, -17.93292], [-50.3828, -17.93264], [-50.38347, -17.93299], [-50.38391, -17.93355], [-50.38444, -17.93576], [-50.38477, -17.93646], [-50.38577, -17.93656], [-50.3868, -17.93627], [-50.3879, -17.93522], [-50.39059, -17.93154], [-50.39254, -17.93002], [-50.39343, -17.9295], [-50.39604, -17.92877], [-50.39842, -17.92858], [-50.40093, -17.92924], [-50.40204, -17.93032], [-50.40344, -17.93105], [-50.40499, -17.93237], [-50.40593, -17.93427], [-50.40632, -17.93591], [-50.40748, -17.93627], [-50.41023, -17.93614], [-50.41118, -17.93668], [-50.41285, -17.93818], [-50.4134, -17.939], [-50.41566, -17.93982], [-50.41754, -17.9412], [-50.41823, -17.94204], [-50.41952, -17.94308], [-50.41983, -17.94408], [-50.41977, -17.94644], [-50.4206, -17.94698], [-50.42283, -17.94571], [-50.42393, -17.94409], [-50.42479, -17.94327], [-50.42729, -17.94286], [-50.42937, -17.94504], [-50.4316, -17.94516], [-50.43266, -17.94491], [-50.43876, -17.94161], [-50.44104, -17.94108], [-50.44227, -17.94165], [-50.44302, -17.94238], [-50.44408, -17.94297], [-50.44515, -17.94383], [-50.44813, -17.94483], [-50.45079, -17.9451], [-50.45235, -17.94561], [-50.45368, -17.94624], [-50.4571, -17.94842], [-50.46052, -17.94951], [-50.46274, -17.95146], [-50.46374, -17.95187], [-50.46468, -17.95201], [-50.46762, -17.95187], [-50.46918, -17.95117], [-50.47229, -17.95029], [-50.4745, -17.95033], [-50.47818, -17.95085], [-50.4804, -17.95065], [-50.48207, -17.94961], [-50.4843, -17.94757], [-50.48499, -17.94649], [-50.48677, -17.94519], [-50.48798, -17.9449], [-50.48888, -17.94445], [-50.49018, -17.94444], [-50.49127, -17.94492], [-50.49378, -17.94653], [-50.49595, -17.94463], [-50.49701, -17.9433], [-50.49842, -17.94069], [-50.49944, -17.9392], [-50.50068, -17.93844], [-50.50389, -17.93715], [-50.50481, -17.93696], [-50.50726, -17.93604], [-50.50963, -17.93499], [-50.51129, -17.93364], [-50.51241, -17.93173], [-50.51383, -17.93016], [-50.515, -17.92932], [-50.5167, -17.92866], [-50.51738, -17.92806], [-50.51546, -17.92372], [-50.51238, -17.91786], [-50.51432, -17.91438], [-50.5142, -17.91362], [-50.51435, -17.91105], [-50.51369, -17.90849], [-50.51357, -17.90477], [-50.51379, -17.90341], [-50.51447, -17.90205], [-50.51454, -17.90132], [-50.51435, -17.90089], [-50.51435, -17.90035], [-50.51229, -17.89594], [-50.51202, -17.89485], [-50.50955, -17.88998], [-50.51038, -17.88979], [-50.51146, -17.88869], [-50.51251, -17.88823], [-50.51371, -17.88663], [-50.51455, -17.88586], [-50.51587, -17.88547], [-50.5174, -17.88458], [-50.51992, -17.88351], [-50.52069, -17.88338], [-50.52182, -17.88239], [-50.52213, -17.88155], [-50.52208, -17.88053], [-50.5226, -17.87945], [-50.52305, -17.87909], [-50.52397, -17.87905], [-50.52413, -17.8788], [-50.5241, -17.87695], [-50.52428, -17.87639], [-50.52535, -17.87575], [-50.52573, -17.87586], [-50.52648, -17.87802], [-50.52698, -17.87834], [-50.52818, -17.87822], [-50.53062, -17.87766], [-50.53245, -17.87676], [-50.53399, -17.87673], [-50.53537, -17.87594], [-50.53619, -17.87601], [-50.53823, -17.87736], [-50.53874, -17.87754], [-50.53943, -17.87749], [-50.54025, -17.87727], [-50.54067, -17.8769], [-50.54095, -17.8757], [-50.54112, -17.87557], [-50.54156, -17.87539], [-50.54294, -17.87525], [-50.54384, -17.87429], [-50.54443, -17.87326], [-50.54475, -17.87304], [-50.54588, -17.87357], [-50.54647, -17.87368], [-50.54765, -17.87329], [-50.54841, -17.87348], [-50.54917, -17.87412], [-50.54996, -17.87539], [-50.55148, -17.87599], [-50.5522, -17.87695], [-50.55254, -17.87776], [-50.55283, -17.87795], [-50.55369, -17.8778], [-50.55568, -17.87668], [-50.55845, -17.87677], [-50.55987, -17.87643], [-50.56011, -17.87525], [-50.5599, -17.8745], [-50.558, -17.87256], [-50.5576, -17.8715], [-50.55774, -17.87046], [-50.55853, -17.86924], [-50.55901, -17.86896], [-50.56028, -17.86842], [-50.56357, -17.86743], [-50.56396, -17.86683], [-50.5651, -17.86583], [-50.56504, -17.86526], [-50.56456, -17.86457], [-50.56461, -17.86424], [-50.56709, -17.86364], [-50.56722, -17.86303], [-50.56714, -17.86232], [-50.56663, -17.86118], [-50.56663, -17.86018], [-50.56748, -17.85773], [-50.56801, -17.8572], [-50.56871, -17.85725], [-50.56984, -17.8578], [-50.57222, -17.85775], [-50.57287, -17.85801], [-50.57299, -17.85882], [-50.57365, -17.86067], [-50.5741, -17.86139], [-50.57439, -17.86157], [-50.57924, -17.85946], [-50.57997, -17.85864], [-50.5805, -17.85838], [-50.58292, -17.85869], [-50.58414, -17.85844], [-50.58591, -17.8577], [-50.5869, -17.8578], [-50.58713, -17.85816], [-50.58712, -17.85847], [-50.58474, -17.85932], [-50.58458, -17.86043], [-50.58481, -17.86116], [-50.58526, -17.86218], [-50.58689, -17.86367], [-50.58831, -17.86466], [-50.58988, -17.86543], [-50.591, -17.86508], [-50.59313, -17.8639], [-50.59466, -17.86341], [-50.5951, -17.8631], [-50.5962, -17.86149], [-50.59661, -17.86118], [-50.59748, -17.85998], [-50.59793, -17.85982], [-50.59826, -17.85991], [-50.59849, -17.86005], [-50.599, -17.86108], [-50.59989, -17.86207], [-50.60086, -17.86274], [-50.60101, -17.86388], [-50.60092, -17.86531], [-50.60232, -17.8672], [-50.60323, -17.86774], [-50.60353, -17.86874], [-50.6038, -17.86911], [-50.60528, -17.86935], [-50.608, -17.87032], [-50.60914, -17.87142], [-50.60982, -17.87291], [-50.61032, -17.87317], [-50.61153, -17.87322], [-50.61209, -17.87294], [-50.61238, -17.87235], [-50.61226, -17.87047], [-50.61128, -17.8675], [-50.60998, -17.86565], [-50.60973, -17.86451], [-50.60945, -17.86435], [-50.60815, -17.86546], [-50.60736, -17.86567], [-50.60635, -17.86547], [-50.60555, -17.86478], [-50.60534, -17.86415], [-50.60499, -17.85971], [-50.60726, -17.85973], [-50.61288, -17.85921], [-50.61479, -17.85696], [-50.61539, -17.85574], [-50.61664, -17.84953], [-50.61403, -17.83528], [-50.61297, -17.8339], [-50.61263, -17.83281], [-50.61237, -17.83285], [-50.61147, -17.83339], [-50.60958, -17.83392], [-50.60909, -17.83429], [-50.60838, -17.83522], [-50.60768, -17.83539], [-50.60701, -17.83581], [-50.60686, -17.83659], [-50.60641, -17.83671], [-50.60623, -17.83645], [-50.60461, -17.83817], [-50.60352, -17.83858], [-50.60319, -17.83402], [-50.60291, -17.83307], [-50.59843, -17.82616], [-50.59812, -17.82584], [-50.59535, -17.8275], [-50.59432, -17.82595], [-50.59527, -17.82536], [-50.59418, -17.82363], [-50.59197, -17.82417]]]}}, 
{"type": "Feature", "properties": {"CD_SETOR": "521930805000053", "CD_SIT": "8", "NM_DIST": "Santa Helena de Goiás", "NM_SUBDIST": null}, "geometry": {"type": "Polygon", "coordinates": [[[-50.49378, -17.94653], [-50.49449, -17.9471], [-50.49674, -17.94835], [-50.49752, -17.94926], [-50.49963, -17.95058], [-50.50038, -17.95016], [-50.50094, -17.94932], [-50.50199, -17.94908], [-50.50526, -17.94883], [-50.50657, -17.94891], [-50.50762, -17.94923], [-50.51185, -17.95183], [-50.5128, -17.95211], [-50.51446, -17.95226], [-50.5191, -17.95197], [-50.52005, -17.95171], [-50.52144, -17.95158], [-50.52484, -17.9505], [-50.52602, -17.95053], [-50.52803, -17.95234], [-50.52932, -17.9543], [-50.53069, -17.95554], [-50.5319, -17.95713], [-50.53388, -17.95927], [-50.53627, -17.96119], [-50.53867, -17.96213], [-50.542, -17.96311], [-50.54679, -17.96639], [-50.54913, -17.96718], [-50.55204, -17.96783], [-50.55782, -17.96839], [-50.56013, -17.96891], [-50.5627, -17.97001], [-50.56755, -17.96232], [-50.57366, -17.95875], [-50.5865, -17.95015], [-50.58191, -17.94571], [-50.58913, -17.94061], [-50.59097, -17.93474], [-50.59414, -17.92611], [-50.59332, -17.92311], [-50.59306, -17.9216], [-50.5936, -17.91657], [-50.59466, -17.9152], [-50.59467, -17.91489], [-50.6008, -17.91541], [-50.59797, -17.91169], [-50.59758, -17.90778], [-50.59806, -17.90608], [-50.59878, -17.9045], [-50.59916, -17.90135], [-50.59905, -17.89936], [-50.59921, -17.89809], [-50.59934, -17.89793], [-50.60217, -17.89714], [-50.60098, -17.89318], [-50.6056, -17.88824], [-50.60703, -17.88747], [-50.61175, -17.88622], [-50.6128, -17.88556], [-50.61318, -17.88512], [-50.61885, -17.87634], [-50.61898, -17.87539], [-50.6188, -17.87025], [-50.61889, -17.8681], [-50.61837, -17.86774], [-50.61105, -17.86485], [-50.61004, -17.86407], [-50.60974, -17.8641], [-50.60945, -17.86435], [-50.60973, -17.86451], [-50.60998, -17.86565], [-50.61034, -17.86627], [-50.61128, -17.8675], [-50.61226, -17.87047], [-50.61242, -17.87173], [-50.61229, -17.87269], [-50.61179, -17.87315], [-50.61037, -17.87318], [-50.60982, -17.87291], [-50.60914, -17.87142], [-50.608, -17.87032], [-50.60528, -17.86935], [-50.6038, -17.86911], [-50.60353, -17.86874], [-50.60323, -17.86774], [-50.60232, -17.8672], [-50.60092, -17.86531], [-50.60101, -17.86388], [-50.60086, -17.86274], [-50.59989, -17.86207], [-50.599, -17.86108], [-50.59849, -17.86005], [-50.59826, -17.85991], [-50.59793, -17.85982], [-50.59748, -17.85998], [-50.59661, -17.86118], [-50.5962, -17.86149], [-50.5951, -17.8631], [-50.59466, -17.86341], [-50.59313, -17.8639], [-50.591, -17.86508], [-50.58988, -17.86543], [-50.58831, -17.86466], [-50.58689, -17.86367], [-50.58526, -17.86218], [-50.58481, -17.86116], [-50.58458, -17.86043], [-50.58474, -17.85932], [-50.58712, -17.85847], [-50.58713, -17.85816], [-50.5869, -17.8578], [-50.58591, -17.8577], [-50.58414, -17.85844], [-50.58292, -17.85869], [-50.5805, -17.85838], [-50.57997, -17.85864], [-50.57924, -17.85946], [-50.57439, -17.86157], [-50.5741, -17.86139], [-50.57365, -17.86067], [-50.57299, -17.85882], [-50.57287, -17.85801], [-50.57222, -17.85775], [-50.56984, -17.8578], [-50.56871, -17.85725], [-50.56801, -17.8572], [-50.56748, -17.85773], [-50.56663, -17.86018], [-50.56663, -17.86118], [-50.56714, -17.86232], [-50.56722, -17.86303], [-50.56709, -17.86364], [-50.56461, -17.86424], [-50.56456, -17.86457], [-50.56504, -17.86526], [-50.5651, -17.86583], [-50.56396, -17.86683], [-50.56357, -17.86743], [-50.56028, -17.86842], [-50.55901, -17.86896], [-50.55853, -17.86924], [-50.55774, -17.87046], [-50.5576, -17.8715], [-50.558, -17.87256], [-50.5599, -17.8745], [-50.56011, -17.87525], [-50.55987, -17.87643], [-50.55845, -17.87677], [-50.55568, -17.87668], [-50.55369, -17.8778], [-50.55283, -17.87795], [-50.55254, -17.87776], [-50.5522, -17.87695], [-50.55148, -17.87599], [-50.54996, -17.87539], [-50.54917, -17.87412], [-50.54841, -17.87348], [-50.54765, -17.87329], [-50.54647, -17.87368], [-50.54588, -17.87357], [-50.54475, -17.87304], [-50.54443, -17.87326], [-50.54384, -17.87429], [-50.54294, -17.87525], [-50.54156, -17.87539], [-50.54112, -17.87557], [-50.54095, -17.8757], [-50.54067, -17.8769], [-50.54025, -17.87727], [-50.53943, -17.87749], [-50.53874, -17.87754], [-50.53823, -17.87736], [-50.53619, -17.87601], [-50.53537, -17.87594], [-50.53399, -17.87673], [-50.53245, -17.87676], [-50.53062, -17.87766], [-50.52818, -17.87822], [-50.52698, -17.87834], [-50.52648, -17.87802], [-50.52573, -17.87586], [-50.52535, -17.87575], [-50.52428, -17.87639], [-50.5241, -17.87695], [-50.52413, -17.8788], [-50.52397, -17.87905], [-50.52305, -17.87909], [-50.5226, -17.87945], [-50.52208, -17.88053], [-50.52213, -17.88155], [-50.52182, -17.88239], [-50.52069, -17.88338], [-50.51992, -17.88351], [-50.5174, -17.88458], [-50.51587, -17.88547], [-50.51455, -17.88586], [-50.51371, -17.88663], [-50.51251, -17.88823], [-50.51146, -17.88869], [-50.51038, -17.88979], [-50.50955, -17.88998], [-50.51202, -17.89485], [-50.51229, -17.89594], [-50.51435, -17.90035], [-50.51435, -17.90089], [-50.51454, -17.90132], [-50.51447, -17.90205], [-50.51379, -17.90341], [-50.51357, -17.90477], [-50.51369, -17.90849], [-50.51435, -17.91105], [-50.5142, -17.91362], [-50.51432, -17.91438], [-50.51238, -17.91786], [-50.51546, -17.92372], [-50.51738, -17.92806], [-50.5167, -17.92866], [-50.515, -17.92932], [-50.51383, -17.93016], [-50.51241, -17.93173], [-50.51129, -17.93364], [-50.50963, -17.93499], [-50.50726, -17.93604], [-50.50481, -17.93696], [-50.50389, -17.93715], [-50.50068, -17.93844], [-50.49944, -17.9392], [-50.49842, -17.94069], [-50.49701, -17.9433], [-50.49595, -17.94463], [-50.49378, -17.94653]]]}}, 
{"type": "Feature", "properties": {"CD_SETOR": "521930805000054", "CD_SIT": "8", "NM_DIST": "Santa Helena de Goiás", "NM_SUBDIST": null}, "geometry": {"type": "Polygon", "coordinates": [[[-50.60945, -17.86435], [-50.61004, -17.86407], [-50.61105, -17.86485], [-50.61877, -17.86794], [-50.61892, -17.86823], [-50.6188, -17.87025], [-50.61897, -17.87334], [-50.61885, -17.87634], [-50.61296, -17.88542], [-50.61175, -17.88622], [-50.60703, -17.88747], [-50.6056, -17.88824], [-50.60098, -17.89318], [-50.60217, -17.89714], [-50.59934, -17.89793], [-50.59921, -17.89809], [-50.59905, -17.89936], [-50.59916, -17.90135], [-50.59878, -17.9045], [-50.59806, -17.90608], [-50.59758, -17.90778], [-50.59797, -17.91169], [-50.6008, -17.91541], [-50.59467, -17.91489], [-50.59466, -17.9152], [-50.5936, -17.91657], [-50.59306, -17.9216], [-50.59332, -17.92311], [-50.59414, -17.92611], [-50.59097, -17.93474], [-50.58913, -17.94061], [-50.58191, -17.94571], [-50.5865, -17.95015], [-50.57366, -17.95875], [-50.56755, -17.96232], [-50.5627, -17.97001], [-50.56449, -17.97079], [-50.56591, -17.97097], [-50.56707, -17.97087], [-50.56785, -17.97003], [-50.5696, -17.97084], [-50.57058, -17.9718], [-50.57163, -17.97221], [-50.57277, -17.97317], [-50.57497, -17.97441], [-50.57713, -17.97598], [-50.57899, -17.97638], [-50.58157, -17.9774], [-50.58683, -17.98073], [-50.58838, -17.98105], [-50.59099, -17.98058], [-50.59202, -17.98013], [-50.59368, -17.97973], [-50.59482, -17.97978], [-50.59572, -17.98029], [-50.59866, -17.9812], [-50.60512, -17.98073], [-50.60963, -17.98128], [-50.6121, -17.98088], [-50.61391, -17.98048], [-50.61519, -17.97999], [-50.61708, -17.97967], [-50.62219, -17.97985], [-50.62552, -17.97973], [-50.62651, -17.97874], [-50.62705, -17.97648], [-50.62791, -17.97585], [-50.6291, -17.97591], [-50.63174, -17.9756], [-50.63483, -17.97454], [-50.6383, -17.97383], [-50.64225, -17.97276], [-50.64427, -17.97278], [-50.64593, -17.97303], [-50.64882, -17.97303], [-50.6553, -17.97205], [-50.65738, -17.97215], [-50.65846, -17.97244], [-50.66285, -17.9754], [-50.66655, -17.97608], [-50.67323, -17.97543], [-50.67541, -17.97418], [-50.67638, -17.97327], [-50.67894, -17.97265], [-50.6821, -17.97326], [-50.68446, -17.97427], [-50.6854, -17.97382], [-50.68625, -17.97296], [-50.68819, -17.97044], [-50.68966, -17.97044], [-50.69074, -17.97077], [-50.69318, -17.97108], [-50.69769, -17.97094], [-50.70054, -17.9712], [-50.70144, -17.97109], [-50.70212, -17.9696], [-50.7043, -17.96867], [-50.70777, -17.96594], [-50.70808, -17.96377], [-50.71051, -17.96172], [-50.71578, -17.95812], [-50.71727, -17.95663], [-50.71808, -17.95514], [-50.72093, -17.95284], [-50.72236, -17.95129], [-50.68835, -17.91496], [-50.68835, -17.91399], [-50.6878, -17.9129], [-50.6865, -17.91121], [-50.68596, -17.91017], [-50.68368, -17.90775], [-50.68266, -17.90757], [-50.68165, -17.90715], [-50.67882, -17.90501], [-50.67704, -17.90287], [-50.67533, -17.90123], [-50.67091, -17.8993], [-50.66963, -17.89912], [-50.66804, -17.89857], [-50.6661, -17.8971], [-50.66437, -17.89492], [-50.66235, -17.89164], [-50.66118, -17.8905], [-50.65855, -17.88895], [-50.6553, -17.88567], [-50.65427, -17.88489], [-50.65183, -17.88139], [-50.65107, -17.88061], [-50.64979, -17.87884], [-50.64888, -17.87797], [-50.64794, -17.87376], [-50.64616, -17.87153], [-50.64554, -17.8703], [-50.64407, -17.86846], [-50.64221, -17.86501], [-50.64151, -17.86427], [-50.64174, -17.86334], [-50.64128, -17.86315], [-50.63943, -17.86386], [-50.63789, -17.86369], [-50.63663, -17.8643], [-50.63552, -17.86449], [-50.63271, -17.86559], [-50.63234, -17.86552], [-50.63211, -17.86517], [-50.6318, -17.8636], [-50.63123, -17.86253], [-50.6314, -17.86181], [-50.62848, -17.8597], [-50.62791, -17.85903], [-50.62706, -17.85907], [-50.62623, -17.85956], [-50.6254, -17.85947], [-50.62347, -17.85778], [-50.62245, -17.85724], [-50.6217, -17.85717], [-50.62049, -17.85739], [-50.61991, -17.85772], [-50.61966, -17.85811], [-50.61949, -17.86023], [-50.61859, -17.86137], [-50.61863, -17.86196], [-50.61826, -17.86283], [-50.61867, -17.86401], [-50.61869, -17.86437], [-50.61849, -17.86469], [-50.61764, -17.86491], [-50.61549, -17.86477], [-50.61345, -17.86415], [-50.61147, -17.86414], [-50.61076, -17.86361], [-50.61014, -17.86346], [-50.60962, -17.86358], [-50.60923, -17.86343], [-50.60875, -17.86405], [-50.60945, -17.86435]]]}}, 
{"type": "Feature", "properties": {"CD_SETOR": "521930805000057", "CD_SIT": "8", "NM_DIST": "Santa Helena de Goiás", "NM_SUBDIST": null}, "geometry": {"type": "Polygon", "coordinates": [[[-50.55874, -17.59603], [-50.55693, -17.59757], [-50.55479, -17.59869], [-50.5538, -17.59945], [-50.55205, -17.60017], [-50.54957, -17.60161], [-50.54691, -17.60444], [-50.54567, -17.6069], [-50.54438, -17.60995], [-50.54168, -17.6141], [-50.54088, -17.61695], [-50.53955, -17.62016], [-50.53782, -17.62228], [-50.53521, -17.62358], [-50.53387, -17.6247], [-50.53332, -17.62619], [-50.53272, -17.62728], [-50.53185, -17.63185], [-50.52851, -17.63495], [-50.52707, -17.63608], [-50.5249, -17.64034], [-50.52407, -17.64156], [-50.52268, -17.64427], [-50.5211, -17.64648], [-50.51905, -17.64734], [-50.51584, -17.64781], [-50.51685, -17.64922], [-50.51938, -17.65085], [-50.51951, -17.6513], [-50.51912, -17.65226], [-50.51917, -17.65258], [-50.52008, -17.65345], [-50.52048, -17.6541], [-50.52162, -17.65485], [-50.52232, -17.65556], [-50.52374, -17.65631], [-50.52514, -17.656], [-50.52603, -17.65625], [-50.5268, -17.65622], [-50.53039, -17.65504], [-50.53112, -17.65528], [-50.53173, -17.65683], [-50.53291, -17.65769], [-50.53448, -17.65812], [-50.535, -17.65796], [-50.53528, -17.65734], [-50.53565, -17.65708], [-50.53611, -17.65706], [-50.53703, -17.65747], [-50.53944, -17.65726], [-50.54118, -17.65661], [-50.54177, -17.65579], [-50.54235, -17.65564], [-50.5429, -17.65582], [-50.54321, -17.65604], [-50.54399, -17.65728], [-50.54572, -17.65868], [-50.54651, -17.66045], [-50.54809, -17.66157], [-50.54989, -17.66226], [-50.55153, -17.66327], [-50.55209, -17.66401], [-50.55247, -17.66471], [-50.55269, -17.66629], [-50.55204, -17.66777], [-50.5511, -17.66817], [-50.55125, -17.66894], [-50.55219, -17.6697], [-50.55494, -17.67093], [-50.55585, -17.67065], [-50.55671, -17.67081], [-50.55773, -17.67174], [-50.5578, -17.67259], [-50.55808, -17.67286], [-50.55892, -17.67278], [-50.55937, -17.67178], [-50.56042, -17.67134], [-50.56116, -17.67082], [-50.56221, -17.67097], [-50.5626, -17.67174], [-50.56291, -17.67201], [-50.56341, -17.67211], [-50.56365, -17.67198], [-50.5641, -17.67129], [-50.56432, -17.6705], [-50.56415, -17.67016], [-50.56323, -17.6695], [-50.56351, -17.66763], [-50.56384, -17.6674], [-50.56502, -17.66754], [-50.56597, -17.66799], [-50.56649, -17.66896], [-50.56706, -17.66929], [-50.56746, -17.66928], [-50.56801, -17.6687], [-50.56872, -17.6687], [-50.56916, -17.66886], [-50.56988, -17.66959], [-50.57198, -17.66951], [-50.57307, -17.67004], [-50.57427, -17.6703], [-50.57718, -17.66989], [-50.57774, -17.66995], [-50.57819, -17.67055], [-50.57844, -17.67138], [-50.57957, -17.67159], [-50.58043, -17.67148], [-50.5809, -17.6711], [-50.58157, -17.67091], [-50.58223, -17.67096], [-50.58307, -17.67131], [-50.58349, -17.67248], [-50.58351, -17.67473], [-50.58606, -17.67703], [-50.58684, -17.67822], [-50.58735, -17.68004], [-50.58776, -17.68053], [-50.59006, -17.68159], [-50.59129, -17.68182], [-50.592, -17.68099], [-50.59201, -17.68013], [-50.59226, -17.67951], [-50.59284, -17.67941], [-50.59381, -17.67959], [-50.5946, -17.68005], [-50.59501, -17.68068], [-50.59602, -17.68396], [-50.59794, -17.68578], [-50.59902, -17.68654], [-50.60022, -17.68706], [-50.60065, -17.68701], [-50.60107, -17.6866], [-50.60165, -17.68645], [-50.60247, -17.68735], [-50.60424, -17.68802], [-50.60543, -17.68829], [-50.60736, -17.68952], [-50.60835, -17.6912], [-50.60989, -17.69261], [-50.61035, -17.69297], [-50.61158, -17.69342], [-50.61206, -17.69435], [-50.61216, -17.69494], [-50.61256, -17.69541], [-50.61273, -17.69615], [-50.61352, -17.69673], [-50.61448, -17.69712], [-50.61556, -17.69867], [-50.61557, -17.69959], [-50.61602, -17.70208], [-50.61652, -17.70283], [-50.61819, -17.70466], [-50.61834, -17.70736], [-50.61948, -17.70857], [-50.62032, -17.71012], [-50.62082, -17.71065], [-50.62416, -17.71795], [-50.62461, -17.71872], [-50.62503, -17.71908], [-50.63211, -17.71489], [-50.63284, -17.71442], [-50.63332, -17.71381], [-50.65012, -17.67687], [-50.65088, -17.675], [-50.66059, -17.64192], [-50.66082, -17.64092], [-50.66068, -17.63916], [-50.66084, -17.63826], [-50.65985, -17.63847], [-50.65833, -17.63815], [-50.65719, -17.63755], [-50.65649, -17.63689], [-50.65466, -17.63418], [-50.6533, -17.63415], [-50.65215, -17.63352], [-50.64868, -17.63237], [-50.6476, -17.63254], [-50.64655, -17.63303], [-50.64555, -17.63305], [-50.64477, -17.63242], [-50.6438, -17.62876], [-50.64257, -17.62698], [-50.64157, -17.6268], [-50.63974, -17.62728], [-50.6388, -17.62709], [-50.63766, -17.62505], [-50.63535, -17.62379], [-50.63408, -17.62348], [-50.63205, -17.62366], [-50.63091, -17.62415], [-50.62957, -17.62448], [-50.62687, -17.62453], [-50.62458, -17.62506], [-50.62279, -17.62805], [-50.62194, -17.62903], [-50.62099, -17.62967], [-50.61996, -17.63138], [-50.61913, -17.63235], [-50.61796, -17.63258], [-50.61687, -17.63204], [-50.61574, -17.63022], [-50.61482, -17.62936], [-50.61335, -17.62744], [-50.61279, -17.62609], [-50.6121, -17.62522], [-50.61116, -17.62444], [-50.60918, -17.62113], [-50.6073, -17.61969], [-50.60618, -17.61929], [-50.6033, -17.61724], [-50.60284, -17.61642], [-50.60179, -17.61573], [-50.60118, -17.61478], [-50.60196, -17.61379], [-50.6041, -17.61325], [-50.60449, -17.6124], [-50.60402, -17.61155], [-50.60174, -17.6106], [-50.5976, -17.60979], [-50.59601, -17.60963], [-50.59349, -17.60975], [-50.59244, -17.60961], [-50.59196, -17.60879], [-50.59127, -17.60811], [-50.59024, -17.60747], [-50.58896, -17.6076], [-50.5881, -17.60825], [-50.58696, -17.60854], [-50.58608, -17.6091], [-50.58496, -17.6093], [-50.58394, -17.60915], [-50.58238, -17.60792], [-50.57947, -17.60735], [-50.57799, -17.60586], [-50.57641, -17.60543], [-50.5749, -17.60398], [-50.57452, -17.60294], [-50.57344, -17.6018], [-50.57246, -17.60133], [-50.57152, -17.60151], [-50.56957, -17.60227], [-50.56514, -17.59579], [-50.56429, -17.5949], [-50.56174, -17.59302], [-50.56088, -17.5936], [-50.56077, -17.59456], [-50.56044, -17.59542], [-50.55874, -17.59603]]]}}, 
{"type": "Feature", "properties": {"CD_SETOR": "521930805000058", "CD_SIT": "8", "NM_DIST": "Santa Helena de Goiás", "NM_SUBDIST": null}, "geometry": {"type": "Polygon", "coordinates": [[[-50.47693, -17.65703], [-50.47776, -17.66047], [-50.47796, -17.66328], [-50.47761, -17.66714], [-50.47685, -17.66905], [-50.4761, -17.66991], [-50.47563, -17.671], [-50.47471, -17.672], [-50.47402, -17.67317], [-50.47012, -17.67567], [-50.46735, -17.677], [-50.46554, -17.67898], [-50.46488, -17.68074], [-50.46463, -17.68328], [-50.46497, -17.68498], [-50.46663, -17.69043], [-50.46732, -17.69491], [-50.46735, -17.69759], [-50.46643, -17.69959], [-50.46582, -17.70025], [-50.46656, -17.7027], [-50.46846, -17.70498], [-50.46919, -17.70621], [-50.47025, -17.71097], [-50.47078, -17.71217], [-50.4714, -17.71306], [-50.47292, -17.71427], [-50.47436, -17.71481], [-50.47583, -17.71514], [-50.48328, -17.715], [-50.48694, -17.71445], [-50.48882, -17.71456], [-50.48985, -17.71485], [-50.4983, -17.71886], [-50.50277, -17.72187], [-50.50617, -17.72311], [-50.50743, -17.72381], [-50.51517, -17.73093], [-50.51684, -17.7321], [-50.52644, -17.73547], [-50.53036, -17.73722], [-50.53478, -17.73895], [-50.53637, -17.73933], [-50.54042, -17.73957], [-50.54229, -17.74022], [-50.54355, -17.74099], [-50.54475, -17.74215], [-50.54544, -17.74318], [-50.54604, -17.74451], [-50.55062, -17.75771], [-50.55447, -17.7704], [-50.5553, -17.77202], [-50.55626, -17.77328], [-50.55748, -17.77441], [-50.55989, -17.77589], [-50.56099, -17.77675], [-50.57707, -17.79431], [-50.57752, -17.79452], [-50.57839, -17.79433], [-50.57871, -17.79525], [-50.57917, -17.79461], [-50.58129, -17.79341], [-50.58249, -17.79395], [-50.58387, -17.79432], [-50.5876, -17.79474], [-50.5895, -17.79532], [-50.592, -17.79643], [-50.59339, -17.79678], [-50.59463, -17.79685], [-50.59653, -17.79651], [-50.60108, -17.79428], [-50.60267, -17.79385], [-50.60498, -17.79387], [-50.60636, -17.7943], [-50.6077, -17.79505], [-50.60591, -17.7845], [-50.60085, -17.75743], [-50.60082, -17.73475], [-50.60135, -17.73342], [-50.60197, -17.73273], [-50.62503, -17.71908], [-50.62461, -17.71872], [-50.62416, -17.71795], [-50.62082, -17.71065], [-50.62032, -17.71012], [-50.61948, -17.70857], [-50.61834, -17.70736], [-50.61819, -17.70466], [-50.61652, -17.70283], [-50.61602, -17.70208], [-50.61557, -17.69959], [-50.61556, -17.69867], [-50.61448, -17.69712], [-50.61352, -17.69673], [-50.61273, -17.69615], [-50.61256, -17.69541], [-50.61216, -17.69494], [-50.61206, -17.69435], [-50.61158, -17.69342], [-50.61035, -17.69297], [-50.60989, -17.69261], [-50.60835, -17.6912], [-50.60736, -17.68952], [-50.60543, -17.68829], [-50.60424, -17.68802], [-50.60247, -17.68735], [-50.60165, -17.68645], [-50.60107, -17.6866], [-50.60065, -17.68701], [-50.60022, -17.68706], [-50.59902, -17.68654], [-50.59794, -17.68578], [-50.59602, -17.68396], [-50.59501, -17.68068], [-50.5946, -17.68005], [-50.59381, -17.67959], [-50.59284, -17.67941], [-50.59226, -17.67951], [-50.59201, -17.68013], [-50.592, -17.68099], [-50.59129, -17.68182], [-50.59006, -17.68159], [-50.58776, -17.68053], [-50.58735, -17.68004], [-50.58684, -17.67822], [-50.58606, -17.67703], [-50.58351, -17.67473], [-50.58349, -17.67248], [-50.58307, -17.67131], [-50.58223, -17.67096], [-50.58157, -17.67091], [-50.5809, -17.6711], [-50.58043, -17.67148], [-50.57957, -17.67159], [-50.57844, -17.67138], [-50.57819, -17.67055], [-50.57774, -17.66995], [-50.57718, -17.66989], [-50.57427, -17.6703], [-50.57307, -17.67004], [-50.57198, -17.66951], [-50.56988, -17.66959], [-50.56916, -17.66886], [-50.56872, -17.6687], [-50.56801, -17.6687], [-50.56746, -17.66928], [-50.56706, -17.66929], [-50.56649, -17.66896], [-50.56597, -17.66799], [-50.56502, -17.66754], [-50.56384, -17.6674], [-50.56351, -17.66763], [-50.56323, -17.6695], [-50.56415, -17.67016], [-50.56432, -17.6705], [-50.5641, -17.67129], [-50.56365, -17.67198], [-50.56341, -17.67211], [-50.56291, -17.67201], [-50.5626, -17.67174], [-50.56221, -17.67097], [-50.56116, -17.67082], [-50.56042, -17.67134], [-50.55937, -17.67178], [-50.55892, -17.67278], [-50.55808, -17.67286], [-50.5578, -17.67259], [-50.55773, -17.67174], [-50.55671, -17.67081], [-50.55585, -17.67065], [-50.55494, -17.67093], [-50.55219, -17.6697], [-50.55125, -17.66894], [-50.5511, -17.66817], [-50.55204, -17.66777], [-50.55269, -17.66629], [-50.55247, -17.66471], [-50.55209, -17.66401], [-50.55153, -17.66327], [-50.54989, -17.66226], [-50.54809, -17.66157], [-50.54651, -17.66045], [-50.54572, -17.65868], [-50.54399, -17.65728], [-50.54321, -17.65604], [-50.5429, -17.65582], [-50.54235, -17.65564], [-50.54177, -17.65579], [-50.54118, -17.65661], [-50.53944, -17.65726], [-50.53703, -17.65747], [-50.53611, -17.65706], [-50.53565, -17.65708], [-50.53528, -17.65734], [-50.535, -17.65796], [-50.53448, -17.65812], [-50.53291, -17.65769], [-50.53173, -17.65683], [-50.53112, -17.65528], [-50.53039, -17.65504], [-50.5268, -17.65622], [-50.52603, -17.65625], [-50.52514, -17.656], [-50.52374, -17.65631], [-50.52232, -17.65556], [-50.52162, -17.65485], [-50.52048, -17.6541], [-50.52008, -17.65345], [-50.51917, -17.65258], [-50.51912, -17.65226], [-50.51951, -17.6513], [-50.51938, -17.65085], [-50.51685, -17.64922], [-50.51584, -17.64781], [-50.50873, -17.6484], [-50.50523, -17.64992], [-50.50155, -17.65112], [-50.50021, -17.65095], [-50.49871, -17.65119], [-50.4974, -17.6516], [-50.49471, -17.6515], [-50.49063, -17.65039], [-50.48941, -17.64964], [-50.48709, -17.64909], [-50.48359, -17.64942], [-50.4799, -17.65023], [-50.47905, -17.65064], [-50.47824, -17.65136], [-50.47693, -17.65703]]]}}, 
{"type": "Feature", "properties": {"CD_SETOR": "521930805000059", "CD_SIT": "8", "NM_DIST": "Santa Helena de Goiás", "NM_SUBDIST": null}, "geometry": {"type": "Polygon", "coordinates": [[[-50.44965, -17.75466], [-50.45043, -17.7555], [-50.4507, -17.75558], [-50.45156, -17.75554], [-50.45303, -17.75509], [-50.45376, -17.75506], [-50.45557, -17.75548], [-50.45681, -17.75539], [-50.4584, -17.75594], [-50.46031, -17.75603], [-50.4612, -17.75659], [-50.46158, -17.75703], [-50.46241, -17.75697], [-50.46412, -17.75767], [-50.46473, -17.75755], [-50.46517, -17.7568], [-50.46564, -17.75665], [-50.46726, -17.75737], [-50.46839, -17.75837], [-50.4692, -17.75886], [-50.47174, -17.75955], [-50.47339, -17.75944], [-50.47492, -17.76043], [-50.47538, -17.76042], [-50.47593, -17.76017], [-50.47657, -17.75919], [-50.47694, -17.75888], [-50.47887, -17.75806], [-50.48362, -17.75799], [-50.48681, -17.75855], [-50.48974, -17.7597], [-50.49024, -17.76032], [-50.49192, -17.76141], [-50.49261, -17.76152], [-50.49531, -17.76249], [-50.49682, -17.76337], [-50.49747, -17.76399], [-50.49783, -17.76447], [-50.49808, -17.76562], [-50.49858, -17.76624], [-50.49872, -17.76815], [-50.49902, -17.76878], [-50.50188, -17.77114], [-50.50785, -17.77509], [-50.50917, -17.77653], [-50.51086, -17.77896], [-50.50742, -17.78157], [-50.51769, -17.79584], [-50.53069, -17.81452], [-50.5308, -17.81836], [-50.52836, -17.8232], [-50.52646, -17.82369], [-50.52613, -17.82398], [-50.52524, -17.8258], [-50.52471, -17.82943], [-50.5261, -17.82977], [-50.52644, -17.82973], [-50.52691, -17.82941], [-50.52833, -17.82924], [-50.52898, -17.82889], [-50.53008, -17.82906], [-50.53099, -17.82874], [-50.53207, -17.82924], [-50.53331, -17.82908], [-50.53414, -17.82868], [-50.53448, -17.82804], [-50.5351, -17.82788], [-50.53532, -17.827], [-50.53499, -17.8272], [-50.53479, -17.82699], [-50.53513, -17.82651], [-50.53564, -17.82645], [-50.53624, -17.82691], [-50.53732, -17.82627], [-50.53754, -17.82645], [-50.53764, -17.82688], [-50.53794, -17.82695], [-50.53847, -17.82632], [-50.53932, -17.8261], [-50.53958, -17.82584], [-50.54004, -17.82581], [-50.54008, -17.82557], [-50.54052, -17.82528], [-50.54049, -17.82441], [-50.54116, -17.82408], [-50.54155, -17.82368], [-50.54328, -17.82367], [-50.5439, -17.82349], [-50.54421, -17.82319], [-50.54553, -17.82306], [-50.54576, -17.82262], [-50.54657, -17.82286], [-50.54709, -17.82282], [-50.54848, -17.8223], [-50.54895, -17.82228], [-50.54909, -17.82211], [-50.54965, -17.82238], [-50.54986, -17.82214], [-50.54989, -17.82173], [-50.55018, -17.82142], [-50.5505, -17.82139], [-50.55109, -17.82097], [-50.5511, -17.82059], [-50.55135, -17.82031], [-50.55161, -17.82019], [-50.55203, -17.82044], [-50.55222, -17.82], [-50.55266, -17.81992], [-50.5536, -17.81933], [-50.55372, -17.81874], [-50.55408, -17.81881], [-50.55428, -17.81916], [-50.55461, -17.81926], [-50.55582, -17.81931], [-50.55656, -17.81901], [-50.55752, -17.81916], [-50.55825, -17.81903], [-50.55838, -17.81922], [-50.559, -17.8193], [-50.55901, -17.81964], [-50.55932, -17.8195], [-50.5601, -17.81961], [-50.56031, -17.8199], [-50.56008, -17.82016], [-50.56106, -17.82015], [-50.56113, -17.82042], [-50.56098, -17.82062], [-50.5614, -17.82066], [-50.56108, -17.82095], [-50.56154, -17.82079], [-50.5615, -17.82116], [-50.5617, -17.8212], [-50.56287, -17.82053], [-50.56324, -17.82085], [-50.56341, -17.82048], [-50.5638, -17.82113], [-50.56405, -17.82105], [-50.56436, -17.82047], [-50.56557, -17.82036], [-50.56585, -17.82055], [-50.56647, -17.82062], [-50.56674, -17.82037], [-50.5675, -17.82032], [-50.56742, -17.81983], [-50.568, -17.81951], [-50.5683, -17.81962], [-50.5686, -17.81947], [-50.56865, -17.81884], [-50.56935, -17.81832], [-50.5713, -17.81821], [-50.57176, -17.81827], [-50.57255, -17.81873], [-50.57266, -17.81865], [-50.57262, -17.81799], [-50.57306, -17.81723], [-50.57313, -17.81637], [-50.57334, -17.81588], [-50.57318, -17.81507], [-50.57332, -17.81419], [-50.57321, -17.81388], [-50.57276, -17.81349], [-50.56974, -17.80569], [-50.57012, -17.80552], [-50.57683, -17.80583], [-50.57785, -17.79721], [-50.57764, -17.79645], [-50.57814, -17.79659], [-50.5785, -17.79614], [-50.57871, -17.79537], [-50.57855, -17.79458], [-50.57831, -17.7943], [-50.57752, -17.79452], [-50.57707, -17.79431], [-50.56099, -17.77675], [-50.55989, -17.77589], [-50.55748, -17.77441], [-50.55626, -17.77328], [-50.5553, -17.77202], [-50.55447, -17.7704], [-50.55062, -17.75771], [-50.54604, -17.74451], [-50.54544, -17.74318], [-50.54475, -17.74215], [-50.54303, -17.7406], [-50.54169, -17.73995], [-50.54042, -17.73957], [-50.53637, -17.73933], [-50.53478, -17.73895], [-50.53036, -17.73722], [-50.52644, -17.73547], [-50.51684, -17.7321], [-50.51517, -17.73093], [-50.50743, -17.72381], [-50.50617, -17.72311], [-50.50277, -17.72187], [-50.4983, -17.71886], [-50.48985, -17.71485], [-50.48882, -17.71456], [-50.48694, -17.71445], [-50.48328, -17.715], [-50.4769, -17.71519], [-50.47526, -17.71502], [-50.47292, -17.71427], [-50.4714, -17.71306], [-50.47047, -17.71157], [-50.46919, -17.70621], [-50.46846, -17.70498], [-50.46656, -17.7027], [-50.46582, -17.70025], [-50.46443, -17.70061], [-50.46321, -17.70117], [-50.46207, -17.70135], [-50.46118, -17.70176], [-50.45976, -17.70197], [-50.45623, -17.70326], [-50.45563, -17.7048], [-50.4556, -17.70724], [-50.45574, -17.70861], [-50.45637, -17.71051], [-50.45762, -17.71214], [-50.45999, -17.71405], [-50.46149, -17.71609], [-50.46188, -17.71832], [-50.46171, -17.71999], [-50.46066, -17.72426], [-50.4599, -17.72521], [-50.45873, -17.72575], [-50.45705, -17.72703], [-50.45584, -17.72743], [-50.45189, -17.72727], [-50.45013, -17.72706], [-50.44866, -17.72647], [-50.44682, -17.72538], [-50.44516, -17.72479], [-50.44402, -17.72461], [-50.44185, -17.72361], [-50.44043, -17.72274], [-50.43816, -17.72043], [-50.43749, -17.71948], [-50.43491, -17.71667], [-50.4323, -17.71417], [-50.4308, -17.71326], [-50.43013, -17.71217], [-50.42871, -17.71063], [-50.42558, -17.70836], [-50.42468, -17.70807], [-50.42365, -17.70732], [-50.42143, -17.70623], [-50.42005, -17.70472], [-50.41957, -17.70355], [-50.41877, -17.70246], [-50.41747, -17.70135], [-50.41618, -17.70055], [-50.41446, -17.7003], [-50.41335, -17.69973], [-50.41101, -17.69903], [-50.40993, -17.69841], [-50.40487, -17.69726], [-50.4034, -17.69714], [-50.40235, -17.69727], [-50.40155, -17.69804], [-50.40063, -17.70068], [-50.40043, -17.70303], [-50.4006, -17.70458], [-50.40132, -17.70666], [-50.40221, -17.70766], [-50.40391, -17.70889], [-50.40579, -17.70966], [-50.4068, -17.70979], [-50.41073, -17.70926], [-50.41391, -17.70922], [-50.41754, -17.7113], [-50.41929, -17.71366], [-50.41999, -17.71697], [-50.42002, -17.71937], [-50.42038, -17.72209], [-50.42077, -17.72351], [-50.42165, -17.72454], [-50.42316, -17.72759], [-50.42413, -17.73196], [-50.42518, -17.73265], [-50.42698, -17.73338], [-50.43032, -17.73565], [-50.43711, -17.73846], [-50.4383, -17.73914], [-50.44111, -17.74002], [-50.44324, -17.74044], [-50.44421, -17.74028], [-50.44519, -17.73992], [-50.44827, -17.73941], [-50.45102, -17.73927], [-50.45188, -17.73983], [-50.45238, -17.7406], [-50.45276, -17.74169], [-50.45277, -17.74274], [-50.45224, -17.74583], [-50.45235, -17.75153], [-50.45218, -17.75294], [-50.45171, -17.75398], [-50.45098, -17.75457], [-50.44965, -17.75466]]]}}, 
{"type": "Feature", "properties": {"CD_SETOR": "521930805000060", "CD_SIT": "8", "NM_DIST": "Santa Helena de Goiás", "NM_SUBDIST": null}, "geometry": {"type": "Polygon", "coordinates": [[[-50.42378, -17.87918], [-50.42619, -17.87946], [-50.42643, -17.87978], [-50.42714, -17.88186], [-50.42833, -17.88362], [-50.42835, -17.88548], [-50.43103, -17.88706], [-50.43177, -17.88731], [-50.43272, -17.88725], [-50.43318, -17.88784], [-50.43362, -17.88912], [-50.43426, -17.89018], [-50.43494, -17.89065], [-50.43688, -17.89322], [-50.43825, -17.89394], [-50.43925, -17.89385], [-50.4405, -17.89402], [-50.44122, -17.89446], [-50.44167, -17.89504], [-50.44357, -17.89592], [-50.44464, -17.89586], [-50.4459, -17.89548], [-50.44649, -17.89499], [-50.44652, -17.89464], [-50.4452, -17.89389], [-50.44392, -17.89282], [-50.44377, -17.89198], [-50.44214, -17.88914], [-50.44215, -17.88795], [-50.44154, -17.88717], [-50.44163, -17.88643], [-50.44213, -17.88572], [-50.44282, -17.88526], [-50.44301, -17.88486], [-50.44302, -17.88417], [-50.4427, -17.88353], [-50.44319, -17.88279], [-50.4434, -17.88263], [-50.44378, -17.88269], [-50.44437, -17.88326], [-50.44603, -17.88395], [-50.44697, -17.88351], [-50.4491, -17.88369], [-50.4507, -17.88343], [-50.45173, -17.88346], [-50.45712, -17.88167], [-50.45752, -17.88112], [-50.45806, -17.87916], [-50.45842, -17.87858], [-50.45896, -17.87824], [-50.45997, -17.87822], [-50.46233, -17.87892], [-50.46424, -17.87858], [-50.46432, -17.87806], [-50.46325, -17.87644], [-50.46296, -17.87617], [-50.46193, -17.87583], [-50.46142, -17.87518], [-50.46135, -17.87455], [-50.4611, -17.87403], [-50.46073, -17.87137], [-50.46101, -17.87033], [-50.46136, -17.86992], [-50.46212, -17.8696], [-50.46465, -17.86956], [-50.46647, -17.86987], [-50.46814, -17.86985], [-50.47001, -17.86956], [-50.47194, -17.8696], [-50.47312, -17.86925], [-50.47374, -17.86882], [-50.47392, -17.86847], [-50.47392, -17.86775], [-50.47413, -17.86737], [-50.47504, -17.86665], [-50.47641, -17.86613], [-50.47769, -17.86508], [-50.47864, -17.86456], [-50.47882, -17.86335], [-50.47864, -17.86297], [-50.47796, -17.86236], [-50.47768, -17.86152], [-50.47781, -17.85871], [-50.47757, -17.85694], [-50.47804, -17.85637], [-50.47817, -17.85566], [-50.47835, -17.85543], [-50.47893, -17.85527], [-50.48044, -17.85529], [-50.48064, -17.85487], [-50.4808, -17.85334], [-50.48176, -17.853], [-50.48202, -17.85234], [-50.4826, -17.85199], [-50.4827, -17.85174], [-50.48405, -17.85172], [-50.48553, -17.85129], [-50.48608, -17.8511], [-50.48694, -17.85051], [-50.48857, -17.84989], [-50.48871, -17.84954], [-50.48881, -17.84739], [-50.48939, -17.84639], [-50.49105, -17.84539], [-50.49163, -17.84523], [-50.49196, -17.84481], [-50.49266, -17.84438], [-50.49537, -17.84339], [-50.49627, -17.84289], [-50.49845, -17.84244], [-50.49918, -17.84164], [-50.50007, -17.84018], [-50.50064, -17.83968], [-50.50166, -17.83968], [-50.502, -17.84033], [-50.50242, -17.84058], [-50.5038, -17.84069], [-50.5044, -17.84024], [-50.50535, -17.84026], [-50.50712, -17.83939], [-50.50731, -17.83863], [-50.50782, -17.83811], [-50.50875, -17.83817], [-50.50951, -17.83787], [-50.5099, -17.83805], [-50.51018, -17.838], [-50.51038, -17.83759], [-50.51136, -17.83694], [-50.51203, -17.83607], [-50.51268, -17.83579], [-50.51344, -17.83515], [-50.51426, -17.83378], [-50.51425, -17.83336], [-50.51394, -17.83276], [-50.51391, -17.83208], [-50.51452, -17.83149], [-50.51564, -17.83111], [-50.51576, -17.8305], [-50.51661, -17.83029], [-50.51705, -17.83122], [-50.51758, -17.83142], [-50.51909, -17.83139], [-50.51946, -17.83113], [-50.52051, -17.83097], [-50.52095, -17.83067], [-50.52106, -17.8304], [-50.52095, -17.82991], [-50.52056, -17.82948], [-50.52082, -17.82895], [-50.52052, -17.82843], [-50.52062, -17.82827], [-50.52116, -17.82829], [-50.52354, -17.82938], [-50.52471, -17.82943], [-50.52524, -17.8258], [-50.52613, -17.82398], [-50.52646, -17.82369], [-50.52836, -17.8232], [-50.5308, -17.81836], [-50.53069, -17.81452], [-50.51769, -17.79584], [-50.50742, -17.78157], [-50.51086, -17.77896], [-50.50917, -17.77653], [-50.50785, -17.77509], [-50.50188, -17.77114], [-50.49902, -17.76878], [-50.49872, -17.76815], [-50.49858, -17.76624], [-50.49808, -17.76562], [-50.49783, -17.76447], [-50.49682, -17.76337], [-50.49501, -17.76235], [-50.49148, -17.7612], [-50.49024, -17.76032], [-50.48974, -17.7597], [-50.48915, -17.75937], [-50.48681, -17.75855], [-50.48395, -17.75803], [-50.47887, -17.75806], [-50.47694, -17.75888], [-50.47657, -17.75919], [-50.47593, -17.76017], [-50.47538, -17.76042], [-50.47492, -17.76043], [-50.47339, -17.75944], [-50.47174, -17.75955], [-50.4692, -17.75886], [-50.46839, -17.75837], [-50.46726, -17.75737], [-50.46564, -17.75665], [-50.46517, -17.7568], [-50.46473, -17.75755], [-50.46412, -17.75767], [-50.46241, -17.75697], [-50.46158, -17.75703], [-50.4612, -17.75659], [-50.46031, -17.75603], [-50.4584, -17.75594], [-50.45681, -17.75539], [-50.45557, -17.75548], [-50.45329, -17.75505], [-50.45156, -17.75554], [-50.4507, -17.75558], [-50.45043, -17.7555], [-50.44965, -17.75466], [-50.4483, -17.75475], [-50.44707, -17.75439], [-50.4431, -17.75402], [-50.44163, -17.7537], [-50.44049, -17.75415], [-50.43954, -17.75493], [-50.43854, -17.75847], [-50.43799, -17.75919], [-50.43538, -17.76095], [-50.43491, -17.76218], [-50.43465, -17.76835], [-50.43585, -17.77225], [-50.43598, -17.77352], [-50.43586, -17.77579], [-50.43644, -17.77839], [-50.43743, -17.77926], [-50.43783, -17.78014], [-50.43796, -17.78161], [-50.43969, -17.7871], [-50.44032, -17.78796], [-50.44193, -17.79155], [-50.44227, -17.79382], [-50.44227, -17.79527], [-50.44168, -17.79876], [-50.44135, -17.7999], [-50.43988, -17.80153], [-50.43905, -17.80221], [-50.4338, -17.80448], [-50.43213, -17.80569], [-50.43099, -17.80928], [-50.4269, -17.81417], [-50.42457, -17.81542], [-50.42368, -17.8163], [-50.4222, -17.81702], [-50.42108, -17.81793], [-50.41885, -17.81929], [-50.41718, -17.8211], [-50.41643, -17.82367], [-50.41627, -17.82507], [-50.41455, -17.82861], [-50.41324, -17.83024], [-50.41254, -17.83088], [-50.41155, -17.83101], [-50.4106, -17.8306], [-50.40988, -17.82992], [-50.40871, -17.82951], [-50.40776, -17.82964], [-50.40665, -17.83005], [-50.40558, -17.83091], [-50.4049, -17.83168], [-50.40396, -17.83221], [-50.40241, -17.83273], [-50.4004, -17.83381], [-50.39904, -17.8354], [-50.39824, -17.83603], [-50.39771, -17.8368], [-50.3971, -17.83816], [-50.39688, -17.83934], [-50.39699, -17.84038], [-50.39755, -17.84143], [-50.39941, -17.84293], [-50.4004, -17.84322], [-50.40235, -17.8447], [-50.40385, -17.84533], [-50.40491, -17.84602], [-50.40699, -17.84656], [-50.40977, -17.84624], [-50.41332, -17.84621], [-50.41447, -17.84645], [-50.41535, -17.84711], [-50.4159, -17.84789], [-50.41615, -17.84888], [-50.41664, -17.8499], [-50.41743, -17.85351], [-50.41804, -17.85546], [-50.41916, -17.85719], [-50.41999, -17.85955], [-50.42013, -17.86054], [-50.41993, -17.86255], [-50.42006, -17.86746], [-50.42126, -17.87348], [-50.42318, -17.87712], [-50.4236, -17.87817], [-50.42378, -17.87918]]]}}, 
{"type": "Feature", "properties": {"CD_SETOR": "521930805000061", "CD_SIT": "8", "NM_DIST": "Santa Helena de Goiás", "NM_SUBDIST": null}, "geometry": {"type": "Polygon", "coordinates": [[[-50.52471, -17.82943], [-50.52354, -17.82938], [-50.52116, -17.82829], [-50.52062, -17.82827], [-50.52052, -17.82843], [-50.52082, -17.82895], [-50.52056, -17.82948], [-50.52095, -17.82991], [-50.52106, -17.8304], [-50.52095, -17.83067], [-50.52051, -17.83097], [-50.51946, -17.83113], [-50.51909, -17.83139], [-50.51758, -17.83142], [-50.51705, -17.83122], [-50.51661, -17.83029], [-50.51576, -17.8305], [-50.51564, -17.83111], [-50.51452, -17.83149], [-50.51391, -17.83208], [-50.51394, -17.83276], [-50.51425, -17.83336], [-50.51426, -17.83378], [-50.51344, -17.83515], [-50.51268, -17.83579], [-50.51203, -17.83607], [-50.51136, -17.83694], [-50.51038, -17.83759], [-50.51018, -17.838], [-50.5099, -17.83805], [-50.50951, -17.83787], [-50.50875, -17.83817], [-50.50782, -17.83811], [-50.50731, -17.83863], [-50.50712, -17.83939], [-50.50535, -17.84026], [-50.5044, -17.84024], [-50.5038, -17.84069], [-50.50242, -17.84058], [-50.502, -17.84033], [-50.50166, -17.83968], [-50.50064, -17.83968], [-50.50007, -17.84018], [-50.49918, -17.84164], [-50.49845, -17.84244], [-50.49627, -17.84289], [-50.49537, -17.84339], [-50.49266, -17.84438], [-50.49196, -17.84481], [-50.49163, -17.84523], [-50.49105, -17.84539], [-50.48939, -17.84639], [-50.48881, -17.84739], [-50.48871, -17.84954], [-50.48857, -17.84989], [-50.48694, -17.85051], [-50.48608, -17.8511], [-50.48553, -17.85129], [-50.48405, -17.85172], [-50.4827, -17.85174], [-50.4826, -17.85199], [-50.48202, -17.85234], [-50.48176, -17.853], [-50.4808, -17.85334], [-50.48064, -17.85487], [-50.48044, -17.85529], [-50.47893, -17.85527], [-50.47835, -17.85543], [-50.47817, -17.85566], [-50.47804, -17.85637], [-50.47757, -17.85694], [-50.47781, -17.85871], [-50.47768, -17.86152], [-50.47796, -17.86236], [-50.47864, -17.86297], [-50.47882, -17.86335], [-50.47864, -17.86456], [-50.47769, -17.86508], [-50.47641, -17.86613], [-50.47504, -17.86665], [-50.47413, -17.86737], [-50.47392, -17.86775], [-50.47392, -17.86847], [-50.47374, -17.86882], [-50.47312, -17.86925], [-50.47194, -17.8696], [-50.47001, -17.86956], [-50.46814, -17.86985], [-50.46647, -17.86987], [-50.46465, -17.86956], [-50.46212, -17.8696], [-50.46136, -17.86992], [-50.46101, -17.87033], [-50.46073, -17.87137], [-50.4611, -17.87403], [-50.46135, -17.87455], [-50.46142, -17.87518], [-50.46193, -17.87583], [-50.46296, -17.87617], [-50.46325, -17.87644], [-50.46432, -17.87806], [-50.46424, -17.87858], [-50.46233, -17.87892], [-50.45997, -17.87822], [-50.45896, -17.87824], [-50.45842, -17.87858], [-50.45806, -17.87916], [-50.45752, -17.88112], [-50.45712, -17.88167], [-50.45173, -17.88346], [-50.4507, -17.88343], [-50.4491, -17.88369], [-50.44697, -17.88351], [-50.44603, -17.88395], [-50.44437, -17.88326], [-50.44378, -17.88269], [-50.4434, -17.88263], [-50.44319, -17.88279], [-50.4427, -17.88353], [-50.44302, -17.88417], [-50.44301, -17.88486], [-50.44282, -17.88526], [-50.44213, -17.88572], [-50.44163, -17.88643], [-50.44154, -17.88717], [-50.44215, -17.88795], [-50.44214, -17.88914], [-50.44377, -17.89198], [-50.44392, -17.89282], [-50.4452, -17.89389], [-50.44652, -17.89464], [-50.44649, -17.89499], [-50.4459, -17.89548], [-50.44464, -17.89586], [-50.44357, -17.89592], [-50.44167, -17.89504], [-50.44122, -17.89446], [-50.4405, -17.89402], [-50.43925, -17.89385], [-50.43825, -17.89394], [-50.43688, -17.89322], [-50.43494, -17.89065], [-50.43426, -17.89018], [-50.43362, -17.88912], [-50.43318, -17.88784], [-50.43272, -17.88725], [-50.43177, -17.88731], [-50.43103, -17.88706], [-50.42835, -17.88548], [-50.42833, -17.88362], [-50.42714, -17.88186], [-50.42643, -17.87978], [-50.42619, -17.87946], [-50.42378, -17.87918], [-50.42379, -17.88073], [-50.42346, -17.88175], [-50.42049, -17.88329], [-50.41882, -17.88469], [-50.41771, -17.88651], [-50.41693, -17.88732], [-50.41613, -17.88788], [-50.41477, -17.89067], [-50.41243, -17.89444], [-50.41082, -17.89554], [-50.41007, -17.89648], [-50.40843, -17.89775], [-50.40428, -17.89908], [-50.40185, -17.89935], [-50.40086, -17.8991], [-50.39949, -17.89733], [-50.39907, -17.89637], [-50.39943, -17.89274], [-50.39988, -17.89153], [-50.40026, -17.88862], [-50.40155, -17.884], [-50.40165, -17.88186], [-50.40049, -17.88018], [-50.39951, -17.87996], [-50.39704, -17.88091], [-50.39549, -17.88236], [-50.39409, -17.88422], [-50.39363, -17.88512], [-50.39095, -17.88726], [-50.3876, -17.88884], [-50.38329, -17.89015], [-50.38213, -17.89014], [-50.37865, -17.89073], [-50.3759, -17.891], [-50.37329, -17.89166], [-50.36992, -17.89376], [-50.3694, -17.89503], [-50.36921, -17.89603], [-50.36921, -17.89753], [-50.36965, -17.89884], [-50.37162, -17.90079], [-50.37254, -17.90111], [-50.37566, -17.90159], [-50.38103, -17.90173], [-50.38332, -17.90239], [-50.38518, -17.90389], [-50.38641, -17.90594], [-50.38737, -17.91079], [-50.38721, -17.91305], [-50.38624, -17.91414], [-50.38526, -17.91484], [-50.38416, -17.91536], [-50.38185, -17.916], [-50.37885, -17.91613], [-50.37616, -17.91604], [-50.37159, -17.91535], [-50.37066, -17.91495], [-50.36849, -17.91467], [-50.36582, -17.9148], [-50.3636, -17.91602], [-50.36279, -17.91785], [-50.36265, -17.91904], [-50.36304, -17.92144], [-50.36396, -17.9242], [-50.36474, -17.92861], [-50.36465, -17.92952], [-50.36435, -17.93042], [-50.36362, -17.93143], [-50.36188, -17.93251], [-50.36058, -17.93296], [-50.35363, -17.93315], [-50.35273, -17.93363], [-50.35074, -17.93433], [-50.34966, -17.93503], [-50.34873, -17.93594], [-50.34793, -17.93714], [-50.34637, -17.94092], [-50.34538, -17.94234], [-50.34721, -17.94419], [-50.34921, -17.94438], [-50.35088, -17.94425], [-50.35296, -17.94374], [-50.35404, -17.94404], [-50.35552, -17.94611], [-50.35761, -17.94765], [-50.37284, -17.92976], [-50.37348, -17.92962], [-50.3806, -17.92964], [-50.38136, -17.92933], [-50.42275, -17.90185], [-50.43343, -17.89865], [-50.44106, -17.90219], [-50.44837, -17.90287], [-50.45056, -17.89994], [-50.45078, -17.89936], [-50.45081, -17.89796], [-50.4646, -17.88672], [-50.46932, -17.88037], [-50.46994, -17.87976], [-50.4931, -17.87469], [-50.52472, -17.86598], [-50.54781, -17.85175], [-50.56117, -17.84116], [-50.56254, -17.84022], [-50.5639, -17.83961], [-50.5678, -17.8373], [-50.57058, -17.83636], [-50.57223, -17.8349], [-50.57233, -17.83512], [-50.57257, -17.83514], [-50.57311, -17.83348], [-50.57381, -17.82955], [-50.57347, -17.82947], [-50.5728, -17.8302], [-50.57025, -17.83109], [-50.56697, -17.82443], [-50.56604, -17.82315], [-50.56585, -17.82245], [-50.5654, -17.82187], [-50.56486, -17.82049], [-50.56428, -17.82051], [-50.56393, -17.82112], [-50.56367, -17.82105], [-50.56337, -17.82047], [-50.56332, -17.82084], [-50.56287, -17.82053], [-50.5616, -17.8212], [-50.56159, -17.82081], [-50.56107, -17.82093], [-50.5614, -17.82066], [-50.56098, -17.82062], [-50.56113, -17.82042], [-50.56106, -17.82015], [-50.56007, -17.82015], [-50.56031, -17.81997], [-50.5601, -17.81961], [-50.55932, -17.8195], [-50.55901, -17.81964], [-50.559, -17.8193], [-50.55838, -17.81922], [-50.5582, -17.81902], [-50.55752, -17.81916], [-50.55656, -17.81901], [-50.55582, -17.81931], [-50.55451, -17.81925], [-50.55387, -17.81874], [-50.55362, -17.81886], [-50.55373, -17.81913], [-50.5536, -17.81933], [-50.55266, -17.81992], [-50.55222, -17.82], [-50.55203, -17.82044], [-50.55161, -17.82019], [-50.55135, -17.82031], [-50.5511, -17.82059], [-50.55109, -17.82097], [-50.5505, -17.82139], [-50.55018, -17.82142], [-50.54989, -17.82173], [-50.54986, -17.82214], [-50.54965, -17.82238], [-50.54909, -17.82211], [-50.54895, -17.82228], [-50.54848, -17.8223], [-50.54709, -17.82282], [-50.54657, -17.82286], [-50.54576, -17.82262], [-50.54553, -17.82306], [-50.54421, -17.82319], [-50.5439, -17.82349], [-50.54328, -17.82367], [-50.54155, -17.82368], [-50.54116, -17.82408], [-50.54049, -17.82441], [-50.54052, -17.82528], [-50.54008, -17.82557], [-50.54004, -17.82581], [-50.53958, -17.82584], [-50.53932, -17.8261], [-50.53847, -17.82632], [-50.53794, -17.82695], [-50.53764, -17.82688], [-50.53754, -17.82645], [-50.53732, -17.82627], [-50.53624, -17.82691], [-50.53564, -17.82645], [-50.53513, -17.82651], [-50.53479, -17.82699], [-50.53499, -17.8272], [-50.53532, -17.827], [-50.5351, -17.82788], [-50.53448, -17.82804], [-50.53414, -17.82868], [-50.53331, -17.82908], [-50.53207, -17.82924], [-50.53099, -17.82874], [-50.53008, -17.82906], [-50.52898, -17.82889], [-50.52833, -17.82924], [-50.52691, -17.82941], [-50.52644, -17.82973], [-50.5261, -17.82977], [-50.52471, -17.82943]]]}}, 
{"type": "Feature", "properties": {"CD_SETOR": "521930805000062", "CD_SIT": "1", "NM_DIST": "Santa Helena de Goiás", "NM_SUBDIST": null}, "geometry": {"type": "Polygon", "coordinates": [[[-50.59544, -17.81412], [-50.59835, -17.81612], [-50.5996, -17.81445], [-50.59599, -17.81195], [-50.59473, -17.81363], [-50.59544, -17.81412]]]}}, 
{"type": "Feature", "properties": {"CD_SETOR": "521930805000064", "CD_SIT": "2", "NM_DIST": "Santa Helena de Goiás", "NM_SUBDIST": null}, "geometry": {"type": "Polygon", "coordinates": [[[-50.61474, -17.80428], [-50.61591, -17.80626], [-50.61737, -17.81036], [-50.6172, -17.81038], [-50.6182, -17.81288], [-50.62622, -17.81181], [-50.62626, -17.81058], [-50.62666, -17.80922], [-50.62454, -17.80574], [-50.62005, -17.80802], [-50.61721, -17.80316], [-50.61684, -17.80314], [-50.61474, -17.80428]]]}}, 
{"type": "Feature", "properties": {"CD_SETOR": "521930805000066", "CD_SIT": "1", "NM_DIST": "Santa Helena de Goiás", "NM_SUBDIST": null}, "geometry": {"type": "Polygon", "coordinates": [[[-50.61721, -17.80316], [-50.62005, -17.80802], [-50.62158, -17.80722], [-50.61918, -17.80308], [-50.61721, -17.80316]]]}}, 
{"type": "Feature", "properties": {"CD_SETOR": "521930805000067", "CD_SIT": "1", "NM_DIST": "Santa Helena de Goiás", "NM_SUBDIST": null}, "geometry": {"type": "Polygon", "coordinates": [[[-50.61216, -17.80572], [-50.61341, -17.80772], [-50.61591, -17.80626], [-50.61474, -17.80428], [-50.61216, -17.80572]]]}}, 
{"type": "Feature", "properties": {"CD_SETOR": "521930805000070", "CD_SIT": "2", "NM_DIST": "Santa Helena de Goiás", "NM_SUBDIST": null}, "geometry": {"type": "Polygon", "coordinates": [[[-50.57255, -17.81873], [-50.57347, -17.81892], [-50.57329, -17.81906], [-50.57352, -17.81938], [-50.57502, -17.82032], [-50.5755, -17.82044], [-50.576, -17.81999], [-50.57671, -17.81893], [-50.57656, -17.81856], [-50.57689, -17.81865], [-50.57698, -17.81884], [-50.5774, -17.81869], [-50.57801, -17.81816], [-50.57821, -17.81754], [-50.57862, -17.81706], [-50.58007, -17.81635], [-50.58046, -17.81597], [-50.58209, -17.81547], [-50.58431, -17.81626], [-50.58475, -17.81625], [-50.58025, -17.81003], [-50.579, -17.81051], [-50.57944, -17.81113], [-50.57865, -17.81147], [-50.57743, -17.8107], [-50.57623, -17.81085], [-50.57683, -17.80583], [-50.57012, -17.80552], [-50.56974, -17.80569], [-50.57276, -17.81349], [-50.57321, -17.81388], [-50.57332, -17.81419], [-50.57318, -17.81507], [-50.57334, -17.81588], [-50.57313, -17.81637], [-50.57306, -17.81723], [-50.57262, -17.81799], [-50.5727, -17.81847], [-50.57255, -17.81873]]]}}, 
{"type": "Feature", "properties": {"CD_SETOR": "521930805000072", "CD_SIT": "2", "NM_DIST": "Santa Helena de Goiás", "NM_SUBDIST": null}, "geometry": {"type": "Polygon", "coordinates": [[[-50.56486, -17.82049], [-50.5654, -17.82187], [-50.56585, -17.82245], [-50.56604, -17.82315], [-50.56697, -17.82443], [-50.57025, -17.83109], [-50.5728, -17.8302], [-50.57347, -17.82947], [-50.57381, -17.82955], [-50.57452, -17.82567], [-50.57459, -17.82419], [-50.57515, -17.82038], [-50.57348, -17.81935], [-50.57329, -17.81906], [-50.57347, -17.81892], [-50.57285, -17.81886], [-50.57176, -17.81827], [-50.5713, -17.81821], [-50.56986, -17.81823], [-50.56911, -17.81842], [-50.56862, -17.81889], [-50.5686, -17.81947], [-50.5683, -17.81962], [-50.568, -17.81951], [-50.56742, -17.81983], [-50.5675, -17.82032], [-50.56674, -17.82037], [-50.56647, -17.82062], [-50.56585, -17.82055], [-50.56557, -17.82036], [-50.56486, -17.82049]]]}}, 
{"type": "Feature", "properties": {"CD_SETOR": "521930805000073", "CD_SIT": "1", "NM_DIST": "Santa Helena de Goiás", "NM_SUBDIST": null}, "geometry": {"type": "Polygon", "coordinates": [[[-50.61498, -17.81166], [-50.61606, -17.81326], [-50.6182, -17.81288], [-50.6172, -17.81038], [-50.61498, -17.81166]]]}}, 
{"type": "Feature", "properties": {"CD_SETOR": "521930805000074", "CD_SIT": "1", "NM_DIST": "Santa Helena de Goiás", "NM_SUBDIST": null}, "geometry": {"type": "Polygon", "coordinates": [[[-50.61119, -17.81366], [-50.61095, -17.81375], [-50.61141, -17.81475], [-50.61595, -17.81321], [-50.61498, -17.81166], [-50.61215, -17.81328], [-50.61119, -17.81366]]]}}, 
{"type": "Feature", "properties": {"CD_SETOR": "521930805000075", "CD_SIT": "1", "NM_DIST": "Santa Helena de Goiás", "NM_SUBDIST": null}, "geometry": {"type": "Polygon", "coordinates": [[[-50.5784, -17.79629], [-50.57809, -17.79669], [-50.57948, -17.79774], [-50.58252, -17.80126], [-50.58293, -17.80335], [-50.58324, -17.8038], [-50.5834, -17.80381], [-50.58561, -17.8009], [-50.57885, -17.79623], [-50.5784, -17.79629]]]}}, 
{"type": "Feature", "properties": {"CD_SETOR": "521930805000076", "CD_SIT": "1", "NM_DIST": "Santa Helena de Goiás", "NM_SUBDIST": null}, "geometry": {"type": "Polygon", "coordinates": [[[-50.58335, -17.80383], [-50.58254, -17.80473], [-50.58164, -17.80479], [-50.5816, -17.80532], [-50.58465, -17.80949], [-50.59019, -17.80808], [-50.58923, -17.80739], [-50.5896, -17.80718], [-50.59018, -17.80759], [-50.59127, -17.80612], [-50.59106, -17.80597], [-50.59157, -17.80504], [-50.58561, -17.8009], [-50.58335, -17.80383]]]}}, 
{"type": "Feature", "properties": {"CD_SETOR": "521930805000077", "CD_SIT": "1", "NM_DIST": "Santa Helena de Goiás", "NM_SUBDIST": null}, "geometry": {"type": "Polygon", "coordinates": [[[-50.62052, -17.80301], [-50.62257, -17.8067], [-50.62417, -17.80588], [-50.62279, -17.80351], [-50.6222, -17.80383], [-50.622, -17.80348], [-50.6226, -17.80318], [-50.62246, -17.80291], [-50.62052, -17.80301]]]}}, 
{"type": "Feature", "properties": {"CD_SETOR": "521930805000078", "CD_SIT": "1", "NM_DIST": "Santa Helena de Goiás", "NM_SUBDIST": null}, "geometry": {"type": "Polygon", "coordinates": [[[-50.62279, -17.80351], [-50.6226, -17.80318], [-50.622, -17.80348], [-50.6222, -17.80383], [-50.62279, -17.80351]]]}}, 
{"type": "Feature", "properties": {"CD_SETOR": "521930805000079", "CD_SIT": "2", "NM_DIST": "Santa Helena de Goiás", "NM_SUBDIST": null}, "geometry": {"type": "Polygon", "coordinates": [[[-50.59469, -17.79684], [-50.59879, -17.80457], [-50.59846, -17.80484], [-50.59812, -17.80562], [-50.59621, -17.80652], [-50.59584, -17.80689], [-50.59537, -17.80767], [-50.59573, -17.80793], [-50.59734, -17.80753], [-50.5978, -17.80702], [-50.59835, -17.80689], [-50.59922, -17.80627], [-50.60194, -17.80512], [-50.6036, -17.80511], [-50.60404, -17.80472], [-50.60418, -17.8041], [-50.60464, -17.80325], [-50.60676, -17.8031], [-50.60801, -17.80448], [-50.60815, -17.80496], [-50.60956, -17.80492], [-50.61021, -17.80458], [-50.61021, -17.79963], [-50.61069, -17.79763], [-50.60802, -17.79771], [-50.60807, -17.79713], [-50.6077, -17.79505], [-50.60636, -17.7943], [-50.60434, -17.79378], [-50.6021, -17.79397], [-50.60043, -17.79457], [-50.59653, -17.79651], [-50.59469, -17.79684]]]}}, 
{"type": "Feature", "properties": {"CD_SETOR": "521930805000080", "CD_SIT": "1", "NM_DIST": "Santa Helena de Goiás", "NM_SUBDIST": null}, "geometry": {"type": "Polygon", "coordinates": [[[-50.57871, -17.79525], [-50.5784, -17.79629], [-50.57885, -17.79623], [-50.59097, -17.8046], [-50.59523, -17.80773], [-50.59621, -17.80652], [-50.59812, -17.80562], [-50.59846, -17.80484], [-50.59879, -17.80457], [-50.59469, -17.79684], [-50.59281, -17.79665], [-50.5887, -17.79503], [-50.58702, -17.79465], [-50.58313, -17.79416], [-50.58129, -17.79341], [-50.57917, -17.79461], [-50.57871, -17.79525]]]}}, 
{"type": "Feature", "properties": {"CD_SETOR": "521930805000081", "CD_SIT": "1", "NM_DIST": "Santa Helena de Goiás", "NM_SUBDIST": null}, "geometry": {"type": "Polygon", "coordinates": [[[-50.59462, -17.81917], [-50.59499, -17.82182], [-50.59744, -17.82143], [-50.59884, -17.81979], [-50.59876, -17.8197], [-50.59971, -17.81844], [-50.59945, -17.81764], [-50.59981, -17.81714], [-50.59835, -17.81612], [-50.59623, -17.8189], [-50.59462, -17.81917]]]}}, 
{"type": "Feature", "properties": {"CD_SETOR": "521930805000082", "CD_SIT": "1", "NM_DIST": "Santa Helena de Goiás", "NM_SUBDIST": null}, "geometry": {"type": "Polygon", "coordinates": [[[-50.59499, -17.82182], [-50.5952, -17.82326], [-50.59616, -17.82278], [-50.59843, -17.82616], [-50.60001, -17.82588], [-50.60158, -17.82528], [-50.60439, -17.82404], [-50.60583, -17.82311], [-50.6022, -17.81906], [-50.60244, -17.81897], [-50.59981, -17.81714], [-50.59945, -17.81764], [-50.59971, -17.81844], [-50.59876, -17.8197], [-50.59884, -17.81979], [-50.59762, -17.82129], [-50.59744, -17.82143], [-50.59499, -17.82182]]]}}, 
{"type": "Feature", "properties": {"CD_SETOR": "521930805000083", "CD_SIT": "1", "NM_DIST": "Santa Helena de Goiás", "NM_SUBDIST": null}, "geometry": {"type": "Polygon", "coordinates": [[[-50.58274, -17.80223], [-50.58252, -17.80126], [-50.57948, -17.79774], [-50.57875, -17.7972], [-50.57832, -17.80099], [-50.58141, -17.80128], [-50.58133, -17.80207], [-50.58274, -17.80223]]]}}, 
{"type": "Feature", "properties": {"CD_SETOR": "521930805000084", "CD_SIT": "1", "NM_DIST": "Santa Helena de Goiás", "NM_SUBDIST": null}, "geometry": {"type": "Polygon", "coordinates": [[[-50.57701, -17.80429], [-50.5823, -17.80482], [-50.58287, -17.80447], [-50.58335, -17.80383], [-50.58293, -17.80335], [-50.58274, -17.80223], [-50.58133, -17.80207], [-50.58141, -17.80128], [-50.57832, -17.80099], [-50.57875, -17.7972], [-50.57809, -17.79669], [-50.57817, -17.79657], [-50.57764, -17.79645], [-50.57785, -17.79721], [-50.57701, -17.80429]]]}}, 
{"type": "Feature", "properties": {"CD_SETOR": "521930805000085", "CD_SIT": "8", "NM_DIST": "Santa Helena de Goiás", "NM_SUBDIST": null}, "geometry": {"type": "Polygon", "coordinates": [[[-50.62622, -17.81181], [-50.62626, -17.81259], [-50.62662, -17.81388], [-50.62765, -17.81552], [-50.63418, -17.82227], [-50.63302, -17.8237], [-50.63247, -17.82553], [-50.63239, -17.82904], [-50.63211, -17.83096], [-50.63236, -17.83227], [-50.63188, -17.83421], [-50.63208, -17.83472], [-50.63201, -17.835], [-50.6297, -17.83513], [-50.62635, -17.83504], [-50.62324, -17.83427], [-50.62106, -17.83335], [-50.62045, -17.83277], [-50.61974, -17.83255], [-50.61779, -17.83256], [-50.61507, -17.83198], [-50.61455, -17.83201], [-50.61259, -17.83266], [-50.61292, -17.83379], [-50.61397, -17.83518], [-50.61416, -17.83574], [-50.61661, -17.84933], [-50.61583, -17.85388], [-50.61539, -17.85574], [-50.61498, -17.85663], [-50.61288, -17.85921], [-50.60726, -17.85973], [-50.60499, -17.85971], [-50.60544, -17.86455], [-50.60575, -17.86502], [-50.60635, -17.86547], [-50.60705, -17.86568], [-50.60784, -17.86557], [-50.60815, -17.86546], [-50.60945, -17.86435], [-50.60892, -17.86422], [-50.60875, -17.86402], [-50.60903, -17.86355], [-50.60946, -17.86343], [-50.60962, -17.86358], [-50.61014, -17.86346], [-50.61076, -17.86361], [-50.61147, -17.86414], [-50.61345, -17.86415], [-50.61549, -17.86477], [-50.61764, -17.86491], [-50.61824, -17.8648], [-50.61859, -17.86461], [-50.6187, -17.86432], [-50.61826, -17.86283], [-50.61863, -17.86196], [-50.61859, -17.86137], [-50.61949, -17.86023], [-50.61977, -17.85787], [-50.62068, -17.85734], [-50.6217, -17.85717], [-50.62245, -17.85724], [-50.62347, -17.85778], [-50.6254, -17.85947], [-50.62623, -17.85956], [-50.62706, -17.85907], [-50.62791, -17.85903], [-50.62848, -17.8597], [-50.6305, -17.86126], [-50.63136, -17.86175], [-50.63142, -17.86211], [-50.63123, -17.86253], [-50.6318, -17.8636], [-50.63211, -17.86517], [-50.63234, -17.86552], [-50.63271, -17.86559], [-50.63552, -17.86449], [-50.63663, -17.8643], [-50.63789, -17.86369], [-50.63943, -17.86386], [-50.64128, -17.86315], [-50.64174, -17.86334], [-50.64177, -17.86318], [-50.64271, -17.86301], [-50.64827, -17.86594], [-50.64921, -17.86608], [-50.65002, -17.86677], [-50.65216, -17.87052], [-50.65297, -17.87116], [-50.65396, -17.87118], [-50.65502, -17.8708], [-50.65704, -17.86849], [-50.65785, -17.86681], [-50.65882, -17.86392], [-50.6596, -17.86291], [-50.66065, -17.86271], [-50.66263, -17.86385], [-50.66688, -17.86424], [-50.66763, -17.86351], [-50.6678, -17.86116], [-50.66824, -17.85871], [-50.67001, -17.85647], [-50.67141, -17.85556], [-50.6713, -17.85448], [-50.67074, -17.85352], [-50.6713, -17.85252], [-50.67235, -17.85212], [-50.6731, -17.85141], [-50.67416, -17.8495], [-50.67507, -17.84688], [-50.67588, -17.84584], [-50.67782, -17.84796], [-50.67905, -17.84799], [-50.68063, -17.84564], [-50.68157, -17.8455], [-50.68239, -17.84601], [-50.68327, -17.84634], [-50.68582, -17.84622], [-50.68688, -17.84595], [-50.68761, -17.84536], [-50.68822, -17.8446], [-50.68958, -17.84388], [-50.69063, -17.84448], [-50.69165, -17.84437], [-50.69266, -17.84365], [-50.6936, -17.84372], [-50.69422, -17.84461], [-50.69541, -17.84476], [-50.69816, -17.84404], [-50.69924, -17.8434], [-50.70016, -17.84179], [-50.70116, -17.842], [-50.70233, -17.84272], [-50.7031, -17.8435], [-50.70363, -17.8446], [-50.70483, -17.84507], [-50.70663, -17.84411], [-50.70824, -17.84281], [-50.70896, -17.84181], [-50.70985, -17.84105], [-50.71113, -17.84048], [-50.71252, -17.84078], [-50.71327, -17.84145], [-50.71435, -17.8418], [-50.7163, -17.8418], [-50.71729, -17.8414], [-50.71919, -17.84015], [-50.72118, -17.83982], [-50.72441, -17.83818], [-50.72591, -17.838], [-50.72699, -17.83815], [-50.72879, -17.83702], [-50.72938, -17.83627], [-50.73024, -17.83571], [-50.73118, -17.8345], [-50.73376, -17.83234], [-50.73485, -17.83175], [-50.736, -17.83158], [-50.7368, -17.83213], [-50.73838, -17.8337], [-50.73962, -17.83387], [-50.74074, -17.83355], [-50.7416, -17.83303], [-50.7448, -17.83221], [-50.74521, -17.83131], [-50.74574, -17.82923], [-50.74624, -17.82824], [-50.74711, -17.82769], [-50.74838, -17.8258], [-50.74919, -17.82525], [-50.74938, -17.82315], [-50.75194, -17.82136], [-50.75233, -17.82018], [-50.75249, -17.81519], [-50.7528, -17.81262], [-50.75352, -17.81081], [-50.75366, -17.80967], [-50.75444, -17.8075], [-50.75524, -17.80685], [-50.75616, -17.80643], [-50.75702, -17.8057], [-50.75957, -17.80463], [-50.76166, -17.804], [-50.76285, -17.80334], [-50.76647, -17.80078], [-50.76766, -17.79928], [-50.76807, -17.79828], [-50.76985, -17.79621], [-50.77033, -17.79512], [-50.77107, -17.79395], [-50.77301, -17.79213], [-50.77352, -17.7912], [-50.77448, -17.78843], [-50.77555, -17.78755], [-50.77762, -17.78673], [-50.78219, -17.78546], [-50.78332, -17.78285], [-50.78183, -17.7823], [-50.77541, -17.78141], [-50.77432, -17.7815], [-50.76731, -17.78343], [-50.76569, -17.7846], [-50.76421, -17.78503], [-50.7102, -17.79787], [-50.70897, -17.79871], [-50.7077, -17.80112], [-50.70678, -17.80224], [-50.69863, -17.80816], [-50.69738, -17.80881], [-50.69626, -17.80912], [-50.67028, -17.81364], [-50.66303, -17.81342], [-50.65227, -17.81243], [-50.64785, -17.81268], [-50.64453, -17.8123], [-50.64088, -17.81234], [-50.63302, -17.81202], [-50.6297, -17.81148], [-50.62622, -17.81181]]]}}, 
{"type": "Feature", "properties": {"CD_SETOR": "521930805000086", "CD_SIT": "2", "NM_DIST": "Santa Helena de Goiás", "NM_SUBDIST": null}, "geometry": {"type": "Polygon", "coordinates": [[[-50.6182, -17.81288], [-50.61804, -17.81291], [-50.61825, -17.81295], [-50.61844, -17.82092], [-50.6183, -17.82306], [-50.61714, -17.82355], [-50.61618, -17.82535], [-50.6156, -17.82942], [-50.61586, -17.83009], [-50.61666, -17.83112], [-50.61662, -17.83133], [-50.61623, -17.83162], [-50.61516, -17.83108], [-50.61507, -17.83198], [-50.61779, -17.83256], [-50.61974, -17.83255], [-50.62045, -17.83277], [-50.62106, -17.83335], [-50.62324, -17.83427], [-50.62635, -17.83504], [-50.6297, -17.83513], [-50.63201, -17.835], [-50.63208, -17.83472], [-50.63188, -17.83421], [-50.63236, -17.83227], [-50.63211, -17.83096], [-50.63239, -17.82904], [-50.63247, -17.82553], [-50.63302, -17.8237], [-50.63418, -17.82227], [-50.62765, -17.81552], [-50.62662, -17.81388], [-50.62626, -17.81259], [-50.62622, -17.81181], [-50.6182, -17.81288]]]}}, 
{"type": "Feature", "properties": {"CD_SETOR": "521930805000087", "CD_SIT": "8", "NM_DIST": "Santa Helena de Goiás", "NM_SUBDIST": null}, "geometry": {"type": "Polygon", "coordinates": [[[-50.66084, -17.63826], [-50.66068, -17.63916], [-50.66082, -17.64092], [-50.66059, -17.64192], [-50.65088, -17.675], [-50.63319, -17.71403], [-50.63211, -17.71489], [-50.60197, -17.73273], [-50.60135, -17.73342], [-50.60082, -17.73475], [-50.60085, -17.75743], [-50.60591, -17.7845], [-50.60807, -17.79713], [-50.60802, -17.79771], [-50.61069, -17.79763], [-50.61021, -17.79963], [-50.61021, -17.80458], [-50.60963, -17.80491], [-50.60834, -17.80486], [-50.60785, -17.80509], [-50.60786, -17.80606], [-50.61084, -17.80645], [-50.61684, -17.80314], [-50.62246, -17.80291], [-50.62417, -17.80588], [-50.62454, -17.80574], [-50.62666, -17.80922], [-50.62626, -17.81058], [-50.62622, -17.81181], [-50.6297, -17.81148], [-50.63302, -17.81202], [-50.64088, -17.81234], [-50.64453, -17.8123], [-50.64785, -17.81268], [-50.65227, -17.81243], [-50.66303, -17.81342], [-50.66959, -17.81364], [-50.67104, -17.81356], [-50.69626, -17.80912], [-50.69738, -17.80881], [-50.69863, -17.80816], [-50.70678, -17.80224], [-50.7077, -17.80112], [-50.70897, -17.79871], [-50.70974, -17.79807], [-50.71042, -17.7978], [-50.76421, -17.78503], [-50.76569, -17.7846], [-50.76731, -17.78343], [-50.77432, -17.7815], [-50.77541, -17.78141], [-50.78183, -17.7823], [-50.78332, -17.78285], [-50.78497, -17.78042], [-50.78578, -17.7783], [-50.78253, -17.77298], [-50.78135, -17.77081], [-50.78025, -17.76824], [-50.78, -17.7665], [-50.78004, -17.76446], [-50.78083, -17.75946], [-50.78085, -17.75712], [-50.78059, -17.75481], [-50.78109, -17.75348], [-50.78186, -17.75266], [-50.78495, -17.75048], [-50.78554, -17.7503], [-50.78669, -17.74939], [-50.78696, -17.74853], [-50.78685, -17.74748], [-50.78639, -17.74665], [-50.78531, -17.7461], [-50.77962, -17.74541], [-50.77617, -17.74428], [-50.77472, -17.74339], [-50.7743, -17.74297], [-50.77385, -17.74175], [-50.77319, -17.74092], [-50.7723, -17.73911], [-50.77082, -17.73716], [-50.77046, -17.73611], [-50.76841, -17.73388], [-50.76733, -17.73324], [-50.7649, -17.73222], [-50.76424, -17.73139], [-50.7635, -17.73082], [-50.76269, -17.72948], [-50.76049, -17.72725], [-50.759, -17.72475], [-50.7583, -17.72398], [-50.75715, -17.72324], [-50.75643, -17.72247], [-50.75486, -17.72156], [-50.75357, -17.72055], [-50.75132, -17.71922], [-50.74979, -17.71876], [-50.74891, -17.71814], [-50.74385, -17.71634], [-50.73994, -17.71584], [-50.73866, -17.71551], [-50.73697, -17.71454], [-50.7358, -17.71258], [-50.73546, -17.71113], [-50.73293, -17.70794], [-50.73049, -17.70567], [-50.72921, -17.70371], [-50.7288, -17.70257], [-50.72802, -17.70175], [-50.72471, -17.70022], [-50.72211, -17.69932], [-50.71969, -17.69609], [-50.71794, -17.69273], [-50.71629, -17.69082], [-50.71608, -17.68968], [-50.71512, -17.68769], [-50.71415, -17.68312], [-50.71357, -17.68221], [-50.712, -17.67473], [-50.71005, -17.67083], [-50.70919, -17.67026], [-50.70716, -17.66968], [-50.70641, -17.66899], [-50.70605, -17.66795], [-50.70555, -17.66537], [-50.70497, -17.66463], [-50.70266, -17.66349], [-50.70188, -17.66263], [-50.70188, -17.6614], [-50.7016, -17.66013], [-50.70072, -17.65914], [-50.69966, -17.65849], [-50.69738, -17.65902], [-50.69529, -17.65992], [-50.69308, -17.66031], [-50.69213, -17.66015], [-50.68935, -17.65855], [-50.6878, -17.65807], [-50.68699, -17.65736], [-50.68477, -17.65687], [-50.68252, -17.65715], [-50.68024, -17.65716], [-50.67924, -17.65702], [-50.67443, -17.65554], [-50.67247, -17.65438], [-50.67171, -17.65354], [-50.6704, -17.65079], [-50.66935, -17.65051], [-50.66502, -17.65096], [-50.66415, -17.65037], [-50.66369, -17.64955], [-50.66374, -17.64856], [-50.66407, -17.64761], [-50.66396, -17.64538], [-50.66502, -17.64213], [-50.66471, -17.64017], [-50.66377, -17.63836], [-50.66296, -17.63774], [-50.66199, -17.63783], [-50.66084, -17.63826]]]}}, 
{"type": "Feature", "properties": {"CD_SETOR": "521930805000088", "CD_SIT": "2", "NM_DIST": "Santa Helena de Goiás", "NM_SUBDIST": null}, "geometry": {"type": "Polygon", "coordinates": [[[-50.60995, -17.82158], [-50.60594, -17.82319], [-50.60583, -17.82311], [-50.60439, -17.82404], [-50.60158, -17.82528], [-50.60001, -17.82588], [-50.59843, -17.82616], [-50.60291, -17.83307], [-50.60319, -17.83402], [-50.60352, -17.83858], [-50.60461, -17.83817], [-50.60623, -17.83645], [-50.60641, -17.83671], [-50.60686, -17.83659], [-50.60701, -17.83581], [-50.60768, -17.83539], [-50.60838, -17.83522], [-50.60909, -17.83429], [-50.60985, -17.83377], [-50.61099, -17.83357], [-50.61263, -17.83281], [-50.61259, -17.83266], [-50.61455, -17.83201], [-50.61507, -17.83198], [-50.61516, -17.83108], [-50.61623, -17.83162], [-50.61662, -17.83133], [-50.61666, -17.83112], [-50.61567, -17.82972], [-50.6156, -17.82903], [-50.61626, -17.82507], [-50.61714, -17.82355], [-50.6183, -17.82306], [-50.61844, -17.82092], [-50.61838, -17.81836], [-50.60995, -17.82158]]]}}, 
{"type": "Feature", "properties": {"CD_SETOR": "521930805000089", "CD_SIT": "1", "NM_DIST": "Santa Helena de Goiás", "NM_SUBDIST": null}, "geometry": {"type": "Polygon", "coordinates": [[[-50.57683, -17.80583], [-50.57623, -17.81085], [-50.57743, -17.8107], [-50.57865, -17.81147], [-50.57944, -17.81113], [-50.579, -17.81051], [-50.58025, -17.81003], [-50.58053, -17.81042], [-50.5844, -17.80906], [-50.5816, -17.80532], [-50.58164, -17.80479], [-50.57701, -17.80429], [-50.57683, -17.80583]]]}}, 
{"type": "Feature", "properties": {"CD_SETOR": "521930805000090", "CD_SIT": "1", "NM_DIST": "Santa Helena de Goiás", "NM_SUBDIST": null}, "geometry": {"type": "Polygon", "coordinates": [[[-50.58053, -17.81042], [-50.58176, -17.81217], [-50.58593, -17.81109], [-50.5844, -17.80906], [-50.58053, -17.81042]]]}}]}