{"type": "FeatureCollection", "features": [
{"type": "Feature", "properties": {"CD_SETOR": "522005805000001", "CD_SIT": "1", "NM_DIST": "São João da Paraúna", "NM_SUBDIST": null}, "geometry": {"type": "Polygon", "coordinates": [[[-50.40361, -16.8172], [-50.40536, -16.81737], [-50.40552, -16.81452], [-50.41001, -16.81477], [-50.41014, -16.81239], [-50.40646, -16.81223], [-50.40367, -16.81598], [-50.40361, -16.8172]]]}}, 
{"type": "Feature", "properties": {"CD_SETOR": "522005805000002", "CD_SIT": "1", "NM_DIST": "São João da Paraúna", "NM_SUBDIST": null}, "geometry": {"type": "Polygon", "coordinates": [[[-50.41014, -16.81239], [-50.40982, -16.81758], [-50.40389, -16.81728], [-50.40255, -16.81697], [-50.40252, -16.81709], [-50.4054, -16.81865], [-50.40603, -16.82375], [-50.40685, -16.8238], [-50.40691, -16.82346], [-50.40954, -16.82205], [-50.40954, -16.8219], [-50.41127, -16.82196], [-50.41139, -16.82067], [-50.4117, -16.82058], [-50.41172, -16.82013], [-50.41825, -16.82192], [-50.41846, -16.82169], [-50.41836, -16.82133], [-50.41867, -16.82137], [-50.41879, -16.82121], [-50.41867, -16.82078], [-50.41845, -16.82058], [-50.41844, -16.82024], [-50.41871, -16.82032], [-50.41871, -16.81975], [-50.41925, -16.81901], [-50.41958, -16.8189], [-50.4194, -16.81852], [-50.41905, -16.8184], [-50.41876, -16.81793], [-50.4191, -16.81694], [-50.41892, -16.81649], [-50.41903, -16.8162], [-50.41877, -16.81612], [-50.41864, -16.81575], [-50.41846, -16.81583], [-50.41842, -16.81631], [-50.41821, -16.81593], [-50.4179, -16.8159], [-50.41802, -16.8156], [-50.41766, -16.81529], [-50.41781, -16.81489], [-50.41775, -16.81448], [-50.41676, -16.81336], [-50.41682, -16.81282], [-50.41607, -16.81277], [-50.416, -16.81257], [-50.41615, -16.81235], [-50.41014, -16.81239]]]}}, 
{"type": "Feature", "properties": {"CD_SETOR": "522005805000003", "CD_SIT": "8", "NM_DIST": "São João da Paraúna", "NM_SUBDIST": null}, "geometry": {"type": "Polygon", "coordinates": [[[-50.28256, -16.80223], [-50.28065, -16.80332], [-50.28071, -16.80427], [-50.28126, -16.80532], [-50.28141, -16.80632], [-50.28212, -16.80849], [-50.28335, -16.81017], [-50.28496, -16.81059], [-50.28515, -16.80941], [-50.28498, -16.808], [-50.28524, -16.80701], [-50.28663, -16.80715], [-50.28757, -16.80788], [-50.28918, -16.80973], [-50.2924, -16.81251], [-50.29298, -16.81501], [-50.29282, -16.81691], [-50.29296, -16.818], [-50.29423, -16.8183], [-50.29524, -16.8183], [-50.29632, -16.8186], [-50.2971, -16.8191], [-50.29824, -16.82064], [-50.29985, -16.82237], [-50.30054, -16.82412], [-50.30021, -16.82512], [-50.29866, -16.82672], [-50.29746, -16.82846], [-50.29649, -16.82842], [-50.29554, -16.82918], [-50.29515, -16.83018], [-50.2953, -16.83114], [-50.29618, -16.83149], [-50.29585, -16.83264], [-50.29504, -16.83349], [-50.2951, -16.83449], [-50.29626, -16.83449], [-50.29707, -16.83508], [-50.29707, -16.83603], [-50.29549, -16.83717], [-50.29526, -16.83834], [-50.29551, -16.83925], [-50.29651, -16.83943], [-50.29776, -16.83939], [-50.29877, -16.83976], [-50.29887, -16.84084], [-50.29809, -16.84161], [-50.29615, -16.84229], [-50.29576, -16.84329], [-50.29593, -16.84446], [-50.29673, -16.84642], [-50.29623, -16.84724], [-50.29776, -16.8486], [-50.29829, -16.84992], [-50.29785, -16.85199], [-50.29896, -16.85223], [-50.29995, -16.85205], [-50.30082, -16.85287], [-50.30135, -16.85491], [-50.30232, -16.85528], [-50.30227, -16.85731], [-50.30207, -16.85822], [-50.30129, -16.86007], [-50.30051, -16.85957], [-50.30018, -16.85835], [-50.29929, -16.85798], [-50.29821, -16.85798], [-50.29729, -16.85832], [-50.29668, -16.86038], [-50.29574, -16.85942], [-50.29574, -16.85843], [-50.29476, -16.85805], [-50.29404, -16.85874], [-50.29393, -16.85988], [-50.29246, -16.86044], [-50.29099, -16.86064], [-50.29024, -16.86141], [-50.29118, -16.8625], [-50.29254, -16.86251], [-50.29293, -16.86351], [-50.2926, -16.8645], [-50.29182, -16.86554], [-50.29163, -16.86658], [-50.29215, -16.86776], [-50.29232, -16.86881], [-50.29215, -16.86976], [-50.29107, -16.8693], [-50.29031, -16.86857], [-50.28927, -16.86893], [-50.28879, -16.8669], [-50.28776, -16.86693], [-50.28644, -16.8702], [-50.28595, -16.87217], [-50.28504, -16.87461], [-50.28446, -16.87543], [-50.28412, -16.87691], [-50.28401, -16.87837], [-50.2844, -16.87942], [-50.28504, -16.88038], [-50.28581, -16.88119], [-50.28746, -16.88229], [-50.28807, -16.88319], [-50.28808, -16.88424], [-50.28726, -16.88491], [-50.28518, -16.88522], [-50.28404, -16.88558], [-50.28381, -16.88653], [-50.28398, -16.88748], [-50.28391, -16.88848], [-50.28454, -16.88976], [-50.28782, -16.89003], [-50.28998, -16.89077], [-50.2921, -16.89091], [-50.29318, -16.89062], [-50.29413, -16.8901], [-50.29643, -16.88929], [-50.29866, -16.88989], [-50.30118, -16.89103], [-50.30435, -16.89194], [-50.30526, -16.89261], [-50.31012, -16.89334], [-50.31154, -16.89337], [-50.31275, -16.89309], [-50.31641, -16.89283], [-50.31838, -16.89234], [-50.31979, -16.89173], [-50.32093, -16.89143], [-50.32193, -16.89035], [-50.32476, -16.88596], [-50.32646, -16.88406], [-50.32759, -16.8832], [-50.32829, -16.88216], [-50.32976, -16.8818], [-50.33076, -16.882], [-50.33274, -16.88276], [-50.33485, -16.88322], [-50.33835, -16.88341], [-50.34324, -16.88401], [-50.34521, -16.88461], [-50.34733, -16.88615], [-50.34818, -16.88751], [-50.34977, -16.88902], [-50.35165, -16.89038], [-50.35345, -16.89142], [-50.35638, -16.89379], [-50.35871, -16.89463], [-50.36443, -16.89422], [-50.36534, -16.89377], [-50.36809, -16.89067], [-50.36929, -16.89026], [-50.37182, -16.89029], [-50.37288, -16.89047], [-50.37471, -16.89138], [-50.37545, -16.89213], [-50.37749, -16.89325], [-50.38076, -16.8939], [-50.38213, -16.89394], [-50.38685, -16.89508], [-50.38784, -16.89508], [-50.38865, -16.89559], [-50.38949, -16.89708], [-50.39057, -16.89849], [-50.3916, -16.90072], [-50.39238, -16.90171], [-50.39285, -16.90262], [-50.39316, -16.90462], [-50.39316, -16.90566], [-50.39351, -16.90675], [-50.39809, -16.91007], [-50.40104, -16.91062], [-50.4063, -16.91072], [-50.41001, -16.91163], [-50.41157, -16.91278], [-50.41232, -16.91368], [-50.41359, -16.9145], [-50.41496, -16.91478], [-50.41707, -16.91573], [-50.41823, -16.91537], [-50.41888, -16.91406], [-50.4194, -16.91175], [-50.41982, -16.91079], [-50.42059, -16.91016], [-50.42179, -16.90833], [-50.42274, -16.908], [-50.42373, -16.90799], [-50.42476, -16.90777], [-50.4259, -16.90699], [-50.42665, -16.90628], [-50.42696, -16.90533], [-50.42693, -16.90292], [-50.42732, -16.9019], [-50.43016, -16.90029], [-50.43129, -16.89992], [-50.43552, -16.89994], [-50.43641, -16.89962], [-50.43957, -16.89664], [-50.44066, -16.89605], [-50.4434, -16.8956], [-50.44452, -16.89494], [-50.43827, -16.89153], [-50.42471, -16.88887], [-50.42364, -16.8884], [-50.42304, -16.88783], [-50.42254, -16.88692], [-50.42153, -16.88198], [-50.41953, -16.87589], [-50.41879, -16.87474], [-50.41422, -16.86907], [-50.41351, -16.86774], [-50.41307, -16.86644], [-50.40968, -16.85235], [-50.40873, -16.8356], [-50.40892, -16.83181], [-50.39903, -16.83219], [-50.39871, -16.83012], [-50.39874, -16.8294], [-50.39898, -16.82873], [-50.39873, -16.82736], [-50.39818, -16.82614], [-50.39797, -16.82474], [-50.39822, -16.82421], [-50.39816, -16.82368], [-50.39786, -16.82325], [-50.39811, -16.82265], [-50.39785, -16.821], [-50.39762, -16.8206], [-50.39773, -16.81975], [-50.39755, -16.81927], [-50.40183, -16.81719], [-50.40208, -16.81685], [-50.3872, -16.80872], [-50.38536, -16.80725], [-50.38447, -16.80608], [-50.38372, -16.80454], [-50.37549, -16.78255], [-50.37441, -16.78056], [-50.36123, -16.76442], [-50.36011, -16.7633], [-50.34435, -16.75364], [-50.34197, -16.75183], [-50.34128, -16.75259], [-50.34022, -16.75278], [-50.33916, -16.75274], [-50.3383, -16.75341], [-50.33737, -16.75449], [-50.33632, -16.75461], [-50.33493, -16.75569], [-50.3337, -16.75521], [-50.33321, -16.75546], [-50.33179, -16.75571], [-50.33099, -16.75638], [-50.33023, -16.75619], [-50.32792, -16.75474], [-50.32654, -16.75506], [-50.32492, -16.75435], [-50.32412, -16.7548], [-50.32365, -16.75463], [-50.32233, -16.75512], [-50.32135, -16.75658], [-50.32014, -16.7568], [-50.31869, -16.75746], [-50.31701, -16.75704], [-50.31577, -16.75798], [-50.31447, -16.75781], [-50.31337, -16.75817], [-50.31182, -16.75812], [-50.31074, -16.75928], [-50.30849, -16.75991], [-50.30747, -16.76005], [-50.30587, -16.76169], [-50.30405, -16.76207], [-50.30342, -16.76154], [-50.30292, -16.76165], [-50.3028, -16.76277], [-50.30211, -16.7631], [-50.30043, -16.76284], [-50.29939, -16.76395], [-50.29861, -16.76415], [-50.29788, -16.76512], [-50.29707, -16.76542], [-50.29632, -16.76712], [-50.29516, -16.76715], [-50.29458, -16.76832], [-50.29299, -16.76806], [-50.29142, -16.76925], [-50.29036, -16.76783], [-50.28929, -16.76855], [-50.28672, -16.76653], [-50.28563, -16.76647], [-50.2851, -16.76689], [-50.28493, -16.76798], [-50.28568, -16.76896], [-50.28558, -16.7699], [-50.28659, -16.77102], [-50.28561, -16.7718], [-50.28595, -16.77283], [-50.2862, -16.77493], [-50.28686, -16.77577], [-50.28587, -16.77752], [-50.28578, -16.77922], [-50.28627, -16.78034], [-50.28617, -16.78212], [-50.28574, -16.78334], [-50.28619, -16.78502], [-50.28668, -16.78533], [-50.28592, -16.78943], [-50.28643, -16.79066], [-50.28657, -16.79244], [-50.28704, -16.79272], [-50.28705, -16.79454], [-50.28752, -16.79529], [-50.28742, -16.79725], [-50.28565, -16.79855], [-50.28529, -16.80075], [-50.28462, -16.80245], [-50.28256, -16.80223]]]}}, 
{"type": "Feature", "properties": {"CD_SETOR": "522005805000004", "CD_SIT": "8", "NM_DIST": "São João da Paraúna", "NM_SUBDIST": null}, "geometry": {"type": "Polygon", "coordinates": [[[-50.34198, -16.75182], [-50.3435, -16.7531], [-50.36011, -16.7633], [-50.36123, -16.76442], [-50.37441, -16.78056], [-50.37549, -16.78255], [-50.38408, -16.8054], [-50.38515, -16.80702], [-50.38641, -16.80821], [-50.39905, -16.81519], [-50.39952, -16.81423], [-50.40017, -16.81426], [-50.40045, -16.81449], [-50.40104, -16.81425], [-50.40375, -16.8126], [-50.40475, -16.81219], [-50.40558, -16.81129], [-50.40647, -16.81073], [-50.40697, -16.80991], [-50.40705, -16.80955], [-50.40683, -16.80922], [-50.40709, -16.80854], [-50.40782, -16.80784], [-50.40805, -16.80729], [-50.40872, -16.80688], [-50.40962, -16.80542], [-50.40972, -16.80501], [-50.40959, -16.80454], [-50.40991, -16.80396], [-50.40987, -16.80339], [-50.40997, -16.80317], [-50.41047, -16.8029], [-50.41066, -16.80217], [-50.41138, -16.80133], [-50.41152, -16.80182], [-50.41129, -16.80249], [-50.41122, -16.80465], [-50.4116, -16.80498], [-50.41162, -16.80579], [-50.41191, -16.80647], [-50.41184, -16.80724], [-50.41154, -16.80748], [-50.41151, -16.80781], [-50.4112, -16.80787], [-50.41113, -16.80804], [-50.41201, -16.80897], [-50.41197, -16.80951], [-50.41312, -16.8111], [-50.41348, -16.81134], [-50.4138, -16.81131], [-50.41413, -16.81177], [-50.4148, -16.81175], [-50.4151, -16.81217], [-50.41613, -16.81226], [-50.416, -16.81268], [-50.41619, -16.81283], [-50.41682, -16.81282], [-50.41676, -16.81336], [-50.41775, -16.81448], [-50.41781, -16.81489], [-50.41766, -16.81529], [-50.41802, -16.8156], [-50.4179, -16.8159], [-50.41821, -16.81593], [-50.41842, -16.81631], [-50.41846, -16.81583], [-50.41864, -16.81575], [-50.41877, -16.81612], [-50.41903, -16.8162], [-50.41892, -16.81649], [-50.4191, -16.81694], [-50.41876, -16.81793], [-50.41905, -16.8184], [-50.4194, -16.81852], [-50.41958, -16.8189], [-50.41925, -16.81901], [-50.41871, -16.81975], [-50.41871, -16.82032], [-50.41844, -16.82024], [-50.41845, -16.82058], [-50.41867, -16.82078], [-50.41879, -16.82121], [-50.41867, -16.82137], [-50.41836, -16.82133], [-50.41846, -16.82169], [-50.41815, -16.82199], [-50.41743, -16.82167], [-50.41172, -16.82013], [-50.4117, -16.82058], [-50.41139, -16.82067], [-50.41127, -16.82196], [-50.40954, -16.8219], [-50.40873, -16.8356], [-50.40971, -16.85262], [-50.41337, -16.8674], [-50.41422, -16.86907], [-50.41879, -16.87474], [-50.41953, -16.87589], [-50.42153, -16.88198], [-50.42262, -16.88713], [-50.42335, -16.88816], [-50.42405, -16.88864], [-50.42471, -16.88887], [-50.43827, -16.89153], [-50.44452, -16.89494], [-50.44546, -16.89439], [-50.44671, -16.89421], [-50.44829, -16.89362], [-50.45038, -16.89195], [-50.45179, -16.89149], [-50.45381, -16.89027], [-50.45496, -16.88864], [-50.45532, -16.88769], [-50.45533, -16.88339], [-50.45502, -16.88025], [-50.45421, -16.87826], [-50.45327, -16.87694], [-50.45121, -16.87571], [-50.45282, -16.86726], [-50.45352, -16.86617], [-50.45455, -16.86513], [-50.45474, -16.86404], [-50.45352, -16.85746], [-50.45376, -16.85493], [-50.45483, -16.85288], [-50.45696, -16.8503], [-50.45846, -16.84759], [-50.4586, -16.84641], [-50.45754, -16.84301], [-50.45701, -16.84224], [-50.45671, -16.84096], [-50.45604, -16.83979], [-50.45227, -16.82994], [-50.45165, -16.82907], [-50.45059, -16.82804], [-50.44965, -16.8264], [-50.44624, -16.82229], [-50.44576, -16.82115], [-50.44507, -16.8168], [-50.44382, -16.81099], [-50.44432, -16.80473], [-50.44538, -16.80125], [-50.44671, -16.7991], [-50.44788, -16.79762], [-50.44918, -16.79716], [-50.44779, -16.79305], [-50.44671, -16.7871], [-50.44624, -16.78592], [-50.44534, -16.78501], [-50.4431, -16.7843], [-50.44162, -16.78428], [-50.44062, -16.7836], [-50.44018, -16.7816], [-50.43969, -16.78056], [-50.43965, -16.77947], [-50.44006, -16.77657], [-50.43993, -16.77541], [-50.43841, -16.77271], [-50.43576, -16.77051], [-50.43429, -16.7686], [-50.43387, -16.76724], [-50.43354, -16.76506], [-50.43304, -16.76384], [-50.4321, -16.76284], [-50.43032, -16.76148], [-50.4298, -16.76061], [-50.42943, -16.75965], [-50.42943, -16.75853], [-50.42888, -16.75403], [-50.42788, -16.75186], [-50.42693, -16.75081], [-50.42618, -16.74936], [-50.4236, -16.74682], [-50.4221, -16.74599], [-50.42096, -16.74508], [-50.41723, -16.74458], [-50.41585, -16.74389], [-50.41506, -16.74272], [-50.41418, -16.73999], [-50.4126, -16.73786], [-50.41129, -16.73677], [-50.40996, -16.73604], [-50.4076, -16.73526], [-50.40676, -16.73481], [-50.4054, -16.73304], [-50.40562, -16.73025], [-50.40618, -16.7282], [-50.40679, -16.72394], [-50.40699, -16.72124], [-50.40604, -16.71909], [-50.40421, -16.71757], [-50.40061, -16.71632], [-50.39799, -16.71622], [-50.39493, -16.71739], [-50.39277, -16.71909], [-50.39154, -16.71929], [-50.38885, -16.71775], [-50.38774, -16.71812], [-50.38632, -16.71831], [-50.38307, -16.71771], [-50.38062, -16.71787], [-50.37968, -16.7182], [-50.37727, -16.71785], [-50.37515, -16.71662], [-50.37387, -16.71467], [-50.37248, -16.71305], [-50.36872, -16.71095], [-50.36782, -16.71017], [-50.36543, -16.70663], [-50.36474, -16.70599], [-50.36307, -16.7039], [-50.36221, -16.70335], [-50.36155, -16.70263], [-50.36112, -16.70072], [-50.36109, -16.69981], [-50.36136, -16.69923], [-50.35872, -16.70022], [-50.35515, -16.70355], [-50.35445, -16.70584], [-50.35473, -16.71215], [-50.35609, -16.71712], [-50.35569, -16.71893], [-50.3546, -16.72036], [-50.3539, -16.72179], [-50.35271, -16.72265], [-50.35162, -16.72398], [-50.35102, -16.72579], [-50.35161, -16.7279], [-50.35259, -16.7301], [-50.35397, -16.73153], [-50.35545, -16.73259], [-50.35713, -16.73336], [-50.3589, -16.7347], [-50.35929, -16.73604], [-50.36018, -16.737], [-50.35988, -16.73862], [-50.36037, -16.73977], [-50.36008, -16.74139], [-50.35879, -16.74183], [-50.3582, -16.74228], [-50.3579, -16.7432], [-50.35743, -16.74393], [-50.35588, -16.74418], [-50.35508, -16.74459], [-50.35432, -16.74513], [-50.35326, -16.74631], [-50.35266, -16.74653], [-50.35071, -16.74809], [-50.34995, -16.74825], [-50.34962, -16.74863], [-50.34896, -16.74891], [-50.34816, -16.74907], [-50.34737, -16.74974], [-50.34575, -16.74983], [-50.34505, -16.75002], [-50.34336, -16.75141], [-50.34198, -16.75182]]]}}, 
{"type": "Feature", "properties": {"CD_SETOR": "522005805000005", "CD_SIT": "1", "NM_DIST": "São João da Paraúna", "NM_SUBDIST": null}, "geometry": {"type": "Polygon", "coordinates": [[[-50.40536, -16.81737], [-50.40982, -16.81758], [-50.41001, -16.81477], [-50.40552, -16.81452], [-50.40536, -16.81737]]]}}, 
{"type": "Feature", "properties": {"CD_SETOR": "522005805000006", "CD_SIT": "2", "NM_DIST": "São João da Paraúna", "NM_SUBDIST": null}, "geometry": {"type": "Polygon", "coordinates": [[[-50.39905, -16.81519], [-50.40208, -16.81685], [-50.40237, -16.81673], [-50.40255, -16.81697], [-50.40361, -16.8172], [-50.40367, -16.81598], [-50.40646, -16.81223], [-50.41121, -16.81244], [-50.41615, -16.81235], [-50.4151, -16.81217], [-50.41471, -16.81172], [-50.41413, -16.81177], [-50.4138, -16.81131], [-50.41348, -16.81134], [-50.41312, -16.8111], [-50.41197, -16.80951], [-50.41201, -16.80897], [-50.41113, -16.80804], [-50.4112, -16.80787], [-50.41151, -16.80781], [-50.41154, -16.80748], [-50.41184, -16.80724], [-50.41191, -16.80647], [-50.41162, -16.80579], [-50.4116, -16.80498], [-50.41122, -16.80465], [-50.41129, -16.80249], [-50.41152, -16.80182], [-50.41138, -16.80133], [-50.41066, -16.80217], [-50.41047, -16.8029], [-50.40997, -16.80317], [-50.40987, -16.80339], [-50.40991, -16.80396], [-50.40959, -16.80454], [-50.40972, -16.80501], [-50.40962, -16.80542], [-50.40872, -16.80688], [-50.40805, -16.80729], [-50.40782, -16.80784], [-50.40709, -16.80854], [-50.40683, -16.80922], [-50.40705, -16.80955], [-50.40697, -16.80991], [-50.40647, -16.81073], [-50.40558, -16.81129], [-50.40475, -16.81219], [-50.40375, -16.8126], [-50.40104, -16.81425], [-50.40045, -16.81449], [-50.40017, -16.81426], [-50.39952, -16.81423], [-50.39905, -16.81519]]]}}, 
{"type": "Feature", "properties": {"CD_SETOR": "522005805000007", "CD_SIT": "2", "NM_DIST": "São João da Paraúna", "NM_SUBDIST": null}, "geometry": {"type": "Polygon", "coordinates": [[[-50.40208, -16.81685], [-50.40183, -16.81719], [-50.39755, -16.81927], [-50.39773, -16.81975], [-50.39762, -16.8206], [-50.39785, -16.821], [-50.39811, -16.82265], [-50.39786, -16.82325], [-50.39816, -16.82368], [-50.39822, -16.82421], [-50.39797, -16.82474], [-50.39818, -16.82614], [-50.39873, -16.82736], [-50.39898, -16.82873], [-50.39874, -16.8294], [-50.39871, -16.83012], [-50.39903, -16.83219], [-50.40892, -16.83181], [-50.40954, -16.82205], [-50.40691, -16.82346], [-50.40685, -16.8238], [-50.40603, -16.82375], [-50.4054, -16.81865], [-50.40252, -16.81709], [-50.40242, -16.81674], [-50.40208, -16.81685]]]}}]}